v 0.0015934689436107874 0.011726570315659046 -0.0013918920885771513
v 0.0015883914893493056 0.017060138285160065 0.0015186431119218469
v 0.0015934689436107874 0.017060112208127975 -0.0013918920885771513
v 0.0015883914893493056 0.011726570315659046 0.001518645673058927
v -0.0013902842765673995 0.011726570315659046 -0.0013970989966765046
v -0.0013953617308288813 0.017060138285160065 0.0015134360874071717
v -0.0013953617308288813 0.011726570315659046 0.001513438648544252
v -0.0013902842765673995 0.017060138285160065 -0.0013971015578135848
v 0.0015883914893493056 0.011726570315659046 0.001518645673058927
v -0.0013953617308288813 0.017060138285160065 0.0015134360874071717
v 0.0015883914893493056 0.017060138285160065 0.0015186431119218469
v -0.0013953617308288813 0.011726570315659046 0.001513438648544252
v 0.0015934689436107874 0.017060112208127975 -0.0013918920885771513
v -0.0013902842765673995 0.011726570315659046 -0.0013970989966765046
v 0.0015934689436107874 0.011726570315659046 -0.0013918920885771513
v -0.0013902842765673995 0.017060138285160065 -0.0013971015578135848
v -0.000997691648080945 0.017703596502542496 -0.0010127868736162782
v 0.0011958192335441709 0.017703572288155556 0.0011343308724462986
v -0.0010014305589720607 0.017703596502542496 0.0011304955696687102
v 0.0011995581444352865 0.017703572288155556 -0.001008951454423368
v -0.0011633581016212702 0.011055553331971169 0.001287889201194048
v 0.0013613891787827015 0.01105552725493908 -0.0011663349578157067
v -0.0011590756475925446 0.01105552725493908 -0.0011707341764122248
v 0.001357086468487978 0.01105552725493908 0.0012922885362058878
v 0.0015883914893493056 0.017060138285160065 0.0015186431119218469
v 0.0011995581444352865 0.017703572288155556 -0.001008951454423368
v 0.0015934689436107874 0.017060112208127975 -0.0013918920885771513
v 0.0011958192335441709 0.017703572288155556 0.0011343308724462986
v 0.0015934689436107874 0.017060112208127975 -0.0013918920885771513
v -0.000997691648080945 0.017703596502542496 -0.0010127868736162782
v -0.0013902842765673995 0.017060138285160065 -0.0013971015578135848
v 0.0011995581444352865 0.017703572288155556 -0.001008951454423368
v -0.0013902842765673995 0.017060138285160065 -0.0013971015578135848
v -0.0010014305589720607 0.017703596502542496 0.0011304955696687102
v -0.0013953617308288813 0.017060138285160065 0.0015134360874071717
v -0.000997691648080945 0.017703596502542496 -0.0010127868736162782
v -0.0013953617308288813 0.017060138285160065 0.0015134360874071717
v 0.0011958192335441709 0.017703572288155556 0.0011343308724462986
v 0.0015883914893493056 0.017060138285160065 0.0015186431119218469
v -0.0010014305589720607 0.017703596502542496 0.0011304955696687102
v 0.0015934689436107874 0.011726570315659046 -0.0013918920885771513
v 0.001357086468487978 0.01105552725493908 0.0012922885362058878
v 0.0015883914893493056 0.011726570315659046 0.001518645673058927
v 0.0013613891787827015 0.01105552725493908 -0.0011663349578157067
v 0.0015883914893493056 0.011726570315659046 0.001518645673058927
v -0.0011633581016212702 0.011055553331971169 0.001287889201194048
v -0.0013953617308288813 0.011726570315659046 0.001513438648544252
v 0.001357086468487978 0.01105552725493908 0.0012922885362058878
v -0.0013953617308288813 0.011726570315659046 0.001513438648544252
v -0.0011590756475925446 0.01105552725493908 -0.0011707341764122248
v -0.0013902842765673995 0.011726570315659046 -0.0013970989966765046
v -0.0011633581016212702 0.011055553331971169 0.001287889201194048
v -0.0013902842765673995 0.011726570315659046 -0.0013970989966765046
v 0.0013613891787827015 0.01105552725493908 -0.0011663349578157067
v 0.0015934689436107874 0.011726570315659046 -0.0013918920885771513
v -0.0011590756475925446 0.01105552725493908 -0.0011707341764122248
v -0.0007518526981584728 0.01834741048514843 2.9911801902926527e-05
v 7.575118070235476e-05 0.020458683371543884 2.9590746635221876e-05
v 5.9162950492464006e-05 0.018348325043916702 0.0008916720398701727
v 6.706946442136541e-05 0.018345657736063004 -0.0008332673460245132
v 0.0008914002683013678 0.01834695227444172 3.3514028473291546e-05
v 7.575118070235476e-05 0.020458683371543884 2.9590746635221876e-05
v -0.0007518526981584728 0.01834741048514843 2.9911801902926527e-05
v 6.706946442136541e-05 0.018345657736063004 -0.0008332673460245132
v 7.575118070235476e-05 0.020458683371543884 2.9590746635221876e-05
v 7.575118070235476e-05 0.020458683371543884 2.9590746635221876e-05
v 0.0008914002683013678 0.01834695227444172 3.3514028473291546e-05
v 5.9162950492464006e-05 0.018348325043916702 0.0008916720398701727
v -0.0007518526981584728 0.01834741048514843 2.9911801902926527e-05
v 6.303873669821769e-05 0.01761162281036377 0.00042384472908452153
v -0.0003072485560551286 0.01761114038527012 3.0320996302179992e-05
v 5.9162950492464006e-05 0.018348325043916702 0.0008916720398701727
v 5.9162950492464006e-05 0.018348325043916702 0.0008916720398701727
v 0.00044299630098976195 0.017610963433980942 3.1997649784898385e-05
v 6.303873669821769e-05 0.01761162281036377 0.00042384472908452153
v 0.0008914002683013678 0.01834695227444172 3.3514028473291546e-05
v 0.0008914002683013678 0.01834695227444172 3.3514028473291546e-05
v 6.662394298473373e-05 0.017610404640436172 -0.00036376609932631254
v 0.00044299630098976195 0.017610963433980942 3.1997649784898385e-05
v 6.706946442136541e-05 0.018345657736063004 -0.0008332673460245132
v 6.706946442136541e-05 0.018345657736063004 -0.0008332673460245132
v -0.0003072485560551286 0.01761114038527012 3.0320996302179992e-05
v 6.662394298473373e-05 0.017610404640436172 -0.00036376609932631254
v -0.0007518526981584728 0.01834741048514843 2.9911801902926527e-05
v 4.9803049478214234e-05 -0.006211442872881889 -0.0009478111169300973
v -0.0009728479199111462 0.005914618726819754 6.029223368386738e-05
v -0.0009728479199111462 -0.006211442872881889 6.02965519647114e-05
v 4.9803049478214234e-05 0.005914618726819754 -0.0009478162392042577
v 4.6276258217403665e-05 -0.006211442872881889 0.001077650929801166
v -0.0009728479199111462 0.005914618726819754 6.029223368386738e-05
v 4.6276258217403665e-05 0.005914618726819754 0.0010776458075270057
v -0.0009728479199111462 -0.006211442872881889 6.02965519647114e-05
v 5.059756222181022e-05 0.005835141986608505 -0.0013975740876048803
v -0.0014513254864141345 0.007646974176168442 5.8715653722174466e-05
v -0.0014513254864141345 0.005835141986608505 5.8716417697723955e-05
v 5.059756222181022e-05 0.0076469494961202145 -0.0013975766487419605
v -0.0014513254864141345 0.005835141986608505 5.8716417697723955e-05
v 4.5442884584190324e-05 0.005835141986608505 0.0015572765842080116
v 5.059756222181022e-05 0.005835141986608505 -0.0013975740876048803
v 4.5442884584190324e-05 0.005835141986608505 0.0015572765842080116
v -0.0014513254864141345 0.007646974176168442 5.8715653722174466e-05
v 4.5442884584190324e-05 0.0076469494961202145 0.0015572765842080116
v -0.0014513254864141345 0.005835141986608505 5.8716417697723955e-05
v 5.059756222181022e-05 0.0076469494961202145 -0.0013975766487419605
v 4.5442884584190324e-05 0.0076469494961202145 0.0015572765842080116
v -0.0014513254864141345 0.007646974176168442 5.8715653722174466e-05
v 4.9803049478214234e-05 0.0075153773650527 -0.0009485121699981391
v -0.0008590762154199183 0.011756847612559795 5.974156010779552e-05
v -0.0008507628226652741 0.0075153773650527 5.975146632408723e-05
v 4.982260725228116e-05 0.011756847612559795 -0.000956845935434103
v 4.6489363739965484e-05 0.0075153773650527 0.0009567037341184914
v -0.0008590762154199183 0.011756847612559795 5.974156010779552e-05
v 4.6470060624415055e-05 0.011756847612559795 0.0009650272550061345
v -0.0008507628226652741 0.0075153773650527 5.975146632408723e-05
v -0.0009306788560934365 0.006746214814484119 -0.0004302455054130405
v -0.0020143138244748116 0.006747306324541569 6.298234802670777e-05
v -0.0014398726634681225 0.006203746888786554 5.496128142112866e-05
v -0.0014389227144420147 0.007291374262422323 5.789092028862797e-05
v -0.0009322689147666097 0.006745706312358379 0.0005528665496967733
v -0.0020143138244748116 0.006747306324541569 6.298234802670777e-05
v -0.0009306788560934365 0.006746214814484119 -0.0004302455054130405
v -0.0014389227144420147 0.007291374262422323 5.789092028862797e-05
v -0.0020143138244748116 0.006747306324541569 6.298234802670777e-05
v -0.0020143138244748116 0.006747306324541569 6.298234802670777e-05
v -0.0009322689147666097 0.006745706312358379 0.0005528665496967733
v -0.0014398726634681225 0.006203746888786554 5.496128142112866e-05
v 6.5461135818623e-05 0.009379763156175613 -0.009918573312461376
v -0.0008489797473885119 0.014677745290100574 -0.009666224010288715
v -0.0007837500306777656 0.010833125561475754 -0.008284489624202251
v 1.8465501852915622e-05 0.014678031206130981 -0.011958342045545578
v 6.919151928741485e-05 0.014583299867808819 -0.01205368246883154
v 5.329123086994514e-05 0.005295976065099239 -0.0029447744600474834
v -0.0005464581190608442 0.008025155402719975 -0.0050516026094555855
v 5.458968007587828e-05 0.008138236589729786 -0.0036876481026411057
v 5.867857544217259e-05 0.006317487917840481 -0.006030519027262926
v -0.0005464581190608442 0.008025155402719975 -0.0050516026094555855
v 5.329123086994514e-05 0.005295976065099239 -0.0029447744600474834
v 5.867857544217259e-05 0.006317487917840481 -0.006030519027262926
v -0.0007837500306777656 0.010833125561475754 -0.008284489624202251
v -0.0005464581190608442 0.008025155402719975 -0.0050516026094555855
v -0.0007837500306777656 0.010833125561475754 -0.008284489624202251
v 5.867857544217259e-05 0.006317487917840481 -0.006030519027262926
v 6.5461135818623e-05 0.009379763156175613 -0.009918573312461376
v -0.0006897827261127532 0.018246116116642952 -0.004516449756920338
v 5.458968007587828e-05 0.020809458568692207 -0.0036878767423331738
v 5.3310788644012064e-05 0.017811672762036324 -0.0029501591343432665
v -0.0005243516061455011 0.021568510681390762 -0.005023602396249771
v -0.0005382325034588575 0.021546676754951477 -0.005045574624091387
v 5.329123086994514e-05 0.011097056791186333 -0.002939414931461215
v -0.0005464581190608442 0.008025155402719975 -0.0050516026094555855
v -0.000688873406033963 0.010888091288506985 -0.00450969347730279
v -0.0005464581190608442 0.008025155402719975 -0.0050516026094555855
v 5.329123086994514e-05 0.011097056791186333 -0.002939414931461215
v 5.458968007587828e-05 0.008138236589729786 -0.0036876481026411057
v 5.3310788644012064e-05 0.017811672762036324 -0.0029501591343432665
v -0.0013174014165997505 0.01561012864112854 -0.001219906029291451
v -0.000681741104926914 0.01636890321969986 -0.0034647632855921984
v -0.0013174014165997505 0.01561012864112854 -0.001219906029291451
v 5.3310788644012064e-05 0.017811672762036324 -0.0029501591343432665
v 3.935805943910964e-05 0.016927145421504974 -0.0012175414012745023
v 3.935805943910964e-05 0.011856110766530037 -0.001217538840137422
v -0.0007739837164990604 0.012198477052152157 -0.00346852233633399
v -0.00132728461176157 0.013092481531202793 -0.0012199212796986103
v -0.0007739837164990604 0.012198477052152157 -0.00346852233633399
v 3.935805943910964e-05 0.011856110766530037 -0.001217538840137422
v 5.329123086994514e-05 0.011097056791186333 -0.002939414931461215
v -0.0007739837164990604 0.012198477052152157 -0.00346852233633399
v -0.0013174014165997505 0.01561012864112854 -0.001219906029291451
v -0.00132728461176157 0.013092481531202793 -0.0012199212796986103
v -0.0013174014165997505 0.01561012864112854 -0.001219906029291451
v -0.0007739837164990604 0.012198477052152157 -0.00346852233633399
v -0.000681741104926914 0.01636890321969986 -0.0034647632855921984
v 5.458968007587828e-05 0.020809458568692207 -0.0036878767423331738
v -0.0005243516061455011 0.021568510681390762 -0.005023602396249771
v 5.349219645722769e-05 0.02352473884820938 -0.00305480626411736
v -0.00032397190807387233 0.01228615827858448 0.004265625029802322
v 3.722649489645846e-05 0.01466438453644514 0.006264579948037863
v 3.862171433866024e-05 0.011235969141125679 0.005457444116473198
v 3.722649489645846e-05 0.01466438453644514 0.006264579948037863
v -0.00032397190807387233 0.01228615827858448 0.004265625029802322
v -0.0005883935373276472 0.014665350317955017 0.004773498047143221
v -0.00035373817081563175 0.01671929657459259 0.004257751163095236
v 3.722649489645846e-05 0.01466438453644514 0.006264579948037863
v -0.0005883935373276472 0.014665350317955017 0.004773498047143221
v 3.722649489645846e-05 0.01466438453644514 0.006264579948037863
v -0.00035373817081563175 0.01671929657459259 0.004257751163095236
v 3.862171433866024e-05 0.018311597406864166 0.005457520019263029
v -0.000828921387437731 0.01607482135295868 0.002482667099684477
v 4.3001185986213386e-05 0.01767210103571415 0.0029533596243709326
v -0.00035373817081563175 0.01671929657459259 0.004257751163095236
v 4.3001185986213386e-05 0.017672277987003326 0.002952191047370434
v 4.3001185986213386e-05 0.011523116379976273 0.0029546041041612625
v -0.0010366425849497318 0.012905765324831009 0.002484620315954089
v -0.00032397190807387233 0.01228615827858448 0.004265625029802322
v 4.3001185986213386e-05 0.011522862128913403 0.0029533596243709326
v -0.000828921387437731 0.01607482135295868 0.002482667099684477
v 4.5888653403380886e-05 0.016988737508654594 0.0012931394157931209
v 4.3001185986213386e-05 0.017672277987003326 0.002952191047370434
v 4.5888653403380886e-05 0.016988737508654594 0.0012931394157931209
v -0.000828921387437731 0.01607482135295868 0.002482667099684477
v -0.0008257260196842253 0.015745941549539566 0.0012916178675368428
v -0.0010366425849497318 0.012905765324831009 0.002484620315954089
v 4.5888653403380886e-05 0.011855830438435078 0.0012931394157931209
v -0.001034569926559925 0.013003351166844368 0.0012912547681480646
v 4.5888653403380886e-05 0.011855830438435078 0.0012931394157931209
v -0.0010366425849497318 0.012905765324831009 0.002484620315954089
v 4.3001185986213386e-05 0.011522862128913403 0.0029533596243709326
v -0.0010366425849497318 0.012905765324831009 0.002484620315954089
v -0.0008257260196842253 0.015745941549539566 0.0012916178675368428
v -0.000828921387437731 0.01607482135295868 0.002482667099684477
v -0.0008257260196842253 0.015745941549539566 0.0012916178675368428
v -0.0010366425849497318 0.012905765324831009 0.002484620315954089
v -0.001034569926559925 0.013003351166844368 0.0012912547681480646
v -0.0010366425849497318 0.012905765324831009 0.002484620315954089
v -0.0005883935373276472 0.014665350317955017 0.004773498047143221
v -0.00032397190807387233 0.01228615827858448 0.004265625029802322
v -0.000828921387437731 0.01607482135295868 0.002482667099684477
v -0.00035373817081563175 0.01671929657459259 0.004257751163095236
v -0.0005883935373276472 0.014665350317955017 0.004773498047143221
v -0.0010366425849497318 0.012905765324831009 0.002484620315954089
v -0.000828921387437731 0.01607482135295868 0.002482667099684477
v -0.0005883935373276472 0.014665350317955017 0.004773498047143221
v -0.0008489797473885119 0.014677745290100574 -0.009666224010288715
v -0.0007739837164990604 0.012198477052152157 -0.00346852233633399
v -0.0007837500306777656 0.010833125561475754 -0.008284489624202251
v -0.000681741104926914 0.01636890321969986 -0.0034647632855921984
v -0.000688873406033963 0.010888091288506985 -0.00450969347730279
v -0.0005464581190608442 0.008025155402719975 -0.0050516026094555855
v -0.0007837500306777656 0.010833125561475754 -0.008284489624202251
v -0.0007739837164990604 0.012198477052152157 -0.00346852233633399
v -0.0007121757371351123 0.01815645955502987 -0.00845757033675909
v -0.0006922062020748854 0.01854686811566353 -0.008064654655754566
v -0.0008489797473885119 0.014677745290100574 -0.009666224010288715
v -0.0006897827261127532 0.018246116116642952 -0.004516449756920338
v -0.0006924803019501269 0.01861981861293316 -0.007991235703229904
v -0.0004486147954594344 0.006746214814484119 0.0010219765827059746
v 4.447413084562868e-05 0.006747306324541569 0.0021056218538433313
v 3.65869200322777e-05 0.006203746888786554 0.00153117545414716
v -0.0004486147954594344 0.006746214814484119 0.0010219765827059746
v 4.5481749111786485e-05 0.007291374262422323 0.0015302356332540512
v 4.447413084562868e-05 0.006747306324541569 0.0021056218538433313
v -0.0006897827261127532 0.018246116116642952 -0.004516449756920338
v 5.3310788644012064e-05 0.017811672762036324 -0.0029501591343432665
v -0.000681741104926914 0.01636890321969986 -0.0034647632855921984
v 5.329123086994514e-05 0.011097056791186333 -0.002939414931461215
v -0.000688873406033963 0.010888091288506985 -0.00450969347730279
v -0.0007739837164990604 0.012198477052152157 -0.00346852233633399
v 4.232300125295296e-05 0.00916195847094059 0.003337052185088396
v 4.3001185986213386e-05 0.011523116379976273 0.0029546041041612625
v -0.00032397190807387233 0.01228615827858448 0.004265625029802322
v 4.23423080064822e-05 0.019986752420663834 0.003326485399156809
v 3.862171433866024e-05 0.018311597406864166 0.005457520019263029
v -0.00035373817081563175 0.01671929657459259 0.004257751163095236
v 3.862171433866024e-05 0.011235969141125679 0.005457444116473198
v 4.232300125295296e-05 0.00916195847094059 0.003337052185088396
v -0.00032397190807387233 0.01228615827858448 0.004265625029802322
v 4.3001185986213386e-05 0.01767210103571415 0.0029533596243709326
v 4.23423080064822e-05 0.019986752420663834 0.003326485399156809
v -0.00035373817081563175 0.01671929657459259 0.004257751163095236
v 5.15858773724176e-05 0.006747306324541569 -0.001963074551895261
v 5.055895235273056e-05 0.007283017970621586 -0.0013831747928634286
v -0.00043683426338247955 0.006745706312358379 -0.0008842679089866579
v 5.055895235273056e-05 0.006215176545083523 -0.0013811631361022592
v 5.15858773724176e-05 0.006747306324541569 -0.001963074551895261
v -0.00043683426338247955 0.006745706312358379 -0.0008842679089866579
v 4.9803049478214234e-05 -0.006211442872881889 -0.0009478111169300973
v 0.0010689463233575225 0.005914618726819754 6.385560118360445e-05
v 4.9803049478214234e-05 0.005914618726819754 -0.0009478162392042577
v 0.0010689463233575225 -0.006211442872881889 6.386017048498616e-05
v 4.6276258217403665e-05 -0.006211442872881889 0.001077650929801166
v 0.0010689463233575225 0.005914618726819754 6.385560118360445e-05
v 0.0010689463233575225 -0.006211442872881889 6.386017048498616e-05
v 4.6276258217403665e-05 0.005914618726819754 0.0010776458075270057
v 5.059756222181022e-05 0.005835141986608505 -0.0013975740876048803
v 0.0015474238898605108 0.007646974176168442 6.394932279363275e-05
v 5.059756222181022e-05 0.0076469494961202145 -0.0013975766487419605
v 0.0015474238898605108 0.005835141986608505 6.395008676918224e-05
v 0.0015474238898605108 0.005835141986608505 6.395008676918224e-05
v 5.059756222181022e-05 0.005835141986608505 -0.0013975740876048803
v 4.5442884584190324e-05 0.005835141986608505 0.0015572765842080116
v 4.5442884584190324e-05 0.005835141986608505 0.0015572765842080116
v 0.0015474238898605108 0.007646974176168442 6.394932279363275e-05
v 0.0015474238898605108 0.005835141986608505 6.395008676918224e-05
v 4.5442884584190324e-05 0.0076469494961202145 0.0015572765842080116
v 5.059756222181022e-05 0.0076469494961202145 -0.0013975766487419605
v 0.0015474238898605108 0.007646974176168442 6.394932279363275e-05
v 4.5442884584190324e-05 0.0076469494961202145 0.0015572765842080116
v 4.9803049478214234e-05 0.0075153773650527 -0.0009485121699981391
v 0.0009551746188662946 0.011756847612559795 6.29079295322299e-05
v 4.982260725228116e-05 0.011756847612559795 -0.000956845935434103
v 0.0009468408534303308 0.0075153773650527 6.288861914072186e-05
v 4.6489363739965484e-05 0.0075153773650527 0.0009567037341184914
v 0.0009551746188662946 0.011756847612559795 6.29079295322299e-05
v 0.0009468408534303308 0.0075153773650527 6.288861914072186e-05
v 4.6470060624415055e-05 0.011756847612559795 0.0009650272550061345
v 0.0010284840827807784 0.006746214814484119 -0.000426826678449288
v 0.001535970950499177 0.006203746888786554 6.015481994836591e-05
v 0.002110394649207592 0.006747306324541569 7.01812095940113e-05
v 0.0015350235626101494 0.007291374262422323 6.308114825515077e-05
v 0.002110394649207592 0.006747306324541569 7.01812095940113e-05
v 0.00102664262522012 0.006745706312358379 0.0005562853766605258
v 0.0010284840827807784 0.006746214814484119 -0.000426826678449288
v 0.002110394649207592 0.006747306324541569 7.01812095940113e-05
v 0.0015350235626101494 0.007291374262422323 6.308114825515077e-05
v 0.002110394649207592 0.006747306324541569 7.01812095940113e-05
v 0.001535970950499177 0.006203746888786554 6.015481994836591e-05
v 0.00102664262522012 0.006745706312358379 0.0005562853766605258
v 6.919152656337246e-05 0.014583299867808819 -0.01205368246883154
v 6.5461135818623e-05 0.009379763156175613 -0.009918573312461376
v 0.0009790302719920874 0.014677745290100574 -0.009663023985922337
v 0.0001195186996483244 0.01467803306877613 -0.011958342045545578
v 0.0009089745581150055 0.010833125561475754 -0.008281542919576168
v 5.329123086994514e-05 0.005295976065099239 -0.0029447744600474834
v 5.458968007587828e-05 0.008138236589729786 -0.0036876481026411057
v 0.0006604050868190825 0.008025155402719975 -0.005049494560807943
v 5.867857544217259e-05 0.006317487917840481 -0.006030519027262926
v 5.329123086994514e-05 0.005295976065099239 -0.0029447744600474834
v 0.0006604050868190825 0.008025155402719975 -0.005049494560807943
v 5.867857544217259e-05 0.006317487917840481 -0.006030519027262926
v 0.0009089745581150055 0.010833125561475754 -0.008281542919576168
v 6.5461135818623e-05 0.009379763156175613 -0.009918573312461376
v 0.0009089745581150055 0.010833125561475754 -0.008281542919576168
v 5.867857544217259e-05 0.006317487917840481 -0.006030519027262926
v 0.0006604050868190825 0.008025155402719975 -0.005049494560807943
v 0.0006520570022985339 0.021548466756939888 -0.005043772980570793
v 0.0008018500520847738 0.018246116116642952 -0.004513833671808243
v 5.458968007587828e-05 0.020809458568692207 -0.0036878767423331738
v 0.0006387478788383305 0.021569248288869858 -0.005022858269512653
v 5.3310788644012064e-05 0.017811672762036324 -0.0029501591343432665
v 5.329123086994514e-05 0.011097056791186333 -0.002939414931461215
v 0.0006604050868190825 0.008025155402719975 -0.005049494560807943
v 5.458968007587828e-05 0.008138236589729786 -0.0036876481026411057
v 0.0006604050868190825 0.008025155402719975 -0.005049494560807943
v 5.329123086994514e-05 0.011097056791186333 -0.002939414931461215
v 0.000800900103058666 0.010888091288506985 -0.004507103003561497
v 5.3310788644012064e-05 0.017811672762036324 -0.0029501591343432665
v 0.0014179549179971218 0.01561012864112854 -0.0012151309056207538
v 6.119773752288893e-05 0.016927145421504974 -0.001217503217048943
v 0.0014179549179971218 0.01561012864112854 -0.0012151309056207538
v 5.3310788644012064e-05 0.017811672762036324 -0.0029501591343432665
v 0.0007901254575699568 0.01636890321969986 -0.0034621977247297764
v 6.119773752288893e-05 0.011856110766530037 -0.0012175007723271847
v 0.0008824061369523406 0.012198477052152157 -0.003465652232989669
v 5.329123086994514e-05 0.011097056791186333 -0.002939414931461215
v 0.0008824061369523406 0.012198477052152157 -0.003465652232989669
v 6.119773752288893e-05 0.011856110766530037 -0.0012175007723271847
v 0.0014278381131589413 0.013092481531202793 -0.001215113210491836
v 0.0008824061369523406 0.012198477052152157 -0.003465652232989669
v 0.0014179549179971218 0.01561012864112854 -0.0012151309056207538
v 0.0007901254575699568 0.01636890321969986 -0.0034621977247297764
v 0.0014179549179971218 0.01561012864112854 -0.0012151309056207538
v 0.0008824061369523406 0.012198477052152157 -0.003465652232989669
v 0.0014278381131589413 0.013092481531202793 -0.001215113210491836
v 5.458968007587828e-05 0.020809458568692207 -0.0036878767423331738
v 5.349219645722769e-05 0.02352474071085453 -0.0030548064969480038
v 0.0006387478788383305 0.021569248288869858 -0.005022858269512653
v 0.0004054018063470721 0.01228615827858448 0.004266895353794098
v 3.722649489645846e-05 0.01466438453644514 0.006264579948037863
v 0.0006680403021164238 0.014665350317955017 0.004775708075612783
v 3.722649489645846e-05 0.01466438453644514 0.006264579948037863
v 0.0004054018063470721 0.01228615827858448 0.004266895353794098
v 3.862171433866024e-05 0.011235969141125679 0.005457444116473198
v 0.0004351680399850011 0.01671929657459259 0.004259123001247644
v 3.722649489645846e-05 0.01466438453644514 0.006264579948037863
v 3.862171433866024e-05 0.018311597406864166 0.005457520019263029
v 3.722649489645846e-05 0.01466438453644514 0.006264579948037863
v 0.0004351680399850011 0.01671929657459259 0.004259123001247644
v 0.0006680403021164238 0.014665350317955017 0.004775708075612783
v 0.0009165717056021094 0.01607482135295868 0.0024857125245034695
v 4.3001185986213386e-05 0.01767210103571415 0.0029533596243709326
v 4.3001185986213386e-05 0.017672277987003326 0.002952191047370434
v 0.0004351680399850011 0.01671929657459259 0.004259123001247644
v 4.3001185986213386e-05 0.011523116379976273 0.0029546041041612625
v 0.0011242725886404514 0.012905765324831009 0.002488392172381282
v 4.3001185986213386e-05 0.011522862128913403 0.0029533596243709326
v 0.0004054018063470721 0.01228615827858448 0.004266895353794098
v 0.0009165717056021094 0.01607482135295868 0.0024857125245034695
v 4.5888653403380886e-05 0.016988737508654594 0.0012931394157931209
v 0.0009175216546282172 0.015745941549539566 0.001294660847634077
v 4.5888653403380886e-05 0.016988737508654594 0.0012931394157931209
v 0.0009165717056021094 0.01607482135295868 0.0024857125245034695
v 4.3001185986213386e-05 0.017672277987003326 0.002952191047370434
v 0.0011242725886404514 0.012905765324831009 0.002488392172381282
v 4.5888653403380886e-05 0.011855830438435078 0.0012931394157931209
v 4.3001185986213386e-05 0.011522862128913403 0.0029533596243709326
v 4.5888653403380886e-05 0.011855830438435078 0.0012931394157931209
v 0.0011242725886404514 0.012905765324831009 0.002488392172381282
v 0.001126365503296256 0.013003351166844368 0.0012950240634381771
v 0.0011242725886404514 0.012905765324831009 0.002488392172381282
v 0.0009175216546282172 0.015745941549539566 0.001294660847634077
v 0.001126365503296256 0.013003351166844368 0.0012950240634381771
v 0.0009175216546282172 0.015745941549539566 0.001294660847634077
v 0.0011242725886404514 0.012905765324831009 0.002488392172381282
v 0.0009165717056021094 0.01607482135295868 0.0024857125245034695
v 0.0011242725886404514 0.012905765324831009 0.002488392172381282
v 0.0004054018063470721 0.01228615827858448 0.004266895353794098
v 0.0006680403021164238 0.014665350317955017 0.004775708075612783
v 0.0009165717056021094 0.01607482135295868 0.0024857125245034695
v 0.0006680403021164238 0.014665350317955017 0.004775708075612783
v 0.0004351680399850011 0.01671929657459259 0.004259123001247644
v 0.0011242725886404514 0.012905765324831009 0.002488392172381282
v 0.0006680403021164238 0.014665350317955017 0.004775708075612783
v 0.0009165717056021094 0.01607482135295868 0.0024857125245034695
v 0.0009790302719920874 0.014677745290100574 -0.009663023985922337
v 0.0009089745581150055 0.010833125561475754 -0.008281542919576168
v 0.0008824061369523406 0.012198477052152157 -0.003465652232989669
v 0.0007901254575699568 0.01636890321969986 -0.0034621977247297764
v 0.0006604050868190825 0.008025155402719975 -0.005049494560807943
v 0.000800900103058666 0.010888091288506985 -0.004507103003561497
v 0.0008824061369523406 0.012198477052152157 -0.003465652232989669
v 0.0009089745581150055 0.010833125561475754 -0.008281542919576168
v 0.0008166717016138136 0.01854771375656128 -0.008063802495598793
v 0.0009790302719920874 0.014677745290100574 -0.009663023985922337
v 0.0008378368220292032 0.01816057413816452 -0.00845342967659235
v 0.0008166898624040186 0.018620073795318604 -0.00799097865819931
v 0.0008018500520847738 0.018246116116642952 -0.004513833671808243
v 0.0005413629114627838 0.006746214814484119 0.0010237038368359208
v 5.437657455331646e-05 0.006203746888786554 0.0015312059549614787
v 4.447413084562868e-05 0.006747306324541569 0.0021056218538433313
v 0.0005413629114627838 0.006746214814484119 0.0010237038368359208
v 4.447413084562868e-05 0.006747306324541569 0.0021056218538433313
v 4.5481749111786485e-05 0.007291374262422323 0.0015302356332540512
v 0.0008018500520847738 0.018246116116642952 -0.004513833671808243
v 0.0007901254575699568 0.01636890321969986 -0.0034621977247297764
v 5.3310788644012064e-05 0.017811672762036324 -0.0029501591343432665
v 5.329123086994514e-05 0.011097056791186333 -0.002939414931461215
v 0.0008824061369523406 0.012198477052152157 -0.003465652232989669
v 0.000800900103058666 0.010888091288506985 -0.004507103003561497
v 4.232300125295296e-05 0.00916195847094059 0.003337052185088396
v 0.0004054018063470721 0.01228615827858448 0.004266895353794098
v 4.3001185986213386e-05 0.011523116379976273 0.0029546041041612625
v 4.23423080064822e-05 0.019986752420663834 0.003326485399156809
v 0.0004351680399850011 0.01671929657459259 0.004259123001247644
v 3.862171433866024e-05 0.018311597406864166 0.005457520019263029
v 3.862171433866024e-05 0.011235969141125679 0.005457444116473198
v 0.0004054018063470721 0.01228615827858448 0.004266895353794098
v 4.232300125295296e-05 0.00916195847094059 0.003337052185088396
v 4.3001185986213386e-05 0.01767210103571415 0.0029533596243709326
v 0.0004351680399850011 0.01671929657459259 0.004259123001247644
v 4.23423080064822e-05 0.019986752420663834 0.003326485399156809
v 5.15858773724176e-05 0.006747306324541569 -0.001963074551895261
v 0.0005362270167097449 0.006745706312358379 -0.0008825712720863521
v 5.055895235273056e-05 0.007283017970621586 -0.0013831747928634286
v 5.055895235273056e-05 0.006215176545083523 -0.0013811631361022592
v 0.0005362270167097449 0.006745706312358379 -0.0008825712720863521
v 5.15858773724176e-05 0.006747306324541569 -0.001963074551895261
v -0.0006924803019501269 0.01861981861293316 -0.007991236634552479
v -0.0005382325616665184 0.021546678617596626 -0.005045575089752674
v -0.0006897827261127532 0.018246116116642952 -0.004516449756920338
v 1.8465478206053376e-05 0.01467803306877613 -0.011958342045545578
v -0.0007121757371351123 0.01815645955502987 -0.00845757033675909
v -0.0008489797473885119 0.014677745290100574 -0.009666224010288715
v 0.0006520570022985339 0.021548466756939888 -0.0050437734462320805
v 0.0008166898624040186 0.018620071932673454 -0.00799097865819931
v 0.0008018500520847738 0.018246116116642952 -0.004513833671808243
v 0.0008378368220292032 0.01816057600080967 -0.008453430607914925
v 0.00011951869237236679 0.01467803306877613 -0.011958342045545578
v 0.0009790302719920874 0.014677745290100574 -0.009663023985922337
vn 0.9999984502792358 0.0 0.001744499895721674
vn 0.9999984502792358 0.0 0.001744499895721674
vn 0.9999984502792358 0.0 0.001744499895721674
vn 0.9999984502792358 0.0 0.0017444983823224902
vn -0.9999984502792358 0.0 -0.0017444986151531339
vn -0.9999984502792358 0.0 -0.0017444983823224902
vn -0.9999984502792358 0.0 -0.0017444983823224902
vn -0.9999984502792358 0.0 -0.0017444983823224902
vn -0.0017451060703024268 4.790039156432613e-07 0.9999984502792358
vn -0.0017451064195483923 4.790039724866801e-07 0.9999984502792358
vn -0.0017451063031330705 4.790039724866801e-07 0.9999984502792358
vn -0.0017451063031330705 4.790039724866801e-07 0.9999984502792358
vn 0.0017451064195483923 0.0 -0.9999984502792358
vn 0.0017451064195483923 0.0 -0.9999984502792358
vn 0.0017451064195483923 0.0 -0.9999984502792358
vn 0.0017459625378251076 -4.790039724866801e-07 -0.9999984502792358
vn 1.1024351806554478e-05 1.0 0.0
vn 1.1024351806554478e-05 1.0 0.0
vn 1.102435271604918e-05 1.0 0.0
vn 1.1024351806554478e-05 1.0 0.0
vn -0.0 -1.0 1.0468137588759419e-05
vn -0.0 -1.0 1.0468137588759419e-05
vn -0.0 -1.0 1.0468136679264717e-05
vn -1.02113763205125e-05 -1.0 0.0
vn 0.8532693386077881 0.5214683413505554 0.0014839194482192397
vn 0.8532693386077881 0.5214683413505554 0.0014839194482192397
vn 0.8532693386077881 0.5214683413505554 0.0014839194482192397
vn 0.8532612919807434 0.5214815735816956 0.0014884956181049347
vn 0.0015040788566693664 0.5120909214019775 -0.8589299321174622
vn 0.0015040788566693664 0.5120909214019775 -0.8589299321174622
vn 0.0015040788566693664 0.5120909214019775 -0.8589299321174622
vn 0.0015049534849822521 0.5120935440063477 -0.858928382396698
vn -0.8532580733299255 0.5214868783950806 -0.001488509471528232
vn -0.8532580137252808 0.5214868783950806 -0.001488509587943554
vn -0.8532580137252808 0.5214868783950806 -0.001488509587943554
vn -0.8532580733299255 0.5214868187904358 -0.0014884897973388433
vn -0.0014989117626100779 0.5121049880981445 0.8589215874671936
vn -0.0014989117626100779 0.5121049880981445 0.8589215874671936
vn -0.0014989118790253997 0.5121049880981445 0.8589215874671936
vn -0.001493629883043468 0.5120892524719238 0.8589310050010681
vn 0.9452388286590576 -0.32637515664100647 0.0016489704139530659
vn 0.9452388286590576 -0.32637515664100647 0.0016489704139530659
vn 0.9452388286590576 -0.32637515664100647 0.0016489704139530659
vn 0.9452453255653381 -0.3263563811779022 0.0016542455414310098
vn -0.0016538583440706134 -0.3191263973712921 0.9477106928825378
vn -0.0016538583440706134 -0.3191263973712921 0.9477106928825378
vn -0.0016538583440706134 -0.3191263973712921 0.9477106928825378
vn -0.0016574360197409987 -0.3191133439540863 0.947715163230896
vn -0.9452807903289795 -0.32625383138656616 -0.0016490432899445295
vn -0.9452807903289795 -0.32625389099121094 -0.0016490437556058168
vn -0.9452807903289795 -0.32625383138656616 -0.0016490435227751732
vn -0.9452734589576721 -0.326275110244751 -0.0016430940013378859
vn 0.0016538591589778662 -0.31912532448768616 -0.9477111101150513
vn 0.0016538589261472225 -0.31912532448768616 -0.9477111101150513
vn 0.0016538591589778662 -0.31912535429000854 -0.9477111101150513
vn 0.0016541575314477086 -0.3191242814064026 -0.9477114081382751
vn -0.7003657817840576 0.27463850378990173 0.658833384513855
vn -0.7003657817840576 0.27463847398757935 0.6588334441184998
vn -0.7003657817840576 0.27463850378990173 0.6588334441184998
vn 0.6978577375411987 0.2683115005493164 -0.6640809178352356
vn 0.6978577375411987 0.2683115005493164 -0.6640809178352356
vn 0.6978577375411987 0.2683115005493164 -0.6640809178352356
vn -0.6975564956665039 0.27333635091781616 -0.6623459458351135
vn -0.6975564956665039 0.2733363211154938 -0.6623459458351135
vn -0.6975564956665039 0.27333635091781616 -0.6623459458351135
vn 0.691734254360199 0.2684256434440613 0.6704113483428955
vn 0.691734254360199 0.2684256434440613 0.6704113483428955
vn 0.691734254360199 0.2684256434440613 0.6704113483428955
vn -0.6665478944778442 -0.4021531641483307 0.6276836395263672
vn -0.666547954082489 -0.4021531045436859 0.6276836395263672
vn -0.6665478944778442 -0.4021531343460083 0.6276836395263672
vn -0.6665365099906921 -0.4021240770816803 0.6277143359184265
vn 0.6571353077888489 -0.40161120891571045 0.6378727555274963
vn 0.6571352481842041 -0.40161120891571045 0.6378728151321411
vn 0.6571352481842041 -0.40161120891571045 0.6378728151321411
vn 0.6570947170257568 -0.4016513526439667 0.6378892064094543
vn 0.6634917855262756 -0.4029357135295868 -0.6304137110710144
vn 0.6634918451309204 -0.4029357135295868 -0.6304135918617249
vn 0.6634917855262756 -0.4029357135295868 -0.6304137110710144
vn 0.663496732711792 -0.40294840931892395 -0.6304003596305847
vn -0.6647061109542847 -0.4017985463142395 -0.629859983921051
vn -0.6647061109542847 -0.4017986059188843 -0.629859983921051
vn -0.6647061109542847 -0.4017986059188843 -0.6298600435256958
vn -0.6647427678108215 -0.4017620086669922 -0.6298447847366333
vn -0.7020248174667358 -2.544809944993176e-07 -0.7121524810791016
vn -0.7020248174667358 -2.5448093765589874e-07 -0.7121524810791016
vn -0.7020248174667358 -2.544809944993176e-07 -0.7121524810791016
vn -0.7020251154899597 -2.9761324071841955e-07 -0.7121521234512329
vn -0.7064916491508484 2.9821543989783095e-07 0.7077213525772095
vn -0.7064917087554932 2.982154114761215e-07 0.7077212929725647
vn -0.7064917087554932 2.982154114761215e-07 0.7077212929725647
vn -0.7064919471740723 0.0 0.7077209949493408
vn -0.6961162686347961 -3.1703945069239126e-07 -0.717928946018219
vn -0.6961163282394409 -3.170394222706818e-07 -0.717928946018219
vn -0.6961162686347961 -3.1703945069239126e-07 -0.717928946018219
vn -0.6961167454719543 -9.907613502946333e-07 -0.7179285883903503
vn -0.0 -1.0 0.0
vn -0.0 -1.0 0.0
vn -0.0 -1.0 0.0
vn -0.7075298428535461 0.0 0.7066835165023804
vn -0.7075299024581909 0.0 0.7066833972930908
vn -0.7075298428535461 0.0 0.7066834568977356
vn -0.707529604434967 2.975572783725511e-07 0.7066838145256042
vn 1.6660394976497628e-05 1.0 0.0
vn 1.6660394976497628e-05 1.0 0.0
vn 1.6660394976497628e-05 1.0 0.0
vn -0.7458153963088989 -0.0014633929822593927 -0.6661509871482849
vn -0.7458153963088989 -0.0014633929822593927 -0.6661509871482849
vn -0.7458153963088989 -0.0014633932150900364 -0.6661511063575745
vn -0.745488166809082 -0.001306168152950704 -0.6665174961090088
vn -0.7070043683052063 -0.0013910576235502958 0.7072078585624695
vn -0.7070043683052063 -0.0013910576235502958 0.7072078585624695
vn -0.7070043683052063 -0.0013910576235502958 0.7072078585624695
vn -0.7069879770278931 -0.0013840689789503813 0.7072243094444275
vn -0.381623238325119 -0.3909449279308319 -0.837571382522583
vn -0.38162320852279663 -0.39094486832618713 -0.837571382522583
vn -0.3816232681274414 -0.3909449279308319 -0.837571382522583
vn -0.37643641233444214 0.4059019386768341 0.8327900171279907
vn -0.37643641233444214 0.4059019386768341 0.8327900171279907
vn -0.37643641233444214 0.4059019386768341 0.8327900171279907
vn -0.38035279512405396 0.3944222331047058 -0.8365182876586914
vn -0.38035279512405396 0.3944222331047058 -0.8365182876586914
vn -0.38035279512405396 0.3944222331047058 -0.8365182280540466
vn -0.3766302764415741 -0.41028404235839844 0.8305519819259644
vn -0.3766302764415741 -0.4102841019630432 0.8305519819259644
vn -0.3766302764415741 -0.4102840721607208 0.8305520415306091
vn -0.9244827628135681 -0.14272987842559814 -0.3534964919090271
vn -0.9244827628135681 -0.14272987842559814 -0.3534964621067047
vn -0.9244827628135681 -0.14272987842559814 -0.3534964621067047
vn -0.9256362318992615 -0.14308017492294312 -0.3503221571445465
vn -0.9256362318992615 -0.14308014512062073 -0.3503221273422241
vn -0.9133224487304688 0.10336968302726746 0.3938996195793152
vn -0.9133224487304688 0.10336968302726746 0.3938995599746704
vn -0.9133224487304688 0.10336968302726746 0.3938996195793152
vn -0.9542335271835327 -0.2834091782569885 -0.09548642486333847
vn -0.9542335271835327 -0.2834091782569885 -0.09548641741275787
vn -0.9542335271835327 -0.2834091782569885 -0.09548642486333847
vn -0.9558411240577698 -0.25297656655311584 -0.14956830441951752
vn -0.9558411240577698 -0.25297656655311584 -0.14956828951835632
vn -0.9558411240577698 -0.25297656655311584 -0.14956828951835632
vn -0.9303191900253296 -0.28732654452323914 -0.22792451083660126
vn -0.9303191900253296 -0.28732654452323914 -0.22792452573776245
vn -0.9303191900253296 -0.28732654452323914 -0.22792452573776245
vn -0.8855405449867249 0.11136715114116669 0.4510158896446228
vn -0.8855404853820801 0.11136717349290848 0.4510158896446228
vn -0.8855404853820801 0.11136717349290848 0.4510158896446228
vn -0.8867519497871399 0.11258897185325623 0.44832438230514526
vn -0.8867519497871399 0.11258898675441742 0.44832438230514526
vn -0.8901296854019165 -0.12711364030838013 0.4376199245452881
vn -0.8901296854019165 -0.12711364030838013 0.4376199245452881
vn -0.8901296854019165 -0.12711364030838013 0.4376199245452881
vn -0.9069634079933167 -0.10363970696926117 0.4082599878311157
vn -0.9069634079933167 -0.10363970696926117 0.4082599878311157
vn -0.9069634079933167 -0.10363969951868057 0.40825992822647095
vn -0.8748393654823303 0.4766046106815338 -0.08662702143192291
vn -0.8748392462730408 0.4766045808792114 -0.08662701398134232
vn -0.8748393654823303 0.4766046106815338 -0.08662702888250351
vn -0.6555372476577759 0.674710214138031 0.33917108178138733
vn -0.6555372476577759 0.674710214138031 0.33917105197906494
vn -0.6555372476577759 0.674710214138031 0.33917108178138733
vn -0.6654313206672668 -0.7352975606918335 0.12860238552093506
vn -0.6654313802719116 -0.7352975606918335 0.12860238552093506
vn -0.6654313206672668 -0.7352975606918335 0.12860238552093506
vn -0.8278211355209351 -0.515769362449646 0.22066767513751984
vn -0.8278210759162903 -0.5157694220542908 0.22066770493984222
vn -0.8278210759162903 -0.5157694220542908 0.22066767513751984
vn -0.9706752896308899 0.0038118737284094095 -0.24036423861980438
vn -0.9706752896308899 0.0038118730299174786 -0.240364208817482
vn -0.9706752896308899 0.003811873262748122 -0.240364208817482
vn -0.9638325572013855 0.021557755768299103 -0.26563504338264465
vn -0.9638325572013855 0.021557753905653954 -0.26563501358032227
vn -0.9638325572013855 0.021557753905653954 -0.26563501358032227
vn -0.9307477474212646 -0.08338438719511032 0.3560275137424469
vn -0.9307478666305542 -0.08338437974452972 0.3560275435447693
vn -0.9307477474212646 -0.08338437974452972 0.3560275137424469
vn -0.9681417942047119 -0.05775557458400726 0.2436508983373642
vn -0.9681417942047119 -0.05775557458400726 0.24365092813968658
vn -0.9681417942047119 -0.057755567133426666 0.2436508983373642
vn -0.9067690968513489 -0.18196655809879303 0.3803394138813019
vn -0.9067690968513489 -0.18196657299995422 0.3803394138813019
vn -0.9067690968513489 -0.18196654319763184 0.3803393840789795
vn -0.9037282466888428 0.1984923630952835 0.3793100118637085
vn -0.9037282466888428 0.19849234819412231 0.3793099820613861
vn -0.9037282466888428 0.1984923779964447 0.3793100118637085
vn -0.9681549072265625 0.05444272235035896 0.24436040222644806
vn -0.9681549072265625 0.05444272235035896 0.24436037242412567
vn -0.9681549072265625 0.054442718625068665 0.24436037242412567
vn -0.8840465545654297 0.46230649948120117 0.06880740821361542
vn -0.8840465545654297 0.46230655908584595 0.06880742311477661
vn -0.8840465545654297 0.46230655908584595 0.06880741566419601
vn -0.8841188549995422 0.4619832932949066 0.07003828138113022
vn -0.8016536235809326 -0.5862626433372498 0.11682310700416565
vn -0.8016535639762878 -0.5862627029418945 0.11682309955358505
vn -0.8016536235809326 -0.5862626433372498 0.11682310700416565
vn -0.8018358945846558 -0.5854334831237793 0.11969459801912308
vn -0.8296321630477905 0.5157034397125244 -0.21391698718070984
vn -0.8296321630477905 0.5157034397125244 -0.21391698718070984
vn -0.8296321630477905 0.5157034397125244 -0.21391695737838745
vn -0.8082457184791565 0.5670443177223206 -0.15874357521533966
vn -0.8082457184791565 0.5670442581176758 -0.15874356031417847
vn -0.8082457184791565 0.5670442581176758 -0.15874356031417847
vn -0.7268207669258118 -0.6844384074211121 -0.05723189935088158
vn -0.7268207669258118 -0.6844384670257568 -0.05723189935088158
vn -0.7268207669258118 -0.6844385266304016 -0.057231903076171875
vn -0.759940505027771 -0.6370458006858826 -0.12908560037612915
vn -0.759940505027771 -0.6370458602905273 -0.12908560037612915
vn -0.759940505027771 -0.6370458602905273 -0.12908561527729034
vn -0.9976450800895691 0.0653795674443245 -0.020729461684823036
vn -0.9976450800895691 0.0653795674443245 -0.020729457959532738
vn -0.9976450800895691 0.06537957489490509 -0.020729461684823036
vn -0.9971032738685608 0.07592722028493881 0.004477069713175297
vn -0.9971032738685608 0.07592722028493881 0.004477069713175297
vn -0.9971032738685608 0.07592721283435822 0.0044770692475140095
vn -0.9338425993919373 -0.17086449265480042 0.3142346739768982
vn -0.9338425993919373 -0.17086447775363922 0.3142346441745758
vn -0.9338425993919373 -0.17086447775363922 0.3142346739768982
vn -0.9664487838745117 0.16072377562522888 0.20036107301712036
vn -0.9664487838745117 0.16072379052639008 0.20036107301712036
vn -0.9664487838745117 0.16072379052639008 0.20036107301712036
vn -0.9875160455703735 0.0648168995976448 0.14356479048728943
vn -0.9875160455703735 0.0648168995976448 0.14356479048728943
vn -0.9875160455703735 0.0648168995976448 0.14356479048728943
vn -0.9998722076416016 -0.014734320342540741 0.006204899400472641
vn -0.9998722076416016 -0.01473432220518589 0.006204898934811354
vn -0.9998722076416016 -0.014734323136508465 0.006204900331795216
vn -0.9995368719100952 0.022089164704084396 0.02093135006725788
vn -0.9981753826141357 -0.054552920162677765 0.02588273584842682
vn -0.9981753826141357 -0.05455291271209717 0.02588273398578167
vn -0.9959854483604431 -0.08557016402482986 0.026279347017407417
vn -0.9959854483604431 -0.08557017147541046 0.026279347017407417
vn -0.999292254447937 0.033068303018808365 0.017930710688233376
vn -0.999292254447937 0.033068299293518066 0.017930708825588226
vn -0.999292254447937 0.033068299293518066 0.017930708825588226
vn -0.9999915361404419 -0.0040956176817417145 0.0003358548565302044
vn -0.9999915361404419 -0.004095617216080427 0.0003358548565302044
vn -0.8375764489173889 -0.3910399079322815 0.3815145790576935
vn -0.8375764489173889 -0.3910399079322815 0.3815145790576935
vn -0.8375764489173889 -0.39103996753692627 0.38151463866233826
vn -0.8334863781929016 0.4022061228752136 0.37885451316833496
vn -0.8334863781929016 0.40220606327056885 0.37885451316833496
vn -0.8334863781929016 0.40220609307289124 0.37885451316833496
vn -0.8422079086303711 0.2607668340206146 0.47189661860466003
vn -0.8422079086303711 0.2607668340206146 0.47189661860466003
vn -0.8422079086303711 0.260766863822937 0.4718966782093048
vn -0.8078563213348389 -0.3979206085205078 0.4347725808620453
vn -0.8078563213348389 -0.3979206383228302 0.4347725808620453
vn -0.8078563213348389 -0.3979206383228302 0.4347725808620453
vn -0.9680009484291077 -0.03985309600830078 -0.24776172637939453
vn -0.9680009484291077 -0.03985309228301048 -0.24776169657707214
vn -0.9680009484291077 -0.03985309228301048 -0.24776169657707214
vn -0.9811766743659973 0.15264974534511566 0.11828123033046722
vn -0.9811766743659973 0.15264973044395447 0.11828122287988663
vn -0.9811766743659973 0.15264973044395447 0.11828122287988663
vn -0.9747705459594727 -0.16041667759418488 0.15520624816417694
vn -0.9747705459594727 -0.16041667759418488 0.15520624816417694
vn -0.9747705459594727 -0.16041670739650726 0.15520626306533813
vn -0.9640151262283325 0.04204139485955238 -0.2625020742416382
vn -0.9640151262283325 0.04204139858484268 -0.2625020742416382
vn -0.9640151262283325 0.04204139485955238 -0.26250210404396057
vn -0.8327940702438354 0.4058920443058014 -0.3764381408691406
vn -0.8327940702438354 0.405892014503479 -0.37643811106681824
vn -0.8327940702438354 0.4058919847011566 -0.37643811106681824
vn -0.8305572271347046 -0.41026821732521057 -0.3766360580921173
vn -0.8305572271347046 -0.4102681577205658 -0.3766360282897949
vn -0.8305572271347046 -0.4102681577205658 -0.3766360580921173
vn 0.7045006155967712 -2.990506402511528e-07 -0.7097034454345703
vn 0.7045006155967712 -2.990506402511528e-07 -0.7097034454345703
vn 0.7045005559921265 -2.990506402511528e-07 -0.7097034454345703
vn 0.7045004367828369 -2.675534460649942e-07 -0.7097035646438599
vn 0.7040169835090637 2.62375039028484e-07 0.7101831436157227
vn 0.7040169835090637 2.623750106067746e-07 0.7101830840110779
vn 0.7040170431137085 2.623750106067746e-07 0.7101830840110779
vn 0.7040168046951294 2.967849752621987e-07 0.710183322429657
vn 0.6986194849014282 -1.0089072475238936e-06 -0.7154935002326965
vn 0.698619544506073 -1.0089070201502182e-06 -0.7154934406280518
vn 0.698619544506073 -1.0089070201502182e-06 -0.7154934406280518
vn 0.69861900806427 -3.01266851465698e-07 -0.7154938578605652
vn -0.0 -1.0 0.0
vn -0.0 -1.0 0.0
vn -0.0 -1.0 0.0
vn 0.7050607204437256 2.7400548674449965e-07 0.7091469168663025
vn 0.7050607204437256 2.740055151662091e-07 0.7091469168663025
vn 0.7050607204437256 2.740055435879185e-07 0.7091469168663025
vn 0.7050608992576599 0.0 0.7091467380523682
vn -1.666046773607377e-05 1.0 0.0
vn -1.666046773607377e-05 1.0 0.0
vn -1.666046773607377e-05 1.0 0.0
vn 0.747807502746582 -0.001307927188463509 -0.6639142036437988
vn 0.747807502746582 -0.001307927188463509 -0.6639142036437988
vn 0.747807502746582 -0.0013079270720481873 -0.6639142036437988
vn 0.7481371760368347 -0.0014669423690065742 -0.6635424494743347
vn 0.704525351524353 -0.001387495081871748 0.7096774578094482
vn 0.704525351524353 -0.001387495081871748 0.7096774578094482
vn 0.7045254111289978 -0.001387495081871748 0.7096774578094482
vn 0.7045300006866455 -0.0013894600560888648 0.7096728086471558
vn 0.38454246520996094 -0.3909521698951721 -0.8362317681312561
vn 0.38454246520996094 -0.3909521698951721 -0.8362317681312561
vn 0.38454246520996094 -0.3909521698951721 -0.8362317085266113
vn 0.3735261857509613 0.4059019684791565 0.8340993523597717
vn 0.3735261857509613 0.4059019386768341 0.8340994119644165
vn 0.3735261857509613 0.4059019684791565 0.8340994119644165
vn 0.38326969742774963 0.39442190527915955 -0.8351860046386719
vn 0.38326969742774963 0.39442190527915955 -0.8351860046386719
vn 0.38326969742774963 0.39442190527915955 -0.8351860046386719
vn 0.373726487159729 -0.4102913439273834 0.8318591117858887
vn 0.373726487159729 -0.41029128432273865 0.8318591117858887
vn 0.373726487159729 -0.41029128432273865 0.8318591117858887
vn 0.9268528819084167 -0.1430818885564804 -0.3470897972583771
vn 0.9268528819084167 -0.1430819034576416 -0.3470897972583771
vn 0.9268528819084167 -0.1430818885564804 -0.3470897972583771
vn 0.9268528819084167 -0.1430818736553192 -0.3470897674560547
vn 0.9257086515426636 -0.14273107051849365 -0.3502731919288635
vn 0.9119391441345215 0.1033700630068779 0.39709147810935974
vn 0.9119391441345215 0.10337008535861969 0.39709147810935974
vn 0.9119391441345215 0.10337007790803909 0.39709147810935974
vn 0.9545595049858093 -0.2834140956401825 -0.09215552359819412
vn 0.9545595049858093 -0.2834140956401825 -0.09215552359819412
vn 0.9545595049858093 -0.2834141254425049 -0.09215553104877472
vn 0.9311072826385498 -0.2873295843601227 -0.22467973828315735
vn 0.9311072826385498 -0.28732961416244507 -0.22467973828315735
vn 0.9311072826385498 -0.2873295843601227 -0.22467973828315735
vn 0.9563559293746948 -0.2529795467853546 -0.14623482525348663
vn 0.9563559293746948 -0.2529795467853546 -0.14623482525348663
vn 0.9563559293746948 -0.2529795467853546 -0.14623482525348663
vn 0.885181725025177 0.11259158700704575 0.451416015625
vn 0.885181725025177 0.11259160190820694 0.451416015625
vn 0.885181725025177 0.11259160190820694 0.451416015625
vn 0.885181725025177 0.11259160190820694 0.451416015625
vn 0.8839623332023621 0.11137127131223679 0.45410019159317017
vn 0.9055292010307312 -0.10364583879709244 0.41142961382865906
vn 0.9055292010307312 -0.10364583879709244 0.41142961382865906
vn 0.9055292010307312 -0.10364582389593124 0.41142958402633667
vn 0.8886074423789978 -0.12710049748420715 0.44070664048194885
vn 0.8886073231697083 -0.12710046768188477 0.44070664048194885
vn 0.8886074423789978 -0.12710049748420715 0.44070664048194885
vn 0.6543482542037964 0.674708366394043 0.34146299958229065
vn 0.6543482542037964 0.6747083067893982 0.34146296977996826
vn 0.6543482542037964 0.6747083067893982 0.34146296977996826
vn 0.8751417994499207 0.4765930473804474 -0.08358148485422134
vn 0.8751417994499207 0.4765929877758026 -0.08358146995306015
vn 0.8751417994499207 0.4765929877758026 -0.08358147740364075
vn 0.8270483016967773 -0.5157630443572998 0.22356101870536804
vn 0.8270483016967773 -0.515762984752655 0.22356098890304565
vn 0.8270483016967773 -0.515762984752655 0.22356098890304565
vn 0.6649786829948425 -0.7352967262268066 0.13092763721942902
vn 0.6649786829948425 -0.7352966666221619 0.13092763721942902
vn 0.6649786829948425 -0.7352967262268066 0.13092763721942902
vn 0.9647535085678101 0.02156473696231842 -0.26226988434791565
vn 0.9647535085678101 0.02156473696231842 -0.26226988434791565
vn 0.9647535085678101 0.02156473696231842 -0.26226988434791565
vn 0.9715104699134827 0.003812062321230769 -0.2369658201932907
vn 0.9715104699134827 0.0038120627868920565 -0.2369658648967743
vn 0.9715104699134827 0.003812062321230769 -0.2369658201932907
vn 0.9295008778572083 -0.08338823914527893 0.35926929116249084
vn 0.9295008778572083 -0.08338823914527893 0.35926932096481323
vn 0.9295008778572083 -0.08338823914527893 0.35926929116249084
vn 0.9054359793663025 -0.18196645379066467 0.38350236415863037
vn 0.9054358601570129 -0.18196645379066467 0.3835023045539856
vn 0.9054359793663025 -0.18196645379066467 0.383502334356308
vn 0.9672816395759583 -0.05776605382561684 0.2470410168170929
vn 0.9672816395759583 -0.057766057550907135 0.24704104661941528
vn 0.9672816395759583 -0.05776605010032654 0.24704104661941528
vn 0.9672976136207581 0.054448217153549194 0.24773117899894714
vn 0.9672976136207581 0.054448213428258896 0.24773117899894714
vn 0.9672976136207581 0.054448217153549194 0.24773117899894714
vn 0.9023964405059814 0.1985042244195938 0.3824613690376282
vn 0.9023964405059814 0.19850420951843262 0.3824613690376282
vn 0.9023964405059814 0.19850420951843262 0.3824613690376282
vn 0.8837036490440369 0.4627602696418762 0.07014872133731842
vn 0.8837036490440369 0.4627602696418762 0.07014872133731842
vn 0.8837036490440369 0.4627602696418762 0.07014872878789902
vn 0.8837993741035461 0.4623074531555176 0.07190584391355515
vn 0.801253080368042 -0.5862111449241638 0.11979135870933533
vn 0.801253080368042 -0.5862111449241638 0.11979134380817413
vn 0.8012531995773315 -0.586211085319519 0.11979136615991592
vn 0.8012422919273376 -0.5862615704536438 0.11961620301008224
vn 0.8087880611419678 0.567051351070404 -0.1559317708015442
vn 0.8087880611419678 0.5670512914657593 -0.1559317708015442
vn 0.8087880611419678 0.567051351070404 -0.1559317708015442
vn 0.8303667306900024 0.5157102942466736 -0.2110307514667511
vn 0.8303667306900024 0.5157103538513184 -0.2110307514667511
vn 0.8303667306900024 0.5157102942466736 -0.2110307514667511
vn 0.7603845000267029 -0.6370462775230408 -0.12644149363040924
vn 0.7603845000267029 -0.6370462775230408 -0.12644149363040924
vn 0.7603845000267029 -0.6370462775230408 -0.12644149363040924
vn 0.7270102500915527 -0.6844446063041687 -0.05469486117362976
vn 0.7270102500915527 -0.6844446659088135 -0.05469485744833946
vn 0.7270102500915527 -0.6844446659088135 -0.05469485744833946
vn 0.9970815777778625 0.07592720538377762 0.007957586087286472
vn 0.9970815777778625 0.07592720538377762 0.007957585155963898
vn 0.9970815777778625 0.07592720538377762 0.007957585155963898
vn 0.9977115392684937 0.06537570804357529 -0.0172561202198267
vn 0.9977115392684937 0.06537570804357529 -0.01725611835718155
vn 0.9977115392684937 0.06537570804357529 -0.01725611835718155
vn 0.9327418208122253 -0.17086292803287506 0.31748780608177185
vn 0.9327418208122253 -0.17086292803287506 0.31748780608177185
vn 0.9327419400215149 -0.17086292803287506 0.31748783588409424
vn 0.965739369392395 0.16073665022850037 0.2037428468465805
vn 0.965739369392395 0.16073666512966156 0.2037428617477417
vn 0.965739369392395 0.16073666512966156 0.2037428617477417
vn 0.9870091080665588 0.06481317430734634 0.14701120555400848
vn 0.9870091080665588 0.06481317430734634 0.14701120555400848
vn 0.9870091080665588 0.06481317430734634 0.14701120555400848
vn 0.9998444318771362 -0.01473569218069315 0.009693683125078678
vn 0.9998444318771362 -0.01473569218069315 0.009693682193756104
vn 0.9998444318771362 -0.01473569218069315 0.009693682193756104
vn 0.9994575381278992 0.022095175459980965 0.024421898648142815
vn 0.9980792999267578 -0.05454423651099205 0.029372554272413254
vn 0.9980792999267578 -0.05454423278570175 0.029372554272413254
vn 0.9958851933479309 -0.08559785783290863 0.02976195141673088
vn 0.9958851933479309 -0.08559785783290863 0.029761947691440582
vn 0.9992234706878662 0.033068474382162094 0.021421998739242554
vn 0.9992234706878662 0.033068474382162094 0.021421995013952255
vn 0.9992234706878662 0.033068474382162094 0.021421996876597404
vn 0.9999842643737793 -0.004101967439055443 0.003826587460935116
vn 0.9999842643737793 -0.004101967439055443 0.003826587926596403
vn 0.8362343311309814 -0.39103853702545166 0.3844490051269531
vn 0.8362343311309814 -0.39103856682777405 0.3844490349292755
vn 0.8362343311309814 -0.39103853702545166 0.38444897532463074
vn 0.8321520090103149 0.4022085964679718 0.38177376985549927
vn 0.8321520090103149 0.4022085666656494 0.38177376985549927
vn 0.8321520090103149 0.4022085964679718 0.38177376985549927
vn 0.8405625224113464 0.2607542872428894 0.47482818365097046
vn 0.8405625224113464 0.2607542872428894 0.47482818365097046
vn 0.8405625224113464 0.2607542872428894 0.47482824325561523
vn 0.806340754032135 -0.3979237973690033 0.4375742971897125
vn 0.806340754032135 -0.3979237675666809 0.43757426738739014
vn 0.806340754032135 -0.3979237675666809 0.4375742971897125
vn 0.9688595533370972 -0.03986183553934097 -0.24438107013702393
vn 0.9688595533370972 -0.039861831814050674 -0.24438107013702393
vn 0.9688595533370972 -0.039861831814050674 -0.24438107013702393
vn 0.9807578325271606 0.15264929831027985 0.12170625478029251
vn 0.9807578325271606 0.15264929831027985 0.12170625478029251
vn 0.9807578325271606 0.15264929831027985 0.12170625478029251
vn 0.9742189645767212 -0.16042810678482056 0.15861950814723969
vn 0.9742189645767212 -0.16042812168598175 0.15861952304840088
vn 0.9742189645767212 -0.16042810678482056 0.15861950814723969
vn 0.9649289846420288 0.04204559698700905 -0.25912192463874817
vn 0.9649289846420288 0.04204559698700905 -0.25912192463874817
vn 0.9649289846420288 0.04204559698700905 -0.25912192463874817
vn 0.8340925574302673 0.405924916267395 -0.37351658940315247
vn 0.8340924382209778 0.405924916267395 -0.37351664900779724
vn 0.8340924382209778 0.405924916267395 -0.37351658940315247
vn 0.8318598866462708 -0.41029196977615356 -0.3737240433692932
vn 0.8318598866462708 -0.4102919101715088 -0.3737240433692932
vn 0.8318598866462708 -0.41029196977615356 -0.3737240135669708
vn -0.9988875985145569 0.0467965267598629 0.0058082882314920425
vn -0.9988875985145569 0.046796537935733795 0.005808289162814617
vn -0.9988875985145569 0.0467965342104435 0.00580828869715333
vn -0.9235610365867615 0.1577509641647339 -0.3494991064071655
vn -0.9235610365867615 0.1577509641647339 -0.3494991362094879
vn -0.9235610365867615 0.1577509641647339 -0.3494991362094879
vn 0.9988610744476318 0.04679962620139122 0.00929611548781395
vn 0.9988610744476318 0.04679963365197182 0.00929611548781395
vn 0.9988610744476318 0.04679962992668152 0.009296116419136524
vn 0.9247748851776123 0.15775185823440552 -0.3462740182876587
vn 0.9247748851776123 0.1577518880367279 -0.3462740480899811
vn 0.9247748851776123 0.1577518880367279 -0.3462740480899811
vt 0.6455519795417786 0.9569299817085266
vt 0.7939649820327759 0.6935930252075195
vt 0.6455519795417786 0.6935930252075195
vt 0.7939649820327759 0.9569299817085266
vt 0.6455519795417786 0.9569299817085266
vt 0.7939649820327759 0.6935930252075195
vt 0.7939649820327759 0.9569299817085266
vt 0.6455519795417786 0.6935930252075195
vt 0.6455519795417786 0.9569299817085266
vt 0.525704026222229 0.6951850056648254
vt 0.6455519795417786 0.6951850056648254
vt 0.525704026222229 0.9569299817085266
vt 0.525704026222229 0.6951850056648254
vt 0.6455519795417786 0.9569299817085266
vt 0.525704026222229 0.9569299817085266
vt 0.6455519795417786 0.6951850056648254
vt 0.5721510052680969 0.640175998210907
vt 0.6694300174713135 0.5404490232467651
vt 0.6694300174713135 0.640175998210907
vt 0.5721510052680969 0.5404490232467651
vt 0.7829930186271667 0.9904760122299194
vt 0.6586430072784424 0.9904760122299194
vt 0.6586430072784424 0.9904760122299194
vt 0.7829930186271667 0.9904760122299194
vt 0.7939649820327759 0.6935930252075195
vt 0.665956974029541 0.660984992980957
vt 0.6455519795417786 0.6935930252075195
vt 0.7756789922714233 0.660984992980957
vt 0.525704026222229 0.6951850056648254
vt 0.6295049786567688 0.660984992980957
vt 0.6455519795417786 0.6951850056648254
vt 0.5414620041847229 0.660984992980957
vt 0.6455519795417786 0.6935930252075195
vt 0.7756789922714233 0.660984992980957
vt 0.7939649820327759 0.6935930252075195
vt 0.665956974029541 0.660984992980957
vt 0.525704026222229 0.6951850056648254
vt 0.6295049786567688 0.660984992980957
vt 0.6455519795417786 0.6951850056648254
vt 0.5414620041847229 0.660984992980957
vt 0.6455519795417786 0.9569299817085266
vt 0.7829930186271667 0.9904760122299194
vt 0.7939649820327759 0.9569299817085266
vt 0.6586430072784424 0.9904760122299194
vt 0.6455519795417786 0.9569299817085266
vt 0.5349860191345215 0.9904760122299194
vt 0.525704026222229 0.9569299817085266
vt 0.635981023311615 0.9904760122299194
vt 0.7939649820327759 0.9569299817085266
vt 0.6586430072784424 0.9904760122299194
vt 0.6455519795417786 0.9569299817085266
vt 0.7829930186271667 0.9904760122299194
vt 0.6455519795417786 0.9569299817085266
vt 0.5349860191345215 0.9904760122299194
vt 0.525704026222229 0.9569299817085266
vt 0.635981023311615 0.9904760122299194
vt 0.49744001030921936 0.1588050127029419
vt 0.49744001030921936 0.03365457057952881
vt 0.5552700161933899 0.1588050127029419
vt 0.5552700161933899 0.1588050127029419
vt 0.49744001030921936 0.1588050127029419
vt 0.49744001030921936 0.03365457057952881
vt 0.49744001030921936 0.1588050127029419
vt 0.44174399971961975 0.1588050127029419
vt 0.49744001030921936 0.03365457057952881
vt 0.49744001030921936 0.03365457057952881
vt 0.49744001030921936 0.1588050127029419
vt 0.44174399971961975 0.1588050127029419
vt 0.49744001030921936 0.1588050127029419
vt 0.5336769819259644 0.20607298612594604
vt 0.49744001030921936 0.20607298612594604
vt 0.5552700161933899 0.1588050127029419
vt 0.44174399971961975 0.1588050127029419
vt 0.49744001030921936 0.20607298612594604
vt 0.46746501326560974 0.20607298612594604
vt 0.49744001030921936 0.1588050127029419
vt 0.49744001030921936 0.1588050127029419
vt 0.5336769819259644 0.20607298612594604
vt 0.49744001030921936 0.20607298612594604
vt 0.5552700161933899 0.1588050127029419
vt 0.44174399971961975 0.1588050127029419
vt 0.49744001030921936 0.20607298612594604
vt 0.46746501326560974 0.20607298612594604
vt 0.49744001030921936 0.1588050127029419
vt 0.8046879768371582 0.9921879768371582
vt 0.895933985710144 0.3824999928474426
vt 0.895933985710144 0.9914810061454773
vt 0.8046879768371582 0.3828129768371582
vt 0.9910330176353455 0.9914810061454773
vt 0.895933985710144 0.3824999928474426
vt 0.9910330176353455 0.3824999928474426
vt 0.895933985710144 0.9914810061454773
vt 0.011189700104296207 0.9738140106201172
vt 0.09914500266313553 0.8792499899864197
vt 0.09921610355377197 0.9742000102996826
vt 0.011189700104296207 0.8792499899864197
vt 0.09921610355377197 0.9742000102996826
vt 0.18709999322891235 0.9738140106201172
vt 0.011189700104296207 0.9738140106201172
vt 0.18709999322891235 0.9738140106201172
vt 0.09914500266313553 0.8792499899864197
vt 0.185807004570961 0.8792499899864197
vt 0.09921610355377197 0.9742000102996826
vt 0.11457599699497223 0.09985172748565674
vt 0.19005100429058075 0.024127721786499023
vt 0.19018399715423584 0.1006779670715332
vt 0.8216320276260376 0.36634498834609985
vt 0.9098770022392273 0.010605573654174805
vt 0.9098770022392273 0.36634498834609985
vt 0.8216320276260376 0.010605573654174805
vt 0.9870920181274414 0.36634498834609985
vt 0.9098770022392273 0.010605573654174805
vt 0.9870920181274414 0.010605573654174805
vt 0.9098770022392273 0.36634498834609985
vt 0.011172899976372719 0.14472800493240356
vt 0.0657564029097557 0.14382702112197876
vt 0.06665299832820892 0.1981009840965271
vt 0.06485670059919357 0.08935821056365967
vt 0.11991500109434128 0.1429319977760315
vt 0.0657564029097557 0.14382702112197876
vt 0.011172899976372719 0.14472800493240356
vt 0.06485670059919357 0.08935821056365967
vt 0.0657564029097557 0.14382702112197876
vt 0.0657564029097557 0.14382702112197876
vt 0.11991500109434128 0.1429319977760315
vt 0.06665299832820892 0.1981009840965271
vt 0.1099030002951622 0.7439209818840027
vt 0.13454100489616394 0.47926998138427734
vt 0.19959799945354462 0.6692379713058472
vt 0.015055149793624878 0.47897905111312866
vt 0.00987982377409935 0.4837002158164978
vt 0.45281800627708435 0.9545490145683289
vt 0.35292598605155945 0.813293993473053
vt 0.4265210032463074 0.8125320076942444
vt 0.30031099915504456 0.9010549783706665
vt 0.35292598605155945 0.813293993473053
vt 0.45281800627708435 0.9545490145683289
vt 0.30031099915504456 0.9010549783706665
vt 0.19959799945354462 0.6692379713058472
vt 0.35292598605155945 0.813293993473053
vt 0.19959799945354462 0.6692379713058472
vt 0.30031099915504456 0.9010549783706665
vt 0.1099030002951622 0.7439209818840027
vt 0.3843820095062256 0.3005499839782715
vt 0.4262329936027527 0.16912800073623657
vt 0.46913400292396545 0.3144659996032715
vt 0.35538846254348755 0.1348227858543396
vt 0.35424676537513733 0.1359856128692627
vt 0.470660001039505 0.6708710193634033
vt 0.35292598605155945 0.813293993473053
vt 0.385794997215271 0.6706460118293762
vt 0.35292598605155945 0.813293993473053
vt 0.470660001039505 0.6708710193634033
vt 0.4265210032463074 0.8125320076942444
vt 0.46913400292396545 0.3144659996032715
vt 0.5549799799919128 0.43657398223876953
vt 0.4402979910373688 0.39444899559020996
vt 0.5549799799919128 0.43657398223876953
vt 0.46913400292396545 0.3144659996032715
vt 0.5546839833259583 0.34710896015167236
vt 0.5562530159950256 0.6444180011749268
vt 0.4405960142612457 0.6038730144500732
vt 0.5550940036773682 0.5560619831085205
vt 0.4405960142612457 0.6038730144500732
vt 0.5562530159950256 0.6444180011749268
vt 0.470660001039505 0.6708710193634033
vt 0.4405960142612457 0.6038730144500732
vt 0.5549799799919128 0.43657398223876953
vt 0.5550940036773682 0.5560619831085205
vt 0.5549799799919128 0.43657398223876953
vt 0.4405960142612457 0.6038730144500732
vt 0.4402979910373688 0.39444899559020996
vt 0.4262329936027527 0.16912800073623657
vt 0.35538846254348755 0.1348227858543396
vt 0.4511992931365967 0.03327876329421997
vt 0.7139859795570374 0.38471800088882446
vt 0.8141149878501892 0.26409798860549927
vt 0.7777109742164612 0.43402498960494995
vt 0.8141149878501892 0.26409798860549927
vt 0.7139859795570374 0.38471800088882446
vt 0.734732985496521 0.2642430067062378
vt 0.7124090194702148 0.16086900234222412
vt 0.8141149878501892 0.26409798860549927
vt 0.734732985496521 0.2642430067062378
vt 0.8141149878501892 0.26409798860549927
vt 0.7124090194702148 0.16086900234222412
vt 0.7754030227661133 0.08184778690338135
vt 0.6216319799423218 0.1952189803123474
vt 0.6475669741630554 0.10761600732803345
vt 0.7124090194702148 0.16086900234222412
vt 0.6475080251693726 0.10760498046875
vt 0.6518610119819641 0.43331801891326904
vt 0.6206340193748474 0.3510040044784546
vt 0.7139859795570374 0.38471800088882446
vt 0.6517999768257141 0.43333500623703003
vt 0.6216319799423218 0.1952189803123474
vt 0.5625330209732056 0.1346610188484192
vt 0.6475080251693726 0.10760498046875
vt 0.5625330209732056 0.1346610188484192
vt 0.6216319799423218 0.1952189803123474
vt 0.5623340010643005 0.2104020118713379
vt 0.6206340193748474 0.3510040044784546
vt 0.5674200057983398 0.4273679852485657
vt 0.5622850060462952 0.34838104248046875
vt 0.5674200057983398 0.4273679852485657
vt 0.6206340193748474 0.3510040044784546
vt 0.6517999768257141 0.43333500623703003
vt 0.6206340193748474 0.3510040044784546
vt 0.5623340010643005 0.2104020118713379
vt 0.6216319799423218 0.1952189803123474
vt 0.5623340010643005 0.2104020118713379
vt 0.6206340193748474 0.3510040044784546
vt 0.5622850060462952 0.34838104248046875
vt 0.6206340193748474 0.3510040044784546
vt 0.734732985496521 0.2642430067062378
vt 0.7139859795570374 0.38471800088882446
vt 0.6216319799423218 0.1952189803123474
vt 0.7124090194702148 0.16086900234222412
vt 0.734732985496521 0.2642430067062378
vt 0.6206340193748474 0.3510040044784546
vt 0.6216319799423218 0.1952189803123474
vt 0.734732985496521 0.2642430067062378
vt 0.13454100489616394 0.47926998138427734
vt 0.4405960142612457 0.6038730144500732
vt 0.19959799945354462 0.6692379713058472
vt 0.4402979910373688 0.39444899559020996
vt 0.385794997215271 0.6706460118293762
vt 0.35292598605155945 0.813293993473053
vt 0.19959799945354462 0.6692379713058472
vt 0.4405960142612457 0.6038730144500732
vt 0.19098688662052155 0.30645424127578735
vt 0.21007628738880157 0.28702253103256226
vt 0.13454100489616394 0.47926998138427734
vt 0.3843820095062256 0.3005499839782715
vt 0.2134946882724762 0.2833223342895508
vt 0.011172899976372719 0.14472800493240356
vt 0.0657564029097557 0.14382702112197876
vt 0.06665299832820892 0.1981009840965271
vt 0.011172899976372719 0.14472800493240356
vt 0.06485670059919357 0.08935821056365967
vt 0.0657564029097557 0.14382702112197876
vt 0.3843820095062256 0.3005499839782715
vt 0.46913400292396545 0.3144659996032715
vt 0.4402979910373688 0.39444899559020996
vt 0.470660001039505 0.6708710193634033
vt 0.385794997215271 0.6706460118293762
vt 0.4405960142612457 0.6038730144500732
vt 0.6851959824562073 0.5454260110855103
vt 0.6518610119819641 0.43331801891326904
vt 0.7139859795570374 0.38471800088882446
vt 0.6717450022697449 -0.003576040267944336
vt 0.7754030227661133 0.08184778690338135
vt 0.7124090194702148 0.16086900234222412
vt 0.7777109742164612 0.43402498960494995
vt 0.6851959824562073 0.5454260110855103
vt 0.7139859795570374 0.38471800088882446
vt 0.6475669741630554 0.10761600732803345
vt 0.6717450022697449 -0.003576040267944336
vt 0.7124090194702148 0.16086900234222412
vt 0.06591890007257462 0.14382398128509521
vt 0.06569919735193253 0.09017801284790039
vt 0.11991500109434128 0.1429319977760315
vt 0.06777690351009369 0.1969369649887085
vt 0.06591890007257462 0.14382398128509521
vt 0.11991500109434128 0.1429319977760315
vt 0.8046879768371582 0.9921879768371582
vt 0.895933985710144 0.3824999928474426
vt 0.8046879768371582 0.3828129768371582
vt 0.895933985710144 0.9914810061454773
vt 0.9910330176353455 0.9914810061454773
vt 0.895933985710144 0.3824999928474426
vt 0.895933985710144 0.9914810061454773
vt 0.9910330176353455 0.3824999928474426
vt 0.011189700104296207 0.9738140106201172
vt 0.09914500266313553 0.8792499899864197
vt 0.011189700104296207 0.8792499899864197
vt 0.09921610355377197 0.9742000102996826
vt 0.09921610355377197 0.9742000102996826
vt 0.011189700104296207 0.9738140106201172
vt 0.18709999322891235 0.9738140106201172
vt 0.18709999322891235 0.9738140106201172
vt 0.09914500266313553 0.8792499899864197
vt 0.09921610355377197 0.9742000102996826
vt 0.185807004570961 0.8792499899864197
vt 0.11457599699497223 0.09985172748565674
vt 0.19018399715423584 0.1006779670715332
vt 0.19005100429058075 0.024127721786499023
vt 0.8216320276260376 0.36634498834609985
vt 0.9098770022392273 0.010605573654174805
vt 0.8216320276260376 0.010605573654174805
vt 0.9098770022392273 0.36634498834609985
vt 0.9870920181274414 0.36634498834609985
vt 0.9098770022392273 0.010605573654174805
vt 0.9098770022392273 0.36634498834609985
vt 0.9870920181274414 0.010605573654174805
vt 0.011172899976372719 0.14472800493240356
vt 0.06665299832820892 0.1981009840965271
vt 0.0657564029097557 0.14382702112197876
vt 0.06485670059919357 0.08935821056365967
vt 0.0657564029097557 0.14382702112197876
vt 0.11991500109434128 0.1429319977760315
vt 0.011172899976372719 0.14472800493240356
vt 0.0657564029097557 0.14382702112197876
vt 0.06485670059919357 0.08935821056365967
vt 0.0657564029097557 0.14382702112197876
vt 0.06665299832820892 0.1981009840965271
vt 0.11991500109434128 0.1429319977760315
vt 0.0098798256367445 0.4837002158164978
vt 0.1099030002951622 0.7439209818840027
vt 0.13454100489616394 0.47926998138427734
vt 0.015045938082039356 0.47897905111312866
vt 0.19959799945354462 0.6692379713058472
vt 0.45281800627708435 0.9545490145683289
vt 0.4265210032463074 0.8125320076942444
vt 0.35292598605155945 0.813293993473053
vt 0.30031099915504456 0.9010549783706665
vt 0.45281800627708435 0.9545490145683289
vt 0.35292598605155945 0.813293993473053
vt 0.30031099915504456 0.9010549783706665
vt 0.19959799945354462 0.6692379713058472
vt 0.1099030002951622 0.7439209818840027
vt 0.19959799945354462 0.6692379713058472
vt 0.30031099915504456 0.9010549783706665
vt 0.35292598605155945 0.813293993473053
vt 0.35423043370246887 0.1358964443206787
vt 0.3843820095062256 0.3005499839782715
vt 0.4262329936027527 0.16912800073623657
vt 0.3553195893764496 0.13478940725326538
vt 0.46913400292396545 0.3144659996032715
vt 0.470660001039505 0.6708710193634033
vt 0.35292598605155945 0.813293993473053
vt 0.4265210032463074 0.8125320076942444
vt 0.35292598605155945 0.813293993473053
vt 0.470660001039505 0.6708710193634033
vt 0.385794997215271 0.6706460118293762
vt 0.46913400292396545 0.3144659996032715
vt 0.5549799799919128 0.43657398223876953
vt 0.5546839833259583 0.34710896015167236
vt 0.5549799799919128 0.43657398223876953
vt 0.46913400292396545 0.3144659996032715
vt 0.4402979910373688 0.39444899559020996
vt 0.5562530159950256 0.6444180011749268
vt 0.4405960142612457 0.6038730144500732
vt 0.470660001039505 0.6708710193634033
vt 0.4405960142612457 0.6038730144500732
vt 0.5562530159950256 0.6444180011749268
vt 0.5550940036773682 0.5560619831085205
vt 0.4405960142612457 0.6038730144500732
vt 0.5549799799919128 0.43657398223876953
vt 0.4402979910373688 0.39444899559020996
vt 0.5549799799919128 0.43657398223876953
vt 0.4405960142612457 0.6038730144500732
vt 0.5550940036773682 0.5560619831085205
vt 0.4262329936027527 0.16912800073623657
vt 0.4511992931365967 0.033278703689575195
vt 0.3553195893764496 0.13478940725326538
vt 0.7139859795570374 0.38471800088882446
vt 0.8141149878501892 0.26409798860549927
vt 0.734732985496521 0.2642430067062378
vt 0.8141149878501892 0.26409798860549927
vt 0.7139859795570374 0.38471800088882446
vt 0.7777109742164612 0.43402498960494995
vt 0.7124090194702148 0.16086900234222412
vt 0.8141149878501892 0.26409798860549927
vt 0.7754030227661133 0.08184778690338135
vt 0.8141149878501892 0.26409798860549927
vt 0.7124090194702148 0.16086900234222412
vt 0.734732985496521 0.2642430067062378
vt 0.6216319799423218 0.1952189803123474
vt 0.6475669741630554 0.10761600732803345
vt 0.6475080251693726 0.10760498046875
vt 0.7124090194702148 0.16086900234222412
vt 0.6518610119819641 0.43331801891326904
vt 0.6206340193748474 0.3510040044784546
vt 0.6517999768257141 0.43333500623703003
vt 0.7139859795570374 0.38471800088882446
vt 0.6216319799423218 0.1952189803123474
vt 0.5625330209732056 0.1346610188484192
vt 0.5623340010643005 0.2104020118713379
vt 0.5625330209732056 0.1346610188484192
vt 0.6216319799423218 0.1952189803123474
vt 0.6475080251693726 0.10760498046875
vt 0.6206340193748474 0.3510040044784546
vt 0.5674200057983398 0.4273679852485657
vt 0.6517999768257141 0.43333500623703003
vt 0.5674200057983398 0.4273679852485657
vt 0.6206340193748474 0.3510040044784546
vt 0.5622850060462952 0.34838104248046875
vt 0.6206340193748474 0.3510040044784546
vt 0.5623340010643005 0.2104020118713379
vt 0.5622850060462952 0.34838104248046875
vt 0.5623340010643005 0.2104020118713379
vt 0.6206340193748474 0.3510040044784546
vt 0.6216319799423218 0.1952189803123474
vt 0.6206340193748474 0.3510040044784546
vt 0.7139859795570374 0.38471800088882446
vt 0.734732985496521 0.2642430067062378
vt 0.6216319799423218 0.1952189803123474
vt 0.734732985496521 0.2642430067062378
vt 0.7124090194702148 0.16086900234222412
vt 0.6206340193748474 0.3510040044784546
vt 0.734732985496521 0.2642430067062378
vt 0.6216319799423218 0.1952189803123474
vt 0.13454100489616394 0.47926998138427734
vt 0.19959799945354462 0.6692379713058472
vt 0.4405960142612457 0.6038730144500732
vt 0.4402979910373688 0.39444899559020996
vt 0.35292598605155945 0.813293993473053
vt 0.385794997215271 0.6706460118293762
vt 0.4405960142612457 0.6038730144500732
vt 0.19959799945354462 0.6692379713058472
vt 0.2099868357181549 0.2869808077812195
vt 0.13454100489616394 0.47926998138427734
vt 0.1910536289215088 0.30624985694885254
vt 0.21337753534317017 0.2833104729652405
vt 0.3843820095062256 0.3005499839782715
vt 0.011172899976372719 0.14472800493240356
vt 0.06665299832820892 0.1981009840965271
vt 0.0657564029097557 0.14382702112197876
vt 0.011172899976372719 0.14472800493240356
vt 0.0657564029097557 0.14382702112197876
vt 0.06485670059919357 0.08935821056365967
vt 0.3843820095062256 0.3005499839782715
vt 0.4402979910373688 0.39444899559020996
vt 0.46913400292396545 0.3144659996032715
vt 0.470660001039505 0.6708710193634033
vt 0.4405960142612457 0.6038730144500732
vt 0.385794997215271 0.6706460118293762
vt 0.6851959824562073 0.5454260110855103
vt 0.7139859795570374 0.38471800088882446
vt 0.6518610119819641 0.43331801891326904
vt 0.6717450022697449 -0.003576040267944336
vt 0.7124090194702148 0.16086900234222412
vt 0.7754030227661133 0.08184778690338135
vt 0.7777109742164612 0.43402498960494995
vt 0.7139859795570374 0.38471800088882446
vt 0.6851959824562073 0.5454260110855103
vt 0.6475669741630554 0.10761600732803345
vt 0.7124090194702148 0.16086900234222412
vt 0.6717450022697449 -0.003576040267944336
vt 0.06591890007257462 0.14382398128509521
vt 0.11991500109434128 0.1429319977760315
vt 0.06569919735193253 0.09017801284790039
vt 0.06777690351009369 0.1969369649887085
vt 0.11991500109434128 0.1429319977760315
vt 0.06591890007257462 0.14382398128509521
vt 0.2134946882724762 0.283322274684906
vt 0.35424676537513733 0.1359856128692627
vt 0.3843820095062256 0.3005499839782715
vt 0.015055153518915176 0.47897905111312866
vt 0.19098688662052155 0.30645430088043213
vt 0.13454100489616394 0.47926998138427734
vt 0.35423046350479126 0.13589638471603394
vt 0.21337753534317017 0.2833104729652405
vt 0.3843820095062256 0.3005499839782715
vt 0.19105364382266998 0.30624985694885254
vt 0.015045937150716782 0.47897905111312866
vt 0.13454100489616394 0.47926998138427734

g axe11_mat
s 1
usemtl axe11_mat
f 3/3/3 2/2/2 1/1/1 
f 4/4/4 1/1/1 2/2/2 
f 7/7/7 6/6/6 5/5/5 
f 8/8/8 5/5/5 6/6/6 
f 11/11/11 10/10/10 9/9/9 
f 12/12/12 9/9/9 10/10/10 
f 15/15/15 14/14/14 13/13/13 
f 16/16/16 13/13/13 14/14/14 
f 19/19/19 18/18/18 17/17/17 
f 20/20/20 17/17/17 18/18/18 
f 23/23/23 22/22/22 21/21/21 
f 24/24/24 21/21/21 22/22/22 
f 27/27/27 26/26/26 25/25/25 
f 28/28/28 25/25/25 26/26/26 
f 31/31/31 30/30/30 29/29/29 
f 32/32/32 29/29/29 30/30/30 
f 35/35/35 34/34/34 33/33/33 
f 36/36/36 33/33/33 34/34/34 
f 39/39/39 38/38/38 37/37/37 
f 40/40/40 37/37/37 38/38/38 
f 43/43/43 42/42/42 41/41/41 
f 44/44/44 41/41/41 42/42/42 
f 47/47/47 46/46/46 45/45/45 
f 48/48/48 45/45/45 46/46/46 
f 51/51/51 50/50/50 49/49/49 
f 52/52/52 49/49/49 50/50/50 
f 55/55/55 54/54/54 53/53/53 
f 56/56/56 53/53/53 54/54/54 
f 59/59/59 58/58/58 57/57/57 
f 62/62/62 61/61/61 60/60/60 
f 65/65/65 64/64/64 63/63/63 
f 68/68/68 67/67/67 66/66/66 
f 71/71/71 70/70/70 69/69/69 
f 72/72/72 69/69/69 70/70/70 
f 75/75/75 74/74/74 73/73/73 
f 76/76/76 73/73/73 74/74/74 
f 79/79/79 78/78/78 77/77/77 
f 80/80/80 77/77/77 78/78/78 
f 83/83/83 82/82/82 81/81/81 
f 84/84/84 81/81/81 82/82/82 
f 87/87/87 86/86/86 85/85/85 
f 88/88/88 85/85/85 86/86/86 
f 91/91/91 90/90/90 89/89/89 
f 92/92/92 89/89/89 90/90/90 
f 95/95/95 94/94/94 93/93/93 
f 96/96/96 93/93/93 94/94/94 
f 99/99/99 98/98/98 97/97/97 
f 102/102/102 101/101/101 100/100/100 
f 103/103/103 100/100/100 101/101/101 
f 106/106/106 105/105/105 104/104/104 
f 109/109/109 108/108/108 107/107/107 
f 110/110/110 107/107/107 108/108/108 
f 113/113/113 112/112/112 111/111/111 
f 114/114/114 111/111/111 112/112/112 
f 117/117/117 116/116/116 115/115/115 
f 120/120/120 119/119/119 118/118/118 
f 123/123/123 122/122/122 121/121/121 
f 126/126/126 125/125/125 124/124/124 
f 129/129/129 128/128/128 127/127/127 
f 127/127/127 128/128/128 130/130/130 
f 131/131/131 127/127/127 130/130/130 
f 134/134/134 133/133/133 132/132/132 
f 137/137/137 136/136/136 135/135/135 
f 140/140/140 139/139/139 138/138/138 
f 143/143/143 142/142/142 141/141/141 
f 146/146/146 145/145/145 144/144/144 
f 144/144/144 145/145/145 147/147/147 
f 148/148/148 144/144/144 147/147/147 
f 151/151/151 150/150/150 149/149/149 
f 154/154/154 153/153/153 152/152/152 
f 157/157/157 156/156/156 155/155/155 
f 160/160/160 159/159/159 158/158/158 
f 163/163/163 162/162/162 161/161/161 
f 166/166/166 165/165/165 164/164/164 
f 169/169/169 168/168/168 167/167/167 
f 172/172/172 171/171/171 170/170/170 
f 175/175/175 174/174/174 173/173/173 
f 178/178/178 177/177/177 176/176/176 
f 181/181/181 180/180/180 179/179/179 
f 184/184/184 183/183/183 182/182/182 
f 187/187/187 186/186/186 185/185/185 
f 190/190/190 189/189/189 188/188/188 
f 191/191/191 188/188/188 189/189/189 
f 194/194/194 193/193/193 192/192/192 
f 195/195/195 192/192/192 193/193/193 
f 198/198/198 197/197/197 196/196/196 
f 201/201/201 200/200/200 199/199/199 
f 204/204/204 203/203/203 202/202/202 
f 207/207/207 206/206/206 205/205/205 
f 210/210/210 209/209/209 208/208/208 
f 213/213/213 212/212/212 211/211/211 
f 216/216/216 215/215/215 214/214/214 
f 219/219/219 218/218/218 217/217/217 
f 222/222/222 221/221/221 220/220/220 
f 225/225/225 224/224/224 223/223/223 
f 226/226/226 223/223/223 224/224/224 
f 228/228/228 227/227/227 225/225/225 
f 230/230/230 229/229/229 227/227/227 
f 226/226/226 232/232/232 231/231/231 
f 233/233/233 226/226/226 231/231/231 
f 226/226/226 234/234/234 232/232/232 
f 234/234/234 235/235/235 232/232/232 
f 238/238/238 237/237/237 236/236/236 
f 241/241/241 240/240/240 239/239/239 
f 244/244/244 243/243/243 242/242/242 
f 247/247/247 246/246/246 245/245/245 
f 250/250/250 249/249/249 248/248/248 
f 253/253/253 252/252/252 251/251/251 
f 256/256/256 255/255/255 254/254/254 
f 259/259/259 258/258/258 257/257/257 
f 262/262/262 261/261/261 260/260/260 
f 265/265/265 264/264/264 263/263/263 
f 268/268/268 267/267/267 266/266/266 
f 269/269/269 266/266/266 267/267/267 
f 272/272/272 271/271/271 270/270/270 
f 273/273/273 270/270/270 271/271/271 
f 276/276/276 275/275/275 274/274/274 
f 277/277/277 274/274/274 275/275/275 
f 280/280/280 279/279/279 278/278/278 
f 283/283/283 282/282/282 281/281/281 
f 284/284/284 281/281/281 282/282/282 
f 287/287/287 286/286/286 285/285/285 
f 290/290/290 289/289/289 288/288/288 
f 291/291/291 288/288/288 289/289/289 
f 294/294/294 293/293/293 292/292/292 
f 295/295/295 292/292/292 293/293/293 
f 298/298/298 297/297/297 296/296/296 
f 301/301/301 300/300/300 299/299/299 
f 304/304/304 303/303/303 302/302/302 
f 307/307/307 306/306/306 305/305/305 
f 310/310/310 309/309/309 308/308/308 
f 311/311/311 310/310/310 308/308/308 
f 312/312/312 309/309/309 310/310/310 
f 315/315/315 314/314/314 313/313/313 
f 318/318/318 317/317/317 316/316/316 
f 321/321/321 320/320/320 319/319/319 
f 324/324/324 323/323/323 322/322/322 
f 327/327/327 326/326/326 325/325/325 
f 328/328/328 327/327/327 325/325/325 
f 329/329/329 326/326/326 327/327/327 
f 332/332/332 331/331/331 330/330/330 
f 335/335/335 334/334/334 333/333/333 
f 338/338/338 337/337/337 336/336/336 
f 341/341/341 340/340/340 339/339/339 
f 344/344/344 343/343/343 342/342/342 
f 347/347/347 346/346/346 345/345/345 
f 350/350/350 349/349/349 348/348/348 
f 353/353/353 352/352/352 351/351/351 
f 356/356/356 355/355/355 354/354/354 
f 359/359/359 358/358/358 357/357/357 
f 362/362/362 361/361/361 360/360/360 
f 365/365/365 364/364/364 363/363/363 
f 368/368/368 367/367/367 366/366/366 
f 371/371/371 370/370/370 369/369/369 
f 372/372/372 369/369/369 370/370/370 
f 375/375/375 374/374/374 373/373/373 
f 376/376/376 373/373/373 374/374/374 
f 379/379/379 378/378/378 377/377/377 
f 382/382/382 381/381/381 380/380/380 
f 385/385/385 384/384/384 383/383/383 
f 388/388/388 387/387/387 386/386/386 
f 391/391/391 390/390/390 389/389/389 
f 394/394/394 393/393/393 392/392/392 
f 397/397/397 396/396/396 395/395/395 
f 400/400/400 399/399/399 398/398/398 
f 403/403/403 402/402/402 401/401/401 
f 406/406/406 405/405/405 404/404/404 
f 404/404/404 407/407/407 406/406/406 
f 409/409/409 408/408/408 405/405/405 
f 411/411/411 410/410/410 409/409/409 
f 407/407/407 413/413/413 412/412/412 
f 413/413/413 414/414/414 412/412/412 
f 407/407/407 412/412/412 415/415/415 
f 416/416/416 407/407/407 415/415/415 
f 419/419/419 418/418/418 417/417/417 
f 422/422/422 421/421/421 420/420/420 
f 425/425/425 424/424/424 423/423/423 
f 428/428/428 427/427/427 426/426/426 
f 431/431/431 430/430/430 429/429/429 
f 434/434/434 433/433/433 432/432/432 
f 437/437/437 436/436/436 435/435/435 
f 440/440/440 439/439/439 438/438/438 
f 443/443/443 442/442/442 441/441/441 
f 446/446/446 445/445/445 444/444/444 
f 449/449/449 448/448/448 447/447/447 
f 452/452/452 451/451/451 450/450/450 
f 455/455/455 454/454/454 453/453/453 
f 458/458/458 457/457/457 456/456/456 

