v -6.11945915222168 -0.27567264437675476 3.834034956184951e-08
v -5.6306915283203125 -0.2743295729160309 3.7299979993576926e-08
v -6.11945915222168 -0.344580739736557 3.5969613065844896e-08
v -5.630152702331543 -0.33610641956329346 3.30770824064075e-08
v -5.140346527099609 -0.23515868186950684 8.304395393565756e-09
v -5.140346050262451 -0.34520718455314636 4.642041862013002e-09
v -4.6507887840271 -0.17439259588718414 3.920151758762813e-09
v -4.650787830352783 -0.3530309498310089 1.7053727319193968e-09
v -4.1612324714660645 -0.14632904529571533 8.74165073661004e-10
v -4.161231517791748 -0.35609719157218933 -1.2130306759061682e-09
v -3.671675682067871 -0.17349666357040405 9.86256942780983e-09
v -3.671675682067871 -0.3511274456977844 5.306080019806814e-09
v -3.1821181774139404 -0.21913288533687592 1.2372978197561224e-08
v -3.1821179389953613 -0.35202813148498535 5.055627472216884e-09
v -2.6925628185272217 -0.22985607385635376 4.925576391201503e-09
v -2.6925623416900635 -0.3543208837509155 -3.5599532210994767e-09
v -2.2030045986175537 -0.18223907053470612 -6.110889128052577e-09
v -2.2030043601989746 -0.3557925224304199 -1.3305736068502938e-08
v -1.7134474515914917 -0.16361910104751587 -6.769171445597522e-09
v -1.7134474515914917 -0.36053481698036194 -1.3652347696790912e-08
v -1.2238904237747192 -0.19358153641223907 -5.203296460365436e-09
v -1.2238914966583252 -0.3334921896457672 -1.5083179150110482e-08
v -0.7343332171440125 -0.23600110411643982 -3.010840687878158e-09
v -0.7343308925628662 -0.3204728960990906 -1.5653325746711744e-08
v -0.24477460980415344 -0.25902965664863586 -1.8511851607172503e-08
v -0.24477460980415344 -0.33697375655174255 -3.2148562922884594e-08
v 0.24478395283222198 -0.24909056723117828 -2.0781461884666896e-08
v 0.24478328227996826 -0.3561694324016571 -3.347120625107891e-08
v 0.7343378067016602 -0.24818341434001923 -1.2134544924435886e-08
v 0.7343371510505676 -0.36575132608413696 -2.392688891461603e-08
v 1.2238943576812744 -0.27467986941337585 -7.608328189689928e-09
v 1.2238929271697998 -0.36876803636550903 -2.0697681790693423e-08
v 1.7134491205215454 -0.2754552662372589 -6.406130736991145e-09
v 1.7134510278701782 -0.37419334053993225 -1.8673111057410097e-08
v 2.2025256156921387 -0.23702608048915863 -7.970542448276774e-09
v 2.2034149169921875 -0.3810861110687256 -1.7809886898589866e-08
v 2.685502767562866 -0.2756751775741577 -5.684729131871791e-09
v 2.6986031532287598 -0.3947904407978058 -1.7081719150269237e-08
v 3.164421558380127 -0.3188214898109436 8.97805207955571e-09
v 3.1999282836914062 -0.41804131865501404 -4.798530461869177e-09
v 3.640324831008911 -0.302268385887146 7.993604889122707e-09
v 3.7008163928985596 -0.4251600205898285 -4.287422417093012e-09
v 4.1184186935424805 -0.3225369453430176 3.4366178791600532e-09
v 4.200150966644287 -0.43745651841163635 -9.232750564081016e-09
v 4.615176200866699 -0.37234067916870117 6.49929354779033e-09
v 4.691563129425049 -0.44555795192718506 -8.720798305716926e-09
v 5.133514404296875 -0.4102212190628052 -1.6566082949864835e-09
v 5.186691761016846 -0.4837271571159363 -1.884486167114119e-08
v 5.606747627258301 -0.38510987162590027 -4.388876373440098e-09
v 5.6554179191589355 -0.47887590527534485 -1.9086320079964025e-08
v 6.119460582733154 -0.4448157548904419 1.6127073010352433e-08
v 6.119461536407471 -0.5094064474105835 1.624007525680149e-11
v 3.1919381618499756 -0.062013763934373856 1.6440790062688393e-08
v 3.7149322032928467 -0.0018482948653399944 1.3884764449301201e-08
v 4.209661483764648 -0.06194339320063591 1.1236958918914297e-08
v 4.625912666320801 -0.24885572493076324 1.9422037311755957e-08
v 5.0946736335754395 -0.34052661061286926 1.310832598022671e-08
v 5.6199469566345215 -0.26960399746894836 9.390477728743463e-09
v 6.119462966918945 -0.380225270986557 3.243670931851739e-08
v 3.8134703636169434 0.2857411503791809 1.4880633614211547e-08
v 3.2414071559906006 0.2185482233762741 2.317679914654036e-08
v 2.700817346572876 0.04431985691189766 -8.213172364435195e-10
v 2.2037813663482666 0.12335312366485596 -4.976671963419221e-09
v 1.7134510278701782 -0.03575248271226883 1.160494256247091e-09
v 1.2238929271697998 -0.10204543173313141 1.796043869184416e-09
v 0.7343378067016602 -0.0551234669983387 -3.667736558909951e-09
v 0.2447812855243683 -0.11694422364234924 -1.0138632156042604e-08
v -0.24477460980415344 -0.18028266727924347 -5.619537279955011e-09
v -0.7343319058418274 -0.1500634104013443 9.471289530438298e-09
v -1.2238901853561401 -0.04861689731478691 4.286258903363205e-09
v -1.7134491205215454 0.036421846598386765 -5.8044236084242584e-11
v -2.20300555229187 -0.009202319197356701 1.257146386990371e-09
v -2.6925625801086426 -0.10502313822507858 1.369316482424665e-08
v -3.1821165084838867 -0.08590913563966751 2.019734424152375e-08
v -3.671675682067871 0.0015137961599975824 1.4896437861011691e-08
v -4.1612324714660645 0.057343631982803345 3.624904820753727e-09
v -4.650787830352783 0.0017068433808162808 6.718668732474953e-09
v -5.140346527099609 -0.12455105036497116 1.2409668848079036e-08
v -5.6312456130981445 -0.21225042641162872 4.1605037637282294e-08
v -6.11945915222168 -0.20676453411579132 4.075883097698352e-08
v -5.631372451782227 -0.15018285810947418 4.599588265818966e-08
v -6.11945915222168 -0.1378563940525055 4.312957102570181e-08
v -5.140346050262451 -0.01598586142063141 1.6444344552724033e-08
v -4.650787830352783 0.1687525510787964 9.306898363092841e-09
v -4.1612324714660645 0.25005581974983215 6.328854773585135e-09
v -3.671675682067871 0.16721254587173462 1.994183485010126e-08
v -3.1821162700653076 0.043011993169784546 2.7794518686619085e-08
v -2.6925623416900635 0.01736779883503914 2.2378312536375233e-08
v -2.20300555229187 0.16227193176746368 8.541310769771826e-09
v -1.7134500741958618 0.24105453491210938 6.522666406993949e-09
v -1.2238891124725342 0.10819631814956665 1.3597664327846815e-08
v -0.7343315482139587 -0.053614292293787 2.172737012529069e-08
v -0.244773268699646 -0.0846112072467804 7.08703939977795e-09
v 0.24478395283222198 0.06856077164411545 -4.93838581139272e-10
v 0.7343398332595825 0.19954553246498108 2.908503660137285e-09
v 1.2238929271697998 0.14514733850955963 9.008005008581677e-09
v 1.7134517431259155 0.24976025521755219 6.97736224353207e-09
v 2.2053561210632324 0.47543883323669434 -2.079907801544323e-09
v 2.721637010574341 0.3620465397834778 1.6557294202357298e-08
v 4.336746692657471 0.1877354085445404 1.9233821646480465e-08
v 4.71489953994751 -0.08115915209054947 3.116928226631899e-08
v 5.134531497955322 -0.23081104457378387 2.7496115606595595e-08
v 5.678823947906494 -0.14068014919757843 2.290001788196605e-08
v 6.119461536407471 -0.3156347870826721 4.878696202581523e-08
vn -0.0 0.0 1.0
vn -0.0 0.0 1.0
vn -0.0 0.0 1.0
vn -0.0 0.0 1.0
vn -0.0 0.0 1.0
vn -0.0 0.0 1.0
vn -0.0 0.0 1.0
vn -0.0 0.0 1.0
vn -0.0 0.0 1.0
vn -0.0 0.0 1.0
vn -0.0 0.0 1.0
vn -0.0 0.0 1.0
vn -0.0 0.0 1.0
vn -0.0 0.0 1.0
vn -0.0 0.0 1.0
vn -0.0 0.0 1.0
vn -0.0 0.0 1.0
vn -0.0 0.0 1.0
vn -0.0 0.0 1.0
vn -0.0 0.0 1.0
vn -0.0 0.0 1.0
vn -0.0 0.0 1.0
vn -0.0 0.0 1.0
vn -0.0 0.0 1.0
vn -0.0 0.0 1.0
vn -0.0 0.0 1.0
vn -0.0 0.0 1.0
vn -0.0 0.0 1.0
vn -0.0 0.0 1.0
vn -0.0 0.0 1.0
vn -0.0 0.0 1.0
vn -0.0 0.0 1.0
vn -0.0 0.0 1.0
vn -0.0 0.0 1.0
vn -0.0 0.0 1.0
vn -0.0 0.0 1.0
vn -0.0 0.0 1.0
vn -0.0 0.0 1.0
vn -0.0 0.0 1.0
vn -0.0 0.0 1.0
vn -0.0 0.0 1.0
vn -0.0 0.0 1.0
vn -0.0 0.0 1.0
vn -0.0 0.0 1.0
vn -0.0 0.0 1.0
vn -0.0 0.0 1.0
vn -0.0 0.0 1.0
vn -0.0 0.0 1.0
vn -0.0 0.0 1.0
vn -0.0 0.0 1.0
vn -0.0 0.0 1.0
vn -0.0 0.0 1.0
vn -0.0 0.0 1.0
vn -0.0 0.0 1.0
vn -0.0 0.0 1.0
vn -0.0 0.0 1.0
vn -0.0 0.0 1.0
vn -0.0 0.0 1.0
vn -0.0 0.0 1.0
vn -0.0 0.0 1.0
vn -0.0 0.0 1.0
vn -0.0 0.0 1.0
vn -0.0 0.0 1.0
vn -0.0 0.0 1.0
vn -0.0 0.0 1.0
vn -0.0 0.0 1.0
vn -0.0 0.0 1.0
vn -0.0 0.0 1.0
vn -0.0 0.0 1.0
vn -0.0 0.0 1.0
vn -0.0 0.0 1.0
vn -0.0 0.0 1.0
vn -0.0 0.0 1.0
vn -0.0 0.0 1.0
vn -0.0 0.0 1.0
vn -0.0 0.0 1.0
vn -0.0 0.0 1.0
vn -0.0 0.0 1.0
vn -0.0 0.0 1.0
vn -0.0 0.0 1.0
vn -0.0 0.0 1.0
vn -0.0 0.0 1.0
vn -0.0 0.0 1.0
vn -0.0 0.0 1.0
vn -0.0 0.0 1.0
vn -0.0 0.0 1.0
vn -0.0 0.0 1.0
vn -0.0 0.0 1.0
vn -0.0 0.0 1.0
vn -0.0 0.0 1.0
vn -0.0 0.0 1.0
vn -0.0 0.0 1.0
vn -0.0 0.0 1.0
vn -0.0 0.0 1.0
vn -0.0 0.0 1.0
vn -0.0 0.0 1.0
vn -0.0 0.0 1.0
vn -0.0 0.0 1.0
vn -0.0 0.0 1.0
vn -0.0 0.0 1.0
vn -0.0 0.0 1.0
vn -0.0 0.0 1.0
vn -0.0 0.0 1.0
vn -0.0 0.0 1.0
vt 0.0 0.6666666567325592
vt 0.03999999910593033 0.6666666567325592
vt 0.0 1.0
vt 0.03999999910593033 1.0
vt 0.07999999821186066 0.6666666567325592
vt 0.07999999821186066 1.0
vt 0.11999999731779099 0.6666666567325592
vt 0.11999999731779099 1.0
vt 0.1599999964237213 0.6666666567325592
vt 0.1599999964237213 1.0
vt 0.19999998807907104 0.6666666567325592
vt 0.19999998807907104 1.0
vt 0.23999997973442078 0.6666666567325592
vt 0.23999997973442078 1.0
vt 0.2799999713897705 0.6666666567325592
vt 0.2799999713897705 1.0
vt 0.31999996304512024 0.6666666567325592
vt 0.31999996304512024 1.0
vt 0.35999995470046997 0.6666666567325592
vt 0.35999995470046997 1.0
vt 0.3999999463558197 0.6666666567325592
vt 0.3999999463558197 1.0
vt 0.43999993801116943 0.6666666567325592
vt 0.43999993801116943 1.0
vt 0.47999992966651917 0.6666666567325592
vt 0.47999992966651917 1.0
vt 0.5199999213218689 0.6666666567325592
vt 0.5199999213218689 1.0
vt 0.559999942779541 0.6666666567325592
vt 0.559999942779541 1.0
vt 0.5999999642372131 0.6666666567325592
vt 0.5999999642372131 1.0
vt 0.6399999856948853 0.6666666567325592
vt 0.6399999856948853 1.0
vt 0.6800000071525574 0.6666666567325592
vt 0.6800000071525574 1.0
vt 0.7200000286102295 0.6666666567325592
vt 0.7200000286102295 1.0
vt 0.7600000500679016 0.6666666567325592
vt 0.7600000500679016 1.0
vt 0.8000000715255737 0.6666666567325592
vt 0.8000000715255737 1.0
vt 0.8400000929832458 0.6666666567325592
vt 0.8400000929832458 1.0
vt 0.880000114440918 0.6666666567325592
vt 0.880000114440918 1.0
vt 0.9200001358985901 0.6666666567325592
vt 0.9200001358985901 1.0
vt 0.9600001573562622 0.6666666567325592
vt 0.9600001573562622 1.0
vt 1.0000001192092896 0.6666666567325592
vt 1.0000001192092896 1.0
vt 0.7600000500679016 0.3333333134651184
vt 0.8000000715255737 0.3333333134651184
vt 0.8400000929832458 0.3333333134651184
vt 0.880000114440918 0.3333333134651184
vt 0.9200001358985901 0.3333333134651184
vt 0.9600001573562622 0.3333333134651184
vt 1.0000001192092896 0.3333333134651184
vt 0.8000000715255737 0.0
vt 0.7600000500679016 0.0
vt 0.7200000286102295 0.3333333134651184
vt 0.6800000071525574 0.3333333134651184
vt 0.6399999856948853 0.3333333134651184
vt 0.5999999642372131 0.3333333134651184
vt 0.559999942779541 0.3333333134651184
vt 0.5199999213218689 0.3333333134651184
vt 0.47999992966651917 0.3333333134651184
vt 0.43999993801116943 0.3333333134651184
vt 0.3999999463558197 0.3333333134651184
vt 0.35999995470046997 0.3333333134651184
vt 0.31999996304512024 0.3333333134651184
vt 0.2799999713897705 0.3333333134651184
vt 0.23999997973442078 0.3333333134651184
vt 0.19999998807907104 0.3333333134651184
vt 0.1599999964237213 0.3333333134651184
vt 0.11999999731779099 0.3333333134651184
vt 0.07999999821186066 0.3333333134651184
vt 0.03999999910593033 0.3333333134651184
vt 0.0 0.3333333134651184
vt 0.03999999910593033 0.0
vt 0.0 0.0
vt 0.07999999821186066 0.0
vt 0.11999999731779099 0.0
vt 0.1599999964237213 0.0
vt 0.19999998807907104 0.0
vt 0.23999997973442078 0.0
vt 0.2799999713897705 0.0
vt 0.31999996304512024 0.0
vt 0.35999995470046997 0.0
vt 0.3999999463558197 0.0
vt 0.43999993801116943 0.0
vt 0.47999992966651917 0.0
vt 0.5199999213218689 0.0
vt 0.559999942779541 0.0
vt 0.5999999642372131 0.0
vt 0.6399999856948853 0.0
vt 0.6800000071525574 0.0
vt 0.7200000286102295 0.0
vt 0.8400000929832458 0.0
vt 0.880000114440918 0.0
vt 0.9200001358985901 0.0
vt 0.9600001573562622 0.0
vt 1.0000001192092896 0.0

g beijiup
s 1
usemtl beijiup
f 3/3/3 2/2/2 1/1/1 
f 2/2/2 3/3/3 4/4/4 
f 4/4/4 5/5/5 2/2/2 
f 5/5/5 4/4/4 6/6/6 
f 6/6/6 7/7/7 5/5/5 
f 7/7/7 6/6/6 8/8/8 
f 8/8/8 9/9/9 7/7/7 
f 9/9/9 8/8/8 10/10/10 
f 10/10/10 11/11/11 9/9/9 
f 11/11/11 10/10/10 12/12/12 
f 12/12/12 13/13/13 11/11/11 
f 13/13/13 12/12/12 14/14/14 
f 14/14/14 15/15/15 13/13/13 
f 15/15/15 14/14/14 16/16/16 
f 16/16/16 17/17/17 15/15/15 
f 17/17/17 16/16/16 18/18/18 
f 18/18/18 19/19/19 17/17/17 
f 19/19/19 18/18/18 20/20/20 
f 20/20/20 21/21/21 19/19/19 
f 21/21/21 20/20/20 22/22/22 
f 22/22/22 23/23/23 21/21/21 
f 23/23/23 22/22/22 24/24/24 
f 24/24/24 25/25/25 23/23/23 
f 25/25/25 24/24/24 26/26/26 
f 26/26/26 27/27/27 25/25/25 
f 27/27/27 26/26/26 28/28/28 
f 28/28/28 29/29/29 27/27/27 
f 29/29/29 28/28/28 30/30/30 
f 30/30/30 31/31/31 29/29/29 
f 31/31/31 30/30/30 32/32/32 
f 32/32/32 33/33/33 31/31/31 
f 33/33/33 32/32/32 34/34/34 
f 34/34/34 35/35/35 33/33/33 
f 35/35/35 34/34/34 36/36/36 
f 36/36/36 37/37/37 35/35/35 
f 37/37/37 36/36/36 38/38/38 
f 38/38/38 39/39/39 37/37/37 
f 39/39/39 38/38/38 40/40/40 
f 40/40/40 41/41/41 39/39/39 
f 41/41/41 40/40/40 42/42/42 
f 42/42/42 43/43/43 41/41/41 
f 43/43/43 42/42/42 44/44/44 
f 44/44/44 45/45/45 43/43/43 
f 45/45/45 44/44/44 46/46/46 
f 46/46/46 47/47/47 45/45/45 
f 47/47/47 46/46/46 48/48/48 
f 48/48/48 49/49/49 47/47/47 
f 49/49/49 48/48/48 50/50/50 
f 50/50/50 51/51/51 49/49/49 
f 51/51/51 50/50/50 52/52/52 
f 53/53/53 37/37/37 39/39/39 
f 39/39/39 54/54/54 53/53/53 
f 54/54/54 39/39/39 41/41/41 
f 41/41/41 55/55/55 54/54/54 
f 55/55/55 41/41/41 43/43/43 
f 43/43/43 56/56/56 55/55/55 
f 56/56/56 43/43/43 45/45/45 
f 45/45/45 57/57/57 56/56/56 
f 57/57/57 45/45/45 47/47/47 
f 47/47/47 58/58/58 57/57/57 
f 58/58/58 47/47/47 49/49/49 
f 49/49/49 59/59/59 58/58/58 
f 59/59/59 49/49/49 51/51/51 
f 60/60/60 53/53/53 54/54/54 
f 53/53/53 60/60/60 61/61/61 
f 61/61/61 62/62/62 53/53/53 
f 37/37/37 53/53/53 62/62/62 
f 62/62/62 35/35/35 37/37/37 
f 35/35/35 62/62/62 63/63/63 
f 63/63/63 33/33/33 35/35/35 
f 33/33/33 63/63/63 64/64/64 
f 64/64/64 31/31/31 33/33/33 
f 31/31/31 64/64/64 65/65/65 
f 65/65/65 29/29/29 31/31/31 
f 29/29/29 65/65/65 66/66/66 
f 66/66/66 27/27/27 29/29/29 
f 27/27/27 66/66/66 67/67/67 
f 67/67/67 25/25/25 27/27/27 
f 25/25/25 67/67/67 68/68/68 
f 68/68/68 23/23/23 25/25/25 
f 23/23/23 68/68/68 69/69/69 
f 69/69/69 21/21/21 23/23/23 
f 21/21/21 69/69/69 70/70/70 
f 70/70/70 19/19/19 21/21/21 
f 19/19/19 70/70/70 71/71/71 
f 71/71/71 17/17/17 19/19/19 
f 17/17/17 71/71/71 72/72/72 
f 72/72/72 15/15/15 17/17/17 
f 15/15/15 72/72/72 73/73/73 
f 73/73/73 13/13/13 15/15/15 
f 13/13/13 73/73/73 74/74/74 
f 74/74/74 11/11/11 13/13/13 
f 11/11/11 74/74/74 75/75/75 
f 75/75/75 9/9/9 11/11/11 
f 9/9/9 75/75/75 76/76/76 
f 76/76/76 7/7/7 9/9/9 
f 7/7/7 76/76/76 77/77/77 
f 77/77/77 5/5/5 7/7/7 
f 5/5/5 77/77/77 78/78/78 
f 78/78/78 2/2/2 5/5/5 
f 2/2/2 78/78/78 79/79/79 
f 79/79/79 1/1/1 2/2/2 
f 1/1/1 79/79/79 80/80/80 
f 81/81/81 80/80/80 79/79/79 
f 80/80/80 81/81/81 82/82/82 
f 79/79/79 83/83/83 81/81/81 
f 83/83/83 79/79/79 78/78/78 
f 78/78/78 84/84/84 83/83/83 
f 84/84/84 78/78/78 77/77/77 
f 77/77/77 85/85/85 84/84/84 
f 85/85/85 77/77/77 76/76/76 
f 76/76/76 86/86/86 85/85/85 
f 86/86/86 76/76/76 75/75/75 
f 75/75/75 87/87/87 86/86/86 
f 87/87/87 75/75/75 74/74/74 
f 74/74/74 88/88/88 87/87/87 
f 88/88/88 74/74/74 73/73/73 
f 73/73/73 89/89/89 88/88/88 
f 89/89/89 73/73/73 72/72/72 
f 72/72/72 90/90/90 89/89/89 
f 90/90/90 72/72/72 71/71/71 
f 71/71/71 91/91/91 90/90/90 
f 91/91/91 71/71/71 70/70/70 
f 70/70/70 92/92/92 91/91/91 
f 92/92/92 70/70/70 69/69/69 
f 69/69/69 93/93/93 92/92/92 
f 93/93/93 69/69/69 68/68/68 
f 68/68/68 94/94/94 93/93/93 
f 94/94/94 68/68/68 67/67/67 
f 67/67/67 95/95/95 94/94/94 
f 95/95/95 67/67/67 66/66/66 
f 66/66/66 96/96/96 95/95/95 
f 96/96/96 66/66/66 65/65/65 
f 65/65/65 97/97/97 96/96/96 
f 97/97/97 65/65/65 64/64/64 
f 64/64/64 98/98/98 97/97/97 
f 98/98/98 64/64/64 63/63/63 
f 63/63/63 99/99/99 98/98/98 
f 99/99/99 63/63/63 62/62/62 
f 62/62/62 61/61/61 99/99/99 
f 54/54/54 100/100/100 60/60/60 
f 100/100/100 54/54/54 55/55/55 
f 55/55/55 101/101/101 100/100/100 
f 101/101/101 55/55/55 56/56/56 
f 56/56/56 102/102/102 101/101/101 
f 102/102/102 56/56/56 57/57/57 
f 57/57/57 103/103/103 102/102/102 
f 103/103/103 57/57/57 58/58/58 
f 58/58/58 104/104/104 103/103/103 
f 104/104/104 58/58/58 59/59/59 

