v -1.398111404427027e-08 0.0858154445886612 -0.06304296106100082
v -1.398111404427027e-08 0.0858154445886612 2.414541100392853e-08
v -0.01342451199889183 0.08475890755653381 2.414541100392853e-08
v -0.01342451199889183 0.08475890755653381 -0.06304296106100082
v -0.026518456637859344 0.08161532878875732 2.414541100392853e-08
v -0.026518456637859344 0.08161532878875732 -0.06304296106100082
v -0.03895942494273186 0.07646211236715317 2.414541100392853e-08
v -0.03895942494273186 0.07646211236715317 -0.06304296106100082
v -0.05044108256697655 0.06942613422870636 2.414541100392853e-08
v -0.05044108256697655 0.06942613422870636 -0.06304296106100082
v -0.06068071350455284 0.06068066135048866 2.414541100392853e-08
v -0.06068071350455284 0.06068066135048866 -0.06304296106100082
v -0.06942617893218994 0.050441015511751175 2.414541100392853e-08
v -0.06942617893218994 0.050441015511751175 -0.06304296106100082
v -0.07646214962005615 0.03895935043692589 2.414541100392853e-08
v -0.07646214962005615 0.03895935043692589 -0.06304296106100082
v -0.08161535859107971 0.02651837468147278 2.414541100392853e-08
v -0.08161535859107971 0.02651837468147278 -0.06304296106100082
v -0.0847589299082756 0.013424430973827839 2.414541100392853e-08
v -0.0847589299082756 0.013424430973827839 -0.06304296106100082
v -0.0858154445886612 -6.888221548706497e-08 2.414541100392853e-08
v -0.0858154445886612 -6.888221548706497e-08 -0.06304296106100082
v -0.08475890010595322 -0.013424567878246307 2.414541100392853e-08
v -0.08475890010595322 -0.013424567878246307 -0.06304296106100082
v -0.08161531388759613 -0.026518506929278374 2.414541100392853e-08
v -0.08161531388759613 -0.026518506929278374 -0.06304296106100082
v -0.07646208256483078 -0.03895947337150574 2.414541100392853e-08
v -0.07646208256483078 -0.03895947337150574 -0.06304296106100082
v -0.06942610442638397 -0.05044113099575043 2.414541100392853e-08
v -0.06942610442638397 -0.05044113099575043 -0.06304296106100082
v -0.08161535859107971 0.02651837468147278 0.06304299831390381
v -0.0847589299082756 0.013424430973827839 0.06304299831390381
v -0.0858154445886612 -6.888221548706497e-08 0.06304299831390381
v -0.08475890010595322 -0.013424567878246307 0.06304299831390381
v -0.08161531388759613 -0.026518506929278374 0.06304299831390381
v -0.07646208256483078 -0.03895947337150574 0.06304299831390381
v -0.06942610442638397 -0.05044113099575043 0.06304299831390381
v -0.07646214962005615 0.03895935043692589 0.06304299831390381
v -0.06942617893218994 0.050441015511751175 0.06304299831390381
v -0.06068071350455284 0.06068066135048866 0.06304299831390381
v -0.05044108256697655 0.06942613422870636 0.06304299831390381
v -0.03895942494273186 0.07646211236715317 0.06304299831390381
v -0.026518456637859344 0.08161532878875732 0.06304299831390381
v -0.01342451199889183 0.08475890755653381 0.06304299831390381
v -1.398111404427027e-08 0.0858154445886612 0.06304299831390381
v -2.8610228852699038e-08 0.15413157641887665 2.8610228852699038e-08
v -1.907348590179936e-08 0.0858798548579216 2.996126724497117e-08
v -0.013434586115181446 0.08482252061367035 2.996126724497117e-08
v -0.024111522361636162 0.15223394334316254 2.8610228852699038e-08
v -0.026538362726569176 0.08167659491300583 2.996126724497117e-08
v -0.04762931540608406 0.1465878039598465 2.8610228852699038e-08
v -0.03898867219686508 0.07651950418949127 2.996126724497117e-08
v -0.06997431814670563 0.13733220100402832 2.8610228852699038e-08
v -0.050478942692279816 0.06947825103998184 2.996126724497117e-08
v -0.09059631079435349 0.12469501048326492 2.8610228852699038e-08
v -0.06072625890374184 0.06072620302438736 2.996126724497117e-08
v -0.10898751765489578 0.10898744314908981 2.8610228852699038e-08
v -0.06947828829288483 0.05047887563705444 2.996126724497117e-08
v -0.12469509989023209 0.09059619903564453 2.8610228852699038e-08
v -0.07651954144239426 0.03898859769105911 2.996126724497117e-08
v -0.1373322755098343 0.06997419148683548 2.8610228852699038e-08
v -0.08167661726474762 0.026538286358118057 2.996126724497117e-08
v -0.14658786356449127 0.04762916639447212 2.8610228852699038e-08
v -0.08482255041599274 0.0134345144033432 2.996126724497117e-08
v -0.15223397314548492 0.024111365899443626 2.8610228852699038e-08
v -0.0858798548579216 -6.67572024326546e-08 2.996126724497117e-08
v -0.15413156151771545 -1.1444091541079615e-07 2.8610228852699038e-08
v -0.08482252061367035 -0.013434648513793945 2.996126724497117e-08
v -0.15223392844200134 -0.024111619219183922 2.8610228852699038e-08
v -0.08167658001184464 -0.026538409292697906 2.996126724497117e-08
v -0.1465877890586853 -0.04762941226363182 2.8610228852699038e-08
v -0.07651946693658829 -0.03898871690034866 2.996126724497117e-08
v -0.13733215630054474 -0.06997440755367279 2.8610228852699038e-08
v -0.06947821378707886 -0.050478991121053696 2.996126724497117e-08
v -0.12469496577978134 -0.09059640765190125 2.8610228852699038e-08
v -0.016765374690294266 0.0054473779164254665 2.8610228852699038e-08
v -0.0174111220985651 0.002757654059678316 2.8610228852699038e-08
v -0.017628150060772896 -1.907348590179936e-08 2.8610228852699038e-08
v -0.017411107197403908 -0.002757663605734706 2.8610228852699038e-08
v -0.016765359789133072 -0.005447416100651026 2.8610228852699038e-08
v -0.015706786885857582 -0.008003025315701962 2.8610228852699038e-08
v -0.014261455275118351 -0.01036157552152872 2.8610228852699038e-08
v -0.015706801787018776 0.008002996444702148 2.8610228852699038e-08
v -0.014261479489505291 0.010361566208302975 2.8610228852699038e-08
v -0.01246498990803957 0.012464980594813824 2.8610228852699038e-08
v -0.010361570864915848 0.014261464588344097 2.8610228852699038e-08
v -0.008003019727766514 0.015706805512309074 2.8610228852699038e-08
v -0.00544740678742528 0.01676536537706852 2.8610228852699038e-08
v -0.002757654059678316 0.017411116510629654 2.8610228852699038e-08
v -0.0 0.017628144472837448 2.8610228852699038e-08
vn -0.07845958322286606 0.9969173073768616 0.0
vn -0.07845958322286606 0.9969173073768616 0.0
vn -0.15643469989299774 0.9876883029937744 0.0
vn -0.15643469989299774 0.9876883029937744 0.0
vn -0.3090170919895172 0.9510565400123596 0.0
vn -0.3090170919895172 0.9510565400123596 0.0
vn -0.4539908170700073 0.891006350517273 0.0
vn -0.4539908170700073 0.891006350517273 0.0
vn -0.587785542011261 0.809016764163971 0.0
vn -0.587785542011261 0.809016764163971 0.0
vn -0.7071071863174438 0.707106351852417 0.0
vn -0.7071071863174438 0.707106351852417 0.0
vn -0.8090173006057739 0.5877847671508789 0.0
vn -0.8090173006057739 0.5877847671508789 0.0
vn -0.8910067081451416 0.45399010181427 0.0
vn -0.8910067081451416 0.45399010181427 0.0
vn -0.951056718826294 0.3090164065361023 0.0
vn -0.951056718826294 0.3090163767337799 0.0
vn -0.9876884818077087 0.15643367171287537 0.0
vn -0.9876884818077087 0.15643367171287537 0.0
vn -1.0 -1.0586223879727186e-06 0.0
vn -1.0 -1.056243377206556e-06 0.0
vn -0.9876881837844849 -0.15643541514873505 0.0
vn -0.9876881837844849 -0.15643540024757385 0.0
vn -0.9510562419891357 -0.30901777744293213 0.0
vn -0.9510562419891357 -0.30901777744293213 0.0
vn -0.8910061120986938 -0.45399126410484314 0.0
vn -0.8910061717033386 -0.45399123430252075 0.0
vn -0.8526397943496704 -0.5224992036819458 0.0
vn -0.8526397943496704 -0.5224992036819458 0.0
vn -0.951056718826294 0.3090164363384247 0.0
vn -0.9876884818077087 0.15643367171287537 0.0
vn -1.0 -1.0610013987388811e-06 0.0
vn -0.9876881837844849 -0.15643543004989624 0.0
vn -0.9510562419891357 -0.30901777744293213 0.0
vn -0.8910061120986938 -0.45399126410484314 0.0
vn -0.8526397943496704 -0.5224992036819458 0.0
vn -0.8910067677497864 0.45399001240730286 0.0
vn -0.8090173006057739 0.5877847671508789 0.0
vn -0.7071071863174438 0.7071064114570618 0.0
vn -0.587785542011261 0.809016764163971 0.0
vn -0.4539908468723297 0.891006350517273 0.0
vn -0.3090170919895172 0.9510564804077148 0.0
vn -0.15643469989299774 0.9876883029937744 0.0
vn -0.07845959067344666 0.9969173073768616 0.0
vn -0.0 0.0 1.0
vn -0.0 0.0 1.0
vn -0.0 0.0 1.0
vn -0.0 0.0 1.0
vn -0.0 0.0 1.0
vn -0.0 0.0 1.0
vn -0.0 0.0 1.0
vn -0.0 0.0 1.0
vn -0.0 0.0 1.0
vn -0.0 0.0 1.0
vn -0.0 0.0 1.0
vn -0.0 0.0 1.0
vn -0.0 0.0 1.0
vn -0.0 0.0 1.0
vn -0.0 0.0 1.0
vn -0.0 0.0 1.0
vn -0.0 0.0 1.0
vn -0.0 0.0 1.0
vn -0.0 0.0 1.0
vn -0.0 0.0 1.0
vn -0.0 0.0 1.0
vn -0.0 0.0 1.0
vn -0.0 0.0 1.0
vn -0.0 0.0 1.0
vn -0.0 0.0 1.0
vn -0.0 0.0 1.0
vn -0.0 0.0 1.0
vn -0.0 0.0 1.0
vn -0.0 0.0 1.0
vn -0.0 0.0 1.0
vn -0.0 0.0 1.0
vn -0.0 0.0 1.0
vn -0.0 0.0 1.0
vn -0.0 0.0 1.0
vn -0.0 0.0 1.0
vn -0.0 0.0 1.0
vn -0.0 0.0 1.0
vn -0.0 0.0 1.0
vn -0.0 0.0 1.0
vn -0.0 0.0 1.0
vn -0.0 0.0 1.0
vn -0.0 0.0 1.0
vn -0.0 0.0 1.0
vn -0.0 0.0 1.0
vn -0.0 0.0 1.0
vt 5.205717101830487e-08 1.0
vt 5.205717101830487e-08 0.5
vt 0.07145241647958755 0.5
vt 0.07145241647958755 1.0
vt 0.14290478825569153 0.5
vt 0.14290478825569153 1.0
vt 0.2143571525812149 0.5
vt 0.2143571525812149 1.0
vt 0.28580954670906067 0.5
vt 0.28580954670906067 1.0
vt 0.35726192593574524 0.5
vt 0.35726192593574524 1.0
vt 0.4287142753601074 0.5
vt 0.4287142753601074 1.0
vt 0.500166654586792 0.5
vt 0.500166654586792 1.0
vt 0.5716190934181213 0.5
vt 0.5716190934181213 1.0
vt 0.6430714130401611 0.5
vt 0.6430714130401611 1.0
vt 0.7145236730575562 0.5
vt 0.7145236730575562 1.0
vt 0.7859761118888855 0.5
vt 0.7859761118888855 1.0
vt 0.8574284911155701 0.5
vt 0.8574284911155701 1.0
vt 0.9288808107376099 0.5
vt 0.9288808107376099 1.0
vt 1.0003331899642944 0.5
vt 1.0003331899642944 1.0
vt 0.5716190934181213 0.0
vt 0.6430714130401611 0.0
vt 0.7145236730575562 0.0
vt 0.7859761118888855 0.0
vt 0.8574284911155701 0.0
vt 0.9288808107376099 0.0
vt 1.0003331899642944 0.0
vt 0.500166654586792 0.0
vt 0.4287142753601074 0.0
vt 0.35726192593574524 0.0
vt 0.28580954670906067 0.0
vt 0.2143571525812149 0.0
vt 0.14290478825569153 0.0
vt 0.07145241647958755 0.0
vt 5.205717101830487e-08 0.0
vt 5.205717101830487e-08 1.0
vt 5.205717101830487e-08 0.5
vt 0.07145241647958755 0.5
vt 0.07145241647958755 1.0
vt 0.14290478825569153 0.5
vt 0.14290478825569153 1.0
vt 0.2143571525812149 0.5
vt 0.2143571525812149 1.0
vt 0.28580954670906067 0.5
vt 0.28580954670906067 1.0
vt 0.35726192593574524 0.5
vt 0.35726192593574524 1.0
vt 0.4287142753601074 0.5
vt 0.4287142753601074 1.0
vt 0.500166654586792 0.5
vt 0.500166654586792 1.0
vt 0.5716190934181213 0.5
vt 0.5716190934181213 1.0
vt 0.6430714130401611 0.5
vt 0.6430714130401611 1.0
vt 0.7145236730575562 0.5
vt 0.7145236730575562 1.0
vt 0.7859761118888855 0.5
vt 0.7859761118888855 1.0
vt 0.8574284911155701 0.5
vt 0.8574284911155701 1.0
vt 0.9288808107376099 0.5
vt 0.9288808107376099 1.0
vt 1.0003331899642944 0.5
vt 1.0003331899642944 1.0
vt 0.5716190934181213 0.0
vt 0.6430714130401611 0.0
vt 0.7145236730575562 0.0
vt 0.7859761118888855 0.0
vt 0.8574284911155701 0.0
vt 0.9288808107376099 0.0
vt 1.0003331899642944 0.0
vt 0.500166654586792 0.0
vt 0.4287142753601074 0.0
vt 0.35726192593574524 0.0
vt 0.28580954670906067 0.0
vt 0.2143571525812149 0.0
vt 0.14290478825569153 0.0
vt 0.07145241647958755 0.0
vt 5.205717101830487e-08 0.0

g Cylinder001
s 1
usemtl Cylinder001
f 3/3/3 2/2/2 1/1/1 
f 4/4/4 3/3/3 1/1/1 
f 5/5/5 3/3/3 4/4/4 
f 6/6/6 5/5/5 4/4/4 
f 7/7/7 5/5/5 6/6/6 
f 8/8/8 7/7/7 6/6/6 
f 9/9/9 7/7/7 8/8/8 
f 10/10/10 9/9/9 8/8/8 
f 11/11/11 9/9/9 10/10/10 
f 12/12/12 11/11/11 10/10/10 
f 13/13/13 11/11/11 12/12/12 
f 14/14/14 13/13/13 12/12/12 
f 15/15/15 13/13/13 14/14/14 
f 16/16/16 15/15/15 14/14/14 
f 17/17/17 15/15/15 16/16/16 
f 18/18/18 17/17/17 16/16/16 
f 19/19/19 17/17/17 18/18/18 
f 20/20/20 19/19/19 18/18/18 
f 21/21/21 19/19/19 20/20/20 
f 22/22/22 21/21/21 20/20/20 
f 23/23/23 21/21/21 22/22/22 
f 24/24/24 23/23/23 22/22/22 
f 25/25/25 23/23/23 24/24/24 
f 26/26/26 25/25/25 24/24/24 
f 27/27/27 25/25/25 26/26/26 
f 28/28/28 27/27/27 26/26/26 
f 29/29/29 27/27/27 28/28/28 
f 30/30/30 29/29/29 28/28/28 
f 17/17/17 31/31/31 15/15/15 
f 32/32/32 31/31/31 17/17/17 
f 19/19/19 32/32/32 17/17/17 
f 33/33/33 32/32/32 19/19/19 
f 21/21/21 33/33/33 19/19/19 
f 34/34/34 33/33/33 21/21/21 
f 23/23/23 34/34/34 21/21/21 
f 35/35/35 34/34/34 23/23/23 
f 25/25/25 35/35/35 23/23/23 
f 36/36/36 35/35/35 25/25/25 
f 27/27/27 36/36/36 25/25/25 
f 37/37/37 36/36/36 27/27/27 
f 29/29/29 37/37/37 27/27/27 
f 31/31/31 38/38/38 15/15/15 
f 15/15/15 38/38/38 13/13/13 
f 38/38/38 39/39/39 13/13/13 
f 13/13/13 39/39/39 11/11/11 
f 39/39/39 40/40/40 11/11/11 
f 11/11/11 40/40/40 9/9/9 
f 40/40/40 41/41/41 9/9/9 
f 9/9/9 41/41/41 7/7/7 
f 41/41/41 42/42/42 7/7/7 
f 7/7/7 42/42/42 5/5/5 
f 42/42/42 43/43/43 5/5/5 
f 5/5/5 43/43/43 3/3/3 
f 43/43/43 44/44/44 3/3/3 
f 3/3/3 44/44/44 2/2/2 
f 44/44/44 45/45/45 2/2/2 
f 48/48/48 47/47/47 46/46/46 
f 49/49/49 48/48/48 46/46/46 
f 50/50/50 48/48/48 49/49/49 
f 51/51/51 50/50/50 49/49/49 
f 52/52/52 50/50/50 51/51/51 
f 53/53/53 52/52/52 51/51/51 
f 54/54/54 52/52/52 53/53/53 
f 55/55/55 54/54/54 53/53/53 
f 56/56/56 54/54/54 55/55/55 
f 57/57/57 56/56/56 55/55/55 
f 58/58/58 56/56/56 57/57/57 
f 59/59/59 58/58/58 57/57/57 
f 60/60/60 58/58/58 59/59/59 
f 61/61/61 60/60/60 59/59/59 
f 62/62/62 60/60/60 61/61/61 
f 63/63/63 62/62/62 61/61/61 
f 64/64/64 62/62/62 63/63/63 
f 65/65/65 64/64/64 63/63/63 
f 66/66/66 64/64/64 65/65/65 
f 67/67/67 66/66/66 65/65/65 
f 68/68/68 66/66/66 67/67/67 
f 69/69/69 68/68/68 67/67/67 
f 70/70/70 68/68/68 69/69/69 
f 71/71/71 70/70/70 69/69/69 
f 72/72/72 70/70/70 71/71/71 
f 73/73/73 72/72/72 71/71/71 
f 74/74/74 72/72/72 73/73/73 
f 75/75/75 74/74/74 73/73/73 
f 62/62/62 76/76/76 60/60/60 
f 77/77/77 76/76/76 62/62/62 
f 64/64/64 77/77/77 62/62/62 
f 78/78/78 77/77/77 64/64/64 
f 66/66/66 78/78/78 64/64/64 
f 79/79/79 78/78/78 66/66/66 
f 68/68/68 79/79/79 66/66/66 
f 80/80/80 79/79/79 68/68/68 
f 70/70/70 80/80/80 68/68/68 
f 81/81/81 80/80/80 70/70/70 
f 72/72/72 81/81/81 70/70/70 
f 82/82/82 81/81/81 72/72/72 
f 74/74/74 82/82/82 72/72/72 
f 76/76/76 83/83/83 60/60/60 
f 60/60/60 83/83/83 58/58/58 
f 83/83/83 84/84/84 58/58/58 
f 58/58/58 84/84/84 56/56/56 
f 84/84/84 85/85/85 56/56/56 
f 56/56/56 85/85/85 54/54/54 
f 85/85/85 86/86/86 54/54/54 
f 54/54/54 86/86/86 52/52/52 
f 86/86/86 87/87/87 52/52/52 
f 52/52/52 87/87/87 50/50/50 
f 87/87/87 88/88/88 50/50/50 
f 50/50/50 88/88/88 48/48/48 
f 88/88/88 89/89/89 48/48/48 
f 48/48/48 89/89/89 47/47/47 
f 89/89/89 90/90/90 47/47/47 

