v -0.4595780074596405 0.4595780074596405 0.0
v 0.4595780074596405 0.4595780074596405 0.0
v -0.4595780074596405 -0.4595780074596405 0.0
v 0.4595780074596405 -0.4595780074596405 0.0
vn -0.0 0.0 1.0
vn -0.0 0.0 1.0
vn -0.0 0.0 1.0
vn -0.0 0.0 1.0
vt 0.0 0.0
vt 1.0 0.0
vt 0.0 1.0
vt 1.0 1.0

g Plane01
s 1
usemtl Plane01
f 3/3/3 2/2/2 1/1/1 
f 2/2/2 3/3/3 4/4/4 

