v 1.8366258144378662 -1.3450392484664917 -1.2707574367523193
v 2.8022308349609375 -1.409529209136963 -0.5443770289421082
v 2.961578607559204 -1.1004691123962402 -0.7520296573638916
v 1.9625437259674072 -1.1004688739776611 -1.434752106666565
v 1.6875967979431152 -1.5842419862747192 -1.107765555381775
v 2.6267735958099365 -1.6878196001052856 -0.351856529712677
v 1.510695219039917 -1.8167972564697266 -0.9254900217056274
v 2.438117027282715 -1.9272587299346924 -0.1561608463525772
v 1.3076536655426025 -2.031628131866455 -0.7083035111427307
v 2.2409160137176514 -2.1223552227020264 0.056530021131038666
v 1.1396347284317017 -2.1599650382995605 -0.5211093425750732
v 2.0654525756835938 -2.256481170654297 0.2520182430744171
v 0.9285784959793091 -2.284611701965332 -0.2859663963317871
v 1.8489781618118286 -2.3843517303466797 0.49319779872894287
v 0.6891815662384033 -2.395549774169922 -0.019248254597187042
v 1.6047022342681885 -2.49755597114563 0.7653516530990601
v 0.4358339011669159 -2.483319044113159 0.2630125880241394
v 1.3461401462554932 -2.587125301361084 1.0534220933914185
v 0.18291711807250977 -2.538682222366333 0.5447936058044434
v 1.0868180990219116 -2.6438684463500977 1.3423393964767456
v -0.05557257682085037 -2.5530147552490234 0.8105009198188782
v 0.8402871489524841 -2.6586835384368896 1.6170055866241455
v -0.29119348526000977 -2.532435655593872 1.0730122327804565
v 0.5989531874656677 -2.6376118659973145 1.8858819007873535
v -0.5301988124847412 -2.4831790924072266 1.3392940759658813
v 0.354566365480423 -2.5872483253479004 2.1581594944000244
v -0.7671559453010559 -2.4063050746917725 1.603294014930725
v 0.11228889226913452 -2.5086464881896973 2.428086757659912
v -0.9966463446617126 -2.302938461303711 1.8589749336242676
v -0.12270814925432205 -2.4027934074401855 2.6899030208587646
v -1.2132515907287598 -2.1742827892303467 2.1003005504608154
v -0.34524819254875183 -2.270599842071533 2.937840461730957
v -1.4304410219192505 -2.0056164264678955 2.3422765731811523
v -0.5690792798995972 -2.096792221069336 3.187216281890869
v -1.656438946723938 -1.7799477577209473 2.594066619873047
v -0.8021203279495239 -1.8640600442886353 3.4468536376953125
v -1.8351505994796753 -1.551145076751709 2.7931740283966064
v -0.986920952796936 -1.6274688243865967 3.6527445316314697
v -1.9832087755203247 -1.3192429542541504 2.958129405975342
v -1.1389830112457275 -1.3893353939056396 3.8221607208251953
v -2.117567539215088 -1.0831778049468994 3.1078221797943115
v -1.2746700048446655 -1.1509596109390259 3.9733333587646484
v 2.0620920658111572 -0.9804807305335999 -0.530249297618866
v 2.5767672061920166 -1.774088978767395 -1.284885287284851
v 2.724187135696411 -1.4880387783050537 -1.4769610166549683
v 2.1999380588531494 -0.7129004597663879 -0.7098212838172913
v 1.9170897006988525 -1.2103451490402222 -0.3731744587421417
v 2.397282600402832 -2.0617175102233887 -1.0864477157592773
v 1.7652311325073242 -1.4027867317199707 -0.22129036486148834
v 2.1835827827453613 -2.3412704467773438 -0.8603602647781372
v 1.607143521308899 -1.559584617614746 -0.0605601891875267
v 1.9414275884628296 -2.5943996906280518 -0.5912129878997803
v 1.4778591394424438 -1.657801866531372 0.08347871154546738
v 1.7272295951843262 -2.758645534515381 -0.35256990790367126
v 1.2949930429458618 -1.7656755447387695 0.2872140407562256
v 1.4825645685195923 -2.9032886028289795 -0.07998272031545639
v 1.0809814929962158 -1.8648247718811035 0.5256494879722595
v 1.2129030227661133 -3.0282821655273438 0.22045396268367767
v 0.8547645807266235 -1.9432251453399658 0.7776833176612854
v 0.9272101521492004 -3.1272199153900146 0.5387513637542725
v 0.6351728439331055 -1.9914084672927856 1.0223358869552612
v 0.6345626711845398 -3.1911423206329346 0.8647971749305725
v 0.43852221965789795 -2.0032315254211426 1.241429090499878
v 0.34619268774986267 -3.2084665298461914 1.1860772371292114
v 0.23262383043766022 -1.985215187072754 1.4708255529403687
v 0.07513619214296341 -3.1848318576812744 1.4880679845809937
v 0.021617813035845757 -1.9417186975479126 1.705912470817566
v -0.1972503513097763 -3.1287081241607666 1.7915406227111816
v -0.18765808641910553 -1.8738338947296143 1.9390718936920166
v -0.4672090709209442 -3.041116952896118 2.0923080444335938
v -0.3884979486465454 -1.7834038734436035 2.162832736968994
v -0.7308566570281982 -2.9223275184631348 2.38604474067688
v -0.5742239356040955 -1.673155426979065 2.3697543144226074
v -0.9842763543128967 -2.771725654602051 2.6683855056762695
v -0.7568582892417908 -1.5312362909317017 2.5732319355010986
v -1.2426623106002808 -2.5711710453033447 2.9562597274780273
v -0.9462112188339233 -1.3423196077346802 2.7841944694519043
v -1.512347936630249 -2.3016865253448486 3.256723165512085
v -1.093244194984436 -1.1540406942367554 2.948007583618164
v -1.7288272380828857 -2.024571657180786 3.497908115386963
v -1.2204694747924805 -0.9545591473579407 3.089752435684204
v -1.901723027229309 -1.75401771068573 3.6905360221862793
v -1.347915768623352 -0.7305165529251099 3.231743574142456
v -2.0443220138549805 -1.5036191940307617 3.8494088649749756
vn 0.422490656375885 -0.6614753007888794 -0.6196387410163879
vn 0.42244064807891846 -0.6615669131278992 -0.6195749640464783
vn 0.43107712268829346 -0.6454126238822937 -0.6305672526359558
vn 0.43107715249061584 -0.6454126238822937 -0.6305672526359558
vn 0.39412036538124084 -0.7085740566253662 -0.5853134989738464
vn 0.39398857951164246 -0.7087762951850891 -0.5851573348045349
vn 0.3440650701522827 -0.7785472273826599 -0.5248653292655945
vn 0.3438694179058075 -0.7787951827049255 -0.5246254801750183
vn 0.27576249837875366 -0.8537150025367737 -0.4417303800582886
vn 0.2761114239692688 -0.8533833622932434 -0.4421531856060028
vn 0.2086907923221588 -0.9080221056938171 -0.36324092745780945
vn 0.20867697894573212 -0.9080314636230469 -0.36322563886642456
vn 0.1556476652622223 -0.9398190975189209 -0.3041609227657318
vn 0.15564504265785217 -0.9398205280303955 -0.3041580021381378
vn 0.1085055023431778 -0.9617190361022949 -0.2516408860683441
vn 0.10850758850574493 -0.9617182016372681 -0.25164324045181274
vn 0.05823696404695511 -0.9789463877677917 -0.19563332200050354
vn 0.05824442580342293 -0.9789443016052246 -0.1956416517496109
vn -0.0034537038300186396 -0.9919079542160034 -0.12691248953342438
vn -0.0034365439787507057 -0.9919054508209229 -0.12693160772323608
vn -0.07101903855800629 -0.9961379170417786 -0.051629260182380676
vn -0.07104784995317459 -0.9961375594139099 -0.051597192883491516
vn -0.129791721701622 -0.9914445281028748 0.013850363902747631
vn -0.12979328632354736 -0.9914442896842957 0.013852115720510483
vn -0.18091686069965363 -0.9809460043907166 0.07080987840890884
vn -0.1809166818857193 -0.9809460043907166 0.07080968469381332
vn -0.2314472198486328 -0.9645081162452698 0.127107173204422
vn -0.23144535720348358 -0.9645088911056519 0.12710510194301605
vn -0.2837561070919037 -0.9408052563667297 0.18538649380207062
vn -0.2837521731853485 -0.9408071041107178 0.18538209795951843
vn -0.341252863407135 -0.9062715172767639 0.24943609535694122
vn -0.3412395715713501 -0.9062806367874146 0.24942129850387573
vn -0.4033219814300537 -0.8577992916107178 0.31860899925231934
vn -0.40331077575683594 -0.8578091859817505 0.3185964822769165
vn -0.4665674567222595 -0.7943265438079834 0.38905036449432373
vn -0.46657609939575195 -0.7943167090415955 0.38906005024909973
vn -0.5223042964935303 -0.7236433625221252 0.45115232467651367
vn -0.5223208665847778 -0.7236200571060181 0.45117080211639404
vn -0.5589253306388855 -0.6675111651420593 0.49196675419807434
vn -0.5589383840560913 -0.6674895882606506 0.49198123812675476
vn -0.5714614987373352 -0.6461090445518494 0.5059396624565125
vn -0.5714614391326904 -0.6461089849472046 0.5059396624565125
vn -0.7996553778648376 0.049664583057165146 -0.5984017848968506
vn -0.7997779846191406 0.04945317655801773 -0.598255455493927
vn -0.8122255802154541 0.02734733372926712 -0.5827021598815918
vn -0.8122255802154541 0.02734733372926712 -0.582702100276947
vn -0.7783091068267822 0.08122625946998596 -0.6226051449775696
vn -0.7783828377723694 0.08114173263311386 -0.6225239634513855
vn -0.7689319252967834 0.08712215721607208 -0.6333668231964111
vn -0.7689383029937744 0.08714300394058228 -0.6333560347557068
vn -0.7678799629211426 0.08078941702842712 -0.6354789733886719
vn -0.7678800225257874 0.08077972382307053 -0.6354800462722778
vn -0.7653530836105347 0.07962086796760559 -0.6386667490005493
vn -0.7653398513793945 0.07962951064109802 -0.6386814117431641
vn -0.7606967091560364 0.08240151405334473 -0.6438559293746948
vn -0.760694146156311 0.08240286260843277 -0.643858790397644
vn -0.7565613985061646 0.08432114869356155 -0.6484635472297668
vn -0.7565634250640869 0.08432027697563171 -0.6484611630439758
vn -0.7521514892578125 0.08583349734544754 -0.6533763408660889
vn -0.7521589994430542 0.08583138883113861 -0.6533681154251099
vn -0.7467383742332458 0.08696328848600388 -0.6594082117080688
vn -0.7467555403709412 0.08696076273918152 -0.6593891382217407
vn -0.7408360242843628 0.08733787387609482 -0.6659835577011108
vn -0.7408072352409363 0.08733712881803513 -0.6660156846046448
vn -0.7356700301170349 0.08692575246095657 -0.6717391014099121
vn -0.7356685400009155 0.08692552894353867 -0.6717408895492554
vn -0.7311869263648987 0.08600500226020813 -0.6767339706420898
vn -0.7311870455741882 0.08600503206253052 -0.6767337322235107
vn -0.7267559170722961 0.08456361293792725 -0.681670606136322
vn -0.7267577648162842 0.08456432074308395 -0.6816685795783997
vn -0.7221686244010925 0.08248523622751236 -0.6867814660072327
vn -0.7221724390983582 0.08248722553253174 -0.6867771148681641
vn -0.7171252369880676 0.07944852858781815 -0.6924011707305908
vn -0.7171385884284973 0.07945752888917923 -0.6923863291740417
vn -0.7116785049438477 0.07521003484725952 -0.6984677910804749
vn -0.7116897106170654 0.07521989941596985 -0.698455274105072
vn -0.7061503529548645 0.06964261084794998 -0.704628586769104
vn -0.7061417698860168 0.06963271647691727 -0.7046383619308472
vn -0.7012656331062317 0.0634540542960167 -0.7100704312324524
vn -0.701249361038208 0.0634305477142334 -0.7100886702537537
vn -0.6980474591255188 0.05853786692023277 -0.713654637336731
vn -0.6980347633361816 0.058516163378953934 -0.713668942451477
vn -0.6969399452209473 0.05665379390120506 -0.7148880958557129
vn -0.6969399452209473 0.05665379390120506 -0.7148881554603577
vt 0.949999988079071 0.9999999962251049
vt 0.9500000476837158 0.0
vt 1.0000001192092896 0.0
vt 1.0 1.0
vt 0.8999999761581421 0.9999999924502099
vt 0.9000000953674316 0.0
vt 0.8500000238418579 0.9999999886753139
vt 0.8500000834465027 0.0
vt 0.800000011920929 0.9999999849004197
vt 0.8000000715255737 0.0
vt 0.75 0.9999999811255247
vt 0.7500000596046448 0.0
vt 0.699999988079071 0.9999999773506278
vt 0.7000000476837158 0.0
vt 0.6499999761581421 0.9999999735757328
vt 0.6500000953674316 0.0
vt 0.5999999642372131 0.9999999698008359
vt 0.6000000238418579 0.0
vt 0.5499999523162842 0.9999999660259391
vt 0.5500000715255737 0.0
vt 0.4999999403953552 0.9999999622510458
vt 0.5 0.0
vt 0.44999992847442627 0.999999958476149
vt 0.44999998807907104 0.0
vt 0.3999999165534973 0.9999999547012521
vt 0.3999999761581421 0.0
vt 0.34999990463256836 0.9999999509263553
vt 0.34999996423721313 0.0
vt 0.2999998927116394 0.999999947151462
vt 0.2999999523162842 0.0
vt 0.24999988079071045 0.9999999433765652
vt 0.24999994039535522 0.0
vt 0.1999998688697815 0.9999999396016719
vt 0.19999992847442627 -1.1920928955078125e-07
vt 0.14999985694885254 0.9999999358267715
vt 0.14999991655349731 -1.1920928955078125e-07
vt 0.09999984502792358 0.9999999320518782
vt 0.09999990463256836 -1.1920928955078125e-07
vt 0.04999983310699463 0.9999999282769778
vt 0.049999892711639404 -1.1920928955078125e-07
vt -1.1920928955078125e-07 0.9999999245020916
vt 0.0 -1.1920928955078125e-07
vt 0.949999988079071 0.9999999962251049
vt 0.9500000476837158 0.0
vt 1.0000001192092896 0.0
vt 1.0 1.0
vt 0.8999999761581421 0.9999999924502099
vt 0.9000000953674316 0.0
vt 0.8500000238418579 0.9999999886753139
vt 0.8500000834465027 0.0
vt 0.800000011920929 0.9999999849004197
vt 0.8000000715255737 0.0
vt 0.75 0.9999999811255247
vt 0.7500000596046448 0.0
vt 0.699999988079071 0.9999999773506278
vt 0.7000000476837158 0.0
vt 0.6499999761581421 0.9999999735757328
vt 0.6500000953674316 0.0
vt 0.5999999642372131 0.9999999698008359
vt 0.6000000238418579 0.0
vt 0.5499999523162842 0.9999999660259391
vt 0.5500000715255737 0.0
vt 0.4999999403953552 0.9999999622510458
vt 0.5 0.0
vt 0.44999992847442627 0.999999958476149
vt 0.44999998807907104 0.0
vt 0.3999999165534973 0.9999999547012521
vt 0.3999999761581421 0.0
vt 0.34999990463256836 0.9999999509263553
vt 0.34999996423721313 0.0
vt 0.2999998927116394 0.999999947151462
vt 0.2999999523162842 0.0
vt 0.24999988079071045 0.9999999433765652
vt 0.24999994039535522 0.0
vt 0.1999998688697815 0.9999999396016719
vt 0.19999992847442627 -1.1920928955078125e-07
vt 0.14999985694885254 0.9999999358267715
vt 0.14999991655349731 -1.1920928955078125e-07
vt 0.09999984502792358 0.9999999320518782
vt 0.09999990463256836 -1.1920928955078125e-07
vt 0.04999983310699463 0.9999999282769778
vt 0.049999892711639404 -1.1920928955078125e-07
vt -1.1920928955078125e-07 0.9999999245020916
vt 0.0 -1.1920928955078125e-07

g qiangci
s 1
usemtl qiangci
f 3/3/3 2/2/2 1/1/1 
f 4/4/4 3/3/3 1/1/1 
f 1/1/1 2/2/2 5/5/5 
f 2/2/2 6/6/6 5/5/5 
f 5/5/5 6/6/6 7/7/7 
f 6/6/6 8/8/8 7/7/7 
f 7/7/7 8/8/8 9/9/9 
f 8/8/8 10/10/10 9/9/9 
f 9/9/9 10/10/10 11/11/11 
f 10/10/10 12/12/12 11/11/11 
f 11/11/11 12/12/12 13/13/13 
f 12/12/12 14/14/14 13/13/13 
f 13/13/13 14/14/14 15/15/15 
f 14/14/14 16/16/16 15/15/15 
f 15/15/15 16/16/16 17/17/17 
f 16/16/16 18/18/18 17/17/17 
f 17/17/17 18/18/18 19/19/19 
f 18/18/18 20/20/20 19/19/19 
f 19/19/19 20/20/20 21/21/21 
f 20/20/20 22/22/22 21/21/21 
f 21/21/21 22/22/22 23/23/23 
f 22/22/22 24/24/24 23/23/23 
f 23/23/23 24/24/24 25/25/25 
f 24/24/24 26/26/26 25/25/25 
f 25/25/25 26/26/26 27/27/27 
f 26/26/26 28/28/28 27/27/27 
f 27/27/27 28/28/28 29/29/29 
f 28/28/28 30/30/30 29/29/29 
f 29/29/29 30/30/30 31/31/31 
f 30/30/30 32/32/32 31/31/31 
f 31/31/31 32/32/32 33/33/33 
f 32/32/32 34/34/34 33/33/33 
f 33/33/33 34/34/34 35/35/35 
f 34/34/34 36/36/36 35/35/35 
f 35/35/35 36/36/36 37/37/37 
f 36/36/36 38/38/38 37/37/37 
f 37/37/37 38/38/38 39/39/39 
f 38/38/38 40/40/40 39/39/39 
f 39/39/39 40/40/40 41/41/41 
f 40/40/40 42/42/42 41/41/41 
f 45/45/45 44/44/44 43/43/43 
f 46/46/46 45/45/45 43/43/43 
f 43/43/43 44/44/44 47/47/47 
f 44/44/44 48/48/48 47/47/47 
f 47/47/47 48/48/48 49/49/49 
f 48/48/48 50/50/50 49/49/49 
f 49/49/49 50/50/50 51/51/51 
f 50/50/50 52/52/52 51/51/51 
f 51/51/51 52/52/52 53/53/53 
f 52/52/52 54/54/54 53/53/53 
f 53/53/53 54/54/54 55/55/55 
f 54/54/54 56/56/56 55/55/55 
f 55/55/55 56/56/56 57/57/57 
f 56/56/56 58/58/58 57/57/57 
f 57/57/57 58/58/58 59/59/59 
f 58/58/58 60/60/60 59/59/59 
f 59/59/59 60/60/60 61/61/61 
f 60/60/60 62/62/62 61/61/61 
f 61/61/61 62/62/62 63/63/63 
f 62/62/62 64/64/64 63/63/63 
f 63/63/63 64/64/64 65/65/65 
f 64/64/64 66/66/66 65/65/65 
f 65/65/65 66/66/66 67/67/67 
f 66/66/66 68/68/68 67/67/67 
f 67/67/67 68/68/68 69/69/69 
f 68/68/68 70/70/70 69/69/69 
f 69/69/69 70/70/70 71/71/71 
f 70/70/70 72/72/72 71/71/71 
f 71/71/71 72/72/72 73/73/73 
f 72/72/72 74/74/74 73/73/73 
f 73/73/73 74/74/74 75/75/75 
f 74/74/74 76/76/76 75/75/75 
f 75/75/75 76/76/76 77/77/77 
f 76/76/76 78/78/78 77/77/77 
f 77/77/77 78/78/78 79/79/79 
f 78/78/78 80/80/80 79/79/79 
f 79/79/79 80/80/80 81/81/81 
f 80/80/80 82/82/82 81/81/81 
f 81/81/81 82/82/82 83/83/83 
f 82/82/82 84/84/84 83/83/83 

