v -1.9817631244659424 0.5310121774673462 -0.41297808289527893
v -2.4037439823150635 0.5868123769760132 0.016240352764725685
v -2.1551382541656494 1.1339164972305298 0.016626426950097084
v -1.7768006324768066 1.02583646774292 -0.4126288890838623
v -2.0277678966522217 0.5427333116531372 0.4453882873058319
v -1.8180469274520874 1.0490443706512451 0.4457455277442932
v -1.7768006324768066 1.02583646774292 -0.4126288890838623
v -1.7596627473831177 1.6037250757217407 0.01695798896253109
v -1.4507511854171753 1.4507513046264648 -0.4123289883136749
v -1.2442694902420044 1.9642219543457031 0.017212403938174248
v -1.0258361101150513 1.7768000364303589 -0.41209888458251953
v -0.6440813541412354 2.1908397674560547 0.017372338101267815
v -0.5310119986534119 1.9817631244659424 -0.41195422410964966
v 6.036098199047046e-08 2.2681355476379395 0.017426924780011177
v -7.812049673816546e-09 2.0516726970672607 -0.411904901266098
v 0.6440816521644592 2.190840244293213 0.0173723753541708
v 0.5310121774673462 1.9817636013031006 -0.41195422410964966
v 1.2442699670791626 1.9642225503921509 0.017212403938174248
v 1.0258365869522095 1.7768006324768066 -0.41209888458251953
v 1.759663462638855 1.6037256717681885 0.016958026215434074
v 1.450751781463623 1.4507519006729126 -0.4123289883136749
v 2.1551389694213867 1.1339170932769775 0.016626426950097084
v 1.7768009901046753 1.0258370637893677 -0.4126288890838623
v 2.403745174407959 0.5868128538131714 0.016240352764725685
v 1.9817641973495483 0.5310125946998596 -0.41297808289527893
v 2.4885404109954834 -0.00030224642250686884 0.01582600362598896
v 2.051673650741577 5.065024311079469e-07 -0.4133528470993042
v 2.403745412826538 -0.5874174237251282 0.015411616303026676
v 1.981764316558838 -0.531011700630188 -0.41372761130332947
v 2.155139207839966 -1.134521484375 0.015025504864752293
v 1.7768012285232544 -1.0258358716964722 -0.4140768051147461
v 1.7596638202667236 -1.6043305397033691 0.014693980105221272
v 1.4507522583007812 -1.4507511854171753 -0.41437670588493347
v 1.2442708015441895 -1.9648276567459106 0.014439563266932964
v 1.0258373022079468 -1.7767999172210693 -0.41460680961608887
v 0.6440820693969727 -2.191445827484131 0.014279592782258987
v 0.5310126543045044 -1.981763243675232 -0.41475147008895874
v 0.5310126543045044 -1.981763243675232 -0.41475147008895874
v 0.6440820693969727 -2.191445827484131 0.014279592782258987
v 4.3118234316352755e-07 -2.2687413692474365 0.014225080609321594
v 2.979111002332502e-07 -2.0516726970672607 -0.4148007929325104
v 2.979111002332502e-07 -2.0516726970672607 -0.4148007929325104
v 4.3118234316352755e-07 -2.2687413692474365 0.014225080609321594
v -0.6440813541412354 -2.191445827484131 0.014279592782258987
v -0.5310119986534119 -1.981763243675232 -0.41475147008895874
v 5.087729277875042e-07 -2.0999057292938232 0.44352319836616516
v -0.5433385968208313 -2.0283737182617188 0.4435737133026123
v -0.5310119986534119 -1.981763243675232 -0.41475147008895874
v -0.6440813541412354 -2.191445827484131 0.014279592782258987
v -1.2442697286605835 -1.9648278951644897 0.014439563266932964
v -1.02583646774292 -1.7768001556396484 -0.41460680961608887
v -0.5433385968208313 -2.0283737182617188 0.4435737133026123
v -1.0496500730514526 -1.818652868270874 0.44372180104255676
v -1.02583646774292 -1.7768001556396484 -0.41460680961608887
v -1.2442697286605835 -1.9648278951644897 0.014439563266932964
v -1.759663462638855 -1.6043310165405273 0.014693980105221272
v -1.4507519006729126 -1.4507516622543335 -0.41437670588493347
v -1.0496500730514526 -1.818652868270874 0.44372180104255676
v -1.4844295978546143 -1.4850350618362427 0.44395723938941956
v -1.4507519006729126 -1.4507516622543335 -0.41437670588493347
v -1.759663462638855 -1.6043310165405273 0.014693980105221272
v -2.155139207839966 -1.1345218420028687 0.015025541186332703
v -1.7768012285232544 -1.0258362293243408 -0.4140768051147461
v -1.4844295978546143 -1.4850350618362427 0.44395723938941956
v -1.8180477619171143 -1.050255537033081 0.4442640542984009
v -1.7768012285232544 -1.0258362293243408 -0.4140768051147461
v -2.155139207839966 -1.1345218420028687 0.015025541186332703
v -2.403745412826538 -0.5874176025390625 0.015411616303026676
v -1.9817644357681274 -0.5310118198394775 -0.41372761130332947
v -1.8180477619171143 -1.050255537033081 0.4442640542984009
v -2.027768850326538 -0.5439441204071045 0.4446212947368622
v -1.9817644357681274 -0.5310118198394775 -0.41372761130332947
v -2.403745412826538 -0.5874176025390625 0.015411616303026676
v -2.4885406494140625 -0.00030238160979934037 0.015825964510440826
v -2.0516738891601562 3.8421296721935505e-07 -0.4133528470993042
v -2.027768850326538 -0.5439441204071045 0.4446212947368622
v -2.0993008613586426 -0.0006051937234587967 0.44500476121902466
v -2.0516738891601562 3.8421296721935505e-07 -0.4133528470993042
v -2.4885406494140625 -0.00030238160979934037 0.015825964510440826
v -2.4037439823150635 0.5868123769760132 0.016240352764725685
v -1.9817631244659424 0.5310121774673462 -0.41297808289527893
v -2.0993008613586426 -0.0006051937234587967 0.44500476121902466
v -2.0277678966522217 0.5427333116531372 0.4453882873058319
v -1.7596627473831177 1.6037250757217407 0.01695798896253109
v -1.8180469274520874 1.0490443706512451 0.4457455277442932
v -1.4844290018081665 1.483823537826538 0.4460524022579193
v -1.2442694902420044 1.9642219543457031 0.017212403938174248
v -1.7596627473831177 1.6037250757217407 0.01695798896253109
v -1.4844290018081665 1.483823537826538 0.4460524022579193
v -1.0496498346328735 1.8174412250518799 0.4462878406047821
v -0.6440813541412354 2.1908397674560547 0.017372338101267815
v -1.2442694902420044 1.9642219543457031 0.017212403938174248
v -1.0496498346328735 1.8174412250518799 0.4462878406047821
v -0.5433385968208313 2.0271620750427246 0.44643592834472656
v 6.036098199047046e-08 2.2681355476379395 0.017426924780011177
v -0.6440813541412354 2.1908397674560547 0.017372338101267815
v -0.5433385968208313 2.0271620750427246 0.44643592834472656
v 1.9595266564920166e-07 2.098694086074829 0.44648638367652893
v 0.6440816521644592 2.190840244293213 0.0173723753541708
v 6.036098199047046e-08 2.2681355476379395 0.017426924780011177
v 1.9595266564920166e-07 2.098694086074829 0.44648638367652893
v 0.5433390736579895 2.0271623134613037 0.44643592834472656
v 1.2442699670791626 1.9642225503921509 0.017212403938174248
v 0.6440816521644592 2.190840244293213 0.0173723753541708
v 0.5433390736579895 2.0271623134613037 0.44643592834472656
v 1.0496504306793213 1.817441701889038 0.4462878406047821
v 1.759663462638855 1.6037256717681885 0.016958026215434074
v 1.2442699670791626 1.9642225503921509 0.017212403938174248
v 1.0496504306793213 1.817441701889038 0.4462878406047821
v 1.484429955482483 1.4838240146636963 0.4460524022579193
v 2.1551389694213867 1.1339170932769775 0.016626426950097084
v 1.759663462638855 1.6037256717681885 0.016958026215434074
v 1.484429955482483 1.4838240146636963 0.4460524022579193
v 1.8180478811264038 1.0490448474884033 0.4457455277442932
v 2.403745174407959 0.5868128538131714 0.016240352764725685
v 2.1551389694213867 1.1339170932769775 0.016626426950097084
v 1.8180478811264038 1.0490448474884033 0.4457455277442932
v 2.027769088745117 0.5427337288856506 0.4453882873058319
v 2.4885404109954834 -0.00030224642250686884 0.01582600362598896
v 2.403745174407959 0.5868128538131714 0.016240352764725685
v 2.027769088745117 0.5427337288856506 0.4453882873058319
v 2.0993008613586426 -0.0006050685769878328 0.44500476121902466
v 2.403745412826538 -0.5874174237251282 0.015411616303026676
v 2.4885404109954834 -0.00030224642250686884 0.01582600362598896
v 2.0993008613586426 -0.0006050685769878328 0.44500476121902466
v 2.027769088745117 -0.5439439415931702 0.4446212947368622
v 2.155139207839966 -1.134521484375 0.015025504864752293
v 2.403745412826538 -0.5874174237251282 0.015411616303026676
v 2.027769088745117 -0.5439439415931702 0.4446212947368622
v 1.818048357963562 -1.0502550601959229 0.4442640542984009
v 1.7596638202667236 -1.6043305397033691 0.014693980105221272
v 2.155139207839966 -1.134521484375 0.015025504864752293
v 1.818048357963562 -1.0502550601959229 0.4442640542984009
v 1.484430193901062 -1.485034704208374 0.44395723938941956
v 1.2442708015441895 -1.9648276567459106 0.014439563266932964
v 1.7596638202667236 -1.6043305397033691 0.014693980105221272
v 1.484430193901062 -1.485034704208374 0.44395723938941956
v 1.0496509075164795 -1.8186527490615845 0.44372180104255676
v 0.6440820693969727 -2.191445827484131 0.014279592782258987
v 1.2442708015441895 -1.9648276567459106 0.014439563266932964
v 1.0496509075164795 -1.8186527490615845 0.44372180104255676
v 0.5433395504951477 -2.0283737182617188 0.4435737133026123
v 4.3118234316352755e-07 -2.2687413692474365 0.014225080609321594
v 0.6440820693969727 -2.191445827484131 0.014279592782258987
v 0.5433395504951477 -2.0283737182617188 0.4435737133026123
v 5.087729277875042e-07 -2.0999057292938232 0.44352319836616516
vn -0.0 -0.0007057376205921173 0.9999997615814209
vn nan nan nan
vn nan nan nan
vn -0.0 -0.0007057376205921173 0.9999997615814209
vn 0.7071058750152588 -0.7071075439453125 -0.0004990325542166829
vn 0.7071058750152588 -0.7071075439453125 -0.0004990325542166829
vn -0.0 -0.0007057376205921173 0.9999997615814209
vn -0.0 1.0 0.0
vn -0.0 -0.0007057376205921173 0.9999997615814209
vn -0.0 1.0 0.0
vn -0.0 -0.0007057376205921173 0.9999997615814209
vn -0.0 1.0 0.0
vn -0.0 -0.0007057376205921173 0.9999997615814209
vn -0.0 1.0 0.0
vn -0.0 -0.0007057376205921173 0.9999997615814209
vn -0.0 1.0 0.0
vn -0.0 -0.0007057376205921173 0.9999997615814209
vn -0.0 1.0 0.0
vn -0.0 -0.0007057376205921173 0.9999997615814209
vn -0.0 1.0 0.0
vn -0.0 -0.0007057376205921173 0.9999997615814209
vn -0.0 1.0 0.0
vn -0.0 -0.0007057376205921173 0.9999997615814209
vn -0.0 1.0 0.0
vn -0.0 -0.0007057376205921173 0.9999997615814209
vn -0.0 1.0 0.0
vn -0.0 -0.0007057376205921173 0.9999997615814209
vn -0.0 1.0 0.0
vn -0.0 -0.0007057376205921173 0.9999997615814209
vn -0.0 1.0 0.0
vn -0.0 -0.0007057376205921173 0.9999997615814209
vn -0.0 1.0 0.0
vn -0.0 -0.0007057376205921173 0.9999997615814209
vn -0.0 1.0 0.0
vn -0.0 -0.0007057376205921173 0.9999997615814209
vn -0.0 1.0 0.0
vn -0.0 -0.0007057376205921173 0.9999997615814209
vn -0.0 -0.0007057376205921173 0.9999997615814209
vn -0.0 -0.9999997615814209 -0.0007057376205921173
vn -0.0 -0.9999997615814209 -0.0007057376205921173
vn -0.0 -0.0007057376205921173 0.9999997615814209
vn -0.0 -0.0007057376205921173 0.9999997615814209
vn -0.0 -0.0007057376205921173 0.9999997615814209
vn -0.0 -0.0007057376205921173 0.9999997615814209
vn -0.0 -0.0007057376205921173 0.9999997615814209
vn -0.0 -0.0007057376205921173 0.9999997615814209
vn -0.0 -0.0007057376205921173 0.9999997615814209
vn -0.0 -0.0007057376205921173 0.9999997615814209
vn 0.707108199596405 -0.7071052193641663 -0.0004990308661945164
vn 0.7071081399917603 -0.7071052193641663 -0.0004990308661945164
vn -0.0 -0.0007057376205921173 0.9999997615814209
vn 0.7071086168289185 -0.7071048021316528 -0.0004990306333638728
vn 0.7071086168289185 -0.7071048021316528 -0.0004990306333638728
vn -0.0 -0.0007057376205921173 0.9999997615814209
vn -0.0 -0.0007057376205921173 0.9999997615814209
vn -0.0 -0.0007057376205921173 0.9999997615814209
vn -0.0 -0.0007057376205921173 0.9999997615814209
vn -0.0 -0.0007057376205921173 0.9999997615814209
vn -0.0 -0.0007057376205921173 0.9999997615814209
vn -0.0 -0.0007057376205921173 0.9999997615814209
vn 0.7071062922477722 -0.7071070671081543 -0.0004990322049707174
vn 0.7071062922477722 -0.7071070671081543 -0.0004990322049707174
vn -0.0 -0.0007057376205921173 0.9999997615814209
vn 0.707104504108429 -0.7071088552474976 -0.0004990334273315966
vn 0.707104504108429 -0.7071088552474976 -0.0004990334273315966
vn -0.0 -0.0007057376205921173 0.9999997615814209
vn -0.0 -0.0007057376205921173 0.9999997615814209
vn -0.0 -0.0007057376205921173 0.9999997615814209
vn -0.0 -0.0007057376205921173 0.9999997615814209
vn -0.0 -0.0007057376205921173 0.9999997615814209
vn -0.0 -0.0007057376205921173 0.9999997615814209
vn -0.0 -0.0007057376205921173 0.9999997615814209
vn 0.7071077227592468 -0.7071056365966797 -0.0004990312154404819
vn 0.707107663154602 -0.7071057558059692 -0.0004990312736481428
vn -0.0 -0.0007057376205921173 0.9999997615814209
vn 0.7071090340614319 -0.7071043252944946 -0.0004990302259102464
vn 0.7071090340614319 -0.7071043252944946 -0.0004990302259102464
vn -0.0 -0.0007057376205921173 0.9999997615814209
vn -0.0 -0.0007057376205921173 0.9999997615814209
vn -0.0 -0.0007057376205921173 0.9999997615814209
vn -0.0 -0.0007057376205921173 0.9999997615814209
vn -0.0 -0.0007057375623844564 0.9999997615814209
vn -0.0 -0.0007057376205921173 0.9999997615814209
vn -0.0 -0.0007057376205921173 0.9999997615814209
vn -0.0 -0.0007057375623844564 0.9999997615814209
vn -0.0 -0.0007057376205921173 0.9999997615814209
vn 0.707107663154602 -0.7071056962013245 -0.0004990312154404819
vn 0.707107663154602 -0.7071056962013245 -0.0004990312154404819
vn 0.7071077227592468 -0.7071056365966797 -0.0004990312154404819
vn 0.707107663154602 -0.7071056962013245 -0.0004990312154404819
vn -0.0 -0.0007057376205921173 0.9999997615814209
vn -0.0 -0.0007057376205921173 0.9999997615814209
vn -0.0 -0.0007057376205921173 0.9999997615814209
vn -0.0 -0.0007057375623844564 0.9999997615814209
vn 0.7071072459220886 -0.7071061730384827 -0.0004990315646864474
vn 0.7071072459220886 -0.7071061730384827 -0.0004990315646864474
vn 0.7071072459220886 -0.7071061730384827 -0.0004990315646864474
vn 0.7071072459220886 -0.7071061730384827 -0.0004990315646864474
vn -0.0 -0.0007057376205921173 0.9999997615814209
vn -0.0 -0.0007057376205921173 0.9999997615814209
vn -0.0 -0.0007057376205921173 0.9999997615814209
vn -0.0 -0.0007057375623844564 0.9999997615814209
vn 0.7070972919464111 -0.7071161866188049 -0.0004990386078134179
vn 0.7070972919464111 -0.7071161270141602 -0.000499038549605757
vn 0.7070972919464111 -0.7071161866188049 -0.0004990387242287397
vn 0.7070972919464111 -0.7071161270141602 -0.000499038549605757
vn -0.0 -0.0007057375623844564 0.9999997615814209
vn -0.0 -0.0007057376205921173 0.9999997615814209
vn -0.0 -0.0007057376205921173 0.9999997615814209
vn -0.0 -0.0007057376205921173 0.9999997615814209
vn 0.7072444558143616 -0.7069689035415649 -0.0004989347071386874
vn 0.7072445154190063 -0.7069688439369202 -0.0004989346489310265
vn 0.7072444558143616 -0.7069689035415649 -0.0004989347071386874
vn 0.7072445154190063 -0.7069688439369202 -0.0004989346489310265
vn -0.0 -0.0007057376205921173 0.9999997615814209
vn -0.0 -0.0007057376205921173 0.9999997615814209
vn -0.0 -0.0007057376205921173 0.9999997615814209
vn -0.0 -0.0007057376205921173 0.9999997615814209
vn 0.7069881558418274 -0.7072252631187439 -0.0004991156165488064
vn 0.7069881558418274 -0.7072252631187439 -0.0004991156165488064
vn 0.7069880366325378 -0.7072252631187439 -0.0004991156165488064
vn 0.7069880366325378 -0.7072252631187439 -0.0004991156165488064
vn -0.0 -0.0007057376205921173 0.9999997615814209
vn -0.0 -0.0007057376205921173 0.9999997615814209
vn -0.0 -0.0007057376205921173 0.9999997615814209
vn -0.0 -0.0007057376205921173 0.9999997615814209
vn 0.707108199596405 -0.7071052193641663 -0.0004990308661945164
vn 0.7071081399917603 -0.7071052193641663 -0.0004990308661945164
vn 0.7071081399917603 -0.7071052193641663 -0.0004990308661945164
vn 0.7071081399917603 -0.7071052193641663 -0.0004990308661945164
vn -0.0 -0.0007057376205921173 0.9999997615814209
vn -0.0 -0.0007057376205921173 0.9999997615814209
vn -0.0 -0.0007057376205921173 0.9999997615814209
vn -0.0 -0.0007057376205921173 0.9999997615814209
vn 0.7071062922477722 -0.7071070671081543 -0.0004990322049707174
vn 0.707106351852417 -0.7071070075035095 -0.0004990321467630565
vn 0.7071062922477722 -0.7071070671081543 -0.0004990322049707174
vn 0.7071062922477722 -0.7071071267127991 -0.0004990322049707174
vn -0.0 -0.0007057376205921173 0.9999997615814209
vn -0.0 -0.0007057376205921173 0.9999997615814209
vn -0.0 -0.0007057376205921173 0.9999997615814209
vn -0.0 -0.0007057376205921173 0.9999997615814209
vn 0.707107663154602 -0.7071056962013245 -0.0004990312154404819
vn 0.707107663154602 -0.7071057558059692 -0.0004990312736481428
vn 0.707107663154602 -0.7071056962013245 -0.0004990312154404819
vn 0.707107663154602 -0.7071056962013245 -0.0004990312154404819
vt 0.0019921064376831055 0.9980080127716064
vt 0.0019921064376831055 0.5
vt 0.04349273443222046 0.5
vt 0.04349273443222046 0.9980080127716064
vt 0.0019921064376831055 0.0019919872283935547
vt 0.04349273443222046 0.0019919872283935547
vt 0.04349273443222046 0.9980080127716064
vt 0.08499336242675781 0.5
vt 0.08499336242675781 0.9980080127716064
vt 0.1264939308166504 0.5
vt 0.1264939308166504 0.9980080127716064
vt 0.16799455881118774 0.5
vt 0.16799455881118774 0.9980080127716064
vt 0.2094951868057251 0.5
vt 0.2094951868057251 0.9980080127716064
vt 0.2509957551956177 0.5
vt 0.2509957551956177 0.9980080127716064
vt 0.29249632358551025 0.5
vt 0.29249632358551025 0.9980080127716064
vt 0.3339970111846924 0.5
vt 0.3339970111846924 0.9980080127716064
vt 0.37549757957458496 0.5
vt 0.37549757957458496 0.9980080127716064
vt 0.41699814796447754 0.5
vt 0.41699814796447754 0.9980080127716064
vt 0.4584987759590149 0.5
vt 0.4584987759590149 0.9980080127716064
vt 0.49999940395355225 0.5
vt 0.49999940395355225 0.9980080127716064
vt 0.5415000915527344 0.5
vt 0.5415000915527344 0.9980080127716064
vt 0.5830008387565613 0.5
vt 0.5830008387565613 0.9980080127716064
vt 0.6245015859603882 0.5
vt 0.6245015859603882 0.9980080127716064
vt 0.6660022735595703 0.5
vt 0.6660022735595703 0.9980080127716064
vt 0.6660022735595703 0.9980080127716064
vt 0.6660022735595703 0.5
vt 0.7075030207633972 0.5
vt 0.7075030207633972 0.9980080127716064
vt 0.7075030207633972 0.9980080127716064
vt 0.7075030207633972 0.5
vt 0.7490037679672241 0.5
vt 0.7490037679672241 0.9980080127716064
vt 0.7075030207633972 0.0019919872283935547
vt 0.7490037679672241 0.0019919872283935547
vt 0.7490037679672241 0.9980080127716064
vt 0.7490037679672241 0.5
vt 0.7905044555664062 0.5
vt 0.7905044555664062 0.9980080127716064
vt 0.7490037679672241 0.0019919872283935547
vt 0.7905044555664062 0.0019919872283935547
vt 0.7905044555664062 0.9980080127716064
vt 0.7905044555664062 0.5
vt 0.8320052027702332 0.5
vt 0.8320052027702332 0.9980080127716064
vt 0.7905044555664062 0.0019919872283935547
vt 0.8320052027702332 0.0019919872283935547
vt 0.8320052027702332 0.9980080127716064
vt 0.8320052027702332 0.5
vt 0.8735058903694153 0.5
vt 0.8735058903694153 0.9980080127716064
vt 0.8320052027702332 0.0019919872283935547
vt 0.8735058903694153 0.0019919872283935547
vt 0.8735058903694153 0.9980080127716064
vt 0.8735058903694153 0.5
vt 0.9150066375732422 0.5
vt 0.9150066375732422 0.9980080127716064
vt 0.8735058903694153 0.0019919872283935547
vt 0.9150066375732422 0.0019919872283935547
vt 0.9150066375732422 0.9980080127716064
vt 0.9150066375732422 0.5
vt 0.9565073847770691 0.5
vt 0.9565073847770691 0.9980080127716064
vt 0.9150066375732422 0.0019919872283935547
vt 0.9565073847770691 0.0019919872283935547
vt 0.9565073847770691 0.9980080127716064
vt 0.9565073847770691 0.5
vt 0.9980080723762512 0.5
vt 0.9980080723762512 0.9980080127716064
vt 0.9565073847770691 0.0019919872283935547
vt 0.9980080723762512 0.0019919872283935547
vt 0.08499336242675781 0.5
vt 0.04349273443222046 0.0019919872283935547
vt 0.08499336242675781 0.0019919872283935547
vt 0.1264939308166504 0.5
vt 0.08499336242675781 0.5
vt 0.08499336242675781 0.0019919872283935547
vt 0.1264939308166504 0.0019919872283935547
vt 0.16799455881118774 0.5
vt 0.1264939308166504 0.5
vt 0.1264939308166504 0.0019919872283935547
vt 0.16799455881118774 0.0019919872283935547
vt 0.2094951868057251 0.5
vt 0.16799455881118774 0.5
vt 0.16799455881118774 0.0019919872283935547
vt 0.2094951868057251 0.0019919872283935547
vt 0.2509957551956177 0.5
vt 0.2094951868057251 0.5
vt 0.2094951868057251 0.0019919872283935547
vt 0.2509957551956177 0.0019919872283935547
vt 0.29249632358551025 0.5
vt 0.2509957551956177 0.5
vt 0.2509957551956177 0.0019919872283935547
vt 0.29249632358551025 0.0019919872283935547
vt 0.3339970111846924 0.5
vt 0.29249632358551025 0.5
vt 0.29249632358551025 0.0019919872283935547
vt 0.3339970111846924 0.0019919872283935547
vt 0.37549757957458496 0.5
vt 0.3339970111846924 0.5
vt 0.3339970111846924 0.0019919872283935547
vt 0.37549757957458496 0.0019919872283935547
vt 0.41699814796447754 0.5
vt 0.37549757957458496 0.5
vt 0.37549757957458496 0.0019919872283935547
vt 0.41699814796447754 0.0019919872283935547
vt 0.4584987759590149 0.5
vt 0.41699814796447754 0.5
vt 0.41699814796447754 0.0019919872283935547
vt 0.4584987759590149 0.0019919872283935547
vt 0.49999940395355225 0.5
vt 0.4584987759590149 0.5
vt 0.4584987759590149 0.0019919872283935547
vt 0.49999940395355225 0.0019919872283935547
vt 0.5415000915527344 0.5
vt 0.49999940395355225 0.5
vt 0.49999940395355225 0.0019919872283935547
vt 0.5415000915527344 0.0019919872283935547
vt 0.5830008387565613 0.5
vt 0.5415000915527344 0.5
vt 0.5415000915527344 0.0019919872283935547
vt 0.5830008387565613 0.0019919872283935547
vt 0.6245015859603882 0.5
vt 0.5830008387565613 0.5
vt 0.5830008387565613 0.0019919872283935547
vt 0.6245015859603882 0.0019919872283935547
vt 0.6660022735595703 0.5
vt 0.6245015859603882 0.5
vt 0.6245015859603882 0.0019919872283935547
vt 0.6660022735595703 0.0019919872283935547
vt 0.7075030207633972 0.5
vt 0.6660022735595703 0.5
vt 0.6660022735595703 0.0019919872283935547
vt 0.7075030207633972 0.0019919872283935547

g Cyd_009
s 1
usemtl Cyd_009
f 3/3/3 2/2/2 1/1/1 
f 4/4/4 3/3/3 1/1/1 
f 5/5/5 2/2/2 3/3/3 
f 6/6/6 5/5/5 3/3/3 
f 8/8/8 3/3/3 7/7/7 
f 9/9/9 8/8/8 7/7/7 
f 10/10/10 8/8/8 9/9/9 
f 11/11/11 10/10/10 9/9/9 
f 12/12/12 10/10/10 11/11/11 
f 13/13/13 12/12/12 11/11/11 
f 14/14/14 12/12/12 13/13/13 
f 15/15/15 14/14/14 13/13/13 
f 16/16/16 14/14/14 15/15/15 
f 17/17/17 16/16/16 15/15/15 
f 18/18/18 16/16/16 17/17/17 
f 19/19/19 18/18/18 17/17/17 
f 20/20/20 18/18/18 19/19/19 
f 21/21/21 20/20/20 19/19/19 
f 22/22/22 20/20/20 21/21/21 
f 23/23/23 22/22/22 21/21/21 
f 24/24/24 22/22/22 23/23/23 
f 25/25/25 24/24/24 23/23/23 
f 26/26/26 24/24/24 25/25/25 
f 27/27/27 26/26/26 25/25/25 
f 28/28/28 26/26/26 27/27/27 
f 29/29/29 28/28/28 27/27/27 
f 30/30/30 28/28/28 29/29/29 
f 31/31/31 30/30/30 29/29/29 
f 32/32/32 30/30/30 31/31/31 
f 33/33/33 32/32/32 31/31/31 
f 34/34/34 32/32/32 33/33/33 
f 35/35/35 34/34/34 33/33/33 
f 36/36/36 34/34/34 35/35/35 
f 37/37/37 36/36/36 35/35/35 
f 40/40/40 39/39/39 38/38/38 
f 41/41/41 40/40/40 38/38/38 
f 44/44/44 43/43/43 42/42/42 
f 45/45/45 44/44/44 42/42/42 
f 46/46/46 43/43/43 44/44/44 
f 47/47/47 46/46/46 44/44/44 
f 50/50/50 49/49/49 48/48/48 
f 51/51/51 50/50/50 48/48/48 
f 52/52/52 49/49/49 50/50/50 
f 53/53/53 52/52/52 50/50/50 
f 56/56/56 55/55/55 54/54/54 
f 57/57/57 56/56/56 54/54/54 
f 58/58/58 55/55/55 56/56/56 
f 59/59/59 58/58/58 56/56/56 
f 62/62/62 61/61/61 60/60/60 
f 63/63/63 62/62/62 60/60/60 
f 64/64/64 61/61/61 62/62/62 
f 65/65/65 64/64/64 62/62/62 
f 68/68/68 67/67/67 66/66/66 
f 69/69/69 68/68/68 66/66/66 
f 70/70/70 67/67/67 68/68/68 
f 71/71/71 70/70/70 68/68/68 
f 74/74/74 73/73/73 72/72/72 
f 75/75/75 74/74/74 72/72/72 
f 76/76/76 73/73/73 74/74/74 
f 77/77/77 76/76/76 74/74/74 
f 80/80/80 79/79/79 78/78/78 
f 81/81/81 80/80/80 78/78/78 
f 82/82/82 79/79/79 80/80/80 
f 83/83/83 82/82/82 80/80/80 
f 85/85/85 3/3/3 84/84/84 
f 86/86/86 85/85/85 84/84/84 
f 89/89/89 88/88/88 87/87/87 
f 90/90/90 89/89/89 87/87/87 
f 93/93/93 92/92/92 91/91/91 
f 94/94/94 93/93/93 91/91/91 
f 97/97/97 96/96/96 95/95/95 
f 98/98/98 97/97/97 95/95/95 
f 101/101/101 100/100/100 99/99/99 
f 102/102/102 101/101/101 99/99/99 
f 105/105/105 104/104/104 103/103/103 
f 106/106/106 105/105/105 103/103/103 
f 109/109/109 108/108/108 107/107/107 
f 110/110/110 109/109/109 107/107/107 
f 113/113/113 112/112/112 111/111/111 
f 114/114/114 113/113/113 111/111/111 
f 117/117/117 116/116/116 115/115/115 
f 118/118/118 117/117/117 115/115/115 
f 121/121/121 120/120/120 119/119/119 
f 122/122/122 121/121/121 119/119/119 
f 125/125/125 124/124/124 123/123/123 
f 126/126/126 125/125/125 123/123/123 
f 129/129/129 128/128/128 127/127/127 
f 130/130/130 129/129/129 127/127/127 
f 133/133/133 132/132/132 131/131/131 
f 134/134/134 133/133/133 131/131/131 
f 137/137/137 136/136/136 135/135/135 
f 138/138/138 137/137/137 135/135/135 
f 141/141/141 140/140/140 139/139/139 
f 142/142/142 141/141/141 139/139/139 
f 145/145/145 144/144/144 143/143/143 
f 146/146/146 145/145/145 143/143/143 

