v -0.5 3.0616168005906746e-17 -0.5
v 0.5 3.0616168005906746e-17 -0.5
v -0.5 -3.0616168005906746e-17 0.5
v 0.5 -3.0616168005906746e-17 0.5
vn -0.0 1.0 0.0
vn -0.0 1.0 0.0
vn -0.0 1.0 0.0
vn -0.0 1.0 0.0
vt 0.0 0.0
vt 1.0 0.0
vt 0.0 1.0
vt 1.0 1.0

g Plane001
s 1
usemtl Plane001
f 3/3/3 2/2/2 1/1/1 
f 2/2/2 3/3/3 4/4/4 

