v 0.856963574886322 0.0 0.0
v 0.911424994468689 0.0 0.13751505315303802
v 0.8803689479827881 0.23589414358139038 0.13751505315303802
v 0.8277631998062134 0.22179849445819855 0.0
v 0.7893171906471252 0.4557124972343445 0.13751505315303802
v 0.742152214050293 0.428481787443161 0.0
v 0.6444747447967529 0.6444747447967529 0.13751505315303802
v 0.605964720249176 0.605964720249176 0.0
v 0.4557124376296997 0.7893171906471252 0.13751505315303802
v 0.42848172783851624 0.7421522736549377 0.0
v 0.23589417338371277 0.8803689479827881 0.13751505315303802
v 0.22179852426052094 0.8277631998062134 0.0
v 6.881067093900128e-08 0.911424994468689 0.13751505315303802
v 6.469895197369624e-08 0.856963574886322 0.0
v -0.23589402437210083 0.8803689479827881 0.13751505315303802
v -0.22179840505123138 0.8277633190155029 0.0
v 0.8277631402015686 -0.2217991054058075 0.0
v 0.8364821672439575 0.48294317722320557 0.27503010630607605
v 0.6829848289489746 0.6829848289489746 0.27503010630607605
v 0.4829431474208832 0.8364821672439575 0.27503010630607605
v 0.2499898225069046 0.932974636554718 0.27503010630607605
v 7.292239700973369e-08 0.9658863544464111 0.27503010630607605
v -0.24998967349529266 0.932974636554718 0.27503010630607605
v 0.7214947938919067 0.7214947938919067 0.41254517436027527
v 0.8836471438407898 0.5101739168167114 0.41254517436027527
v 0.932974636554718 0.2499898076057434 0.27503010630607605
v 0.880368709564209 -0.2358947992324829 0.13751505315303802
v 0.7421519756317139 -0.428482323884964 0.0
v 0.7893168926239014 -0.45571303367614746 0.13751505315303802
v 0.6059643626213074 -0.6059651374816895 0.0
v 0.6444743871688843 -0.6444751620292664 0.13751505315303802
v 0.4284813404083252 -0.7421524524688721 0.0
v 0.4557119905948639 -0.7893174886703491 0.13751505315303802
v 0.22179806232452393 -0.8277633190155029 0.0
v 0.23589369654655457 -0.8803690075874329 0.13751505315303802
v -3.984129079981358e-07 -0.856963574886322 0.0
v -4.237326720613055e-07 -0.911424994468689 0.13751505315303802
v -0.22179880738258362 -0.8277631402015686 0.0
v -0.23589448630809784 -0.8803688287734985 0.13751505315303802
v -0.4284820258617401 -0.7421520948410034 0.0
v -0.45571276545524597 -0.7893170118331909 0.13751505315303802
v -0.6059650778770447 -0.6059644818305969 0.0
v -0.6444751620292664 -0.644474446773529 0.13751505315303802
v -0.48294347524642944 -0.8364819884300232 0.27503010630607605
v -0.6829851865768433 -0.682984471321106 0.27503010630607605
v -0.24999016523361206 -0.9329744577407837 0.27503010630607605
v -4.4905246454618464e-07 -0.9658863544464111 0.27503010630607605
v 0.24998928606510162 -0.9329747557640076 0.27503010630607605
v 0.48294270038604736 -0.8364824652671814 0.27503010630607605
v 0.6829844117164612 -0.682985246181488 0.27503010630607605
v 0.8364818692207336 -0.4829437732696533 0.27503010630607605
v 0.9329744577407837 -0.24999047815799713 0.27503010630607605
v 0.9658863544464111 0.0 0.27503010630607605
v 0.9855802655220032 0.26408544182777405 0.41254517436027527
v 1.0203478336334229 0.0 0.41254517436027527
v 0.26408490538597107 -0.9855804443359375 0.41254517436027527
v 0.5101733803749084 -0.8836473822593689 0.41254517436027527
v 0.7214944362640381 -0.7214952707290649 0.41254517436027527
v 0.8836468458175659 -0.5101745128631592 0.41254517436027527
v 0.9855800271034241 -0.26408618688583374 0.41254517436027527
v 1.038185954093933 0.2781810760498047 0.5500602126121521
v 1.074809193611145 0.0 0.5500602126121521
v 0.9308120608329773 0.5374045968055725 0.5500602126121521
v 0.7600048780441284 0.7600048780441284 0.5500602126121521
v 0.5374045372009277 0.9308120608329773 0.5500602126121521
v 0.5101738572120667 0.8836471438407898 0.41254517436027527
v 0.26408547163009644 0.9855802655220032 0.41254517436027527
v 7.703411597503873e-08 1.0203478336334229 0.41254517436027527
v -0.2640852928161621 0.985580325126648 0.41254517436027527
v 0.27818113565444946 1.038185954093933 0.5500602126121521
v 8.114584204577113e-08 1.074809193611145 0.5500602126121521
v -0.27818095684051514 1.0381860733032227 0.5500602126121521
v 0.7985148429870605 0.7985148429870605 0.6875752806663513
v 0.5646352767944336 0.9779770970344543 0.6875752806663513
v 0.2922767698764801 1.0907915830612183 0.6875752806663513
v 8.525756101107618e-08 1.1292705535888672 0.6875752806663513
v -0.29227662086486816 1.0907915830612183 0.6875752806663513
v 0.9779770374298096 0.5646352767944336 0.6875752806663513
v 1.0907915830612183 0.2922767400741577 0.6875752806663513
v 1.1292705535888672 0.0 0.6875752806663513
v 1.038185715675354 -0.27818185091018677 0.5500602126121521
v 0.9308117032051086 -0.537405252456665 0.5500602126121521
v 0.7600044012069702 -0.7600053548812866 0.5500602126121521
v 0.5374040603637695 -0.9308123588562012 0.5500602126121521
v 0.2781805396080017 -1.0381860733032227 0.5500602126121521
v -4.7437222860935435e-07 -1.0203478336334229 0.41254517436027527
v -0.2640858292579651 -0.9855801463127136 0.41254517436027527
v -0.5101741552352905 -0.8836469054222107 0.41254517436027527
v -0.7214952707290649 -0.7214944958686829 0.41254517436027527
v -0.5374049544334412 -0.930811882019043 0.5500602126121521
v -0.7600052952766418 -0.760004460811615 0.5500602126121521
v -0.2781814932823181 -1.0381858348846436 0.5500602126121521
v -4.996920210942335e-07 -1.074809193611145 0.5500602126121521
v -0.5646356344223022 -0.9779767990112305 0.6875752806663513
v -0.7985153198242188 -0.7985144853591919 0.6875752806663513
v -0.29227715730667114 -1.0907914638519287 0.6875752806663513
v -5.250117851574032e-07 -1.1292705535888672 0.6875752806663513
v 0.29227617383003235 -1.0907917022705078 0.6875752806663513
v 0.5646347403526306 -0.9779773354530334 0.6875752806663513
v 0.7985144257545471 -0.7985153794288635 0.6875752806663513
v 0.9779766201972961 -0.5646359920501709 0.6875752806663513
v 1.0907914638519287 -0.2922775447368622 0.6875752806663513
vn 0.9297410249710083 0.0 -0.36821410059928894
vn 0.9297409057617188 0.0 -0.3682142496109009
vn 0.8980607986450195 0.24063469469547272 -0.36821436882019043
vn 0.8980607986450195 0.24063469469547272 -0.36821427941322327
vn 0.805179238319397 0.46487048268318176 -0.36821433901786804
vn 0.805179238319397 0.46487054228782654 -0.3682142198085785
vn 0.657426118850708 0.657426118850708 -0.36821427941322327
vn 0.6574262380599976 0.6574261784553528 -0.36821410059928894
vn 0.46487048268318176 0.805179238319397 -0.36821430921554565
vn 0.46487054228782654 0.805179238319397 -0.3682142198085785
vn 0.24063466489315033 0.8980607986450195 -0.36821427941322327
vn 0.24063463509082794 0.8980607986450195 -0.36821427941322327
vn -0.0 0.9297409057617188 -0.3682142496109009
vn -0.0 0.9297410249710083 -0.36821410059928894
vn -0.12149585783481598 0.9228533506393433 -0.36548638343811035
vn -0.121495820581913 0.9228534698486328 -0.3654862642288208
vn 0.8980607986450195 -0.24063509702682495 -0.3682139813899994
vn 0.8051793575286865 0.46487051248550415 -0.3682142496109009
vn 0.6574261784553528 0.6574261784553528 -0.3682142198085785
vn 0.46487054228782654 0.805179238319397 -0.3682141900062561
vn 0.24063469469547272 0.8980607986450195 -0.36821413040161133
vn -0.0 0.9297409057617188 -0.3682142496109009
vn -0.12149587273597717 0.9228533506393433 -0.3654865622520447
vn 0.6574261784553528 0.6574262380599976 -0.3682141900062561
vn 0.8051793575286865 0.4648704528808594 -0.36821413040161133
vn 0.8980607986450195 0.24063466489315033 -0.3682141602039337
vn 0.89806067943573 -0.24063511192798615 -0.3682141900062561
vn 0.8051790595054626 -0.4648711085319519 -0.36821410059928894
vn 0.8051789402961731 -0.46487098932266235 -0.3682142496109009
vn 0.6574256420135498 -0.657426655292511 -0.3682142198085785
vn 0.6574256420135498 -0.6574265360832214 -0.36821433901786804
vn 0.46487003564834595 -0.8051795959472656 -0.3682143986225128
vn 0.464869886636734 -0.8051795959472656 -0.36821430921554565
vn 0.24063420295715332 -0.8980608582496643 -0.36821430921554565
vn 0.24063417315483093 -0.8980608582496643 -0.3682142496109009
vn -3.987531727034366e-07 -0.9297409057617188 -0.36821430921554565
vn -4.396300141706888e-07 -0.9297409057617188 -0.3682141900062561
vn -0.2406350076198578 -0.89806067943573 -0.36821430921554565
vn -0.24063503742218018 -0.8980607986450195 -0.3682142198085785
vn -0.46487072110176086 -0.8051791191101074 -0.36821427941322327
vn -0.4648706912994385 -0.8051791787147522 -0.3682141900062561
vn -0.5666455030441284 -0.7384663224220276 -0.3654865324497223
vn -0.5666454434394836 -0.7384663820266724 -0.3654864728450775
vn -0.4648706912994385 -0.8051791787147522 -0.36821413040161133
vn -0.5666455030441284 -0.7384663820266724 -0.36548638343811035
vn -0.24063506722450256 -0.8980607986450195 -0.3682142496109009
vn -5.017516286898172e-07 -0.9297409057617188 -0.3682141900062561
vn 0.24063417315483093 -0.8980609774589539 -0.36821427941322327
vn 0.4648699164390564 -0.8051795959472656 -0.36821427941322327
vn 0.6574257016181946 -0.6574265360832214 -0.3682142198085785
vn 0.8051790595054626 -0.4648708999156952 -0.36821430921554565
vn 0.8980607986450195 -0.24063503742218018 -0.3682142496109009
vn 0.9297410249710083 0.0 -0.3682141602039337
vn 0.8980608582496643 0.24063464999198914 -0.36821413040161133
vn 0.9297410249710083 0.0 -0.3682141900062561
vn 0.2406342327594757 -0.8980609774589539 -0.3682141602039337
vn 0.4648699462413788 -0.8051797151565552 -0.36821413040161133
vn 0.6574256420135498 -0.657426655292511 -0.36821410059928894
vn 0.8051791191101074 -0.46487098932266235 -0.36821413040161133
vn 0.8980607986450195 -0.24063512682914734 -0.3682141900062561
vn 0.8980607986450195 0.24063466489315033 -0.36821427941322327
vn 0.9297409057617188 0.0 -0.36821430921554565
vn 0.8051793575286865 0.46487051248550415 -0.3682142496109009
vn 0.657426118850708 0.6574261784553528 -0.3682142198085785
vn 0.4648704528808594 0.805179238319397 -0.36821433901786804
vn 0.4648705720901489 0.8051793575286865 -0.3682141602039337
vn 0.2406347095966339 0.8980608582496643 -0.36821413040161133
vn -0.0 0.9297409057617188 -0.3682141900062561
vn -0.12149576097726822 0.9228533506393433 -0.3654865026473999
vn 0.24063469469547272 0.8980607986450195 -0.36821436882019043
vn -0.0 0.9297410249710083 -0.3682141900062561
vn -0.1214957907795906 0.9228534698486328 -0.36548641324043274
vn 0.6574261784553528 0.6574261784553528 -0.36821427941322327
vn 0.4648703932762146 0.805179238319397 -0.3682144582271576
vn 0.24063463509082794 0.8980607986450195 -0.3682143986225128
vn -0.0 0.9297410249710083 -0.3682141602039337
vn -0.12149584293365479 0.9228534698486328 -0.3654862344264984
vn 0.805179238319397 0.46487054228782654 -0.36821413040161133
vn 0.8980607986450195 0.24063463509082794 -0.36821430921554565
vn 0.9297409057617188 0.0 -0.36821430921554565
vn 0.89806067943573 -0.24063511192798615 -0.36821427941322327
vn 0.8051790595054626 -0.46487104892730713 -0.3682141602039337
vn 0.6574257612228394 -0.6574265956878662 -0.3682141602039337
vn 0.46487000584602356 -0.8051796555519104 -0.36821413040161133
vn 0.2406342327594757 -0.8980609774589539 -0.36821413040161133
vn -4.5635505330210435e-07 -0.9297409057617188 -0.3682142496109009
vn -0.24063503742218018 -0.89806067943573 -0.36821433901786804
vn -0.4648706912994385 -0.8051791787147522 -0.3682142496109009
vn -0.566645622253418 -0.7384663224220276 -0.3654865026473999
vn -0.46487078070640564 -0.8051791787147522 -0.3682141602039337
vn -0.566645622253418 -0.7384662628173828 -0.3654865026473999
vn -0.24063503742218018 -0.8980607986450195 -0.3682141602039337
vn -4.037906364828814e-07 -0.9297410249710083 -0.3682141602039337
vn -0.46487075090408325 -0.8051791787147522 -0.36821413040161133
vn -0.5666455626487732 -0.7384663224220276 -0.3654865026473999
vn -0.24063506722450256 -0.8980607986450195 -0.36821404099464417
vn -3.992872450453433e-07 -0.9297409057617188 -0.3682141602039337
vn 0.2406342625617981 -0.8980609774589539 -0.3682142496109009
vn 0.4648699164390564 -0.8051796555519104 -0.36821413040161133
vn 0.6574257016181946 -0.6574265360832214 -0.3682142198085785
vn 0.8051789402961731 -0.4648709297180176 -0.36821433901786804
vn 0.8980606198310852 -0.24063518643379211 -0.36821433901786804
vt 0.4422432780265808 -0.0023615360260009766
vt 0.4451313018798828 0.1976383924484253
vt 0.3840818405151367 0.1976383924484253
vt 0.3808389902114868 -0.0023615360260009766
vt 0.32303231954574585 0.19763845205307007
vt 0.31943488121032715 -0.0023615360260009766
vt 0.26198285818099976 0.19763851165771484
vt 0.25803059339523315 -0.0023615360260009766
vt 0.20093315839767456 0.19763851165771484
vt 0.19662624597549438 -0.0023615360260009766
vt 0.13988369703292847 0.19763851165771484
vt 0.13522201776504517 -0.0023615360260009766
vt 0.07883411645889282 0.19763851165771484
vt 0.07381784915924072 -0.0023615360260009766
vt 0.017784535884857178 0.19763851165771484
vt 0.012413620948791504 -0.0023615360260009766
vt 0.5036478042602539 -0.0023615360260009766
vt 0.3219361901283264 0.3976384401321411
vt 0.25994372367858887 0.3976384401321411
vt 0.19795095920562744 0.3976384401321411
vt 0.13595843315124512 0.3976384401321411
vt 0.07396572828292847 0.3976384401321411
vt 0.011973202228546143 0.3976384997367859
vt 0.25006604194641113 0.5976383686065674
vt 0.31138885021209717 0.5976383686065674
vt 0.38392895460128784 0.39763838052749634
vt 0.5061812400817871 0.1976383924484253
vt 0.5650520920753479 -0.0023615360260009766
vt 0.5672307014465332 0.1976383924484253
vt 0.6264563798904419 -0.0023615360260009766
vt 0.6282804012298584 0.1976383924484253
vt 0.6878606081008911 -0.0023615360260009766
vt 0.6893298625946045 0.1976383924484253
vt 0.7492648959159851 -0.0023615360260009766
vt 0.7503794431686401 0.1976383924484253
vt 0.8106690645217896 -0.0023615360260009766
vt 0.8114289045333862 0.1976383924484253
vt 0.8720732927322388 -0.0023615360260009766
vt 0.8724784255027771 0.1976383924484253
vt 0.9334775805473328 -0.0023615360260009766
vt 0.9335280060768127 0.1976383924484253
vt 0.9948818683624268 -0.0023615360260009766
vt 0.9945775270462036 0.1976383924484253
vt 0.9418628215789795 0.39763838052749634
vt 1.0038554668426514 0.39763838052749634
vt 0.8798701763153076 0.39763838052749634
vt 0.8178775906562805 0.39763838052749634
vt 0.7558849453926086 0.39763838052749634
vt 0.6938923001289368 0.39763838052749634
vt 0.6318997144699097 0.39763838052749634
vt 0.569907009601593 0.39763838052749634
vt 0.5079144239425659 0.39763838052749634
vt 0.44592148065567017 0.39763838052749634
vt 0.37271177768707275 0.5976383686065674
vt 0.4340345859527588 0.5976383686065674
vt 0.7406492829322815 0.5976382791996002
vt 0.6793263554573059 0.5976382791996002
vt 0.6180034875869751 0.5976383090019226
vt 0.5566806197166443 0.5976383090019226
vt 0.49535781145095825 0.5976383686065674
vt 0.3743359446525574 0.7976383566856384
vt 0.43532395362854004 0.7976383566856384
vt 0.3133479356765747 0.7976383566856384
vt 0.2523600459098816 0.7976383566856384
vt 0.19137197732925415 0.7976383566856384
vt 0.18874311447143555 0.5976383686065674
vt 0.12742024660110474 0.5976383686065674
vt 0.06609737873077393 0.5976383686065674
vt 0.004774689674377441 0.5976383686065674
vt 0.13038396835327148 0.7976383715867996
vt 0.0693960189819336 0.7976383715867996
vt 0.008407950401306152 0.7976383715867996
vt 0.2522144317626953 0.9976383554749191
vt 0.19082999229431152 0.9976383582688868
vt 0.12944567203521729 0.9976383605971932
vt 0.06806135177612305 0.997638363391161
vt 0.006676673889160156 0.9976383661851287
vt 0.3135988712310791 0.9976383526809514
vt 0.37498342990875244 0.9976383498869836
vt 0.43636763095855713 0.9976383475586772
vt 0.4963122010231018 0.7976383417844772
vt 0.5573002099990845 0.7976382821798325
vt 0.6182881593704224 0.7976382821798325
vt 0.679276168346405 0.7976382821798325
vt 0.7402642369270325 0.7976382821798325
vt 0.8019721508026123 0.5976382791996002
vt 0.8632950186729431 0.5976382791996002
vt 0.9246178865432739 0.5976382791996002
vt 0.9859408140182495 0.5976382791996002
vt 0.9232280254364014 0.7976382672786713
vt 0.984216034412384 0.7976382672786713
vt 0.8622400760650635 0.7976382672786713
vt 0.8012520670890808 0.7976382821798325
vt 0.9274433255195618 0.9976382660679519
vt 0.9888278245925903 0.9976382637396455
vt 0.866058886051178 0.9976382688619196
vt 0.804674506187439 0.9976382716558874
vt 0.7432901859283447 0.9976382744498551
vt 0.6819056868553162 0.9976382767781615
vt 0.6205212473869324 0.9976382795721292
vt 0.5591368079185486 0.997638282366097
vt 0.49775242805480957 0.9976383447647095

g Cone001
s 1
usemtl Cone001
f 3/3/3 2/2/2 1/1/1 
f 4/4/4 3/3/3 1/1/1 
f 5/5/5 3/3/3 4/4/4 
f 6/6/6 5/5/5 4/4/4 
f 7/7/7 5/5/5 6/6/6 
f 8/8/8 7/7/7 6/6/6 
f 9/9/9 7/7/7 8/8/8 
f 10/10/10 9/9/9 8/8/8 
f 11/11/11 9/9/9 10/10/10 
f 12/12/12 11/11/11 10/10/10 
f 13/13/13 11/11/11 12/12/12 
f 14/14/14 13/13/13 12/12/12 
f 15/15/15 13/13/13 14/14/14 
f 16/16/16 15/15/15 14/14/14 
f 1/1/1 2/2/2 17/17/17 
f 5/5/5 18/18/18 3/3/3 
f 19/19/19 18/18/18 5/5/5 
f 7/7/7 19/19/19 5/5/5 
f 20/20/20 19/19/19 7/7/7 
f 9/9/9 20/20/20 7/7/7 
f 21/21/21 20/20/20 9/9/9 
f 11/11/11 21/21/21 9/9/9 
f 22/22/22 21/21/21 11/11/11 
f 13/13/13 22/22/22 11/11/11 
f 23/23/23 22/22/22 13/13/13 
f 15/15/15 23/23/23 13/13/13 
f 19/19/19 24/24/24 18/18/18 
f 24/24/24 25/25/25 18/18/18 
f 18/18/18 25/25/25 26/26/26 
f 18/18/18 26/26/26 3/3/3 
f 3/3/3 26/26/26 2/2/2 
f 2/2/2 27/27/27 17/17/17 
f 17/17/17 27/27/27 28/28/28 
f 27/27/27 29/29/29 28/28/28 
f 28/28/28 29/29/29 30/30/30 
f 29/29/29 31/31/31 30/30/30 
f 30/30/30 31/31/31 32/32/32 
f 31/31/31 33/33/33 32/32/32 
f 32/32/32 33/33/33 34/34/34 
f 33/33/33 35/35/35 34/34/34 
f 34/34/34 35/35/35 36/36/36 
f 35/35/35 37/37/37 36/36/36 
f 36/36/36 37/37/37 38/38/38 
f 37/37/37 39/39/39 38/38/38 
f 38/38/38 39/39/39 40/40/40 
f 39/39/39 41/41/41 40/40/40 
f 40/40/40 41/41/41 42/42/42 
f 41/41/41 43/43/43 42/42/42 
f 41/41/41 44/44/44 43/43/43 
f 44/44/44 45/45/45 43/43/43 
f 46/46/46 44/44/44 41/41/41 
f 39/39/39 46/46/46 41/41/41 
f 47/47/47 46/46/46 39/39/39 
f 37/37/37 47/47/47 39/39/39 
f 48/48/48 47/47/47 37/37/37 
f 35/35/35 48/48/48 37/37/37 
f 49/49/49 48/48/48 35/35/35 
f 33/33/33 49/49/49 35/35/35 
f 50/50/50 49/49/49 33/33/33 
f 31/31/31 50/50/50 33/33/33 
f 51/51/51 50/50/50 31/31/31 
f 29/29/29 51/51/51 31/31/31 
f 52/52/52 51/51/51 29/29/29 
f 27/27/27 52/52/52 29/29/29 
f 53/53/53 52/52/52 27/27/27 
f 2/2/2 53/53/53 27/27/27 
f 26/26/26 53/53/53 2/2/2 
f 26/26/26 54/54/54 53/53/53 
f 54/54/54 55/55/55 53/53/53 
f 53/53/53 55/55/55 52/52/52 
f 25/25/25 54/54/54 26/26/26 
f 48/48/48 56/56/56 47/47/47 
f 57/57/57 56/56/56 48/48/48 
f 49/49/49 57/57/57 48/48/48 
f 58/58/58 57/57/57 49/49/49 
f 50/50/50 58/58/58 49/49/49 
f 59/59/59 58/58/58 50/50/50 
f 51/51/51 59/59/59 50/50/50 
f 60/60/60 59/59/59 51/51/51 
f 52/52/52 60/60/60 51/51/51 
f 55/55/55 60/60/60 52/52/52 
f 54/54/54 61/61/61 55/55/55 
f 61/61/61 62/62/62 55/55/55 
f 55/55/55 62/62/62 60/60/60 
f 63/63/63 61/61/61 54/54/54 
f 25/25/25 63/63/63 54/54/54 
f 64/64/64 63/63/63 25/25/25 
f 24/24/24 64/64/64 25/25/25 
f 65/65/65 64/64/64 24/24/24 
f 66/66/66 65/65/65 24/24/24 
f 66/66/66 24/24/24 19/19/19 
f 20/20/20 66/66/66 19/19/19 
f 67/67/67 66/66/66 20/20/20 
f 21/21/21 67/67/67 20/20/20 
f 68/68/68 67/67/67 21/21/21 
f 22/22/22 68/68/68 21/21/21 
f 69/69/69 68/68/68 22/22/22 
f 23/23/23 69/69/69 22/22/22 
f 70/70/70 65/65/65 66/66/66 
f 67/67/67 70/70/70 66/66/66 
f 71/71/71 70/70/70 67/67/67 
f 68/68/68 71/71/71 67/67/67 
f 72/72/72 71/71/71 68/68/68 
f 69/69/69 72/72/72 68/68/68 
f 64/64/64 73/73/73 63/63/63 
f 74/74/74 73/73/73 64/64/64 
f 65/65/65 74/74/74 64/64/64 
f 75/75/75 74/74/74 65/65/65 
f 70/70/70 75/75/75 65/65/65 
f 76/76/76 75/75/75 70/70/70 
f 71/71/71 76/76/76 70/70/70 
f 77/77/77 76/76/76 71/71/71 
f 72/72/72 77/77/77 71/71/71 
f 73/73/73 78/78/78 63/63/63 
f 63/63/63 78/78/78 61/61/61 
f 78/78/78 79/79/79 61/61/61 
f 61/61/61 79/79/79 62/62/62 
f 79/79/79 80/80/80 62/62/62 
f 62/62/62 80/80/80 81/81/81 
f 62/62/62 81/81/81 60/60/60 
f 60/60/60 81/81/81 59/59/59 
f 81/81/81 82/82/82 59/59/59 
f 59/59/59 82/82/82 58/58/58 
f 82/82/82 83/83/83 58/58/58 
f 58/58/58 83/83/83 57/57/57 
f 83/83/83 84/84/84 57/57/57 
f 57/57/57 84/84/84 56/56/56 
f 84/84/84 85/85/85 56/56/56 
f 56/56/56 85/85/85 86/86/86 
f 56/56/56 86/86/86 47/47/47 
f 47/47/47 86/86/86 46/46/46 
f 86/86/86 87/87/87 46/46/46 
f 46/46/46 87/87/87 44/44/44 
f 87/87/87 88/88/88 44/44/44 
f 44/44/44 88/88/88 45/45/45 
f 88/88/88 89/89/89 45/45/45 
f 88/88/88 90/90/90 89/89/89 
f 90/90/90 91/91/91 89/89/89 
f 92/92/92 90/90/90 88/88/88 
f 87/87/87 92/92/92 88/88/88 
f 93/93/93 92/92/92 87/87/87 
f 86/86/86 93/93/93 87/87/87 
f 85/85/85 93/93/93 86/86/86 
f 90/90/90 94/94/94 91/91/91 
f 94/94/94 95/95/95 91/91/91 
f 96/96/96 94/94/94 90/90/90 
f 92/92/92 96/96/96 90/90/90 
f 97/97/97 96/96/96 92/92/92 
f 93/93/93 97/97/97 92/92/92 
f 98/98/98 97/97/97 93/93/93 
f 85/85/85 98/98/98 93/93/93 
f 99/99/99 98/98/98 85/85/85 
f 84/84/84 99/99/99 85/85/85 
f 100/100/100 99/99/99 84/84/84 
f 83/83/83 100/100/100 84/84/84 
f 101/101/101 100/100/100 83/83/83 
f 82/82/82 101/101/101 83/83/83 
f 102/102/102 101/101/101 82/82/82 
f 81/81/81 102/102/102 82/82/82 
f 80/80/80 102/102/102 81/81/81 

