v 1.1015567779541016 0.0 0.0
v 1.0413463115692139 0.0 0.019157880917191505
v 1.0058633089065552 0.26952025294303894 0.019157880917191505
v 1.064022183418274 0.28510385751724243 0.0
v 0.9018323421478271 0.5206731557846069 0.019157880917191505
v 0.9539761543273926 0.5507783889770508 0.0
v 0.7363430261611938 0.7363430261611938 0.019157880917191505
v 0.7789182662963867 0.7789182662963867 0.0
v 0.5206730961799622 0.9018324613571167 0.019157880917191505
v 0.550778329372406 0.9539761543273926 0.0
v 0.26952028274536133 1.0058633089065552 0.019157880917191505
v 0.2851039171218872 1.064022183418274 0.0
v 7.861946471621195e-08 1.0413463115692139 0.019157880917191505
v 8.316522581708341e-08 1.1015567779541016 0.0
v -0.2695201337337494 1.0058633089065552 0.019157880917191505
v -0.2851037383079529 1.064022183418274 0.0
v 1.0640219449996948 -0.2851046621799469 0.0
v 0.8496885299682617 0.4905679225921631 0.03831576183438301
v 0.693767786026001 0.693767786026001 0.03831576183438301
v 0.4905678629875183 0.8496886491775513 0.03831576183438301
v 0.25393667817115784 0.9477044343948364 0.03831576183438301
v 7.407369650991313e-08 0.9811358451843262 0.03831576183438301
v -0.2539365291595459 0.9477044343948364 0.03831576183438301
v 0.6511925458908081 0.6511925458908081 0.057473648339509964
v 0.7975447773933411 0.46046268939971924 0.057473648339509964
v 0.9477044343948364 0.25393661856651306 0.03831576183438301
v 1.005863070487976 -0.26952099800109863 0.019157880917191505
v 0.9539757966995239 -0.5507790446281433 0.0
v 0.9018320441246033 -0.5206738114356995 0.019157880917191505
v 0.7789177894592285 -0.7789188027381897 0.0
v 0.7363426089286804 -0.736343502998352 0.019157880917191505
v 0.550777792930603 -0.9539764523506165 0.0
v 0.520672619342804 -0.901832640171051 0.019157880917191505
v 0.28510332107543945 -1.0640223026275635 0.0
v 0.26951974630355835 -1.0058634281158447 0.019157880917191505
v -5.121272579344804e-07 -1.1015567779541016 0.0
v -4.841346594730567e-07 -1.0413463115692139 0.019157880917191505
v -0.28510430455207825 -1.0640219449996948 0.0
v -0.26952067017555237 -1.0058631896972656 0.019157880917191505
v -0.5507787466049194 -0.9539759755134583 0.0
v -0.5206734538078308 -0.9018321633338928 0.019157880917191505
v -0.7789187431335449 -0.7789178490638733 0.0
v -0.7363434433937073 -0.7363426685333252 0.019157880917191505
v -0.9539764523506165 -0.5507779717445374 0.0
v -0.901832640171051 -0.5206727385520935 0.019157880917191505
v -1.0640223026275635 -0.2851034104824066 0.0
v -1.0058634281158447 -0.2695198059082031 0.019157880917191505
v -1.1015567779541016 4.2896201080111496e-07 0.0
v -1.0413463115692139 4.0551520896769944e-07 0.019157880917191505
v -1.0640220642089844 0.2851042151451111 0.0
v -1.0058631896972656 0.2695205807685852 0.019157880917191505
v -0.9539759755134583 0.5507786273956299 0.0
v -0.9018322229385376 0.520673394203186 0.019157880917191505
v -0.7789180278778076 0.778918445110321 0.0
v -0.7363428473472595 0.7363432049751282 0.019157880917191505
v -0.5507782697677612 0.9539762735366821 0.0
v -0.5206730365753174 0.9018324613571167 0.019157880917191505
v -0.2851037383079529 1.064022183418274 0.0
v -0.2695201337337494 1.0058633089065552 0.019157880917191505
v -0.49056777358055115 0.8496886491775513 0.03831576183438301
v -0.2539365291595459 0.9477044343948364 0.03831576183438301
v -0.6937676072120667 0.6937679648399353 0.03831576183438301
v -0.8496884107589722 0.4905681610107422 0.03831576183438301
v -0.9477043747901917 0.2539369761943817 0.03831576183438301
v -0.9811358451843262 3.820683787125745e-07 0.03831576183438301
v -0.947704553604126 -0.253936231136322 0.03831576183438301
v -0.8496888279914856 -0.49056753516197205 0.03831576183438301
v -0.6937682032585144 -0.6937674283981323 0.03831576183438301
v -0.49056822061538696 -0.8496883511543274 0.03831576183438301
v -0.2539370059967041 -0.9477043747901917 0.03831576183438301
v -4.5614211785505177e-07 -0.9811358451843262 0.03831576183438301
v 0.25393614172935486 -0.947704553604126 0.03831576183438301
v 0.4905674457550049 -0.8496888279914856 0.03831576183438301
v 0.6937673687934875 -0.6937682628631592 0.03831576183438301
v 0.8496882319450378 -0.49056848883628845 0.03831576183438301
v 0.9477042555809021 -0.25393733382225037 0.03831576183438301
v 0.9811358451843262 0.0 0.03831576183438301
v 0.8895456194877625 0.23835301399230957 0.057473648339509964
v 0.9209253787994385 0.0 0.057473648339509964
v 0.46046221256256104 -0.7975450158119202 0.057473648339509964
v 0.6511921882629395 -0.6511930227279663 0.057473648339509964
v 0.7975444793701172 -0.4604632258415222 0.057473648339509964
v 0.8895453810691833 -0.2383536845445633 0.057473648339509964
v 0.8313867449760437 0.22276939451694489 0.07663152366876602
v 0.8607149124145508 0.0 0.07663152366876602
v 0.7454009652137756 0.4303574562072754 0.07663152366876602
v 0.60861736536026 0.60861736536026 0.07663152366876602
v 0.4303573966026306 0.7454010248184204 0.07663152366876602
v 0.46046262979507446 0.7975448369979858 0.057473648339509964
v 0.23835305869579315 0.8895456194877625 0.057473648339509964
v 6.952793540904167e-08 0.9209253787994385 0.057473648339509964
v -0.2383529096841812 0.8895456194877625 0.057473648339509964
v 0.22276943922042847 0.8313867449760437 0.07663152366876602
v 6.498216720274286e-08 0.8607149124145508 0.07663152366876602
v -0.22276929020881653 0.8313867449760437 0.07663152366876602
v 0.5660420656204224 0.5660420656204224 0.09578940272331238
v 0.40025219321250916 0.693257212638855 0.09578940272331238
v 0.20718581974506378 0.773227870464325 0.09578940272331238
v 6.043639899644404e-08 0.8005044460296631 0.09578940272331238
v -0.20718570053577423 0.7732279300689697 0.09578940272331238
v 0.6932571530342102 0.40025222301483154 0.09578940272331238
v 0.773227870464325 0.2071858048439026 0.09578940272331238
v 0.8005044460296631 0.0 0.09578940272331238
v 0.8313865661621094 -0.22277002036571503 0.07663152366876602
v 0.7454007267951965 -0.43035799264907837 0.07663152366876602
v 0.6086169481277466 -0.6086177229881287 0.07663152366876602
v 0.4303570091724396 -0.7454012036323547 0.07663152366876602
v 0.23835255205631256 -0.8895456790924072 0.057473648339509964
v -4.28149519393628e-07 -0.9209253787994385 0.057473648339509964
v -0.23835337162017822 -0.8895455002784729 0.057473648339509964
v -0.4604629874229431 -0.7975445985794067 0.057473648339509964
v -0.6511929631233215 -0.6511922478675842 0.057473648339509964
v -0.7975449562072754 -0.4604623019695282 0.057473648339509964
v -0.8895456790924072 -0.23835264146327972 0.057473648339509964
v -0.9209253787994385 3.5862157687915897e-07 0.057473648339509964
v -0.8895455002784729 0.23835332691669464 0.057473648339509964
v -0.7975445985794067 0.46046292781829834 0.057473648339509964
v -0.6511924266815186 0.6511927247047424 0.057473648339509964
v -0.4604625403881073 0.7975448369979858 0.057473648339509964
v -0.2383529096841812 0.8895456194877625 0.057473648339509964
v -0.43035730719566345 0.7454010248184204 0.07663152366876602
v -0.22276929020881653 0.8313867449760437 0.07663152366876602
v -0.6086171269416809 0.6086174845695496 0.07663152366876602
v -0.7454008460044861 0.4303576350212097 0.07663152366876602
v -0.8313866257667542 0.22276967763900757 0.07663152366876602
v -0.8607149124145508 3.35174746624034e-07 0.07663152366876602
v -0.8313868641853333 -0.22276905179023743 0.07663152366876602
v -0.74540114402771 -0.43035709857940674 0.07663152366876602
v -0.6086176633834839 -0.6086170077323914 0.07663152366876602
v -0.4303576946258545 -0.7454007863998413 0.07663152366876602
v -0.22276973724365234 -0.8313866257667542 0.07663152366876602
v -4.0015694935391366e-07 -0.8607149124145508 0.07663152366876602
v 0.22276896238327026 -0.8313868641853333 0.07663152366876602
v -0.6932573318481445 -0.4002518653869629 0.09578940272331238
v -0.7732279896736145 -0.20718546211719513 0.09578940272331238
v -0.566042423248291 -0.5660418272018433 0.09578940272331238
v -0.40025246143341064 -0.6932569742202759 0.09578940272331238
v -0.20718608796596527 -0.7732278108596802 0.09578940272331238
v -3.721643508924899e-07 -0.8005044460296631 0.09578940272331238
v 0.20718538761138916 -0.7732279896736145 0.09578940272331238
v 0.4002518057823181 -0.6932573914527893 0.09578940272331238
v 0.5660417675971985 -0.5660424828529358 0.09578940272331238
v 0.6932569146156311 -0.40025269985198975 0.09578940272331238
v 0.7732277512550354 -0.20718635618686676 0.09578940272331238
v -0.8005044460296631 3.117279447906185e-07 0.09578940272331238
v -0.773227870464325 0.2071860432624817 0.09578940272331238
v -0.6932570338249207 0.40025240182876587 0.09578940272331238
v -0.5660419464111328 0.5660422444343567 0.09578940272331238
v -0.400252103805542 0.693257212638855 0.09578940272331238
v -0.20718570053577423 0.7732279300689697 0.09578940272331238
vn 0.3032037615776062 0.0 0.9529257416725159
vn 0.3032037019729614 0.0 0.9529257416725159
vn 0.29287225008010864 0.07847489416599274 0.9529257416725159
vn 0.29287227988243103 0.07847488671541214 0.9529257416725159
vn 0.26258206367492676 0.15160183608531952 0.9529257416725159
vn 0.26258212327957153 0.1516018807888031 0.9529257416725159
vn 0.21439741551876068 0.21439741551876068 0.9529257416725159
vn 0.21439751982688904 0.21439754962921143 0.9529257416725159
vn 0.15160192549228668 0.2625821828842163 0.9529257416725159
vn 0.15160199999809265 0.26258230209350586 0.9529257416725159
vn 0.07847490161657333 0.2928723394870758 0.9529257416725159
vn 0.07847493141889572 0.2928723692893982 0.9529257416725159
vn -0.0 0.30320367217063904 0.9529257416725159
vn -0.0 0.3032037019729614 0.9529257416725159
vn -0.07847484946250916 0.29287227988243103 0.9529257416725159
vn -0.07847484946250916 0.29287227988243103 0.9529257416725159
vn 0.2928723096847534 -0.07847505807876587 0.9529257416725159
vn 0.26258209347724915 0.1516018658876419 0.9529257416725159
vn 0.21439741551876068 0.2143973857164383 0.9529257416725159
vn 0.1516018509864807 0.26258206367492676 0.9529257416725159
vn 0.07847487926483154 0.2928723096847534 0.9529257416725159
vn -0.0 0.30320367217063904 0.9529257416725159
vn -0.07847486436367035 0.2928723096847534 0.9529257416725159
vn 0.21439741551876068 0.21439741551876068 0.9529257416725159
vn 0.2625821530818939 0.1516018956899643 0.9529257416725159
vn 0.2928723096847534 0.07847490161657333 0.9529257416725159
vn 0.29287222027778625 -0.07847502827644348 0.9529257416725159
vn 0.26258203387260437 -0.15160208940505981 0.9529257416725159
vn 0.262582004070282 -0.15160198509693146 0.9529257416725159
vn 0.21439725160598755 -0.21439756453037262 0.9529257416725159
vn 0.21439720690250397 -0.21439754962921143 0.9529257416725159
vn 0.1516016721725464 -0.26258227229118347 0.9529257416725159
vn 0.1516016572713852 -0.2625822126865387 0.9529257416725159
vn 0.07847476750612259 -0.29287242889404297 0.9529257416725159
vn 0.07847476005554199 -0.2928723096847534 0.9529257416725159
vn -0.0 -0.30320385098457336 0.9529257416725159
vn -0.0 -0.3032037913799286 0.9529257416725159
vn -0.07847507297992706 -0.29287245869636536 0.9529257416725159
vn -0.07847504317760468 -0.2928723692893982 0.9529257416725159
vn -0.15160195529460907 -0.26258212327957153 0.9529257416725159
vn -0.15160192549228668 -0.262582004070282 0.9529257416725159
vn -0.21439743041992188 -0.21439722180366516 0.9529257416725159
vn -0.21439744532108307 -0.21439725160598755 0.9529257416725159
vn -0.2625821828842163 -0.1516016721725464 0.9529257416725159
vn -0.2625821828842163 -0.1516016721725464 0.9529257416725159
vn -0.2928723394870758 -0.0784747526049614 0.9529257416725159
vn -0.2928723394870758 -0.0784747526049614 0.9529257416725159
vn -0.3032037019729614 0.0 0.9529257416725159
vn -0.3032037019729614 0.0 0.9529257416725159
vn -0.2928723394870758 0.07847502082586288 0.9529257416725159
vn -0.2928723096847534 0.0784749984741211 0.9529257416725159
vn -0.2625822126865387 0.15160204470157623 0.9529257416725159
vn -0.26258212327957153 0.15160195529460907 0.9529257416725159
vn -0.21439744532108307 0.21439756453037262 0.9529257416725159
vn -0.21439741551876068 0.21439747512340546 0.9529257416725159
vn -0.15160180628299713 0.2625821828842163 0.9529257416725159
vn -0.15160176157951355 0.26258212327957153 0.9529257416725159
vn -0.07847484946250916 0.29287227988243103 0.9529257416725159
vn -0.07847484946250916 0.29287227988243103 0.9529257416725159
vn -0.15160182118415833 0.2625821828842163 0.9529257416725159
vn -0.07847486436367035 0.2928723096847534 0.9529257416725159
vn -0.21439732611179352 0.21439744532108307 0.9529257416725159
vn -0.262582004070282 0.1516019105911255 0.9529257416725159
vn -0.29287225008010864 0.0784749761223793 0.9529257416725159
vn -0.3032037317752838 0.0 0.9529257416725159
vn -0.2928723096847534 -0.0784747526049614 0.9529257416725159
vn -0.2625821530818939 -0.15160168707370758 0.9529257416725159
vn -0.21439747512340546 -0.21439731121063232 0.9529257416725159
vn -0.15160197019577026 -0.26258206367492676 0.9529257416725159
vn -0.07847503572702408 -0.29287225008010864 0.9529257416725159
vn -0.0 -0.3032037317752838 0.9529257416725159
vn 0.07847476005554199 -0.2928723692893982 0.9529257416725159
vn 0.1516016572713852 -0.2625821828842163 0.9529257416725159
vn 0.21439720690250397 -0.21439751982688904 0.9529257416725159
vn 0.2625819742679596 -0.15160198509693146 0.9529257416725159
vn 0.29287222027778625 -0.07847501337528229 0.9529257416725159
vn 0.3032037317752838 0.0 0.9529257416725159
vn 0.2928723096847534 0.07847490161657333 0.9529257416725159
vn 0.3032037019729614 0.0 0.9529257416725159
vn 0.1516016572713852 -0.2625822424888611 0.9529257416725159
vn 0.21439723670482635 -0.21439754962921143 0.9529257416725159
vn 0.262582004070282 -0.15160202980041504 0.9529257416725159
vn 0.29287225008010864 -0.07847503572702408 0.9529257416725159
vn 0.29287219047546387 0.07847486436367035 0.9529257416725159
vn 0.30320364236831665 0.0 0.9529257416725159
vn 0.262582004070282 0.15160180628299713 0.9529257416725159
vn 0.21439732611179352 0.21439731121063232 0.9529257416725159
vn 0.15160182118415833 0.262582004070282 0.9529257416725159
vn 0.1516018807888031 0.26258212327957153 0.9529257416725159
vn 0.07847486436367035 0.29287225008010864 0.9529257416725159
vn -0.0 0.30320367217063904 0.9529257416725159
vn -0.07847484946250916 0.2928723096847534 0.9529257416725159
vn 0.07847485691308975 0.29287219047546387 0.9529257416725159
vn -0.0 0.3032037019729614 0.9529257416725159
vn -0.07847484946250916 0.2928723096847534 0.9529257416725159
vn 0.2143973410129547 0.21439731121063232 0.9529258608818054
vn 0.15160180628299713 0.262582004070282 0.9529257416725159
vn 0.07847487926483154 0.29287222027778625 0.9529257416725159
vn -0.0 0.3032037615776062 0.9529257416725159
vn -0.07847487181425095 0.2928723692893982 0.9529257416725159
vn 0.262582004070282 0.15160179138183594 0.9529257416725159
vn 0.29287222027778625 0.07847489416599274 0.9529257416725159
vn 0.3032037019729614 0.0 0.9529257416725159
vn 0.29287222027778625 -0.07847503572702408 0.9529257416725159
vn 0.262582004070282 -0.15160197019577026 0.9529257416725159
vn 0.21439720690250397 -0.21439754962921143 0.9529257416725159
vn 0.1516016572713852 -0.2625821828842163 0.9529257416725159
vn 0.07847476005554199 -0.2928723394870758 0.9529257416725159
vn -0.0 -0.3032037019729614 0.9529257416725159
vn -0.07847503572702408 -0.29287227988243103 0.9529257416725159
vn -0.15160197019577026 -0.26258206367492676 0.9529257416725159
vn -0.21439747512340546 -0.21439728140830994 0.9529257416725159
vn -0.2625821530818939 -0.1516016572713852 0.9529257416725159
vn -0.2928723096847534 -0.07847476005554199 0.9529257416725159
vn -0.30320367217063904 0.0 0.9529257416725159
vn -0.29287225008010864 0.0784749835729599 0.9529257416725159
vn -0.262582004070282 0.15160192549228668 0.9529257416725159
vn -0.21439732611179352 0.21439743041992188 0.9529257416725159
vn -0.15160177648067474 0.26258212327957153 0.9529257416725159
vn -0.07847484946250916 0.2928723096847534 0.9529257416725159
vn -0.15160177648067474 0.26258206367492676 0.9529257416725159
vn -0.07847484946250916 0.2928723096847534 0.9529257416725159
vn -0.21439725160598755 0.21439741551876068 0.9529257416725159
vn -0.262582004070282 0.1516018956899643 0.9529257416725159
vn -0.29287227988243103 0.0784749910235405 0.9529257416725159
vn -0.30320367217063904 0.0 0.9529257416725159
vn -0.29287225008010864 -0.07847476005554199 0.9529257416725159
vn -0.26258212327957153 -0.15160168707370758 0.9529257416725159
vn -0.21439743041992188 -0.21439723670482635 0.9529257416725159
vn -0.1516018956899643 -0.262582004070282 0.9529257416725159
vn -0.0784749984741211 -0.2928721606731415 0.9529257416725159
vn -0.0 -0.30320364236831665 0.9529257416725159
vn 0.0784747451543808 -0.2928723096847534 0.9529257416725159
vn -0.26258212327957153 -0.1516016572713852 0.9529257416725159
vn -0.29287227988243103 -0.07847476005554199 0.9529257416725159
vn -0.21439744532108307 -0.21439725160598755 0.9529257416725159
vn -0.1516018956899643 -0.2625819742679596 0.9529257416725159
vn -0.0784749984741211 -0.29287219047546387 0.9529257416725159
vn -0.0 -0.30320364236831665 0.9529257416725159
vn 0.0784747526049614 -0.2928723096847534 0.9529257416725159
vn 0.1516016572713852 -0.2625821828842163 0.9529257416725159
vn 0.21439716219902039 -0.21439747512340546 0.9529257416725159
vn 0.2625819146633148 -0.15160198509693146 0.9529258608818054
vn 0.29287222027778625 -0.07847501337528229 0.9529257416725159
vn -0.3032037615776062 0.0 0.9529257416725159
vn -0.29287227988243103 0.0784749761223793 0.9529257416725159
vn -0.262582004070282 0.1516018956899643 0.9529257416725159
vn -0.21439731121063232 0.2143974006175995 0.9529257416725159
vn -0.15160182118415833 0.2625821530818939 0.9529257416725159
vn -0.07847487181425095 0.2928723692893982 0.9529257416725159
vt 1.4280465841293335 1.0
vt 1.4280465841293335 0.7999999821186066
vt 1.51164972782135 0.7999999821186066
vt 1.51164972782135 1.0
vt 1.5952529907226562 0.7999999821186066
vt 1.5952529907226562 1.0
vt 1.6788561344146729 0.7999999821186066
vt 1.6788561344146729 1.0
vt 1.762459397315979 0.7999999821186066
vt 1.762459397315979 1.0
vt 1.8460625410079956 0.7999999821186066
vt 1.8460626602172852 1.0
vt 1.9296658039093018 0.7999999821186066
vt 1.9296658039093018 1.0
vt 2.0132691860198975 0.7999999821186066
vt 2.0132691860198975 1.0
vt 1.3444429636001587 1.0
vt 1.5952529907226562 0.5999999642372131
vt 1.6788561344146729 0.5999999642372131
vt 1.762459397315979 0.5999999642372131
vt 1.8460625410079956 0.5999999642372131
vt 1.9296658039093018 0.5999999642372131
vt 2.0132691860198975 0.5999999642372131
vt 1.6788561344146729 0.3999999165534973
vt 1.5952529907226562 0.3999999165534973
vt 1.51164972782135 0.5999999642372131
vt 1.3444429636001587 0.7999999821186066
vt 1.260839819908142 1.0
vt 1.260839819908142 0.7999999821186066
vt 1.177236557006836 1.0
vt 1.177236557006836 0.7999999821186066
vt 1.0936334133148193 1.0
vt 1.0936334133148193 0.7999999821186066
vt 1.0100301504135132 1.0
vt 1.0100301504135132 0.7999999821186066
vt 0.9264269471168518 1.0
vt 0.9264269471168518 0.7999999821186066
vt 0.8428237438201904 1.0
vt 0.8428237438201904 0.7999999821186066
vt 0.759220540523529 1.0
vt 0.759220540523529 0.7999999821186066
vt 0.6756172776222229 1.0
vt 0.6756172776222229 0.7999999821186066
vt 0.5920140743255615 1.0
vt 0.5920140743255615 0.7999999821186066
vt 0.5084108710289001 1.0
vt 0.5084108710289001 0.7999999821186066
vt 0.42480766773223877 1.0
vt 0.42480766773223877 0.7999999821186066
vt 0.3412044644355774 1.0
vt 0.3412044644355774 0.7999999821186066
vt 0.257601261138916 1.0
vt 0.257601261138916 0.7999999821186066
vt 0.17399805784225464 1.0
vt 0.17399805784225464 0.7999999821186066
vt 0.09039486199617386 1.0
vt 0.09039486199617386 0.7999999821186066
vt 0.006791661959141493 1.0
vt 0.006791661959141493 0.7999999821186066
vt 0.09039486199617386 0.5999999642372131
vt 0.006791661959141493 0.5999999642372131
vt 0.17399805784225464 0.5999999642372131
vt 0.257601261138916 0.5999999642372131
vt 0.3412044644355774 0.5999999642372131
vt 0.42480766773223877 0.5999999642372131
vt 0.5084108710289001 0.5999999642372131
vt 0.5920140743255615 0.5999999642372131
vt 0.6756172776222229 0.5999999642372131
vt 0.759220540523529 0.5999999642372131
vt 0.8428237438201904 0.5999999642372131
vt 0.9264269471168518 0.5999999642372131
vt 1.0100301504135132 0.5999999642372131
vt 1.0936334133148193 0.5999999642372131
vt 1.177236557006836 0.5999999642372131
vt 1.260839819908142 0.5999999642372131
vt 1.3444429636001587 0.5999999642372131
vt 1.4280465841293335 0.5999999642372131
vt 1.51164972782135 0.3999999165534973
vt 1.4280465841293335 0.3999999165534973
vt 1.0936334133148193 0.3999999165534973
vt 1.177236557006836 0.3999999165534973
vt 1.260839819908142 0.3999999165534973
vt 1.3444429636001587 0.3999999165534973
vt 1.51164972782135 0.19999992847442627
vt 1.4280465841293335 0.19999992847442627
vt 1.5952529907226562 0.19999992847442627
vt 1.6788561344146729 0.19999992847442627
vt 1.762459397315979 0.19999992847442627
vt 1.762459397315979 0.3999999165534973
vt 1.8460625410079956 0.3999999165534973
vt 1.9296658039093018 0.3999999165534973
vt 2.0132691860198975 0.3999999165534973
vt 1.8460625410079956 0.19999992847442627
vt 1.9296658039093018 0.19999992847442627
vt 2.0132691860198975 0.19999992847442627
vt 1.6788561344146729 0.0
vt 1.762459397315979 0.0
vt 1.8460625410079956 0.0
vt 1.9296658039093018 0.0
vt 2.0132691860198975 0.0
vt 1.5952529907226562 0.0
vt 1.51164972782135 0.0
vt 1.4280465841293335 0.0
vt 1.3444429636001587 0.19999992847442627
vt 1.260839819908142 0.19999992847442627
vt 1.177236557006836 0.19999992847442627
vt 1.0936334133148193 0.19999992847442627
vt 1.0100301504135132 0.3999999165534973
vt 0.9264269471168518 0.3999999165534973
vt 0.8428237438201904 0.3999999165534973
vt 0.759220540523529 0.3999999165534973
vt 0.6756172776222229 0.3999999165534973
vt 0.5920141339302063 0.3999999165534973
vt 0.5084108710289001 0.3999999165534973
vt 0.42480766773223877 0.3999999165534973
vt 0.3412044644355774 0.3999999165534973
vt 0.257601261138916 0.3999999165534973
vt 0.17399805784225464 0.3999999165534973
vt 0.09039486199617386 0.3999999165534973
vt 0.006791661959141493 0.3999999165534973
vt 0.09039486199617386 0.19999992847442627
vt 0.006791661959141493 0.19999992847442627
vt 0.17399805784225464 0.19999992847442627
vt 0.2576013207435608 0.19999992847442627
vt 0.3412044644355774 0.19999992847442627
vt 0.42480766773223877 0.19999992847442627
vt 0.5084108710289001 0.19999992847442627
vt 0.5920141339302063 0.19999992847442627
vt 0.6756172776222229 0.19999992847442627
vt 0.7592206001281738 0.19999992847442627
vt 0.8428237438201904 0.19999992847442627
vt 0.9264269471168518 0.19999992847442627
vt 1.0100301504135132 0.19999992847442627
vt 0.5920141339302063 0.0
vt 0.5084108710289001 0.0
vt 0.6756172776222229 0.0
vt 0.759220540523529 0.0
vt 0.8428237438201904 0.0
vt 0.9264269471168518 0.0
vt 1.0100301504135132 0.0
vt 1.0936334133148193 0.0
vt 1.177236557006836 0.0
vt 1.260839819908142 0.0
vt 1.3444429636001587 0.0
vt 0.42480766773223877 0.0
vt 0.34120452404022217 0.0
vt 0.257601261138916 0.0
vt 0.17399805784225464 0.0
vt 0.09039486199617386 0.0
vt 0.006791661959141493 0.0

g Cone002
s 1
usemtl Cone002
f 3/3/3 2/2/2 1/1/1 
f 4/4/4 3/3/3 1/1/1 
f 5/5/5 3/3/3 4/4/4 
f 6/6/6 5/5/5 4/4/4 
f 7/7/7 5/5/5 6/6/6 
f 8/8/8 7/7/7 6/6/6 
f 9/9/9 7/7/7 8/8/8 
f 10/10/10 9/9/9 8/8/8 
f 11/11/11 9/9/9 10/10/10 
f 12/12/12 11/11/11 10/10/10 
f 13/13/13 11/11/11 12/12/12 
f 14/14/14 13/13/13 12/12/12 
f 15/15/15 13/13/13 14/14/14 
f 16/16/16 15/15/15 14/14/14 
f 1/1/1 2/2/2 17/17/17 
f 5/5/5 18/18/18 3/3/3 
f 19/19/19 18/18/18 5/5/5 
f 7/7/7 19/19/19 5/5/5 
f 20/20/20 19/19/19 7/7/7 
f 9/9/9 20/20/20 7/7/7 
f 21/21/21 20/20/20 9/9/9 
f 11/11/11 21/21/21 9/9/9 
f 22/22/22 21/21/21 11/11/11 
f 13/13/13 22/22/22 11/11/11 
f 23/23/23 22/22/22 13/13/13 
f 15/15/15 23/23/23 13/13/13 
f 19/19/19 24/24/24 18/18/18 
f 24/24/24 25/25/25 18/18/18 
f 18/18/18 25/25/25 26/26/26 
f 18/18/18 26/26/26 3/3/3 
f 3/3/3 26/26/26 2/2/2 
f 2/2/2 27/27/27 17/17/17 
f 17/17/17 27/27/27 28/28/28 
f 27/27/27 29/29/29 28/28/28 
f 28/28/28 29/29/29 30/30/30 
f 29/29/29 31/31/31 30/30/30 
f 30/30/30 31/31/31 32/32/32 
f 31/31/31 33/33/33 32/32/32 
f 32/32/32 33/33/33 34/34/34 
f 33/33/33 35/35/35 34/34/34 
f 34/34/34 35/35/35 36/36/36 
f 35/35/35 37/37/37 36/36/36 
f 36/36/36 37/37/37 38/38/38 
f 37/37/37 39/39/39 38/38/38 
f 38/38/38 39/39/39 40/40/40 
f 39/39/39 41/41/41 40/40/40 
f 40/40/40 41/41/41 42/42/42 
f 41/41/41 43/43/43 42/42/42 
f 42/42/42 43/43/43 44/44/44 
f 43/43/43 45/45/45 44/44/44 
f 44/44/44 45/45/45 46/46/46 
f 45/45/45 47/47/47 46/46/46 
f 46/46/46 47/47/47 48/48/48 
f 47/47/47 49/49/49 48/48/48 
f 48/48/48 49/49/49 50/50/50 
f 49/49/49 51/51/51 50/50/50 
f 50/50/50 51/51/51 52/52/52 
f 51/51/51 53/53/53 52/52/52 
f 52/52/52 53/53/53 54/54/54 
f 53/53/53 55/55/55 54/54/54 
f 54/54/54 55/55/55 56/56/56 
f 55/55/55 57/57/57 56/56/56 
f 56/56/56 57/57/57 58/58/58 
f 57/57/57 59/59/59 58/58/58 
f 57/57/57 60/60/60 59/59/59 
f 60/60/60 61/61/61 59/59/59 
f 62/62/62 60/60/60 57/57/57 
f 55/55/55 62/62/62 57/57/57 
f 63/63/63 62/62/62 55/55/55 
f 53/53/53 63/63/63 55/55/55 
f 64/64/64 63/63/63 53/53/53 
f 51/51/51 64/64/64 53/53/53 
f 65/65/65 64/64/64 51/51/51 
f 49/49/49 65/65/65 51/51/51 
f 66/66/66 65/65/65 49/49/49 
f 47/47/47 66/66/66 49/49/49 
f 67/67/67 66/66/66 47/47/47 
f 45/45/45 67/67/67 47/47/47 
f 68/68/68 67/67/67 45/45/45 
f 43/43/43 68/68/68 45/45/45 
f 69/69/69 68/68/68 43/43/43 
f 41/41/41 69/69/69 43/43/43 
f 70/70/70 69/69/69 41/41/41 
f 39/39/39 70/70/70 41/41/41 
f 71/71/71 70/70/70 39/39/39 
f 37/37/37 71/71/71 39/39/39 
f 72/72/72 71/71/71 37/37/37 
f 35/35/35 72/72/72 37/37/37 
f 73/73/73 72/72/72 35/35/35 
f 33/33/33 73/73/73 35/35/35 
f 74/74/74 73/73/73 33/33/33 
f 31/31/31 74/74/74 33/33/33 
f 75/75/75 74/74/74 31/31/31 
f 29/29/29 75/75/75 31/31/31 
f 76/76/76 75/75/75 29/29/29 
f 27/27/27 76/76/76 29/29/29 
f 77/77/77 76/76/76 27/27/27 
f 2/2/2 77/77/77 27/27/27 
f 26/26/26 77/77/77 2/2/2 
f 26/26/26 78/78/78 77/77/77 
f 78/78/78 79/79/79 77/77/77 
f 77/77/77 79/79/79 76/76/76 
f 25/25/25 78/78/78 26/26/26 
f 73/73/73 80/80/80 72/72/72 
f 81/81/81 80/80/80 73/73/73 
f 74/74/74 81/81/81 73/73/73 
f 82/82/82 81/81/81 74/74/74 
f 75/75/75 82/82/82 74/74/74 
f 83/83/83 82/82/82 75/75/75 
f 76/76/76 83/83/83 75/75/75 
f 79/79/79 83/83/83 76/76/76 
f 78/78/78 84/84/84 79/79/79 
f 84/84/84 85/85/85 79/79/79 
f 79/79/79 85/85/85 83/83/83 
f 86/86/86 84/84/84 78/78/78 
f 25/25/25 86/86/86 78/78/78 
f 87/87/87 86/86/86 25/25/25 
f 24/24/24 87/87/87 25/25/25 
f 88/88/88 87/87/87 24/24/24 
f 89/89/89 88/88/88 24/24/24 
f 89/89/89 24/24/24 19/19/19 
f 20/20/20 89/89/89 19/19/19 
f 90/90/90 89/89/89 20/20/20 
f 21/21/21 90/90/90 20/20/20 
f 91/91/91 90/90/90 21/21/21 
f 22/22/22 91/91/91 21/21/21 
f 92/92/92 91/91/91 22/22/22 
f 23/23/23 92/92/92 22/22/22 
f 93/93/93 88/88/88 89/89/89 
f 90/90/90 93/93/93 89/89/89 
f 94/94/94 93/93/93 90/90/90 
f 91/91/91 94/94/94 90/90/90 
f 95/95/95 94/94/94 91/91/91 
f 92/92/92 95/95/95 91/91/91 
f 87/87/87 96/96/96 86/86/86 
f 97/97/97 96/96/96 87/87/87 
f 88/88/88 97/97/97 87/87/87 
f 98/98/98 97/97/97 88/88/88 
f 93/93/93 98/98/98 88/88/88 
f 99/99/99 98/98/98 93/93/93 
f 94/94/94 99/99/99 93/93/93 
f 100/100/100 99/99/99 94/94/94 
f 95/95/95 100/100/100 94/94/94 
f 96/96/96 101/101/101 86/86/86 
f 86/86/86 101/101/101 84/84/84 
f 101/101/101 102/102/102 84/84/84 
f 84/84/84 102/102/102 85/85/85 
f 102/102/102 103/103/103 85/85/85 
f 85/85/85 103/103/103 104/104/104 
f 85/85/85 104/104/104 83/83/83 
f 83/83/83 104/104/104 82/82/82 
f 104/104/104 105/105/105 82/82/82 
f 82/82/82 105/105/105 81/81/81 
f 105/105/105 106/106/106 81/81/81 
f 81/81/81 106/106/106 80/80/80 
f 106/106/106 107/107/107 80/80/80 
f 80/80/80 107/107/107 108/108/108 
f 80/80/80 108/108/108 72/72/72 
f 72/72/72 108/108/108 71/71/71 
f 108/108/108 109/109/109 71/71/71 
f 71/71/71 109/109/109 70/70/70 
f 109/109/109 110/110/110 70/70/70 
f 70/70/70 110/110/110 69/69/69 
f 110/110/110 111/111/111 69/69/69 
f 69/69/69 111/111/111 68/68/68 
f 111/111/111 112/112/112 68/68/68 
f 68/68/68 112/112/112 67/67/67 
f 112/112/112 113/113/113 67/67/67 
f 67/67/67 113/113/113 66/66/66 
f 113/113/113 114/114/114 66/66/66 
f 66/66/66 114/114/114 65/65/65 
f 114/114/114 115/115/115 65/65/65 
f 65/65/65 115/115/115 64/64/64 
f 115/115/115 116/116/116 64/64/64 
f 64/64/64 116/116/116 63/63/63 
f 116/116/116 117/117/117 63/63/63 
f 63/63/63 117/117/117 62/62/62 
f 117/117/117 118/118/118 62/62/62 
f 62/62/62 118/118/118 60/60/60 
f 118/118/118 119/119/119 60/60/60 
f 60/60/60 119/119/119 61/61/61 
f 119/119/119 120/120/120 61/61/61 
f 119/119/119 121/121/121 120/120/120 
f 121/121/121 122/122/122 120/120/120 
f 123/123/123 121/121/121 119/119/119 
f 118/118/118 123/123/123 119/119/119 
f 124/124/124 123/123/123 118/118/118 
f 117/117/117 124/124/124 118/118/118 
f 125/125/125 124/124/124 117/117/117 
f 116/116/116 125/125/125 117/117/117 
f 126/126/126 125/125/125 116/116/116 
f 115/115/115 126/126/126 116/116/116 
f 127/127/127 126/126/126 115/115/115 
f 114/114/114 127/127/127 115/115/115 
f 128/128/128 127/127/127 114/114/114 
f 113/113/113 128/128/128 114/114/114 
f 129/129/129 128/128/128 113/113/113 
f 112/112/112 129/129/129 113/113/113 
f 130/130/130 129/129/129 112/112/112 
f 111/111/111 130/130/130 112/112/112 
f 131/131/131 130/130/130 111/111/111 
f 110/110/110 131/131/131 111/111/111 
f 132/132/132 131/131/131 110/110/110 
f 109/109/109 132/132/132 110/110/110 
f 133/133/133 132/132/132 109/109/109 
f 108/108/108 133/133/133 109/109/109 
f 107/107/107 133/133/133 108/108/108 
f 128/128/128 134/134/134 127/127/127 
f 134/134/134 135/135/135 127/127/127 
f 136/136/136 134/134/134 128/128/128 
f 129/129/129 136/136/136 128/128/128 
f 137/137/137 136/136/136 129/129/129 
f 130/130/130 137/137/137 129/129/129 
f 138/138/138 137/137/137 130/130/130 
f 131/131/131 138/138/138 130/130/130 
f 139/139/139 138/138/138 131/131/131 
f 132/132/132 139/139/139 131/131/131 
f 140/140/140 139/139/139 132/132/132 
f 133/133/133 140/140/140 132/132/132 
f 141/141/141 140/140/140 133/133/133 
f 107/107/107 141/141/141 133/133/133 
f 142/142/142 141/141/141 107/107/107 
f 106/106/106 142/142/142 107/107/107 
f 143/143/143 142/142/142 106/106/106 
f 105/105/105 143/143/143 106/106/106 
f 144/144/144 143/143/143 105/105/105 
f 104/104/104 144/144/144 105/105/105 
f 103/103/103 144/144/144 104/104/104 
f 135/135/135 145/145/145 126/126/126 
f 126/126/126 145/145/145 125/125/125 
f 145/145/145 146/146/146 125/125/125 
f 125/125/125 146/146/146 124/124/124 
f 146/146/146 147/147/147 124/124/124 
f 124/124/124 147/147/147 123/123/123 
f 147/147/147 148/148/148 123/123/123 
f 123/123/123 148/148/148 121/121/121 
f 148/148/148 149/149/149 121/121/121 
f 121/121/121 149/149/149 122/122/122 
f 149/149/149 150/150/150 122/122/122 
f 127/127/127 135/135/135 126/126/126 

