v -2.936471700668335 3.4710280895233154 -0.15681353211402893
v -2.8149983882904053 3.4710283279418945 0.6880484223365784
v -2.4748003482818604 3.283985137939453 0.6286764144897461
v -2.581911325454712 3.283982753753662 -0.11629453301429749
v -2.164513111114502 3.0978147983551025 0.5764732360839844
v -2.2585244178771973 3.0978143215179443 -0.07738872617483139
v -1.8948979377746582 2.913397789001465 0.5343863368034363
v -1.9775269031524658 2.913398504257202 -0.040309544652700424
v -1.675367832183838 2.7316112518310547 0.5049967169761658
v -1.7487292289733887 2.7316102981567383 -0.005239733029156923
v -1.5142210721969604 2.553326368331909 0.49059009552001953
v -1.580778956413269 2.5533275604248047 0.027670836076140404
v -1.41889226436615 2.379427194595337 0.4932340979576111
v -1.4814257621765137 2.3794264793395996 0.05830593779683113
v -1.3962165117263794 2.2107832431793213 0.5148539543151855
v -1.4577926397323608 2.210782766342163 0.08658387511968613
v -1.3553656339645386 2.045559883117676 0.5291528105735779
v -1.4152168035507202 2.0455591678619385 0.11287786066532135
v -1.2278944253921509 1.87863028049469 0.5168277025222778
v -1.2823647260665894 1.8786287307739258 0.13798131048679352
v -1.0516209602355957 1.7059400081634521 0.4894455075263977
v -1.0986493825912476 1.7059415578842163 0.1623578518629074
v -0.8616653084754944 1.523442268371582 0.4576166272163391
v -0.90067458152771 1.5234407186508179 0.18630485236644745
v -0.6906507611274719 1.3270783424377441 0.4310212731361389
v -0.722439706325531 1.3270783424377441 0.20992407202720642
v -0.5687182545661926 1.112799882888794 0.4183705747127533
v -0.5953592658042908 1.1127991676330566 0.23307622969150543
v -0.523581326007843 0.8765515089035034 0.4273627698421478
v -0.548317015171051 0.8765519261360168 0.25532159209251404
v -0.5076260566711426 0.6394788026809692 0.4414205253124237
v -0.5316885709762573 0.6394791603088379 0.274064302444458
v -0.4688020944595337 0.4211014211177826 0.4440029263496399
v -0.49122515320777893 0.4211002588272095 0.2880465090274811
v -0.4254729449748993 0.2149343639612198 0.44150057435035706
v -0.44606685638427734 0.21493475139141083 0.29826685786247253
v -0.3952556252479553 0.014492721296846867 0.43970921635627747
v -0.4145738184452057 0.014492527581751347 0.3053480088710785
v -0.3955790400505066 -0.18670876324176788 0.44400379061698914
v -0.41491177678108215 -0.1867089569568634 0.30954721570014954
v -0.444159597158432 -0.3951586186885834 0.45946234464645386
v -0.46554261445999146 -0.3951578438282013 0.31074145436286926
v -0.55962735414505 -0.6173396110534668 0.4910074770450592
v -0.5858842730522156 -0.6173394322395325 0.3083823621273041
v -0.6711883544921875 -0.8551985621452332 0.5169700980186462
v -0.7021556496620178 -0.8551985621452332 0.30158764123916626
v -0.7115986943244934 -1.1005388498306274 0.5170699954032898
v -0.7442728877067566 -1.100539207458496 0.28982141613960266
v -0.7050012350082397 -1.3446329832077026 0.4984942376613617
v -0.7373959422111511 -1.3446329832077026 0.27318331599235535
v -0.6750361919403076 -1.5787509679794312 0.4689877927303314
v -0.7061665058135986 -1.5787514448165894 0.2524752616882324
v -0.6462334990501404 -1.7941668033599854 0.4372621178627014
v -0.6761469841003418 -1.7941664457321167 0.2292070835828781
v -0.6451085805892944 -1.9821499586105347 0.413249671459198
v -0.674974799156189 -1.9821499586105347 0.20552517473697662
v -0.7004009485244751 -2.133972406387329 0.40801647305488586
v -0.732602059841156 -2.133972644805908 0.18405616283416748
v -0.8098479509353638 -2.263310670852661 0.4201849102973938
v -0.8466689586639404 -2.263310670852661 0.16408847272396088
v -0.9495299458503723 -2.389956474304199 0.44013044238090515
v -0.9922480583190918 -2.3899567127227783 0.14301934838294983
v -1.1167711019515991 -2.5143582820892334 0.46706071496009827
v -1.166549801826477 -2.5143585205078125 0.12084338814020157
v -1.3087234497070312 -2.636965751647949 0.5001135468482971
v -1.366605281829834 -2.636965751647949 0.09753403812646866
v -1.522344708442688 -2.7582268714904785 0.5383489727973938
v -1.5892455577850342 -2.7582268714904785 0.07304440438747406
v -1.7543785572052002 -2.878591299057007 0.5807424187660217
v -1.8310751914978027 -2.878591537475586 0.04730658605694771
v -2.0013270378112793 -2.998506546020508 0.6261788606643677
v -2.088449001312256 -2.998506546020508 0.020232416689395905
v -0.702367901802063 -2.263310670852661 0.6555337905883789
v -0.8248361945152283 -2.389956474304199 0.7131713032722473
v -0.9714686870574951 -2.5143582820892334 0.7852290272712708
v -1.139765977859497 -2.636965751647949 0.8700782060623169
v -1.327062726020813 -2.7582268714904785 0.9659569263458252
v -1.5305026769638062 -2.878591299057007 1.0709623098373413
v -1.747019648551941 -2.998506546020508 1.1830347776412964
v -0.6282700896263123 -2.389956474304199 0.9400212168693542
v -0.5329355597496033 -2.263310432434082 0.8510686755180359
v -0.6064090132713318 -2.133972406387329 0.6138325333595276
v -0.5579298138618469 -1.9821499586105347 0.6041458249092102
v -0.5589151978492737 -1.7941664457321167 0.6284618377685547
v -0.5841694474220276 -1.5787513256072998 0.6679595112800598
v -0.6104413270950317 -1.344632863998413 0.7055515050888062
v -0.6162264347076416 -1.100538969039917 0.7259078025817871
v -0.5807952880859375 -0.8551987409591675 0.7149034738540649
v -0.4829820394515991 -0.6173392534255981 0.6588373184204102
v -0.381743460893631 -0.39515843987464905 0.596134603023529
v -0.3391501307487488 -0.18670934438705444 0.5675671100616455
v -0.3388654589653015 0.014493302442133427 0.5631850957870483
v -0.36535918712615967 0.21493494510650635 0.5731302499771118
v -0.4033489227294922 0.42110180854797363 0.5873246788978577
v -0.43738967180252075 0.6394776105880737 0.5952184796333313
v -0.4513775706291199 0.8765515089035034 0.5854660868644714
v -0.49095287919044495 1.1127991676330566 0.5886533856391907
v -0.5978589653968811 1.3270798921585083 0.634206235408783
v -0.7477993965148926 1.5234429836273193 0.7069480419158936
v -0.9143460392951965 1.705940842628479 0.7900341749191284
v -1.0688977241516113 1.8786290884017944 0.8649817109107971
v -1.1806598901748657 2.0455596446990967 0.9117036461830139
v -1.2164767980575562 2.2107837200164795 0.9084275960922241
v -1.2363581657409668 2.3794260025024414 0.8929266929626465
v -1.3199396133422852 2.5533266067504883 0.9160059690475464
v -1.4612284898757935 2.731609582901001 0.9738962650299072
v -1.6537052392959595 2.913398027420044 1.062523365020752
v -1.8900954723358154 3.0978147983551025 1.1773631572723389
v -2.1621456146240234 3.2839837074279785 1.3132933378219604
v -2.460420608520508 3.4710276126861572 1.4644644260406494
v -1.6692765951156616 3.2839837074279785 1.882094383239746
v -1.9014641046524048 3.471029281616211 2.10953426361084
v -1.4575034379959106 3.0978143215179443 1.676600694656372
v -1.2734893560409546 2.913397789001465 1.5013164281845093
v -1.1236587762832642 2.7316083908081055 1.363472580909729
v -1.0136750936508179 2.5533270835876465 1.2694541215896606
v -0.9486119747161865 2.379427194595337 1.225003719329834
v -0.9331363439559937 2.210782766342163 1.2354202270507812
v -0.9052549004554749 2.045557737350464 1.2295382022857666
v -0.8182555437088013 1.878629446029663 1.1542383432388306
v -0.6979462504386902 1.7059400081634521 1.0397721529006958
v -0.5683010816574097 1.5234419107437134 0.9141002893447876
v -0.4515826106071472 1.327077865600586 0.8030183911323547
v -0.3683628737926483 1.1128002405166626 0.7301298379898071
v -0.3375564217567444 0.8765522837638855 0.7168230414390564
v -0.32666677236557007 0.6394791603088379 0.7229987382888794
v -0.3001687824726105 0.42110180854797363 0.7064005136489868
v -0.27059656381607056 0.21493475139141083 0.6824920773506165
v -0.24997340142726898 0.014492527581751347 0.6657726764678955
v -0.2501949071884155 -0.18670934438705444 0.670227587223053
v -0.2833506166934967 -0.3951578438282013 0.709686279296875
v -0.3621585965156555 -0.6173400282859802 0.7982755303382874
v -0.4382995069026947 -0.8551985621452332 0.8793526887893677
v -0.4658801853656769 -1.1005388498306274 0.8994163870811462
v -0.46137678623199463 -1.344632625579834 0.8775809407234192
v -0.4409255087375641 -1.5787514448165894 0.8332712054252625
v -0.4212677776813507 -1.7941666841506958 0.787316083908081
v -0.42049941420555115 -1.9821494817733765 0.7627483606338501
v -0.45823705196380615 -2.133971929550171 0.7848313450813293
v -0.2727402150630951 -1.1005383729934692 1.023539423942566
v -0.25524479150772095 -0.8551979660987854 0.9969949722290039
v -0.2698836326599121 -1.3446329832077026 1.000645637512207
v -0.2569107711315155 -1.5787508487701416 0.9515301585197449
v -0.24444040656089783 -1.7941664457321167 0.9009559750556946
v -0.24395303428173065 -1.9821494817733765 0.8762076497077942
v -0.2678930461406708 -2.133972406387329 0.9071578979492188
v -0.31527891755104065 -2.263310194015503 0.9909487366676331
v -0.37575390934944153 -2.38995623588562 1.102303385734558
v -0.4481613039970398 -2.5143580436706543 1.238677740097046
v -0.7424125075340271 -2.5143580436706543 1.0495736598968506
v -0.8734211921691895 -2.63696551322937 1.177456259727478
v -1.019219994544983 -2.7582266330718994 1.3212268352508545
v -1.1775842905044556 -2.8785908222198486 1.4782521724700928
v -1.3461284637451172 -2.9985060691833496 1.6456879377365112
v -0.5312678813934326 -2.63696551322937 1.3973454236984253
v -0.6237554550170898 -2.7582266330718994 1.5753767490386963
v -0.7242146134376526 -2.8785908222198486 1.7696151733398438
v -0.8311324715614319 -2.9985060691833496 1.9766558408737183
v -0.1410234570503235 -2.63696551322937 1.511931300163269
v -0.17270854115486145 -2.7582263946533203 1.7078158855438232
v -0.20712408423423767 -2.8785908222198486 1.9214460849761963
v -0.24375227093696594 -2.9985060691833496 2.1491260528564453
v 0.2973802089691162 -2.7582266330718994 1.7078155279159546
v 0.26569628715515137 -2.63696551322937 1.511932134628296
v -0.11255194991827011 -2.5143580436706543 1.3372219800949097
v -0.08774629235267639 -2.389956474304199 1.1868704557418823
v -0.06702855974435806 -2.263310194015503 1.0638413429260254
v -0.05079486221075058 -2.133972406387329 0.9709039926528931
v -0.04259342700242996 -1.9821491241455078 0.9353321194648743
v -0.04276086017489433 -1.7941664457321167 0.9601742029190063
v -0.04703249782323837 -1.5787513256072998 1.0131564140319824
v -0.051477186381816864 -1.344632625579834 1.0647759437561035
v -0.052456002682447433 -1.1005388498306274 1.0882207155227661
v -0.04646198824048042 -0.8551983833312988 1.0582984685897827
v -0.20694443583488464 -0.6173394322395325 0.8980250954627991
v -0.1569521427154541 -0.395158052444458 0.7909177541732788
v -0.1359195113182068 -0.18670934438705444 0.7436679005622864
v -0.1357792168855667 0.014493302442133427 0.73916095495224
v -0.14886116981506348 0.21493513882160187 0.7607264518737793
v -0.1676206737756729 0.4211014211177826 0.7915839552879333
v -0.18443012237548828 0.6394783854484558 0.8144084215164185
v -0.19133822619915009 0.8765527009963989 0.8107919692993164
v -0.21088063716888428 1.112799882888794 0.8313373327255249
v -0.2636702358722687 1.327080249786377 0.92378169298172
v -0.33771204948425293 1.5234438180923462 1.0622907876968384
v -0.41995352506637573 1.7059415578842163 1.2184277772903442
v -0.49627193808555603 1.878629446029663 1.3611644506454468
v -0.5514609813690186 2.045557975769043 1.4569075107574463
v -0.5691473484039307 2.2107839584350586 1.46934175491333
v -0.5789649486541748 2.3794264793395996 1.4625612497329712
v -0.620237410068512 2.553328514099121 1.5223010778427124
v -0.69000643491745 2.7316102981567383 1.6421632766723633
v -0.7850527763366699 2.9133965969085693 1.8152153491973877
v -0.9017830491065979 3.097815990447998 2.033740282058716
v -1.0361226797103882 3.2839837074279785 2.2889974117279053
v -1.1834125518798828 3.4710288047790527 2.570997476577759
v -0.3139782249927521 3.283984422683716 2.501037836074829
v -0.3644373416900635 3.4710288047790527 2.8114700317382812
v -0.26795583963394165 3.0978143215179443 2.219848871231079
v -0.22796525061130524 2.913397789001465 1.9787904024124146
v -0.19540444016456604 2.7316088676452637 1.7873913049697876
v -0.17150260508060455 2.5533275604248047 1.6540610790252686
v -0.15736238658428192 2.3794264793395996 1.58635413646698
v -0.15399961173534393 2.2107837200164795 1.591239333152771
v -0.1479404866695404 2.0455591678619385 1.5753916501998901
v -0.12903408706188202 1.878629446029663 1.468995451927185
v -0.10288858413696289 1.7059403657913208 1.3115261793136597
v -0.07471375167369843 1.5234419107437134 1.1395137310028076
v -0.049348052591085434 1.32707941532135 0.9867119789123535
v -0.03126310929656029 1.1127995252609253 0.8840774297714233
v -0.024567976593971252 0.8765511512756348 0.8597596287727356
v -0.022201647982001305 0.6394780278205872 0.8620428442955017
v -0.01644289121031761 0.4211014211177826 0.8359733819961548
v -0.010015957988798618 0.21493417024612427 0.8014950156211853
v -0.005534642841666937 0.014493302442133427 0.7774041891098022
v -0.005582120269536972 -0.1867089569568634 0.7819381952285767
v -0.01278788223862648 -0.39515766501426697 0.8332478404045105
v -0.029914744198322296 -0.6173394322395325 0.9500057697296143
v 0.1411166787147522 0.4211006462574005 0.8359733819961548
v 0.1468760073184967 0.6394783854484558 0.8620429039001465
v 0.13468974828720093 0.21493475139141083 0.8014947772026062
v 0.13020804524421692 0.014492915011942387 0.7774039506912231
v 0.1302572637796402 -0.18670856952667236 0.7819381952285767
v 0.13746224343776703 -0.395158052444458 0.8332479596138
v 0.1545877456665039 -0.6173392534255981 0.9500054717063904
v 0.17113518714904785 -0.8551982045173645 1.0582988262176514
v 0.17712901532649994 -1.1005395650863647 1.0882207155227661
v 0.17615000903606415 -1.3446329832077026 1.0647757053375244
v 0.17170627415180206 -1.5787513256072998 1.0131560564041138
v 0.1674344539642334 -1.7941662073135376 0.9601746201515198
v 0.1672666221857071 -1.9821494817733765 0.9353319406509399
v 0.17546729743480682 -2.13397216796875 0.970903217792511
v 0.19170138239860535 -2.263310194015503 1.0638412237167358
v 0.21241949498653412 -2.389956474304199 1.1868702173233032
v 0.23722591996192932 -2.5143580436706543 1.3372217416763306
v 0.3691138029098511 -1.7941664457321167 0.9009557366371155
v 0.3815843462944031 -1.5787508487701416 0.9515304565429688
v 0.36862680315971375 -1.9821494817733765 0.8762074708938599
v 0.3925662338733673 -2.133972406387329 0.9071580767631531
v 0.439950555562973 -2.263310432434082 0.9909487962722778
v 0.5004268884658813 -2.38995623588562 1.1023036241531372
v 0.572834312915802 -2.5143580436706543 1.238677978515625
v 0.6559407711029053 -2.63696551322937 1.3973454236984253
v 0.7484277486801147 -2.7582266330718994 1.5753763914108276
v 0.8488879203796387 -2.8785908222198486 1.769614815711975
v 0.33179765939712524 -2.8785908222198486 1.921446442604065
v 0.36842527985572815 -2.9985060691833496 2.1491265296936035
v 0.9558042287826538 -2.9985060691833496 1.9766558408737183
v 0.5829108357429504 -2.133972644805908 0.7848309874534607
v 0.5451735854148865 -1.9821494817733765 0.7627484202384949
v 0.6576085090637207 -2.263310670852661 0.8510688543319702
v 0.7529429793357849 -2.389956474304199 0.9400215148925781
v 0.8670859932899475 -2.5143580436706543 1.0495737791061401
v 0.9980946779251099 -2.63696551322937 1.1774564981460571
v 1.1438934803009033 -2.7582266330718994 1.321226954460144
v 1.3022582530975342 -2.8785908222198486 1.4782519340515137
v 1.4708011150360107 -2.9985060691833496 1.645687460899353
v 0.9495092630386353 -2.389956474304199 0.7131714820861816
v 0.8270395994186401 -2.263310670852661 0.6555342674255371
v 1.09614098072052 -2.5143582820892334 0.7852300405502319
v 1.2644388675689697 -2.636965751647949 0.8700787425041199
v 1.4517356157302856 -2.7582268714904785 0.9659578204154968
v 1.6551750898361206 -2.878591299057007 1.0709624290466309
v 1.871692180633545 -2.998506546020508 1.183035135269165
v 1.0742048025131226 -2.389956474304199 0.4401307702064514
v 0.93451988697052 -2.263310670852661 0.4201851487159729
v 0.7310815453529358 -2.133972644805908 0.6138330101966858
v 0.6826023459434509 -1.9821499586105347 0.6041461825370789
v 0.5459405779838562 -1.7941664457321167 0.7873162031173706
v 0.5655996799468994 -1.5787513256072998 0.8332712054252625
v 0.39455798268318176 -1.344632625579834 1.0006457567214966
v 0.3974142074584961 -1.1005388498306274 1.023539423942566
v 0.37991973757743835 -0.8551982045173645 0.9969945549964905
v 0.3316168785095215 -0.6173394322395325 0.8980252146720886
v 0.2816259264945984 -0.3951586186885834 0.7909175157546997
v 0.26059290766716003 -0.18670876324176788 0.7436676025390625
v 0.2604522109031677 0.014492721296846867 0.7391605973243713
v 0.2735345661640167 0.21493475139141083 0.7607261538505554
v 0.2922952473163605 0.4211014211177826 0.7915835380554199
v 0.30910390615463257 0.6394791603088379 0.8144082427024841
v 0.14924292266368866 0.8765522837638855 0.859759509563446
v 0.15593650937080383 1.1128002405166626 0.8840773105621338
v 0.17402222752571106 1.3270787000656128 0.9867120385169983
v 0.19938772916793823 1.5234414339065552 1.139513611793518
v 0.22756314277648926 1.7059415578842163 1.311525821685791
v 0.2537076771259308 1.8786287307739258 1.4689948558807373
v 0.27261483669281006 2.0455589294433594 1.5753909349441528
v 0.2786743640899658 2.210782766342163 1.5912394523620605
v 0.2820381224155426 2.3794264793395996 1.5863542556762695
v 0.29617756605148315 2.553327798843384 1.654061198234558
v 0.3200789988040924 2.731610059738159 1.7873908281326294
v 0.3526407778263092 2.913398027420044 1.978790283203125
v 0.3926301896572113 3.0978140830993652 2.219848155975342
v 0.43865296244621277 3.2839839458465576 2.50103759765625
v 0.4891124963760376 3.4710283279418945 2.811469554901123
v 1.1607975959777832 3.283982753753662 2.288996458053589
v 1.308086633682251 3.471029281616211 2.5709967613220215
v 1.026457667350769 3.0978147983551025 2.0337393283843994
v 0.9097275733947754 2.913398027420044 1.81521475315094
v 0.8146810531616211 2.731609582901001 1.642162561416626
v 0.7449120879173279 2.553326368331909 1.5223002433776855
v 0.7036393880844116 2.379427194595337 1.4625605344772339
v 0.6938214302062988 2.210782766342163 1.4693410396575928
v 0.6761356592178345 2.045558452606201 1.4569071531295776
v 0.6209467649459839 1.8786299228668213 1.3611639738082886
v 0.5446280837059021 1.7059412002563477 1.2184271812438965
v 0.4623863995075226 1.5234429836273193 1.0622899532318115
v 0.3883451819419861 1.3270790576934814 0.9237813949584961
v 0.33555305004119873 1.1127991676330566 0.831337034702301
v 0.31601083278656006 0.8765515089035034 0.8107914924621582
v 0.942928671836853 1.878629446029663 1.1542376279830933
v 1.0299288034439087 2.0455591678619385 1.2295373678207397
v 0.8226217031478882 1.705941915512085 1.0397716760635376
v 0.6929753422737122 1.5234419107437134 0.9140991568565369
v 0.5762565732002258 1.3270787000656128 0.8030177354812622
v 0.49303609132766724 1.112799882888794 0.730129063129425
v 0.4622296392917633 0.8765515089035034 0.716822624206543
v 0.45134037733078003 0.6394780278205872 0.7229980826377869
v 0.42484256625175476 0.42110180854797363 0.7064002156257629
v 0.395268976688385 0.2149345576763153 0.682491660118103
v 0.3746468126773834 0.014493302442133427 0.6657726764678955
v 0.37486907839775085 -0.18670915067195892 0.6702274680137634
v 0.40802401304244995 -0.3951586186885834 0.7096859812736511
v 0.4868314266204834 -0.6173390746116638 0.798275351524353
v 0.562972903251648 -0.8551985621452332 0.8793521523475647
v 0.5905541777610779 -1.1005388498306274 0.8994163274765015
v 0.5860497951507568 -1.3446322679519653 0.8775807023048401
v 0.4638243019580841 -0.18670876324176788 0.5675671100616455
v 0.46353864669799805 0.014493108727037907 0.5631850361824036
v 0.506417453289032 -0.3951578438282013 0.5961347222328186
v 0.6076557040214539 -0.6173390746116638 0.6588371992111206
v 0.7054687738418579 -0.8551983833312988 0.7149035334587097
v 0.740899920463562 -1.100538969039917 0.7259078025817871
v 0.7351142168045044 -1.3446332216262817 0.7055516242980957
v 0.7088422179222107 -1.5787514448165894 0.6679595708847046
v 0.683587908744812 -1.7941668033599854 0.6284617185592651
v 0.5202534198760986 -0.18670915067195892 0.44400352239608765
v 0.5199282169342041 0.014492721296846867 0.43970900774002075
v 0.4900321960449219 0.21493397653102875 0.5731299519538879
v 0.528022289276123 0.42110180854797363 0.5873243808746338
v 0.5620630979537964 0.6394788026809692 0.5952182412147522
v 0.5760517716407776 0.8765519261360168 0.5854655504226685
v 0.6156261563301086 1.1127986907958984 0.588653028011322
v 0.7225324511528015 1.32707941532135 0.6342056393623352
v 0.872472882270813 1.5234414339065552 0.706947386264801
v 1.0390205383300781 1.705940842628479 0.7900332808494568
v 1.1935722827911377 1.87863028049469 0.864980936050415
v 1.3053337335586548 2.045558452606201 0.911702573299408
v 1.0578092336654663 2.210782766342163 1.2354193925857544
v 1.0732858180999756 2.3794260025024414 1.225002408027649
v 1.1383492946624756 2.5533275604248047 1.2694534063339233
v 1.2483325004577637 2.731609582901001 1.3634707927703857
v 1.3981640338897705 2.913398504257202 1.5013148784637451
v 1.5821783542633057 3.0978150367736816 1.6765996217727661
v 1.793951153755188 3.2839839458465576 1.882093071937561
v 2.026139259338379 3.471029281616211 2.109532356262207
v 2.2868194580078125 3.2839837074279785 1.3132920265197754
v 2.585094690322876 3.4710283279418945 1.464462161064148
v 2.0147690773010254 3.0978150367736816 1.1773617267608643
v 1.7783795595169067 2.9133973121643066 1.062522292137146
v 1.5859025716781616 2.731610059738159 0.9738950133323669
v 1.4446132183074951 2.5533270835876465 0.9160048365592957
v 1.3610334396362305 2.3794264793395996 0.8929256200790405
v 1.3411505222320557 2.2107837200164795 0.9084264039993286
v 2.599473237991333 3.2839832305908203 0.6286739706993103
v 2.939671039581299 3.4710276126861572 0.6880457997322083
v 2.289186716079712 3.0978147983551025 0.5764713287353516
v 2.0195717811584473 2.913398504257202 0.5343846082687378
v 1.8000414371490479 2.7316091060638428 0.504994809627533
v 1.6388943195343018 2.5533270835876465 0.4905884563922882
v 1.5435664653778076 2.379427194595337 0.49323272705078125
v 1.5208895206451416 2.2107832431793213 0.5148524045944214
v 1.4800388813018799 2.0455589294433594 0.5291514992713928
v 1.3525683879852295 1.8786290884017944 0.516826331615448
v 1.1762950420379639 1.705940842628479 0.48944440484046936
v 0.9863392114639282 1.5234410762786865 0.45761552453041077
v 0.8153248429298401 1.3270790576934814 0.43102025985717773
v 0.6933919787406921 1.1128002405166626 0.4183698892593384
v 0.6482551693916321 0.8765522837638855 0.4273621737957001
v 0.6322996020317078 0.6394791603088379 0.4414199888706207
v 0.5934749245643616 0.42110180854797363 0.44400250911712646
v 0.5501453876495361 0.2149345576763153 0.44150006771087646
v 0.8471128344535828 1.3270787000656128 0.20992332696914673
v 1.0253468751907349 1.5234419107437134 0.1863040030002594
v 0.7200322151184082 1.1127991676330566 0.2330755889415741
v 0.6729905009269714 0.8765522837638855 0.25532108545303345
v 0.6563616991043091 0.6394783854484558 0.2740638256072998
v 0.6158978343009949 0.4211014211177826 0.2880461513996124
v 0.5707392692565918 0.2149345576763153 0.29826655983924866
v 0.5392462611198425 0.014492721296846867 0.3053478002548218
v 0.5395855903625488 -0.18670915067195892 0.3095470368862152
v 0.5902165770530701 -0.39515823125839233 0.3107413649559021
v 0.5688339471817017 -0.3951588273048401 0.4594622552394867
v 0.6843006610870361 -0.6173394322395325 0.4910074770450592
v 0.795862078666687 -0.8551987409591675 0.5169699192047119
v 0.836273193359375 -1.100539207458496 0.5170698165893555
v 0.8296747207641602 -1.344632863998413 0.4984942376613617
v 0.7997102737426758 -1.5787516832351685 0.46898770332336426
v 0.7709069848060608 -1.7941666841506958 0.4372623562812805
v 0.7697814702987671 -1.9821499586105347 0.413250207901001
v 0.8250746130943298 -2.1339728832244873 0.4080166518688202
v 0.868946373462677 -1.100539207458496 0.2898215353488922
v 0.8268295526504517 -0.8551985621452332 0.3015875816345215
v 0.8620696663856506 -1.344632863998413 0.27318352460861206
v 0.8308389782905579 -1.578751564025879 0.25247547030448914
v 0.8008199334144592 -1.7941668033599854 0.2292073518037796
v 0.799647867679596 -1.9821499586105347 0.20552553236484528
v 0.8572753667831421 -2.133972406387329 0.18405655026435852
v 0.9713416695594788 -2.263310670852661 0.1640888750553131
v 1.1169211864471436 -2.3899567127227783 0.14301979541778564
v 1.2912225723266602 -2.5143582820892334 0.12084387242794037
v 1.2414441108703613 -2.5143582820892334 0.4670610725879669
v 1.433396816253662 -2.636965751647949 0.5001139640808105
v 1.6470178365707397 -2.7582268714904785 0.5383492708206177
v 1.8790518045425415 -2.878591299057007 0.580742597579956
v 2.125999927520752 -2.998506546020508 0.626179039478302
v 1.491278886795044 -2.636965751647949 0.09753455221652985
v 1.7139184474945068 -2.7582268714904785 0.07304492592811584
v 1.955747127532959 -2.878591299057007 0.04730711504817009
v 2.2131221294403076 -2.998506546020508 0.020232945680618286
v 3.0611443519592285 3.4710280895233154 -0.15681566298007965
v 2.7065842151641846 3.2839832305908203 -0.11629648506641388
v 2.38319730758667 3.0978140830993652 -0.07739056646823883
v 2.102199077606201 2.9133973121643066 -0.04031120613217354
v 1.8734028339385986 2.7316107749938965 -0.005241259001195431
v 1.7054518461227417 2.5533275604248047 0.027669446542859077
v 1.606099009513855 2.3794267177581787 0.058304641395807266
v 1.582465648651123 2.210782527923584 0.08658269792795181
v 1.5398895740509033 2.0455589294433594 0.11287672072649002
v 1.4070374965667725 1.8786290884017944 0.13798031210899353
v 1.2233223915100098 1.7059403657913208 0.16235686838626862
v 0.7105575799942017 -0.6173394322395325 0.3083823025226593
vn -0.4715697467327118 -0.8792182207107544 0.06780324876308441
vn -0.4599754512310028 -0.8782075643539429 0.13104934990406036
vn -0.47387421131134033 -0.8694181442260742 0.1398402601480484
vn -0.4855867028236389 -0.8713959455490112 0.0698186382651329
vn -0.5140072703361511 -0.844293475151062 0.15154193341732025
vn -0.5257940292358398 -0.8472458124160767 0.075598806142807
vn -0.5745830535888672 -0.8007654547691345 0.16920113563537598
vn -0.5863522887229919 -0.8056573271751404 0.0843048021197319
vn -0.6632352471351624 -0.7225654125213623 0.19498282670974731
vn -0.6747767329216003 -0.731617271900177 0.09701849520206451
vn -0.7861686944961548 -0.5733620524406433 0.23063965141773224
vn -0.7979397177696228 -0.5917178392410278 0.11472655087709427
vn -0.9189974665641785 -0.2878076434135437 0.26946330070495605
vn -0.9366042613983154 -0.32347822189331055 0.13466379046440125
vn -0.9484006762504578 -0.1495838165283203 0.2795723080635071
vn -0.9764381051063538 -0.16388724744319916 0.1403912454843521
vn -0.8754608631134033 -0.4070234000682831 0.2605767250061035
vn -0.9061952829360962 -0.40228596329689026 0.13029244542121887
vn -0.7228055000305176 -0.6569005250930786 0.21455517411231995
vn -0.7453129291534424 -0.6580464839935303 0.10716134309768677
vn -0.6664093732833862 -0.7191076874732971 0.19693340361118317
vn -0.685174822807312 -0.7216859459877014 0.09851410984992981
vn -0.6911505460739136 -0.6934349536895752 0.20361445844173431
vn -0.7087567448616028 -0.6980538368225098 0.10190559923648834
vn -0.7804290056228638 -0.581633448600769 0.22941921651363373
vn -0.7985789775848389 -0.5908368229866028 0.11482001096010208
vn -0.9022732973098755 -0.34003061056137085 0.265107661485672
vn -0.9243841767311096 -0.3575608730316162 0.13290613889694214
vn -0.9535009860992432 -0.1096530333161354 0.280735045671463
vn -0.9822308421134949 -0.12360645830631256 0.1412232369184494
vn -0.9538548588752747 -0.105907142162323 0.28097060322761536
vn -0.9836059808731079 -0.11188921332359314 0.14142192900180817
vn -0.9431295990943909 -0.18258298933506012 0.2777949273586273
vn -0.9722409844398499 -0.18763484060764313 0.13978780806064606
vn -0.9447081685066223 -0.17369690537452698 0.27812913060188293
vn -0.9739554524421692 -0.17832927405834198 0.14003367722034454
vn -0.9569797515869141 -0.06967496871948242 0.28166505694389343
vn -0.9870947003364563 -0.07417197525501251 0.14192411303520203
vn -0.9518200159072876 0.12468704581260681 0.2801637053489685
vn -0.9825894832611084 0.12065830081701279 0.14127835631370544
vn -0.8939933776855469 0.36267051100730896 0.26314640045166016
vn -0.9235345125198364 0.35979416966438293 0.13278615474700928
vn -0.8551647663116455 0.45302072167396545 0.2519233822822571
vn -0.883385181427002 0.4511084258556366 0.12701110541820526
vn -0.9166969656944275 0.29416579008102417 0.2704315185546875
vn -0.9464288949966431 0.29284054040908813 0.1360761523246765
vn -0.9578119516372681 0.05413180589675903 0.28225165605545044
vn -0.9881699085235596 0.05774026736617088 0.14207887649536133
vn -0.9543485045433044 -0.10160412639379501 0.2808835208415985
vn -0.9855614304542542 -0.09267617017030716 0.14170359075069427
vn -0.9466888308525085 -0.1619206964969635 0.27849939465522766
vn -0.9789886474609375 -0.14754167199134827 0.14075800776481628
vn -0.9539495706558228 -0.10551931709051132 0.280795156955719
vn -0.9863400459289551 -0.08379732072353363 0.1418139934539795
vn -0.9492772221565247 0.1447177529335022 0.27915874123573303
vn -0.974472165107727 0.17542460560798645 0.14010794460773468
vn -0.832284688949585 0.4978518784046173 0.243815079331398
vn -0.8459434509277344 0.519216775894165 0.12162887305021286
vn -0.6885398626327515 0.6963098645210266 0.20264609158039093
vn -0.7027970552444458 0.7041774988174438 0.10104689002037048
vn -0.6057559847831726 0.7753880620002747 0.17841820418834686
vn -0.61908358335495 0.7802644968032837 0.08901040256023407
vn -0.5402981638908386 0.826267421245575 0.1592482626438141
vn -0.5529518127441406 0.8294116258621216 0.07950209081172943
vn -0.49019476771354675 0.859539806842804 0.14456963539123535
vn -0.5022847056388855 0.8616814017295837 0.07221729308366776
vn -0.45274287462234497 0.8815750479698181 0.13360130786895752
vn -0.4643566608428955 0.8831282258033752 0.06676417589187622
vn -0.4256446957588196 0.8961203694343567 0.12567777931690216
vn -0.43687382340431213 0.8973269462585449 0.06281287968158722
vn -0.4159609377384186 0.901599109172821 0.11872512102127075
vn -0.42682895064353943 0.9022477865219116 0.06136868894100189
vn -0.6162488460540771 0.6804496645927429 0.396516889333725
vn -0.5427776575088501 0.7637550830841064 0.3493857979774475
vn -0.4842938780784607 0.8174383044242859 0.3118559420108795
vn -0.43941619992256165 0.8525224924087524 0.2830527126789093
vn -0.40587136149406433 0.8757124543190002 0.2615267336368561
vn -0.3816535174846649 0.8909684419631958 0.24599970877170563
vn -0.3740381598472595 0.896671712398529 0.2368021160364151
vn -0.43025997281074524 0.7534918785095215 0.49711790680885315
vn -0.48796024918556213 0.6665058732032776 0.5636175274848938
vn -0.7416042685508728 0.4726552963256836 0.47604626417160034
vn -0.8357741832733154 0.11160217970609665 0.5376118421554565
vn -0.8332363963127136 -0.13517431914806366 0.536139190196991
vn -0.8263429999351501 -0.18611331284046173 0.5315251350402832
vn -0.8347688317298889 -0.12125436216592789 0.5370832085609436
vn -0.840152382850647 0.03943423554301262 0.5409148335456848
vn -0.8056590557098389 0.28552553057670593 0.5190267562866211
vn -0.7511736154556274 0.44932180643081665 0.4835784435272217
vn -0.7838164567947388 0.36227038502693176 0.5043728947639465
vn -0.8340169191360474 0.12807035446166992 0.5366692543029785
vn -0.8393072485923767 -0.062453437596559525 0.5400583148002625
vn -0.8296464085578918 -0.16315361857414246 0.5339173674583435
vn -0.8288261294364929 -0.16855967044830322 0.533511757850647
vn -0.837613582611084 -0.08779560029506683 0.539161741733551
vn -0.8376814126968384 -0.08754681050777435 0.5390967726707458
vn -0.797386884689331 -0.318371444940567 0.5126537084579468
vn -0.6937387585639954 -0.5654333233833313 0.44610726833343506
vn -0.6157694458961487 -0.6809415817260742 0.3964172303676605
vn -0.594399631023407 -0.7069492936134338 0.38329076766967773
vn -0.6450788974761963 -0.6403350234031677 0.41694626212120056
vn -0.7774305939674377 -0.37756413221359253 0.5030378103256226
vn -0.8358487486839294 -0.10874922573566437 0.5380803346633911
vn -0.8149402737617493 -0.2487807720899582 0.5234313607215881
vn -0.704422652721405 -0.5468510985374451 0.45248475670814514
vn -0.5958871245384216 -0.7057576179504395 0.38317736983299255
vn -0.5162503719329834 -0.7893573045730591 0.33226603269577026
vn -0.4615808427333832 -0.8358064889907837 0.2972719073295593
vn -0.4253588318824768 -0.8625240325927734 0.2740841209888458
vn -0.4139919579029083 -0.8718078136444092 0.2618430554866791
vn -0.33773452043533325 -0.8564091324806213 0.3905109763145447
vn -0.32951289415359497 -0.8661014437675476 0.3758851885795593
vn -0.36661744117736816 -0.8282703161239624 0.4237450957298279
vn -0.4101945161819458 -0.7792139649391174 0.4738839864730835
vn -0.47337546944618225 -0.6908233165740967 0.5465151071548462
vn -0.5580729842185974 -0.5235034823417664 0.6438156962394714
vn -0.6395930051803589 -0.21543866395950317 0.7379070520401001
vn -0.6526731252670288 -0.07441861927509308 0.7539759278297424
vn -0.6112208962440491 -0.35236379504203796 0.7086950540542603
vn -0.5095256567001343 -0.6258991956710815 0.5904523134231567
vn -0.4693334996700287 -0.6963590979576111 0.5429641008377075
vn -0.4857414662837982 -0.6700937747955322 0.5612749457359314
vn -0.5461485981941223 -0.5514614582061768 0.6305648684501648
vn -0.6245837807655334 -0.2999977469444275 0.7210385799407959
vn -0.6529287099838257 -0.06909073889255524 0.7542616128921509
vn -0.6527154445648193 -0.07270145416259766 0.7541067600250244
vn -0.6463358998298645 -0.15684188902378082 0.7467599511146545
vn -0.6466496586799622 -0.1543567031621933 0.7470061779022217
vn -0.6534866094589233 -0.056447308510541916 0.7548303604125977
vn -0.6488925814628601 0.13087621331214905 0.7495397925376892
vn -0.6101436614990234 0.36193519830703735 0.7047889828681946
vn -0.5856342911720276 0.4462321996688843 0.6766899824142456
vn -0.6283644437789917 0.2783128023147583 0.7264297604560852
vn -0.654143750667572 0.0272302757948637 0.7558798789978027
vn -0.6483637690544128 -0.13744902610778809 0.7488206028938293
vn -0.6406159996986389 -0.20594005286693573 0.7397295832633972
vn -0.6461690664291382 -0.15952818095684052 0.7463352084159851
vn -0.6522849202156067 0.08380410075187683 0.7533267736434937
vn -0.5848036408424377 0.4508216083049774 0.674362301826477
vn -0.41498854756355286 0.01850777491927147 0.9096384048461914
vn -0.3991435766220093 0.27313485741615295 0.8752609491348267
vn -0.41057780385017395 -0.1489543616771698 0.8995768427848816
vn -0.4050963819026947 -0.2199605405330658 0.8874199986457825
vn -0.40864959359169006 -0.1767680048942566 0.8954097628593445
vn -0.4143456518650055 0.06379874050617218 0.9078807234764099
vn -0.3743104338645935 0.43470343947410583 0.8190998435020447
vn -0.31332603096961975 0.6560842990875244 0.6865713000297546
vn -0.2765199840068817 0.7457970380783081 0.606072187423706
vn -0.24689486622810364 0.8037864565849304 0.5412673950195312
vn -0.38404208421707153 0.8096397519111633 0.44384124875068665
vn -0.34849128127098083 0.8463222980499268 0.40285524725914
vn -0.32191362977027893 0.8705314993858337 0.3722184896469116
vn -0.3027600646018982 0.8864129781723022 0.3501547873020172
vn -0.2974851131439209 0.8922895789146423 0.3395909368991852
vn -0.22406277060508728 0.841667115688324 0.4913170039653778
vn -0.2069895714521408 0.8666403293609619 0.45397111773490906
vn -0.19470110535621643 0.8829900026321411 0.4271068274974823
vn -0.19168581068515778 0.8889804482460022 0.415897011756897
vn -0.077303946018219 0.8391647338867188 0.5383554697036743
vn -0.07141650468111038 0.8645484447479248 0.49744921922683716
vn -0.06718188524246216 0.8811493515968323 0.4680410623550415
vn -0.06621218472719193 0.8871951103210449 0.45661890506744385
vn 0.07141640037298203 0.8645484447479248 0.49744927883148193
vn 0.0773039311170578 0.8391644954681396 0.5383559465408325
vn -0.08517574518918991 0.8006412982940674 0.593058705329895
vn -0.09537836164236069 0.7416660189628601 0.6639537811279297
vn -0.10802026093006134 0.6505010724067688 0.75178462266922
vn -0.1288183629512787 0.4261390268802643 0.8954392075538635
vn -0.14202570915222168 0.05334295332431793 0.9884246587753296
vn -0.1397588551044464 -0.18568649888038635 0.9726191759109497
vn -0.13854143023490906 -0.22721083462238312 0.9639405608177185
vn -0.14052365720272064 -0.15492179989814758 0.9778815507888794
vn -0.14217020571231842 0.013965890742838383 0.9897436499595642
vn -0.13683488965034485 0.2704302966594696 0.9529657959938049
vn -0.37190425395965576 0.44401314854621887 0.8151929974555969
vn -0.3870450258255005 0.3616950809955597 0.8481584787368774
vn -0.41147398948669434 0.13288073241710663 0.9016827344894409
vn -0.4145970940589905 -0.052149660885334015 0.9085096120834351
vn -0.4105605483055115 -0.14804445207118988 0.8997348546981812
vn -0.4104957580566406 -0.14842505753040314 0.899701714515686
vn -0.4143119752407074 -0.061884570866823196 0.9080286026000977
vn -0.41448864340782166 -0.05584864690899849 0.9083392024040222
vn -0.3978879451751709 -0.2866474688053131 0.8715035915374756
vn -0.3492191433906555 -0.5411760210990906 0.7649669647216797
vn -0.3110640048980713 -0.6620635986328125 0.6818438768386841
vn -0.3007655441761017 -0.6884998679161072 0.6599302887916565
vn -0.32657483220100403 -0.6151847839355469 0.7175629138946533
vn -0.3903482258319855 -0.3339472711086273 0.8579671382904053
vn -0.4146615266799927 -0.04969796910881996 0.9086176753044128
vn -0.40781810879707336 -0.1911318153142929 0.8928342461585999
vn -0.35839009284973145 -0.5060470104217529 0.7845208644866943
vn -0.30467864871025085 -0.6795663833618164 0.6673532724380493
vn -0.264080673456192 -0.7715619802474976 0.5787516236305237
vn -0.23597212135791779 -0.8225892186164856 0.517362654209137
vn -0.21733231842517853 -0.8518039584159851 0.47665151953697205
vn -0.2124394178390503 -0.8617852330207825 0.46064701676368713
vn -0.07501593232154846 -0.8493236899375916 0.522515058517456
vn -0.07340162992477417 -0.8594541549682617 0.5059157609939575
vn -0.08145904541015625 -0.8195284008979797 0.5672191977500916
vn -0.09117118269205093 -0.7674376368522644 0.6346079707145691
vn -0.10516964644193649 -0.6735016107559204 0.731665849685669
vn -0.12355375289916992 -0.4966975152492523 0.85908442735672
vn -0.14005136489868164 -0.1783309131860733 0.97395259141922
vn -0.14213770627975464 -0.03677896410226822 0.9891633987426758
vn -0.13417907059192657 -0.3242250084877014 0.9364156723022461
vn -0.1124788224697113 -0.609470546245575 0.7847892642021179
vn -0.10358413308858871 -0.6843084096908569 0.7217979431152344
vn -0.10709308832883835 -0.6577873826026917 0.7455514073371887
vn -0.12013138085603714 -0.5357195138931274 0.8358068466186523
vn -0.13660088181495667 -0.2796253263950348 0.9503419995307922
vn -0.14204049110412598 -0.04893673211336136 0.9886504411697388
vn -0.14197659492492676 -0.05624224618077278 0.9882709383964539
vn -0.14071284234523773 -0.14402829110622406 0.9795181155204773
vn -0.14071227610111237 -0.14474913477897644 0.9794119000434875
vn -0.14204281568527222 -0.04990937188267708 0.9886015057563782
vn -0.14093634486198425 0.13392427563667297 0.9809185862541199
vn -0.132595032453537 0.36156898736953735 0.9228686094284058
vn -0.12748023867607117 0.4428534507751465 0.8874849677085876
vn 0.14071355760097504 -0.14402878284454346 0.9795178771018982
vn 0.141977921128273 -0.056241896003484726 0.9882707595825195
vn 0.14071397483348846 -0.14474964141845703 0.9794115424156189
vn 0.142044797539711 -0.049908753484487534 0.9886012673377991
vn 0.1409391313791275 0.1339244842529297 0.9809181690216064
vn 0.1325967013835907 0.3615688681602478 0.9228684306144714
vn 0.12748049199581146 0.44285380840301514 0.8874847292900085
vn 0.13683433830738068 0.2704305648803711 0.9529657959938049
vn 0.14216934144496918 0.013965295627713203 0.9897437691688538
vn 0.14052288234233856 -0.15492196381092072 0.9778816103935242
vn 0.13854153454303741 -0.22721074521541595 0.9639405608177185
vn 0.13975884020328522 -0.18568682670593262 0.9726190567016602
vn 0.14202626049518585 0.05334251746535301 0.98842453956604
vn 0.12881886959075928 0.42613813281059265 0.895439624786377
vn 0.10802067816257477 0.6505011916160583 0.7517843246459961
vn 0.09537851810455322 0.7416661977767944 0.6639535427093506
vn 0.08517592400312424 0.8006413578987122 0.5930584669113159
vn 0.40864962339401245 -0.17676836252212524 0.8954095840454102
vn 0.4050962030887604 -0.21996080875396729 0.8874200582504272
vn 0.4143452048301697 0.06379807740449905 0.9078810214996338
vn 0.3743096888065338 0.43470218777656555 0.8191009163856506
vn 0.3133249282836914 0.6560846567153931 0.686571478843689
vn 0.2765195965766907 0.7457976937294006 0.6060715913772583
vn 0.2468947172164917 0.8037866353988647 0.5412671566009521
vn 0.22406287491321564 0.8416666388511658 0.4913176894187927
vn 0.20698928833007812 0.8666401505470276 0.45397165417671204
vn 0.19470128417015076 0.8829900622367859 0.4271066188812256
vn 0.06718204915523529 0.8811496496200562 0.4680405855178833
vn 0.06621207296848297 0.8871951103210449 0.4566188454627991
vn 0.1916860193014145 0.8889801502227783 0.4158974289894104
vn 0.584804892539978 0.4508204460144043 0.674362063407898
vn 0.6522860527038574 0.08380460739135742 0.7533257603645325
vn 0.4879598021507263 0.6665064096450806 0.5636173486709595
vn 0.43025922775268555 0.7534927129745483 0.49711742997169495
vn 0.3840419352054596 0.8096399307250977 0.44384118914604187
vn 0.34849098324775696 0.8463224172592163 0.40285539627075195
vn 0.3219135105609894 0.8705313205718994 0.3722187876701355
vn 0.30276042222976685 0.8864126801490784 0.35015514492988586
vn 0.2974854111671448 0.8922892212867737 0.3395915627479553
vn 0.5427766442298889 0.7637559175491333 0.3493858277797699
vn 0.6162479519844055 0.6804503202438354 0.39651721715927124
vn 0.4842938780784607 0.8174380660057068 0.3118567168712616
vn 0.43941614031791687 0.8525225520133972 0.283052533864975
vn 0.4058716893196106 0.8757122755050659 0.26152679324150085
vn 0.38165393471717834 0.8909682035446167 0.24599994719028473
vn 0.37403836846351624 0.8966715335845947 0.23680244386196136
vn 0.6057546734809875 0.7753890752792358 0.17841804027557373
vn 0.6885387301445007 0.6963106989860535 0.2026468962430954
vn 0.7416049838066101 0.4726535975933075 0.47604677081108093
vn 0.8357741832733154 0.11160218715667725 0.5376118421554565
vn 0.6461697220802307 -0.15952813625335693 0.7463347911834717
vn 0.6406174302101135 -0.2059403508901596 0.7397282719612122
vn 0.41057801246643066 -0.14895421266555786 0.899576723575592
vn 0.4149889349937439 0.018507573753595352 0.9096382260322571
vn 0.3991449177265167 0.27313530445098877 0.8752601742744446
vn 0.3719041347503662 0.444013774394989 0.8151926398277283
vn 0.38704636693000793 0.36169442534446716 0.8481581211090088
vn 0.41147470474243164 0.13288064301013947 0.901682436466217
vn 0.41459739208221436 -0.052148185670375824 0.9085094928741455
vn 0.4105616807937622 -0.1480453461408615 0.8997341990470886
vn 0.41049784421920776 -0.14842589199543 0.8997006416320801
vn 0.41431400179862976 -0.06188317760825157 0.908027708530426
vn 0.14204317331314087 -0.04893674701452255 0.9886500835418701
vn 0.13660143315792084 -0.2796269953250885 0.9503414630889893
vn 0.12013062834739685 -0.5357196927070618 0.8358068466186523
vn 0.10709305107593536 -0.65778648853302 0.745552122592926
vn 0.10358525812625885 -0.6843081712722778 0.7217980623245239
vn 0.1124792993068695 -0.6094707250595093 0.7847890853881836
vn 0.1341799646615982 -0.32422566413879395 0.9364152550697327
vn 0.14213837683200836 -0.03677988424897194 0.9891632795333862
vn 0.14005246758460999 -0.17833179235458374 0.9739522933959961
vn 0.12355410307645798 -0.49669715762138367 0.8590846061706543
vn 0.1051706075668335 -0.6735005378723145 0.7316666841506958
vn 0.09117235243320465 -0.7674379348754883 0.6346074938774109
vn 0.08145899325609207 -0.8195288777351379 0.5672186613082886
vn 0.07501594722270966 -0.8493234515190125 0.5225153565406799
vn 0.07340192794799805 -0.8594538569450378 0.5059162974357605
vn 0.21733325719833374 -0.8518036007881165 0.4766516089439392
vn 0.21244031190872192 -0.8617846369743347 0.4606478214263916
vn 0.2359723299741745 -0.8225901126861572 0.5173611640930176
vn 0.2640811502933502 -0.7715627551078796 0.5787504315376282
vn 0.3046805262565613 -0.679564356803894 0.6673545837402344
vn 0.3583916127681732 -0.5060458779335022 0.7845209836959839
vn 0.4078194797039032 -0.19113430380821228 0.8928331136703491
vn 0.41466307640075684 -0.049698688089847565 0.908616840839386
vn 0.3903496265411377 -0.3339468836784363 0.8579666018486023
vn 0.3265761733055115 -0.6151847243309021 0.7175624370574951
vn 0.3007665276527405 -0.6884996891021729 0.6599300503730774
vn 0.3110659122467041 -0.662062406539917 0.6818441152572632
vn 0.3492213785648346 -0.5411766171455383 0.7649654150009155
vn 0.397888720035553 -0.28664830327033997 0.8715029358863831
vn 0.41449013352394104 -0.0558471754193306 0.9083386063575745
vn 0.5095260739326477 -0.6258985996246338 0.5904524326324463
vn 0.6112220287322998 -0.35236191749572754 0.7086949944496155
vn 0.46933481097221375 -0.6963581442832947 0.5429643988609314
vn 0.4857424795627594 -0.6700931787490845 0.5612747073173523
vn 0.5461493134498596 -0.5514623522758484 0.6305634379386902
vn 0.6245837211608887 -0.29999804496765137 0.7210384607315063
vn 0.652927815914154 -0.06908965110778809 0.7542625069618225
vn 0.6527158617973328 -0.07270108163356781 0.7541064620018005
vn 0.6463370323181152 -0.15684279799461365 0.7467588782310486
vn 0.6466496586799622 -0.1543571799993515 0.7470061182975769
vn 0.6534858345985413 -0.05644553527235985 0.7548311948776245
vn 0.6488911509513855 0.13087651133537292 0.7495409250259399
vn 0.610141932964325 0.3619346618652344 0.7047907710075378
vn 0.5856329202651978 0.446232408285141 0.6766910552978516
vn 0.6283644437789917 0.27831339836120605 0.7264294624328613
vn 0.6541447043418884 0.027230186387896538 0.7558791041374207
vn 0.648364782333374 -0.13744893670082092 0.7488196492195129
vn 0.8340165615081787 0.12807172536849976 0.5366693735122681
vn 0.839307963848114 -0.06245001032948494 0.5400574803352356
vn 0.7838159203529358 0.36226892471313477 0.5043747425079346
vn 0.7511732578277588 0.44932126998901367 0.48357951641082764
vn 0.8056582808494568 0.2855262756347656 0.5190274715423584
vn 0.840151846408844 0.03943357989192009 0.5409157872200012
vn 0.8347681760787964 -0.12125515937805176 0.53708416223526
vn 0.8263424634933472 -0.1861136108636856 0.5315259695053101
vn 0.833236038684845 -0.13517454266548157 0.5361394882202148
vn 0.9518202543258667 0.12469089031219482 0.28016138076782227
vn 0.9569806456565857 -0.06967111676931381 0.28166285157203674
vn 0.8296472430229187 -0.1631537228822708 0.5339159965515137
vn 0.8288269639015198 -0.16856077313423157 0.5335102081298828
vn 0.8376137018203735 -0.08779595792293549 0.5391615629196167
vn 0.8376811742782593 -0.08754675835371017 0.5390971302986145
vn 0.7973868250846863 -0.31837067008018494 0.5126543641090393
vn 0.6937379240989685 -0.5654345154762268 0.44610723853111267
vn 0.61576908826828 -0.6809414625167847 0.3964177370071411
vn 0.5944002270698547 -0.7069482803344727 0.383291631937027
vn 0.6450784802436829 -0.6403350234031677 0.41694721579551697
vn 0.7774306535720825 -0.37756356596946716 0.503038227558136
vn 0.6526729464530945 -0.07441886514425278 0.7539759874343872
vn 0.6395935416221619 -0.2154398113489151 0.7379063367843628
vn 0.5580746531486511 -0.5235018134117126 0.6438154578208923
vn 0.47337666153907776 -0.690822422504425 0.5465154647827148
vn 0.4101942479610443 -0.7792145013809204 0.47388333082199097
vn 0.3666177988052368 -0.8282706141471863 0.4237443506717682
vn 0.3377351760864258 -0.8564090728759766 0.390510618686676
vn 0.3295137882232666 -0.8661009669303894 0.37588515877723694
vn 0.4253588616847992 -0.8625239729881287 0.2740844786167145
vn 0.4139932096004486 -0.8718069791793823 0.2618439793586731
vn 0.4615808129310608 -0.8358066082000732 0.2972719967365265
vn 0.5162506103515625 -0.78935706615448 0.332266241312027
vn 0.5958858728408813 -0.7057586908340454 0.3831773102283478
vn 0.7044236660003662 -0.5468494296073914 0.4524852931499481
vn 0.8149405717849731 -0.24878183007240295 0.523430347442627
vn 0.8358485698699951 -0.10875114798545837 0.5380802750587463
vn 0.4738744795322418 -0.8694180846214294 0.1398400366306305
vn 0.4599769711494446 -0.8782068490982056 0.1310495138168335
vn 0.5140069127082825 -0.8442938327789307 0.1515415459871292
vn 0.5745840668678284 -0.8007647395133972 0.1692008525133133
vn 0.6632345914840698 -0.7225662469863892 0.1949818879365921
vn 0.7861687541007996 -0.5733622312545776 0.23063893616199493
vn 0.9189977645874023 -0.28780779242515564 0.26946184039115906
vn 0.9484006762504578 -0.14958617091178894 0.27957096695899963
vn 0.8754614591598511 -0.4070228040218353 0.26057547330856323
vn 0.7228053212165833 -0.6569010615348816 0.21455392241477966
vn 0.6664096713066101 -0.7191078066825867 0.19693204760551453
vn 0.6911509037017822 -0.6934354305267334 0.203611359000206
vn 0.7804287672042847 -0.5816348791122437 0.2294161468744278
vn 0.9022738933563232 -0.3400305509567261 0.2651059627532959
vn 0.9535014033317566 -0.10965333878993988 0.28073349595069885
vn 0.9538550972938538 -0.1059090718626976 0.28096920251846313
vn 0.9431299567222595 -0.1825845092535019 0.27779296040534973
vn 0.9447089433670044 -0.1736970841884613 0.27812647819519043
vn 0.7985793948173523 -0.5908369421958923 0.11481538414955139
vn 0.7087563872337341 -0.6980549097061157 0.10190089046955109
vn 0.9243847727775574 -0.35756027698516846 0.13290351629257202
vn 0.9822311997413635 -0.12360650300979614 0.14122095704078674
vn 0.9836058616638184 -0.11189168691635132 0.14142031967639923
vn 0.9722407460212708 -0.18763673305511475 0.13978689908981323
vn 0.9739555716514587 -0.17832939326763153 0.14003323018550873
vn 0.9870952367782593 -0.0741681158542633 0.14192259311676025
vn 0.9825893640518188 0.1206621527671814 0.1412753164768219
vn 0.9235351085662842 0.35979336500167847 0.13278385996818542
vn 0.893994152545929 0.36266976594924927 0.26314494013786316
vn 0.8551653027534485 0.45302003622055054 0.25192275643348694
vn 0.9166967868804932 0.2941663861274719 0.2704314589500427
vn 0.9578119516372681 0.054131049662828445 0.28225189447402954
vn 0.9543482065200806 -0.10160522907972336 0.2808840572834015
vn 0.9466887712478638 -0.16192127764225006 0.27849945425987244
vn 0.9539493322372437 -0.10552047193050385 0.28079548478126526
vn 0.9492766857147217 0.14471811056137085 0.27916014194488525
vn 0.8322848081588745 0.49785080552101135 0.24381642043590546
vn 0.9881700277328491 0.05774003639817238 0.14207741618156433
vn 0.946428656578064 0.2928415834903717 0.13607561588287354
vn 0.9855616688728333 -0.09267713874578476 0.14170128107070923
vn 0.9789890646934509 -0.14754192531108856 0.1407540887594223
vn 0.9863404035568237 -0.08379761129617691 0.1418112963438034
vn 0.9744720458984375 0.17542561888694763 0.14010754227638245
vn 0.8459444046020508 0.5192149877548218 0.12162987887859344
vn 0.7027961015701294 0.7041783928871155 0.10104680061340332
vn 0.6190831661224365 0.7802650332450867 0.08900896459817886
vn 0.5529524683952332 0.8294112086296082 0.07950162142515182
vn 0.5402987003326416 0.8262670040130615 0.15924866497516632
vn 0.49019482731819153 0.859539806842804 0.14456981420516968
vn 0.4527433514595032 0.8815747499465942 0.13360141217708588
vn 0.4256446957588196 0.8961203694343567 0.12567773461341858
vn 0.41596075892448425 0.901599109172821 0.11872513592243195
vn 0.5022849440574646 0.8616811037063599 0.07221755385398865
vn 0.4643571972846985 0.8831279277801514 0.06676413863897324
vn 0.43687373399734497 0.8973271250724792 0.06281255930662155
vn 0.42682862281799316 0.9022478461265564 0.06136838346719742
vn 0.4715708792209625 -0.879217803478241 0.06780167669057846
vn 0.4855870008468628 -0.8713958263397217 0.06981705129146576
vn 0.5257936716079712 -0.8472460508346558 0.07559805363416672
vn 0.586353063583374 -0.8056567311286926 0.08430461585521698
vn 0.6747762560844421 -0.7316177487373352 0.09701719880104065
vn 0.7979391813278198 -0.5917187333106995 0.11472541838884354
vn 0.936604380607605 -0.32347825169563293 0.13466282188892365
vn 0.9764378666877747 -0.16388925909996033 0.14039024710655212
vn 0.906195878982544 -0.40228521823883057 0.13029050827026367
vn 0.7453132271766663 -0.6580464839935303 0.10715869814157486
vn 0.6851743459701538 -0.7216865420341492 0.09851159155368805
vn 0.8833854794502258 0.45110809803009033 0.12701061367988586
vt 0.04980736970901489 0.029385030269622803
vt 0.13383686542510986 0.02929234504699707
vt 0.13426876068115234 0.057530999183654785
vt 0.0502392053604126 0.05762356519699097
vt 0.13469833135604858 0.08563703298568726
vt 0.05066859722137451 0.08572983741760254
vt 0.13512390851974487 0.11347895860671997
vt 0.05109429359436035 0.1135716438293457
vt 0.13554352521896362 0.1409236192703247
vt 0.051513671875 0.14101630449295044
vt 0.1359548568725586 0.16783928871154785
vt 0.051924943923950195 0.16793197393417358
vt 0.13635623455047607 0.1940934658050537
vt 0.05232656002044678 0.19418585300445557
vt 0.13674545288085938 0.2195536494255066
vt 0.05271559953689575 0.21964633464813232
vt 0.13712668418884277 0.24449777603149414
vt 0.05309683084487915 0.2445904016494751
vt 0.13751178979873657 0.2696993947029114
vt 0.0534822940826416 0.26979219913482666
vt 0.1379103660583496 0.295770525932312
vt 0.05388087034225464 0.29586321115493774
vt 0.13833141326904297 0.32332271337509155
vt 0.05430203676223755 0.32341545820236206
vt 0.13878482580184937 0.35296791791915894
vt 0.05475527048110962 0.3530605435371399
vt 0.13927918672561646 0.38531792163848877
vt 0.055249691009521484 0.3854106664657593
vt 0.13982433080673218 0.42098456621170044
vt 0.05579483509063721 0.4210773706436157
vt 0.14037162065505981 0.4567759037017822
vt 0.05634200572967529 0.4568687081336975
vt 0.14087539911270142 0.48974472284317017
vt 0.05684596300125122 0.48983728885650635
vt 0.14135128259658813 0.5208699107170105
vt 0.05732172727584839 0.520962655544281
vt 0.14181369543075562 0.5511308908462524
vt 0.05778414011001587 0.551223635673523
vt 0.14227795600891113 0.5815067291259766
vt 0.05824851989746094 0.5815994143486023
vt 0.14275896549224854 0.6129765510559082
vt 0.058729469776153564 0.6130692958831787
vt 0.14327162504196167 0.6465196311473846
vt 0.059242188930511475 0.6466123163700104
vt 0.14382058382034302 0.6824295818805695
vt 0.05979090929031372 0.6825222969055176
vt 0.1443866491317749 0.7194689810276031
vt 0.060357093811035156 0.7195617258548737
vt 0.1449500322341919 0.7563202381134033
vt 0.06092047691345215 0.7564129531383514
vt 0.14549028873443604 0.7916654646396637
vt 0.061460793018341064 0.7917582243680954
vt 0.14598733186721802 0.8241870403289795
vt 0.06195789575576782 0.8242797404527664
vt 0.1464211344718933 0.852567121386528
vt 0.062391579151153564 0.8526598364114761
vt 0.14677149057388306 0.8754880651831627
vt 0.06274205446243286 0.8755807802081108
vt 0.14706993103027344 0.8950143977999687
vt 0.06304043531417847 0.8951070979237556
vt 0.14736229181289673 0.9141343384981155
vt 0.06333261728286743 0.9142270386219025
vt 0.14764928817749023 0.932915449142456
vt 0.06361967325210571 0.9330081641674042
vt 0.14793217182159424 0.9514256790280342
vt 0.06390267610549927 0.9515183791518211
vt 0.1482120156288147 0.9697326477617025
vt 0.06418251991271973 0.9698253516107798
vt 0.14848989248275757 0.9879042953252792
vt 0.06446021795272827 0.9879969879984856
vt 0.14876651763916016 1.0060080331750214
vt 0.06473690271377563 1.0061007346957922
vt 0.2310994267463684 0.8949217051267624
vt 0.2313917875289917 0.9140416383743286
vt 0.23167872428894043 0.9328227490186691
vt 0.23196172714233398 0.9513329863548279
vt 0.23224151134490967 0.9696399923413992
vt 0.23251932859420776 0.9878115933388472
vt 0.2327960729598999 1.0059153768233955
vt 0.3154211640357971 0.9139489158987999
vt 0.31512898206710815 0.8948289975523949
vt 0.23080092668533325 0.8753953501582146
vt 0.2304505705833435 0.8524744361639023
vt 0.23001688718795776 0.8240943402051926
vt 0.22951966524124146 0.791572779417038
vt 0.22897952795028687 0.7562275975942612
vt 0.22841620445251465 0.7193763256072998
vt 0.227850079536438 0.6823369264602661
vt 0.22730112075805664 0.6464269161224365
vt 0.22678858041763306 0.6128838658332825
vt 0.22630751132965088 0.5814140141010284
vt 0.22584319114685059 0.5510381758213043
vt 0.225380539894104 0.5207771956920624
vt 0.2249048352241516 0.48965203762054443
vt 0.2244008183479309 0.45668327808380127
vt 0.22385388612747192 0.4208918809890747
vt 0.22330856323242188 0.38522523641586304
vt 0.22281420230865479 0.35287511348724365
vt 0.2223610281944275 0.3232300281524658
vt 0.22193986177444458 0.2956778407096863
vt 0.22154128551483154 0.2696067690849304
vt 0.22115588188171387 0.2444050908088684
vt 0.22077488899230957 0.2194610834121704
vt 0.2203856110572815 0.19400078058242798
vt 0.21998441219329834 0.16774660348892212
vt 0.21957296133041382 0.14083105325698853
vt 0.2191535234451294 0.11338615417480469
vt 0.21872788667678833 0.0855446457862854
vt 0.21829819679260254 0.05743831396102905
vt 0.21786659955978394 0.029199719429016113
vt 0.30232787132263184 0.057345569133758545
vt 0.3018961548805237 0.02910703420639038
vt 0.30275774002075195 0.08545172214508057
vt 0.30318331718444824 0.11329346895217896
vt 0.3036026358604431 0.1407381296157837
vt 0.3040139675140381 0.16765379905700684
vt 0.3044154644012451 0.19390785694122314
vt 0.30480456352233887 0.21936827898025513
vt 0.3051857352256775 0.24431240558624268
vt 0.3055710792541504 0.26951396465301514
vt 0.3059697151184082 0.29558509588241577
vt 0.30639076232910156 0.3231373429298401
vt 0.3068438172340393 0.35278254747390747
vt 0.3073383569717407 0.3851325511932373
vt 0.3078835606575012 0.420799195766449
vt 0.30843061208724976 0.45659059286117554
vt 0.3089345693588257 0.4895592927932739
vt 0.3094102144241333 0.520684540271759
vt 0.30987268686294556 0.5509454905986786
vt 0.3103369474411011 0.5813213288784027
vt 0.31081801652908325 0.6127911806106567
vt 0.31133073568344116 0.6463342308998108
vt 0.31187957525253296 0.6822441518306732
vt 0.3124457597732544 0.7192836105823517
vt 0.3130091428756714 0.7561348378658295
vt 0.3135491609573364 0.7914801239967346
vt 0.31404638290405273 0.8240016549825668
vt 0.31448012590408325 0.8523817509412766
vt 0.314830482006073 0.8753026649355888
vt 0.39647531509399414 0.7191908657550812
vt 0.39590907096862793 0.6821514666080475
vt 0.39703840017318726 0.7560421824455261
vt 0.39757871627807617 0.7913873791694641
vt 0.3980758786201477 0.8239089399576187
vt 0.398509681224823 0.8522890359163284
vt 0.3988599181175232 0.8752099648118019
vt 0.39915841817855835 0.8947362974286079
vt 0.39945071935653687 0.9138562455773354
vt 0.39973777532577515 0.9326373487710953
vt 0.3157083988189697 0.9327300488948822
vt 0.3159913420677185 0.951240286231041
vt 0.3162711262702942 0.9695472549647093
vt 0.3165488839149475 0.9877188391983509
vt 0.31682562828063965 1.0058226305991411
vt 0.4000207185745239 0.9511475898325443
vt 0.40030062198638916 0.9694545473903418
vt 0.40057843923568726 0.9876261446624994
vt 0.4008551239967346 1.0057299369946122
vt 0.48405033349990845 0.9510548897087574
vt 0.4843302369117737 0.9693618584424257
vt 0.4846080541610718 0.9875334370881319
vt 0.48488491773605347 1.0056372284889221
vt 0.568359911441803 0.9692691992968321
vt 0.5680800080299377 0.950962245464325
vt 0.4837672710418701 0.932544656097889
vt 0.4834802746772766 0.913763552904129
vt 0.4831879734992981 0.8946436122059822
vt 0.48288941383361816 0.8751172497868538
vt 0.4825391173362732 0.8521963506937027
vt 0.4821052551269531 0.823816254734993
vt 0.48160821199417114 0.7912946939468384
vt 0.481067955493927 0.7559494972229004
vt 0.4805048108100891 0.7190982103347778
vt 0.4799385666847229 0.6820587515830994
vt 0.39536017179489136 0.6462415456771851
vt 0.39484739303588867 0.6126985549926758
vt 0.39436638355255127 0.581228643655777
vt 0.39390212297439575 0.5508527755737305
vt 0.39343971014022827 0.5205917954444885
vt 0.39296388626098633 0.4894666075706482
vt 0.3924599885940552 0.4564979076385498
vt 0.3919127583503723 0.420706570148468
vt 0.39136791229248047 0.3850398659706116
vt 0.3908733129501343 0.3526897430419922
vt 0.3904203176498413 0.3230445384979248
vt 0.3899991512298584 0.29549241065979004
vt 0.38960057497024536 0.2694212794303894
vt 0.3892154097557068 0.24421972036361694
vt 0.38883429765701294 0.21927553415298462
vt 0.3884449005126953 0.1938151717185974
vt 0.3880436420440674 0.1675611138343811
vt 0.3876323699951172 0.14064538478851318
vt 0.38721275329589844 0.11320066452026367
vt 0.3867872357368469 0.08535903692245483
vt 0.38635754585266113 0.05725288391113281
vt 0.38592594861984253 0.02901434898376465
vt 0.4703871011734009 0.05716007947921753
vt 0.4699555039405823 0.028921425342559814
vt 0.4708166718482971 0.08526623249053955
vt 0.47124218940734863 0.11310803890228271
vt 0.4716618061065674 0.140552818775177
vt 0.47207343578338623 0.1674683690071106
vt 0.4724745750427246 0.19372254610061646
vt 0.47286367416381836 0.21918296813964844
vt 0.4732450246810913 0.24412697553634644
vt 0.47363007068634033 0.26932859420776367
vt 0.47402864694595337 0.29539960622787476
vt 0.47444969415664673 0.32295191287994385
vt 0.4749029278755188 0.3525969982147217
vt 0.4753972887992859 0.3849472403526306
vt 0.47594255208969116 0.4206138849258423
vt 0.4764896631240845 0.4564052224159241
vt 0.47699373960494995 0.48937392234802246
vt 0.47746914625167847 0.5204991698265076
vt 0.47793155908584595 0.5507601201534271
vt 0.47839581966400146 0.5811359286308289
vt 0.4788770079612732 0.6126058101654053
vt 0.4793897271156311 0.6461488008499146
vt 0.561022937297821 0.4892811179161072
vt 0.5605190396308899 0.4563125967979431
vt 0.5614985823631287 0.5204064846038818
vt 0.5619609951972961 0.550667405128479
vt 0.562425434589386 0.5810432136058807
vt 0.5629065632820129 0.6125131249427795
vt 0.5634194016456604 0.6460561156272888
vt 0.5639681220054626 0.6819660663604736
vt 0.5645344853401184 0.7190055251121521
vt 0.5650975108146667 0.7558567821979523
vt 0.5656377673149109 0.7912019789218903
vt 0.5661348700523376 0.823723554611206
vt 0.5665686726570129 0.852103665471077
vt 0.5669189095497131 0.8750245496630669
vt 0.5672175288200378 0.8945508897304535
vt 0.5675097107887268 0.9136708378791809
vt 0.5677968859672546 0.9324519708752632
vt 0.6501644253730774 0.8236308693885803
vt 0.6496673226356506 0.7911092936992645
vt 0.6505981087684631 0.85201096534729
vt 0.6509484648704529 0.8749318867921829
vt 0.651246964931488 0.8944582417607307
vt 0.6515392661094666 0.9135781675577164
vt 0.6518264412879944 0.9323592782020569
vt 0.6521093249320984 0.9508695416152477
vt 0.6523893475532532 0.9691764991730452
vt 0.6526671051979065 0.9873480871319771
vt 0.5686375498771667 0.987440787255764
vt 0.5689143538475037 1.0055445712059736
vt 0.6529439091682434 1.0054518776014447
vt 0.7349783778190613 0.8748392015695572
vt 0.7346280217170715 0.8519182503223419
vt 0.7352767586708069 0.8943655416369438
vt 0.735569179058075 0.9134854674339294
vt 0.7358561158180237 0.93226657807827
vt 0.7361391186714172 0.9507768452167511
vt 0.7364190220832825 0.9690838661044836
vt 0.7366966605186462 0.9872553907334805
vt 0.7369737029075623 1.0053591914474964
vt 0.8195986151695251 0.9133927971124649
vt 0.8193064332008362 0.8942728489637375
vt 0.8198859095573425 0.9321739301085472
vt 0.8201687932014465 0.9506841860711575
vt 0.8204486966133118 0.9689911510795355
vt 0.8207265734672546 0.9871627893298864
vt 0.8210031390190125 1.0052665648981929
vt 0.9036282896995544 0.9133001267910004
vt 0.9033359885215759 0.8941801637411118
vt 0.819007933139801 0.8747465014457703
vt 0.8186575770378113 0.8518255800008774
vt 0.7341940999031067 0.8235381543636322
vt 0.733697235584259 0.7910166233778
vt 0.6491270661354065 0.7557640671730042
vt 0.648563802242279 0.718912810087204
vt 0.6479977965354919 0.6818733513355255
vt 0.647448718547821 0.6459634900093079
vt 0.6469359993934631 0.6124204099178314
vt 0.6464548707008362 0.5809505879878998
vt 0.6459905505180359 0.5505747497081757
vt 0.645528256893158 0.5203137397766113
vt 0.6450527310371399 0.4891884922981262
vt 0.6445485949516296 0.45621979236602783
vt 0.5599721074104309 0.42052119970321655
vt 0.5594266057014465 0.3848545551300049
vt 0.5589324831962585 0.3525044322013855
vt 0.558479368686676 0.3228592276573181
vt 0.5580582022666931 0.295306921005249
vt 0.5576596856117249 0.2692359685897827
vt 0.5572742819786072 0.24403440952301025
vt 0.5568931698799133 0.2190902829170227
vt 0.5565040707588196 0.19362998008728027
vt 0.5561026930809021 0.16737580299377441
vt 0.5556911826133728 0.14046013355255127
vt 0.5552719235420227 0.11301535367965698
vt 0.5548463463783264 0.08517366647720337
vt 0.554416835308075 0.0570673942565918
vt 0.553985059261322 0.02882903814315796
vt 0.6384465098381042 0.05697476863861084
vt 0.6380148530006409 0.028736352920532227
vt 0.6388761401176453 0.08508104085922241
vt 0.639301598072052 0.11292266845703125
vt 0.6397210955619812 0.140367329120636
vt 0.6401326060295105 0.16728311777114868
vt 0.6405338644981384 0.193537175655365
vt 0.6409228444099426 0.21899747848510742
vt 0.6413041949272156 0.24394160509109497
vt 0.6416893601417542 0.269143283367157
vt 0.642087996006012 0.29521435499191284
vt 0.6425090432167053 0.3227665424346924
vt 0.6429620385169983 0.3524116277694702
vt 0.6434563994407654 0.3847617506980896
vt 0.6440015435218811 0.4204285144805908
vt 0.7257192730903625 0.26905059814453125
vt 0.7253337502479553 0.24384891986846924
vt 0.7261174321174622 0.2951217293739319
vt 0.7265387177467346 0.32267385721206665
vt 0.726991593837738 0.35231906175613403
vt 0.7274861931800842 0.38466906547546387
vt 0.7280312180519104 0.42033588886260986
vt 0.728578507900238 0.4561271071434021
vt 0.7290822863578796 0.4890958070755005
vt 0.7295580506324768 0.520221084356308
vt 0.7300203442573547 0.5504820644855499
vt 0.730484664440155 0.5808578729629517
vt 0.7309656739234924 0.6123277544975281
vt 0.7314786314964294 0.6458708047866821
vt 0.7320272326469421 0.6817806959152222
vt 0.7325935959815979 0.7188201546669006
vt 0.7331568598747253 0.7556714415550232
vt 0.8145143389701843 0.5807651579380035
vt 0.8140501379966736 0.5503893792629242
vt 0.8149953484535217 0.6122349798679352
vt 0.8155081868171692 0.6457780599594116
vt 0.8160569071769714 0.6816880106925964
vt 0.8166232705116272 0.7187274396419525
vt 0.8171864151954651 0.7555787265300751
vt 0.8177266716957092 0.7909239530563354
vt 0.818223774433136 0.82344551384449
vt 0.8985441327095032 0.5806724727153778
vt 0.8980799317359924 0.5502966642379761
vt 0.813587486743927 0.5201283693313599
vt 0.8131118416786194 0.48900312185287476
vt 0.8126079440116882 0.4560343027114868
vt 0.8120606541633606 0.4202430844306946
vt 0.811515748500824 0.3845764398574829
vt 0.811021625995636 0.3522264361381531
vt 0.8105681538581848 0.3225812315940857
vt 0.810147225856781 0.2950289249420166
vt 0.8097487092018127 0.26895803213119507
vt 0.8093633055686951 0.24375641345977783
vt 0.7249525189399719 0.21890485286712646
vt 0.7245633006095886 0.19344449043273926
vt 0.7241620421409607 0.16719043254852295
vt 0.7237508893013 0.14027482271194458
vt 0.7233312726020813 0.11282986402511597
vt 0.722905695438385 0.08498835563659668
vt 0.7224761843681335 0.05688208341598511
vt 0.7220442891120911 0.028643548488616943
vt 0.8065056204795837 0.056789398193359375
vt 0.8060738444328308 0.02855086326599121
vt 0.8069352507591248 0.0848955512046814
vt 0.807360827922821 0.11273747682571411
vt 0.8077803254127502 0.1401820182800293
vt 0.80819171667099 0.167097806930542
vt 0.8085929751396179 0.1933518648147583
vt 0.8089821934700012 0.21881216764450073
vt 0.8905350565910339 0.05669671297073364
vt 0.8901033997535706 0.028458237648010254
vt 0.890964686870575 0.08480298519134521
vt 0.8913902640342712 0.11264467239379883
vt 0.8918097615242004 0.14008945226669312
vt 0.8922213912010193 0.1670050024986267
vt 0.8926225304603577 0.19325906038284302
vt 0.893011748790741 0.21871936321258545
vt 0.8933928608894348 0.24366360902786255
vt 0.8937782645225525 0.26886528730392456
vt 0.8941767811775208 0.2949361205101013
vt 0.8945979475975037 0.32248854637145996
vt 0.8950511813163757 0.35213375091552734
vt 0.8955453038215637 0.3844836354255676
vt 0.896090567111969 0.42015039920806885
vt 0.8966376185417175 0.4559417963027954
vt 0.8971415162086487 0.4889103174209595
vt 0.8976172804832458 0.5200356841087341
vt 0.9790809750556946 0.3520410656929016
vt 0.9786275029182434 0.32239586114883423
vt 0.9795752167701721 0.38439106941223145
vt 0.9801202416419983 0.4200577139854431
vt 0.9806674122810364 0.4558491110801697
vt 0.981171190738678 0.4888176918029785
vt 0.9816468358039856 0.519942969083786
vt 0.9821093678474426 0.550203949213028
vt 0.9825736880302429 0.5805797874927521
vt 0.9830546975135803 0.6120496392250061
vt 0.899025022983551 0.6121423840522766
vt 0.899537980556488 0.6456854045391083
vt 0.9000865817070007 0.6815953254699707
vt 0.9006528258323669 0.7186347842216492
vt 0.9012162089347839 0.7554860264062881
vt 0.901756227016449 0.7908312678337097
vt 0.9022533297538757 0.8233528286218643
vt 0.902687132358551 0.8517328947782516
vt 0.9030374884605408 0.8746538311243057
vt 0.9846822619438171 0.7185420989990234
vt 0.9841163754463196 0.681502640247345
vt 0.9852457642555237 0.7553933560848236
vt 0.9857859015464783 0.7907385528087616
vt 0.9862831234931946 0.823260098695755
vt 0.9867169260978699 0.8516401946544647
vt 0.9870674014091492 0.8745611160993576
vt 0.9873657822608948 0.8940874710679054
vt 0.9876580834388733 0.9132074192166328
vt 0.987945020198822 0.931988537311554
vt 0.9039155840873718 0.9320812374353409
vt 0.9041985869407654 0.950591504573822
vt 0.9044783711433411 0.9688984658569098
vt 0.9047560095787048 0.9870700798928738
vt 0.9050329327583313 1.0051738638430834
vt 0.988227903842926 0.9504988007247448
vt 0.9885080456733704 0.9688057657331228
vt 0.9887858033180237 0.9869773928076029
vt 0.989062488079071 1.0050811851397157
vt 0.974133312702179 0.02836543321609497
vt 0.9745649695396423 0.056604087352752686
vt 0.9749944806098938 0.08471035957336426
vt 0.9754201769828796 0.1125519871711731
vt 0.9758396744728088 0.13999676704406738
vt 0.9762513041496277 0.16691231727600098
vt 0.9766525626182556 0.19316637516021729
vt 0.9770416617393494 0.21862667798995972
vt 0.9774225354194641 0.24357092380523682
vt 0.9778078198432922 0.26877260208129883
vt 0.97820645570755 0.29484355449676514
vt 0.9835674166679382 0.6455927193164825

g Line001
s 1
usemtl Line001
f 3/3/3 2/2/2 1/1/1 
f 4/4/4 3/3/3 1/1/1 
f 5/5/5 3/3/3 4/4/4 
f 6/6/6 5/5/5 4/4/4 
f 7/7/7 5/5/5 6/6/6 
f 8/8/8 7/7/7 6/6/6 
f 9/9/9 7/7/7 8/8/8 
f 10/10/10 9/9/9 8/8/8 
f 11/11/11 9/9/9 10/10/10 
f 12/12/12 11/11/11 10/10/10 
f 13/13/13 11/11/11 12/12/12 
f 14/14/14 13/13/13 12/12/12 
f 15/15/15 13/13/13 14/14/14 
f 16/16/16 15/15/15 14/14/14 
f 17/17/17 15/15/15 16/16/16 
f 18/18/18 17/17/17 16/16/16 
f 19/19/19 17/17/17 18/18/18 
f 20/20/20 19/19/19 18/18/18 
f 21/21/21 19/19/19 20/20/20 
f 22/22/22 21/21/21 20/20/20 
f 23/23/23 21/21/21 22/22/22 
f 24/24/24 23/23/23 22/22/22 
f 25/25/25 23/23/23 24/24/24 
f 26/26/26 25/25/25 24/24/24 
f 27/27/27 25/25/25 26/26/26 
f 28/28/28 27/27/27 26/26/26 
f 29/29/29 27/27/27 28/28/28 
f 30/30/30 29/29/29 28/28/28 
f 31/31/31 29/29/29 30/30/30 
f 32/32/32 31/31/31 30/30/30 
f 33/33/33 31/31/31 32/32/32 
f 34/34/34 33/33/33 32/32/32 
f 35/35/35 33/33/33 34/34/34 
f 36/36/36 35/35/35 34/34/34 
f 37/37/37 35/35/35 36/36/36 
f 38/38/38 37/37/37 36/36/36 
f 39/39/39 37/37/37 38/38/38 
f 40/40/40 39/39/39 38/38/38 
f 41/41/41 39/39/39 40/40/40 
f 42/42/42 41/41/41 40/40/40 
f 43/43/43 41/41/41 42/42/42 
f 44/44/44 43/43/43 42/42/42 
f 45/45/45 43/43/43 44/44/44 
f 46/46/46 45/45/45 44/44/44 
f 47/47/47 45/45/45 46/46/46 
f 48/48/48 47/47/47 46/46/46 
f 49/49/49 47/47/47 48/48/48 
f 50/50/50 49/49/49 48/48/48 
f 51/51/51 49/49/49 50/50/50 
f 52/52/52 51/51/51 50/50/50 
f 53/53/53 51/51/51 52/52/52 
f 54/54/54 53/53/53 52/52/52 
f 55/55/55 53/53/53 54/54/54 
f 56/56/56 55/55/55 54/54/54 
f 57/57/57 55/55/55 56/56/56 
f 58/58/58 57/57/57 56/56/56 
f 59/59/59 57/57/57 58/58/58 
f 60/60/60 59/59/59 58/58/58 
f 61/61/61 59/59/59 60/60/60 
f 62/62/62 61/61/61 60/60/60 
f 63/63/63 61/61/61 62/62/62 
f 64/64/64 63/63/63 62/62/62 
f 65/65/65 63/63/63 64/64/64 
f 66/66/66 65/65/65 64/64/64 
f 67/67/67 65/65/65 66/66/66 
f 68/68/68 67/67/67 66/66/66 
f 69/69/69 67/67/67 68/68/68 
f 70/70/70 69/69/69 68/68/68 
f 71/71/71 69/69/69 70/70/70 
f 72/72/72 71/71/71 70/70/70 
f 59/59/59 73/73/73 57/57/57 
f 74/74/74 73/73/73 59/59/59 
f 61/61/61 74/74/74 59/59/59 
f 75/75/75 74/74/74 61/61/61 
f 63/63/63 75/75/75 61/61/61 
f 76/76/76 75/75/75 63/63/63 
f 65/65/65 76/76/76 63/63/63 
f 77/77/77 76/76/76 65/65/65 
f 67/67/67 77/77/77 65/65/65 
f 78/78/78 77/77/77 67/67/67 
f 69/69/69 78/78/78 67/67/67 
f 79/79/79 78/78/78 69/69/69 
f 71/71/71 79/79/79 69/69/69 
f 74/74/74 80/80/80 73/73/73 
f 80/80/80 81/81/81 73/73/73 
f 73/73/73 81/81/81 82/82/82 
f 73/73/73 82/82/82 57/57/57 
f 57/57/57 82/82/82 55/55/55 
f 82/82/82 83/83/83 55/55/55 
f 55/55/55 83/83/83 53/53/53 
f 83/83/83 84/84/84 53/53/53 
f 53/53/53 84/84/84 51/51/51 
f 84/84/84 85/85/85 51/51/51 
f 51/51/51 85/85/85 49/49/49 
f 85/85/85 86/86/86 49/49/49 
f 49/49/49 86/86/86 47/47/47 
f 86/86/86 87/87/87 47/47/47 
f 47/47/47 87/87/87 45/45/45 
f 87/87/87 88/88/88 45/45/45 
f 45/45/45 88/88/88 43/43/43 
f 88/88/88 89/89/89 43/43/43 
f 43/43/43 89/89/89 41/41/41 
f 89/89/89 90/90/90 41/41/41 
f 41/41/41 90/90/90 39/39/39 
f 90/90/90 91/91/91 39/39/39 
f 39/39/39 91/91/91 37/37/37 
f 91/91/91 92/92/92 37/37/37 
f 37/37/37 92/92/92 35/35/35 
f 92/92/92 93/93/93 35/35/35 
f 35/35/35 93/93/93 33/33/33 
f 93/93/93 94/94/94 33/33/33 
f 33/33/33 94/94/94 31/31/31 
f 94/94/94 95/95/95 31/31/31 
f 31/31/31 95/95/95 29/29/29 
f 95/95/95 96/96/96 29/29/29 
f 29/29/29 96/96/96 27/27/27 
f 96/96/96 97/97/97 27/27/27 
f 27/27/27 97/97/97 25/25/25 
f 97/97/97 98/98/98 25/25/25 
f 25/25/25 98/98/98 23/23/23 
f 98/98/98 99/99/99 23/23/23 
f 23/23/23 99/99/99 21/21/21 
f 99/99/99 100/100/100 21/21/21 
f 21/21/21 100/100/100 19/19/19 
f 100/100/100 101/101/101 19/19/19 
f 19/19/19 101/101/101 17/17/17 
f 101/101/101 102/102/102 17/17/17 
f 17/17/17 102/102/102 15/15/15 
f 102/102/102 103/103/103 15/15/15 
f 15/15/15 103/103/103 13/13/13 
f 103/103/103 104/104/104 13/13/13 
f 13/13/13 104/104/104 11/11/11 
f 104/104/104 105/105/105 11/11/11 
f 11/11/11 105/105/105 9/9/9 
f 105/105/105 106/106/106 9/9/9 
f 9/9/9 106/106/106 7/7/7 
f 106/106/106 107/107/107 7/7/7 
f 7/7/7 107/107/107 5/5/5 
f 107/107/107 108/108/108 5/5/5 
f 5/5/5 108/108/108 3/3/3 
f 108/108/108 109/109/109 3/3/3 
f 3/3/3 109/109/109 2/2/2 
f 109/109/109 110/110/110 2/2/2 
f 109/109/109 111/111/111 110/110/110 
f 111/111/111 112/112/112 110/110/110 
f 113/113/113 111/111/111 109/109/109 
f 108/108/108 113/113/113 109/109/109 
f 114/114/114 113/113/113 108/108/108 
f 107/107/107 114/114/114 108/108/108 
f 115/115/115 114/114/114 107/107/107 
f 106/106/106 115/115/115 107/107/107 
f 116/116/116 115/115/115 106/106/106 
f 105/105/105 116/116/116 106/106/106 
f 117/117/117 116/116/116 105/105/105 
f 104/104/104 117/117/117 105/105/105 
f 118/118/118 117/117/117 104/104/104 
f 103/103/103 118/118/118 104/104/104 
f 119/119/119 118/118/118 103/103/103 
f 102/102/102 119/119/119 103/103/103 
f 120/120/120 119/119/119 102/102/102 
f 101/101/101 120/120/120 102/102/102 
f 121/121/121 120/120/120 101/101/101 
f 100/100/100 121/121/121 101/101/101 
f 122/122/122 121/121/121 100/100/100 
f 99/99/99 122/122/122 100/100/100 
f 123/123/123 122/122/122 99/99/99 
f 98/98/98 123/123/123 99/99/99 
f 124/124/124 123/123/123 98/98/98 
f 97/97/97 124/124/124 98/98/98 
f 125/125/125 124/124/124 97/97/97 
f 96/96/96 125/125/125 97/97/97 
f 126/126/126 125/125/125 96/96/96 
f 95/95/95 126/126/126 96/96/96 
f 127/127/127 126/126/126 95/95/95 
f 94/94/94 127/127/127 95/95/95 
f 128/128/128 127/127/127 94/94/94 
f 93/93/93 128/128/128 94/94/94 
f 129/129/129 128/128/128 93/93/93 
f 92/92/92 129/129/129 93/93/93 
f 130/130/130 129/129/129 92/92/92 
f 91/91/91 130/130/130 92/92/92 
f 131/131/131 130/130/130 91/91/91 
f 90/90/90 131/131/131 91/91/91 
f 132/132/132 131/131/131 90/90/90 
f 89/89/89 132/132/132 90/90/90 
f 133/133/133 132/132/132 89/89/89 
f 88/88/88 133/133/133 89/89/89 
f 134/134/134 133/133/133 88/88/88 
f 87/87/87 134/134/134 88/88/88 
f 135/135/135 134/134/134 87/87/87 
f 86/86/86 135/135/135 87/87/87 
f 136/136/136 135/135/135 86/86/86 
f 85/85/85 136/136/136 86/86/86 
f 137/137/137 136/136/136 85/85/85 
f 84/84/84 137/137/137 85/85/85 
f 138/138/138 137/137/137 84/84/84 
f 83/83/83 138/138/138 84/84/84 
f 139/139/139 138/138/138 83/83/83 
f 82/82/82 139/139/139 83/83/83 
f 81/81/81 139/139/139 82/82/82 
f 134/134/134 140/140/140 133/133/133 
f 140/140/140 141/141/141 133/133/133 
f 142/142/142 140/140/140 134/134/134 
f 135/135/135 142/142/142 134/134/134 
f 143/143/143 142/142/142 135/135/135 
f 136/136/136 143/143/143 135/135/135 
f 144/144/144 143/143/143 136/136/136 
f 137/137/137 144/144/144 136/136/136 
f 145/145/145 144/144/144 137/137/137 
f 138/138/138 145/145/145 137/137/137 
f 146/146/146 145/145/145 138/138/138 
f 139/139/139 146/146/146 138/138/138 
f 147/147/147 146/146/146 139/139/139 
f 81/81/81 147/147/147 139/139/139 
f 148/148/148 147/147/147 81/81/81 
f 80/80/80 148/148/148 81/81/81 
f 149/149/149 148/148/148 80/80/80 
f 150/150/150 149/149/149 80/80/80 
f 150/150/150 80/80/80 74/74/74 
f 75/75/75 150/150/150 74/74/74 
f 151/151/151 150/150/150 75/75/75 
f 76/76/76 151/151/151 75/75/75 
f 152/152/152 151/151/151 76/76/76 
f 77/77/77 152/152/152 76/76/76 
f 153/153/153 152/152/152 77/77/77 
f 78/78/78 153/153/153 77/77/77 
f 154/154/154 153/153/153 78/78/78 
f 79/79/79 154/154/154 78/78/78 
f 155/155/155 149/149/149 150/150/150 
f 151/151/151 155/155/155 150/150/150 
f 156/156/156 155/155/155 151/151/151 
f 152/152/152 156/156/156 151/151/151 
f 157/157/157 156/156/156 152/152/152 
f 153/153/153 157/157/157 152/152/152 
f 158/158/158 157/157/157 153/153/153 
f 154/154/154 158/158/158 153/153/153 
f 155/155/155 159/159/159 149/149/149 
f 160/160/160 159/159/159 155/155/155 
f 156/156/156 160/160/160 155/155/155 
f 161/161/161 160/160/160 156/156/156 
f 157/157/157 161/161/161 156/156/156 
f 162/162/162 161/161/161 157/157/157 
f 158/158/158 162/162/162 157/157/157 
f 160/160/160 163/163/163 159/159/159 
f 163/163/163 164/164/164 159/159/159 
f 159/159/159 164/164/164 165/165/165 
f 159/159/159 165/165/165 149/149/149 
f 149/149/149 165/165/165 148/148/148 
f 165/165/165 166/166/166 148/148/148 
f 148/148/148 166/166/166 147/147/147 
f 166/166/166 167/167/167 147/147/147 
f 147/147/147 167/167/167 146/146/146 
f 167/167/167 168/168/168 146/146/146 
f 146/146/146 168/168/168 145/145/145 
f 168/168/168 169/169/169 145/145/145 
f 145/145/145 169/169/169 144/144/144 
f 169/169/169 170/170/170 144/144/144 
f 144/144/144 170/170/170 143/143/143 
f 170/170/170 171/171/171 143/143/143 
f 143/143/143 171/171/171 142/142/142 
f 171/171/171 172/172/172 142/142/142 
f 142/142/142 172/172/172 140/140/140 
f 172/172/172 173/173/173 140/140/140 
f 140/140/140 173/173/173 141/141/141 
f 173/173/173 174/174/174 141/141/141 
f 141/141/141 174/174/174 175/175/175 
f 141/141/141 175/175/175 132/132/132 
f 132/132/132 175/175/175 131/131/131 
f 175/175/175 176/176/176 131/131/131 
f 131/131/131 176/176/176 130/130/130 
f 176/176/176 177/177/177 130/130/130 
f 130/130/130 177/177/177 129/129/129 
f 177/177/177 178/178/178 129/129/129 
f 129/129/129 178/178/178 128/128/128 
f 178/178/178 179/179/179 128/128/128 
f 128/128/128 179/179/179 127/127/127 
f 179/179/179 180/180/180 127/127/127 
f 127/127/127 180/180/180 126/126/126 
f 180/180/180 181/181/181 126/126/126 
f 126/126/126 181/181/181 125/125/125 
f 181/181/181 182/182/182 125/125/125 
f 125/125/125 182/182/182 124/124/124 
f 182/182/182 183/183/183 124/124/124 
f 124/124/124 183/183/183 123/123/123 
f 183/183/183 184/184/184 123/123/123 
f 123/123/123 184/184/184 122/122/122 
f 184/184/184 185/185/185 122/122/122 
f 122/122/122 185/185/185 121/121/121 
f 185/185/185 186/186/186 121/121/121 
f 121/121/121 186/186/186 120/120/120 
f 186/186/186 187/187/187 120/120/120 
f 120/120/120 187/187/187 119/119/119 
f 187/187/187 188/188/188 119/119/119 
f 119/119/119 188/188/188 118/118/118 
f 188/188/188 189/189/189 118/118/118 
f 118/118/118 189/189/189 117/117/117 
f 189/189/189 190/190/190 117/117/117 
f 117/117/117 190/190/190 116/116/116 
f 190/190/190 191/191/191 116/116/116 
f 116/116/116 191/191/191 115/115/115 
f 191/191/191 192/192/192 115/115/115 
f 115/115/115 192/192/192 114/114/114 
f 192/192/192 193/193/193 114/114/114 
f 114/114/114 193/193/193 113/113/113 
f 193/193/193 194/194/194 113/113/113 
f 113/113/113 194/194/194 111/111/111 
f 194/194/194 195/195/195 111/111/111 
f 111/111/111 195/195/195 112/112/112 
f 195/195/195 196/196/196 112/112/112 
f 195/195/195 197/197/197 196/196/196 
f 197/197/197 198/198/198 196/196/196 
f 199/199/199 197/197/197 195/195/195 
f 194/194/194 199/199/199 195/195/195 
f 200/200/200 199/199/199 194/194/194 
f 193/193/193 200/200/200 194/194/194 
f 201/201/201 200/200/200 193/193/193 
f 192/192/192 201/201/201 193/193/193 
f 202/202/202 201/201/201 192/192/192 
f 191/191/191 202/202/202 192/192/192 
f 203/203/203 202/202/202 191/191/191 
f 190/190/190 203/203/203 191/191/191 
f 204/204/204 203/203/203 190/190/190 
f 189/189/189 204/204/204 190/190/190 
f 205/205/205 204/204/204 189/189/189 
f 188/188/188 205/205/205 189/189/189 
f 206/206/206 205/205/205 188/188/188 
f 187/187/187 206/206/206 188/188/188 
f 207/207/207 206/206/206 187/187/187 
f 186/186/186 207/207/207 187/187/187 
f 208/208/208 207/207/207 186/186/186 
f 185/185/185 208/208/208 186/186/186 
f 209/209/209 208/208/208 185/185/185 
f 184/184/184 209/209/209 185/185/185 
f 210/210/210 209/209/209 184/184/184 
f 183/183/183 210/210/210 184/184/184 
f 211/211/211 210/210/210 183/183/183 
f 182/182/182 211/211/211 183/183/183 
f 212/212/212 211/211/211 182/182/182 
f 181/181/181 212/212/212 182/182/182 
f 213/213/213 212/212/212 181/181/181 
f 180/180/180 213/213/213 181/181/181 
f 214/214/214 213/213/213 180/180/180 
f 179/179/179 214/214/214 180/180/180 
f 215/215/215 214/214/214 179/179/179 
f 178/178/178 215/215/215 179/179/179 
f 216/216/216 215/215/215 178/178/178 
f 177/177/177 216/216/216 178/178/178 
f 217/217/217 216/216/216 177/177/177 
f 176/176/176 217/217/217 177/177/177 
f 218/218/218 217/217/217 176/176/176 
f 175/175/175 218/218/218 176/176/176 
f 174/174/174 218/218/218 175/175/175 
f 213/213/213 219/219/219 212/212/212 
f 219/219/219 220/220/220 212/212/212 
f 221/221/221 219/219/219 213/213/213 
f 214/214/214 221/221/221 213/213/213 
f 222/222/222 221/221/221 214/214/214 
f 215/215/215 222/222/222 214/214/214 
f 223/223/223 222/222/222 215/215/215 
f 216/216/216 223/223/223 215/215/215 
f 224/224/224 223/223/223 216/216/216 
f 217/217/217 224/224/224 216/216/216 
f 225/225/225 224/224/224 217/217/217 
f 218/218/218 225/225/225 217/217/217 
f 226/226/226 225/225/225 218/218/218 
f 174/174/174 226/226/226 218/218/218 
f 227/227/227 226/226/226 174/174/174 
f 173/173/173 227/227/227 174/174/174 
f 228/228/228 227/227/227 173/173/173 
f 172/172/172 228/228/228 173/173/173 
f 229/229/229 228/228/228 172/172/172 
f 171/171/171 229/229/229 172/172/172 
f 230/230/230 229/229/229 171/171/171 
f 170/170/170 230/230/230 171/171/171 
f 231/231/231 230/230/230 170/170/170 
f 169/169/169 231/231/231 170/170/170 
f 232/232/232 231/231/231 169/169/169 
f 168/168/168 232/232/232 169/169/169 
f 233/233/233 232/232/232 168/168/168 
f 167/167/167 233/233/233 168/168/168 
f 234/234/234 233/233/233 167/167/167 
f 166/166/166 234/234/234 167/167/167 
f 235/235/235 234/234/234 166/166/166 
f 165/165/165 235/235/235 166/166/166 
f 164/164/164 235/235/235 165/165/165 
f 230/230/230 236/236/236 229/229/229 
f 236/236/236 237/237/237 229/229/229 
f 238/238/238 236/236/236 230/230/230 
f 231/231/231 238/238/238 230/230/230 
f 239/239/239 238/238/238 231/231/231 
f 232/232/232 239/239/239 231/231/231 
f 240/240/240 239/239/239 232/232/232 
f 233/233/233 240/240/240 232/232/232 
f 241/241/241 240/240/240 233/233/233 
f 234/234/234 241/241/241 233/233/233 
f 242/242/242 241/241/241 234/234/234 
f 235/235/235 242/242/242 234/234/234 
f 243/243/243 242/242/242 235/235/235 
f 164/164/164 243/243/243 235/235/235 
f 244/244/244 243/243/243 164/164/164 
f 163/163/163 244/244/244 164/164/164 
f 245/245/245 244/244/244 163/163/163 
f 246/246/246 245/245/245 163/163/163 
f 246/246/246 163/163/163 160/160/160 
f 161/161/161 246/246/246 160/160/160 
f 247/247/247 246/246/246 161/161/161 
f 162/162/162 247/247/247 161/161/161 
f 248/248/248 245/245/245 246/246/246 
f 247/247/247 248/248/248 246/246/246 
f 239/239/239 249/249/249 238/238/238 
f 249/249/249 250/250/250 238/238/238 
f 251/251/251 249/249/249 239/239/239 
f 240/240/240 251/251/251 239/239/239 
f 252/252/252 251/251/251 240/240/240 
f 241/241/241 252/252/252 240/240/240 
f 253/253/253 252/252/252 241/241/241 
f 242/242/242 253/253/253 241/241/241 
f 254/254/254 253/253/253 242/242/242 
f 243/243/243 254/254/254 242/242/242 
f 255/255/255 254/254/254 243/243/243 
f 244/244/244 255/255/255 243/243/243 
f 256/256/256 255/255/255 244/244/244 
f 245/245/245 256/256/256 244/244/244 
f 257/257/257 256/256/256 245/245/245 
f 248/248/248 257/257/257 245/245/245 
f 252/252/252 258/258/258 251/251/251 
f 258/258/258 259/259/259 251/251/251 
f 260/260/260 258/258/258 252/252/252 
f 253/253/253 260/260/260 252/252/252 
f 261/261/261 260/260/260 253/253/253 
f 254/254/254 261/261/261 253/253/253 
f 262/262/262 261/261/261 254/254/254 
f 255/255/255 262/262/262 254/254/254 
f 263/263/263 262/262/262 255/255/255 
f 256/256/256 263/263/263 255/255/255 
f 264/264/264 263/263/263 256/256/256 
f 257/257/257 264/264/264 256/256/256 
f 258/258/258 265/265/265 259/259/259 
f 265/265/265 266/266/266 259/259/259 
f 259/259/259 266/266/266 267/267/267 
f 259/259/259 267/267/267 249/249/249 
f 249/249/249 267/267/267 250/250/250 
f 267/267/267 268/268/268 250/250/250 
f 250/250/250 268/268/268 269/269/269 
f 250/250/250 269/269/269 236/236/236 
f 236/236/236 269/269/269 237/237/237 
f 269/269/269 270/270/270 237/237/237 
f 237/237/237 270/270/270 271/271/271 
f 237/237/237 271/271/271 228/228/228 
f 228/228/228 271/271/271 227/227/227 
f 271/271/271 272/272/272 227/227/227 
f 227/227/227 272/272/272 226/226/226 
f 272/272/272 273/273/273 226/226/226 
f 226/226/226 273/273/273 225/225/225 
f 273/273/273 274/274/274 225/225/225 
f 225/225/225 274/274/274 224/224/224 
f 274/274/274 275/275/275 224/224/224 
f 224/224/224 275/275/275 223/223/223 
f 275/275/275 276/276/276 223/223/223 
f 223/223/223 276/276/276 222/222/222 
f 276/276/276 277/277/277 222/222/222 
f 222/222/222 277/277/277 221/221/221 
f 277/277/277 278/278/278 221/221/221 
f 221/221/221 278/278/278 219/219/219 
f 278/278/278 279/279/279 219/219/219 
f 219/219/219 279/279/279 220/220/220 
f 279/279/279 280/280/280 220/220/220 
f 220/220/220 280/280/280 281/281/281 
f 220/220/220 281/281/281 211/211/211 
f 211/211/211 281/281/281 210/210/210 
f 281/281/281 282/282/282 210/210/210 
f 210/210/210 282/282/282 209/209/209 
f 282/282/282 283/283/283 209/209/209 
f 209/209/209 283/283/283 208/208/208 
f 283/283/283 284/284/284 208/208/208 
f 208/208/208 284/284/284 207/207/207 
f 284/284/284 285/285/285 207/207/207 
f 207/207/207 285/285/285 206/206/206 
f 285/285/285 286/286/286 206/206/206 
f 206/206/206 286/286/286 205/205/205 
f 286/286/286 287/287/287 205/205/205 
f 205/205/205 287/287/287 204/204/204 
f 287/287/287 288/288/288 204/204/204 
f 204/204/204 288/288/288 203/203/203 
f 288/288/288 289/289/289 203/203/203 
f 203/203/203 289/289/289 202/202/202 
f 289/289/289 290/290/290 202/202/202 
f 202/202/202 290/290/290 201/201/201 
f 290/290/290 291/291/291 201/201/201 
f 201/201/201 291/291/291 200/200/200 
f 291/291/291 292/292/292 200/200/200 
f 200/200/200 292/292/292 199/199/199 
f 292/292/292 293/293/293 199/199/199 
f 199/199/199 293/293/293 197/197/197 
f 293/293/293 294/294/294 197/197/197 
f 197/197/197 294/294/294 198/198/198 
f 294/294/294 295/295/295 198/198/198 
f 294/294/294 296/296/296 295/295/295 
f 296/296/296 297/297/297 295/295/295 
f 298/298/298 296/296/296 294/294/294 
f 293/293/293 298/298/298 294/294/294 
f 299/299/299 298/298/298 293/293/293 
f 292/292/292 299/299/299 293/293/293 
f 300/300/300 299/299/299 292/292/292 
f 291/291/291 300/300/300 292/292/292 
f 301/301/301 300/300/300 291/291/291 
f 290/290/290 301/301/301 291/291/291 
f 302/302/302 301/301/301 290/290/290 
f 289/289/289 302/302/302 290/290/290 
f 303/303/303 302/302/302 289/289/289 
f 288/288/288 303/303/303 289/289/289 
f 304/304/304 303/303/303 288/288/288 
f 287/287/287 304/304/304 288/288/288 
f 305/305/305 304/304/304 287/287/287 
f 286/286/286 305/305/305 287/287/287 
f 306/306/306 305/305/305 286/286/286 
f 285/285/285 306/306/306 286/286/286 
f 307/307/307 306/306/306 285/285/285 
f 284/284/284 307/307/307 285/285/285 
f 308/308/308 307/307/307 284/284/284 
f 283/283/283 308/308/308 284/284/284 
f 309/309/309 308/308/308 283/283/283 
f 282/282/282 309/309/309 283/283/283 
f 310/310/310 309/309/309 282/282/282 
f 281/281/281 310/310/310 282/282/282 
f 280/280/280 310/310/310 281/281/281 
f 305/305/305 311/311/311 304/304/304 
f 311/311/311 312/312/312 304/304/304 
f 313/313/313 311/311/311 305/305/305 
f 306/306/306 313/313/313 305/305/305 
f 314/314/314 313/313/313 306/306/306 
f 307/307/307 314/314/314 306/306/306 
f 315/315/315 314/314/314 307/307/307 
f 308/308/308 315/315/315 307/307/307 
f 316/316/316 315/315/315 308/308/308 
f 309/309/309 316/316/316 308/308/308 
f 317/317/317 316/316/316 309/309/309 
f 310/310/310 317/317/317 309/309/309 
f 318/318/318 317/317/317 310/310/310 
f 280/280/280 318/318/318 310/310/310 
f 319/319/319 318/318/318 280/280/280 
f 279/279/279 319/319/319 280/280/280 
f 320/320/320 319/319/319 279/279/279 
f 278/278/278 320/320/320 279/279/279 
f 321/321/321 320/320/320 278/278/278 
f 277/277/277 321/321/321 278/278/278 
f 322/322/322 321/321/321 277/277/277 
f 276/276/276 322/322/322 277/277/277 
f 323/323/323 322/322/322 276/276/276 
f 275/275/275 323/323/323 276/276/276 
f 324/324/324 323/323/323 275/275/275 
f 274/274/274 324/324/324 275/275/275 
f 325/325/325 324/324/324 274/274/274 
f 273/273/273 325/325/325 274/274/274 
f 326/326/326 325/325/325 273/273/273 
f 272/272/272 326/326/326 273/273/273 
f 327/327/327 326/326/326 272/272/272 
f 271/271/271 327/327/327 272/272/272 
f 270/270/270 327/327/327 271/271/271 
f 322/322/322 328/328/328 321/321/321 
f 328/328/328 329/329/329 321/321/321 
f 330/330/330 328/328/328 322/322/322 
f 323/323/323 330/330/330 322/322/322 
f 331/331/331 330/330/330 323/323/323 
f 324/324/324 331/331/331 323/323/323 
f 332/332/332 331/331/331 324/324/324 
f 325/325/325 332/332/332 324/324/324 
f 333/333/333 332/332/332 325/325/325 
f 326/326/326 333/333/333 325/325/325 
f 334/334/334 333/333/333 326/326/326 
f 327/327/327 334/334/334 326/326/326 
f 335/335/335 334/334/334 327/327/327 
f 270/270/270 335/335/335 327/327/327 
f 336/336/336 335/335/335 270/270/270 
f 269/269/269 336/336/336 270/270/270 
f 268/268/268 336/336/336 269/269/269 
f 328/328/328 337/337/337 329/329/329 
f 337/337/337 338/338/338 329/329/329 
f 329/329/329 338/338/338 339/339/339 
f 329/329/329 339/339/339 320/320/320 
f 320/320/320 339/339/339 319/319/319 
f 339/339/339 340/340/340 319/319/319 
f 319/319/319 340/340/340 318/318/318 
f 340/340/340 341/341/341 318/318/318 
f 318/318/318 341/341/341 317/317/317 
f 341/341/341 342/342/342 317/317/317 
f 317/317/317 342/342/342 316/316/316 
f 342/342/342 343/343/343 316/316/316 
f 316/316/316 343/343/343 315/315/315 
f 343/343/343 344/344/344 315/315/315 
f 315/315/315 344/344/344 314/314/314 
f 344/344/344 345/345/345 314/314/314 
f 314/314/314 345/345/345 313/313/313 
f 345/345/345 346/346/346 313/313/313 
f 313/313/313 346/346/346 311/311/311 
f 346/346/346 347/347/347 311/311/311 
f 311/311/311 347/347/347 312/312/312 
f 347/347/347 348/348/348 312/312/312 
f 312/312/312 348/348/348 349/349/349 
f 312/312/312 349/349/349 303/303/303 
f 303/303/303 349/349/349 302/302/302 
f 349/349/349 350/350/350 302/302/302 
f 302/302/302 350/350/350 301/301/301 
f 350/350/350 351/351/351 301/301/301 
f 301/301/301 351/351/351 300/300/300 
f 351/351/351 352/352/352 300/300/300 
f 300/300/300 352/352/352 299/299/299 
f 352/352/352 353/353/353 299/299/299 
f 299/299/299 353/353/353 298/298/298 
f 353/353/353 354/354/354 298/298/298 
f 298/298/298 354/354/354 296/296/296 
f 354/354/354 355/355/355 296/296/296 
f 296/296/296 355/355/355 297/297/297 
f 355/355/355 356/356/356 297/297/297 
f 355/355/355 357/357/357 356/356/356 
f 357/357/357 358/358/358 356/356/356 
f 359/359/359 357/357/357 355/355/355 
f 354/354/354 359/359/359 355/355/355 
f 360/360/360 359/359/359 354/354/354 
f 353/353/353 360/360/360 354/354/354 
f 361/361/361 360/360/360 353/353/353 
f 352/352/352 361/361/361 353/353/353 
f 362/362/362 361/361/361 352/352/352 
f 351/351/351 362/362/362 352/352/352 
f 363/363/363 362/362/362 351/351/351 
f 350/350/350 363/363/363 351/351/351 
f 364/364/364 363/363/363 350/350/350 
f 349/349/349 364/364/364 350/350/350 
f 348/348/348 364/364/364 349/349/349 
f 357/357/357 365/365/365 358/358/358 
f 365/365/365 366/366/366 358/358/358 
f 367/367/367 365/365/365 357/357/357 
f 359/359/359 367/367/367 357/357/357 
f 368/368/368 367/367/367 359/359/359 
f 360/360/360 368/368/368 359/359/359 
f 369/369/369 368/368/368 360/360/360 
f 361/361/361 369/369/369 360/360/360 
f 370/370/370 369/369/369 361/361/361 
f 362/362/362 370/370/370 361/361/361 
f 371/371/371 370/370/370 362/362/362 
f 363/363/363 371/371/371 362/362/362 
f 372/372/372 371/371/371 363/363/363 
f 364/364/364 372/372/372 363/363/363 
f 373/373/373 372/372/372 364/364/364 
f 348/348/348 373/373/373 364/364/364 
f 374/374/374 373/373/373 348/348/348 
f 347/347/347 374/374/374 348/348/348 
f 375/375/375 374/374/374 347/347/347 
f 346/346/346 375/375/375 347/347/347 
f 376/376/376 375/375/375 346/346/346 
f 345/345/345 376/376/376 346/346/346 
f 377/377/377 376/376/376 345/345/345 
f 344/344/344 377/377/377 345/345/345 
f 378/378/378 377/377/377 344/344/344 
f 343/343/343 378/378/378 344/344/344 
f 379/379/379 378/378/378 343/343/343 
f 342/342/342 379/379/379 343/343/343 
f 380/380/380 379/379/379 342/342/342 
f 341/341/341 380/380/380 342/342/342 
f 381/381/381 380/380/380 341/341/341 
f 340/340/340 381/381/381 341/341/341 
f 382/382/382 381/381/381 340/340/340 
f 339/339/339 382/382/382 340/340/340 
f 338/338/338 382/382/382 339/339/339 
f 377/377/377 383/383/383 376/376/376 
f 383/383/383 384/384/384 376/376/376 
f 385/385/385 383/383/383 377/377/377 
f 378/378/378 385/385/385 377/377/377 
f 386/386/386 385/385/385 378/378/378 
f 379/379/379 386/386/386 378/378/378 
f 387/387/387 386/386/386 379/379/379 
f 380/380/380 387/387/387 379/379/379 
f 388/388/388 387/387/387 380/380/380 
f 381/381/381 388/388/388 380/380/380 
f 389/389/389 388/388/388 381/381/381 
f 382/382/382 389/389/389 381/381/381 
f 390/390/390 389/389/389 382/382/382 
f 338/338/338 390/390/390 382/382/382 
f 391/391/391 390/390/390 338/338/338 
f 337/337/337 391/391/391 338/338/338 
f 392/392/392 391/391/391 337/337/337 
f 393/393/393 392/392/392 337/337/337 
f 393/393/393 337/337/337 328/328/328 
f 330/330/330 393/393/393 328/328/328 
f 394/394/394 393/393/393 330/330/330 
f 331/331/331 394/394/394 330/330/330 
f 395/395/395 394/394/394 331/331/331 
f 332/332/332 395/395/395 331/331/331 
f 396/396/396 395/395/395 332/332/332 
f 333/333/333 396/396/396 332/332/332 
f 397/397/397 396/396/396 333/333/333 
f 334/334/334 397/397/397 333/333/333 
f 398/398/398 397/397/397 334/334/334 
f 335/335/335 398/398/398 334/334/334 
f 399/399/399 398/398/398 335/335/335 
f 336/336/336 399/399/399 335/335/335 
f 400/400/400 399/399/399 336/336/336 
f 268/268/268 400/400/400 336/336/336 
f 401/401/401 400/400/400 268/268/268 
f 267/267/267 401/401/401 268/268/268 
f 266/266/266 401/401/401 267/267/267 
f 396/396/396 402/402/402 395/395/395 
f 402/402/402 403/403/403 395/395/395 
f 404/404/404 402/402/402 396/396/396 
f 397/397/397 404/404/404 396/396/396 
f 405/405/405 404/404/404 397/397/397 
f 398/398/398 405/405/405 397/397/397 
f 406/406/406 405/405/405 398/398/398 
f 399/399/399 406/406/406 398/398/398 
f 407/407/407 406/406/406 399/399/399 
f 400/400/400 407/407/407 399/399/399 
f 408/408/408 407/407/407 400/400/400 
f 401/401/401 408/408/408 400/400/400 
f 409/409/409 408/408/408 401/401/401 
f 266/266/266 409/409/409 401/401/401 
f 410/410/410 409/409/409 266/266/266 
f 265/265/265 410/410/410 266/266/266 
f 411/411/411 410/410/410 265/265/265 
f 412/412/412 411/411/411 265/265/265 
f 412/412/412 265/265/265 258/258/258 
f 260/260/260 412/412/412 258/258/258 
f 413/413/413 412/412/412 260/260/260 
f 261/261/261 413/413/413 260/260/260 
f 414/414/414 413/413/413 261/261/261 
f 262/262/262 414/414/414 261/261/261 
f 415/415/415 414/414/414 262/262/262 
f 263/263/263 415/415/415 262/262/262 
f 416/416/416 415/415/415 263/263/263 
f 264/264/264 416/416/416 263/263/263 
f 417/417/417 411/411/411 412/412/412 
f 413/413/413 417/417/417 412/412/412 
f 418/418/418 417/417/417 413/413/413 
f 414/414/414 418/418/418 413/413/413 
f 419/419/419 418/418/418 414/414/414 
f 415/415/415 419/419/419 414/414/414 
f 420/420/420 419/419/419 415/415/415 
f 416/416/416 420/420/420 415/415/415 
f 133/133/133 141/141/141 132/132/132 
f 212/212/212 220/220/220 211/211/211 
f 229/229/229 237/237/237 228/228/228 
f 304/304/304 312/312/312 303/303/303 
f 238/238/238 250/250/250 236/236/236 
f 321/321/321 329/329/329 320/320/320 
f 251/251/251 259/259/259 249/249/249 
f 422/422/422 421/421/421 366/366/366 
f 365/365/365 422/422/422 366/366/366 
f 423/423/423 422/422/422 365/365/365 
f 367/367/367 423/423/423 365/365/365 
f 424/424/424 423/423/423 367/367/367 
f 368/368/368 424/424/424 367/367/367 
f 425/425/425 424/424/424 368/368/368 
f 369/369/369 425/425/425 368/368/368 
f 426/426/426 425/425/425 369/369/369 
f 370/370/370 426/426/426 369/369/369 
f 427/427/427 426/426/426 370/370/370 
f 371/371/371 427/427/427 370/370/370 
f 428/428/428 427/427/427 371/371/371 
f 372/372/372 428/428/428 371/371/371 
f 429/429/429 428/428/428 372/372/372 
f 373/373/373 429/429/429 372/372/372 
f 430/430/430 429/429/429 373/373/373 
f 374/374/374 430/430/430 373/373/373 
f 431/431/431 430/430/430 374/374/374 
f 375/375/375 431/431/431 374/374/374 
f 384/384/384 431/431/431 375/375/375 
f 376/376/376 384/384/384 375/375/375 
f 432/432/432 392/392/392 393/393/393 
f 394/394/394 432/432/432 393/393/393 
f 403/403/403 432/432/432 394/394/394 
f 395/395/395 403/403/403 394/394/394 

