v 0.20814281702041626 0.15122462809085846 0.9463464021682739
v 0.20814284682273865 -0.15122461318969727 0.9463464021682739
v -0.07950345426797867 -0.24468658864498138 0.9463464021682739
v -0.07950352132320404 0.2446865439414978 0.9463464021682739
v -0.257278710603714 -4.063233305373615e-08 0.9463464021682739
v 0.9614965319633484 1.6252940326921816e-08 0.19310182332992554
v 0.8819929361343384 -0.24468648433685303 0.352108895778656
v 0.7533536553382874 -0.15122461318969727 0.6093875765800476
v 0.7533535957336426 0.15122461318969727 0.6093875765800476
v 0.8819929361343384 0.2446865439414978 0.352108895778656
v 0.039840057492256165 0.9144374132156372 0.352108895778656
v 0.2971187233924866 0.9144374132156372 0.1931019425392151
v 0.5052615404129028 0.7632128000259399 0.3521089255809784
v 0.08897591382265091 0.7632128596305847 0.6093875765800476
v 0.37662220001220703 0.6697509288787842 0.6093875765800476
v -0.6983635425567627 0.3204668462276459 0.6093875765800476
v -0.8573704361915588 0.3204667866230011 0.352108895778656
v -0.7778670191764832 0.5651533603668213 0.1931019276380539
v -0.5205883979797363 0.5651533603668213 0.6093875765800476
v -0.5697242021560669 0.7163779735565186 0.352108895778656
v -0.5205882787704468 -0.5651534795761108 0.6093875765800476
v -0.5697241425514221 -0.7163780927658081 0.352108895778656
v -0.7778669595718384 -0.5651535391807556 0.1931019276380539
v -0.8573704361915588 -0.3204669952392578 0.352108895778656
v -0.6983634829521179 -0.3204669654369354 0.6093875765800476
v 0.5052617192268372 -0.7632127404212952 0.352108895778656
v 0.2971188426017761 -0.9144374132156372 0.19310197234153748
v 0.039840154349803925 -0.9144374132156372 0.352108895778656
v 0.3766223192214966 -0.6697508692741394 0.6093875765800476
v 0.08897602558135986 -0.7632128596305847 0.6093875765800476
v 0.5205882787704468 0.5651534199714661 -0.6093875765800476
v 0.6983635425567627 0.32046690583229065 -0.6093875765800476
v 0.8573704957962036 0.32046690583229065 -0.3521088659763336
v 0.7778670191764832 0.5651534199714661 -0.1931018978357315
v 0.5697241425514221 0.7163780331611633 -0.352108895778656
v -0.5052616000175476 0.7632127404212952 -0.352108895778656
v -0.3766222596168518 0.6697508692741394 -0.6093875765800476
v -0.0889759510755539 0.7632128000259399 -0.6093875765800476
v -0.039840105921030045 0.9144374132156372 -0.352108895778656
v -0.29711878299713135 0.9144374132156372 -0.19310197234153748
v -0.9614964127540588 -8.918848948269442e-08 -0.1931019276380539
v -0.8819929361343384 -0.24468666315078735 -0.352108895778656
v -0.7533535957336426 -0.15122465789318085 -0.6093875765800476
v -0.7533535957336426 0.1512245237827301 -0.6093875765800476
v -0.8819929361343384 0.24468648433685303 -0.352108895778656
v -0.039840154349803925 -0.9144374132156372 -0.352108895778656
v -0.08897600322961807 -0.7632127404212952 -0.6093875765800476
v -0.3766223192214966 -0.6697508692741394 -0.6093875765800476
v -0.5052616596221924 -0.7632128000259399 -0.352108895778656
v -0.29711881279945374 -0.9144374132156372 -0.1931019425392151
v 0.5205884575843811 -0.565153181552887 -0.6093875765800476
v 0.5697243809700012 -0.7163777947425842 -0.3521089255809784
v 0.7778671383857727 -0.565153181552887 -0.1931018978357315
v 0.6983636021614075 -0.32046663761138916 -0.6093875169754028
v 0.8573704957962036 -0.3204666078090668 -0.352108895778656
v 0.07950347661972046 -0.24468648433685303 -0.9463464021682739
v 0.2572787404060364 4.875881032262441e-08 -0.9463464021682739
v 0.07950350642204285 0.2446865439414978 -0.9463464021682739
v -0.20814284682273865 0.15122461318969727 -0.9463464021682739
v -0.20814286172389984 -0.15122462809085846 -0.9463464021682739
v 0.7202551960945129 0.15122462809085846 0.6456047892570496
v 0.7202552556991577 -0.15122459828853607 0.64560467004776
v 0.48717424273490906 -0.2880544364452362 0.7882644534111023
v 0.4871741831302643 0.288054496049881 0.7882644534111023
v 0.2553384602069855 -0.15122459828853607 0.9329390525817871
v 0.25533849000930786 0.15122456848621368 0.9329390525817871
v 0.3663942217826843 0.6382725238800049 0.6456047296524048
v 0.4245011806488037 0.374316543340683 0.7882644534111023
v 0.22272710502147675 0.19611036777496338 0.9329390525817871
v 0.07874792814254761 0.7317342758178711 0.6456047296524048
v -0.06491919606924057 0.28957226872444153 0.9329390525817871
v -0.12341099977493286 0.5523439049720764 0.7882644534111023
v -0.22481808066368103 0.5193947553634644 0.7882644534111023
v -0.11768559366464615 0.2724274694919586 0.9329390525817871
v -0.2954607307910919 0.02774089388549328 0.9329390525817871
v -0.4938111901283264 0.5456985831260681 0.6456047296524048
v -0.5634464025497437 0.05331280454993248 0.7882644534111023
v -0.6715863347053528 0.3010120391845703 0.6456047892570496
v -0.2954607307910919 -0.02774091809988022 0.9329390525817871
v -0.11768549680709839 -0.2724274694919586 0.9329390525817871
v -0.22481803596019745 -0.5193948149681091 0.7882644534111023
v -0.49381107091903687 -0.5456987619400024 0.6456047296524048
v -0.5634463429450989 -0.05331294983625412 0.7882644534111023
v -0.6715862154960632 -0.30101221799850464 0.6456047296524048
v 0.22272711992263794 -0.1961103081703186 0.9329390525817871
v 0.4245012104511261 -0.3743164539337158 0.7882644534111023
v 0.3663943409919739 -0.6382724046707153 0.64560467004776
v 0.07874804735183716 -0.7317343950271606 0.6456047296524048
v -0.06491919606924057 -0.2895722985267639 0.9329390525817871
v -0.12341092526912689 -0.5523439645767212 0.7882644534111023
v 0.8634787797927856 0.28957226872444153 0.359157532453537
v 0.7348394989967346 0.19611036777496338 0.6164361834526062
v 0.5152024626731873 0.3743165135383606 0.7322080135345459
v 0.7602362632751465 0.5523439645767212 0.24214045703411102
v 0.41358986496925354 0.6382724642753601 0.6164361834526062
v 0.5422292351722717 0.7317343950271606 0.359157532453537
v -0.5283628106117249 0.7418089509010315 0.359157532453537
v -0.290384441614151 0.8937112092971802 0.2421405017375946
v -0.008569994941353798 0.9106999039649963 0.359157532453537
v -0.47922685742378235 0.590584397315979 0.6164361834526062
v 0.04056583717465401 0.7594753503799438 0.6164361834526062
v -0.19678984582424164 0.6056568026542664 0.7322080135345459
v -0.7097684144973755 -0.27327126264572144 0.6164361834526062
v -0.8687753677368164 -0.2732713222503662 0.359157532453537
v -0.9397037029266357 -9.914037946145982e-08 0.24214042723178864
v -0.6368252635002136 -8.995075972961786e-08 0.7322080135345459
v -0.8687753677368164 0.2732711434364319 0.3591574728488922
v -0.7097684144973755 0.2732710838317871 0.6164361834526062
v -0.008569946512579918 -0.9106999039649963 0.359157532453537
v -0.2903843820095062 -0.8937113285064697 0.24214045703411102
v -0.5283626914024353 -0.7418091297149658 0.359157532453537
v 0.04056593403220177 -0.7594752907752991 0.6164361834526062
v -0.4792267978191376 -0.5905845165252686 0.6164361834526062
v -0.19678977131843567 -0.6056568026542664 0.7322080135345459
v 0.7602362632751465 -0.5523438453674316 0.24214042723178864
v 0.542229413986206 -0.7317342758178711 0.359157532453537
v 0.4135899543762207 -0.6382724642753601 0.6164361834526062
v 0.5152024626731873 -0.3743164837360382 0.7322080135345459
v 0.8634788990020752 -0.28957220911979675 0.3591575026512146
v 0.7348394989967346 -0.1961103081703186 0.6164361834526062
v 0.9570260643959045 0.05331294983625412 -0.15143920481204987
v 0.9665801525115967 0.02774089388549328 0.15295492112636566
v 0.8870766758918762 0.2724274694919586 0.3119618594646454
v 0.8777889609336853 0.30101215839385986 -0.31196191906929016
v 0.8055868744850159 0.5193948149681091 0.15143918991088867
v 0.7982854843139648 0.5456986427307129 -0.15295487642288208
v -0.27230656147003174 0.9278447031974792 -0.15295490622520447
v -0.015027869492769241 0.9278447031974792 -0.3119618594646454
v 0.24503378570079803 0.9266603589057922 -0.15143918991088867
v -0.24503380060195923 0.9266603589057922 0.15143917500972748
v 0.27230650186538696 0.9278447031974792 0.15295490622520447
v 0.015027804300189018 0.9278447031974792 0.311961829662323
v -0.9570260643959045 0.05331273376941681 0.15143920481204987
v -0.9665801525115967 0.02774082124233246 -0.15295487642288208
v -0.8870766758918762 0.27242738008499146 -0.31196191906929016
v -0.8777889609336853 0.3010120689868927 0.3119618594646454
v -0.8055868744850159 0.5193947553634644 -0.15143921971321106
v -0.7982854843139648 0.5456986427307129 0.15295492112636566
v -0.32507291436195374 -0.9106999039649963 -0.15295489132404327
v -0.5332157015800476 -0.7594753503799438 -0.31196191906929016
v -0.7429138422012329 -0.6056568026542664 -0.15143918991088867
v -0.346440851688385 -0.8937113285064697 0.15143917500972748
v -0.7656741142272949 -0.5905845165252686 0.15295490622520447
v -0.5575312376022339 -0.741809070110321 0.3119618594646454
v 0.7656742930412292 -0.5905842185020447 -0.15295487642288208
v 0.557531476020813 -0.7418088316917419 -0.311961829662323
v 0.3464411199092865 -0.8937111496925354 -0.15143917500972748
v 0.7429139614105225 -0.6056567430496216 0.15143917500972748
v 0.32507309317588806 -0.9106998443603516 0.15295489132404327
v 0.5332158207893372 -0.7594751715660095 0.3119618594646454
v 0.8777890205383301 -0.30101191997528076 -0.31196194887161255
v 0.7982856035232544 -0.5456984639167786 -0.15295490622520447
v 0.8055869340896606 -0.5193946957588196 0.15143917500972748
v 0.8870766758918762 -0.27242735028266907 0.3119618594646454
v 0.9570260643959045 -0.05331263691186905 -0.15143920481204987
v 0.9665801525115967 -0.02774079702794552 0.15295489132404327
v 0.346440851688385 0.8937112092971802 -0.15143917500972748
v 0.5575312972068787 0.7418090105056763 -0.31196191906929016
v 0.7656741142272949 0.5905844569206238 -0.15295490622520447
v 0.7429138422012329 0.6056568026542664 0.15143921971321106
v 0.32507285475730896 0.9106999039649963 0.15295490622520447
v 0.5332157015800476 0.7594752907752991 0.3119618594646454
v -0.7429139018058777 0.6056567430496216 -0.15143917500972748
v -0.5332157015800476 0.7594752311706543 -0.3119618594646454
v -0.32507291436195374 0.9106998443603516 -0.15295490622520447
v -0.3464408814907074 0.8937112092971802 0.15143921971321106
v -0.7656741142272949 0.5905843377113342 0.15295490622520447
v -0.5575312972068787 0.7418090105056763 0.311961829662323
v -0.8777888417243958 -0.30101218819618225 0.3119618594646454
v -0.7982853651046753 -0.5456987619400024 0.15295490622520447
v -0.8055868744850159 -0.5193948149681091 -0.15143921971321106
v -0.8870766758918762 -0.272427499294281 -0.3119618594646454
v -0.9570260643959045 -0.05331294983625412 0.15143921971321106
v -0.9665801525115967 -0.02774099074304104 -0.15295492112636566
v 0.24503383040428162 -0.9266603589057922 -0.15143917500972748
v -0.015027857385575771 -0.9278447031974792 -0.311961829662323
v -0.27230656147003174 -0.9278447031974792 -0.15295490622520447
v -0.24503375589847565 -0.9266604781150818 0.15143921971321106
v 0.27230656147003174 -0.9278447031974792 0.15295487642288208
v 0.015027886256575584 -0.9278447031974792 0.3119618594646454
v -0.040565863251686096 0.7594752907752991 -0.6164361834526062
v 0.19678983092308044 0.6056568026542664 -0.7322080135345459
v 0.47922685742378235 0.590584397315979 -0.6164361834526062
v 0.008569946512579918 0.9106998443603516 -0.3591574728488922
v 0.5283628106117249 0.7418089509010315 -0.359157532453537
v 0.2903844118118286 0.8937112092971802 -0.2421405017375946
v -0.8634788990020752 0.28957220911979675 -0.359157532453537
v -0.7348394989967346 0.19611024856567383 -0.6164361834526062
v -0.5152024626731873 0.37431642413139343 -0.7322080135345459
v -0.7602362632751465 0.5523439049720764 -0.24214045703411102
v -0.4135899543762207 0.6382723450660706 -0.6164361834526062
v -0.5422292947769165 0.7317343950271606 -0.359157532453537
v -0.7602362632751465 -0.5523439645767212 -0.24214038252830505
v -0.5422292351722717 -0.7317343950271606 -0.3591574728488922
v -0.4135899543762207 -0.6382724642753601 -0.6164361834526062
v -0.5152024626731873 -0.3743164837360382 -0.7322080135345459
v -0.8634788990020752 -0.2895723581314087 -0.3591574728488922
v -0.7348394989967346 -0.19611036777496338 -0.6164361834526062
v 0.4792269468307495 -0.5905842185020447 -0.616436243057251
v 0.19678989052772522 -0.6056567430496216 -0.7322080135345459
v -0.040565863251686096 -0.7594752311706543 -0.6164361834526062
v 0.5283628702163696 -0.7418088912963867 -0.35915759205818176
v 0.008570067584514618 -0.9106998443603516 -0.35915759205818176
v 0.29038453102111816 -0.8937111496925354 -0.24214057624340057
v 0.709768533706665 -0.2732710540294647 -0.6164361834526062
v 0.8687754273414612 -0.2732710838317871 -0.3591574430465698
v 0.9397037029266357 1.165469285524523e-07 -0.24214035272598267
v 0.6368252635002136 1.5330542169067485e-07 -0.7322080135345459
v 0.8687753677368164 0.27327126264572144 -0.3591574728488922
v 0.7097684144973755 0.2732713222503662 -0.6164361834526062
v 0.5634464025497437 0.05331290140748024 -0.7882644534111023
v 0.6715863943099976 0.30101215839385986 -0.64560467004776
v 0.4938111901283264 0.5456986427307129 -0.6456047296524048
v 0.2954607903957367 0.02774091809988022 -0.9329390525817871
v 0.22481808066368103 0.5193947553634644 -0.7882644534111023
v 0.11768554896116257 0.2724274694919586 -0.9329390525817871
v 0.06491917371749878 0.28957226872444153 -0.9329390525817871
v 0.12341099977493286 0.5523439049720764 -0.7882644534111023
v -0.07874797284603119 0.7317342758178711 -0.64560467004776
v -0.22272710502147675 0.1961103081703186 -0.9329390525817871
v -0.3663942515850067 0.6382724046707153 -0.64560467004776
v -0.4245012104511261 0.37431642413139343 -0.7882644534111023
v -0.48717424273490906 -0.2880544662475586 -0.7882644534111023
v -0.25533849000930786 -0.15122465789318085 -0.9329390525817871
v -0.25533849000930786 0.15122458338737488 -0.9329390525817871
v -0.48717424273490906 0.2880544364452362 -0.7882644534111023
v -0.7202552556991577 -0.15122465789318085 -0.6456047296524048
v -0.7202552556991577 0.15122456848621368 -0.6456047296524048
v -0.07874797284603119 -0.7317342758178711 -0.6456047892570496
v 0.12341098487377167 -0.5523438453674316 -0.7882644534111023
v 0.06491921097040176 -0.28957220911979675 -0.9329390525817871
v -0.22272711992263794 -0.1961103081703186 -0.9329390525817871
v -0.3663943409919739 -0.6382724046707153 -0.64560467004776
v -0.4245012104511261 -0.3743164837360382 -0.7882644534111023
v 0.4938112795352936 -0.5456984043121338 -0.6456047892570496
v 0.6715865135192871 -0.30101191997528076 -0.64560467004776
v 0.5634464621543884 -0.05331270769238472 -0.7882644534111023
v 0.2954608201980591 -0.02774082124233246 -0.9329390525817871
v 0.2248181849718094 -0.5193946361541748 -0.7882644534111023
v 0.11768562346696854 -0.27242735028266907 -0.9329390525817871
v 0.22626686096191406 0.16439251601696014 1.0287494659423828
v 0.22626687586307526 -0.16439250111579895 1.0287494659423828
v -0.08642621338367462 -0.265992671251297 1.0287494659423828
v -0.08642628788948059 0.2659926414489746 1.0287494659423828
v -0.2796812355518341 -4.4170391788611596e-08 1.0287494659423828
v 1.045218825340271 1.7668165597228835e-08 0.2099161595106125
v 0.958792507648468 -0.26599255204200745 0.38276875019073486
v 0.8189519643783569 -0.16439250111579895 0.6624499559402466
v 0.8189518451690674 0.16439250111579895 0.6624500155448914
v 0.958792507648468 0.2659926414489746 0.38276877999305725
v 0.043309133499860764 0.9940620064735413 0.38276875019073486
v 0.3229903280735016 0.9940620064735413 0.20991630852222443
v 0.549257218837738 0.8296695947647095 0.38276880979537964
v 0.09672348946332932 0.8296695947647095 0.6624499559402466
v 0.4094165861606598 0.7280694842338562 0.6624499559402466
v -0.7591735124588013 0.3483714759349823 0.6624499559402466
v -0.9320259690284729 0.3483714461326599 0.38276875019073486
v -0.8455997109413147 0.6143640875816345 0.20991627871990204
v -0.5659186244010925 0.6143640875816345 0.6624499559402466
v -0.6193329691886902 0.7787565588951111 0.38276875019073486
v -0.565918505191803 -0.6143642663955688 0.6624499559402466
v -0.6193328499794006 -0.7787567377090454 0.38276875019073486
v -0.8455997109413147 -0.6143642663955688 0.20991627871990204
v -0.9320259690284729 -0.3483716547489166 0.38276875019073486
v -0.7591734528541565 -0.34837162494659424 0.6624499559402466
v 0.5492573380470276 -0.8296694755554199 0.38276875019073486
v 0.3229904770851135 -0.9940620064735413 0.20991632342338562
v 0.04330923408269882 -0.9940620064735413 0.38276877999305725
v 0.40941667556762695 -0.7280694246292114 0.6624499559402466
v 0.09672361612319946 -0.8296695947647095 0.6624499559402466
v 0.565918505191803 0.6143642067909241 -0.6624499559402466
v 0.7591735124588013 0.3483715355396271 -0.6624499559402466
v 0.9320260286331177 0.3483715355396271 -0.3827687203884125
v 0.8455997109413147 0.6143642067909241 -0.20991624891757965
v 0.6193328499794006 0.7787566184997559 -0.38276875019073486
v -0.5492572784423828 0.8296694755554199 -0.38276875019073486
v -0.4094166159629822 0.7280694246292114 -0.6624499559402466
v -0.0967235341668129 0.8296695947647095 -0.6624499559402466
v -0.043309181928634644 0.9940620064735413 -0.38276875019073486
v -0.32299041748046875 0.9940620064735413 -0.20991632342338562
v -1.0452187061309814 -9.695457237057781e-08 -0.20991627871990204
v -0.958792507648468 -0.26599276065826416 -0.38276875019073486
v -0.8189518451690674 -0.16439254581928253 -0.6624499559402466
v -0.8189518451690674 0.1643923968076706 -0.6624499559402466
v -0.958792507648468 0.26599255204200745 -0.38276875019073486
v -0.04330923408269882 -0.9940620064735413 -0.38276875019073486
v -0.09672357887029648 -0.8296694755554199 -0.6624499559402466
v -0.40941667556762695 -0.7280694246292114 -0.6624499559402466
v -0.5492573380470276 -0.8296695947647095 -0.38276875019073486
v -0.32299044728279114 -0.9940620064735413 -0.20991630852222443
v 0.5659186840057373 -0.6143639087677002 -0.6624499559402466
v 0.6193331480026245 -0.7787563800811768 -0.38276880979537964
v 0.8455999493598938 -0.6143639087677002 -0.20991624891757965
v 0.7591736316680908 -0.348371297121048 -0.6624498963356018
v 0.9320260286331177 -0.3483712077140808 -0.38276875019073486
v 0.08642624318599701 -0.26599255204200745 -1.0287494659423828
v 0.2796812951564789 5.300448080447495e-08 -1.0287494659423828
v 0.0864262729883194 0.2659926414489746 -1.0287494659423828
v -0.22626687586307526 0.16439250111579895 -1.0287494659423828
v -0.22626690566539764 -0.16439250111579895 -1.0287494659423828
v 0.7829714417457581 0.16439251601696014 0.7018207907676697
v 0.7829715013504028 -0.16439248621463776 0.7018207311630249
v 0.5295949578285217 -0.3131367564201355 0.8569025993347168
v 0.5295948386192322 0.3131368160247803 0.8569025993347168
v 0.27757206559181213 -0.16439248621463776 1.0141746997833252
v 0.27757206559181213 0.16439244151115417 1.0141746997833252
v 0.3982979953289032 0.6938501000404358 0.7018207907676697
v 0.46146461367607117 0.40691015124320984 0.8569025993347168
v 0.24212107062339783 0.21318666636943817 1.0141746997833252
v 0.08560490608215332 0.7954500913619995 0.7018207907676697
v -0.07057203352451324 0.31478676199913025 1.0141746997833252
v -0.13415701687335968 0.600439190864563 0.8569025993347168
v -0.24439410865306854 0.5646210312843323 0.8569025993347168
v -0.127933070063591 0.2961490750312805 1.0141746997833252
v -0.32118797302246094 0.03015643171966076 1.0141746997833252
v -0.5368097424507141 0.5932153463363647 0.7018207907676697
v -0.6125084757804871 0.05795501917600632 0.8569025993347168
v -0.7300646901130676 0.32722267508506775 0.7018207907676697
v -0.32118797302246094 -0.030156459659337997 1.0141746997833252
v -0.12793296575546265 -0.2961491048336029 1.0141746997833252
v -0.24439406394958496 -0.564621090888977 0.8569025993347168
v -0.5368096828460693 -0.5932154655456543 0.7018207907676697
v -0.6125084161758423 -0.05795517563819885 0.8569025993347168
v -0.7300645709037781 -0.3272228538990021 0.7018207907676697
v 0.24212110042572021 -0.2131866216659546 1.0141746997833252
v 0.46146464347839355 -0.4069100320339203 0.8569025993347168
v 0.39829814434051514 -0.6938499808311462 0.7018207311630249
v 0.08560504019260406 -0.7954501509666443 0.7018207907676697
v -0.07057203352451324 -0.31478679180145264 1.0141746997833252
v -0.13415692746639252 -0.6004393696784973 0.8569025993347168
v 0.9386661648750305 0.31478676199913025 0.39043116569519043
v 0.7988256216049194 0.21318666636943817 0.6701123714447021
v 0.5600637197494507 0.40691015124320984 0.7959650158882141
v 0.8264338374137878 0.6004393100738525 0.2632248103618622
v 0.44960322976112366 0.693850040435791 0.6701123714447021
v 0.5894438624382019 0.7954501509666443 0.39043116569519043
v -0.5743699669837952 0.8064019680023193 0.39043116569519043
v -0.3156696856021881 0.971531093120575 0.26322486996650696
v -0.00931622739881277 0.9899991750717163 0.39043116569519043
v -0.520955502986908 0.6420095562934875 0.6701123714447021
v 0.044098109006881714 0.825606644153595 0.6701123714447021
v -0.2139253318309784 0.6583943963050842 0.7959650158882141
v -0.7715714573860168 -0.2970663607120514 0.6701123714447021
v -0.9444239139556885 -0.29706642031669617 0.39043116569519043
v -1.0215283632278442 -1.0777303316444886e-07 0.2632248103618622
v -0.6922768354415894 -9.778322151987595e-08 0.7959650158882141
v -0.9444239139556885 0.29706624150276184 0.39043113589286804
v -0.7715715765953064 0.2970661520957947 0.6701123714447021
v -0.009316175244748592 -0.9899991750717163 0.39043116569519043
v -0.31566959619522095 -0.9715312123298645 0.2632248103618622
v -0.5743698477745056 -0.8064021468162537 0.39043116569519043
v 0.04409821331501007 -0.8256065845489502 0.6701123714447021
v -0.5209554433822632 -0.6420096755027771 0.6701123714447021
v -0.21392524242401123 -0.6583943963050842 0.7959650158882141
v 0.8264338374137878 -0.600439190864563 0.2632248103618622
v 0.5894439816474915 -0.7954500913619995 0.39043116569519043
v 0.4496033191680908 -0.693850040435791 0.6701123118400574
v 0.5600637197494507 -0.40691009163856506 0.7959650158882141
v 0.9386663436889648 -0.3147867023944855 0.39043116569519043
v 0.7988256216049194 -0.2131866216659546 0.6701123118400574
v 1.0403590202331543 0.05795517563819885 -0.16462577879428864
v 1.0507450103759766 0.03015643171966076 0.16627347469329834
v 0.9643188118934631 0.2961490750312805 0.33912596106529236
v 0.9542224407196045 0.3272227942943573 -0.33912599086761475
v 0.8757333755493164 0.564621090888977 0.16462574899196625
v 0.8677961230278015 0.5932154059410095 -0.16627342998981476
v -0.2960176467895508 1.0086368322372437 -0.16627344489097595
v -0.01633642055094242 1.0086368322372437 -0.33912596106529236
v 0.26637008786201477 1.0073493719100952 -0.16462574899196625
v -0.26637011766433716 1.0073493719100952 0.16462574899196625
v 0.296017587184906 1.0086368322372437 0.16627344489097595
v 0.01633634977042675 1.0086368322372437 0.33912593126296997
v -1.0403590202331543 0.05795494094491005 0.16462577879428864
v -1.0507450103759766 0.03015635348856449 -0.16627341508865356
v -0.9643188118934631 0.29614898562431335 -0.33912599086761475
v -0.9542224407196045 0.32722270488739014 0.33912596106529236
v -0.8757333755493164 0.5646210312843323 -0.16462579369544983
v -0.8677961230278015 0.5932154059410095 0.16627347469329834
v -0.35337865352630615 -0.9899991750717163 -0.16627342998981476
v -0.5796454548835754 -0.825606644153595 -0.33912599086761475
v -0.8076030611991882 -0.6583943963050842 -0.16462574899196625
v -0.37660717964172363 -0.9715312123298645 0.16462574899196625
v -0.8323451280593872 -0.6420096158981323 0.16627344489097595
v -0.6060782670974731 -0.8064020872116089 0.33912596106529236
v 0.8323454260826111 -0.6420093178749084 -0.16627341508865356
v 0.6060785055160522 -0.8064018487930298 -0.33912593126296997
v 0.3766074478626251 -0.9715309739112854 -0.16462574899196625
v 0.8076031804084778 -0.6583942770957947 0.16462574899196625
v 0.3533788025379181 -0.9899990558624268 0.16627342998981476
v 0.5796456336975098 -0.8256064653396606 0.33912596106529236
v 0.954222559928894 -0.3272225260734558 -0.33912602066993713
v 0.8677963614463806 -0.5932151675224304 -0.16627344489097595
v 0.8757333755493164 -0.5646210312843323 0.16462574899196625
v 0.9643188118934631 -0.29614895582199097 0.33912596106529236
v 1.0403590202331543 -0.057954832911491394 -0.16462577879428864
v 1.0507450103759766 -0.030156325548887253 0.16627342998981476
v 0.37660717964172363 0.971531093120575 -0.16462574899196625
v 0.6060783267021179 0.8064020276069641 -0.33912599086761475
v 0.8323451280593872 0.6420096158981323 -0.16627344489097595
v 0.8076030611991882 0.6583943963050842 0.16462579369544983
v 0.353378564119339 0.9899991750717163 0.16627344489097595
v 0.5796454548835754 0.8256065845489502 0.33912596106529236
v -0.807603120803833 0.6583942770957947 -0.16462574899196625
v -0.5796454548835754 0.8256065845489502 -0.33912596106529236
v -0.35337865352630615 0.9899990558624268 -0.16627344489097595
v -0.376607209444046 0.971531093120575 0.16462579369544983
v -0.832345187664032 0.642009437084198 0.16627344489097595
v -0.6060783267021179 0.8064020276069641 0.33912593126296997
v -0.9542222619056702 -0.3272228240966797 0.33912596106529236
v -0.8677960634231567 -0.5932154655456543 0.16627344489097595
v -0.8757333755493164 -0.5646211504936218 -0.16462579369544983
v -0.9643188118934631 -0.2961491048336029 -0.33912596106529236
v -1.0403590202331543 -0.05795517563819885 0.16462579369544983
v -1.0507450103759766 -0.030156537890434265 -0.16627347469329834
v 0.26637014746665955 -1.0073493719100952 -0.16462574899196625
v -0.016336407512426376 -1.0086368322372437 -0.33912593126296997
v -0.2960176467895508 -1.0086368322372437 -0.16627344489097595
v -0.26637008786201477 -1.0073494911193848 0.16462579369544983
v 0.2960176467895508 -1.0086368322372437 0.16627342998981476
v 0.016336439177393913 -1.0086368322372437 0.33912596106529236
v -0.0440981350839138 0.8256065845489502 -0.6701123714447021
v 0.2139253169298172 0.6583943367004395 -0.7959650158882141
v 0.520955502986908 0.6420095562934875 -0.6701123714447021
v 0.009316175244748592 0.9899990558624268 -0.39043113589286804
v 0.5743699669837952 0.8064019680023193 -0.39043116569519043
v 0.31566962599754333 0.971531093120575 -0.26322486996650696
v -0.9386663436889648 0.3147867023944855 -0.39043116569519043
v -0.7988256216049194 0.21318654716014862 -0.6701123714447021
v -0.5600637197494507 0.4069100022315979 -0.7959650158882141
v -0.8264338374137878 0.600439190864563 -0.2632248103618622
v -0.4496033191680908 0.6938499212265015 -0.6701123714447021
v -0.5894439220428467 0.7954501509666443 -0.39043116569519043
v -0.8264338374137878 -0.6004393696784973 -0.2632247507572174
v -0.5894438624382019 -0.7954501509666443 -0.39043113589286804
v -0.4496033191680908 -0.693850040435791 -0.6701123118400574
v -0.5600637197494507 -0.40691009163856506 -0.7959650158882141
v -0.9386663436889648 -0.3147868812084198 -0.39043113589286804
v -0.7988256216049194 -0.21318666636943817 -0.6701123118400574
v 0.5209556221961975 -0.6420093774795532 -0.6701124310493469
v 0.21392536163330078 -0.6583942770957947 -0.7959650158882141
v -0.0440981350839138 -0.8256065845489502 -0.6701123714447021
v 0.5743701457977295 -0.8064019083976746 -0.3904312252998352
v 0.009316306561231613 -0.9899990558624268 -0.3904312252998352
v 0.3156697452068329 -0.9715309739112854 -0.2632249593734741
v 0.7715716361999512 -0.2970661520957947 -0.6701123118400574
v 0.944424033164978 -0.2970661520957947 -0.39043107628822327
v 1.0215283632278442 1.2669524096509122e-07 -0.263224720954895
v 0.6922768354415894 1.6665448754338286e-07 -0.7959650158882141
v 0.9444239139556885 0.297066330909729 -0.39043113589286804
v 0.7715714573860168 0.29706642031669617 -0.6701123118400574
v 0.6125084757804871 0.057955123484134674 -0.8569025993347168
v 0.7300648093223572 0.3272227942943573 -0.7018207311630249
v 0.5368097424507141 0.5932154059410095 -0.7018207907676697
v 0.3211880326271057 0.030156459659337997 -1.0141746997833252
v 0.24439410865306854 0.5646210312843323 -0.8569025993347168
v 0.12793302536010742 0.2961490750312805 -1.0141746997833252
v 0.07057200372219086 0.31478676199913025 -1.0141746997833252
v 0.13415701687335968 0.600439190864563 -0.8569025993347168
v -0.0856049507856369 0.7954500913619995 -0.7018207311630249
v -0.24212107062339783 0.2131866216659546 -1.0141746997833252
v -0.3982980251312256 0.6938499808311462 -0.7018207311630249
v -0.46146464347839355 0.4069100022315979 -0.8569025993347168
v -0.5295949578285217 -0.3131367862224579 -0.8569025993347168
v -0.27757206559181213 -0.16439254581928253 -1.0141746997833252
v -0.27757206559181213 0.16439247131347656 -1.0141746997833252
v -0.5295949578285217 0.3131367564201355 -0.8569025993347168
v -0.7829715013504028 -0.16439254581928253 -0.7018207907676697
v -0.7829715013504028 0.16439244151115417 -0.7018207907676697
v -0.0856049507856369 -0.7954500913619995 -0.7018207907676697
v 0.1341570019721985 -0.600439190864563 -0.8569025993347168
v 0.07057204842567444 -0.3147867023944855 -1.0141746997833252
v -0.24212110042572021 -0.2131866216659546 -1.0141746997833252
v -0.39829814434051514 -0.6938499808311462 -0.7018207311630249
v -0.46146464347839355 -0.40691009163856506 -0.8569025993347168
v 0.5368099212646484 -0.5932151079177856 -0.7018207907676697
v 0.7300649285316467 -0.3272225260734558 -0.7018207311630249
v 0.6125085949897766 -0.05795491486787796 -0.8569025993347168
v 0.3211880624294281 -0.03015635348856449 -1.0141746997833252
v 0.2443942129611969 -0.5646209716796875 -0.8569025993347168
v 0.1279330998659134 -0.29614898562431335 -1.0141746997833252
vn -0.0 0.0 1.0
vn -0.0 0.0 1.0
vn -0.0 0.0 1.0
vn -0.0 0.0 1.0
vn -0.0 0.0 1.0
vn 0.8944271802902222 0.0 0.4472135901451111
vn 0.8944271802902222 0.0 0.4472135901451111
vn 0.8944271802902222 0.0 0.4472135901451111
vn 0.8944271802902222 0.0 0.4472135901451111
vn 0.8944271802902222 0.0 0.4472135901451111
vn 0.2763931155204773 0.8506508469581604 0.4472135305404663
vn 0.2763931155204773 0.8506508469581604 0.4472135305404663
vn 0.2763930857181549 0.8506508469581604 0.4472135305404663
vn 0.2763930857181549 0.8506508469581604 0.4472135305404663
vn 0.2763931453227997 0.8506508469581604 0.4472135007381439
vn -0.7236068844795227 0.5257310271263123 0.4472135305404663
vn -0.7236068844795227 0.5257310271263123 0.4472135305404663
vn -0.7236069440841675 0.5257310271263123 0.4472135603427887
vn -0.7236069440841675 0.5257310271263123 0.4472135603427887
vn -0.7236068844795227 0.5257310271263123 0.4472135305404663
vn -0.7236068248748779 -0.5257311463356018 0.4472135901451111
vn -0.7236068248748779 -0.5257311463356018 0.4472135901451111
vn -0.7236068248748779 -0.5257311463356018 0.44721361994743347
vn -0.7236068248748779 -0.5257311463356018 0.4472135901451111
vn -0.7236068248748779 -0.5257311463356018 0.44721361994743347
vn 0.27639323472976685 -0.8506508469581604 0.4472135305404663
vn 0.27639323472976685 -0.8506508469581604 0.4472135305404663
vn 0.27639323472976685 -0.8506508469581604 0.4472135305404663
vn 0.27639323472976685 -0.8506508469581604 0.4472135305404663
vn 0.27639323472976685 -0.8506508469581604 0.4472135305404663
vn 0.7236067056655884 0.5257313251495361 -0.4472135901451111
vn 0.7236067056655884 0.5257312655448914 -0.4472135901451111
vn 0.7236067056655884 0.5257312655448914 -0.4472135901451111
vn 0.7236067056655884 0.5257312655448914 -0.4472135901451111
vn 0.7236067056655884 0.5257312655448914 -0.4472135901451111
vn -0.27639323472976685 0.8506508469581604 -0.4472135901451111
vn -0.27639323472976685 0.8506508469581604 -0.4472135901451111
vn -0.27639323472976685 0.8506508469581604 -0.4472135901451111
vn -0.27639323472976685 0.8506508469581604 -0.4472135901451111
vn -0.27639323472976685 0.8506508469581604 -0.4472135901451111
vn -0.8944271802902222 0.0 -0.4472135901451111
vn -0.8944271802902222 0.0 -0.4472135901451111
vn -0.8944271802902222 0.0 -0.4472135901451111
vn -0.8944271802902222 0.0 -0.4472135901451111
vn -0.8944271802902222 0.0 -0.4472135901451111
vn -0.2763931155204773 -0.8506507277488708 -0.44721361994743347
vn -0.2763931155204773 -0.8506507277488708 -0.44721361994743347
vn -0.2763931155204773 -0.8506507277488708 -0.44721361994743347
vn -0.2763931155204773 -0.8506507277488708 -0.44721361994743347
vn -0.2763931155204773 -0.8506507277488708 -0.44721361994743347
vn 0.7236068844795227 -0.5257309675216675 -0.44721361994743347
vn 0.7236068844795227 -0.5257309675216675 -0.44721361994743347
vn 0.7236069440841675 -0.5257308483123779 -0.44721364974975586
vn 0.7236069440841675 -0.5257309079170227 -0.44721364974975586
vn 0.7236069440841675 -0.5257309079170227 -0.44721364974975586
vn -0.0 0.0 -1.0
vn -0.0 0.0 -1.0
vn -0.0 0.0 -1.0
vn -0.0 0.0 -1.0
vn -0.0 0.0 -1.0
vn 0.525731086730957 0.0 0.8506508469581604
vn 0.525731086730957 0.0 0.8506508469581604
vn 0.525731086730957 0.0 0.8506508469581604
vn 0.525731086730957 0.0 0.8506508469581604
vn 0.525731086730957 0.0 0.8506508469581604
vn 0.525731086730957 0.0 0.8506508469581604
vn 0.16245974600315094 0.5000000596046448 0.8506508469581604
vn 0.16245974600315094 0.5000000596046448 0.8506508469581604
vn 0.16245974600315094 0.5000000596046448 0.8506508469581604
vn 0.16245973110198975 0.5000001192092896 0.8506507277488708
vn 0.16245974600315094 0.5000000596046448 0.8506508469581604
vn 0.16245974600315094 0.5000000596046448 0.8506508469581604
vn -0.4253253638744354 0.30901697278022766 0.8506508469581604
vn -0.4253253638744354 0.30901697278022766 0.8506508469581604
vn -0.4253253638744354 0.30901697278022766 0.8506508469581604
vn -0.4253253638744354 0.30901697278022766 0.8506508469581604
vn -0.4253253638744354 0.30901697278022766 0.8506508469581604
vn -0.4253253638744354 0.30901697278022766 0.8506508469581604
vn -0.4253253638744354 -0.30901703238487244 0.8506507277488708
vn -0.4253253638744354 -0.30901703238487244 0.8506507277488708
vn -0.4253253638744354 -0.30901703238487244 0.8506507277488708
vn -0.4253253638744354 -0.30901703238487244 0.8506507277488708
vn -0.4253253638744354 -0.30901703238487244 0.8506507277488708
vn -0.4253253638744354 -0.30901703238487244 0.8506507277488708
vn 0.16245992481708527 -0.49999991059303284 0.8506508469581604
vn 0.16245992481708527 -0.49999991059303284 0.8506508469581604
vn 0.16245992481708527 -0.49999991059303284 0.8506508469581604
vn 0.16245992481708527 -0.49999991059303284 0.8506508469581604
vn 0.16245992481708527 -0.49999991059303284 0.8506508469581604
vn 0.16245992481708527 -0.49999991059303284 0.8506508469581604
vn 0.6881909370422363 0.5 0.5257310271263123
vn 0.6881909370422363 0.5 0.5257310271263123
vn 0.6881909966468811 0.5 0.525731086730957
vn 0.6881909966468811 0.5 0.525731086730957
vn 0.6881909966468811 0.5000000596046448 0.5257310271263123
vn 0.6881909370422363 0.5 0.5257310271263123
vn -0.26286569237709045 0.80901700258255 0.5257311463356018
vn -0.26286569237709045 0.80901700258255 0.5257311463356018
vn -0.26286569237709045 0.80901700258255 0.525731086730957
vn -0.26286569237709045 0.80901700258255 0.5257311463356018
vn -0.26286569237709045 0.80901700258255 0.5257311463356018
vn -0.26286566257476807 0.80901700258255 0.525731086730957
vn -0.8506508469581604 0.0 0.5257310271263123
vn -0.8506508469581604 0.0 0.5257310271263123
vn -0.8506508469581604 0.0 0.5257310271263123
vn -0.8506508469581604 0.0 0.5257310271263123
vn -0.8506509065628052 0.0 0.5257309675216675
vn -0.8506508469581604 0.0 0.525731086730957
vn -0.2628653943538666 -0.8090170621871948 0.525731086730957
vn -0.2628653943538666 -0.8090170621871948 0.525731086730957
vn -0.2628653943538666 -0.8090170621871948 0.525731086730957
vn -0.2628653645515442 -0.8090170621871948 0.525731086730957
vn -0.2628653943538666 -0.8090170621871948 0.525731086730957
vn -0.2628653943538666 -0.8090170621871948 0.525731086730957
vn 0.6881909966468811 -0.49999991059303284 0.525731086730957
vn 0.6881909966468811 -0.49999991059303284 0.525731086730957
vn 0.6881909966468811 -0.49999991059303284 0.525731086730957
vn 0.6881909966468811 -0.49999991059303284 0.525731086730957
vn 0.6881909966468811 -0.49999991059303284 0.525731086730957
vn 0.6881909966468811 -0.49999991059303284 0.525731086730957
vn 0.9510565400123596 0.30901697278022766 0.0
vn 0.9510565400123596 0.30901697278022766 0.0
vn 0.9510565400123596 0.30901697278022766 0.0
vn 0.9510565400123596 0.30901697278022766 0.0
vn 0.9510565400123596 0.30901697278022766 0.0
vn 0.9510565400123596 0.30901700258255005 0.0
vn -0.0 1.0 0.0
vn -0.0 1.0 0.0
vn -0.0 1.0 0.0
vn -0.0 1.0 0.0
vn -0.0 1.0 0.0
vn -0.0 1.0 0.0
vn -0.9510565400123596 0.3090169429779053 0.0
vn -0.9510565400123596 0.30901700258255005 0.0
vn -0.9510565400123596 0.30901697278022766 0.0
vn -0.9510565400123596 0.30901700258255005 0.0
vn -0.9510565400123596 0.3090169429779053 0.0
vn -0.9510565400123596 0.30901697278022766 0.0
vn -0.5877851843833923 -0.8090170621871948 0.0
vn -0.5877851843833923 -0.8090170621871948 0.0
vn -0.5877851843833923 -0.8090170621871948 0.0
vn -0.5877851843833923 -0.8090170621871948 0.0
vn -0.5877851843833923 -0.8090170621871948 0.0
vn -0.5877851843833923 -0.8090170621871948 0.0
vn 0.5877853035926819 -0.8090168833732605 0.0
vn 0.5877853631973267 -0.8090168833732605 0.0
vn 0.5877853631973267 -0.8090168833732605 0.0
vn 0.5877853631973267 -0.80901700258255 0.0
vn 0.5877853631973267 -0.8090168833732605 0.0
vn 0.5877853631973267 -0.80901700258255 0.0
vn 0.9510565400123596 -0.30901679396629333 0.0
vn 0.9510565400123596 -0.30901679396629333 0.0
vn 0.9510565400123596 -0.30901679396629333 0.0
vn 0.9510565400123596 -0.30901679396629333 0.0
vn 0.9510565400123596 -0.30901679396629333 0.0
vn 0.9510565400123596 -0.30901679396629333 0.0
vn 0.5877851247787476 0.8090170621871948 0.0
vn 0.5877851247787476 0.8090170621871948 0.0
vn 0.5877851247787476 0.8090170621871948 0.0
vn 0.5877851247787476 0.8090170621871948 0.0
vn 0.5877851247787476 0.8090170621871948 0.0
vn 0.5877851247787476 0.8090170621871948 0.0
vn -0.5877851843833923 0.80901700258255 0.0
vn -0.5877851843833923 0.8090170621871948 0.0
vn -0.5877851843833923 0.8090170621871948 0.0
vn -0.5877851843833923 0.80901700258255 0.0
vn -0.5877851843833923 0.80901700258255 0.0
vn -0.5877851843833923 0.8090170621871948 0.0
vn -0.9510564804077148 -0.3090171217918396 0.0
vn -0.9510564804077148 -0.3090171217918396 0.0
vn -0.9510564804077148 -0.3090171217918396 0.0
vn -0.9510564804077148 -0.3090171217918396 0.0
vn -0.9510564804077148 -0.3090171217918396 0.0
vn -0.9510564804077148 -0.3090171217918396 0.0
vn -0.0 -1.0 0.0
vn -0.0 -1.0 0.0
vn -0.0 -1.0 0.0
vn -0.0 -1.0 0.0
vn -0.0 -1.0 0.0
vn -0.0 -1.0 0.0
vn 0.26286551356315613 0.8090170621871948 -0.5257310271263123
vn 0.26286551356315613 0.8090170621871948 -0.5257310271263123
vn 0.26286551356315613 0.8090170621871948 -0.5257310271263123
vn 0.26286548376083374 0.8090170621871948 -0.5257309675216675
vn 0.26286551356315613 0.8090170621871948 -0.5257310271263123
vn 0.26286551356315613 0.8090170621871948 -0.5257310271263123
vn -0.6881909966468811 0.49999991059303284 -0.5257311463356018
vn -0.6881909966468811 0.49999991059303284 -0.5257311463356018
vn -0.6881909966468811 0.49999991059303284 -0.5257311463356018
vn -0.6881910562515259 0.49999988079071045 -0.5257311463356018
vn -0.6881909966468811 0.49999991059303284 -0.5257311463356018
vn -0.6881909966468811 0.49999991059303284 -0.5257311463356018
vn -0.6881908774375916 -0.4999999701976776 -0.525731086730957
vn -0.6881908774375916 -0.5 -0.5257311463356018
vn -0.6881908774375916 -0.5 -0.5257311463356018
vn -0.6881908774375916 -0.4999999701976776 -0.525731086730957
vn -0.6881908774375916 -0.5 -0.5257311463356018
vn -0.6881908774375916 -0.4999999701976776 -0.525731086730957
vn 0.26286566257476807 -0.80901700258255 -0.5257312059402466
vn 0.26286566257476807 -0.80901700258255 -0.5257312059402466
vn 0.2628656327724457 -0.80901700258255 -0.5257311463356018
vn 0.2628656327724457 -0.80901700258255 -0.5257312059402466
vn 0.26286566257476807 -0.80901700258255 -0.5257312059402466
vn 0.2628656327724457 -0.80901700258255 -0.5257311463356018
vn 0.8506508469581604 0.0 -0.525731086730957
vn 0.8506508469581604 0.0 -0.525731086730957
vn 0.8506508469581604 0.0 -0.525731086730957
vn 0.8506508469581604 0.0 -0.525731086730957
vn 0.8506508469581604 0.0 -0.5257310271263123
vn 0.8506508469581604 0.0 -0.5257310271263123
vn 0.42532527446746826 0.30901700258255005 -0.8506508469581604
vn 0.42532527446746826 0.30901700258255005 -0.8506508469581604
vn 0.42532527446746826 0.30901700258255005 -0.8506508469581604
vn 0.42532527446746826 0.30901700258255005 -0.8506508469581604
vn 0.42532527446746826 0.30901700258255005 -0.8506508469581604
vn 0.42532527446746826 0.30901700258255005 -0.8506508469581604
vn -0.16245988011360168 0.5000001192092896 -0.8506507277488708
vn -0.1624598652124405 0.5000001192092896 -0.8506507277488708
vn -0.16245989501476288 0.5000000596046448 -0.8506507277488708
vn -0.16245988011360168 0.5000001192092896 -0.8506507277488708
vn -0.16245988011360168 0.5000001192092896 -0.8506507277488708
vn -0.16245988011360168 0.5000001192092896 -0.8506507277488708
vn -0.5257311463356018 0.0 -0.8506508469581604
vn -0.5257311463356018 0.0 -0.8506508469581604
vn -0.5257311463356018 0.0 -0.8506508469581604
vn -0.5257311463356018 0.0 -0.8506508469581604
vn -0.5257311463356018 0.0 -0.8506508469581604
vn -0.5257311463356018 0.0 -0.8506508469581604
vn -0.16245979070663452 -0.5000000596046448 -0.8506508469581604
vn -0.16245979070663452 -0.5 -0.8506508469581604
vn -0.16245979070663452 -0.5 -0.8506508469581604
vn -0.16245979070663452 -0.5 -0.8506508469581604
vn -0.16245979070663452 -0.5 -0.8506508469581604
vn -0.16245979070663452 -0.5000000596046448 -0.8506507277488708
vn 0.4253253638744354 -0.3090169131755829 -0.8506509065628052
vn 0.42532533407211304 -0.3090169429779053 -0.8506508469581604
vn 0.42532533407211304 -0.3090169131755829 -0.8506508469581604
vn 0.42532533407211304 -0.3090169131755829 -0.8506508469581604
vn 0.42532533407211304 -0.3090169131755829 -0.8506508469581604
vn 0.42532533407211304 -0.3090169131755829 -0.8506508469581604
vn -0.0 0.0 1.0
vn -0.0 0.0 1.0
vn -0.0 0.0 1.0
vn -0.0 0.0 1.0
vn -0.0 0.0 1.0
vn 0.8944271802902222 0.0 0.44721370935440063
vn 0.8944271802902222 0.0 0.44721370935440063
vn 0.8944271802902222 0.0 0.44721370935440063
vn 0.8944271802902222 0.0 0.44721370935440063
vn 0.8944270610809326 0.0 0.44721367955207825
vn 0.2763930559158325 0.8506509065628052 0.44721347093582153
vn 0.2763930559158325 0.8506509065628052 0.44721347093582153
vn 0.2763930559158325 0.8506509065628052 0.44721341133117676
vn 0.2763930559158325 0.8506509065628052 0.44721347093582153
vn 0.27639302611351013 0.8506509065628052 0.44721341133117676
vn -0.7236068844795227 0.5257310271263123 0.4472135305404663
vn -0.7236069440841675 0.5257310271263123 0.4472135603427887
vn -0.7236068844795227 0.5257310271263123 0.4472135305404663
vn -0.7236069440841675 0.5257310271263123 0.4472135603427887
vn -0.7236068844795227 0.5257310271263123 0.4472135305404663
vn -0.7236067652702332 -0.5257311463356018 0.44721367955207825
vn -0.7236067652702332 -0.5257311463356018 0.44721367955207825
vn -0.7236067652702332 -0.5257311463356018 0.44721367955207825
vn -0.7236067652702332 -0.5257311463356018 0.44721367955207825
vn -0.7236067652702332 -0.5257311463356018 0.44721367955207825
vn 0.27639320492744446 -0.8506508469581604 0.44721344113349915
vn 0.27639320492744446 -0.8506508469581604 0.44721344113349915
vn 0.27639320492744446 -0.8506508469581604 0.4472135007381439
vn 0.27639320492744446 -0.8506509065628052 0.44721341133117676
vn 0.27639320492744446 -0.8506508469581604 0.4472135007381439
vn 0.7236067056655884 0.5257312059402466 -0.44721364974975586
vn 0.7236067056655884 0.5257312059402466 -0.44721364974975586
vn 0.7236067056655884 0.5257312059402466 -0.4472135901451111
vn 0.7236067056655884 0.5257312059402466 -0.4472135901451111
vn 0.7236067056655884 0.5257312059402466 -0.44721364974975586
vn -0.27639320492744446 0.8506508469581604 -0.4472135007381439
vn -0.27639323472976685 0.8506508469581604 -0.4472135305404663
vn -0.27639323472976685 0.8506508469581604 -0.4472135305404663
vn -0.27639320492744446 0.8506508469581604 -0.4472135305404663
vn -0.27639320492744446 0.8506508469581604 -0.4472135007381439
vn -0.8944270610809326 0.0 -0.4472137987613678
vn -0.8944270610809326 0.0 -0.447213739156723
vn -0.8944270610809326 0.0 -0.4472137987613678
vn -0.8944270610809326 0.0 -0.4472137987613678
vn -0.8944270610809326 0.0 -0.4472137987613678
vn -0.2763930559158325 -0.8506508469581604 -0.44721364974975586
vn -0.2763930559158325 -0.8506508469581604 -0.44721364974975586
vn -0.2763930857181549 -0.8506508469581604 -0.44721370935440063
vn -0.2763930559158325 -0.8506508469581604 -0.44721364974975586
vn -0.2763930559158325 -0.8506508469581604 -0.44721364974975586
vn 0.7236068844795227 -0.5257309675216675 -0.44721361994743347
vn 0.7236068844795227 -0.5257309675216675 -0.44721361994743347
vn 0.7236069440841675 -0.5257308483123779 -0.44721364974975586
vn 0.7236069440841675 -0.5257309079170227 -0.44721364974975586
vn 0.7236068844795227 -0.5257309675216675 -0.44721361994743347
vn -0.0 0.0 -1.0
vn -0.0 0.0 -1.0
vn -0.0 0.0 -1.0
vn -0.0 0.0 -1.0
vn -0.0 0.0 -1.0
vn 0.5257310271263123 0.0 0.8506508469581604
vn 0.5257310271263123 0.0 0.8506508469581604
vn 0.5257310271263123 0.0 0.8506508469581604
vn 0.5257310271263123 0.0 0.8506508469581604
vn 0.5257310271263123 0.0 0.8506508469581604
vn 0.525731086730957 0.0 0.8506508469581604
vn 0.16245970129966736 0.4999999701976776 0.8506508469581604
vn 0.16245971620082855 0.4999999701976776 0.8506508469581604
vn 0.16245971620082855 0.4999999701976776 0.8506508469581604
vn 0.16245971620082855 0.5 0.8506508469581604
vn 0.16245971620082855 0.4999999701976776 0.8506508469581604
vn 0.16245971620082855 0.4999999701976776 0.8506508469581604
vn -0.42532533407211304 0.3090169131755829 0.8506508469581604
vn -0.4253253638744354 0.3090169131755829 0.8506509065628052
vn -0.4253253638744354 0.3090169131755829 0.8506509065628052
vn -0.4253253638744354 0.3090169131755829 0.8506509065628052
vn -0.42532533407211304 0.3090169131755829 0.8506508469581604
vn -0.42532533407211304 0.3090169131755829 0.8506508469581604
vn -0.42532533407211304 -0.30901697278022766 0.8506508469581604
vn -0.42532533407211304 -0.30901697278022766 0.8506508469581604
vn -0.42532533407211304 -0.30901697278022766 0.8506508469581604
vn -0.42532533407211304 -0.30901697278022766 0.8506508469581604
vn -0.42532533407211304 -0.30901697278022766 0.8506508469581604
vn -0.42532533407211304 -0.30901697278022766 0.8506508469581604
vn 0.16245992481708527 -0.49999985098838806 0.8506508469581604
vn 0.16245992481708527 -0.49999985098838806 0.8506508469581604
vn 0.16245992481708527 -0.49999985098838806 0.8506508469581604
vn 0.16245992481708527 -0.49999985098838806 0.8506508469581604
vn 0.16245992481708527 -0.49999985098838806 0.8506508469581604
vn 0.16245992481708527 -0.49999985098838806 0.8506508469581604
vn 0.6881909966468811 0.49999991059303284 0.525731086730957
vn 0.6881909966468811 0.49999991059303284 0.525731086730957
vn 0.6881909966468811 0.49999991059303284 0.525731086730957
vn 0.6881909966468811 0.49999991059303284 0.525731086730957
vn 0.6881909966468811 0.49999991059303284 0.525731086730957
vn 0.6881909966468811 0.49999991059303284 0.525731086730957
vn -0.26286569237709045 0.80901700258255 0.5257310271263123
vn -0.26286569237709045 0.80901700258255 0.5257310271263123
vn -0.26286569237709045 0.80901700258255 0.5257309675216675
vn -0.26286569237709045 0.80901700258255 0.525731086730957
vn -0.26286569237709045 0.80901700258255 0.5257310271263123
vn -0.26286569237709045 0.80901700258255 0.5257310271263123
vn -0.8506508469581604 0.0 0.5257310271263123
vn -0.8506508469581604 0.0 0.5257310271263123
vn -0.8506508469581604 0.0 0.5257310271263123
vn -0.8506508469581604 0.0 0.5257310271263123
vn -0.8506509065628052 0.0 0.5257309675216675
vn -0.8506508469581604 0.0 0.5257310271263123
vn -0.2628653943538666 -0.8090170621871948 0.525731086730957
vn -0.2628653943538666 -0.8090170621871948 0.525731086730957
vn -0.2628653645515442 -0.8090170621871948 0.525731086730957
vn -0.2628653943538666 -0.8090170621871948 0.525731086730957
vn -0.2628653943538666 -0.8090170621871948 0.525731086730957
vn -0.2628653943538666 -0.8090170621871948 0.525731086730957
vn 0.6881909966468811 -0.49999991059303284 0.525731086730957
vn 0.6881909966468811 -0.49999991059303284 0.525731086730957
vn 0.6881909966468811 -0.49999991059303284 0.525731086730957
vn 0.6881909966468811 -0.49999991059303284 0.525731086730957
vn 0.6881909966468811 -0.49999991059303284 0.525731086730957
vn 0.6881909966468811 -0.49999991059303284 0.525731086730957
vn 0.9510565400123596 0.3090168833732605 0.0
vn 0.9510565400123596 0.3090169131755829 0.0
vn 0.9510565400123596 0.3090169131755829 0.0
vn 0.9510565400123596 0.3090169131755829 0.0
vn 0.9510565400123596 0.3090168833732605 0.0
vn 0.9510565400123596 0.3090169131755829 0.0
vn -0.0 1.0 0.0
vn -0.0 1.0 0.0
vn -0.0 1.0 0.0
vn -0.0 1.0 0.0
vn -0.0 1.0 0.0
vn -0.0 1.0 0.0
vn -0.9510565400123596 0.3090168237686157 0.0
vn -0.9510565400123596 0.3090168535709381 0.0
vn -0.9510565400123596 0.3090168237686157 0.0
vn -0.9510565400123596 0.3090168535709381 0.0
vn -0.9510565400123596 0.3090168833732605 0.0
vn -0.9510565400123596 0.3090168237686157 0.0
vn -0.5877851247787476 -0.8090170621871948 0.0
vn -0.5877851843833923 -0.8090170621871948 0.0
vn -0.5877851247787476 -0.8090170621871948 0.0
vn -0.5877851247787476 -0.8090170621871948 0.0
vn -0.5877851247787476 -0.8090170621871948 0.0
vn -0.5877851843833923 -0.8090170621871948 0.0
vn 0.5877853631973267 -0.8090168833732605 0.0
vn 0.5877853631973267 -0.8090168833732605 0.0
vn 0.5877853631973267 -0.8090168833732605 0.0
vn 0.5877853631973267 -0.8090168833732605 0.0
vn 0.5877853631973267 -0.8090168833732605 0.0
vn 0.5877853631973267 -0.8090168833732605 0.0
vn 0.9510565400123596 -0.30901673436164856 0.0
vn 0.9510565400123596 -0.30901670455932617 0.0
vn 0.9510565400123596 -0.30901673436164856 0.0
vn 0.9510565400123596 -0.30901673436164856 0.0
vn 0.9510565400123596 -0.30901673436164856 0.0
vn 0.9510565400123596 -0.30901673436164856 0.0
vn 0.5877851843833923 0.8090170621871948 0.0
vn 0.5877851843833923 0.8090170621871948 0.0
vn 0.5877851843833923 0.8090170621871948 0.0
vn 0.5877851843833923 0.8090170621871948 0.0
vn 0.5877851843833923 0.8090170621871948 0.0
vn 0.5877851843833923 0.8090170621871948 0.0
vn -0.5877851843833923 0.8090170621871948 0.0
vn -0.5877852439880371 0.80901700258255 0.0
vn -0.5877852439880371 0.80901700258255 0.0
vn -0.5877852439880371 0.80901700258255 0.0
vn -0.5877852439880371 0.80901700258255 0.0
vn -0.5877851843833923 0.80901700258255 0.0
vn -0.9510565400123596 -0.30901703238487244 0.0
vn -0.9510565400123596 -0.30901697278022766 0.0
vn -0.9510565400123596 -0.30901700258255005 0.0
vn -0.9510565400123596 -0.30901703238487244 0.0
vn -0.9510565400123596 -0.30901700258255005 0.0
vn -0.9510565400123596 -0.3090170621871948 0.0
vn -0.0 -1.0 0.0
vn -0.0 -1.0 0.0
vn -0.0 -1.0 0.0
vn -0.0 -1.0 0.0
vn -0.0 -1.0 0.0
vn -0.0 -1.0 0.0
vn 0.26286548376083374 0.8090170621871948 -0.5257309675216675
vn 0.26286548376083374 0.8090170621871948 -0.5257309675216675
vn 0.26286548376083374 0.8090170621871948 -0.5257309675216675
vn 0.26286548376083374 0.8090171217918396 -0.5257309675216675
vn 0.26286548376083374 0.8090170621871948 -0.5257309675216675
vn 0.26286548376083374 0.8090170621871948 -0.5257309675216675
vn -0.6881909966468811 0.4999999403953552 -0.5257311463356018
vn -0.6881909966468811 0.4999999403953552 -0.5257311463356018
vn -0.6881909966468811 0.4999999403953552 -0.5257311463356018
vn -0.6881909966468811 0.49999991059303284 -0.525731086730957
vn -0.6881909966468811 0.4999999403953552 -0.5257311463356018
vn -0.6881909966468811 0.4999999403953552 -0.5257311463356018
vn -0.6881908774375916 -0.5 -0.525731086730957
vn -0.6881908774375916 -0.5000000596046448 -0.525731086730957
vn -0.6881908774375916 -0.5000000596046448 -0.525731086730957
vn -0.6881908774375916 -0.5 -0.525731086730957
vn -0.6881908774375916 -0.5000000596046448 -0.525731086730957
vn -0.6881908774375916 -0.5000000596046448 -0.525731086730957
vn 0.26286569237709045 -0.80901700258255 -0.5257311463356018
vn 0.26286569237709045 -0.80901700258255 -0.5257311463356018
vn 0.26286569237709045 -0.80901700258255 -0.5257311463356018
vn 0.26286569237709045 -0.80901700258255 -0.5257311463356018
vn 0.26286569237709045 -0.80901700258255 -0.5257311463356018
vn 0.26286569237709045 -0.80901700258255 -0.5257311463356018
vn 0.8506509065628052 0.0 -0.5257309675216675
vn 0.8506509065628052 0.0 -0.5257309675216675
vn 0.8506509065628052 0.0 -0.5257309675216675
vn 0.8506509065628052 0.0 -0.5257309079170227
vn 0.8506509065628052 0.0 -0.5257309675216675
vn 0.8506509065628052 0.0 -0.5257309675216675
vn 0.4253252446651459 0.30901703238487244 -0.8506509065628052
vn 0.42532527446746826 0.30901703238487244 -0.8506508469581604
vn 0.42532527446746826 0.30901703238487244 -0.8506508469581604
vn 0.42532527446746826 0.30901703238487244 -0.8506508469581604
vn 0.42532527446746826 0.30901703238487244 -0.8506508469581604
vn 0.42532527446746826 0.30901703238487244 -0.8506508469581604
vn -0.1624598652124405 0.5000001192092896 -0.8506507277488708
vn -0.1624598652124405 0.5 -0.8506507277488708
vn -0.1624598503112793 0.5 -0.8506507277488708
vn -0.1624598503112793 0.5 -0.8506507277488708
vn -0.1624598503112793 0.5 -0.8506507277488708
vn -0.1624598503112793 0.5 -0.8506507277488708
vn -0.525731086730957 0.0 -0.8506508469581604
vn -0.5257310271263123 0.0 -0.8506508469581604
vn -0.525731086730957 0.0 -0.8506508469581604
vn -0.5257310271263123 0.0 -0.8506508469581604
vn -0.5257310271263123 0.0 -0.8506508469581604
vn -0.525731086730957 0.0 -0.8506508469581604
vn -0.16245974600315094 -0.4999999701976776 -0.8506508469581604
vn -0.16245976090431213 -0.49999991059303284 -0.8506508469581604
vn -0.16245976090431213 -0.49999991059303284 -0.8506508469581604
vn -0.16245976090431213 -0.49999991059303284 -0.8506508469581604
vn -0.16245976090431213 -0.49999991059303284 -0.8506508469581604
vn -0.16245976090431213 -0.49999991059303284 -0.8506508469581604
vn 0.4253253638744354 -0.3090169429779053 -0.8506508469581604
vn 0.4253253638744354 -0.30901700258255005 -0.8506508469581604
vn 0.4253253638744354 -0.3090169429779053 -0.8506508469581604
vn 0.4253253638744354 -0.30901697278022766 -0.8506508469581604
vn 0.4253253638744354 -0.30901697278022766 -0.8506508469581604
vn 0.4253253638744354 -0.30901697278022766 -0.8506508469581604
vt 0.6000000238418579 0.10281562805175781
vt 0.5364288687705994 0.19031375646591187
vt 0.43356865644454956 0.15689247846603394
vt 0.5364289283752441 0.015317440032958984
vt 0.43356865644454956 0.04873877763748169
vt 0.5 0.4385300874710083
vt 0.4562380313873291 0.38712209463119507
vt 0.47082528471946716 0.2926574945449829
vt 0.5291745066642761 0.29265713691711426
vt 0.5437617897987366 0.3871224522590637
vt 0.7437617778778076 0.38712209463119507
vt 0.699999988079071 0.4385300874710083
vt 0.6562381982803345 0.3871224522590637
vt 0.7291744947433472 0.29265713691711426
vt 0.6708254814147949 0.2926574945449829
vt 0.9572284817695618 0.3454834222793579
vt 0.9624154567718506 0.4127961993217468
vt 0.9000000357627869 0.4385300874710083
vt 0.8708255290985107 0.2926574945449829
vt 0.8562382459640503 0.3871217370033264
vt 0.12917464971542358 0.29265713691711426
vt 0.14376190304756165 0.3871224522590637
vt 0.1000000387430191 0.43852972984313965
vt 0.056238166987895966 0.3871224522590637
vt 0.0708254724740982 0.2926574945449829
vt 0.34376198053359985 0.38712209463119507
vt 0.30000001192092896 0.4385300874710083
vt 0.2562382221221924 0.38712209463119507
vt 0.3291745185852051 0.2926574945449829
vt 0.2708252966403961 0.2926574945449829
vt 0.629174530506134 0.7073427438735962
vt 0.5708251595497131 0.7073427438735962
vt 0.5562382340431213 0.612877756357193
vt 0.6000000238418579 0.5614697933197021
vt 0.6437621712684631 0.6128779351711273
vt 0.8437621593475342 0.6128779351711273
vt 0.8291745185852051 0.7073427438735962
vt 0.7708255052566528 0.7073429226875305
vt 0.7562382221221924 0.612877756357193
vt 0.800000011920929 0.5614699721336365
vt 1.1129252186492522e-08 0.5614699721336365
vt 0.04376187175512314 0.612877756357193
vt 0.02917460724711418 0.7073425650596619
vt -0.02917453832924366 0.7073425650596619
vt -0.04376183822751045 0.612877756357193
vt 0.24376186728477478 0.612877756357193
vt 0.22917452454566956 0.7073427438735962
vt 0.17082548141479492 0.7073427438735962
vt 0.1562381386756897 0.612877756357193
vt 0.20000000298023224 0.5614699721336365
vt 0.37082552909851074 0.7073427438735962
vt 0.3562382757663727 0.6128779351711273
vt 0.40000006556510925 0.5614699721336365
vt 0.42917460203170776 0.7073427438735962
vt 0.44376203417778015 0.6128779351711273
vt 0.4364289343357086 0.8096859008073807
vt 0.5000000596046448 0.8971839845180511
vt 0.4364289343357086 0.9846821753308177
vt 0.3335686922073364 0.9512608461081982
vt 0.33356863260269165 0.8431071490049362
vt 0.5291745066642761 0.27739858627319336
vt 0.4708254933357239 0.27739858627319336
vt 0.41664180159568787 0.21721601486206055
vt 0.5833582282066345 0.21721601486206055
vt 0.4086594879627228 0.11807441711425781
vt 0.5913405418395996 0.11807477474212646
vt 0.6708254814147949 0.27739858627319336
vt 0.6166417598724365 0.21721601486206055
vt 0.6086595058441162 0.11807477474212646
vt 0.7291744947433472 0.27739858627319336
vt 0.7913408875465393 0.11807477474212646
vt 0.7833585739135742 0.21721601486206055
vt 0.8166418075561523 0.21721601486206055
vt 0.808659553527832 0.11807441711425781
vt 0.9005988240242004 0.11647409200668335
vt 0.8708255290985107 0.27739858627319336
vt 0.9597993493080139 0.16937851905822754
vt 0.9459812641143799 0.2522846460342407
vt 0.0086594820022583 0.11807477474212646
vt 0.19134055078029633 0.11807441711425781
vt 0.18335816264152527 0.21721601486206055
vt 0.12917460501194 0.27739858627319336
vt 0.016641922295093536 0.21721601486206055
vt 0.0708254724740982 0.27739858627319336
vt 0.3913405239582062 0.11807477474212646
vt 0.3833582103252411 0.21721601486206055
vt 0.3291745185852051 0.2773982286453247
vt 0.27082550525665283 0.2773982286453247
vt 0.20865949988365173 0.11807477474212646
vt 0.21664199233055115 0.21721601486206055
vt 0.5524216294288635 0.3846430778503418
vt 0.5378340482711792 0.29017847776412964
vt 0.6000000238418579 0.24177664518356323
vt 0.6000000238418579 0.42171454429626465
vt 0.6621659994125366 0.2901788353919983
vt 0.647578775882721 0.38464343547821045
vt 0.847578763961792 0.38464343547821045
vt 0.800000011920929 0.42171454429626465
vt 0.7524216175079346 0.3846437931060791
vt 0.862165629863739 0.29017847776412964
vt 0.7378336787223816 0.29017847776412964
vt 0.800000011920929 0.24177664518356323
vt 0.06216605380177498 0.2901788353919983
vt 0.04757871478796005 0.38464343547821045
vt 1.6782317757702003e-08 0.4217149019241333
vt 1.1129252186492522e-08 0.24177628755569458
vt -0.04757864028215408 0.3846430778503418
vt -0.06216590106487274 0.29017847776412964
vt 0.24757865071296692 0.38464343547821045
vt 0.20000001788139343 0.421714186668396
vt 0.15242138504981995 0.3846437931060791
vt 0.262165904045105 0.29017847776412964
vt 0.1378341168165207 0.2901788353919983
vt 0.20000001788139343 0.24177664518356323
vt 0.4000000059604645 0.421714186668396
vt 0.35242128372192383 0.38464343547821045
vt 0.3378340005874634 0.29017847776412964
vt 0.4000000059604645 0.24177628755569458
vt 0.4475787281990051 0.38464343547821045
vt 0.4621660113334656 0.29017847776412964
vt 0.5083210468292236 0.5489611625671387
vt 0.5043296813964844 0.4513102173805237
vt 0.548091471195221 0.39990222454071045
vt 0.5519080758094788 0.6000977754592896
vt 0.5916792154312134 0.45103883743286133
vt 0.595670223236084 0.548689991235733
vt 0.7956702709197998 0.5486898124217987
vt 0.7519081234931946 0.6000979542732239
vt 0.7083207368850708 0.548961341381073
vt 0.7916792631149292 0.45103883743286133
vt 0.7043297290802002 0.4513102173805237
vt 0.7480915188789368 0.39990222454071045
vt 1.0625362396240234 0.44742411375045776
vt 1.0816165208816528 0.5443053245544434
vt 1.0006557703018188 0.5976108908653259
vt 0.98529052734375 0.3980047106742859
vt 0.9083210825920105 0.5489611625671387
vt 0.9043297171592712 0.4513102173805237
vt 0.19567018747329712 0.5486898124217987
vt 0.15190841257572174 0.6000979542732239
vt 0.10832101106643677 0.548961341381073
vt 0.19167903065681458 0.45103883743286133
vt 0.10432976484298706 0.4513102173805237
vt 0.1480916291475296 0.39990222454071045
vt 0.3956701159477234 0.5486898124217987
vt 0.35190853476524353 0.6000979542732239
vt 0.30832093954086304 0.5489611625671387
vt 0.39167916774749756 0.45103883743286133
vt 0.3043298125267029 0.4513102173805237
vt 0.34809157252311707 0.39990222454071045
vt 0.4480917155742645 0.6000977754592896
vt 0.404329776763916 0.5486898124217987
vt 0.40832090377807617 0.45103883743286133
vt 0.45190849900245667 0.39990222454071045
vt 0.4916791319847107 0.548961341381073
vt 0.49567025899887085 0.4513102173805237
vt 0.6916789412498474 0.548961341381073
vt 0.6480919122695923 0.6000979542732239
vt 0.6043301224708557 0.548689991235733
vt 0.6083211302757263 0.45103883743286133
vt 0.695669949054718 0.4513102173805237
vt 0.6519085168838501 0.39990222454071045
vt 0.8916789293289185 0.5489611625671387
vt 0.8480915427207947 0.6000979542732239
vt 0.8043297529220581 0.548689991235733
vt 0.8083207607269287 0.45103883743286133
vt 0.8956702947616577 0.4513102173805237
vt 0.8519085049629211 0.39990222454071045
vt 0.051908425986766815 0.39990222454071045
vt 0.09567032754421234 0.4513102173805237
vt 0.09167905151844025 0.548961341381073
vt 0.04809161275625229 0.6000979542732239
vt 0.008320938795804977 0.45103883743286133
vt 0.00432974100112915 0.548689991235733
vt 0.29167890548706055 0.548961341381073
vt 0.24809160828590393 0.6000979542732239
vt 0.2043297439813614 0.548689991235733
vt 0.2083209902048111 0.45103883743286133
vt 0.2956702709197998 0.4513102173805237
vt 0.25190848112106323 0.39990222454071045
vt 0.7621663212776184 0.7098214626312256
vt 0.699999988079071 0.7582234442234039
vt 0.6378340125083923 0.7098214626312256
vt 0.7475787401199341 0.6153566241264343
vt 0.652421236038208 0.6153566241264343
vt 0.699999988079071 0.5782855451107025
vt 1.0231250524520874 0.6417163908481598
vt 1.0085378885269165 0.7361815571784973
vt 0.9112354516983032 0.765815258026123
vt 0.8999996781349182 0.5782853066921234
vt 0.8378340601921082 0.7098215818405151
vt 0.8524212837219238 0.6153563857078552
vt 0.10000000149011612 0.5782854855060577
vt 0.14757868647575378 0.6153565645217896
vt 0.1621660441160202 0.7098214030265808
vt 0.10000000149011612 0.7582233846187592
vt 0.052421361207962036 0.6153563857078552
vt 0.037834007292985916 0.7098214030265808
vt 0.36216601729393005 0.7098214626312256
vt 0.30000001192092896 0.7582234442234039
vt 0.23783402144908905 0.7098216414451599
vt 0.34757891297340393 0.6153564453125
vt 0.2524212896823883 0.6153566241264343
vt 0.30000001192092896 0.5782857537269592
vt 0.4378342628479004 0.7098211646080017
vt 0.4524213373661041 0.6153565645217896
vt 0.5000000596046448 0.5782854557037354
vt 0.5000000596046448 0.7582233548164368
vt 0.5475784540176392 0.6153565645217896
vt 0.5621660351753235 0.709821343421936
vt 0.5166417956352234 0.7827840894460678
vt 0.5708255171775818 0.7226014733314514
vt 0.629174530506134 0.7226013541221619
vt 0.5086594820022583 0.8819252848625183
vt 0.6833582520484924 0.7827840894460678
vt 0.6913405656814575 0.8819253817200661
vt 0.7086595296859741 0.8819252848625183
vt 0.7166417837142944 0.7827840894460678
vt 0.7708251476287842 0.7226014733314514
vt 0.7920420169830322 0.9315808713436127
vt 0.8291745185852051 0.7226013541221619
vt 0.8754698634147644 0.8773686587810516
vt 0.08335818350315094 0.782784178853035
vt 0.09134060889482498 0.8819253817200661
vt -0.09134054183959961 0.8819253817200661
vt -0.08335813134908676 0.782784178853035
vt 0.02917460910975933 0.7226014733314514
vt -0.029174545779824257 0.7226014733314514
vt 0.22917461395263672 0.7226013541221619
vt 0.28335821628570557 0.7827840894460678
vt 0.2913406193256378 0.8819252848625183
vt 0.10865939408540726 0.8819253817200661
vt 0.17082548141479492 0.7226013541221619
vt 0.11664188653230667 0.7827840894460678
vt 0.37082552909851074 0.7226013541221619
vt 0.42917460203170776 0.7226014733314514
vt 0.48335808515548706 0.7827840894460678
vt 0.4913405776023865 0.8819253817200661
vt 0.31664204597473145 0.7827840894460678
vt 0.30865955352783203 0.8819253817200661
vt 0.6000000238418579 0.10281562805175781
vt 0.5364288687705994 0.19031375646591187
vt 0.43356865644454956 0.15689247846603394
vt 0.5364289283752441 0.015317440032958984
vt 0.43356865644454956 0.04873877763748169
vt 0.5 0.4385300874710083
vt 0.4562380313873291 0.38712209463119507
vt 0.47082528471946716 0.2926574945449829
vt 0.5291745066642761 0.29265713691711426
vt 0.5437617897987366 0.3871224522590637
vt 0.7437617778778076 0.38712209463119507
vt 0.699999988079071 0.4385300874710083
vt 0.6562381982803345 0.3871224522590637
vt 0.7291744947433472 0.29265713691711426
vt 0.6708254814147949 0.2926574945449829
vt 0.9572284817695618 0.3454834222793579
vt 0.9624154567718506 0.4127961993217468
vt 0.9000000357627869 0.4385300874710083
vt 0.8708255290985107 0.2926574945449829
vt 0.8562382459640503 0.3871217370033264
vt 0.12917464971542358 0.29265713691711426
vt 0.14376190304756165 0.3871224522590637
vt 0.1000000387430191 0.43852972984313965
vt 0.056238166987895966 0.3871224522590637
vt 0.0708254724740982 0.2926574945449829
vt 0.34376198053359985 0.38712209463119507
vt 0.30000001192092896 0.4385300874710083
vt 0.2562382221221924 0.38712209463119507
vt 0.3291745185852051 0.2926574945449829
vt 0.2708252966403961 0.2926574945449829
vt 0.629174530506134 0.7073427438735962
vt 0.5708251595497131 0.7073427438735962
vt 0.5562382340431213 0.612877756357193
vt 0.6000000238418579 0.5614697933197021
vt 0.6437621712684631 0.6128779351711273
vt 0.8437621593475342 0.6128779351711273
vt 0.8291745185852051 0.7073427438735962
vt 0.7708255052566528 0.7073429226875305
vt 0.7562382221221924 0.612877756357193
vt 0.800000011920929 0.5614699721336365
vt 1.1129252186492522e-08 0.5614699721336365
vt 0.04376187175512314 0.612877756357193
vt 0.02917460724711418 0.7073425650596619
vt -0.02917453832924366 0.7073425650596619
vt -0.04376183822751045 0.612877756357193
vt 0.24376186728477478 0.612877756357193
vt 0.22917452454566956 0.7073427438735962
vt 0.17082548141479492 0.7073427438735962
vt 0.1562381386756897 0.612877756357193
vt 0.20000000298023224 0.5614699721336365
vt 0.37082552909851074 0.7073427438735962
vt 0.3562382757663727 0.6128779351711273
vt 0.40000006556510925 0.5614699721336365
vt 0.42917460203170776 0.7073427438735962
vt 0.44376203417778015 0.6128779351711273
vt 0.4364289343357086 0.8096859008073807
vt 0.5000000596046448 0.8971839845180511
vt 0.4364289343357086 0.9846821753308177
vt 0.3335686922073364 0.9512608461081982
vt 0.33356863260269165 0.8431071490049362
vt 0.5291745066642761 0.27739858627319336
vt 0.4708254933357239 0.27739858627319336
vt 0.41664180159568787 0.21721601486206055
vt 0.5833582282066345 0.21721601486206055
vt 0.4086594879627228 0.11807441711425781
vt 0.5913405418395996 0.11807477474212646
vt 0.6708254814147949 0.27739858627319336
vt 0.6166417598724365 0.21721601486206055
vt 0.6086595058441162 0.11807477474212646
vt 0.7291744947433472 0.27739858627319336
vt 0.7913408875465393 0.11807477474212646
vt 0.7833585739135742 0.21721601486206055
vt 0.8166418075561523 0.21721601486206055
vt 0.808659553527832 0.11807441711425781
vt 0.9005988240242004 0.11647409200668335
vt 0.8708255290985107 0.27739858627319336
vt 0.9597993493080139 0.16937851905822754
vt 0.9459812641143799 0.2522846460342407
vt 0.0086594820022583 0.11807477474212646
vt 0.19134055078029633 0.11807441711425781
vt 0.18335816264152527 0.21721601486206055
vt 0.12917460501194 0.27739858627319336
vt 0.016641922295093536 0.21721601486206055
vt 0.0708254724740982 0.27739858627319336
vt 0.3913405239582062 0.11807477474212646
vt 0.3833582103252411 0.21721601486206055
vt 0.3291745185852051 0.2773982286453247
vt 0.27082550525665283 0.2773982286453247
vt 0.20865949988365173 0.11807477474212646
vt 0.21664199233055115 0.21721601486206055
vt 0.5524216294288635 0.3846430778503418
vt 0.5378340482711792 0.29017847776412964
vt 0.6000000238418579 0.24177664518356323
vt 0.6000000238418579 0.42171454429626465
vt 0.6621659994125366 0.2901788353919983
vt 0.647578775882721 0.38464343547821045
vt 0.847578763961792 0.38464343547821045
vt 0.800000011920929 0.42171454429626465
vt 0.7524216175079346 0.3846437931060791
vt 0.862165629863739 0.29017847776412964
vt 0.7378336787223816 0.29017847776412964
vt 0.800000011920929 0.24177664518356323
vt 0.06216605380177498 0.2901788353919983
vt 0.04757871478796005 0.38464343547821045
vt 1.6782317757702003e-08 0.4217149019241333
vt 1.1129252186492522e-08 0.24177628755569458
vt -0.04757864028215408 0.3846430778503418
vt -0.06216590106487274 0.29017847776412964
vt 0.24757865071296692 0.38464343547821045
vt 0.20000001788139343 0.421714186668396
vt 0.15242138504981995 0.3846437931060791
vt 0.262165904045105 0.29017847776412964
vt 0.1378341168165207 0.2901788353919983
vt 0.20000001788139343 0.24177664518356323
vt 0.4000000059604645 0.421714186668396
vt 0.35242128372192383 0.38464343547821045
vt 0.3378340005874634 0.29017847776412964
vt 0.4000000059604645 0.24177628755569458
vt 0.4475787281990051 0.38464343547821045
vt 0.4621660113334656 0.29017847776412964
vt 0.5083210468292236 0.5489611625671387
vt 0.5043296813964844 0.4513102173805237
vt 0.548091471195221 0.39990222454071045
vt 0.5519080758094788 0.6000977754592896
vt 0.5916792154312134 0.45103883743286133
vt 0.595670223236084 0.548689991235733
vt 0.7956702709197998 0.5486898124217987
vt 0.7519081234931946 0.6000979542732239
vt 0.7083207368850708 0.548961341381073
vt 0.7916792631149292 0.45103883743286133
vt 0.7043297290802002 0.4513102173805237
vt 0.7480915188789368 0.39990222454071045
vt 1.0625362396240234 0.44742411375045776
vt 1.0816165208816528 0.5443053245544434
vt 1.0006557703018188 0.5976108908653259
vt 0.98529052734375 0.3980047106742859
vt 0.9083210825920105 0.5489611625671387
vt 0.9043297171592712 0.4513102173805237
vt 0.19567018747329712 0.5486898124217987
vt 0.15190841257572174 0.6000979542732239
vt 0.10832101106643677 0.548961341381073
vt 0.19167903065681458 0.45103883743286133
vt 0.10432976484298706 0.4513102173805237
vt 0.1480916291475296 0.39990222454071045
vt 0.3956701159477234 0.5486898124217987
vt 0.35190853476524353 0.6000979542732239
vt 0.30832093954086304 0.5489611625671387
vt 0.39167916774749756 0.45103883743286133
vt 0.3043298125267029 0.4513102173805237
vt 0.34809157252311707 0.39990222454071045
vt 0.4480917155742645 0.6000977754592896
vt 0.404329776763916 0.5486898124217987
vt 0.40832090377807617 0.45103883743286133
vt 0.45190849900245667 0.39990222454071045
vt 0.4916791319847107 0.548961341381073
vt 0.49567025899887085 0.4513102173805237
vt 0.6916789412498474 0.548961341381073
vt 0.6480919122695923 0.6000979542732239
vt 0.6043301224708557 0.548689991235733
vt 0.6083211302757263 0.45103883743286133
vt 0.695669949054718 0.4513102173805237
vt 0.6519085168838501 0.39990222454071045
vt 0.8916789293289185 0.5489611625671387
vt 0.8480915427207947 0.6000979542732239
vt 0.8043297529220581 0.548689991235733
vt 0.8083207607269287 0.45103883743286133
vt 0.8956702947616577 0.4513102173805237
vt 0.8519085049629211 0.39990222454071045
vt 0.051908425986766815 0.39990222454071045
vt 0.09567032754421234 0.4513102173805237
vt 0.09167905151844025 0.548961341381073
vt 0.04809161275625229 0.6000979542732239
vt 0.008320938795804977 0.45103883743286133
vt 0.00432974100112915 0.548689991235733
vt 0.29167890548706055 0.548961341381073
vt 0.24809160828590393 0.6000979542732239
vt 0.2043297439813614 0.548689991235733
vt 0.2083209902048111 0.45103883743286133
vt 0.2956702709197998 0.4513102173805237
vt 0.25190848112106323 0.39990222454071045
vt 0.7621663212776184 0.7098214626312256
vt 0.699999988079071 0.7582234442234039
vt 0.6378340125083923 0.7098214626312256
vt 0.7475787401199341 0.6153566241264343
vt 0.652421236038208 0.6153566241264343
vt 0.699999988079071 0.5782855451107025
vt 1.0231250524520874 0.6417163908481598
vt 1.0085378885269165 0.7361815571784973
vt 0.9112354516983032 0.765815258026123
vt 0.8999996781349182 0.5782853066921234
vt 0.8378340601921082 0.7098215818405151
vt 0.8524212837219238 0.6153563857078552
vt 0.10000000149011612 0.5782854855060577
vt 0.14757868647575378 0.6153565645217896
vt 0.1621660441160202 0.7098214030265808
vt 0.10000000149011612 0.7582233846187592
vt 0.052421361207962036 0.6153563857078552
vt 0.037834007292985916 0.7098214030265808
vt 0.36216601729393005 0.7098214626312256
vt 0.30000001192092896 0.7582234442234039
vt 0.23783402144908905 0.7098216414451599
vt 0.34757891297340393 0.6153564453125
vt 0.2524212896823883 0.6153566241264343
vt 0.30000001192092896 0.5782857537269592
vt 0.4378342628479004 0.7098211646080017
vt 0.4524213373661041 0.6153565645217896
vt 0.5000000596046448 0.5782854557037354
vt 0.5000000596046448 0.7582233548164368
vt 0.5475784540176392 0.6153565645217896
vt 0.5621660351753235 0.709821343421936
vt 0.5166417956352234 0.7827840894460678
vt 0.5708255171775818 0.7226014733314514
vt 0.629174530506134 0.7226013541221619
vt 0.5086594820022583 0.8819252848625183
vt 0.6833582520484924 0.7827840894460678
vt 0.6913405656814575 0.8819253817200661
vt 0.7086595296859741 0.8819252848625183
vt 0.7166417837142944 0.7827840894460678
vt 0.7708251476287842 0.7226014733314514
vt 0.7920420169830322 0.9315808713436127
vt 0.8291745185852051 0.7226013541221619
vt 0.8754698634147644 0.8773686587810516
vt 0.08335818350315094 0.782784178853035
vt 0.09134060889482498 0.8819253817200661
vt -0.09134054183959961 0.8819253817200661
vt -0.08335813134908676 0.782784178853035
vt 0.02917460910975933 0.7226014733314514
vt -0.029174545779824257 0.7226014733314514
vt 0.22917461395263672 0.7226013541221619
vt 0.28335821628570557 0.7827840894460678
vt 0.2913406193256378 0.8819252848625183
vt 0.10865939408540726 0.8819253817200661
vt 0.17082548141479492 0.7226013541221619
vt 0.11664188653230667 0.7827840894460678
vt 0.37082552909851074 0.7226013541221619
vt 0.42917460203170776 0.7226014733314514
vt 0.48335808515548706 0.7827840894460678
vt 0.4913405776023865 0.8819253817200661
vt 0.31664204597473145 0.7827840894460678
vt 0.30865955352783203 0.8819253817200661

g GeoSphere002
s 1
usemtl GeoSphere002
f 3/3/3 2/2/2 1/1/1 
f 1/1/1 4/4/4 3/3/3 
f 4/4/4 5/5/5 3/3/3 
f 8/8/8 7/7/7 6/6/6 
f 6/6/6 9/9/9 8/8/8 
f 6/6/6 10/10/10 9/9/9 
f 13/13/13 12/12/12 11/11/11 
f 11/11/11 14/14/14 13/13/13 
f 14/14/14 15/15/15 13/13/13 
f 18/18/18 17/17/17 16/16/16 
f 16/16/16 19/19/19 18/18/18 
f 19/19/19 20/20/20 18/18/18 
f 23/23/23 22/22/22 21/21/21 
f 21/21/21 24/24/24 23/23/23 
f 21/21/21 25/25/25 24/24/24 
f 28/28/28 27/27/27 26/26/26 
f 26/26/26 29/29/29 28/28/28 
f 29/29/29 30/30/30 28/28/28 
f 33/33/33 32/32/32 31/31/31 
f 31/31/31 34/34/34 33/33/33 
f 31/31/31 35/35/35 34/34/34 
f 38/38/38 37/37/37 36/36/36 
f 36/36/36 39/39/39 38/38/38 
f 36/36/36 40/40/40 39/39/39 
f 43/43/43 42/42/42 41/41/41 
f 41/41/41 44/44/44 43/43/43 
f 41/41/41 45/45/45 44/44/44 
f 48/48/48 47/47/47 46/46/46 
f 46/46/46 49/49/49 48/48/48 
f 46/46/46 50/50/50 49/49/49 
f 53/53/53 52/52/52 51/51/51 
f 51/51/51 54/54/54 53/53/53 
f 54/54/54 55/55/55 53/53/53 
f 58/58/58 57/57/57 56/56/56 
f 56/56/56 59/59/59 58/58/58 
f 56/56/56 60/60/60 59/59/59 
f 63/63/63 62/62/62 61/61/61 
f 61/61/61 64/64/64 63/63/63 
f 64/64/64 65/65/65 63/63/63 
f 64/64/64 66/66/66 65/65/65 
f 69/69/69 68/68/68 67/67/67 
f 67/67/67 70/70/70 69/69/69 
f 70/70/70 71/71/71 69/69/69 
f 70/70/70 72/72/72 71/71/71 
f 75/75/75 74/74/74 73/73/73 
f 73/73/73 76/76/76 75/75/75 
f 76/76/76 77/77/77 75/75/75 
f 76/76/76 78/78/78 77/77/77 
f 81/81/81 80/80/80 79/79/79 
f 79/79/79 82/82/82 81/81/81 
f 79/79/79 83/83/83 82/82/82 
f 83/83/83 84/84/84 82/82/82 
f 87/87/87 86/86/86 85/85/85 
f 85/85/85 88/88/88 87/87/87 
f 85/85/85 89/89/89 88/88/88 
f 89/89/89 90/90/90 88/88/88 
f 93/93/93 92/92/92 91/91/91 
f 91/91/91 94/94/94 93/93/93 
f 94/94/94 95/95/95 93/93/93 
f 94/94/94 96/96/96 95/95/95 
f 99/99/99 98/98/98 97/97/97 
f 97/97/97 100/100/100 99/99/99 
f 100/100/100 101/101/101 99/99/99 
f 100/100/100 102/102/102 101/101/101 
f 105/105/105 104/104/104 103/103/103 
f 103/103/103 106/106/106 105/105/105 
f 106/106/106 107/107/107 105/105/105 
f 106/106/106 108/108/108 107/107/107 
f 111/111/111 110/110/110 109/109/109 
f 109/109/109 112/112/112 111/111/111 
f 112/112/112 113/113/113 111/111/111 
f 112/112/112 114/114/114 113/113/113 
f 117/117/117 116/116/116 115/115/115 
f 115/115/115 118/118/118 117/117/117 
f 115/115/115 119/119/119 118/118/118 
f 119/119/119 120/120/120 118/118/118 
f 123/123/123 122/122/122 121/121/121 
f 121/121/121 124/124/124 123/123/123 
f 124/124/124 125/125/125 123/123/123 
f 124/124/124 126/126/126 125/125/125 
f 129/129/129 128/128/128 127/127/127 
f 127/127/127 130/130/130 129/129/129 
f 130/130/130 131/131/131 129/129/129 
f 130/130/130 132/132/132 131/131/131 
f 135/135/135 134/134/134 133/133/133 
f 133/133/133 136/136/136 135/135/135 
f 136/136/136 137/137/137 135/135/135 
f 136/136/136 138/138/138 137/137/137 
f 141/141/141 140/140/140 139/139/139 
f 139/139/139 142/142/142 141/141/141 
f 142/142/142 143/143/143 141/141/141 
f 142/142/142 144/144/144 143/143/143 
f 147/147/147 146/146/146 145/145/145 
f 145/145/145 148/148/148 147/147/147 
f 148/148/148 149/149/149 147/147/147 
f 148/148/148 150/150/150 149/149/149 
f 153/153/153 152/152/152 151/151/151 
f 151/151/151 154/154/154 153/153/153 
f 151/151/151 155/155/155 154/154/154 
f 155/155/155 156/156/156 154/154/154 
f 159/159/159 158/158/158 157/157/157 
f 157/157/157 160/160/160 159/159/159 
f 157/157/157 161/161/161 160/160/160 
f 161/161/161 162/162/162 160/160/160 
f 165/165/165 164/164/164 163/163/163 
f 163/163/163 166/166/166 165/165/165 
f 163/163/163 167/167/167 166/166/166 
f 167/167/167 168/168/168 166/166/166 
f 171/171/171 170/170/170 169/169/169 
f 169/169/169 172/172/172 171/171/171 
f 169/169/169 173/173/173 172/172/172 
f 173/173/173 174/174/174 172/172/172 
f 177/177/177 176/176/176 175/175/175 
f 175/175/175 178/178/178 177/177/177 
f 175/175/175 179/179/179 178/178/178 
f 179/179/179 180/180/180 178/178/178 
f 183/183/183 182/182/182 181/181/181 
f 181/181/181 184/184/184 183/183/183 
f 184/184/184 185/185/185 183/183/183 
f 184/184/184 186/186/186 185/185/185 
f 189/189/189 188/188/188 187/187/187 
f 187/187/187 190/190/190 189/189/189 
f 190/190/190 191/191/191 189/189/189 
f 190/190/190 192/192/192 191/191/191 
f 195/195/195 194/194/194 193/193/193 
f 193/193/193 196/196/196 195/195/195 
f 193/193/193 197/197/197 196/196/196 
f 197/197/197 198/198/198 196/196/196 
f 201/201/201 200/200/200 199/199/199 
f 199/199/199 202/202/202 201/201/201 
f 202/202/202 203/203/203 201/201/201 
f 202/202/202 204/204/204 203/203/203 
f 207/207/207 206/206/206 205/205/205 
f 205/205/205 208/208/208 207/207/207 
f 208/208/208 209/209/209 207/207/207 
f 208/208/208 210/210/210 209/209/209 
f 213/213/213 212/212/212 211/211/211 
f 211/211/211 214/214/214 213/213/213 
f 214/214/214 215/215/215 213/213/213 
f 214/214/214 216/216/216 215/215/215 
f 219/219/219 218/218/218 217/217/217 
f 217/217/217 220/220/220 219/219/219 
f 220/220/220 221/221/221 219/219/219 
f 220/220/220 222/222/222 221/221/221 
f 225/225/225 224/224/224 223/223/223 
f 223/223/223 226/226/226 225/225/225 
f 223/223/223 227/227/227 226/226/226 
f 227/227/227 228/228/228 226/226/226 
f 231/231/231 230/230/230 229/229/229 
f 229/229/229 232/232/232 231/231/231 
f 229/229/229 233/233/233 232/232/232 
f 233/233/233 234/234/234 232/232/232 
f 237/237/237 236/236/236 235/235/235 
f 235/235/235 238/238/238 237/237/237 
f 235/235/235 239/239/239 238/238/238 
f 239/239/239 240/240/240 238/238/238 
f 243/243/243 242/242/242 241/241/241 
f 241/241/241 244/244/244 243/243/243 
f 244/244/244 245/245/245 243/243/243 
f 248/248/248 247/247/247 246/246/246 
f 246/246/246 249/249/249 248/248/248 
f 246/246/246 250/250/250 249/249/249 
f 253/253/253 252/252/252 251/251/251 
f 251/251/251 254/254/254 253/253/253 
f 254/254/254 255/255/255 253/253/253 
f 258/258/258 257/257/257 256/256/256 
f 256/256/256 259/259/259 258/258/258 
f 259/259/259 260/260/260 258/258/258 
f 263/263/263 262/262/262 261/261/261 
f 261/261/261 264/264/264 263/263/263 
f 261/261/261 265/265/265 264/264/264 
f 268/268/268 267/267/267 266/266/266 
f 266/266/266 269/269/269 268/268/268 
f 269/269/269 270/270/270 268/268/268 
f 273/273/273 272/272/272 271/271/271 
f 271/271/271 274/274/274 273/273/273 
f 271/271/271 275/275/275 274/274/274 
f 278/278/278 277/277/277 276/276/276 
f 276/276/276 279/279/279 278/278/278 
f 276/276/276 280/280/280 279/279/279 
f 283/283/283 282/282/282 281/281/281 
f 281/281/281 284/284/284 283/283/283 
f 281/281/281 285/285/285 284/284/284 
f 288/288/288 287/287/287 286/286/286 
f 286/286/286 289/289/289 288/288/288 
f 286/286/286 290/290/290 289/289/289 
f 293/293/293 292/292/292 291/291/291 
f 291/291/291 294/294/294 293/293/293 
f 294/294/294 295/295/295 293/293/293 
f 298/298/298 297/297/297 296/296/296 
f 296/296/296 299/299/299 298/298/298 
f 296/296/296 300/300/300 299/299/299 
f 303/303/303 302/302/302 301/301/301 
f 301/301/301 304/304/304 303/303/303 
f 304/304/304 305/305/305 303/303/303 
f 304/304/304 306/306/306 305/305/305 
f 309/309/309 308/308/308 307/307/307 
f 307/307/307 310/310/310 309/309/309 
f 310/310/310 311/311/311 309/309/309 
f 310/310/310 312/312/312 311/311/311 
f 315/315/315 314/314/314 313/313/313 
f 313/313/313 316/316/316 315/315/315 
f 316/316/316 317/317/317 315/315/315 
f 316/316/316 318/318/318 317/317/317 
f 321/321/321 320/320/320 319/319/319 
f 319/319/319 322/322/322 321/321/321 
f 319/319/319 323/323/323 322/322/322 
f 323/323/323 324/324/324 322/322/322 
f 327/327/327 326/326/326 325/325/325 
f 325/325/325 328/328/328 327/327/327 
f 325/325/325 329/329/329 328/328/328 
f 329/329/329 330/330/330 328/328/328 
f 333/333/333 332/332/332 331/331/331 
f 331/331/331 334/334/334 333/333/333 
f 334/334/334 335/335/335 333/333/333 
f 334/334/334 336/336/336 335/335/335 
f 339/339/339 338/338/338 337/337/337 
f 337/337/337 340/340/340 339/339/339 
f 340/340/340 341/341/341 339/339/339 
f 340/340/340 342/342/342 341/341/341 
f 345/345/345 344/344/344 343/343/343 
f 343/343/343 346/346/346 345/345/345 
f 346/346/346 347/347/347 345/345/345 
f 346/346/346 348/348/348 347/347/347 
f 351/351/351 350/350/350 349/349/349 
f 349/349/349 352/352/352 351/351/351 
f 352/352/352 353/353/353 351/351/351 
f 352/352/352 354/354/354 353/353/353 
f 357/357/357 356/356/356 355/355/355 
f 355/355/355 358/358/358 357/357/357 
f 355/355/355 359/359/359 358/358/358 
f 359/359/359 360/360/360 358/358/358 
f 363/363/363 362/362/362 361/361/361 
f 361/361/361 364/364/364 363/363/363 
f 364/364/364 365/365/365 363/363/363 
f 364/364/364 366/366/366 365/365/365 
f 369/369/369 368/368/368 367/367/367 
f 367/367/367 370/370/370 369/369/369 
f 370/370/370 371/371/371 369/369/369 
f 370/370/370 372/372/372 371/371/371 
f 375/375/375 374/374/374 373/373/373 
f 373/373/373 376/376/376 375/375/375 
f 376/376/376 377/377/377 375/375/375 
f 376/376/376 378/378/378 377/377/377 
f 381/381/381 380/380/380 379/379/379 
f 379/379/379 382/382/382 381/381/381 
f 382/382/382 383/383/383 381/381/381 
f 382/382/382 384/384/384 383/383/383 
f 387/387/387 386/386/386 385/385/385 
f 385/385/385 388/388/388 387/387/387 
f 388/388/388 389/389/389 387/387/387 
f 388/388/388 390/390/390 389/389/389 
f 393/393/393 392/392/392 391/391/391 
f 391/391/391 394/394/394 393/393/393 
f 391/391/391 395/395/395 394/394/394 
f 395/395/395 396/396/396 394/394/394 
f 399/399/399 398/398/398 397/397/397 
f 397/397/397 400/400/400 399/399/399 
f 397/397/397 401/401/401 400/400/400 
f 401/401/401 402/402/402 400/400/400 
f 405/405/405 404/404/404 403/403/403 
f 403/403/403 406/406/406 405/405/405 
f 403/403/403 407/407/407 406/406/406 
f 407/407/407 408/408/408 406/406/406 
f 411/411/411 410/410/410 409/409/409 
f 409/409/409 412/412/412 411/411/411 
f 409/409/409 413/413/413 412/412/412 
f 413/413/413 414/414/414 412/412/412 
f 417/417/417 416/416/416 415/415/415 
f 415/415/415 418/418/418 417/417/417 
f 415/415/415 419/419/419 418/418/418 
f 419/419/419 420/420/420 418/418/418 
f 423/423/423 422/422/422 421/421/421 
f 421/421/421 424/424/424 423/423/423 
f 424/424/424 425/425/425 423/423/423 
f 424/424/424 426/426/426 425/425/425 
f 429/429/429 428/428/428 427/427/427 
f 427/427/427 430/430/430 429/429/429 
f 430/430/430 431/431/431 429/429/429 
f 430/430/430 432/432/432 431/431/431 
f 435/435/435 434/434/434 433/433/433 
f 433/433/433 436/436/436 435/435/435 
f 433/433/433 437/437/437 436/436/436 
f 437/437/437 438/438/438 436/436/436 
f 441/441/441 440/440/440 439/439/439 
f 439/439/439 442/442/442 441/441/441 
f 442/442/442 443/443/443 441/441/441 
f 442/442/442 444/444/444 443/443/443 
f 447/447/447 446/446/446 445/445/445 
f 445/445/445 448/448/448 447/447/447 
f 448/448/448 449/449/449 447/447/447 
f 448/448/448 450/450/450 449/449/449 
f 453/453/453 452/452/452 451/451/451 
f 451/451/451 454/454/454 453/453/453 
f 454/454/454 455/455/455 453/453/453 
f 454/454/454 456/456/456 455/455/455 
f 459/459/459 458/458/458 457/457/457 
f 457/457/457 460/460/460 459/459/459 
f 460/460/460 461/461/461 459/459/459 
f 460/460/460 462/462/462 461/461/461 
f 465/465/465 464/464/464 463/463/463 
f 463/463/463 466/466/466 465/465/465 
f 463/463/463 467/467/467 466/466/466 
f 467/467/467 468/468/468 466/466/466 
f 471/471/471 470/470/470 469/469/469 
f 469/469/469 472/472/472 471/471/471 
f 469/469/469 473/473/473 472/472/472 
f 473/473/473 474/474/474 472/472/472 
f 477/477/477 476/476/476 475/475/475 
f 475/475/475 478/478/478 477/477/477 
f 475/475/475 479/479/479 478/478/478 
f 479/479/479 480/480/480 478/478/478 

