[
	{
		"ID": 1,
		"Name": "Matthew",
		"Awaken1Material": [
			{
				"GoodsType": "GoodsType_Item",
				"Id": 3253,
				"Count": 5
			},
			{
				"GoodsType": "GoodsType_Item",
				"Id": 3251,
				"Count": 8
			},
			{
				"GoodsType": "GoodsType_Item",
				"Id": 3248,
				"Count": 8
			}
		],
		"Awaken1LevelID": 1001,
		"Awaken2Unlock": true,
		"Awaken2Material": [
			{
				"GoodsType": "GoodsType_Item",
				"Id": 3260,
				"Count": 5
			},
			{
				"GoodsType": "GoodsType_Item",
				"Id": 3258,
				"Count": 12
			},
			{
				"GoodsType": "GoodsType_Item",
				"Id": 3255,
				"Count": 12
			}
		],
		"Awaken2LevelID": 2001,
		"Level2SkillID": 12064,
		"Anim": "Spine/Cutscene/Mathew_ABS/Mathew_Cutscene_Prefab.prefab"
	},
	{
		"ID": 3,
		"Name": "Grenier",
		"Awaken1Material": [
			{
				"GoodsType": "GoodsType_Item",
				"Id": 3253,
				"Count": 5
			},
			{
				"GoodsType": "GoodsType_Item",
				"Id": 3251,
				"Count": 8
			},
			{
				"GoodsType": "GoodsType_Item",
				"Id": 3248,
				"Count": 8
			}
		],
		"Awaken1LevelID": 1003,
		"Awaken2Unlock": false,
		"Awaken2Material": [
			{
				"GoodsType": "GoodsType_Item",
				"Id": 3260,
				"Count": 5
			},
			{
				"GoodsType": "GoodsType_Item",
				"Id": 3258,
				"Count": 12
			},
			{
				"GoodsType": "GoodsType_Item",
				"Id": 3255,
				"Count": 12
			}
		],
		"Awaken2LevelID": 2003,
		"Level2SkillID": 0,
		"Anim": ""
	},
	{
		"ID": 4,
		"Name": "Almeda",
		"Awaken1Material": [
			{
				"GoodsType": "GoodsType_Item",
				"Id": 3253,
				"Count": 5
			},
			{
				"GoodsType": "GoodsType_Item",
				"Id": 3249,
				"Count": 8
			},
			{
				"GoodsType": "GoodsType_Item",
				"Id": 3247,
				"Count": 8
			}
		],
		"Awaken1LevelID": 1004,
		"Awaken2Unlock": false,
		"Awaken2Material": [
			{
				"GoodsType": "GoodsType_Item",
				"Id": 3260,
				"Count": 5
			},
			{
				"GoodsType": "GoodsType_Item",
				"Id": 3256,
				"Count": 12
			},
			{
				"GoodsType": "GoodsType_Item",
				"Id": 3254,
				"Count": 12
			}
		],
		"Awaken2LevelID": 2004,
		"Level2SkillID": 0,
		"Anim": ""
	},
	{
		"ID": 5,
		"Name": "Chris",
		"Awaken1Material": [
			{
				"GoodsType": "GoodsType_Item",
				"Id": 3253,
				"Count": 5
			},
			{
				"GoodsType": "GoodsType_Item",
				"Id": 3249,
				"Count": 8
			},
			{
				"GoodsType": "GoodsType_Item",
				"Id": 3247,
				"Count": 8
			}
		],
		"Awaken1LevelID": 1005,
		"Awaken2Unlock": true,
		"Awaken2Material": [
			{
				"GoodsType": "GoodsType_Item",
				"Id": 3260,
				"Count": 5
			},
			{
				"GoodsType": "GoodsType_Item",
				"Id": 3256,
				"Count": 12
			},
			{
				"GoodsType": "GoodsType_Item",
				"Id": 3254,
				"Count": 12
			}
		],
		"Awaken2LevelID": 2005,
		"Level2SkillID": 12078,
		"Anim": "Spine/Cutscene/Chris_ABS/Chris_Cutscene_Prefab.prefab"
	},
	{
		"ID": 6,
		"Name": "Leon",
		"Awaken1Material": [
			{
				"GoodsType": "GoodsType_Item",
				"Id": 3253,
				"Count": 5
			},
			{
				"GoodsType": "GoodsType_Item",
				"Id": 3248,
				"Count": 8
			},
			{
				"GoodsType": "GoodsType_Item",
				"Id": 3252,
				"Count": 8
			}
		],
		"Awaken1LevelID": 1006,
		"Awaken2Unlock": true,
		"Awaken2Material": [
			{
				"GoodsType": "GoodsType_Item",
				"Id": 3260,
				"Count": 5
			},
			{
				"GoodsType": "GoodsType_Item",
				"Id": 3255,
				"Count": 12
			},
			{
				"GoodsType": "GoodsType_Item",
				"Id": 3259,
				"Count": 12
			}
		],
		"Awaken2LevelID": 2006,
		"Level2SkillID": 12079,
		"Anim": "Spine/Cutscene/Leon_ABS/Leon_Cutscene_Prefab.prefab"
	},
	{
		"ID": 7,
		"Name": "Bernhardt",
		"Awaken1Material": [
			{
				"GoodsType": "GoodsType_Item",
				"Id": 3253,
				"Count": 5
			},
			{
				"GoodsType": "GoodsType_Item",
				"Id": 3251,
				"Count": 8
			},
			{
				"GoodsType": "GoodsType_Item",
				"Id": 3248,
				"Count": 8
			}
		],
		"Awaken1LevelID": 1007,
		"Awaken2Unlock": false,
		"Awaken2Material": [
			{
				"GoodsType": "GoodsType_Item",
				"Id": 3260,
				"Count": 5
			},
			{
				"GoodsType": "GoodsType_Item",
				"Id": 3258,
				"Count": 12
			},
			{
				"GoodsType": "GoodsType_Item",
				"Id": 3255,
				"Count": 12
			}
		],
		"Awaken2LevelID": 2007,
		"Level2SkillID": 0,
		"Anim": ""
	},
	{
		"ID": 8,
		"Name": "Lana",
		"Awaken1Material": [
			{
				"GoodsType": "GoodsType_Item",
				"Id": 3253,
				"Count": 5
			},
			{
				"GoodsType": "GoodsType_Item",
				"Id": 3250,
				"Count": 8
			},
			{
				"GoodsType": "GoodsType_Item",
				"Id": 3251,
				"Count": 8
			}
		],
		"Awaken1LevelID": 1008,
		"Awaken2Unlock": true,
		"Awaken2Material": [
			{
				"GoodsType": "GoodsType_Item",
				"Id": 3260,
				"Count": 5
			},
			{
				"GoodsType": "GoodsType_Item",
				"Id": 3257,
				"Count": 12
			},
			{
				"GoodsType": "GoodsType_Item",
				"Id": 3258,
				"Count": 12
			}
		],
		"Awaken2LevelID": 2008,
		"Level2SkillID": 12119,
		"Anim": "Spine/Cutscene/Lana_ABS/Lana_Cutscene_Prefab.prefab"
	},
	{
		"ID": 9,
		"Name": "Bozel",
		"Awaken1Material": [
			{
				"GoodsType": "GoodsType_Item",
				"Id": 3253,
				"Count": 5
			},
			{
				"GoodsType": "GoodsType_Item",
				"Id": 3247,
				"Count": 8
			},
			{
				"GoodsType": "GoodsType_Item",
				"Id": 3250,
				"Count": 8
			}
		],
		"Awaken1LevelID": 1009,
		"Awaken2Unlock": false,
		"Awaken2Material": [
			{
				"GoodsType": "GoodsType_Item",
				"Id": 3260,
				"Count": 5
			},
			{
				"GoodsType": "GoodsType_Item",
				"Id": 3254,
				"Count": 12
			},
			{
				"GoodsType": "GoodsType_Item",
				"Id": 3257,
				"Count": 12
			}
		],
		"Awaken2LevelID": 2009,
		"Level2SkillID": 0,
		"Anim": ""
	},
	{
		"ID": 10,
		"Name": "Ledin",
		"Awaken1Material": [
			{
				"GoodsType": "GoodsType_Item",
				"Id": 3253,
				"Count": 5
			},
			{
				"GoodsType": "GoodsType_Item",
				"Id": 3251,
				"Count": 8
			},
			{
				"GoodsType": "GoodsType_Item",
				"Id": 3248,
				"Count": 8
			}
		],
		"Awaken1LevelID": 1010,
		"Awaken2Unlock": true,
		"Awaken2Material": [
			{
				"GoodsType": "GoodsType_Item",
				"Id": 3260,
				"Count": 5
			},
			{
				"GoodsType": "GoodsType_Item",
				"Id": 3258,
				"Count": 12
			},
			{
				"GoodsType": "GoodsType_Item",
				"Id": 3255,
				"Count": 12
			}
		],
		"Awaken2LevelID": 2010,
		"Level2SkillID": 12109,
		"Anim": "Spine/Cutscene/Ledin_ABS/Ledin_Cutscene_Prefab.prefab"
	},
	{
		"ID": 11,
		"Name": "Narm",
		"Awaken1Material": [
			{
				"GoodsType": "GoodsType_Item",
				"Id": 3253,
				"Count": 5
			},
			{
				"GoodsType": "GoodsType_Item",
				"Id": 3252,
				"Count": 8
			},
			{
				"GoodsType": "GoodsType_Item",
				"Id": 3249,
				"Count": 8
			}
		],
		"Awaken1LevelID": 1011,
		"Awaken2Unlock": false,
		"Awaken2Material": [
			{
				"GoodsType": "GoodsType_Item",
				"Id": 3260,
				"Count": 5
			},
			{
				"GoodsType": "GoodsType_Item",
				"Id": 3259,
				"Count": 12
			},
			{
				"GoodsType": "GoodsType_Item",
				"Id": 3256,
				"Count": 12
			}
		],
		"Awaken2LevelID": 2011,
		"Level2SkillID": 0,
		"Anim": ""
	},
	{
		"ID": 12,
		"Name": "Elwin",
		"Awaken1Material": [
			{
				"GoodsType": "GoodsType_Item",
				"Id": 3253,
				"Count": 5
			},
			{
				"GoodsType": "GoodsType_Item",
				"Id": 3251,
				"Count": 8
			},
			{
				"GoodsType": "GoodsType_Item",
				"Id": 3248,
				"Count": 8
			}
		],
		"Awaken1LevelID": 1012,
		"Awaken2Unlock": false,
		"Awaken2Material": [
			{
				"GoodsType": "GoodsType_Item",
				"Id": 3260,
				"Count": 5
			},
			{
				"GoodsType": "GoodsType_Item",
				"Id": 3258,
				"Count": 12
			},
			{
				"GoodsType": "GoodsType_Item",
				"Id": 3255,
				"Count": 12
			}
		],
		"Awaken2LevelID": 2012,
		"Level2SkillID": 0,
		"Anim": ""
	},
	{
		"ID": 13,
		"Name": "Hein",
		"Awaken1Material": [
			{
				"GoodsType": "GoodsType_Item",
				"Id": 3253,
				"Count": 5
			},
			{
				"GoodsType": "GoodsType_Item",
				"Id": 3250,
				"Count": 8
			},
			{
				"GoodsType": "GoodsType_Item",
				"Id": 3251,
				"Count": 8
			}
		],
		"Awaken1LevelID": 1013,
		"Awaken2Unlock": true,
		"Awaken2Material": [
			{
				"GoodsType": "GoodsType_Item",
				"Id": 3260,
				"Count": 5
			},
			{
				"GoodsType": "GoodsType_Item",
				"Id": 3257,
				"Count": 12
			},
			{
				"GoodsType": "GoodsType_Item",
				"Id": 3258,
				"Count": 12
			}
		],
		"Awaken2LevelID": 2013,
		"Level2SkillID": 12111,
		"Anim": "Spine/Cutscene/Hein_ABS/Hein_Cutscene_Prefab.prefab"
	},
	{
		"ID": 14,
		"Name": "Cherie",
		"Awaken1Material": [
			{
				"GoodsType": "GoodsType_Item",
				"Id": 3253,
				"Count": 5
			},
			{
				"GoodsType": "GoodsType_Item",
				"Id": 3252,
				"Count": 8
			},
			{
				"GoodsType": "GoodsType_Item",
				"Id": 3249,
				"Count": 8
			}
		],
		"Awaken1LevelID": 1014,
		"Awaken2Unlock": true,
		"Awaken2Material": [
			{
				"GoodsType": "GoodsType_Item",
				"Id": 3260,
				"Count": 5
			},
			{
				"GoodsType": "GoodsType_Item",
				"Id": 3259,
				"Count": 12
			},
			{
				"GoodsType": "GoodsType_Item",
				"Id": 3256,
				"Count": 12
			}
		],
		"Awaken2LevelID": 2014,
		"Level2SkillID": 12076,
		"Anim": "Spine/Cutscene/Sherry_ABS/Sherry_Cutscene_Prefab.prefab"
	},
	{
		"ID": 15,
		"Name": "Liana",
		"Awaken1Material": [
			{
				"GoodsType": "GoodsType_Item",
				"Id": 3253,
				"Count": 5
			},
			{
				"GoodsType": "GoodsType_Item",
				"Id": 3249,
				"Count": 8
			},
			{
				"GoodsType": "GoodsType_Item",
				"Id": 3247,
				"Count": 8
			}
		],
		"Awaken1LevelID": 1015,
		"Awaken2Unlock": false,
		"Awaken2Material": [
			{
				"GoodsType": "GoodsType_Item",
				"Id": 3260,
				"Count": 5
			},
			{
				"GoodsType": "GoodsType_Item",
				"Id": 3256,
				"Count": 12
			},
			{
				"GoodsType": "GoodsType_Item",
				"Id": 3254,
				"Count": 12
			}
		],
		"Awaken2LevelID": 2015,
		"Level2SkillID": 0,
		"Anim": ""
	},
	{
		"ID": 16,
		"Name": "Lance",
		"Awaken1Material": [
			{
				"GoodsType": "GoodsType_Item",
				"Id": 3253,
				"Count": 5
			},
			{
				"GoodsType": "GoodsType_Item",
				"Id": 3247,
				"Count": 8
			},
			{
				"GoodsType": "GoodsType_Item",
				"Id": 3250,
				"Count": 8
			}
		],
		"Awaken1LevelID": 1016,
		"Awaken2Unlock": false,
		"Awaken2Material": [
			{
				"GoodsType": "GoodsType_Item",
				"Id": 3260,
				"Count": 5
			},
			{
				"GoodsType": "GoodsType_Item",
				"Id": 3254,
				"Count": 12
			},
			{
				"GoodsType": "GoodsType_Item",
				"Id": 3257,
				"Count": 12
			}
		],
		"Awaken2LevelID": 2016,
		"Level2SkillID": 0,
		"Anim": ""
	},
	{
		"ID": 17,
		"Name": "Egbert",
		"Awaken1Material": [
			{
				"GoodsType": "GoodsType_Item",
				"Id": 3253,
				"Count": 5
			},
			{
				"GoodsType": "GoodsType_Item",
				"Id": 3250,
				"Count": 8
			},
			{
				"GoodsType": "GoodsType_Item",
				"Id": 3251,
				"Count": 8
			}
		],
		"Awaken1LevelID": 1017,
		"Awaken2Unlock": false,
		"Awaken2Material": [
			{
				"GoodsType": "GoodsType_Item",
				"Id": 3260,
				"Count": 5
			},
			{
				"GoodsType": "GoodsType_Item",
				"Id": 3257,
				"Count": 12
			},
			{
				"GoodsType": "GoodsType_Item",
				"Id": 3258,
				"Count": 12
			}
		],
		"Awaken2LevelID": 2017,
		"Level2SkillID": 0,
		"Anim": ""
	},
	{
		"ID": 18,
		"Name": "Imelda",
		"Awaken1Material": [
			{
				"GoodsType": "GoodsType_Item",
				"Id": 3253,
				"Count": 5
			},
			{
				"GoodsType": "GoodsType_Item",
				"Id": 3250,
				"Count": 8
			},
			{
				"GoodsType": "GoodsType_Item",
				"Id": 3251,
				"Count": 8
			}
		],
		"Awaken1LevelID": 1018,
		"Awaken2Unlock": false,
		"Awaken2Material": [
			{
				"GoodsType": "GoodsType_Item",
				"Id": 3260,
				"Count": 5
			},
			{
				"GoodsType": "GoodsType_Item",
				"Id": 3257,
				"Count": 12
			},
			{
				"GoodsType": "GoodsType_Item",
				"Id": 3258,
				"Count": 12
			}
		],
		"Awaken2LevelID": 2018,
		"Level2SkillID": 0,
		"Anim": ""
	},
	{
		"ID": 19,
		"Name": "Lester",
		"Awaken1Material": [
			{
				"GoodsType": "GoodsType_Item",
				"Id": 3253,
				"Count": 5
			},
			{
				"GoodsType": "GoodsType_Item",
				"Id": 3247,
				"Count": 8
			},
			{
				"GoodsType": "GoodsType_Item",
				"Id": 3250,
				"Count": 8
			}
		],
		"Awaken1LevelID": 1019,
		"Awaken2Unlock": false,
		"Awaken2Material": [
			{
				"GoodsType": "GoodsType_Item",
				"Id": 3260,
				"Count": 5
			},
			{
				"GoodsType": "GoodsType_Item",
				"Id": 3254,
				"Count": 12
			},
			{
				"GoodsType": "GoodsType_Item",
				"Id": 3257,
				"Count": 12
			}
		],
		"Awaken2LevelID": 2019,
		"Level2SkillID": 0,
		"Anim": ""
	},
	{
		"ID": 20,
		"Name": "Sonya",
		"Awaken1Material": [
			{
				"GoodsType": "GoodsType_Item",
				"Id": 3253,
				"Count": 5
			},
			{
				"GoodsType": "GoodsType_Item",
				"Id": 3248,
				"Count": 8
			},
			{
				"GoodsType": "GoodsType_Item",
				"Id": 3252,
				"Count": 8
			}
		],
		"Awaken1LevelID": 1020,
		"Awaken2Unlock": true,
		"Awaken2Material": [
			{
				"GoodsType": "GoodsType_Item",
				"Id": 3260,
				"Count": 5
			},
			{
				"GoodsType": "GoodsType_Item",
				"Id": 3255,
				"Count": 12
			},
			{
				"GoodsType": "GoodsType_Item",
				"Id": 3259,
				"Count": 12
			}
		],
		"Awaken2LevelID": 2020,
		"Level2SkillID": 12085,
		"Anim": "Spine/Cutscene/Sonia_ABS/Sonia_Cutscene_Prefab.prefab"
	},
	{
		"ID": 21,
		"Name": "Vargas",
		"Awaken1Material": [
			{
				"GoodsType": "GoodsType_Item",
				"Id": 3253,
				"Count": 5
			},
			{
				"GoodsType": "GoodsType_Item",
				"Id": 3251,
				"Count": 8
			},
			{
				"GoodsType": "GoodsType_Item",
				"Id": 3248,
				"Count": 8
			}
		],
		"Awaken1LevelID": 1021,
		"Awaken2Unlock": false,
		"Awaken2Material": [
			{
				"GoodsType": "GoodsType_Item",
				"Id": 3260,
				"Count": 5
			},
			{
				"GoodsType": "GoodsType_Item",
				"Id": 3258,
				"Count": 12
			},
			{
				"GoodsType": "GoodsType_Item",
				"Id": 3255,
				"Count": 12
			}
		],
		"Awaken2LevelID": 2021,
		"Level2SkillID": 0,
		"Anim": ""
	},
	{
		"ID": 22,
		"Name": "Jessica",
		"Awaken1Material": [
			{
				"GoodsType": "GoodsType_Item",
				"Id": 3253,
				"Count": 5
			},
			{
				"GoodsType": "GoodsType_Item",
				"Id": 3250,
				"Count": 8
			},
			{
				"GoodsType": "GoodsType_Item",
				"Id": 3251,
				"Count": 8
			}
		],
		"Awaken1LevelID": 1022,
		"Awaken2Unlock": false,
		"Awaken2Material": [
			{
				"GoodsType": "GoodsType_Item",
				"Id": 3260,
				"Count": 5
			},
			{
				"GoodsType": "GoodsType_Item",
				"Id": 3257,
				"Count": 12
			},
			{
				"GoodsType": "GoodsType_Item",
				"Id": 3258,
				"Count": 12
			}
		],
		"Awaken2LevelID": 2022,
		"Level2SkillID": 0,
		"Anim": ""
	},
	{
		"ID": 23,
		"Name": "Rohga",
		"Awaken1Material": [
			{
				"GoodsType": "GoodsType_Item",
				"Id": 3253,
				"Count": 5
			},
			{
				"GoodsType": "GoodsType_Item",
				"Id": 3252,
				"Count": 8
			},
			{
				"GoodsType": "GoodsType_Item",
				"Id": 3249,
				"Count": 8
			}
		],
		"Awaken1LevelID": 1023,
		"Awaken2Unlock": false,
		"Awaken2Material": [
			{
				"GoodsType": "GoodsType_Item",
				"Id": 3260,
				"Count": 5
			},
			{
				"GoodsType": "GoodsType_Item",
				"Id": 3259,
				"Count": 12
			},
			{
				"GoodsType": "GoodsType_Item",
				"Id": 3256,
				"Count": 12
			}
		],
		"Awaken2LevelID": 2023,
		"Level2SkillID": 0,
		"Anim": ""
	},
	{
		"ID": 24,
		"Name": "Scott",
		"Awaken1Material": [
			{
				"GoodsType": "GoodsType_Item",
				"Id": 3253,
				"Count": 5
			},
			{
				"GoodsType": "GoodsType_Item",
				"Id": 3248,
				"Count": 8
			},
			{
				"GoodsType": "GoodsType_Item",
				"Id": 3252,
				"Count": 8
			}
		],
		"Awaken1LevelID": 1024,
		"Awaken2Unlock": false,
		"Awaken2Material": [
			{
				"GoodsType": "GoodsType_Item",
				"Id": 3260,
				"Count": 5
			},
			{
				"GoodsType": "GoodsType_Item",
				"Id": 3255,
				"Count": 12
			},
			{
				"GoodsType": "GoodsType_Item",
				"Id": 3259,
				"Count": 12
			}
		],
		"Awaken2LevelID": 2024,
		"Level2SkillID": 0,
		"Anim": ""
	},
	{
		"ID": 25,
		"Name": "Altemuller",
		"Awaken1Material": [
			{
				"GoodsType": "GoodsType_Item",
				"Id": 3253,
				"Count": 5
			},
			{
				"GoodsType": "GoodsType_Item",
				"Id": 3247,
				"Count": 8
			},
			{
				"GoodsType": "GoodsType_Item",
				"Id": 3250,
				"Count": 8
			}
		],
		"Awaken1LevelID": 1025,
		"Awaken2Unlock": false,
		"Awaken2Material": [
			{
				"GoodsType": "GoodsType_Item",
				"Id": 3260,
				"Count": 5
			},
			{
				"GoodsType": "GoodsType_Item",
				"Id": 3254,
				"Count": 12
			},
			{
				"GoodsType": "GoodsType_Item",
				"Id": 3257,
				"Count": 12
			}
		],
		"Awaken2LevelID": 2025,
		"Level2SkillID": 0,
		"Anim": ""
	},
	{
		"ID": 26,
		"Name": "Luna",
		"Awaken1Material": [
			{
				"GoodsType": "GoodsType_Item",
				"Id": 3253,
				"Count": 5
			},
			{
				"GoodsType": "GoodsType_Item",
				"Id": 3247,
				"Count": 8
			},
			{
				"GoodsType": "GoodsType_Item",
				"Id": 3250,
				"Count": 8
			}
		],
		"Awaken1LevelID": 1026,
		"Awaken2Unlock": true,
		"Awaken2Material": [
			{
				"GoodsType": "GoodsType_Item",
				"Id": 3260,
				"Count": 5
			},
			{
				"GoodsType": "GoodsType_Item",
				"Id": 3254,
				"Count": 12
			},
			{
				"GoodsType": "GoodsType_Item",
				"Id": 3257,
				"Count": 12
			}
		],
		"Awaken2LevelID": 2026,
		"Level2SkillID": 12054,
		"Anim": "Spine/Cutscene/Luna_ABS/Luna_Skin04_Prefab.prefab"
	},
	{
		"ID": 27,
		"Name": "Dieharte",
		"Awaken1Material": [
			{
				"GoodsType": "GoodsType_Item",
				"Id": 3253,
				"Count": 5
			},
			{
				"GoodsType": "GoodsType_Item",
				"Id": 3252,
				"Count": 8
			},
			{
				"GoodsType": "GoodsType_Item",
				"Id": 3249,
				"Count": 8
			}
		],
		"Awaken1LevelID": 1027,
		"Awaken2Unlock": true,
		"Awaken2Material": [
			{
				"GoodsType": "GoodsType_Item",
				"Id": 3260,
				"Count": 5
			},
			{
				"GoodsType": "GoodsType_Item",
				"Id": 3259,
				"Count": 12
			},
			{
				"GoodsType": "GoodsType_Item",
				"Id": 3256,
				"Count": 12
			}
		],
		"Awaken2LevelID": 2027,
		"Level2SkillID": 12120,
		"Anim": "Spine/Cutscene/Dehault_ABS/Dehault_Cutscene_Prefab.prefab"
	},
	{
		"ID": 28,
		"Name": "Zerida",
		"Awaken1Material": [
			{
				"GoodsType": "GoodsType_Item",
				"Id": 3253,
				"Count": 5
			},
			{
				"GoodsType": "GoodsType_Item",
				"Id": 3252,
				"Count": 8
			},
			{
				"GoodsType": "GoodsType_Item",
				"Id": 3249,
				"Count": 8
			}
		],
		"Awaken1LevelID": 1028,
		"Awaken2Unlock": false,
		"Awaken2Material": [
			{
				"GoodsType": "GoodsType_Item",
				"Id": 3260,
				"Count": 5
			},
			{
				"GoodsType": "GoodsType_Item",
				"Id": 3259,
				"Count": 12
			},
			{
				"GoodsType": "GoodsType_Item",
				"Id": 3256,
				"Count": 12
			}
		],
		"Awaken2LevelID": 2028,
		"Level2SkillID": 0,
		"Anim": ""
	},
	{
		"ID": 29,
		"Name": "Tiaris",
		"Awaken1Material": [
			{
				"GoodsType": "GoodsType_Item",
				"Id": 3253,
				"Count": 5
			},
			{
				"GoodsType": "GoodsType_Item",
				"Id": 3249,
				"Count": 8
			},
			{
				"GoodsType": "GoodsType_Item",
				"Id": 3247,
				"Count": 8
			}
		],
		"Awaken1LevelID": 1029,
		"Awaken2Unlock": false,
		"Awaken2Material": [
			{
				"GoodsType": "GoodsType_Item",
				"Id": 3260,
				"Count": 5
			},
			{
				"GoodsType": "GoodsType_Item",
				"Id": 3256,
				"Count": 12
			},
			{
				"GoodsType": "GoodsType_Item",
				"Id": 3254,
				"Count": 12
			}
		],
		"Awaken2LevelID": 2029,
		"Level2SkillID": 0,
		"Anim": ""
	},
	{
		"ID": 30,
		"Name": "Liffany",
		"Awaken1Material": [
			{
				"GoodsType": "GoodsType_Item",
				"Id": 3253,
				"Count": 5
			},
			{
				"GoodsType": "GoodsType_Item",
				"Id": 3250,
				"Count": 8
			},
			{
				"GoodsType": "GoodsType_Item",
				"Id": 3251,
				"Count": 8
			}
		],
		"Awaken1LevelID": 1030,
		"Awaken2Unlock": true,
		"Awaken2Material": [
			{
				"GoodsType": "GoodsType_Item",
				"Id": 3260,
				"Count": 5
			},
			{
				"GoodsType": "GoodsType_Item",
				"Id": 3257,
				"Count": 12
			},
			{
				"GoodsType": "GoodsType_Item",
				"Id": 3258,
				"Count": 12
			}
		],
		"Awaken2LevelID": 2030,
		"Level2SkillID": 12089,
		"Anim": "Spine/Cutscene/Leafani_ABS/Leafani_Cutscene_Prefab.prefab"
	},
	{
		"ID": 31,
		"Name": "Sophia",
		"Awaken1Material": [
			{
				"GoodsType": "GoodsType_Item",
				"Id": 3253,
				"Count": 5
			},
			{
				"GoodsType": "GoodsType_Item",
				"Id": 3249,
				"Count": 8
			},
			{
				"GoodsType": "GoodsType_Item",
				"Id": 3247,
				"Count": 8
			}
		],
		"Awaken1LevelID": 1031,
		"Awaken2Unlock": false,
		"Awaken2Material": [
			{
				"GoodsType": "GoodsType_Item",
				"Id": 3260,
				"Count": 5
			},
			{
				"GoodsType": "GoodsType_Item",
				"Id": 3256,
				"Count": 12
			},
			{
				"GoodsType": "GoodsType_Item",
				"Id": 3254,
				"Count": 12
			}
		],
		"Awaken2LevelID": 2031,
		"Level2SkillID": 0,
		"Anim": ""
	},
	{
		"ID": 32,
		"Name": "Emerick",
		"Awaken1Material": [
			{
				"GoodsType": "GoodsType_Item",
				"Id": 3253,
				"Count": 5
			},
			{
				"GoodsType": "GoodsType_Item",
				"Id": 3248,
				"Count": 8
			},
			{
				"GoodsType": "GoodsType_Item",
				"Id": 3252,
				"Count": 8
			}
		],
		"Awaken1LevelID": 1032,
		"Awaken2Unlock": false,
		"Awaken2Material": [
			{
				"GoodsType": "GoodsType_Item",
				"Id": 3260,
				"Count": 5
			},
			{
				"GoodsType": "GoodsType_Item",
				"Id": 3255,
				"Count": 12
			},
			{
				"GoodsType": "GoodsType_Item",
				"Id": 3259,
				"Count": 12
			}
		],
		"Awaken2LevelID": 2032,
		"Level2SkillID": 0,
		"Anim": ""
	},
	{
		"ID": 33,
		"Name": "Freya",
		"Awaken1Material": [
			{
				"GoodsType": "GoodsType_Item",
				"Id": 3253,
				"Count": 5
			},
			{
				"GoodsType": "GoodsType_Item",
				"Id": 3252,
				"Count": 8
			},
			{
				"GoodsType": "GoodsType_Item",
				"Id": 3249,
				"Count": 8
			}
		],
		"Awaken1LevelID": 1033,
		"Awaken2Unlock": false,
		"Awaken2Material": [
			{
				"GoodsType": "GoodsType_Item",
				"Id": 3260,
				"Count": 5
			},
			{
				"GoodsType": "GoodsType_Item",
				"Id": 3259,
				"Count": 12
			},
			{
				"GoodsType": "GoodsType_Item",
				"Id": 3256,
				"Count": 12
			}
		],
		"Awaken2LevelID": 2033,
		"Level2SkillID": 0,
		"Anim": ""
	},
	{
		"ID": 34,
		"Name": "Kirikaze",
		"Awaken1Material": [
			{
				"GoodsType": "GoodsType_Item",
				"Id": 3253,
				"Count": 5
			},
			{
				"GoodsType": "GoodsType_Item",
				"Id": 3251,
				"Count": 8
			},
			{
				"GoodsType": "GoodsType_Item",
				"Id": 3248,
				"Count": 8
			}
		],
		"Awaken1LevelID": 1034,
		"Awaken2Unlock": false,
		"Awaken2Material": [
			{
				"GoodsType": "GoodsType_Item",
				"Id": 3260,
				"Count": 5
			},
			{
				"GoodsType": "GoodsType_Item",
				"Id": 3258,
				"Count": 12
			},
			{
				"GoodsType": "GoodsType_Item",
				"Id": 3255,
				"Count": 12
			}
		],
		"Awaken2LevelID": 2034,
		"Level2SkillID": 0,
		"Anim": ""
	},
	{
		"ID": 35,
		"Name": "Angelica",
		"Awaken1Material": [
			{
				"GoodsType": "GoodsType_Item",
				"Id": 3253,
				"Count": 5
			},
			{
				"GoodsType": "GoodsType_Item",
				"Id": 3250,
				"Count": 8
			},
			{
				"GoodsType": "GoodsType_Item",
				"Id": 3251,
				"Count": 8
			}
		],
		"Awaken1LevelID": 1035,
		"Awaken2Unlock": false,
		"Awaken2Material": [
			{
				"GoodsType": "GoodsType_Item",
				"Id": 3260,
				"Count": 5
			},
			{
				"GoodsType": "GoodsType_Item",
				"Id": 3257,
				"Count": 12
			},
			{
				"GoodsType": "GoodsType_Item",
				"Id": 3258,
				"Count": 12
			}
		],
		"Awaken2LevelID": 2035,
		"Level2SkillID": 0,
		"Anim": ""
	},
	{
		"ID": 36,
		"Name": "Silver Wolf",
		"Awaken1Material": [
			{
				"GoodsType": "GoodsType_Item",
				"Id": 3253,
				"Count": 5
			},
			{
				"GoodsType": "GoodsType_Item",
				"Id": 3252,
				"Count": 8
			},
			{
				"GoodsType": "GoodsType_Item",
				"Id": 3249,
				"Count": 8
			}
		],
		"Awaken1LevelID": 1036,
		"Awaken2Unlock": false,
		"Awaken2Material": [
			{
				"GoodsType": "GoodsType_Item",
				"Id": 3260,
				"Count": 5
			},
			{
				"GoodsType": "GoodsType_Item",
				"Id": 3259,
				"Count": 12
			},
			{
				"GoodsType": "GoodsType_Item",
				"Id": 3256,
				"Count": 12
			}
		],
		"Awaken2LevelID": 2036,
		"Level2SkillID": 0,
		"Anim": ""
	},
	{
		"ID": 37,
		"Name": "Jugler",
		"Awaken1Material": [
			{
				"GoodsType": "GoodsType_Item",
				"Id": 3253,
				"Count": 5
			},
			{
				"GoodsType": "GoodsType_Item",
				"Id": 3247,
				"Count": 8
			},
			{
				"GoodsType": "GoodsType_Item",
				"Id": 3250,
				"Count": 8
			}
		],
		"Awaken1LevelID": 1037,
		"Awaken2Unlock": true,
		"Awaken2Material": [
			{
				"GoodsType": "GoodsType_Item",
				"Id": 3260,
				"Count": 5
			},
			{
				"GoodsType": "GoodsType_Item",
				"Id": 3254,
				"Count": 12
			},
			{
				"GoodsType": "GoodsType_Item",
				"Id": 3257,
				"Count": 12
			}
		],
		"Awaken2LevelID": 2037,
		"Level2SkillID": 12082,
		"Anim": "Spine/Cutscene/Zigodlla_ABS/Zigodlla_Cutscene_Prefab.prefab"
	},
	{
		"ID": 38,
		"Name": "Gerold & Layla",
		"Awaken1Material": [
			{
				"GoodsType": "GoodsType_Item",
				"Id": 3253,
				"Count": 5
			},
			{
				"GoodsType": "GoodsType_Item",
				"Id": 3248,
				"Count": 8
			},
			{
				"GoodsType": "GoodsType_Item",
				"Id": 3252,
				"Count": 8
			}
		],
		"Awaken1LevelID": 1038,
		"Awaken2Unlock": true,
		"Awaken2Material": [
			{
				"GoodsType": "GoodsType_Item",
				"Id": 3260,
				"Count": 5
			},
			{
				"GoodsType": "GoodsType_Item",
				"Id": 3255,
				"Count": 12
			},
			{
				"GoodsType": "GoodsType_Item",
				"Id": 3259,
				"Count": 12
			}
		],
		"Awaken2LevelID": 2038,
		"Level2SkillID": 12065,
		"Anim": "Spine/Cutscene/Jellioru_ABS/Jellioru_Cutscene_Prefab.prefab"
	},
	{
		"ID": 39,
		"Name": "Feraquea",
		"Awaken1Material": [
			{
				"GoodsType": "GoodsType_Item",
				"Id": 3253,
				"Count": 5
			},
			{
				"GoodsType": "GoodsType_Item",
				"Id": 3247,
				"Count": 8
			},
			{
				"GoodsType": "GoodsType_Item",
				"Id": 3250,
				"Count": 8
			}
		],
		"Awaken1LevelID": 1039,
		"Awaken2Unlock": false,
		"Awaken2Material": [
			{
				"GoodsType": "GoodsType_Item",
				"Id": 3260,
				"Count": 5
			},
			{
				"GoodsType": "GoodsType_Item",
				"Id": 3254,
				"Count": 12
			},
			{
				"GoodsType": "GoodsType_Item",
				"Id": 3257,
				"Count": 12
			}
		],
		"Awaken2LevelID": 2039,
		"Level2SkillID": 0,
		"Anim": ""
	},
	{
		"ID": 40,
		"Name": "Lewin",
		"Awaken1Material": [
			{
				"GoodsType": "GoodsType_Item",
				"Id": 3253,
				"Count": 5
			},
			{
				"GoodsType": "GoodsType_Item",
				"Id": 3251,
				"Count": 8
			},
			{
				"GoodsType": "GoodsType_Item",
				"Id": 3248,
				"Count": 8
			}
		],
		"Awaken1LevelID": 1040,
		"Awaken2Unlock": false,
		"Awaken2Material": [
			{
				"GoodsType": "GoodsType_Item",
				"Id": 3260,
				"Count": 5
			},
			{
				"GoodsType": "GoodsType_Item",
				"Id": 3258,
				"Count": 12
			},
			{
				"GoodsType": "GoodsType_Item",
				"Id": 3255,
				"Count": 12
			}
		],
		"Awaken2LevelID": 2040,
		"Level2SkillID": 0,
		"Anim": ""
	},
	{
		"ID": 41,
		"Name": "Pierre",
		"Awaken1Material": [
			{
				"GoodsType": "GoodsType_Item",
				"Id": 3253,
				"Count": 5
			},
			{
				"GoodsType": "GoodsType_Item",
				"Id": 3247,
				"Count": 8
			},
			{
				"GoodsType": "GoodsType_Item",
				"Id": 3250,
				"Count": 8
			}
		],
		"Awaken1LevelID": 1041,
		"Awaken2Unlock": false,
		"Awaken2Material": [
			{
				"GoodsType": "GoodsType_Item",
				"Id": 3260,
				"Count": 5
			},
			{
				"GoodsType": "GoodsType_Item",
				"Id": 3254,
				"Count": 12
			},
			{
				"GoodsType": "GoodsType_Item",
				"Id": 3257,
				"Count": 12
			}
		],
		"Awaken2LevelID": 2041,
		"Level2SkillID": 0,
		"Anim": ""
	},
	{
		"ID": 42,
		"Name": "Dios",
		"Awaken1Material": [
			{
				"GoodsType": "GoodsType_Item",
				"Id": 3253,
				"Count": 5
			},
			{
				"GoodsType": "GoodsType_Item",
				"Id": 3248,
				"Count": 8
			},
			{
				"GoodsType": "GoodsType_Item",
				"Id": 3252,
				"Count": 8
			}
		],
		"Awaken1LevelID": 1042,
		"Awaken2Unlock": false,
		"Awaken2Material": [
			{
				"GoodsType": "GoodsType_Item",
				"Id": 3260,
				"Count": 5
			},
			{
				"GoodsType": "GoodsType_Item",
				"Id": 3255,
				"Count": 12
			},
			{
				"GoodsType": "GoodsType_Item",
				"Id": 3259,
				"Count": 12
			}
		],
		"Awaken2LevelID": 2042,
		"Level2SkillID": 0,
		"Anim": ""
	},
	{
		"ID": 43,
		"Name": "Anna",
		"Awaken1Material": [
			{
				"GoodsType": "GoodsType_Item",
				"Id": 3253,
				"Count": 5
			},
			{
				"GoodsType": "GoodsType_Item",
				"Id": 3249,
				"Count": 8
			},
			{
				"GoodsType": "GoodsType_Item",
				"Id": 3247,
				"Count": 8
			}
		],
		"Awaken1LevelID": 1043,
		"Awaken2Unlock": false,
		"Awaken2Material": [
			{
				"GoodsType": "GoodsType_Item",
				"Id": 3260,
				"Count": 5
			},
			{
				"GoodsType": "GoodsType_Item",
				"Id": 3256,
				"Count": 12
			},
			{
				"GoodsType": "GoodsType_Item",
				"Id": 3254,
				"Count": 12
			}
		],
		"Awaken2LevelID": 2043,
		"Level2SkillID": 0,
		"Anim": ""
	},
	{
		"ID": 44,
		"Name": "Laird",
		"Awaken1Material": [
			{
				"GoodsType": "GoodsType_Item",
				"Id": 3253,
				"Count": 5
			},
			{
				"GoodsType": "GoodsType_Item",
				"Id": 3248,
				"Count": 8
			},
			{
				"GoodsType": "GoodsType_Item",
				"Id": 3252,
				"Count": 8
			}
		],
		"Awaken1LevelID": 1044,
		"Awaken2Unlock": false,
		"Awaken2Material": [
			{
				"GoodsType": "GoodsType_Item",
				"Id": 3260,
				"Count": 5
			},
			{
				"GoodsType": "GoodsType_Item",
				"Id": 3255,
				"Count": 12
			},
			{
				"GoodsType": "GoodsType_Item",
				"Id": 3259,
				"Count": 12
			}
		],
		"Awaken2LevelID": 2044,
		"Level2SkillID": 0,
		"Anim": ""
	},
	{
		"ID": 45,
		"Name": "Keith",
		"Awaken1Material": [
			{
				"GoodsType": "GoodsType_Item",
				"Id": 3253,
				"Count": 5
			},
			{
				"GoodsType": "GoodsType_Item",
				"Id": 3247,
				"Count": 8
			},
			{
				"GoodsType": "GoodsType_Item",
				"Id": 3250,
				"Count": 8
			}
		],
		"Awaken1LevelID": 1045,
		"Awaken2Unlock": false,
		"Awaken2Material": [
			{
				"GoodsType": "GoodsType_Item",
				"Id": 3260,
				"Count": 5
			},
			{
				"GoodsType": "GoodsType_Item",
				"Id": 3254,
				"Count": 12
			},
			{
				"GoodsType": "GoodsType_Item",
				"Id": 3257,
				"Count": 12
			}
		],
		"Awaken2LevelID": 2045,
		"Level2SkillID": 0,
		"Anim": ""
	},
	{
		"ID": 46,
		"Name": "Celia",
		"Awaken1Material": [
			{
				"GoodsType": "GoodsType_Item",
				"Id": 3253,
				"Count": 5
			},
			{
				"GoodsType": "GoodsType_Item",
				"Id": 3252,
				"Count": 8
			},
			{
				"GoodsType": "GoodsType_Item",
				"Id": 3249,
				"Count": 8
			}
		],
		"Awaken1LevelID": 1046,
		"Awaken2Unlock": false,
		"Awaken2Material": [
			{
				"GoodsType": "GoodsType_Item",
				"Id": 3260,
				"Count": 5
			},
			{
				"GoodsType": "GoodsType_Item",
				"Id": 3259,
				"Count": 12
			},
			{
				"GoodsType": "GoodsType_Item",
				"Id": 3256,
				"Count": 12
			}
		],
		"Awaken2LevelID": 2046,
		"Level2SkillID": 0,
		"Anim": ""
	},
	{
		"ID": 47,
		"Name": "Leticia",
		"Awaken1Material": [
			{
				"GoodsType": "GoodsType_Item",
				"Id": 3253,
				"Count": 5
			},
			{
				"GoodsType": "GoodsType_Item",
				"Id": 3248,
				"Count": 8
			},
			{
				"GoodsType": "GoodsType_Item",
				"Id": 3252,
				"Count": 8
			}
		],
		"Awaken1LevelID": 1047,
		"Awaken2Unlock": false,
		"Awaken2Material": [
			{
				"GoodsType": "GoodsType_Item",
				"Id": 3260,
				"Count": 5
			},
			{
				"GoodsType": "GoodsType_Item",
				"Id": 3255,
				"Count": 12
			},
			{
				"GoodsType": "GoodsType_Item",
				"Id": 3259,
				"Count": 12
			}
		],
		"Awaken2LevelID": 2047,
		"Level2SkillID": 0,
		"Anim": ""
	},
	{
		"ID": 48,
		"Name": "Aaron",
		"Awaken1Material": [
			{
				"GoodsType": "GoodsType_Item",
				"Id": 3253,
				"Count": 5
			},
			{
				"GoodsType": "GoodsType_Item",
				"Id": 3251,
				"Count": 8
			},
			{
				"GoodsType": "GoodsType_Item",
				"Id": 3248,
				"Count": 8
			}
		],
		"Awaken1LevelID": 1048,
		"Awaken2Unlock": false,
		"Awaken2Material": [
			{
				"GoodsType": "GoodsType_Item",
				"Id": 3260,
				"Count": 5
			},
			{
				"GoodsType": "GoodsType_Item",
				"Id": 3258,
				"Count": 12
			},
			{
				"GoodsType": "GoodsType_Item",
				"Id": 3255,
				"Count": 12
			}
		],
		"Awaken2LevelID": 2048,
		"Level2SkillID": 0,
		"Anim": ""
	},
	{
		"ID": 49,
		"Name": "Varna",
		"Awaken1Material": [
			{
				"GoodsType": "GoodsType_Item",
				"Id": 3253,
				"Count": 5
			},
			{
				"GoodsType": "GoodsType_Item",
				"Id": 3252,
				"Count": 8
			},
			{
				"GoodsType": "GoodsType_Item",
				"Id": 3249,
				"Count": 8
			}
		],
		"Awaken1LevelID": 1049,
		"Awaken2Unlock": false,
		"Awaken2Material": [
			{
				"GoodsType": "GoodsType_Item",
				"Id": 3260,
				"Count": 5
			},
			{
				"GoodsType": "GoodsType_Item",
				"Id": 3259,
				"Count": 12
			},
			{
				"GoodsType": "GoodsType_Item",
				"Id": 3256,
				"Count": 12
			}
		],
		"Awaken2LevelID": 2049,
		"Level2SkillID": 0,
		"Anim": ""
	},
	{
		"ID": 50,
		"Name": "Zerida",
		"Awaken1Material": [
			{
				"GoodsType": "GoodsType_Item",
				"Id": 3253,
				"Count": 5
			},
			{
				"GoodsType": "GoodsType_Item",
				"Id": 3252,
				"Count": 8
			},
			{
				"GoodsType": "GoodsType_Item",
				"Id": 3249,
				"Count": 8
			}
		],
		"Awaken1LevelID": 1050,
		"Awaken2Unlock": false,
		"Awaken2Material": [
			{
				"GoodsType": "GoodsType_Item",
				"Id": 3260,
				"Count": 5
			},
			{
				"GoodsType": "GoodsType_Item",
				"Id": 3259,
				"Count": 12
			},
			{
				"GoodsType": "GoodsType_Item",
				"Id": 3256,
				"Count": 12
			}
		],
		"Awaken2LevelID": 2050,
		"Level2SkillID": 0,
		"Anim": ""
	},
	{
		"ID": 51,
		"Name": "Shelfaniel",
		"Awaken1Material": [
			{
				"GoodsType": "GoodsType_Item",
				"Id": 3253,
				"Count": 5
			},
			{
				"GoodsType": "GoodsType_Item",
				"Id": 3249,
				"Count": 8
			},
			{
				"GoodsType": "GoodsType_Item",
				"Id": 3247,
				"Count": 8
			}
		],
		"Awaken1LevelID": 1051,
		"Awaken2Unlock": false,
		"Awaken2Material": [
			{
				"GoodsType": "GoodsType_Item",
				"Id": 3260,
				"Count": 5
			},
			{
				"GoodsType": "GoodsType_Item",
				"Id": 3256,
				"Count": 12
			},
			{
				"GoodsType": "GoodsType_Item",
				"Id": 3254,
				"Count": 12
			}
		],
		"Awaken2LevelID": 2051,
		"Level2SkillID": 0,
		"Anim": ""
	},
	{
		"ID": 52,
		"Name": "Angelina",
		"Awaken1Material": [
			{
				"GoodsType": "GoodsType_Item",
				"Id": 3253,
				"Count": 5
			},
			{
				"GoodsType": "GoodsType_Item",
				"Id": 3247,
				"Count": 8
			},
			{
				"GoodsType": "GoodsType_Item",
				"Id": 3250,
				"Count": 8
			}
		],
		"Awaken1LevelID": 1052,
		"Awaken2Unlock": true,
		"Awaken2Material": [
			{
				"GoodsType": "GoodsType_Item",
				"Id": 3260,
				"Count": 5
			},
			{
				"GoodsType": "GoodsType_Item",
				"Id": 3254,
				"Count": 12
			},
			{
				"GoodsType": "GoodsType_Item",
				"Id": 3257,
				"Count": 12
			}
		],
		"Awaken2LevelID": 2052,
		"Level2SkillID": 12087,
		"Anim": "Spine/Cutscene/Angelina_ABS/Angelina_Cutscene_Prefab.prefab"
	},
	{
		"ID": 53,
		"Name": "Lanford",
		"Awaken1Material": [
			{
				"GoodsType": "GoodsType_Item",
				"Id": 3253,
				"Count": 5
			},
			{
				"GoodsType": "GoodsType_Item",
				"Id": 3248,
				"Count": 8
			},
			{
				"GoodsType": "GoodsType_Item",
				"Id": 3252,
				"Count": 8
			}
		],
		"Awaken1LevelID": 1053,
		"Awaken2Unlock": false,
		"Awaken2Material": [
			{
				"GoodsType": "GoodsType_Item",
				"Id": 3260,
				"Count": 5
			},
			{
				"GoodsType": "GoodsType_Item",
				"Id": 3255,
				"Count": 12
			},
			{
				"GoodsType": "GoodsType_Item",
				"Id": 3259,
				"Count": 12
			}
		],
		"Awaken2LevelID": 2053,
		"Level2SkillID": 0,
		"Anim": ""
	},
	{
		"ID": 54,
		"Name": "Listell",
		"Awaken1Material": [
			{
				"GoodsType": "GoodsType_Item",
				"Id": 3253,
				"Count": 5
			},
			{
				"GoodsType": "GoodsType_Item",
				"Id": 3249,
				"Count": 8
			},
			{
				"GoodsType": "GoodsType_Item",
				"Id": 3247,
				"Count": 8
			}
		],
		"Awaken1LevelID": 1054,
		"Awaken2Unlock": false,
		"Awaken2Material": [
			{
				"GoodsType": "GoodsType_Item",
				"Id": 3260,
				"Count": 5
			},
			{
				"GoodsType": "GoodsType_Item",
				"Id": 3256,
				"Count": 12
			},
			{
				"GoodsType": "GoodsType_Item",
				"Id": 3254,
				"Count": 12
			}
		],
		"Awaken2LevelID": 2054,
		"Level2SkillID": 0,
		"Anim": ""
	},
	{
		"ID": 55,
		"Name": "Landius",
		"Awaken1Material": [
			{
				"GoodsType": "GoodsType_Item",
				"Id": 3253,
				"Count": 5
			},
			{
				"GoodsType": "GoodsType_Item",
				"Id": 3252,
				"Count": 8
			},
			{
				"GoodsType": "GoodsType_Item",
				"Id": 3249,
				"Count": 8
			}
		],
		"Awaken1LevelID": 1055,
		"Awaken2Unlock": true,
		"Awaken2Material": [
			{
				"GoodsType": "GoodsType_Item",
				"Id": 3260,
				"Count": 5
			},
			{
				"GoodsType": "GoodsType_Item",
				"Id": 3259,
				"Count": 12
			},
			{
				"GoodsType": "GoodsType_Item",
				"Id": 3256,
				"Count": 12
			}
		],
		"Awaken2LevelID": 2055,
		"Level2SkillID": 12086,
		"Anim": "Spine/Cutscene/Landius_ABS/Landius_Cutscene_Prefab.prefab"
	},
	{
		"ID": 56,
		"Name": "Rachel",
		"Awaken1Material": [
			{
				"GoodsType": "GoodsType_Item",
				"Id": 3253,
				"Count": 5
			},
			{
				"GoodsType": "GoodsType_Item",
				"Id": 3250,
				"Count": 8
			},
			{
				"GoodsType": "GoodsType_Item",
				"Id": 3251,
				"Count": 8
			}
		],
		"Awaken1LevelID": 1056,
		"Awaken2Unlock": true,
		"Awaken2Material": [
			{
				"GoodsType": "GoodsType_Item",
				"Id": 3260,
				"Count": 5
			},
			{
				"GoodsType": "GoodsType_Item",
				"Id": 3257,
				"Count": 12
			},
			{
				"GoodsType": "GoodsType_Item",
				"Id": 3258,
				"Count": 12
			}
		],
		"Awaken2LevelID": 2056,
		"Level2SkillID": 12067,
		"Anim": "Spine/Cutscene/Rachel_ABS/Rachel_Cutscene_Prefab.prefab"
	},
	{
		"ID": 57,
		"Name": "Wiler",
		"Awaken1Material": [
			{
				"GoodsType": "GoodsType_Item",
				"Id": 3253,
				"Count": 5
			},
			{
				"GoodsType": "GoodsType_Item",
				"Id": 3249,
				"Count": 8
			},
			{
				"GoodsType": "GoodsType_Item",
				"Id": 3247,
				"Count": 8
			}
		],
		"Awaken1LevelID": 1057,
		"Awaken2Unlock": true,
		"Awaken2Material": [
			{
				"GoodsType": "GoodsType_Item",
				"Id": 3260,
				"Count": 5
			},
			{
				"GoodsType": "GoodsType_Item",
				"Id": 3256,
				"Count": 12
			},
			{
				"GoodsType": "GoodsType_Item",
				"Id": 3254,
				"Count": 12
			}
		],
		"Awaken2LevelID": 2057,
		"Level2SkillID": 12083,
		"Anim": "Spine/Cutscene/Viler_ABS/Viler_Cutscene_Prefab.prefab"
	},
	{
		"ID": 58,
		"Name": "Serena",
		"Awaken1Material": [
			{
				"GoodsType": "GoodsType_Item",
				"Id": 3253,
				"Count": 5
			},
			{
				"GoodsType": "GoodsType_Item",
				"Id": 3251,
				"Count": 8
			},
			{
				"GoodsType": "GoodsType_Item",
				"Id": 3248,
				"Count": 8
			}
		],
		"Awaken1LevelID": 1058,
		"Awaken2Unlock": false,
		"Awaken2Material": [
			{
				"GoodsType": "GoodsType_Item",
				"Id": 3260,
				"Count": 5
			},
			{
				"GoodsType": "GoodsType_Item",
				"Id": 3258,
				"Count": 12
			},
			{
				"GoodsType": "GoodsType_Item",
				"Id": 3255,
				"Count": 12
			}
		],
		"Awaken2LevelID": 2058,
		"Level2SkillID": 0,
		"Anim": ""
	},
	{
		"ID": 59,
		"Name": "Gizarof",
		"Awaken1Material": [
			{
				"GoodsType": "GoodsType_Item",
				"Id": 3253,
				"Count": 5
			},
			{
				"GoodsType": "GoodsType_Item",
				"Id": 3250,
				"Count": 8
			},
			{
				"GoodsType": "GoodsType_Item",
				"Id": 3251,
				"Count": 8
			}
		],
		"Awaken1LevelID": 1059,
		"Awaken2Unlock": false,
		"Awaken2Material": [
			{
				"GoodsType": "GoodsType_Item",
				"Id": 3260,
				"Count": 5
			},
			{
				"GoodsType": "GoodsType_Item",
				"Id": 3257,
				"Count": 12
			},
			{
				"GoodsType": "GoodsType_Item",
				"Id": 3258,
				"Count": 12
			}
		],
		"Awaken2LevelID": 2059,
		"Level2SkillID": 0,
		"Anim": ""
	},
	{
		"ID": 60,
		"Name": "Sigma",
		"Awaken1Material": [
			{
				"GoodsType": "GoodsType_Item",
				"Id": 3253,
				"Count": 5
			},
			{
				"GoodsType": "GoodsType_Item",
				"Id": 3251,
				"Count": 8
			},
			{
				"GoodsType": "GoodsType_Item",
				"Id": 3248,
				"Count": 8
			}
		],
		"Awaken1LevelID": 1060,
		"Awaken2Unlock": false,
		"Awaken2Material": [
			{
				"GoodsType": "GoodsType_Item",
				"Id": 3260,
				"Count": 5
			},
			{
				"GoodsType": "GoodsType_Item",
				"Id": 3258,
				"Count": 12
			},
			{
				"GoodsType": "GoodsType_Item",
				"Id": 3255,
				"Count": 12
			}
		],
		"Awaken2LevelID": 2060,
		"Level2SkillID": 0,
		"Anim": ""
	},
	{
		"ID": 61,
		"Name": "Lambda",
		"Awaken1Material": [
			{
				"GoodsType": "GoodsType_Item",
				"Id": 3253,
				"Count": 5
			},
			{
				"GoodsType": "GoodsType_Item",
				"Id": 3250,
				"Count": 8
			},
			{
				"GoodsType": "GoodsType_Item",
				"Id": 3251,
				"Count": 8
			}
		],
		"Awaken1LevelID": 1061,
		"Awaken2Unlock": false,
		"Awaken2Material": [
			{
				"GoodsType": "GoodsType_Item",
				"Id": 3260,
				"Count": 5
			},
			{
				"GoodsType": "GoodsType_Item",
				"Id": 3257,
				"Count": 12
			},
			{
				"GoodsType": "GoodsType_Item",
				"Id": 3258,
				"Count": 12
			}
		],
		"Awaken2LevelID": 2061,
		"Level2SkillID": 0,
		"Anim": ""
	},
	{
		"ID": 62,
		"Name": "Alfred",
		"Awaken1Material": [
			{
				"GoodsType": "GoodsType_Item",
				"Id": 3253,
				"Count": 5
			},
			{
				"GoodsType": "GoodsType_Item",
				"Id": 3251,
				"Count": 8
			},
			{
				"GoodsType": "GoodsType_Item",
				"Id": 3248,
				"Count": 8
			}
		],
		"Awaken1LevelID": 1062,
		"Awaken2Unlock": false,
		"Awaken2Material": [
			{
				"GoodsType": "GoodsType_Item",
				"Id": 3260,
				"Count": 5
			},
			{
				"GoodsType": "GoodsType_Item",
				"Id": 3258,
				"Count": 12
			},
			{
				"GoodsType": "GoodsType_Item",
				"Id": 3255,
				"Count": 12
			}
		],
		"Awaken2LevelID": 2062,
		"Level2SkillID": 0,
		"Anim": ""
	},
	{
		"ID": 63,
		"Name": "Rainforce",
		"Awaken1Material": [
			{
				"GoodsType": "GoodsType_Item",
				"Id": 3253,
				"Count": 5
			},
			{
				"GoodsType": "GoodsType_Item",
				"Id": 3250,
				"Count": 8
			},
			{
				"GoodsType": "GoodsType_Item",
				"Id": 3251,
				"Count": 8
			}
		],
		"Awaken1LevelID": 1063,
		"Awaken2Unlock": false,
		"Awaken2Material": [
			{
				"GoodsType": "GoodsType_Item",
				"Id": 3260,
				"Count": 5
			},
			{
				"GoodsType": "GoodsType_Item",
				"Id": 3257,
				"Count": 12
			},
			{
				"GoodsType": "GoodsType_Item",
				"Id": 3258,
				"Count": 12
			}
		],
		"Awaken2LevelID": 2063,
		"Level2SkillID": 0,
		"Anim": ""
	},
	{
		"ID": 64,
		"Name": "Brenda",
		"Awaken1Material": [
			{
				"GoodsType": "GoodsType_Item",
				"Id": 3253,
				"Count": 5
			},
			{
				"GoodsType": "GoodsType_Item",
				"Id": 3251,
				"Count": 8
			},
			{
				"GoodsType": "GoodsType_Item",
				"Id": 3248,
				"Count": 8
			}
		],
		"Awaken1LevelID": 1064,
		"Awaken2Unlock": false,
		"Awaken2Material": [
			{
				"GoodsType": "GoodsType_Item",
				"Id": 3260,
				"Count": 5
			},
			{
				"GoodsType": "GoodsType_Item",
				"Id": 3258,
				"Count": 12
			},
			{
				"GoodsType": "GoodsType_Item",
				"Id": 3255,
				"Count": 12
			}
		],
		"Awaken2LevelID": 2064,
		"Level2SkillID": 0,
		"Anim": ""
	},
	{
		"ID": 65,
		"Name": "Virash",
		"Awaken1Material": [
			{
				"GoodsType": "GoodsType_Item",
				"Id": 3253,
				"Count": 5
			},
			{
				"GoodsType": "GoodsType_Item",
				"Id": 3248,
				"Count": 8
			},
			{
				"GoodsType": "GoodsType_Item",
				"Id": 3252,
				"Count": 8
			}
		],
		"Awaken1LevelID": 1065,
		"Awaken2Unlock": false,
		"Awaken2Material": [
			{
				"GoodsType": "GoodsType_Item",
				"Id": 3260,
				"Count": 5
			},
			{
				"GoodsType": "GoodsType_Item",
				"Id": 3255,
				"Count": 12
			},
			{
				"GoodsType": "GoodsType_Item",
				"Id": 3259,
				"Count": 12
			}
		],
		"Awaken2LevelID": 2065,
		"Level2SkillID": 0,
		"Anim": ""
	},
	{
		"ID": 66,
		"Name": "Clarett",
		"Awaken1Material": [
			{
				"GoodsType": "GoodsType_Item",
				"Id": 3253,
				"Count": 5
			},
			{
				"GoodsType": "GoodsType_Item",
				"Id": 3247,
				"Count": 8
			},
			{
				"GoodsType": "GoodsType_Item",
				"Id": 3250,
				"Count": 8
			}
		],
		"Awaken1LevelID": 1066,
		"Awaken2Unlock": false,
		"Awaken2Material": [
			{
				"GoodsType": "GoodsType_Item",
				"Id": 3260,
				"Count": 5
			},
			{
				"GoodsType": "GoodsType_Item",
				"Id": 3254,
				"Count": 12
			},
			{
				"GoodsType": "GoodsType_Item",
				"Id": 3257,
				"Count": 12
			}
		],
		"Awaken2LevelID": 2066,
		"Level2SkillID": 0,
		"Anim": ""
	},
	{
		"ID": 67,
		"Name": "Omega",
		"Awaken1Material": [
			{
				"GoodsType": "GoodsType_Item",
				"Id": 3253,
				"Count": 5
			},
			{
				"GoodsType": "GoodsType_Item",
				"Id": 3252,
				"Count": 8
			},
			{
				"GoodsType": "GoodsType_Item",
				"Id": 3249,
				"Count": 8
			}
		],
		"Awaken1LevelID": 1067,
		"Awaken2Unlock": false,
		"Awaken2Material": [
			{
				"GoodsType": "GoodsType_Item",
				"Id": 3260,
				"Count": 5
			},
			{
				"GoodsType": "GoodsType_Item",
				"Id": 3259,
				"Count": 12
			},
			{
				"GoodsType": "GoodsType_Item",
				"Id": 3256,
				"Count": 12
			}
		],
		"Awaken2LevelID": 2067,
		"Level2SkillID": 0,
		"Anim": ""
	},
	{
		"ID": 68,
		"Name": "Hero",
		"Awaken1Material": [
			{
				"GoodsType": "GoodsType_Item",
				"Id": 3253,
				"Count": 5
			},
			{
				"GoodsType": "GoodsType_Item",
				"Id": 3248,
				"Count": 8
			},
			{
				"GoodsType": "GoodsType_Item",
				"Id": 3252,
				"Count": 8
			}
		],
		"Awaken1LevelID": 1068,
		"Awaken2Unlock": false,
		"Awaken2Material": [
			{
				"GoodsType": "GoodsType_Item",
				"Id": 3260,
				"Count": 5
			},
			{
				"GoodsType": "GoodsType_Item",
				"Id": 3255,
				"Count": 12
			},
			{
				"GoodsType": "GoodsType_Item",
				"Id": 3259,
				"Count": 12
			}
		],
		"Awaken2LevelID": 2068,
		"Level2SkillID": 0,
		"Anim": ""
	},
	{
		"ID": 69,
		"Name": "Estelle",
		"Awaken1Material": [
			{
				"GoodsType": "GoodsType_Item",
				"Id": 3253,
				"Count": 5
			},
			{
				"GoodsType": "GoodsType_Item",
				"Id": 3251,
				"Count": 8
			},
			{
				"GoodsType": "GoodsType_Item",
				"Id": 3248,
				"Count": 8
			}
		],
		"Awaken1LevelID": 1069,
		"Awaken2Unlock": true,
		"Awaken2Material": [
			{
				"GoodsType": "GoodsType_Item",
				"Id": 3260,
				"Count": 5
			},
			{
				"GoodsType": "GoodsType_Item",
				"Id": 3258,
				"Count": 12
			},
			{
				"GoodsType": "GoodsType_Item",
				"Id": 3255,
				"Count": 12
			}
		],
		"Awaken2LevelID": 2069,
		"Level2SkillID": 12077,
		"Anim": "Spine/Cutscene/Estelle_ABS/Estelle_CutScene_Prefab.prefab"
	},
	{
		"ID": 70,
		"Name": "Joshua",
		"Awaken1Material": [
			{
				"GoodsType": "GoodsType_Item",
				"Id": 3253,
				"Count": 5
			},
			{
				"GoodsType": "GoodsType_Item",
				"Id": 3252,
				"Count": 8
			},
			{
				"GoodsType": "GoodsType_Item",
				"Id": 3249,
				"Count": 8
			}
		],
		"Awaken1LevelID": 1070,
		"Awaken2Unlock": false,
		"Awaken2Material": [
			{
				"GoodsType": "GoodsType_Item",
				"Id": 3260,
				"Count": 5
			},
			{
				"GoodsType": "GoodsType_Item",
				"Id": 3259,
				"Count": 12
			},
			{
				"GoodsType": "GoodsType_Item",
				"Id": 3256,
				"Count": 12
			}
		],
		"Awaken2LevelID": 2070,
		"Level2SkillID": 0,
		"Anim": ""
	},
	{
		"ID": 71,
		"Name": "Renne",
		"Awaken1Material": [
			{
				"GoodsType": "GoodsType_Item",
				"Id": 3253,
				"Count": 5
			},
			{
				"GoodsType": "GoodsType_Item",
				"Id": 3250,
				"Count": 8
			},
			{
				"GoodsType": "GoodsType_Item",
				"Id": 3251,
				"Count": 8
			}
		],
		"Awaken1LevelID": 1071,
		"Awaken2Unlock": true,
		"Awaken2Material": [
			{
				"GoodsType": "GoodsType_Item",
				"Id": 3260,
				"Count": 5
			},
			{
				"GoodsType": "GoodsType_Item",
				"Id": 3257,
				"Count": 12
			},
			{
				"GoodsType": "GoodsType_Item",
				"Id": 3258,
				"Count": 12
			}
		],
		"Awaken2LevelID": 2071,
		"Level2SkillID": 12110,
		"Anim": "Spine/Cutscene/Renne_ABS/Renne_Cutscene_Prefab.prefab"
	},
	{
		"ID": 72,
		"Name": "Leonhardt",
		"Awaken1Material": [
			{
				"GoodsType": "GoodsType_Item",
				"Id": 3253,
				"Count": 5
			},
			{
				"GoodsType": "GoodsType_Item",
				"Id": 3248,
				"Count": 8
			},
			{
				"GoodsType": "GoodsType_Item",
				"Id": 3252,
				"Count": 8
			}
		],
		"Awaken1LevelID": 1072,
		"Awaken2Unlock": false,
		"Awaken2Material": [
			{
				"GoodsType": "GoodsType_Item",
				"Id": 3260,
				"Count": 5
			},
			{
				"GoodsType": "GoodsType_Item",
				"Id": 3255,
				"Count": 12
			},
			{
				"GoodsType": "GoodsType_Item",
				"Id": 3259,
				"Count": 12
			}
		],
		"Awaken2LevelID": 2072,
		"Level2SkillID": 0,
		"Anim": ""
	},
	{
		"ID": 73,
		"Name": "Olivier",
		"Awaken1Material": [
			{
				"GoodsType": "GoodsType_Item",
				"Id": 3253,
				"Count": 5
			},
			{
				"GoodsType": "GoodsType_Item",
				"Id": 3252,
				"Count": 8
			},
			{
				"GoodsType": "GoodsType_Item",
				"Id": 3249,
				"Count": 8
			}
		],
		"Awaken1LevelID": 1073,
		"Awaken2Unlock": false,
		"Awaken2Material": [
			{
				"GoodsType": "GoodsType_Item",
				"Id": 3260,
				"Count": 5
			},
			{
				"GoodsType": "GoodsType_Item",
				"Id": 3259,
				"Count": 12
			},
			{
				"GoodsType": "GoodsType_Item",
				"Id": 3256,
				"Count": 12
			}
		],
		"Awaken2LevelID": 2073,
		"Level2SkillID": 0,
		"Anim": ""
	},
	{
		"ID": 74,
		"Name": "Klose",
		"Awaken1Material": [
			{
				"GoodsType": "GoodsType_Item",
				"Id": 3253,
				"Count": 5
			},
			{
				"GoodsType": "GoodsType_Item",
				"Id": 3249,
				"Count": 8
			},
			{
				"GoodsType": "GoodsType_Item",
				"Id": 3247,
				"Count": 8
			}
		],
		"Awaken1LevelID": 1074,
		"Awaken2Unlock": false,
		"Awaken2Material": [
			{
				"GoodsType": "GoodsType_Item",
				"Id": 3260,
				"Count": 5
			},
			{
				"GoodsType": "GoodsType_Item",
				"Id": 3256,
				"Count": 12
			},
			{
				"GoodsType": "GoodsType_Item",
				"Id": 3254,
				"Count": 12
			}
		],
		"Awaken2LevelID": 2074,
		"Level2SkillID": 0,
		"Anim": ""
	},
	{
		"ID": 75,
		"Name": "Deedlit",
		"Awaken1Material": [
			{
				"GoodsType": "GoodsType_Item",
				"Id": 3253,
				"Count": 5
			},
			{
				"GoodsType": "GoodsType_Item",
				"Id": 3251,
				"Count": 8
			},
			{
				"GoodsType": "GoodsType_Item",
				"Id": 3248,
				"Count": 8
			}
		],
		"Awaken1LevelID": 1075,
		"Awaken2Unlock": false,
		"Awaken2Material": [
			{
				"GoodsType": "GoodsType_Item",
				"Id": 3260,
				"Count": 5
			},
			{
				"GoodsType": "GoodsType_Item",
				"Id": 3258,
				"Count": 12
			},
			{
				"GoodsType": "GoodsType_Item",
				"Id": 3255,
				"Count": 12
			}
		],
		"Awaken2LevelID": 2075,
		"Level2SkillID": 0,
		"Anim": ""
	},
	{
		"ID": 76,
		"Name": "Ashram",
		"Awaken1Material": [
			{
				"GoodsType": "GoodsType_Item",
				"Id": 3253,
				"Count": 5
			},
			{
				"GoodsType": "GoodsType_Item",
				"Id": 3247,
				"Count": 8
			},
			{
				"GoodsType": "GoodsType_Item",
				"Id": 3250,
				"Count": 8
			}
		],
		"Awaken1LevelID": 1076,
		"Awaken2Unlock": false,
		"Awaken2Material": [
			{
				"GoodsType": "GoodsType_Item",
				"Id": 3260,
				"Count": 5
			},
			{
				"GoodsType": "GoodsType_Item",
				"Id": 3254,
				"Count": 12
			},
			{
				"GoodsType": "GoodsType_Item",
				"Id": 3257,
				"Count": 12
			}
		],
		"Awaken2LevelID": 2076,
		"Level2SkillID": 0,
		"Anim": ""
	},
	{
		"ID": 77,
		"Name": "Parn",
		"Awaken1Material": [
			{
				"GoodsType": "GoodsType_Item",
				"Id": 3253,
				"Count": 5
			},
			{
				"GoodsType": "GoodsType_Item",
				"Id": 3251,
				"Count": 8
			},
			{
				"GoodsType": "GoodsType_Item",
				"Id": 3248,
				"Count": 8
			}
		],
		"Awaken1LevelID": 1077,
		"Awaken2Unlock": false,
		"Awaken2Material": [
			{
				"GoodsType": "GoodsType_Item",
				"Id": 3260,
				"Count": 5
			},
			{
				"GoodsType": "GoodsType_Item",
				"Id": 3258,
				"Count": 12
			},
			{
				"GoodsType": "GoodsType_Item",
				"Id": 3255,
				"Count": 12
			}
		],
		"Awaken2LevelID": 2077,
		"Level2SkillID": 0,
		"Anim": ""
	},
	{
		"ID": 78,
		"Name": "Pirotess",
		"Awaken1Material": [
			{
				"GoodsType": "GoodsType_Item",
				"Id": 3253,
				"Count": 5
			},
			{
				"GoodsType": "GoodsType_Item",
				"Id": 3252,
				"Count": 8
			},
			{
				"GoodsType": "GoodsType_Item",
				"Id": 3249,
				"Count": 8
			}
		],
		"Awaken1LevelID": 1078,
		"Awaken2Unlock": false,
		"Awaken2Material": [
			{
				"GoodsType": "GoodsType_Item",
				"Id": 3260,
				"Count": 5
			},
			{
				"GoodsType": "GoodsType_Item",
				"Id": 3259,
				"Count": 12
			},
			{
				"GoodsType": "GoodsType_Item",
				"Id": 3256,
				"Count": 12
			}
		],
		"Awaken2LevelID": 2078,
		"Level2SkillID": 0,
		"Anim": ""
	},
	{
		"ID": 79,
		"Name": "Sakura Shinguji",
		"Awaken1Material": [
			{
				"GoodsType": "GoodsType_Item",
				"Id": 3253,
				"Count": 5
			},
			{
				"GoodsType": "GoodsType_Item",
				"Id": 3248,
				"Count": 8
			},
			{
				"GoodsType": "GoodsType_Item",
				"Id": 3252,
				"Count": 8
			}
		],
		"Awaken1LevelID": 1079,
		"Awaken2Unlock": false,
		"Awaken2Material": [
			{
				"GoodsType": "GoodsType_Item",
				"Id": 3260,
				"Count": 5
			},
			{
				"GoodsType": "GoodsType_Item",
				"Id": 3255,
				"Count": 12
			},
			{
				"GoodsType": "GoodsType_Item",
				"Id": 3259,
				"Count": 12
			}
		],
		"Awaken2LevelID": 2079,
		"Level2SkillID": 0,
		"Anim": ""
	},
	{
		"ID": 80,
		"Name": "Sumire Kanzaki",
		"Awaken1Material": [
			{
				"GoodsType": "GoodsType_Item",
				"Id": 3253,
				"Count": 5
			},
			{
				"GoodsType": "GoodsType_Item",
				"Id": 3248,
				"Count": 8
			},
			{
				"GoodsType": "GoodsType_Item",
				"Id": 3252,
				"Count": 8
			}
		],
		"Awaken1LevelID": 1080,
		"Awaken2Unlock": true,
		"Awaken2Material": [
			{
				"GoodsType": "GoodsType_Item",
				"Id": 3260,
				"Count": 5
			},
			{
				"GoodsType": "GoodsType_Item",
				"Id": 3255,
				"Count": 12
			},
			{
				"GoodsType": "GoodsType_Item",
				"Id": 3259,
				"Count": 12
			}
		],
		"Awaken2LevelID": 2080,
		"Level2SkillID": 12084,
		"Anim": "Spine/Cutscene/Sumire_ABS/Sumire_CutScene_Prefab.prefab"
	},
	{
		"ID": 81,
		"Name": "Iris",
		"Awaken1Material": [
			{
				"GoodsType": "GoodsType_Item",
				"Id": 3253,
				"Count": 5
			},
			{
				"GoodsType": "GoodsType_Item",
				"Id": 3249,
				"Count": 8
			},
			{
				"GoodsType": "GoodsType_Item",
				"Id": 3247,
				"Count": 8
			}
		],
		"Awaken1LevelID": 1081,
		"Awaken2Unlock": false,
		"Awaken2Material": [
			{
				"GoodsType": "GoodsType_Item",
				"Id": 3260,
				"Count": 5
			},
			{
				"GoodsType": "GoodsType_Item",
				"Id": 3256,
				"Count": 12
			},
			{
				"GoodsType": "GoodsType_Item",
				"Id": 3254,
				"Count": 12
			}
		],
		"Awaken2LevelID": 2081,
		"Level2SkillID": 0,
		"Anim": ""
	},
	{
		"ID": 82,
		"Name": "Yusuke Urameshi",
		"Awaken1Material": [
			{
				"GoodsType": "GoodsType_Item",
				"Id": 3253,
				"Count": 5
			},
			{
				"GoodsType": "GoodsType_Item",
				"Id": 3251,
				"Count": 8
			},
			{
				"GoodsType": "GoodsType_Item",
				"Id": 3248,
				"Count": 8
			}
		],
		"Awaken1LevelID": 1082,
		"Awaken2Unlock": true,
		"Awaken2Material": [
			{
				"GoodsType": "GoodsType_Item",
				"Id": 3260,
				"Count": 5
			},
			{
				"GoodsType": "GoodsType_Item",
				"Id": 3258,
				"Count": 12
			},
			{
				"GoodsType": "GoodsType_Item",
				"Id": 3255,
				"Count": 12
			}
		],
		"Awaken2LevelID": 2082,
		"Level2SkillID": 12088,
		"Anim": "Spine/Cutscene/Yuusuke_ABS/Yuusuke_Cutscene_Prefab.prefab"
	},
	{
		"ID": 83,
		"Name": "Hiei",
		"Awaken1Material": [
			{
				"GoodsType": "GoodsType_Item",
				"Id": 3253,
				"Count": 5
			},
			{
				"GoodsType": "GoodsType_Item",
				"Id": 3250,
				"Count": 8
			},
			{
				"GoodsType": "GoodsType_Item",
				"Id": 3251,
				"Count": 8
			}
		],
		"Awaken1LevelID": 1083,
		"Awaken2Unlock": false,
		"Awaken2Material": [
			{
				"GoodsType": "GoodsType_Item",
				"Id": 3260,
				"Count": 5
			},
			{
				"GoodsType": "GoodsType_Item",
				"Id": 3257,
				"Count": 12
			},
			{
				"GoodsType": "GoodsType_Item",
				"Id": 3258,
				"Count": 12
			}
		],
		"Awaken2LevelID": 2083,
		"Level2SkillID": 0,
		"Anim": ""
	},
	{
		"ID": 84,
		"Name": "Kurama",
		"Awaken1Material": [
			{
				"GoodsType": "GoodsType_Item",
				"Id": 3253,
				"Count": 5
			},
			{
				"GoodsType": "GoodsType_Item",
				"Id": 3250,
				"Count": 8
			},
			{
				"GoodsType": "GoodsType_Item",
				"Id": 3251,
				"Count": 8
			}
		],
		"Awaken1LevelID": 1084,
		"Awaken2Unlock": true,
		"Awaken2Material": [
			{
				"GoodsType": "GoodsType_Item",
				"Id": 3260,
				"Count": 5
			},
			{
				"GoodsType": "GoodsType_Item",
				"Id": 3257,
				"Count": 12
			},
			{
				"GoodsType": "GoodsType_Item",
				"Id": 3258,
				"Count": 12
			}
		],
		"Awaken2LevelID": 2084,
		"Level2SkillID": 12121,
		"Anim": "Spine/Cutscene/Kurama_ABS/Kurama_Cutscene_Prefab.prefab"
	},
	{
		"ID": 85,
		"Name": "Toguro Bros.",
		"Awaken1Material": [
			{
				"GoodsType": "GoodsType_Item",
				"Id": 3253,
				"Count": 5
			},
			{
				"GoodsType": "GoodsType_Item",
				"Id": 3248,
				"Count": 8
			},
			{
				"GoodsType": "GoodsType_Item",
				"Id": 3252,
				"Count": 8
			}
		],
		"Awaken1LevelID": 1085,
		"Awaken2Unlock": false,
		"Awaken2Material": [
			{
				"GoodsType": "GoodsType_Item",
				"Id": 3260,
				"Count": 5
			},
			{
				"GoodsType": "GoodsType_Item",
				"Id": 3255,
				"Count": 12
			},
			{
				"GoodsType": "GoodsType_Item",
				"Id": 3259,
				"Count": 12
			}
		],
		"Awaken2LevelID": 2085,
		"Level2SkillID": 0,
		"Anim": ""
	},
	{
		"ID": 86,
		"Name": "Kazuma Kuwabara",
		"Awaken1Material": [
			{
				"GoodsType": "GoodsType_Item",
				"Id": 3253,
				"Count": 5
			},
			{
				"GoodsType": "GoodsType_Item",
				"Id": 3251,
				"Count": 8
			},
			{
				"GoodsType": "GoodsType_Item",
				"Id": 3248,
				"Count": 8
			}
		],
		"Awaken1LevelID": 1086,
		"Awaken2Unlock": false,
		"Awaken2Material": [
			{
				"GoodsType": "GoodsType_Item",
				"Id": 3260,
				"Count": 5
			},
			{
				"GoodsType": "GoodsType_Item",
				"Id": 3258,
				"Count": 12
			},
			{
				"GoodsType": "GoodsType_Item",
				"Id": 3255,
				"Count": 12
			}
		],
		"Awaken2LevelID": 2086,
		"Level2SkillID": 0,
		"Anim": ""
	},
	{
		"ID": 87,
		"Name": "Betty",
		"Awaken1Material": [
			{
				"GoodsType": "GoodsType_Item",
				"Id": 3253,
				"Count": 5
			},
			{
				"GoodsType": "GoodsType_Item",
				"Id": 3247,
				"Count": 8
			},
			{
				"GoodsType": "GoodsType_Item",
				"Id": 3250,
				"Count": 8
			}
		],
		"Awaken1LevelID": 1087,
		"Awaken2Unlock": false,
		"Awaken2Material": [
			{
				"GoodsType": "GoodsType_Item",
				"Id": 3260,
				"Count": 5
			},
			{
				"GoodsType": "GoodsType_Item",
				"Id": 3254,
				"Count": 12
			},
			{
				"GoodsType": "GoodsType_Item",
				"Id": 3257,
				"Count": 12
			}
		],
		"Awaken2LevelID": 2087,
		"Level2SkillID": 0,
		"Anim": ""
	},
	{
		"ID": 88,
		"Name": "Alustriel",
		"Awaken1Material": [
			{
				"GoodsType": "GoodsType_Item",
				"Id": 3253,
				"Count": 5
			},
			{
				"GoodsType": "GoodsType_Item",
				"Id": 3252,
				"Count": 8
			},
			{
				"GoodsType": "GoodsType_Item",
				"Id": 3249,
				"Count": 8
			}
		],
		"Awaken1LevelID": 1088,
		"Awaken2Unlock": false,
		"Awaken2Material": [
			{
				"GoodsType": "GoodsType_Item",
				"Id": 3260,
				"Count": 5
			},
			{
				"GoodsType": "GoodsType_Item",
				"Id": 3259,
				"Count": 12
			},
			{
				"GoodsType": "GoodsType_Item",
				"Id": 3256,
				"Count": 12
			}
		],
		"Awaken2LevelID": 2088,
		"Level2SkillID": 0,
		"Anim": ""
	},
	{
		"ID": 89,
		"Name": "Yulia",
		"Awaken1Material": [
			{
				"GoodsType": "GoodsType_Item",
				"Id": 3253,
				"Count": 5
			},
			{
				"GoodsType": "GoodsType_Item",
				"Id": 3249,
				"Count": 8
			},
			{
				"GoodsType": "GoodsType_Item",
				"Id": 3247,
				"Count": 8
			}
		],
		"Awaken1LevelID": 1089,
		"Awaken2Unlock": false,
		"Awaken2Material": [
			{
				"GoodsType": "GoodsType_Item",
				"Id": 3260,
				"Count": 5
			},
			{
				"GoodsType": "GoodsType_Item",
				"Id": 3256,
				"Count": 12
			},
			{
				"GoodsType": "GoodsType_Item",
				"Id": 3254,
				"Count": 12
			}
		],
		"Awaken2LevelID": 2089,
		"Level2SkillID": 0,
		"Anim": ""
	},
	{
		"ID": 91,
		"Name": "Emilia",
		"Awaken1Material": [
			{
				"GoodsType": "GoodsType_Item",
				"Id": 3253,
				"Count": 5
			},
			{
				"GoodsType": "GoodsType_Item",
				"Id": 3252,
				"Count": 8
			},
			{
				"GoodsType": "GoodsType_Item",
				"Id": 3249,
				"Count": 8
			}
		],
		"Awaken1LevelID": 1091,
		"Awaken2Unlock": false,
		"Awaken2Material": [
			{
				"GoodsType": "GoodsType_Item",
				"Id": 3260,
				"Count": 5
			},
			{
				"GoodsType": "GoodsType_Item",
				"Id": 3259,
				"Count": 12
			},
			{
				"GoodsType": "GoodsType_Item",
				"Id": 3256,
				"Count": 12
			}
		],
		"Awaken2LevelID": 2091,
		"Level2SkillID": 0,
		"Anim": ""
	},
	{
		"ID": 92,
		"Name": "Young Jessica",
		"Awaken1Material": [
			{
				"GoodsType": "GoodsType_Item",
				"Id": 3253,
				"Count": 5
			},
			{
				"GoodsType": "GoodsType_Item",
				"Id": 3249,
				"Count": 8
			},
			{
				"GoodsType": "GoodsType_Item",
				"Id": 3247,
				"Count": 8
			}
		],
		"Awaken1LevelID": 1092,
		"Awaken2Unlock": false,
		"Awaken2Material": [
			{
				"GoodsType": "GoodsType_Item",
				"Id": 3260,
				"Count": 5
			},
			{
				"GoodsType": "GoodsType_Item",
				"Id": 3256,
				"Count": 12
			},
			{
				"GoodsType": "GoodsType_Item",
				"Id": 3254,
				"Count": 12
			}
		],
		"Awaken2LevelID": 2092,
		"Level2SkillID": 0,
		"Anim": ""
	},
	{
		"ID": 93,
		"Name": "Knight of Mystery",
		"Awaken1Material": [
			{
				"GoodsType": "GoodsType_Item",
				"Id": 3253,
				"Count": 5
			},
			{
				"GoodsType": "GoodsType_Item",
				"Id": 3250,
				"Count": 8
			},
			{
				"GoodsType": "GoodsType_Item",
				"Id": 3251,
				"Count": 8
			}
		],
		"Awaken1LevelID": 1093,
		"Awaken2Unlock": false,
		"Awaken2Material": [
			{
				"GoodsType": "GoodsType_Item",
				"Id": 3260,
				"Count": 5
			},
			{
				"GoodsType": "GoodsType_Item",
				"Id": 3257,
				"Count": 12
			},
			{
				"GoodsType": "GoodsType_Item",
				"Id": 3258,
				"Count": 12
			}
		],
		"Awaken2LevelID": 2093,
		"Level2SkillID": 0,
		"Anim": ""
	},
	{
		"ID": 94,
		"Name": "Aka",
		"Awaken1Material": [
			{
				"GoodsType": "GoodsType_Item",
				"Id": 3253,
				"Count": 5
			},
			{
				"GoodsType": "GoodsType_Item",
				"Id": 3250,
				"Count": 8
			},
			{
				"GoodsType": "GoodsType_Item",
				"Id": 3251,
				"Count": 8
			}
		],
		"Awaken1LevelID": 1094,
		"Awaken2Unlock": false,
		"Awaken2Material": [
			{
				"GoodsType": "GoodsType_Item",
				"Id": 3260,
				"Count": 5
			},
			{
				"GoodsType": "GoodsType_Item",
				"Id": 3257,
				"Count": 12
			},
			{
				"GoodsType": "GoodsType_Item",
				"Id": 3258,
				"Count": 12
			}
		],
		"Awaken2LevelID": 2094,
		"Level2SkillID": 0,
		"Anim": ""
	},
	{
		"ID": 95,
		"Name": "Oliver",
		"Awaken1Material": [
			{
				"GoodsType": "GoodsType_Item",
				"Id": 3253,
				"Count": 5
			},
			{
				"GoodsType": "GoodsType_Item",
				"Id": 3252,
				"Count": 8
			},
			{
				"GoodsType": "GoodsType_Item",
				"Id": 3249,
				"Count": 8
			}
		],
		"Awaken1LevelID": 1095,
		"Awaken2Unlock": false,
		"Awaken2Material": [
			{
				"GoodsType": "GoodsType_Item",
				"Id": 3260,
				"Count": 5
			},
			{
				"GoodsType": "GoodsType_Item",
				"Id": 3259,
				"Count": 12
			},
			{
				"GoodsType": "GoodsType_Item",
				"Id": 3256,
				"Count": 12
			}
		],
		"Awaken2LevelID": 2095,
		"Level2SkillID": 0,
		"Anim": ""
	},
	{
		"ID": 96,
		"Name": "Hero",
		"Awaken1Material": [
			{
				"GoodsType": "GoodsType_Item",
				"Id": 3253,
				"Count": 5
			},
			{
				"GoodsType": "GoodsType_Item",
				"Id": 3249,
				"Count": 8
			},
			{
				"GoodsType": "GoodsType_Item",
				"Id": 3247,
				"Count": 8
			}
		],
		"Awaken1LevelID": 1096,
		"Awaken2Unlock": false,
		"Awaken2Material": [
			{
				"GoodsType": "GoodsType_Item",
				"Id": 3260,
				"Count": 5
			},
			{
				"GoodsType": "GoodsType_Item",
				"Id": 3256,
				"Count": 12
			},
			{
				"GoodsType": "GoodsType_Item",
				"Id": 3254,
				"Count": 12
			}
		],
		"Awaken2LevelID": 2096,
		"Level2SkillID": 0,
		"Anim": ""
	},
	{
		"ID": 97,
		"Name": "Ilucia",
		"Awaken1Material": [
			{
				"GoodsType": "GoodsType_Item",
				"Id": 3253,
				"Count": 5
			},
			{
				"GoodsType": "GoodsType_Item",
				"Id": 3247,
				"Count": 8
			},
			{
				"GoodsType": "GoodsType_Item",
				"Id": 3250,
				"Count": 8
			}
		],
		"Awaken1LevelID": 1097,
		"Awaken2Unlock": true,
		"Awaken2Material": [
			{
				"GoodsType": "GoodsType_Item",
				"Id": 3260,
				"Count": 5
			},
			{
				"GoodsType": "GoodsType_Item",
				"Id": 3254,
				"Count": 12
			},
			{
				"GoodsType": "GoodsType_Item",
				"Id": 3257,
				"Count": 12
			}
		],
		"Awaken2LevelID": 2097,
		"Level2SkillID": 12117,
		"Anim": "Spine/Cutscene/Elucia_ABS/Elucia_CutScene_Prefab.prefab"
	},
	{
		"ID": 98,
		"Name": "Hero",
		"Awaken1Material": [
			{
				"GoodsType": "GoodsType_Item",
				"Id": 3253,
				"Count": 5
			},
			{
				"GoodsType": "GoodsType_Item",
				"Id": 3247,
				"Count": 8
			},
			{
				"GoodsType": "GoodsType_Item",
				"Id": 3250,
				"Count": 8
			}
		],
		"Awaken1LevelID": 1098,
		"Awaken2Unlock": false,
		"Awaken2Material": [
			{
				"GoodsType": "GoodsType_Item",
				"Id": 3260,
				"Count": 5
			},
			{
				"GoodsType": "GoodsType_Item",
				"Id": 3254,
				"Count": 12
			},
			{
				"GoodsType": "GoodsType_Item",
				"Id": 3257,
				"Count": 12
			}
		],
		"Awaken2LevelID": 2098,
		"Level2SkillID": 0,
		"Anim": ""
	},
	{
		"ID": 99,
		"Name": "Hero",
		"Awaken1Material": [
			{
				"GoodsType": "GoodsType_Item",
				"Id": 3253,
				"Count": 5
			},
			{
				"GoodsType": "GoodsType_Item",
				"Id": 3250,
				"Count": 8
			},
			{
				"GoodsType": "GoodsType_Item",
				"Id": 3251,
				"Count": 8
			}
		],
		"Awaken1LevelID": 1099,
		"Awaken2Unlock": false,
		"Awaken2Material": [
			{
				"GoodsType": "GoodsType_Item",
				"Id": 3260,
				"Count": 5
			},
			{
				"GoodsType": "GoodsType_Item",
				"Id": 3257,
				"Count": 12
			},
			{
				"GoodsType": "GoodsType_Item",
				"Id": 3258,
				"Count": 12
			}
		],
		"Awaken2LevelID": 2099,
		"Level2SkillID": 0,
		"Anim": ""
	},
	{
		"ID": 100,
		"Name": "Hero",
		"Awaken1Material": [
			{
				"GoodsType": "GoodsType_Item",
				"Id": 3253,
				"Count": 5
			},
			{
				"GoodsType": "GoodsType_Item",
				"Id": 3250,
				"Count": 8
			},
			{
				"GoodsType": "GoodsType_Item",
				"Id": 3251,
				"Count": 8
			}
		],
		"Awaken1LevelID": 1100,
		"Awaken2Unlock": false,
		"Awaken2Material": [
			{
				"GoodsType": "GoodsType_Item",
				"Id": 3260,
				"Count": 5
			},
			{
				"GoodsType": "GoodsType_Item",
				"Id": 3257,
				"Count": 12
			},
			{
				"GoodsType": "GoodsType_Item",
				"Id": 3258,
				"Count": 12
			}
		],
		"Awaken2LevelID": 2100,
		"Level2SkillID": 0,
		"Anim": ""
	},
	{
		"ID": 101,
		"Name": "Hero",
		"Awaken1Material": [
			{
				"GoodsType": "GoodsType_Item",
				"Id": 3253,
				"Count": 5
			},
			{
				"GoodsType": "GoodsType_Item",
				"Id": 3249,
				"Count": 8
			},
			{
				"GoodsType": "GoodsType_Item",
				"Id": 3247,
				"Count": 8
			}
		],
		"Awaken1LevelID": 1101,
		"Awaken2Unlock": false,
		"Awaken2Material": [
			{
				"GoodsType": "GoodsType_Item",
				"Id": 3260,
				"Count": 5
			},
			{
				"GoodsType": "GoodsType_Item",
				"Id": 3256,
				"Count": 12
			},
			{
				"GoodsType": "GoodsType_Item",
				"Id": 3254,
				"Count": 12
			}
		],
		"Awaken2LevelID": 2101,
		"Level2SkillID": 0,
		"Anim": ""
	},
	{
		"ID": 102,
		"Name": "Hero",
		"Awaken1Material": [
			{
				"GoodsType": "GoodsType_Item",
				"Id": 3253,
				"Count": 5
			},
			{
				"GoodsType": "GoodsType_Item",
				"Id": 3248,
				"Count": 8
			},
			{
				"GoodsType": "GoodsType_Item",
				"Id": 3252,
				"Count": 8
			}
		],
		"Awaken1LevelID": 1102,
		"Awaken2Unlock": false,
		"Awaken2Material": [
			{
				"GoodsType": "GoodsType_Item",
				"Id": 3260,
				"Count": 5
			},
			{
				"GoodsType": "GoodsType_Item",
				"Id": 3255,
				"Count": 12
			},
			{
				"GoodsType": "GoodsType_Item",
				"Id": 3259,
				"Count": 12
			}
		],
		"Awaken2LevelID": 2102,
		"Level2SkillID": 0,
		"Anim": ""
	},
	{
		"ID": 103,
		"Name": "Shilinka",
		"Awaken1Material": [
			{
				"GoodsType": "GoodsType_Item",
				"Id": 3253,
				"Count": 5
			},
			{
				"GoodsType": "GoodsType_Item",
				"Id": 3247,
				"Count": 8
			},
			{
				"GoodsType": "GoodsType_Item",
				"Id": 3250,
				"Count": 8
			}
		],
		"Awaken1LevelID": 1103,
		"Awaken2Unlock": true,
		"Awaken2Material": [
			{
				"GoodsType": "GoodsType_Item",
				"Id": 3260,
				"Count": 5
			},
			{
				"GoodsType": "GoodsType_Item",
				"Id": 3254,
				"Count": 12
			},
			{
				"GoodsType": "GoodsType_Item",
				"Id": 3257,
				"Count": 12
			}
		],
		"Awaken2LevelID": 2103,
		"Level2SkillID": 12118,
		"Anim": "Spine/Cutscene/Sirink_ABS/Sirink_Cutscene_Prefab.prefab"
	},
	{
		"ID": 104,
		"Name": "Hero",
		"Awaken1Material": [
			{
				"GoodsType": "GoodsType_Item",
				"Id": 3253,
				"Count": 5
			},
			{
				"GoodsType": "GoodsType_Item",
				"Id": 3249,
				"Count": 8
			},
			{
				"GoodsType": "GoodsType_Item",
				"Id": 3247,
				"Count": 8
			}
		],
		"Awaken1LevelID": 1104,
		"Awaken2Unlock": false,
		"Awaken2Material": [
			{
				"GoodsType": "GoodsType_Item",
				"Id": 3260,
				"Count": 5
			},
			{
				"GoodsType": "GoodsType_Item",
				"Id": 3256,
				"Count": 12
			},
			{
				"GoodsType": "GoodsType_Item",
				"Id": 3254,
				"Count": 12
			}
		],
		"Awaken2LevelID": 2104,
		"Level2SkillID": 0,
		"Anim": ""
	},
	{
		"ID": 105,
		"Name": "Hero",
		"Awaken1Material": [
			{
				"GoodsType": "GoodsType_Item",
				"Id": 3253,
				"Count": 5
			},
			{
				"GoodsType": "GoodsType_Item",
				"Id": 3252,
				"Count": 8
			},
			{
				"GoodsType": "GoodsType_Item",
				"Id": 3249,
				"Count": 8
			}
		],
		"Awaken1LevelID": 1105,
		"Awaken2Unlock": false,
		"Awaken2Material": [
			{
				"GoodsType": "GoodsType_Item",
				"Id": 3260,
				"Count": 5
			},
			{
				"GoodsType": "GoodsType_Item",
				"Id": 3259,
				"Count": 12
			},
			{
				"GoodsType": "GoodsType_Item",
				"Id": 3256,
				"Count": 12
			}
		],
		"Awaken2LevelID": 2105,
		"Level2SkillID": 0,
		"Anim": ""
	},
	{
		"ID": 106,
		"Name": "Hero",
		"Awaken1Material": [
			{
				"GoodsType": "GoodsType_Item",
				"Id": 3253,
				"Count": 5
			},
			{
				"GoodsType": "GoodsType_Item",
				"Id": 3248,
				"Count": 8
			},
			{
				"GoodsType": "GoodsType_Item",
				"Id": 3252,
				"Count": 8
			}
		],
		"Awaken1LevelID": 1106,
		"Awaken2Unlock": false,
		"Awaken2Material": [
			{
				"GoodsType": "GoodsType_Item",
				"Id": 3260,
				"Count": 5
			},
			{
				"GoodsType": "GoodsType_Item",
				"Id": 3255,
				"Count": 12
			},
			{
				"GoodsType": "GoodsType_Item",
				"Id": 3259,
				"Count": 12
			}
		],
		"Awaken2LevelID": 2106,
		"Level2SkillID": 0,
		"Anim": ""
	},
	{
		"ID": 107,
		"Name": "Hero",
		"Awaken1Material": [
			{
				"GoodsType": "GoodsType_Item",
				"Id": 3253,
				"Count": 5
			},
			{
				"GoodsType": "GoodsType_Item",
				"Id": 3249,
				"Count": 8
			},
			{
				"GoodsType": "GoodsType_Item",
				"Id": 3247,
				"Count": 8
			}
		],
		"Awaken1LevelID": 1107,
		"Awaken2Unlock": false,
		"Awaken2Material": [
			{
				"GoodsType": "GoodsType_Item",
				"Id": 3260,
				"Count": 5
			},
			{
				"GoodsType": "GoodsType_Item",
				"Id": 3256,
				"Count": 12
			},
			{
				"GoodsType": "GoodsType_Item",
				"Id": 3254,
				"Count": 12
			}
		],
		"Awaken2LevelID": 2107,
		"Level2SkillID": 0,
		"Anim": ""
	},
	{
		"ID": 108,
		"Name": "Hero",
		"Awaken1Material": [
			{
				"GoodsType": "GoodsType_Item",
				"Id": 3253,
				"Count": 5
			},
			{
				"GoodsType": "GoodsType_Item",
				"Id": 3250,
				"Count": 8
			},
			{
				"GoodsType": "GoodsType_Item",
				"Id": 3251,
				"Count": 8
			}
		],
		"Awaken1LevelID": 1108,
		"Awaken2Unlock": false,
		"Awaken2Material": [
			{
				"GoodsType": "GoodsType_Item",
				"Id": 3260,
				"Count": 5
			},
			{
				"GoodsType": "GoodsType_Item",
				"Id": 3257,
				"Count": 12
			},
			{
				"GoodsType": "GoodsType_Item",
				"Id": 3258,
				"Count": 12
			}
		],
		"Awaken2LevelID": 2108,
		"Level2SkillID": 0,
		"Anim": ""
	},
	{
		"ID": 109,
		"Name": "Hero",
		"Awaken1Material": [
			{
				"GoodsType": "GoodsType_Item",
				"Id": 3253,
				"Count": 5
			},
			{
				"GoodsType": "GoodsType_Item",
				"Id": 3249,
				"Count": 8
			},
			{
				"GoodsType": "GoodsType_Item",
				"Id": 3247,
				"Count": 8
			}
		],
		"Awaken1LevelID": 1109,
		"Awaken2Unlock": false,
		"Awaken2Material": [
			{
				"GoodsType": "GoodsType_Item",
				"Id": 3260,
				"Count": 5
			},
			{
				"GoodsType": "GoodsType_Item",
				"Id": 3256,
				"Count": 12
			},
			{
				"GoodsType": "GoodsType_Item",
				"Id": 3254,
				"Count": 12
			}
		],
		"Awaken2LevelID": 2109,
		"Level2SkillID": 0,
		"Anim": ""
	},
	{
		"ID": 110,
		"Name": "Ares",
		"Awaken1Material": [
			{
				"GoodsType": "GoodsType_Item",
				"Id": 3253,
				"Count": 5
			},
			{
				"GoodsType": "GoodsType_Item",
				"Id": 3247,
				"Count": 8
			},
			{
				"GoodsType": "GoodsType_Item",
				"Id": 3250,
				"Count": 8
			}
		],
		"Awaken1LevelID": 1110,
		"Awaken2Unlock": true,
		"Awaken2Material": [
			{
				"GoodsType": "GoodsType_Item",
				"Id": 3260,
				"Count": 5
			},
			{
				"GoodsType": "GoodsType_Item",
				"Id": 3254,
				"Count": 12
			},
			{
				"GoodsType": "GoodsType_Item",
				"Id": 3257,
				"Count": 12
			}
		],
		"Awaken2LevelID": 2110,
		"Level2SkillID": 12107,
		"Anim": "Spine/Cutscene/Ares_ABS/Ares_Cutscene_Prefab.prefab"
	},
	{
		"ID": 111,
		"Name": "Maiya",
		"Awaken1Material": [
			{
				"GoodsType": "GoodsType_Item",
				"Id": 3253,
				"Count": 5
			},
			{
				"GoodsType": "GoodsType_Item",
				"Id": 3249,
				"Count": 8
			},
			{
				"GoodsType": "GoodsType_Item",
				"Id": 3247,
				"Count": 8
			}
		],
		"Awaken1LevelID": 1111,
		"Awaken2Unlock": true,
		"Awaken2Material": [
			{
				"GoodsType": "GoodsType_Item",
				"Id": 3260,
				"Count": 5
			},
			{
				"GoodsType": "GoodsType_Item",
				"Id": 3256,
				"Count": 12
			},
			{
				"GoodsType": "GoodsType_Item",
				"Id": 3254,
				"Count": 12
			}
		],
		"Awaken2LevelID": 2111,
		"Level2SkillID": 12108,
		"Anim": "Spine/Cutscene/Maiya_ABS/Maiya_Cutscene_Prefab.prefab"
	},
	{
		"ID": 112,
		"Name": "Hero",
		"Awaken1Material": [
			{
				"GoodsType": "GoodsType_Item",
				"Id": 3253,
				"Count": 5
			},
			{
				"GoodsType": "GoodsType_Item",
				"Id": 3247,
				"Count": 8
			},
			{
				"GoodsType": "GoodsType_Item",
				"Id": 3250,
				"Count": 8
			}
		],
		"Awaken1LevelID": 1112,
		"Awaken2Unlock": false,
		"Awaken2Material": [
			{
				"GoodsType": "GoodsType_Item",
				"Id": 3260,
				"Count": 5
			},
			{
				"GoodsType": "GoodsType_Item",
				"Id": 3254,
				"Count": 12
			},
			{
				"GoodsType": "GoodsType_Item",
				"Id": 3257,
				"Count": 12
			}
		],
		"Awaken2LevelID": 2112,
		"Level2SkillID": 0,
		"Anim": ""
	},
	{
		"ID": 113,
		"Name": "Hero",
		"Awaken1Material": [
			{
				"GoodsType": "GoodsType_Item",
				"Id": 3253,
				"Count": 5
			},
			{
				"GoodsType": "GoodsType_Item",
				"Id": 3250,
				"Count": 8
			},
			{
				"GoodsType": "GoodsType_Item",
				"Id": 3251,
				"Count": 8
			}
		],
		"Awaken1LevelID": 1113,
		"Awaken2Unlock": false,
		"Awaken2Material": [
			{
				"GoodsType": "GoodsType_Item",
				"Id": 3260,
				"Count": 5
			},
			{
				"GoodsType": "GoodsType_Item",
				"Id": 3257,
				"Count": 12
			},
			{
				"GoodsType": "GoodsType_Item",
				"Id": 3258,
				"Count": 12
			}
		],
		"Awaken2LevelID": 2113,
		"Level2SkillID": 0,
		"Anim": ""
	},
	{
		"ID": 114,
		"Name": "Hero",
		"Awaken1Material": [
			{
				"GoodsType": "GoodsType_Item",
				"Id": 3253,
				"Count": 5
			},
			{
				"GoodsType": "GoodsType_Item",
				"Id": 3249,
				"Count": 8
			},
			{
				"GoodsType": "GoodsType_Item",
				"Id": 3247,
				"Count": 8
			}
		],
		"Awaken1LevelID": 1114,
		"Awaken2Unlock": false,
		"Awaken2Material": [
			{
				"GoodsType": "GoodsType_Item",
				"Id": 3260,
				"Count": 5
			},
			{
				"GoodsType": "GoodsType_Item",
				"Id": 3256,
				"Count": 12
			},
			{
				"GoodsType": "GoodsType_Item",
				"Id": 3254,
				"Count": 12
			}
		],
		"Awaken2LevelID": 2114,
		"Level2SkillID": 0,
		"Anim": ""
	},
	{
		"ID": 115,
		"Name": "Hero",
		"Awaken1Material": [
			{
				"GoodsType": "GoodsType_Item",
				"Id": 3253,
				"Count": 5
			},
			{
				"GoodsType": "GoodsType_Item",
				"Id": 3248,
				"Count": 8
			},
			{
				"GoodsType": "GoodsType_Item",
				"Id": 3252,
				"Count": 8
			}
		],
		"Awaken1LevelID": 1115,
		"Awaken2Unlock": false,
		"Awaken2Material": [
			{
				"GoodsType": "GoodsType_Item",
				"Id": 3260,
				"Count": 5
			},
			{
				"GoodsType": "GoodsType_Item",
				"Id": 3255,
				"Count": 12
			},
			{
				"GoodsType": "GoodsType_Item",
				"Id": 3259,
				"Count": 12
			}
		],
		"Awaken2LevelID": 2115,
		"Level2SkillID": 0,
		"Anim": ""
	},
	{
		"ID": 116,
		"Name": "Hero",
		"Awaken1Material": [
			{
				"GoodsType": "GoodsType_Item",
				"Id": 3253,
				"Count": 5
			},
			{
				"GoodsType": "GoodsType_Item",
				"Id": 3250,
				"Count": 8
			},
			{
				"GoodsType": "GoodsType_Item",
				"Id": 3251,
				"Count": 8
			}
		],
		"Awaken1LevelID": 1116,
		"Awaken2Unlock": false,
		"Awaken2Material": [
			{
				"GoodsType": "GoodsType_Item",
				"Id": 3260,
				"Count": 5
			},
			{
				"GoodsType": "GoodsType_Item",
				"Id": 3257,
				"Count": 12
			},
			{
				"GoodsType": "GoodsType_Item",
				"Id": 3258,
				"Count": 12
			}
		],
		"Awaken2LevelID": 2116,
		"Level2SkillID": 0,
		"Anim": ""
	},
	{
		"ID": 117,
		"Name": "Hero",
		"Awaken1Material": [
			{
				"GoodsType": "GoodsType_Item",
				"Id": 3253,
				"Count": 5
			},
			{
				"GoodsType": "GoodsType_Item",
				"Id": 3252,
				"Count": 8
			},
			{
				"GoodsType": "GoodsType_Item",
				"Id": 3249,
				"Count": 8
			}
		],
		"Awaken1LevelID": 1117,
		"Awaken2Unlock": false,
		"Awaken2Material": [
			{
				"GoodsType": "GoodsType_Item",
				"Id": 3260,
				"Count": 5
			},
			{
				"GoodsType": "GoodsType_Item",
				"Id": 3259,
				"Count": 12
			},
			{
				"GoodsType": "GoodsType_Item",
				"Id": 3256,
				"Count": 12
			}
		],
		"Awaken2LevelID": 2117,
		"Level2SkillID": 0,
		"Anim": ""
	},
	{
		"ID": 118,
		"Name": "Hero",
		"Awaken1Material": [
			{
				"GoodsType": "GoodsType_Item",
				"Id": 3253,
				"Count": 5
			},
			{
				"GoodsType": "GoodsType_Item",
				"Id": 3251,
				"Count": 8
			},
			{
				"GoodsType": "GoodsType_Item",
				"Id": 3248,
				"Count": 8
			}
		],
		"Awaken1LevelID": 1118,
		"Awaken2Unlock": false,
		"Awaken2Material": [
			{
				"GoodsType": "GoodsType_Item",
				"Id": 3260,
				"Count": 5
			},
			{
				"GoodsType": "GoodsType_Item",
				"Id": 3258,
				"Count": 12
			},
			{
				"GoodsType": "GoodsType_Item",
				"Id": 3255,
				"Count": 12
			}
		],
		"Awaken2LevelID": 2118,
		"Level2SkillID": 0,
		"Anim": ""
	},
	{
		"ID": 119,
		"Name": "Hero",
		"Awaken1Material": [
			{
				"GoodsType": "GoodsType_Item",
				"Id": 3253,
				"Count": 5
			},
			{
				"GoodsType": "GoodsType_Item",
				"Id": 3250,
				"Count": 8
			},
			{
				"GoodsType": "GoodsType_Item",
				"Id": 3251,
				"Count": 8
			}
		],
		"Awaken1LevelID": 1119,
		"Awaken2Unlock": false,
		"Awaken2Material": [
			{
				"GoodsType": "GoodsType_Item",
				"Id": 3260,
				"Count": 5
			},
			{
				"GoodsType": "GoodsType_Item",
				"Id": 3257,
				"Count": 12
			},
			{
				"GoodsType": "GoodsType_Item",
				"Id": 3258,
				"Count": 12
			}
		],
		"Awaken2LevelID": 2119,
		"Level2SkillID": 0,
		"Anim": ""
	},
	{
		"ID": 120,
		"Name": "Hero",
		"Awaken1Material": [
			{
				"GoodsType": "GoodsType_Item",
				"Id": 3253,
				"Count": 5
			},
			{
				"GoodsType": "GoodsType_Item",
				"Id": 3249,
				"Count": 8
			},
			{
				"GoodsType": "GoodsType_Item",
				"Id": 3247,
				"Count": 8
			}
		],
		"Awaken1LevelID": 1120,
		"Awaken2Unlock": false,
		"Awaken2Material": [
			{
				"GoodsType": "GoodsType_Item",
				"Id": 3260,
				"Count": 5
			},
			{
				"GoodsType": "GoodsType_Item",
				"Id": 3256,
				"Count": 12
			},
			{
				"GoodsType": "GoodsType_Item",
				"Id": 3254,
				"Count": 12
			}
		],
		"Awaken2LevelID": 2120,
		"Level2SkillID": 0,
		"Anim": ""
	},
	{
		"ID": 121,
		"Name": "Hero",
		"Awaken1Material": [
			{
				"GoodsType": "GoodsType_Item",
				"Id": 3253,
				"Count": 5
			},
			{
				"GoodsType": "GoodsType_Item",
				"Id": 3252,
				"Count": 8
			},
			{
				"GoodsType": "GoodsType_Item",
				"Id": 3249,
				"Count": 8
			}
		],
		"Awaken1LevelID": 1121,
		"Awaken2Unlock": false,
		"Awaken2Material": [
			{
				"GoodsType": "GoodsType_Item",
				"Id": 3260,
				"Count": 5
			},
			{
				"GoodsType": "GoodsType_Item",
				"Id": 3259,
				"Count": 12
			},
			{
				"GoodsType": "GoodsType_Item",
				"Id": 3256,
				"Count": 12
			}
		],
		"Awaken2LevelID": 2121,
		"Level2SkillID": 0,
		"Anim": ""
	},
	{
		"ID": 122,
		"Name": "Hero",
		"Awaken1Material": [
			{
				"GoodsType": "GoodsType_Item",
				"Id": 3253,
				"Count": 5
			},
			{
				"GoodsType": "GoodsType_Item",
				"Id": 3248,
				"Count": 8
			},
			{
				"GoodsType": "GoodsType_Item",
				"Id": 3252,
				"Count": 8
			}
		],
		"Awaken1LevelID": 1122,
		"Awaken2Unlock": false,
		"Awaken2Material": [
			{
				"GoodsType": "GoodsType_Item",
				"Id": 3260,
				"Count": 5
			},
			{
				"GoodsType": "GoodsType_Item",
				"Id": 3255,
				"Count": 12
			},
			{
				"GoodsType": "GoodsType_Item",
				"Id": 3259,
				"Count": 12
			}
		],
		"Awaken2LevelID": 2122,
		"Level2SkillID": 0,
		"Anim": ""
	},
	{
		"ID": 123,
		"Name": "Hero",
		"Awaken1Material": [
			{
				"GoodsType": "GoodsType_Item",
				"Id": 3253,
				"Count": 5
			},
			{
				"GoodsType": "GoodsType_Item",
				"Id": 3248,
				"Count": 8
			},
			{
				"GoodsType": "GoodsType_Item",
				"Id": 3252,
				"Count": 8
			}
		],
		"Awaken1LevelID": 1123,
		"Awaken2Unlock": false,
		"Awaken2Material": [
			{
				"GoodsType": "GoodsType_Item",
				"Id": 3260,
				"Count": 5
			},
			{
				"GoodsType": "GoodsType_Item",
				"Id": 3255,
				"Count": 12
			},
			{
				"GoodsType": "GoodsType_Item",
				"Id": 3259,
				"Count": 12
			}
		],
		"Awaken2LevelID": 2123,
		"Level2SkillID": 0,
		"Anim": ""
	},
	{
		"ID": 124,
		"Name": "Hero",
		"Awaken1Material": [
			{
				"GoodsType": "GoodsType_Item",
				"Id": 3253,
				"Count": 5
			},
			{
				"GoodsType": "GoodsType_Item",
				"Id": 3251,
				"Count": 8
			},
			{
				"GoodsType": "GoodsType_Item",
				"Id": 3248,
				"Count": 8
			}
		],
		"Awaken1LevelID": 1124,
		"Awaken2Unlock": false,
		"Awaken2Material": [
			{
				"GoodsType": "GoodsType_Item",
				"Id": 3260,
				"Count": 5
			},
			{
				"GoodsType": "GoodsType_Item",
				"Id": 3258,
				"Count": 12
			},
			{
				"GoodsType": "GoodsType_Item",
				"Id": 3255,
				"Count": 12
			}
		],
		"Awaken2LevelID": 2124,
		"Level2SkillID": 0,
		"Anim": ""
	},
	{
		"ID": 125,
		"Name": "Hero",
		"Awaken1Material": [
			{
				"GoodsType": "GoodsType_Item",
				"Id": 3253,
				"Count": 5
			},
			{
				"GoodsType": "GoodsType_Item",
				"Id": 3250,
				"Count": 8
			},
			{
				"GoodsType": "GoodsType_Item",
				"Id": 3251,
				"Count": 8
			}
		],
		"Awaken1LevelID": 1125,
		"Awaken2Unlock": false,
		"Awaken2Material": [
			{
				"GoodsType": "GoodsType_Item",
				"Id": 3260,
				"Count": 5
			},
			{
				"GoodsType": "GoodsType_Item",
				"Id": 3257,
				"Count": 12
			},
			{
				"GoodsType": "GoodsType_Item",
				"Id": 3258,
				"Count": 12
			}
		],
		"Awaken2LevelID": 2125,
		"Level2SkillID": 0,
		"Anim": ""
	},
	{
		"ID": 126,
		"Name": "Hero",
		"Awaken1Material": [
			{
				"GoodsType": "GoodsType_Item",
				"Id": 3253,
				"Count": 5
			},
			{
				"GoodsType": "GoodsType_Item",
				"Id": 3251,
				"Count": 8
			},
			{
				"GoodsType": "GoodsType_Item",
				"Id": 3248,
				"Count": 8
			}
		],
		"Awaken1LevelID": 1126,
		"Awaken2Unlock": false,
		"Awaken2Material": [
			{
				"GoodsType": "GoodsType_Item",
				"Id": 3260,
				"Count": 5
			},
			{
				"GoodsType": "GoodsType_Item",
				"Id": 3258,
				"Count": 12
			},
			{
				"GoodsType": "GoodsType_Item",
				"Id": 3255,
				"Count": 12
			}
		],
		"Awaken2LevelID": 2126,
		"Level2SkillID": 0,
		"Anim": ""
	},
	{
		"ID": 127,
		"Name": "Hero",
		"Awaken1Material": [
			{
				"GoodsType": "GoodsType_Item",
				"Id": 3253,
				"Count": 5
			},
			{
				"GoodsType": "GoodsType_Item",
				"Id": 3247,
				"Count": 8
			},
			{
				"GoodsType": "GoodsType_Item",
				"Id": 3250,
				"Count": 8
			}
		],
		"Awaken1LevelID": 1127,
		"Awaken2Unlock": false,
		"Awaken2Material": [
			{
				"GoodsType": "GoodsType_Item",
				"Id": 3260,
				"Count": 5
			},
			{
				"GoodsType": "GoodsType_Item",
				"Id": 3254,
				"Count": 12
			},
			{
				"GoodsType": "GoodsType_Item",
				"Id": 3257,
				"Count": 12
			}
		],
		"Awaken2LevelID": 2127,
		"Level2SkillID": 0,
		"Anim": ""
	},
	{
		"ID": 128,
		"Name": "Hero",
		"Awaken1Material": [
			{
				"GoodsType": "GoodsType_Item",
				"Id": 3253,
				"Count": 5
			},
			{
				"GoodsType": "GoodsType_Item",
				"Id": 3249,
				"Count": 8
			},
			{
				"GoodsType": "GoodsType_Item",
				"Id": 3247,
				"Count": 8
			}
		],
		"Awaken1LevelID": 1128,
		"Awaken2Unlock": false,
		"Awaken2Material": [
			{
				"GoodsType": "GoodsType_Item",
				"Id": 3260,
				"Count": 5
			},
			{
				"GoodsType": "GoodsType_Item",
				"Id": 3256,
				"Count": 12
			},
			{
				"GoodsType": "GoodsType_Item",
				"Id": 3254,
				"Count": 12
			}
		],
		"Awaken2LevelID": 2128,
		"Level2SkillID": 0,
		"Anim": ""
	},
	{
		"ID": 129,
		"Name": "Hero",
		"Awaken1Material": [
			{
				"GoodsType": "GoodsType_Item",
				"Id": 3253,
				"Count": 5
			},
			{
				"GoodsType": "GoodsType_Item",
				"Id": 3250,
				"Count": 8
			},
			{
				"GoodsType": "GoodsType_Item",
				"Id": 3251,
				"Count": 8
			}
		],
		"Awaken1LevelID": 1129,
		"Awaken2Unlock": false,
		"Awaken2Material": [
			{
				"GoodsType": "GoodsType_Item",
				"Id": 3260,
				"Count": 5
			},
			{
				"GoodsType": "GoodsType_Item",
				"Id": 3257,
				"Count": 12
			},
			{
				"GoodsType": "GoodsType_Item",
				"Id": 3258,
				"Count": 12
			}
		],
		"Awaken2LevelID": 2129,
		"Level2SkillID": 0,
		"Anim": ""
	},
	{
		"ID": 130,
		"Name": "Hero",
		"Awaken1Material": [
			{
				"GoodsType": "GoodsType_Item",
				"Id": 3253,
				"Count": 5
			},
			{
				"GoodsType": "GoodsType_Item",
				"Id": 3251,
				"Count": 8
			},
			{
				"GoodsType": "GoodsType_Item",
				"Id": 3248,
				"Count": 8
			}
		],
		"Awaken1LevelID": 1130,
		"Awaken2Unlock": false,
		"Awaken2Material": [
			{
				"GoodsType": "GoodsType_Item",
				"Id": 3260,
				"Count": 5
			},
			{
				"GoodsType": "GoodsType_Item",
				"Id": 3258,
				"Count": 12
			},
			{
				"GoodsType": "GoodsType_Item",
				"Id": 3255,
				"Count": 12
			}
		],
		"Awaken2LevelID": 2130,
		"Level2SkillID": 0,
		"Anim": ""
	}
]