[
	{
		"ID": 1,
		"Points": 10,
		"Reward": [
			{
				"GoodsType": "GoodsType_Crystal",
				"Id": 0,
				"Count": 30
			},
			{
				"GoodsType": "GoodsType_Gold",
				"Id": 0,
				"Count": 200
			},
			{
				"GoodsType": "GoodsType_Item",
				"Id": 3002,
				"Count": 1
			}
		]
	},
	{
		"ID": 2,
		"Points": 15,
		"Reward": [
			{
				"GoodsType": "GoodsType_Crystal",
				"Id": 0,
				"Count": 30
			},
			{
				"GoodsType": "GoodsType_Item",
				"Id": 4001,
				"Count": 1
			},
			{
				"GoodsType": "GoodsType_Gold",
				"Id": 0,
				"Count": 500
			},
			{
				"GoodsType": "GoodsType_Item",
				"Id": 4000,
				"Count": 1
			}
		]
	},
	{
		"ID": 3,
		"Points": 20,
		"Reward": [
			{
				"GoodsType": "GoodsType_Crystal",
				"Id": 0,
				"Count": 30
			},
			{
				"GoodsType": "GoodsType_Item",
				"Id": 4001,
				"Count": 1
			},
			{
				"GoodsType": "GoodsType_Gold",
				"Id": 0,
				"Count": 500
			},
			{
				"GoodsType": "GoodsType_Item",
				"Id": 4000,
				"Count": 1
			}
		]
	}
]