[
	{
		"ID": 1,
		"Content": "Time Rift"
	},
	{
		"ID": 2,
		"Content": "Aniki's Gym"
	},
	{
		"ID": 3,
		"Content": "Goddess Trial"
	},
	{
		"ID": 4,
		"Content": "Black Market Store"
	},
	{
		"ID": 5,
		"Content": "Trinity Crystal Store"
	},
	{
		"ID": 6,
		"Content": "Honor Store"
	},
	{
		"ID": 7,
		"Content": "I Choose You!"
	},
	{
		"ID": 8,
		"Content": "Hero Summon"
	},
	{
		"ID": 9,
		"Content": "Bonding Realm"
	},
	{
		"ID": 10,
		"Content": "Training School"
	},
	{
		"ID": 11,
		"Content": "Friendship Store"
	},
	{
		"ID": 12,
		"Content": "Equipment Summon"
	},
	{
		"ID": 13,
		"Content": "Hero List"
	},
	{
		"ID": 14,
		"Content": "Training Field"
	},
	{
		"ID": 15,
		"Content": "Training Field Expedition"
	},
	{
		"ID": 16,
		"Content": "Bonding Realm"
	},
	{
		"ID": 17,
		"Content": "World"
	},
	{
		"ID": 18,
		"Content": "Arena"
	},
	{
		"ID": 19,
		"Content": "Secret Realm"
	},
	{
		"ID": 20,
		"Content": "Secret Realm Limited-Time Event"
	},
	{
		"ID": 21,
		"Content": "Friends"
	},
	{
		"ID": 22,
		"Content": "Stolen Treasure"
	},
	{
		"ID": 23,
		"Content": "Mission"
	},
	{
		"ID": 24,
		"Content": "Gate of Fate"
	},
	{
		"ID": 25,
		"Content": "Recharge Store"
	},
	{
		"ID": 26,
		"Content": "Gift Pack Store"
	},
	{
		"ID": 27,
		"Content": "Event"
	},
	{
		"ID": 28,
		"Content": "Equipment Store"
	},
	{
		"ID": 29,
		"Content": "Memory Store"
	},
	{
		"ID": 30,
		"Content": "Guild Store"
	},
	{
		"ID": 31,
		"Content": "Eternal Temple"
	},
	{
		"ID": 32,
		"Content": "Guild"
	},
	{
		"ID": 33,
		"Content": "Guild Event"
	},
	{
		"ID": 34,
		"Content": "Team"
	},
	{
		"ID": 35,
		"Content": "Add Friend"
	},
	{
		"ID": 36,
		"Content": "Purchase Stamina"
	},
	{
		"ID": 37,
		"Content": "Joint Battle"
	},
	{
		"ID": 38,
		"Content": "Timeless Trial"
	},
	{
		"ID": 39,
		"Content": "Item Bag"
	},
	{
		"ID": 40,
		"Content": "Shard Bag"
	},
	{
		"ID": 41,
		"Content": "Material Bag"
	},
	{
		"ID": 42,
		"Content": "Equipment Bag"
	},
	{
		"ID": 43,
		"Content": "Limited-Time Event"
	},
	{
		"ID": 44,
		"Content": "Secret Realm Challenge"
	},
	{
		"ID": 45,
		"Content": "Hero Hymn"
	},
	{
		"ID": 46,
		"Content": "Secret Realm Store"
	},
	{
		"ID": 47,
		"Content": "Secret Realm Store"
	},
	{
		"ID": 48,
		"Content": "Basic Information"
	},
	{
		"ID": 49,
		"Content": "Apex Arena"
	},
	{
		"ID": 50,
		"Content": "Ancient Beckoning"
	},
	{
		"ID": 51,
		"Content": "Time Bell"
	},
	{
		"ID": 52,
		"Content": "Inventory Gift Pack"
	},
	{
		"ID": 101,
		"Content": "Gate of Fate-1"
	},
	{
		"ID": 102,
		"Content": "Gate of Fate-2"
	},
	{
		"ID": 103,
		"Content": "Gate of Fate-3"
	},
	{
		"ID": 104,
		"Content": "Gate of Fate-4"
	},
	{
		"ID": 105,
		"Content": "Gate of Fate-5"
	},
	{
		"ID": 106,
		"Content": "Gate of Fate-6"
	},
	{
		"ID": 107,
		"Content": "Gate of Fate-7"
	},
	{
		"ID": 109,
		"Content": "Bonding Realm Lv.70 (Daily Reward)"
	},
	{
		"ID": 110,
		"Content": "Guild Store - Lv. 35"
	},
	{
		"ID": 111,
		"Content": "Guild Store - Lv. 40"
	},
	{
		"ID": 112,
		"Content": "Guild Store - Lv. 45"
	},
	{
		"ID": 113,
		"Content": "Guild Store - Lv. 50"
	},
	{
		"ID": 114,
		"Content": "Guild Store - Lv. 55"
	},
	{
		"ID": 201,
		"Content": "Time Rift 1-1"
	},
	{
		"ID": 202,
		"Content": "Time Rift 1-2"
	},
	{
		"ID": 203,
		"Content": "Time Rift 1-3"
	},
	{
		"ID": 204,
		"Content": "Time Rift 1-4"
	},
	{
		"ID": 205,
		"Content": "Time Rift 1-5"
	},
	{
		"ID": 206,
		"Content": "Time Rift 1-6"
	},
	{
		"ID": 207,
		"Content": "Time Rift 1-7"
	},
	{
		"ID": 208,
		"Content": "Time Rift 2-1"
	},
	{
		"ID": 209,
		"Content": "Time Rift 2-2"
	},
	{
		"ID": 210,
		"Content": "Time Rift 2-3"
	},
	{
		"ID": 211,
		"Content": "Time Rift 2-4"
	},
	{
		"ID": 212,
		"Content": "Time Rift 2-5"
	},
	{
		"ID": 213,
		"Content": "Time Rift 2-6"
	},
	{
		"ID": 214,
		"Content": "Time Rift 2-7"
	},
	{
		"ID": 215,
		"Content": "Time Rift 3-1"
	},
	{
		"ID": 216,
		"Content": "Time Rift 3-2"
	},
	{
		"ID": 217,
		"Content": "Time Rift 3-3"
	},
	{
		"ID": 218,
		"Content": "Time Rift 3-4"
	},
	{
		"ID": 219,
		"Content": "Time Rift 3-5"
	},
	{
		"ID": 220,
		"Content": "Time Rift 3-6"
	},
	{
		"ID": 221,
		"Content": "Time Rift 3-7"
	},
	{
		"ID": 222,
		"Content": "Time Rift 4-1"
	},
	{
		"ID": 223,
		"Content": "Time Rift 4-2"
	},
	{
		"ID": 224,
		"Content": "Time Rift 4-3"
	},
	{
		"ID": 225,
		"Content": "Time Rift 4-4"
	},
	{
		"ID": 226,
		"Content": "Time Rift 4-5"
	},
	{
		"ID": 227,
		"Content": "Time Rift 4-6"
	},
	{
		"ID": 228,
		"Content": "Time Rift 4-7"
	},
	{
		"ID": 229,
		"Content": "Time Rift 5-1"
	},
	{
		"ID": 230,
		"Content": "Time Rift 5-2"
	},
	{
		"ID": 231,
		"Content": "Time Rift 5-3"
	},
	{
		"ID": 232,
		"Content": "Time Rift 5-4"
	},
	{
		"ID": 233,
		"Content": "Time Rift 5-5"
	},
	{
		"ID": 234,
		"Content": "Time Rift 5-6"
	},
	{
		"ID": 235,
		"Content": "Time Rift 5-7"
	},
	{
		"ID": 236,
		"Content": "Time Rift 6-1"
	},
	{
		"ID": 237,
		"Content": "Time Rift 6-2"
	},
	{
		"ID": 238,
		"Content": "Time Rift 6-3"
	},
	{
		"ID": 239,
		"Content": "Time Rift 6-4"
	},
	{
		"ID": 240,
		"Content": "Time Rift 6-5"
	},
	{
		"ID": 241,
		"Content": "Time Rift 6-6"
	},
	{
		"ID": 242,
		"Content": "Time Rift 7-1"
	},
	{
		"ID": 243,
		"Content": "Time Rift 7-2"
	},
	{
		"ID": 244,
		"Content": "Time Rift 7-3"
	},
	{
		"ID": 245,
		"Content": "Time Rift 7-4"
	},
	{
		"ID": 246,
		"Content": "Time Rift 7-5"
	},
	{
		"ID": 247,
		"Content": "Time Rift 7-6"
	},
	{
		"ID": 248,
		"Content": "Time Rift 7-7"
	},
	{
		"ID": 249,
		"Content": "Time Rift 8-1"
	},
	{
		"ID": 250,
		"Content": "Time Rift 8-2"
	},
	{
		"ID": 251,
		"Content": "Time Rift 8-3"
	},
	{
		"ID": 252,
		"Content": "Time Rift 8-4"
	},
	{
		"ID": 253,
		"Content": "Time Rift 8-5"
	},
	{
		"ID": 254,
		"Content": "Time Rift 8-6"
	},
	{
		"ID": 255,
		"Content": "Time Rift 8-7"
	},
	{
		"ID": 256,
		"Content": "Time Rift 9-1"
	},
	{
		"ID": 257,
		"Content": "Time Rift 9-2"
	},
	{
		"ID": 258,
		"Content": "Time Rift 9-3"
	},
	{
		"ID": 259,
		"Content": "Time Rift 9-4"
	},
	{
		"ID": 260,
		"Content": "Time Rift 9-5"
	},
	{
		"ID": 261,
		"Content": "Time Rift 9-6"
	},
	{
		"ID": 262,
		"Content": "Time Rift 9-7"
	},
	{
		"ID": 263,
		"Content": "Time Rift 9-8"
	},
	{
		"ID": 264,
		"Content": "Time Rift 9-9"
	},
	{
		"ID": 501,
		"Content": "Time Rift 1-1 (Elite)"
	},
	{
		"ID": 502,
		"Content": "Time Rift 1-2 (Elite)"
	},
	{
		"ID": 503,
		"Content": "Time Rift 1-3 (Elite)"
	},
	{
		"ID": 504,
		"Content": "Time Rift 1-4 (Elite)"
	},
	{
		"ID": 505,
		"Content": "Time Rift 1-5 (Elite)"
	},
	{
		"ID": 506,
		"Content": "Time Rift 1-6 (Elite)"
	},
	{
		"ID": 507,
		"Content": "Time Rift 1-7 (Elite)"
	},
	{
		"ID": 508,
		"Content": "Time Rift 2-1 (Elite)"
	},
	{
		"ID": 509,
		"Content": "Time Rift 2-2 (Elite)"
	},
	{
		"ID": 510,
		"Content": "Time Rift 2-3 (Elite)"
	},
	{
		"ID": 511,
		"Content": "Time Rift 2-4 (Elite)"
	},
	{
		"ID": 512,
		"Content": "Time Rift 2-5 (Elite)"
	},
	{
		"ID": 513,
		"Content": "Time Rift 2-6 (Elite)"
	},
	{
		"ID": 514,
		"Content": "Time Rift 2-7 (Elite)"
	},
	{
		"ID": 515,
		"Content": "Time Rift 3-1 (Elite)"
	},
	{
		"ID": 516,
		"Content": "Time Rift 3-2 (Elite)"
	},
	{
		"ID": 517,
		"Content": "Time Rift 3-3 (Elite)"
	},
	{
		"ID": 518,
		"Content": "Time Rift 3-4 (Elite)"
	},
	{
		"ID": 519,
		"Content": "Time Rift 3-5 (Elite)"
	},
	{
		"ID": 520,
		"Content": "Time Rift 3-6 (Elite)"
	},
	{
		"ID": 521,
		"Content": "Time Rift 3-7 (Elite)"
	},
	{
		"ID": 522,
		"Content": "Time Rift 4-1 (Elite)"
	},
	{
		"ID": 523,
		"Content": "Time Rift 4-2 (Elite)"
	},
	{
		"ID": 524,
		"Content": "Time Rift 4-3 (Elite)"
	},
	{
		"ID": 525,
		"Content": "Time Rift 4-4 (Elite)"
	},
	{
		"ID": 526,
		"Content": "Time Rift 4-5 (Elite)"
	},
	{
		"ID": 527,
		"Content": "Time Rift 4-6 (Elite)"
	},
	{
		"ID": 528,
		"Content": "Time Rift 4-7 (Elite)"
	},
	{
		"ID": 529,
		"Content": "Time Rift 5-1 (Elite)"
	},
	{
		"ID": 530,
		"Content": "Time Rift 5-2 (Elite)"
	},
	{
		"ID": 531,
		"Content": "Time Rift 5-3 (Elite)"
	},
	{
		"ID": 532,
		"Content": "Time Rift 5-4 (Elite)"
	},
	{
		"ID": 533,
		"Content": "Time Rift 5-5 (Elite)"
	},
	{
		"ID": 534,
		"Content": "Time Rift 5-6 (Elite)"
	},
	{
		"ID": 535,
		"Content": "Time Rift 5-7 (Elite)"
	},
	{
		"ID": 536,
		"Content": "Time Rift 6-1 (Elite)"
	},
	{
		"ID": 537,
		"Content": "Time Rift 6-2 (Elite)"
	},
	{
		"ID": 538,
		"Content": "Time Rift 6-3 (Elite)"
	},
	{
		"ID": 539,
		"Content": "Time Rift 6-4 (Elite)"
	},
	{
		"ID": 540,
		"Content": "Time Rift 6-5 (Elite)"
	},
	{
		"ID": 541,
		"Content": "Time Rift 6-6 (Elite)"
	},
	{
		"ID": 542,
		"Content": "Time Rift 7-1 (Elite)"
	},
	{
		"ID": 543,
		"Content": "Time Rift 7-2 (Elite)"
	},
	{
		"ID": 544,
		"Content": "Time Rift 7-3 (Elite)"
	},
	{
		"ID": 545,
		"Content": "Time Rift 7-4 (Elite)"
	},
	{
		"ID": 546,
		"Content": "Time Rift 7-5 (Elite)"
	},
	{
		"ID": 547,
		"Content": "Time Rift 7-6 (Elite)"
	},
	{
		"ID": 548,
		"Content": "Time Rift 7-7 (Elite)"
	},
	{
		"ID": 549,
		"Content": "Time Rift 8-1 (Elite)"
	},
	{
		"ID": 550,
		"Content": "Time Rift 8-2 (Elite)"
	},
	{
		"ID": 551,
		"Content": "Time Rift 8-3 (Elite)"
	},
	{
		"ID": 552,
		"Content": "Time Rift 8-4 (Elite)"
	},
	{
		"ID": 553,
		"Content": "Time Rift 8-5 (Elite)"
	},
	{
		"ID": 554,
		"Content": "Time Rift 8-6 (Elite)"
	},
	{
		"ID": 555,
		"Content": "Time Rift 8-7 (Elite)"
	},
	{
		"ID": 556,
		"Content": "Time Rift 9-1 (Elite)"
	},
	{
		"ID": 557,
		"Content": "Time Rift 9-2 (Elite)"
	},
	{
		"ID": 558,
		"Content": "Time Rift 9-3 (Elite)"
	},
	{
		"ID": 559,
		"Content": "Time Rift 9-4 (Elite)"
	},
	{
		"ID": 560,
		"Content": "Time Rift 9-5 (Elite)"
	},
	{
		"ID": 561,
		"Content": "Time Rift 9-6 (Elite)"
	},
	{
		"ID": 562,
		"Content": "Time Rift 9-7 (Elite)"
	},
	{
		"ID": 563,
		"Content": "Time Rift 9-8 (Elite)"
	},
	{
		"ID": 564,
		"Content": "Time Rift 9-9 (Elite)"
	},
	{
		"ID": 565,
		"Content": "Time Rift 10-1 (Elite)"
	},
	{
		"ID": 566,
		"Content": "Time Rift 10-2 (Elite)"
	},
	{
		"ID": 567,
		"Content": "Time Rift 10-3 (Elite)"
	},
	{
		"ID": 568,
		"Content": "Time Rift 10-4 (Elite)"
	},
	{
		"ID": 569,
		"Content": "Time Rift 10-5 (Elite)"
	},
	{
		"ID": 570,
		"Content": "Time Rift 10-6 (Elite)"
	},
	{
		"ID": 571,
		"Content": "Time Rift 10-7 (Elite)"
	},
	{
		"ID": 572,
		"Content": "Time Rift 10-8 (Elite)"
	},
	{
		"ID": 573,
		"Content": "Time Rift 10-9 (Elite)"
	},
	{
		"ID": 574,
		"Content": "Time Rift 11-1 (Elite)"
	},
	{
		"ID": 575,
		"Content": "Time Rift 11-2 (Elite)"
	},
	{
		"ID": 576,
		"Content": "Time Rift 11-3 (Elite)"
	},
	{
		"ID": 577,
		"Content": "Time Rift 11-4 (Elite)"
	},
	{
		"ID": 578,
		"Content": "Time Rift 11-5 (Elite)"
	},
	{
		"ID": 579,
		"Content": "Time Rift 11-6 (Elite)"
	},
	{
		"ID": 580,
		"Content": "Time Rift 11-7 (Elite)"
	},
	{
		"ID": 581,
		"Content": "Time Rift 11-8 (Elite)"
	},
	{
		"ID": 582,
		"Content": "Time Rift 11-9 (Elite)"
	},
	{
		"ID": 583,
		"Content": "Time Rift 12-1 (Elite)"
	},
	{
		"ID": 584,
		"Content": "Time Rift 12-2 (Elite)"
	},
	{
		"ID": 585,
		"Content": "Time Rift 12-3 (Elite)"
	},
	{
		"ID": 586,
		"Content": "Time Rift 12-4 (Elite)"
	},
	{
		"ID": 587,
		"Content": "Time Rift 12-5 (Elite)"
	},
	{
		"ID": 588,
		"Content": "Time Rift 12-6 (Elite)"
	},
	{
		"ID": 589,
		"Content": "Time Rift 12-7 (Elite)"
	},
	{
		"ID": 590,
		"Content": "Time Rift 12-8 (Elite)"
	},
	{
		"ID": 591,
		"Content": "Time Rift 12-9 (Elite)"
	},
	{
		"ID": 592,
		"Content": "Time Rift 13-1 (Elite)"
	},
	{
		"ID": 593,
		"Content": "Time Rift 13-2 (Elite)"
	},
	{
		"ID": 594,
		"Content": "Time Rift 13-3 (Elite)"
	},
	{
		"ID": 595,
		"Content": "Time Rift 13-4 (Elite)"
	},
	{
		"ID": 596,
		"Content": "Time Rift 13-5 (Elite)"
	},
	{
		"ID": 597,
		"Content": "Time Rift 13-6 (Elite)"
	},
	{
		"ID": 598,
		"Content": "Time Rift 13-7 (Elite)"
	},
	{
		"ID": 599,
		"Content": "Time Rift 14-1 (Elite)"
	},
	{
		"ID": 600,
		"Content": "Time Rift 14-2 (Elite)"
	},
	{
		"ID": 601,
		"Content": "Time Rift 14-3 (Elite)"
	},
	{
		"ID": 602,
		"Content": "Time Rift 14-4 (Elite)"
	},
	{
		"ID": 603,
		"Content": "Time Rift 14-5 (Elite)"
	},
	{
		"ID": 604,
		"Content": "Time Rift 14-6 (Elite)"
	},
	{
		"ID": 605,
		"Content": "Time Rift 14-7 (Elite)"
	},
	{
		"ID": 2000,
		"Content": "[Venom Bomb] prioritizes attacking ranged units."
	},
	{
		"ID": 2001,
		"Content": "[Poison Spit] is cast in the direction with the most units. Units infected by [Plague] take extra damage."
	},
	{
		"ID": 2002,
		"Content": "If there are ≥2 units in the area or the unit in the area is the only one remaining on the field, uses [Venom Spit]\nOtherwise only uses normal attacks. Deals extra damage to units infected by [Plague]."
	},
	{
		"ID": 2003,
		"Content": "[Venom Bomb] prioritizes attacking ranged units and deals fixed AoE damage."
	},
	{
		"ID": 2004,
		"Content": "[Poison Spit] is cast in the direction with the most units. Units infected by [Plague] take extra damage."
	},
	{
		"ID": 2005,
		"Content": "If there are ≥2 units in the area or the unit in the area is the only one remaining on the field, uses [Venom Spit]\nOtherwise only uses normal attacks. Deals extra damage to units infected by [Plague]."
	},
	{
		"ID": 2006,
		"Content": "[Grind] prioritizes attacking units with a lower HP percentage, and deals massive damage to units with less than 90% HP."
	},
	{
		"ID": 2007,
		"Content": "[Trample] is a melee attack. Its damage increases with distance moved.\nTroops attacked are arrested."
	},
	{
		"ID": 2008,
		"Content": "If there are ≥2 units in the area or the unit in the area is the only one remaining on the field, uses [Gravity Field]\nOtherwise only uses normal attacks."
	},
	{
		"ID": 2009,
		"Content": "Prioritizes using [Near Miss] against units within a straight line.\nOtherwise, uses Shadow Raid against units with [Hunt]."
	},
	{
		"ID": 2010,
		"Content": "Apply large amounts of [Horror]. Must quickly trigger [Power of the Gods]."
	},
	{
		"ID": 2011,
		"Content": "Uses [World Devour]. Troops with 3 or more [Horror] take massive damage."
	},
	{
		"ID": 2012,
		"Content": "Fenrir strengthens himself by consuming Wolf Spirits. Eliminate Wolf Spirits to prevent this from happening."
	},
	{
		"ID": 2013,
		"Content": "Jormungandr uses normal attacks, prioritizing the closest units."
	},
	{
		"ID": 2014,
		"Content": "[Poison Splash] is used in the direction with most units in range.\nEnsure that heroes on your team with the highest survivability withstand the damage."
	},
	{
		"ID": 2015,
		"Content": "[Sweep] is used in the direction with the most units in range.\nEnsure that those on the team with highest survivability bear the damage."
	},
	{
		"ID": 2016,
		"Content": "Jormungandr makes normal attacks, prioritizing the closest units."
	},
	{
		"ID": 2017,
		"Content": "Jormungandr makes normal attacks, prioritizing the closest units."
	},
	{
		"ID": 2018,
		"Content": "[Earth Shatter] deals deadly damage to 1 enemy within range."
	},
	{
		"ID": 2019,
		"Content": "AoE ability [Tail Sweep] is used, dealing damage while also pushing back all enemies within range."
	},
	{
		"ID": 2020,
		"Content": "[Flying Pierce] is used, prioritizing attacks against melee units. Attacked units are Arrested for 1 turn.\nUse units with higher survivability to bear the damage."
	},
	{
		"ID": 2021,
		"Content": "[Piercing Shriek] is used. Pay attention to the attack sequence and dispelling of allies' debuffs."
	},
	{
		"ID": 2022,
		"Content": "Hugin & Munin will engage in normal attacks."
	},
	{
		"ID": 2030,
		"Content": "Strong damage and MDEF debuffing accompanied by excellent healing talents."
	},
	{
		"ID": 2031,
		"Content": "Her unique ability to reduce cooldowns allows her to continuously attack in the face of the Blood of the Venom Dragon."
	},
	{
		"ID": 2032,
		"Content": "Possesses a magic damage-reducing aura, maneuverability, and single target damage."
	},
	{
		"ID": 2033,
		"Content": "Possesses strong AoE damage and enemy weakening abilities."
	},
	{
		"ID": 2034,
		"Content": "Relying on fixed AoE damage abilities, can ignore the enemy's increased defense with each turn and guard against magic attacks."
	},
	{
		"ID": 2035,
		"Content": "Strong healing abilities and unique [Act Again] skill, give the team greater opportunities."
	},
	{
		"ID": 2036,
		"Content": "Deals steady damage while guarding against ranged attacks."
	},
	{
		"ID": 2037,
		"Content": "Deals individual and AoE damage, allowing flexibility in dealing with pressure at any stage."
	},
	{
		"ID": 2040,
		"Content": "Able to apply large amounts of debuffs, an essential requirement to gaining [Power of the Gods]."
	},
	{
		"ID": 2041,
		"Content": "Can effectively use the power of [Hand of Tyr] to deal massive damage, with talents that can weaken the enemy."
	},
	{
		"ID": 2042,
		"Content": "Can effectively use the power of [Eye of Zeus] and [Foot of Vidar] to deal massive damage."
	},
	{
		"ID": 2043,
		"Content": "Can effectively use the power of [Power of Thor] and [Eye of Zeus] to deal massive damage."
	},
	{
		"ID": 2044,
		"Content": "Can effectively use the power of [Eye of Zeus] and [Hand of Tyr] to deal massive damage."
	},
	{
		"ID": 2045,
		"Content": "Able to apply large amounts of debuffs, while also possessing good healing abilities."
	},
	{
		"ID": 2046,
		"Content": "Can effectively use the power of [Eye of Zeus] and [Hand of Tyr] to deal massive damage."
	},
	{
		"ID": 2047,
		"Content": "Can effectively use the power of [Eye of Zeus] and [Foot of Vidar] to deal massive damage."
	},
	{
		"ID": 2050,
		"Content": "Possesses strong damage and excellent maneuverability."
	},
	{
		"ID": 2051,
		"Content": "Has the unique talent to heal over distances, along with excellent damage and mobility."
	},
	{
		"ID": 2052,
		"Content": "Possesses strong ranged damage and good displacement abilities."
	},
	{
		"ID": 2053,
		"Content": "A trustworthy tank, with a strong guard that allows the team more room for errors."
	},
	{
		"ID": 2054,
		"Content": "Possesses strong ranged damage and good displacement abilities."
	},
	{
		"ID": 2055,
		"Content": "Has long-range healing abilities and group teleportation that protects against the boss's hunting."
	},
	{
		"ID": 2056,
		"Content": "Provides reliable assistance by ramming and guarding, and also has strong attack and displacement abilities."
	},
	{
		"ID": 2057,
		"Content": "Provides effective healing, and increases the damage of all units."
	},
	{
		"ID": 2060,
		"Content": "Unique [Move Again] skill allows for effective evasion of Jormungandr's attacks."
	},
	{
		"ID": 2061,
		"Content": "Can switch between melee and ranged attacks, which is highly useful against Morphed Jormungandr."
	},
	{
		"ID": 2062,
		"Content": "In the form of a Swordsman, he can switch between ranged and melee attacks, allowing for even greater damage."
	},
	{
		"ID": 2063,
		"Content": "The agility and melee/ranged attack capabilities of [Roundabout] are a useful weapon against Jormungandr."
	},
	{
		"ID": 2064,
		"Content": "It safeguards the survival of the team in the face of Jormungandr's multi-stage AoE attacks."
	},
	{
		"ID": 2065,
		"Content": "A unique talent that allows the team to survive better under the [Venom] status."
	},
	{
		"ID": 2066,
		"Content": "Provides melee and ranged attack capabilities, and extra healing potential."
	},
	{
		"ID": 2067,
		"Content": "Agile displacement and position swap skills can effectively lure the AoE attacks of Jormungandr."
	},
	{
		"ID": 2070,
		"Content": "Using class type restrictions with the [Roundabout] passive skill can effectively avoid the spread of [Whisper]."
	},
	{
		"ID": 2071,
		"Content": "Archer form has the class-specific advantage of a broad attack range."
	},
	{
		"ID": 2072,
		"Content": "While attacking, can also dispel debuffs from allies."
	},
	{
		"ID": 2073,
		"Content": "While dispelling debuffs from allies, [Mass Strengthen] can also effectively mitigate defense reduction along with having multiple forms of attack."
	},
	{
		"ID": 2074,
		"Content": "Talent effect allows hero to take a lot of damage for teammates."
	},
	{
		"ID": 2075,
		"Content": "Strong debuff-dispelling abilities, along with [Mass Protect], which can effectively mitigate defense reduction."
	},
	{
		"ID": 2076,
		"Content": "Using class type restrictions with the [Roundabout] passive skill can effectively avoid the spread of [Whisper]."
	},
	{
		"ID": 2077,
		"Content": "While taking damage for teammates, can also deal significant damage to the enemy."
	}
]