[
	{
		"ID": 1,
		"SystemLanguage": "Afrikaans",
		"LanguageAbbr": "af",
		"LanguageName": "Afrikaans"
	},
	{
		"ID": 2,
		"SystemLanguage": "Albanian",
		"LanguageAbbr": "sq",
		"LanguageName": "Albanian"
	},
	{
		"ID": 3,
		"SystemLanguage": "Amharic",
		"LanguageAbbr": "am",
		"LanguageName": "Amharic"
	},
	{
		"ID": 4,
		"SystemLanguage": "Arabic",
		"LanguageAbbr": "ar",
		"LanguageName": "Arabic"
	},
	{
		"ID": 5,
		"SystemLanguage": "Armenian",
		"LanguageAbbr": "hy",
		"LanguageName": "Armenian"
	},
	{
		"ID": 7,
		"SystemLanguage": "Basque",
		"LanguageAbbr": "eu",
		"LanguageName": "Basque"
	},
	{
		"ID": 8,
		"SystemLanguage": "Belarusian",
		"LanguageAbbr": "be",
		"LanguageName": "Belarusian"
	},
	{
		"ID": 9,
		"SystemLanguage": "Bengali",
		"LanguageAbbr": "bn",
		"LanguageName": "Bengali"
	},
	{
		"ID": 10,
		"SystemLanguage": "Bosnian",
		"LanguageAbbr": "bs",
		"LanguageName": "Bosnian"
	},
	{
		"ID": 11,
		"SystemLanguage": "Bulgarian",
		"LanguageAbbr": "bg",
		"LanguageName": "Bulgarian"
	},
	{
		"ID": 12,
		"SystemLanguage": "Catalan",
		"LanguageAbbr": "ca",
		"LanguageName": "Catalan"
	},
	{
		"ID": 15,
		"SystemLanguage": "Chinese Simplified",
		"LanguageAbbr": "zh-CN",
		"LanguageName": "Chinese Simplified"
	},
	{
		"ID": 16,
		"SystemLanguage": "Chinese Traditional",
		"LanguageAbbr": "zh-TW",
		"LanguageName": "Traditional Chinese"
	},
	{
		"ID": 17,
		"SystemLanguage": "Corsican",
		"LanguageAbbr": "co",
		"LanguageName": "Corsican"
	},
	{
		"ID": 18,
		"SystemLanguage": "Croatian",
		"LanguageAbbr": "hr",
		"LanguageName": "Croatian"
	},
	{
		"ID": 19,
		"SystemLanguage": "Czech",
		"LanguageAbbr": "cs",
		"LanguageName": "Czech"
	},
	{
		"ID": 20,
		"SystemLanguage": "Danish",
		"LanguageAbbr": "da",
		"LanguageName": "Danish"
	},
	{
		"ID": 21,
		"SystemLanguage": "Dutch",
		"LanguageAbbr": "nl",
		"LanguageName": "Dutch"
	},
	{
		"ID": 22,
		"SystemLanguage": "English",
		"LanguageAbbr": "en",
		"LanguageName": "English"
	},
	{
		"ID": 24,
		"SystemLanguage": "Estonian",
		"LanguageAbbr": "et",
		"LanguageName": "Estonian"
	},
	{
		"ID": 25,
		"SystemLanguage": "Filipino",
		"LanguageAbbr": "tl",
		"LanguageName": "Filipino"
	},
	{
		"ID": 26,
		"SystemLanguage": "Finnish",
		"LanguageAbbr": "fi",
		"LanguageName": "Finnish"
	},
	{
		"ID": 27,
		"SystemLanguage": "French",
		"LanguageAbbr": "fr",
		"LanguageName": "French"
	},
	{
		"ID": 28,
		"SystemLanguage": "Frisian",
		"LanguageAbbr": "fy",
		"LanguageName": "Frisian"
	},
	{
		"ID": 29,
		"SystemLanguage": "Galician",
		"LanguageAbbr": "gl",
		"LanguageName": "Galician"
	},
	{
		"ID": 30,
		"SystemLanguage": "Georgian",
		"LanguageAbbr": "ka",
		"LanguageName": "Georgian"
	},
	{
		"ID": 31,
		"SystemLanguage": "German",
		"LanguageAbbr": "de",
		"LanguageName": "German"
	},
	{
		"ID": 32,
		"SystemLanguage": "Greek",
		"LanguageAbbr": "el",
		"LanguageName": "Greek"
	},
	{
		"ID": 33,
		"SystemLanguage": "Gujarati",
		"LanguageAbbr": "gu",
		"LanguageName": "Gujarati"
	},
	{
		"ID": 34,
		"SystemLanguage": "Haitian Creole",
		"LanguageAbbr": "ht",
		"LanguageName": "Haitian Creole"
	},
	{
		"ID": 35,
		"SystemLanguage": "Hausa",
		"LanguageAbbr": "ha",
		"LanguageName": "Hausa"
	},
	{
		"ID": 36,
		"SystemLanguage": "Hawaiian",
		"LanguageAbbr": "haw",
		"LanguageName": "Hawaiian"
	},
	{
		"ID": 37,
		"SystemLanguage": "Hebrew",
		"LanguageAbbr": "iw",
		"LanguageName": "Hebrew"
	},
	{
		"ID": 38,
		"SystemLanguage": "Hindi",
		"LanguageAbbr": "hi",
		"LanguageName": "Hindi"
	},
	{
		"ID": 39,
		"SystemLanguage": "Hmong",
		"LanguageAbbr": "hmn",
		"LanguageName": "Hmong"
	},
	{
		"ID": 40,
		"SystemLanguage": "Hungarian",
		"LanguageAbbr": "hu",
		"LanguageName": "Hungarian"
	},
	{
		"ID": 41,
		"SystemLanguage": "Icelandic",
		"LanguageAbbr": "is",
		"LanguageName": "Icelandic"
	},
	{
		"ID": 42,
		"SystemLanguage": "Igbo",
		"LanguageAbbr": "ig",
		"LanguageName": "Igbo"
	},
	{
		"ID": 43,
		"SystemLanguage": "Indonesian",
		"LanguageAbbr": "id",
		"LanguageName": "Indonesian"
	},
	{
		"ID": 44,
		"SystemLanguage": "Irish",
		"LanguageAbbr": "ga",
		"LanguageName": "Irish"
	},
	{
		"ID": 45,
		"SystemLanguage": "Italian",
		"LanguageAbbr": "it",
		"LanguageName": "Italian"
	},
	{
		"ID": 46,
		"SystemLanguage": "Japanese",
		"LanguageAbbr": "ja",
		"LanguageName": "Japanese"
	},
	{
		"ID": 47,
		"SystemLanguage": "Javanese",
		"LanguageAbbr": "jw",
		"LanguageName": "Javanese"
	},
	{
		"ID": 48,
		"SystemLanguage": "Kannada",
		"LanguageAbbr": "kn",
		"LanguageName": "Kannada"
	},
	{
		"ID": 49,
		"SystemLanguage": "Kazakh",
		"LanguageAbbr": "kk",
		"LanguageName": "Kazakh"
	},
	{
		"ID": 50,
		"SystemLanguage": "Khmer",
		"LanguageAbbr": "km",
		"LanguageName": "Khmer"
	},
	{
		"ID": 51,
		"SystemLanguage": "Korean",
		"LanguageAbbr": "ko",
		"LanguageName": "Korean"
	},
	{
		"ID": 52,
		"SystemLanguage": "Kurdish",
		"LanguageAbbr": "ku",
		"LanguageName": "Kurdish"
	},
	{
		"ID": 53,
		"SystemLanguage": "Kyrgyz",
		"LanguageAbbr": "ky",
		"LanguageName": "Kyrgyz"
	},
	{
		"ID": 54,
		"SystemLanguage": "Lao",
		"LanguageAbbr": "lo",
		"LanguageName": "Lao"
	},
	{
		"ID": 55,
		"SystemLanguage": "Latin",
		"LanguageAbbr": "la",
		"LanguageName": "Latin"
	},
	{
		"ID": 56,
		"SystemLanguage": "Latvian",
		"LanguageAbbr": "lv",
		"LanguageName": "Latvian"
	},
	{
		"ID": 57,
		"SystemLanguage": "Lithuanian",
		"LanguageAbbr": "lt",
		"LanguageName": "Lithuanian"
	},
	{
		"ID": 59,
		"SystemLanguage": "Macedonian",
		"LanguageAbbr": "mk",
		"LanguageName": "Macedonian"
	},
	{
		"ID": 60,
		"SystemLanguage": "Malagasy",
		"LanguageAbbr": "mg",
		"LanguageName": "Malagasy"
	},
	{
		"ID": 61,
		"SystemLanguage": "Malay",
		"LanguageAbbr": "ms",
		"LanguageName": "Malay"
	},
	{
		"ID": 62,
		"SystemLanguage": "Malayalam",
		"LanguageAbbr": "ml",
		"LanguageName": "Malayalam"
	},
	{
		"ID": 63,
		"SystemLanguage": "Maltese",
		"LanguageAbbr": "mt",
		"LanguageName": "Maltese"
	},
	{
		"ID": 64,
		"SystemLanguage": "Maori",
		"LanguageAbbr": "mi",
		"LanguageName": "Maori"
	},
	{
		"ID": 65,
		"SystemLanguage": "Marathi",
		"LanguageAbbr": "mr",
		"LanguageName": "Marathi"
	},
	{
		"ID": 66,
		"SystemLanguage": "Mongolian",
		"LanguageAbbr": "mn",
		"LanguageName": "Mongolian"
	},
	{
		"ID": 67,
		"SystemLanguage": "Burmese",
		"LanguageAbbr": "my",
		"LanguageName": "Burmese"
	},
	{
		"ID": 68,
		"SystemLanguage": "Nepali",
		"LanguageAbbr": "ne",
		"LanguageName": "Nepali"
	},
	{
		"ID": 69,
		"SystemLanguage": "Norwegian",
		"LanguageAbbr": "no",
		"LanguageName": "Norwegian"
	},
	{
		"ID": 70,
		"SystemLanguage": "Pashto",
		"LanguageAbbr": "ps",
		"LanguageName": "Pashto"
	},
	{
		"ID": 71,
		"SystemLanguage": "Persian",
		"LanguageAbbr": "fa",
		"LanguageName": "Persian"
	},
	{
		"ID": 72,
		"SystemLanguage": "Polish",
		"LanguageAbbr": "pl",
		"LanguageName": "Polish"
	},
	{
		"ID": 73,
		"SystemLanguage": "Portuguese",
		"LanguageAbbr": "pt",
		"LanguageName": "Portuguese"
	},
	{
		"ID": 74,
		"SystemLanguage": "Punjabi",
		"LanguageAbbr": "ma",
		"LanguageName": "Punjabi"
	},
	{
		"ID": 75,
		"SystemLanguage": "Romanian",
		"LanguageAbbr": "ro",
		"LanguageName": "Romanian"
	},
	{
		"ID": 76,
		"SystemLanguage": "Russian",
		"LanguageAbbr": "ru",
		"LanguageName": "Russian"
	},
	{
		"ID": 77,
		"SystemLanguage": "Samoan",
		"LanguageAbbr": "sm",
		"LanguageName": "Samoan"
	},
	{
		"ID": 78,
		"SystemLanguage": "Scots Gaelic",
		"LanguageAbbr": "gd",
		"LanguageName": "Scots Gaelic"
	},
	{
		"ID": 79,
		"SystemLanguage": "Serbian",
		"LanguageAbbr": "sr",
		"LanguageName": "Serbian"
	},
	{
		"ID": 80,
		"SystemLanguage": "Sesotho",
		"LanguageAbbr": "st",
		"LanguageName": "Sesotho"
	},
	{
		"ID": 82,
		"SystemLanguage": "Sindhi",
		"LanguageAbbr": "sd",
		"LanguageName": "Sindhi"
	},
	{
		"ID": 83,
		"SystemLanguage": "Sinhala",
		"LanguageAbbr": "si",
		"LanguageName": "Sinhala"
	},
	{
		"ID": 84,
		"SystemLanguage": "Slovak",
		"LanguageAbbr": "sk",
		"LanguageName": "Slovak"
	},
	{
		"ID": 85,
		"SystemLanguage": "Slovenian",
		"LanguageAbbr": "sl",
		"LanguageName": "Slovenian"
	},
	{
		"ID": 87,
		"SystemLanguage": "Spanish",
		"LanguageAbbr": "es",
		"LanguageName": "Spanish"
	},
	{
		"ID": 88,
		"SystemLanguage": "Sundanese",
		"LanguageAbbr": "su",
		"LanguageName": "Sudanese"
	},
	{
		"ID": 89,
		"SystemLanguage": "Swahili",
		"LanguageAbbr": "sw",
		"LanguageName": "Swahili"
	},
	{
		"ID": 90,
		"SystemLanguage": "Swedish",
		"LanguageAbbr": "sv",
		"LanguageName": "Swedish"
	},
	{
		"ID": 91,
		"SystemLanguage": "Tajik",
		"LanguageAbbr": "tg",
		"LanguageName": "Tajik"
	},
	{
		"ID": 93,
		"SystemLanguage": "Telugu",
		"LanguageAbbr": "te",
		"LanguageName": "Telugu"
	},
	{
		"ID": 94,
		"SystemLanguage": "Thai",
		"LanguageAbbr": "th",
		"LanguageName": "Thai"
	},
	{
		"ID": 95,
		"SystemLanguage": "Turkish",
		"LanguageAbbr": "tr",
		"LanguageName": "Turkish"
	},
	{
		"ID": 96,
		"SystemLanguage": "Ukrainian",
		"LanguageAbbr": "uk",
		"LanguageName": "Ukrainian"
	},
	{
		"ID": 97,
		"SystemLanguage": "Urdu",
		"LanguageAbbr": "ur",
		"LanguageName": "Urdu"
	},
	{
		"ID": 98,
		"SystemLanguage": "Uzbek",
		"LanguageAbbr": "uz",
		"LanguageName": "Uzbek"
	},
	{
		"ID": 99,
		"SystemLanguage": "Vietnamese",
		"LanguageAbbr": "vi",
		"LanguageName": "Vietnamese"
	},
	{
		"ID": 100,
		"SystemLanguage": "Welsh",
		"LanguageAbbr": "cy",
		"LanguageName": "Welsh"
	},
	{
		"ID": 101,
		"SystemLanguage": "Xhosa",
		"LanguageAbbr": "xh",
		"LanguageName": "Xhosa"
	},
	{
		"ID": 102,
		"SystemLanguage": "Yiddish",
		"LanguageAbbr": "yi",
		"LanguageName": "Yiddish"
	},
	{
		"ID": 103,
		"SystemLanguage": "Yoruba",
		"LanguageAbbr": "yo",
		"LanguageName": "Yoruba"
	},
	{
		"ID": 104,
		"SystemLanguage": "Zulu",
		"LanguageAbbr": "zu",
		"LanguageName": "Zulu"
	}
]