[
	{
		"ID": 20101,
		"Name": "Pinch Hitter",
		"Model": "Spine/Soldier/SwordMan_ABS/Skin/SwordMan_Skin01_Prefab.prefab",
		"CombatModel": "",
		"ModelScale": 0,
		"BFModelScale": 0,
		"UIModelScale": 0,
		"UIModelOffsetX": 0,
		"UIModelOffsetY": 0,
		"MeleeATKID": 0,
		"RangeATKID": 270,
		"SkillID": 0,
		"MoveSound": ""
	},
	{
		"ID": 20201,
		"Name": "Pinch Hitter",
		"Model": "Spine/Soldier/SwordMan_ABS/Skin/SwordMan_Skin02_Prefab.prefab",
		"CombatModel": "",
		"ModelScale": 0,
		"BFModelScale": 0,
		"UIModelScale": 0,
		"UIModelOffsetX": 0,
		"UIModelOffsetY": 0,
		"MeleeATKID": 0,
		"RangeATKID": 270,
		"SkillID": 0,
		"MoveSound": ""
	},
	{
		"ID": 10101,
		"Name": "Goalie",
		"Model": "Spine/Soldier/PikeMan_ABS/Skin/PikeMan_Skin01_Prefab.prefab",
		"CombatModel": "",
		"ModelScale": 0,
		"BFModelScale": 0,
		"UIModelScale": 0,
		"UIModelOffsetX": 0,
		"UIModelOffsetY": 0,
		"MeleeATKID": 0,
		"RangeATKID": 0,
		"SkillID": 0,
		"MoveSound": ""
	},
	{
		"ID": 10201,
		"Name": "Goalie",
		"Model": "Spine/Soldier/PikeMan_ABS/Skin/PikeMan_Skin02_Prefab.prefab",
		"CombatModel": "",
		"ModelScale": 0,
		"BFModelScale": 0,
		"UIModelScale": 0,
		"UIModelOffsetX": 0,
		"UIModelOffsetY": 0,
		"MeleeATKID": 0,
		"RangeATKID": 0,
		"SkillID": 0,
		"MoveSound": ""
	},
	{
		"ID": 30101,
		"Name": "Polar Bear Express",
		"Model": "Spine/Soldier/SwordHorse_ABS/Skin/SwordHorse_Skin01_Prefab.prefab",
		"CombatModel": "",
		"ModelScale": 0,
		"BFModelScale": 0,
		"UIModelScale": 0,
		"UIModelOffsetX": 0,
		"UIModelOffsetY": 0,
		"MeleeATKID": 0,
		"RangeATKID": 0,
		"SkillID": 0,
		"MoveSound": ""
	},
	{
		"ID": 30201,
		"Name": "Polar Bear Express",
		"Model": "Spine/Soldier/SwordHorse_ABS/Skin/SwordHorse_Skin02_Prefab.prefab",
		"CombatModel": "",
		"ModelScale": 0,
		"BFModelScale": 0,
		"UIModelScale": 0,
		"UIModelOffsetX": 0,
		"UIModelOffsetY": 0,
		"MeleeATKID": 0,
		"RangeATKID": 0,
		"SkillID": 0,
		"MoveSound": ""
	},
	{
		"ID": 40101,
		"Name": "Chrysopelea Pharaoh",
		"Model": "Spine/Soldier/FlyingUnit/Sword_Griffin_ABS/Skin/Sword_Griffin_Skin01_Prefab.prefab",
		"CombatModel": "Spine/Soldier/FlyingUnit/Sword_Griffin_ABS/Skin/Sword_Griffin_Skin01_air_Prefab.prefab",
		"ModelScale": 0,
		"BFModelScale": 0,
		"UIModelScale": 0,
		"UIModelOffsetX": 0,
		"UIModelOffsetY": 0,
		"MeleeATKID": 0,
		"RangeATKID": 0,
		"SkillID": 0,
		"MoveSound": ""
	},
	{
		"ID": 40201,
		"Name": "Chrysopelea Pharaoh",
		"Model": "Spine/Soldier/FlyingUnit/Sword_Griffin_ABS/Skin/Sword_Griffin_Skin02_Prefab.prefab",
		"CombatModel": "Spine/Soldier/FlyingUnit/Sword_Griffin_ABS/Skin/Sword_Griffin_Skin02_air_Prefab.prefab",
		"ModelScale": 0,
		"BFModelScale": 0,
		"UIModelScale": 0,
		"UIModelOffsetX": 0,
		"UIModelOffsetY": 0,
		"MeleeATKID": 0,
		"RangeATKID": 0,
		"SkillID": 0,
		"MoveSound": ""
	},
	{
		"ID": 60101,
		"Name": "Kamen Archer",
		"Model": "Spine/Soldier/Archer_ABS/Skin/Archer_Skin01_Prefab.prefab",
		"CombatModel": "",
		"ModelScale": 0,
		"BFModelScale": 0,
		"UIModelScale": 0,
		"UIModelOffsetX": 0,
		"UIModelOffsetY": 0,
		"MeleeATKID": 0,
		"RangeATKID": 0,
		"SkillID": 0,
		"MoveSound": ""
	},
	{
		"ID": 60201,
		"Name": "Kamen Archer",
		"Model": "Spine/Soldier/Archer_ABS/Skin/Archer_Skin02_Prefab.prefab",
		"CombatModel": "",
		"ModelScale": 0,
		"BFModelScale": 0,
		"UIModelScale": 0,
		"UIModelOffsetX": 0,
		"UIModelOffsetY": 0,
		"MeleeATKID": 0,
		"RangeATKID": 0,
		"SkillID": 0,
		"MoveSound": ""
	},
	{
		"ID": 80101,
		"Name": "Mystery Doctor",
		"Model": "Spine/Soldier/Clergy_ABS/Skin/Clergy_Skin01_Prefab.prefab",
		"CombatModel": "",
		"ModelScale": 0,
		"BFModelScale": 0,
		"UIModelScale": 0,
		"UIModelOffsetX": 0,
		"UIModelOffsetY": 0,
		"MeleeATKID": 0,
		"RangeATKID": 0,
		"SkillID": 0,
		"MoveSound": ""
	},
	{
		"ID": 80201,
		"Name": "Mystery Doctor",
		"Model": "Spine/Soldier/Clergy_ABS/Skin/Clergy_Skin02_Prefab.prefab",
		"CombatModel": "",
		"ModelScale": 0,
		"BFModelScale": 0,
		"UIModelScale": 0,
		"UIModelOffsetX": 0,
		"UIModelOffsetY": 0,
		"MeleeATKID": 0,
		"RangeATKID": 0,
		"SkillID": 0,
		"MoveSound": ""
	},
	{
		"ID": 110101,
		"Name": "Anonymous",
		"Model": "Spine/Soldier/Thief_ABS/Skin/Thief_Skin01_Prefab.prefab",
		"CombatModel": "",
		"ModelScale": 0,
		"BFModelScale": 0,
		"UIModelScale": 0,
		"UIModelOffsetX": 0,
		"UIModelOffsetY": 0,
		"MeleeATKID": 0,
		"RangeATKID": 0,
		"SkillID": 0,
		"MoveSound": ""
	},
	{
		"ID": 110201,
		"Name": "Anonymous",
		"Model": "Spine/Soldier/Thief_ABS/Skin/Thief_Skin02_Prefab.prefab",
		"CombatModel": "",
		"ModelScale": 0,
		"BFModelScale": 0,
		"UIModelScale": 0,
		"UIModelOffsetX": 0,
		"UIModelOffsetY": 0,
		"MeleeATKID": 0,
		"RangeATKID": 0,
		"SkillID": 0,
		"MoveSound": ""
	},
	{
		"ID": 20001,
		"Name": "Rowdy Rally",
		"Model": "Spine/Soldier/Qudao_ABS/Qudao_100W/Qudao_Fanti_Prefab.prefab",
		"CombatModel": "",
		"ModelScale": 0,
		"BFModelScale": 0,
		"UIModelScale": 0,
		"UIModelOffsetX": 0,
		"UIModelOffsetY": 0,
		"MeleeATKID": 0,
		"RangeATKID": 0,
		"SkillID": 0,
		"MoveSound": ""
	},
	{
		"ID": 20102,
		"Name": "Console Gamer",
		"Model": "Spine/Soldier/Qudao_ABS/Qudao_MD/Qudao_MD_Prefab.prefab",
		"CombatModel": "",
		"ModelScale": 0,
		"BFModelScale": 0,
		"UIModelScale": 0,
		"UIModelOffsetX": 0,
		"UIModelOffsetY": 0,
		"MeleeATKID": 0,
		"RangeATKID": 0,
		"SkillID": 0,
		"MoveSound": ""
	},
	{
		"ID": 20002,
		"Name": "Spray Away",
		"Model": "Spine/Soldier/Qudao_ABS/Qudao_Tap/Qudao_Tap_Prefab.prefab",
		"CombatModel": "",
		"ModelScale": 0,
		"BFModelScale": 0,
		"UIModelScale": 0,
		"UIModelOffsetX": 0,
		"UIModelOffsetY": 0,
		"MeleeATKID": 0,
		"RangeATKID": 0,
		"SkillID": 0,
		"MoveSound": ""
	},
	{
		"ID": 20003,
		"Name": "TV Idol",
		"Model": "Spine/Soldier/Qudao_ABS/Qudao_Bilibili/Qudao_Bilibili_Prefab.prefab",
		"CombatModel": "",
		"ModelScale": 0,
		"BFModelScale": 0,
		"UIModelScale": 0,
		"UIModelOffsetX": 0,
		"UIModelOffsetY": 0,
		"MeleeATKID": 0,
		"RangeATKID": 0,
		"SkillID": 0,
		"MoveSound": ""
	},
	{
		"ID": 10001,
		"Name": "Pro Skater",
		"Model": "Spine/Soldier/Qudao_ABS/Qudao_QQ/Qudao_QQ_Prefab.prefab",
		"CombatModel": "",
		"ModelScale": 0,
		"BFModelScale": 0,
		"UIModelScale": 0,
		"UIModelOffsetX": 0,
		"UIModelOffsetY": 0,
		"MeleeATKID": 0,
		"RangeATKID": 0,
		"SkillID": 0,
		"MoveSound": ""
	},
	{
		"ID": 20004,
		"Name": "Slick Youth",
		"Model": "Spine/Soldier/Qudao_ABS/Qudao_Jiuyou/Qudao_jiuyou_Prefab.prefab",
		"CombatModel": "",
		"ModelScale": 0,
		"BFModelScale": 0,
		"UIModelScale": 0,
		"UIModelOffsetX": 0,
		"UIModelOffsetY": 0,
		"MeleeATKID": 0,
		"RangeATKID": 0,
		"SkillID": 0,
		"MoveSound": ""
	},
	{
		"ID": 10002,
		"Name": "Internet Celebrity",
		"Model": "Spine/Soldier/Qudao_ABS/Qudao_Oppo/Qudao_Oppo_Prefab.prefab",
		"CombatModel": "",
		"ModelScale": 0,
		"BFModelScale": 0,
		"UIModelScale": 0,
		"UIModelOffsetX": 0,
		"UIModelOffsetY": 0,
		"MeleeATKID": 0,
		"RangeATKID": 0,
		"SkillID": 0,
		"MoveSound": ""
	},
	{
		"ID": 20005,
		"Name": "16-Bit Kid",
		"Model": "Spine/Soldier/Qudao_ABS/Qudao_Vivo/Qudao_Vivo_Prefab.prefab",
		"CombatModel": "",
		"ModelScale": 0,
		"BFModelScale": 0,
		"UIModelScale": 0,
		"UIModelOffsetX": 0,
		"UIModelOffsetY": 0,
		"MeleeATKID": 0,
		"RangeATKID": 0,
		"SkillID": 0,
		"MoveSound": ""
	},
	{
		"ID": 20006,
		"Name": "Baby Unicorn",
		"Model": "Spine/Soldier/Qudao_ABS/Qudao_Huawei01/Qudao_huawei01_Prefab.prefab",
		"CombatModel": "",
		"ModelScale": 0,
		"BFModelScale": 0,
		"UIModelScale": 0,
		"UIModelOffsetX": 0,
		"UIModelOffsetY": 0,
		"MeleeATKID": 0,
		"RangeATKID": 0,
		"SkillID": 0,
		"MoveSound": ""
	},
	{
		"ID": 20007,
		"Name": "Night Panda",
		"Model": "Spine/Soldier/Qudao_ABS/Qudao_Meizu/Qudao_Meizu_Prefab.prefab",
		"CombatModel": "",
		"ModelScale": 0,
		"BFModelScale": 0,
		"UIModelScale": 0,
		"UIModelOffsetX": 0,
		"UIModelOffsetY": 0,
		"MeleeATKID": 0,
		"RangeATKID": 0,
		"SkillID": 0,
		"MoveSound": ""
	},
	{
		"ID": 80001,
		"Name": "Starlight",
		"Model": "Spine/Soldier/Qudao_ABS/Qudao_Xiaomi/Qudao_Xiaomi_Prefab.prefab",
		"CombatModel": "",
		"ModelScale": 0,
		"BFModelScale": 0,
		"UIModelScale": 0,
		"UIModelOffsetX": 0,
		"UIModelOffsetY": 0,
		"MeleeATKID": 0,
		"RangeATKID": 0,
		"SkillID": 0,
		"MoveSound": ""
	},
	{
		"ID": 61901,
		"Name": "Magic Summer",
		"Model": "Spine/Soldier/FlyingUnit/Witch_ABS/Witch_Skin/Witch_Skin01_Prefab.prefab",
		"CombatModel": "",
		"ModelScale": 0,
		"BFModelScale": 0,
		"UIModelScale": 0,
		"UIModelOffsetX": 0,
		"UIModelOffsetY": 0,
		"MeleeATKID": 0,
		"RangeATKID": 0,
		"SkillID": 0,
		"MoveSound": ""
	},
	{
		"ID": 62201,
		"Name": "Magic Summer",
		"Model": "Spine/Soldier/FlyingUnit/Witch_ABS/Witch_Skin/Witch_Skin02_Prafab.prefab",
		"CombatModel": "",
		"ModelScale": 0,
		"BFModelScale": 0,
		"UIModelScale": 0,
		"UIModelOffsetX": 0,
		"UIModelOffsetY": 0,
		"MeleeATKID": 0,
		"RangeATKID": 0,
		"SkillID": 0,
		"MoveSound": ""
	},
	{
		"ID": 60102,
		"Name": "Island Elf",
		"Model": "Spine/Soldier/Fairy_ABS/Fairy_Skin/Fairy_Skin01_Prefab.prefab",
		"CombatModel": "",
		"ModelScale": 0,
		"BFModelScale": 0,
		"UIModelScale": 0,
		"UIModelOffsetX": 0,
		"UIModelOffsetY": 0,
		"MeleeATKID": 0,
		"RangeATKID": 0,
		"SkillID": 0,
		"MoveSound": ""
	},
	{
		"ID": 60202,
		"Name": "Island Elf",
		"Model": "Spine/Soldier/Fairy_ABS/Fairy_Skin/Fairy_Skin02_Prefab.prefab",
		"CombatModel": "",
		"ModelScale": 0,
		"BFModelScale": 0,
		"UIModelScale": 0,
		"UIModelOffsetX": 0,
		"UIModelOffsetY": 0,
		"MeleeATKID": 0,
		"RangeATKID": 0,
		"SkillID": 0,
		"MoveSound": ""
	},
	{
		"ID": 60401,
		"Name": "Beach Elf",
		"Model": "Spine/Soldier/DarkElf_ABS/DarkElf_skin/DarkElf_skin01_Prefab.prefab",
		"CombatModel": "",
		"ModelScale": 0,
		"BFModelScale": 0,
		"UIModelScale": 0,
		"UIModelOffsetX": 0,
		"UIModelOffsetY": 0,
		"MeleeATKID": 0,
		"RangeATKID": 0,
		"SkillID": 0,
		"MoveSound": ""
	},
	{
		"ID": 61001,
		"Name": "Beach Elf",
		"Model": "Spine/Soldier/DarkElf_ABS/DarkElf_skin/DarkElf_skin02_Prefab.prefab",
		"CombatModel": "",
		"ModelScale": 0,
		"BFModelScale": 0,
		"UIModelScale": 0,
		"UIModelOffsetX": 0,
		"UIModelOffsetY": 0,
		"MeleeATKID": 0,
		"RangeATKID": 0,
		"SkillID": 0,
		"MoveSound": ""
	},
	{
		"ID": 23401,
		"Name": "Royal Guardian",
		"Model": "Spine/Soldier/SwordMan_ABS/Skin/SwordMan_Skin03_Prefab.prefab",
		"CombatModel": "",
		"ModelScale": 0,
		"BFModelScale": 0,
		"UIModelScale": 0,
		"UIModelOffsetX": 0,
		"UIModelOffsetY": 0,
		"MeleeATKID": 0,
		"RangeATKID": 0,
		"SkillID": 0,
		"MoveSound": ""
	},
	{
		"ID": 23701,
		"Name": "Royal Guardian",
		"Model": "Spine/Soldier/SwordMan_ABS/Skin/SwordMan_Skin04_Prefab.prefab",
		"CombatModel": "",
		"ModelScale": 0,
		"BFModelScale": 0,
		"UIModelScale": 0,
		"UIModelOffsetX": 0,
		"UIModelOffsetY": 0,
		"MeleeATKID": 0,
		"RangeATKID": 0,
		"SkillID": 0,
		"MoveSound": ""
	},
	{
		"ID": 10301,
		"Name": "Bracer",
		"Model": "Spine/Soldier/SpearGirl_ABS/Skin/SpearGirl_Skin01_Prefab.prefab",
		"CombatModel": "",
		"ModelScale": 0,
		"BFModelScale": 0,
		"UIModelScale": 0,
		"UIModelOffsetX": 0,
		"UIModelOffsetY": 0,
		"MeleeATKID": 0,
		"RangeATKID": 0,
		"SkillID": 0,
		"MoveSound": ""
	},
	{
		"ID": 12101,
		"Name": "Bracer",
		"Model": "Spine/Soldier/SpearGirl_ABS/Skin/SpearGirl_Skin02_prefab.prefab",
		"CombatModel": "",
		"ModelScale": 0,
		"BFModelScale": 0,
		"UIModelScale": 0,
		"UIModelOffsetX": 0,
		"UIModelOffsetY": 0,
		"MeleeATKID": 0,
		"RangeATKID": 0,
		"SkillID": 0,
		"MoveSound": ""
	},
	{
		"ID": 80102,
		"Name": "Holy Sister",
		"Model": "Spine/Soldier/Clergy_ABS/Skin/Clergy_Skin03_Prefab.prefab",
		"CombatModel": "",
		"ModelScale": 0,
		"BFModelScale": 0,
		"UIModelScale": 0,
		"UIModelOffsetX": 0,
		"UIModelOffsetY": 0,
		"MeleeATKID": 0,
		"RangeATKID": 0,
		"SkillID": 0,
		"MoveSound": ""
	},
	{
		"ID": 80601,
		"Name": "Holy Sister",
		"Model": "Spine/Soldier/Clergy_ABS/Skin/Clergy_Skin04_Prefab.prefab",
		"CombatModel": "",
		"ModelScale": 0,
		"BFModelScale": 0,
		"UIModelScale": 0,
		"UIModelOffsetX": 0,
		"UIModelOffsetY": 0,
		"MeleeATKID": 0,
		"RangeATKID": 0,
		"SkillID": 0,
		"MoveSound": ""
	},
	{
		"ID": 10102,
		"Name": "Top Gladiator",
		"Model": "Spine/Soldier/PikeMan_ABS/Skin/PikeMan_Skin03_Prefab.prefab",
		"CombatModel": "",
		"ModelScale": 0,
		"BFModelScale": 0,
		"UIModelScale": 0,
		"UIModelOffsetX": 0,
		"UIModelOffsetY": 0,
		"MeleeATKID": 0,
		"RangeATKID": 0,
		"SkillID": 0,
		"MoveSound": ""
	},
	{
		"ID": 10202,
		"Name": "Top Gladiator",
		"Model": "Spine/Soldier/PikeMan_ABS/Skin/PikeMan_Skin04_Prefab.prefab",
		"CombatModel": "",
		"ModelScale": 0,
		"BFModelScale": 0,
		"UIModelScale": 0,
		"UIModelOffsetX": 0,
		"UIModelOffsetY": 0,
		"MeleeATKID": 0,
		"RangeATKID": 0,
		"SkillID": 0,
		"MoveSound": ""
	},
	{
		"ID": 31101,
		"Name": "Koubu - Straight Slash",
		"Model": "Spine/Soldier/SwordMan_ABS/Skin/SwordMan_Skin_Robot_Prefab.prefab",
		"CombatModel": "",
		"ModelScale": 0,
		"BFModelScale": 0,
		"UIModelScale": 0,
		"UIModelOffsetX": 0,
		"UIModelOffsetY": 0,
		"MeleeATKID": 0,
		"RangeATKID": 0,
		"SkillID": 0,
		"MoveSound": ""
	},
	{
		"ID": 32601,
		"Name": "Koubu - Heavy Armor",
		"Model": "Spine/Soldier/PikeMan_ABS/Skin/PikeMan_Skin_Robot_Prefab.prefab",
		"CombatModel": "",
		"ModelScale": 0,
		"BFModelScale": 0,
		"UIModelScale": 0,
		"UIModelOffsetX": 0,
		"UIModelOffsetY": 0,
		"MeleeATKID": 0,
		"RangeATKID": 0,
		"SkillID": 0,
		"MoveSound": ""
	},
	{
		"ID": 80501,
		"Name": "Koubu - Regrowth",
		"Model": "Spine/Soldier/Clergy_ABS/Skin/Clergy_Skin_Robot_Prefab.prefab",
		"CombatModel": "",
		"ModelScale": 0,
		"BFModelScale": 0,
		"UIModelScale": 0,
		"UIModelOffsetX": 0,
		"UIModelOffsetY": 0,
		"MeleeATKID": 0,
		"RangeATKID": 0,
		"SkillID": 0,
		"MoveSound": ""
	},
	{
		"ID": 805011,
		"Name": "Koubu - Regrowth",
		"Model": "Spine/Soldier/Clergy_ABS/Skin/Clergy_Skin_Robot02_Prefab.prefab",
		"CombatModel": "",
		"ModelScale": 0,
		"BFModelScale": 0,
		"UIModelScale": 0,
		"UIModelOffsetX": 0,
		"UIModelOffsetY": 0,
		"MeleeATKID": 0,
		"RangeATKID": 0,
		"SkillID": 0,
		"MoveSound": ""
	},
	{
		"ID": 111101,
		"Name": "Apex Blade",
		"Model": "Spine/Soldier/Kunoichi_ABS/Kunoichi_Skin02_Prefab.prefab",
		"CombatModel": "",
		"ModelScale": 0,
		"BFModelScale": 0,
		"UIModelScale": 0,
		"UIModelOffsetX": 0,
		"UIModelOffsetY": 0,
		"MeleeATKID": 0,
		"RangeATKID": 0,
		"SkillID": 0,
		"MoveSound": ""
	},
	{
		"ID": 1111011,
		"Name": "Apex Blade",
		"Model": "Spine/Soldier/Kunoichi_ABS/Kunoichi_Skin01_Prefab.prefab",
		"CombatModel": "",
		"ModelScale": 0,
		"BFModelScale": 0,
		"UIModelScale": 0,
		"UIModelOffsetX": 0,
		"UIModelOffsetY": 0,
		"MeleeATKID": 0,
		"RangeATKID": 0,
		"SkillID": 0,
		"MoveSound": ""
	},
	{
		"ID": 1032001,
		"Name": "Test Data",
		"Model": "Spine/Soldier/Kunoichi_ABS/Kunoichi_Skin01_Prefab.prefab",
		"CombatModel": "",
		"ModelScale": 0,
		"BFModelScale": 0,
		"UIModelScale": 0,
		"UIModelOffsetX": 0,
		"UIModelOffsetY": 0,
		"MeleeATKID": 0,
		"RangeATKID": 0,
		"SkillID": 0,
		"MoveSound": ""
	},
	{
		"ID": 80502,
		"Name": "Moon Goddess",
		"Model": "Spine/Soldier/ClergyKnight_ABS/Skin/ClergyKnight_Skin01_Prefab.prefab",
		"CombatModel": "",
		"ModelScale": 0,
		"BFModelScale": 0,
		"UIModelScale": 0,
		"UIModelOffsetX": 0,
		"UIModelOffsetY": 0,
		"MeleeATKID": 0,
		"RangeATKID": 0,
		"SkillID": 0,
		"MoveSound": ""
	},
	{
		"ID": 805021,
		"Name": "Moon Goddess",
		"Model": "Spine/Soldier/ClergyKnight_ABS/Skin/ClergyKnight_Skin01_Prefab.prefab",
		"CombatModel": "",
		"ModelScale": 42,
		"BFModelScale": 42,
		"UIModelScale": 42,
		"UIModelOffsetX": 0,
		"UIModelOffsetY": 0,
		"MeleeATKID": 0,
		"RangeATKID": 0,
		"SkillID": 0,
		"MoveSound": ""
	},
	{
		"ID": 23101,
		"Name": "The Apex Arena",
		"Model": "Spine/Soldier/Gladiator_ABS/Skin01/Gladiator_Skin01_Prefab.prefab",
		"CombatModel": "",
		"ModelScale": 0,
		"BFModelScale": 0,
		"UIModelScale": 0,
		"UIModelOffsetX": 0,
		"UIModelOffsetY": 0,
		"MeleeATKID": 0,
		"RangeATKID": 0,
		"SkillID": 0,
		"MoveSound": ""
	},
	{
		"ID": 231011,
		"Name": "The Apex Arena",
		"Model": "Spine/Soldier/Gladiator_ABS/Skin01/Gladiator_Skin02_Prefab.prefab",
		"CombatModel": "",
		"ModelScale": 0,
		"BFModelScale": 0,
		"UIModelScale": 0,
		"UIModelOffsetX": 0,
		"UIModelOffsetY": 0,
		"MeleeATKID": 0,
		"RangeATKID": 0,
		"SkillID": 0,
		"MoveSound": ""
	},
	{
		"ID": 41301,
		"Name": "Pumpkin Jack",
		"Model": "Spine/Soldier/Gargoyle_ABS/Skin02/Gargoyle_Skin02_Prefab.prefab",
		"CombatModel": "Spine/Soldier/Gargoyle_ABS/Skin02/Gargoyle_Skin02_air_Prefab.prefab",
		"ModelScale": 0,
		"BFModelScale": 0,
		"UIModelScale": 50,
		"UIModelOffsetX": 0,
		"UIModelOffsetY": 0,
		"MeleeATKID": 0,
		"RangeATKID": 0,
		"SkillID": 0,
		"MoveSound": ""
	},
	{
		"ID": 81201,
		"Name": "Unyielding Faith",
		"Model": "Spine/Soldier/Zealot_ABS/Zealot_Skin02/Zealot_Skin02_Prefab.prefab",
		"CombatModel": "",
		"ModelScale": 0,
		"BFModelScale": 0,
		"UIModelScale": 0,
		"UIModelOffsetX": 0,
		"UIModelOffsetY": 0,
		"MeleeATKID": 0,
		"RangeATKID": 0,
		"SkillID": 0,
		"MoveSound": ""
	},
	{
		"ID": 812011,
		"Name": "Unyielding Faith",
		"Model": "Spine/Soldier/Zealot_ABS/Zealot_Skin01/Zealot_Skin01_Prefab.prefab",
		"CombatModel": "",
		"ModelScale": 0,
		"BFModelScale": 0,
		"UIModelScale": 0,
		"UIModelOffsetX": 0,
		"UIModelOffsetY": 0,
		"MeleeATKID": 0,
		"RangeATKID": 0,
		"SkillID": 0,
		"MoveSound": ""
	},
	{
		"ID": 60203,
		"Name": "Little Cutie",
		"Model": "Spine/Soldier/Qudao_ABS/Qudao_Maid/Qudao_Maid01_Prefab.prefab",
		"CombatModel": "",
		"ModelScale": 0,
		"BFModelScale": 0,
		"UIModelScale": 0,
		"UIModelOffsetX": 0,
		"UIModelOffsetY": 0,
		"MeleeATKID": 0,
		"RangeATKID": 0,
		"SkillID": 0,
		"MoveSound": ""
	},
	{
		"ID": 23702,
		"Name": "Jam",
		"Model": "Spine/Soldier/Qudao_ABS/Qudao_Maid/Qudao_Maid02_Prefab.prefab",
		"CombatModel": "",
		"ModelScale": 0,
		"BFModelScale": 0,
		"UIModelScale": 0,
		"UIModelOffsetX": 0,
		"UIModelOffsetY": 0,
		"MeleeATKID": 0,
		"RangeATKID": 0,
		"SkillID": 0,
		"MoveSound": ""
	},
	{
		"ID": 20008,
		"Name": "Fishing Master",
		"Model": "Spine/Soldier/Qudao_ABS/Qudao_Douyu/Qudao_Douyu_Prefab.prefab",
		"CombatModel": "",
		"ModelScale": 0,
		"BFModelScale": 0,
		"UIModelScale": 0,
		"UIModelOffsetX": 0,
		"UIModelOffsetY": 0,
		"MeleeATKID": 0,
		"RangeATKID": 0,
		"SkillID": 0,
		"MoveSound": ""
	},
	{
		"ID": 101,
		"Name": "Alhazard",
		"Model": "Spine/Soldier/Shadow_ABS/Shadow_prefab.prefab",
		"CombatModel": "",
		"ModelScale": 0,
		"BFModelScale": 0,
		"UIModelScale": 0,
		"UIModelOffsetX": 0,
		"UIModelOffsetY": 0,
		"MeleeATKID": 0,
		"RangeATKID": 0,
		"SkillID": 0,
		"MoveSound": ""
	},
	{
		"ID": 1201,
		"Name": "Dragon Slayer",
		"Model": "Spine/General/Elwin_ABS/Elwin_Skin/Elwin_Skin_Prefab.prefab",
		"CombatModel": "",
		"ModelScale": 0,
		"BFModelScale": 0,
		"UIModelScale": 0,
		"UIModelOffsetX": 0,
		"UIModelOffsetY": 0,
		"MeleeATKID": 0,
		"RangeATKID": 0,
		"SkillID": 0,
		"MoveSound": ""
	},
	{
		"ID": 12011,
		"Name": "Dragon Slayer",
		"Model": "Spine/General/Elwin_ABS/Elwin_Skin01_1/Elwin_Skin01_1_Prefab.prefab",
		"CombatModel": "",
		"ModelScale": 0,
		"BFModelScale": 0,
		"UIModelScale": 0,
		"UIModelOffsetX": 0,
		"UIModelOffsetY": 0,
		"MeleeATKID": 0,
		"RangeATKID": 0,
		"SkillID": 0,
		"MoveSound": ""
	},
	{
		"ID": 1501,
		"Name": "Cherry Miko",
		"Model": "Spine/General/Riana_ABS/Riana_Skin/Riana_Skin_Prefab.prefab",
		"CombatModel": "",
		"ModelScale": 0,
		"BFModelScale": 0,
		"UIModelScale": 0,
		"UIModelOffsetX": 0,
		"UIModelOffsetY": 0,
		"MeleeATKID": 0,
		"RangeATKID": 0,
		"SkillID": 0,
		"MoveSound": ""
	},
	{
		"ID": 601,
		"Name": "Gunslinger",
		"Model": "Spine/General/Leon_ABS/Leon_Skin/Leon_Skin_Prefab.prefab",
		"CombatModel": "",
		"ModelScale": 0,
		"BFModelScale": 0,
		"UIModelScale": 0,
		"UIModelOffsetX": 0,
		"UIModelOffsetY": 0,
		"MeleeATKID": 0,
		"RangeATKID": 0,
		"SkillID": 0,
		"MoveSound": ""
	},
	{
		"ID": 701,
		"Name": "Dark Warlord",
		"Model": "Spine/General/Barnhart_ABS/Barnhart_Skin/Barnhart_Skin_Prefab.prefab",
		"CombatModel": "",
		"ModelScale": 0,
		"BFModelScale": 0,
		"UIModelScale": 0,
		"UIModelOffsetX": 0,
		"UIModelOffsetY": 0,
		"MeleeATKID": 0,
		"RangeATKID": 0,
		"SkillID": 0,
		"MoveSound": ""
	},
	{
		"ID": 801,
		"Name": "Sonic Fairy",
		"Model": "Spine/General/Lana_ABS/Lana_Skin/Lana_Skin_Prefab.prefab",
		"CombatModel": "",
		"ModelScale": 0,
		"BFModelScale": 0,
		"UIModelScale": 0,
		"UIModelOffsetX": 0,
		"UIModelOffsetY": 0,
		"MeleeATKID": 0,
		"RangeATKID": 0,
		"SkillID": 0,
		"MoveSound": ""
	},
	{
		"ID": 1401,
		"Name": "Runaway Angel",
		"Model": "Spine/General/Sherry_ABS/Sherry_Skin/Sherry_Skin01_Prefab.prefab",
		"CombatModel": "Spine/General/Sherry_ABS/Sherry_Skin/Sherry_Skin01_air_Prefab.prefab",
		"ModelScale": 0,
		"BFModelScale": 0,
		"UIModelScale": 0,
		"UIModelOffsetX": 0,
		"UIModelOffsetY": 0,
		"MeleeATKID": 0,
		"RangeATKID": 0,
		"SkillID": 0,
		"MoveSound": ""
	},
	{
		"ID": 14011,
		"Name": "Runaway Angel",
		"Model": "Spine/General/Sherry_ABS/Sherry_Skin01_1/Sherry_Skin01_1_Prefab.prefab",
		"CombatModel": "",
		"ModelScale": 0,
		"BFModelScale": 0,
		"UIModelScale": 0,
		"UIModelOffsetX": 0,
		"UIModelOffsetY": 0,
		"MeleeATKID": 0,
		"RangeATKID": 0,
		"SkillID": 0,
		"MoveSound": ""
	},
	{
		"ID": 1402,
		"Name": "Princess of Kalxath",
		"Model": "Spine/General/Sherry_ABS/Sherry_Skin/Sherry_Skin02_Prefab.prefab",
		"CombatModel": "Spine/General/Sherry_ABS/Sherry_Skin/Sherry_Skin02_air_Prefab.prefab",
		"ModelScale": 0,
		"BFModelScale": 0,
		"UIModelScale": 0,
		"UIModelOffsetX": 0,
		"UIModelOffsetY": 0,
		"MeleeATKID": 0,
		"RangeATKID": 0,
		"SkillID": 0,
		"MoveSound": ""
	},
	{
		"ID": 602,
		"Name": "Tidal Blade",
		"Model": "Spine/General/Leon_ABS/Leon_Skin02/Leon_Skin02_Prefab.prefab",
		"CombatModel": "",
		"ModelScale": 0,
		"BFModelScale": 0,
		"UIModelScale": 0,
		"UIModelOffsetX": 0,
		"UIModelOffsetY": 0,
		"MeleeATKID": 0,
		"RangeATKID": 0,
		"SkillID": 0,
		"MoveSound": ""
	},
	{
		"ID": 1202,
		"Name": "Shogun's Spear",
		"Model": "Spine/General/Elwin_ABS/Elwin_Skin02/Elwin_Skin02_Prefab.prefab",
		"CombatModel": "",
		"ModelScale": 0,
		"BFModelScale": 0,
		"UIModelScale": 0,
		"UIModelOffsetX": 0,
		"UIModelOffsetY": 0,
		"MeleeATKID": 0,
		"RangeATKID": 0,
		"SkillID": 0,
		"MoveSound": ""
	},
	{
		"ID": 12021,
		"Name": "Shogun's Spear",
		"Model": "Spine/General/Elwin_ABS/Elwin_Skin02_1/Elwin_Skin02_1_Prefab.prefab",
		"CombatModel": "",
		"ModelScale": 0,
		"BFModelScale": 0,
		"UIModelScale": 0,
		"UIModelOffsetX": 0,
		"UIModelOffsetY": 0,
		"MeleeATKID": 0,
		"RangeATKID": 0,
		"SkillID": 0,
		"MoveSound": ""
	},
	{
		"ID": 1001,
		"Name": "Burning Passion",
		"Model": "Spine/General/Ledin_ABS/Ledin_Skin01/Ledin_Skin01_Prefab.prefab",
		"CombatModel": "",
		"ModelScale": 0,
		"BFModelScale": 0,
		"UIModelScale": 0,
		"UIModelOffsetX": 0,
		"UIModelOffsetY": 0,
		"MeleeATKID": 0,
		"RangeATKID": 0,
		"SkillID": 0,
		"MoveSound": ""
	},
	{
		"ID": 2501,
		"Name": "X-Rigüler",
		"Model": "Spine/General/Alutemurat_ABS/Alutermurat_Skin01/Alutemurat_Skin01_Prefab.prefab",
		"CombatModel": "Spine/General/Alutemurat_ABS/Alutermurat_Skin01/Alutemurat_Skin01_air_Prefab.prefab",
		"ModelScale": 0,
		"BFModelScale": 0,
		"UIModelScale": 0,
		"UIModelOffsetX": 0,
		"UIModelOffsetY": 0,
		"MeleeATKID": 0,
		"RangeATKID": 0,
		"SkillID": 0,
		"MoveSound": ""
	},
	{
		"ID": 25011,
		"Name": "X-Rigüler",
		"Model": "Spine/General/Alutemurat_ABS/Alutemurat_Skin01_1/Alutemurat_Skin01_1_Prefab.prefab",
		"CombatModel": "",
		"ModelScale": 0,
		"BFModelScale": 0,
		"UIModelScale": 0,
		"UIModelOffsetX": 0,
		"UIModelOffsetY": 0,
		"MeleeATKID": 0,
		"RangeATKID": 0,
		"SkillID": 0,
		"MoveSound": ""
	},
	{
		"ID": 2101,
		"Name": "Mobile Suit Guardian",
		"Model": "Spine/General/Bargas_ABS/Bargas_Skin/Bargas_Skin_Prefab.prefab",
		"CombatModel": "",
		"ModelScale": 0,
		"BFModelScale": 0,
		"UIModelScale": 0,
		"UIModelOffsetX": 0,
		"UIModelOffsetY": 0,
		"MeleeATKID": 0,
		"RangeATKID": 0,
		"SkillID": 0,
		"MoveSound": ""
	},
	{
		"ID": 21011,
		"Name": "Mobile Suit Guardian",
		"Model": "Spine/General/Bargas_ABS/Bargas_Skin01_1/Bargas_Skin01_1_Prefab.prefab",
		"CombatModel": "",
		"ModelScale": 0,
		"BFModelScale": 0,
		"UIModelScale": 0,
		"UIModelOffsetX": 0,
		"UIModelOffsetY": 0,
		"MeleeATKID": 0,
		"RangeATKID": 0,
		"SkillID": 0,
		"MoveSound": ""
	},
	{
		"ID": 1801,
		"Name": "Pirate Queen",
		"Model": "Spine/General/Imelda_ABS/Imelda_Skin/Imelda_Skin01_Prefab.prefab",
		"CombatModel": "",
		"ModelScale": 0,
		"BFModelScale": 0,
		"UIModelScale": 0,
		"UIModelOffsetX": 0,
		"UIModelOffsetY": 0,
		"MeleeATKID": 0,
		"RangeATKID": 0,
		"SkillID": 0,
		"MoveSound": ""
	},
	{
		"ID": 501,
		"Name": "Riot Police",
		"Model": "Spine/General/Chris_ABS/Chris_Skin/Chris_Skin01_Prefab.prefab",
		"CombatModel": "",
		"ModelScale": 0,
		"BFModelScale": 0,
		"UIModelScale": 0,
		"UIModelOffsetX": 0,
		"UIModelOffsetY": 0,
		"MeleeATKID": 0,
		"RangeATKID": 0,
		"SkillID": 0,
		"MoveSound": ""
	},
	{
		"ID": 2601,
		"Name": "Goddess of War",
		"Model": "Spine/General/Luna_ABS/Luna_Skin01/Luna_Skin1_Prefab.prefab",
		"CombatModel": "Spine/General/Luna_ABS/Luna_Skin01/Luna_Skin1_air_Prefab.prefab",
		"ModelScale": 0,
		"BFModelScale": 0,
		"UIModelScale": 0,
		"UIModelOffsetX": 0,
		"UIModelOffsetY": 0,
		"MeleeATKID": 0,
		"RangeATKID": 0,
		"SkillID": 0,
		"MoveSound": ""
	},
	{
		"ID": 26011,
		"Name": "Goddess of War",
		"Model": "Spine/General/Luna_ABS/Luna_Skin01_1/Luna_Skin01_1_Prefab.prefab",
		"CombatModel": "",
		"ModelScale": 0,
		"BFModelScale": 0,
		"UIModelScale": 0,
		"UIModelOffsetX": 0,
		"UIModelOffsetY": 0,
		"MeleeATKID": 0,
		"RangeATKID": 0,
		"SkillID": 0,
		"MoveSound": ""
	},
	{
		"ID": 5201,
		"Name": "Drakesoul Blade",
		"Model": "Spine/General/Angelina_ABS/Angelina_Skin/Angelina_Skin_Prefab.prefab",
		"CombatModel": "",
		"ModelScale": 0,
		"BFModelScale": 0,
		"UIModelScale": 0,
		"UIModelOffsetX": 0,
		"UIModelOffsetY": 0,
		"MeleeATKID": 0,
		"RangeATKID": 0,
		"SkillID": 0,
		"MoveSound": ""
	},
	{
		"ID": 52011,
		"Name": "Drakesoul Blade",
		"Model": "Spine/General/Angelina_ABS/Angelina_Skin01_1/Angelina_Skin01_1_Prefab.prefab",
		"CombatModel": "Spine/General/Angelina_ABS/Angelina_Skin01_1/Angelina_Skin01_1_air_Prefab.prefab",
		"ModelScale": 0,
		"BFModelScale": 0,
		"UIModelScale": 0,
		"UIModelOffsetX": 0,
		"UIModelOffsetY": 0,
		"MeleeATKID": 0,
		"RangeATKID": 0,
		"SkillID": 0,
		"MoveSound": ""
	},
	{
		"ID": 5101,
		"Name": "Shining Shoot",
		"Model": "Spine/General/Schelfaniel_ABS/Schelfaniel_Skin/Schelfaniel_Skin_Prefab.prefab",
		"CombatModel": "",
		"ModelScale": 0,
		"BFModelScale": 0,
		"UIModelScale": 0,
		"UIModelOffsetX": 0,
		"UIModelOffsetY": 0,
		"MeleeATKID": 0,
		"RangeATKID": 0,
		"SkillID": 0,
		"MoveSound": ""
	},
	{
		"ID": 1301,
		"Name": "Magical Mystery",
		"Model": "Spine/General/Hein_ABS/Hein_skin/Hein_Skin_Prefab.prefab",
		"CombatModel": "",
		"ModelScale": 0,
		"BFModelScale": 0,
		"UIModelScale": 0,
		"UIModelOffsetX": 0,
		"UIModelOffsetY": 0,
		"MeleeATKID": 0,
		"RangeATKID": 0,
		"SkillID": 0,
		"MoveSound": ""
	},
	{
		"ID": 4901,
		"Name": "Shadows of Summer",
		"Model": "Spine/General/Fana_ABS/Fana_Skin/Fana_Skin_Prefab.prefab",
		"CombatModel": "",
		"ModelScale": 0,
		"BFModelScale": 0,
		"UIModelScale": 0,
		"UIModelOffsetX": 0,
		"UIModelOffsetY": 0,
		"MeleeATKID": 0,
		"RangeATKID": 0,
		"SkillID": 0,
		"MoveSound": ""
	},
	{
		"ID": 49011,
		"Name": "Shadows of Summer",
		"Model": "Spine/General/Fana_ABS/Fana_Skin01_1/Fana_Skin01_1_Prefab.prefab",
		"CombatModel": "Spine/General/Fana_ABS/Fana_Skin01_1/Fana_Skin01_1_air_Prefab.prefab",
		"ModelScale": 0,
		"BFModelScale": 0,
		"UIModelScale": 0,
		"UIModelOffsetX": 0,
		"UIModelOffsetY": 0,
		"MeleeATKID": 0,
		"RangeATKID": 0,
		"SkillID": 0,
		"MoveSound": ""
	},
	{
		"ID": 3301,
		"Name": "Sunshine Dream",
		"Model": "Spine/General/Freya_ABS/Freya_Skin02/Freya_Skin02_Prefab.prefab",
		"CombatModel": "",
		"ModelScale": 0,
		"BFModelScale": 0,
		"UIModelScale": 0,
		"UIModelOffsetX": 0,
		"UIModelOffsetY": 0,
		"MeleeATKID": 0,
		"RangeATKID": 0,
		"SkillID": 0,
		"MoveSound": ""
	},
	{
		"ID": 802,
		"Name": "Coastal Beauty",
		"Model": "Spine/General/Lana_ABS/Lana_Skin03/Lana_Skin03_Prefab.prefab",
		"CombatModel": "",
		"ModelScale": 0,
		"BFModelScale": 0,
		"UIModelScale": 0,
		"UIModelOffsetX": 0,
		"UIModelOffsetY": 0,
		"MeleeATKID": 0,
		"RangeATKID": 0,
		"SkillID": 0,
		"MoveSound": ""
	},
	{
		"ID": 2602,
		"Name": "Water Bomb Attack",
		"Model": "Spine/General/Luna_ABS/Luna_Skin02/Luna_skin02_Prefab.prefab",
		"CombatModel": "",
		"ModelScale": 0,
		"BFModelScale": 0,
		"UIModelScale": 0,
		"UIModelOffsetX": 0,
		"UIModelOffsetY": 0,
		"MeleeATKID": 0,
		"RangeATKID": 0,
		"SkillID": 0,
		"MoveSound": ""
	},
	{
		"ID": 26021,
		"Name": "Water Bomb Attack",
		"Model": "Spine/General/Luna_ABS/Luna_Skin02_1/Luna_Skin02_1_Prefab.prefab",
		"CombatModel": "Spine/General/Luna_ABS/Luna_Skin02_1/Luna_Skin02_1_air_Prefab.prefab",
		"ModelScale": 0,
		"BFModelScale": 0,
		"UIModelScale": 0,
		"UIModelOffsetX": 0,
		"UIModelOffsetY": 0,
		"MeleeATKID": 0,
		"RangeATKID": 0,
		"SkillID": 0,
		"MoveSound": ""
	},
	{
		"ID": 1101,
		"Name": "Romantic Summer",
		"Model": "Spine/General/Norm_ABS/Norm_Skin2/Norm_Skin02_Prefab.prefab",
		"CombatModel": "Spine/General/Norm_ABS/Norm_Skin2/Norm_Skin02_air_Prefab.prefab",
		"ModelScale": 0,
		"BFModelScale": 0,
		"UIModelScale": 0,
		"UIModelOffsetX": 0,
		"UIModelOffsetY": 0,
		"MeleeATKID": 0,
		"RangeATKID": 0,
		"SkillID": 0,
		"MoveSound": ""
	},
	{
		"ID": 11011,
		"Name": "Romantic Summer",
		"Model": "Spine/General/Norm_ABS/Norm_Skin02_1/Norm_Skin02_1_Prefab.prefab",
		"CombatModel": "",
		"ModelScale": 0,
		"BFModelScale": 0,
		"UIModelScale": 0,
		"UIModelOffsetX": 0,
		"UIModelOffsetY": 0,
		"MeleeATKID": 0,
		"RangeATKID": 0,
		"SkillID": 0,
		"MoveSound": ""
	},
	{
		"ID": 2901,
		"Name": "Beach Babe",
		"Model": "Spine/General/Tialice_ABS/Tialice_Skin/Tialice_skin01_Prefab.prefab",
		"CombatModel": "",
		"ModelScale": 0,
		"BFModelScale": 0,
		"UIModelScale": 0,
		"UIModelOffsetX": 0,
		"UIModelOffsetY": 0,
		"MeleeATKID": 0,
		"RangeATKID": 0,
		"SkillID": 0,
		"MoveSound": ""
	},
	{
		"ID": 803,
		"Name": "Cherry Moon",
		"Model": "Spine/General/Lana_ABS/Lana_Skin02/Lana_Skin02_Prefab.prefab",
		"CombatModel": "",
		"ModelScale": 0,
		"BFModelScale": 0,
		"UIModelScale": 0,
		"UIModelOffsetX": 0,
		"UIModelOffsetY": 0,
		"MeleeATKID": 0,
		"RangeATKID": 0,
		"SkillID": 0,
		"MoveSound": ""
	},
	{
		"ID": 901,
		"Name": "Soul Reaper",
		"Model": "Spine/General/Boser_ABS/Boser_Skin01/Boser_Skin01_Prefab.prefab",
		"CombatModel": "",
		"ModelScale": 0,
		"BFModelScale": 0,
		"UIModelScale": 0,
		"UIModelOffsetX": 0,
		"UIModelOffsetY": 0,
		"MeleeATKID": 0,
		"RangeATKID": 0,
		"SkillID": 0,
		"MoveSound": ""
	},
	{
		"ID": 9011,
		"Name": "Soul Reaper",
		"Model": "Spine/General/Boser_ABS/Boser_Skin01/Boser_Skin01_1_Prefab.prefab",
		"CombatModel": "",
		"ModelScale": 0,
		"BFModelScale": 0,
		"UIModelScale": 0,
		"UIModelOffsetX": 0,
		"UIModelOffsetY": 0,
		"MeleeATKID": 0,
		"RangeATKID": 0,
		"SkillID": 0,
		"MoveSound": ""
	},
	{
		"ID": 3601,
		"Name": "Deadly Gentleman",
		"Model": "Spine/General/SilverWolf_ABS/SilverWolf_Skin/SilverWolf_Skin_Prefab.prefab",
		"CombatModel": "",
		"ModelScale": 0,
		"BFModelScale": 0,
		"UIModelScale": 0,
		"UIModelOffsetX": 0,
		"UIModelOffsetY": 0,
		"MeleeATKID": 0,
		"RangeATKID": 0,
		"SkillID": 0,
		"MoveSound": ""
	},
	{
		"ID": 2801,
		"Name": "Demon Elf",
		"Model": "Spine/General/Zalrahda_ABS/Deamon/Zalrahda_Crime3_prefab.prefab",
		"CombatModel": "",
		"ModelScale": 0,
		"BFModelScale": 0,
		"UIModelScale": 0,
		"UIModelOffsetX": 0,
		"UIModelOffsetY": 0,
		"MeleeATKID": 0,
		"RangeATKID": 0,
		"SkillID": 0,
		"MoveSound": ""
	},
	{
		"ID": 1102,
		"Name": "Galactic Hero",
		"Model": "Spine/General/Norm_ABS/Norm_skin/Norm_Skin_Prefab.prefab",
		"CombatModel": "",
		"ModelScale": 0,
		"BFModelScale": 0,
		"UIModelScale": 0,
		"UIModelOffsetX": 0,
		"UIModelOffsetY": 0,
		"MeleeATKID": 0,
		"RangeATKID": 0,
		"SkillID": 0,
		"MoveSound": ""
	},
	{
		"ID": 11021,
		"Name": "Galactic Hero",
		"Model": "Spine/General/Norm_ABS/Norm_Skin01_1/Norm_Skin01_1_Prefab.prefab",
		"CombatModel": "Spine/General/Norm_ABS/Norm_Skin01_1/Norm_Skin01_1_air_Prefab.prefab",
		"ModelScale": 0,
		"BFModelScale": 0,
		"UIModelScale": 0,
		"UIModelOffsetX": 0,
		"UIModelOffsetY": 0,
		"MeleeATKID": 0,
		"RangeATKID": 0,
		"SkillID": 0,
		"MoveSound": ""
	},
	{
		"ID": 2701,
		"Name": "Storm God",
		"Model": "Spine/General/Dehault_ABS/Dehault_Skin/Dehault_Skin_Prefab.prefab",
		"CombatModel": "",
		"ModelScale": 0,
		"BFModelScale": 0,
		"UIModelScale": 0,
		"UIModelOffsetX": 0,
		"UIModelOffsetY": 0,
		"MeleeATKID": 0,
		"RangeATKID": 0,
		"SkillID": 0,
		"MoveSound": ""
	},
	{
		"ID": 27011,
		"Name": "Storm God",
		"Model": "Spine/General/Dehault_ABS/Dehault_Skin01_1/Dehault_Skin01_1_Prefab.prefab",
		"CombatModel": "",
		"ModelScale": 0,
		"BFModelScale": 0,
		"UIModelScale": 0,
		"UIModelOffsetX": 0,
		"UIModelOffsetY": 0,
		"MeleeATKID": 0,
		"RangeATKID": 0,
		"SkillID": 0,
		"MoveSound": ""
	},
	{
		"ID": 3302,
		"Name": "Spartacus",
		"Model": "Spine/General/Freya_ABS/Freya_Skin/Freya_Skin_Prefab.prefab",
		"CombatModel": "",
		"ModelScale": 0,
		"BFModelScale": 0,
		"UIModelScale": 0,
		"UIModelOffsetX": 0,
		"UIModelOffsetY": 0,
		"MeleeATKID": 0,
		"RangeATKID": 0,
		"SkillID": 0,
		"MoveSound": ""
	},
	{
		"ID": 33021,
		"Name": "Spartacus",
		"Model": "Spine/General/Freya_ABS/Freya_Skin01_1/Freya_Skin01_1_Prefab.prefab",
		"CombatModel": "",
		"ModelScale": 0,
		"BFModelScale": 0,
		"UIModelScale": 0,
		"UIModelOffsetX": 0,
		"UIModelOffsetY": 0,
		"MeleeATKID": 0,
		"RangeATKID": 0,
		"SkillID": 0,
		"MoveSound": ""
	},
	{
		"ID": 1701,
		"Name": "Beat Breaker",
		"Model": "Spine/General/Eggbert_ABS/Eggbert_Skin01/Eggbert_Skin01_Prefab.prefab",
		"CombatModel": "",
		"ModelScale": 0,
		"BFModelScale": 0,
		"UIModelScale": 0,
		"UIModelOffsetX": 0,
		"UIModelOffsetY": 0,
		"MeleeATKID": 0,
		"RangeATKID": 0,
		"SkillID": 0,
		"MoveSound": ""
	},
	{
		"ID": 102,
		"Name": "Wine Connoisseur",
		"Model": "Spine/General/Mathew_ABS/Mathew_Skin01/Mathew_Skin01_Prefab.prefab",
		"CombatModel": "",
		"ModelScale": 0,
		"BFModelScale": 0,
		"UIModelScale": 0,
		"UIModelOffsetX": 0,
		"UIModelOffsetY": 0,
		"MeleeATKID": 0,
		"RangeATKID": 0,
		"SkillID": 0,
		"MoveSound": ""
	},
	{
		"ID": 1021,
		"Name": "Wine Connoisseur",
		"Model": "Spine/General/Mathew_ABS/Mathew_Skin01_1/Mathew_Skin01_1_Prefab.prefab",
		"CombatModel": "",
		"ModelScale": 0,
		"BFModelScale": 0,
		"UIModelScale": 0,
		"UIModelOffsetX": 0,
		"UIModelOffsetY": 0,
		"MeleeATKID": 0,
		"RangeATKID": 0,
		"SkillID": 0,
		"MoveSound": ""
	},
	{
		"ID": 1022,
		"Name": "Wine Connoisseur",
		"Model": "Spine/General/Mathew_ABS/Mathew_Skin01_2/Mathew_Skin01_2_Prefab.prefab",
		"CombatModel": "",
		"ModelScale": 0,
		"BFModelScale": 0,
		"UIModelScale": 0,
		"UIModelOffsetX": 0,
		"UIModelOffsetY": 0,
		"MeleeATKID": 0,
		"RangeATKID": 0,
		"SkillID": 0,
		"MoveSound": ""
	},
	{
		"ID": 1023,
		"Name": "Wine Connoisseur",
		"Model": "Spine/General/Mathew_ABS/Mathew_Skin01_3/Mathew_Skin01_3_Prefab.prefab",
		"CombatModel": "Spine/General/Mathew_ABS/Mathew_Skin01_3/Mathew_Skin01_3_air_Prefab.prefab",
		"ModelScale": 0,
		"BFModelScale": 0,
		"UIModelScale": 0,
		"UIModelOffsetX": 0,
		"UIModelOffsetY": 0,
		"MeleeATKID": 0,
		"RangeATKID": 0,
		"SkillID": 0,
		"MoveSound": ""
	},
	{
		"ID": 1024,
		"Name": "Wine Connoisseur",
		"Model": "Spine/General/Mathew_ABS/Mathew_Skin01_4/Mathew_Skin01_4_Prefab.prefab",
		"CombatModel": "",
		"ModelScale": 0,
		"BFModelScale": 0,
		"UIModelScale": 0,
		"UIModelOffsetX": 0,
		"UIModelOffsetY": 0,
		"MeleeATKID": 0,
		"RangeATKID": 0,
		"SkillID": 0,
		"MoveSound": ""
	},
	{
		"ID": 301,
		"Name": "Chef de Cuisine",
		"Model": "Spine/General/Grenier_ABS/Grenier_Skin01/Grenier_Skin01_Prefab.prefab",
		"CombatModel": "",
		"ModelScale": 0,
		"BFModelScale": 0,
		"UIModelScale": 0,
		"UIModelOffsetX": 0,
		"UIModelOffsetY": 0,
		"MeleeATKID": 0,
		"RangeATKID": 0,
		"SkillID": 0,
		"MoveSound": ""
	},
	{
		"ID": 3011,
		"Name": "Chef de Cuisine",
		"Model": "Spine/General/Grenier_ABS/Grenier_Skin01_1/Grenier_Skin01_1_Prefab.prefab",
		"CombatModel": "",
		"ModelScale": 0,
		"BFModelScale": 0,
		"UIModelScale": 0,
		"UIModelOffsetX": 0,
		"UIModelOffsetY": 0,
		"MeleeATKID": 0,
		"RangeATKID": 0,
		"SkillID": 0,
		"MoveSound": ""
	},
	{
		"ID": 401,
		"Name": "Magic Maid",
		"Model": "Spine/General/Aimeeda_ABS/Aimeeda_Skin01/Aimeeda_Skin01_Prefab.prefab",
		"CombatModel": "",
		"ModelScale": 0,
		"BFModelScale": 0,
		"UIModelScale": 0,
		"UIModelOffsetX": 0,
		"UIModelOffsetY": 0,
		"MeleeATKID": 0,
		"RangeATKID": 0,
		"SkillID": 0,
		"MoveSound": ""
	},
	{
		"ID": 2902,
		"Name": "Godsend",
		"Model": "Spine/General/Tialice_ABS/Tialice_Skin02/Tialice_Skin02_Prefab.prefab",
		"CombatModel": "",
		"ModelScale": 0,
		"BFModelScale": 0,
		"UIModelScale": 0,
		"UIModelOffsetX": 0,
		"UIModelOffsetY": 0,
		"MeleeATKID": 0,
		"RangeATKID": 0,
		"SkillID": 0,
		"MoveSound": ""
	},
	{
		"ID": 5301,
		"Name": "Dark Hunter",
		"Model": "Spine/General/Ranford_ABS/Ranford_Skin/Ranford_Skin01_Prefab.prefab",
		"CombatModel": "",
		"ModelScale": 0,
		"BFModelScale": 0,
		"UIModelScale": 0,
		"UIModelOffsetX": 0,
		"UIModelOffsetY": 0,
		"MeleeATKID": 0,
		"RangeATKID": 0,
		"SkillID": 0,
		"MoveSound": ""
	},
	{
		"ID": 53011,
		"Name": "Dark Hunter",
		"Model": "Spine/General/Ranford_ABS/Ranford_Skin01_1/Ranford_Skin01_1_Prefab.prefab",
		"CombatModel": "",
		"ModelScale": 0,
		"BFModelScale": 0,
		"UIModelScale": 0,
		"UIModelOffsetX": 0,
		"UIModelOffsetY": 0,
		"MeleeATKID": 0,
		"RangeATKID": 0,
		"SkillID": 0,
		"MoveSound": ""
	},
	{
		"ID": 5401,
		"Name": "Blood Succubus",
		"Model": "Spine/General/Listell_ABS/Listell_Skin01/Listell_Skin01_Prefab.prefab",
		"CombatModel": "",
		"ModelScale": 0,
		"BFModelScale": 0,
		"UIModelScale": 0,
		"UIModelOffsetX": 0,
		"UIModelOffsetY": 0,
		"MeleeATKID": 0,
		"RangeATKID": 0,
		"SkillID": 0,
		"MoveSound": ""
	},
	{
		"ID": 54011,
		"Name": "Blood Succubus",
		"Model": "Spine/General/Listell_ABS/Listell_Skin01_1/Listell_Skin01_1_Prefab.prefab",
		"CombatModel": "",
		"ModelScale": 0,
		"BFModelScale": 0,
		"UIModelScale": 0,
		"UIModelOffsetX": 0,
		"UIModelOffsetY": 0,
		"MeleeATKID": 0,
		"RangeATKID": 0,
		"SkillID": 0,
		"MoveSound": ""
	},
	{
		"ID": 1502,
		"Name": "Eternal Love",
		"Model": "Spine/General/Riana_ABS/Riana_Skin02/Riana_Skin02_Prefab.prefab",
		"CombatModel": "",
		"ModelScale": 0,
		"BFModelScale": 0,
		"UIModelScale": 0,
		"UIModelOffsetX": 0,
		"UIModelOffsetY": 0,
		"MeleeATKID": 0,
		"RangeATKID": 0,
		"SkillID": 0,
		"MoveSound": ""
	},
	{
		"ID": 5501,
		"Name": "Fallen Angel",
		"Model": "Spine/General/Landius_ABS/Landius_Skin01_1/Landius_Skin01_1_Prefab.prefab",
		"CombatModel": "",
		"ModelScale": 0,
		"BFModelScale": 0,
		"UIModelScale": 0,
		"UIModelOffsetX": 0,
		"UIModelOffsetY": 0,
		"MeleeATKID": 0,
		"RangeATKID": 0,
		"SkillID": 0,
		"MoveSound": ""
	},
	{
		"ID": 55011,
		"Name": "Fallen Angel",
		"Model": "Spine/General/Landius_ABS/Landius_Skin01/Landius_Skin01_Prefab.prefab",
		"CombatModel": "",
		"ModelScale": 0,
		"BFModelScale": 0,
		"UIModelScale": 0,
		"UIModelOffsetX": 0,
		"UIModelOffsetY": 0,
		"MeleeATKID": 0,
		"RangeATKID": 0,
		"SkillID": 0,
		"MoveSound": ""
	},
	{
		"ID": 5601,
		"Name": "Lesser Thunder Imp",
		"Model": "Spine/General/Rachel_ABS/Rachel_Skin01/Rachel_Skin01_Prefab.prefab",
		"CombatModel": "",
		"ModelScale": 0,
		"BFModelScale": 0,
		"UIModelScale": 0,
		"UIModelOffsetX": 0,
		"UIModelOffsetY": 0,
		"MeleeATKID": 0,
		"RangeATKID": 0,
		"SkillID": 0,
		"MoveSound": ""
	},
	{
		"ID": 56011,
		"Name": "Lesser Thunder Imp",
		"Model": "Spine/General/Rachel_ABS/Rachel_Skin01_1/Rachel_Skin01_1_Prefab.prefab",
		"CombatModel": "",
		"ModelScale": 0,
		"BFModelScale": 0,
		"UIModelScale": 0,
		"UIModelOffsetX": 0,
		"UIModelOffsetY": 0,
		"MeleeATKID": 0,
		"RangeATKID": 0,
		"SkillID": 0,
		"MoveSound": ""
	},
	{
		"ID": 1403,
		"Name": "雪莉圣诞",
		"Model": "Spine/General/Sherry_ABS/Sherry_Skin04/Sherry_Skin04_Prefab.prefab",
		"CombatModel": "Spine/General/Sherry_ABS/Sherry_Skin04/Sherry_Skin04_air_Prefab.prefab",
		"ModelScale": 0,
		"BFModelScale": 0,
		"UIModelScale": 0,
		"UIModelOffsetX": 0,
		"UIModelOffsetY": 0,
		"MeleeATKID": 0,
		"RangeATKID": 0,
		"SkillID": 0,
		"MoveSound": ""
	},
	{
		"ID": 14031,
		"Name": "雪莉圣诞",
		"Model": "Spine/General/Sherry_ABS/Sherry_Skin04_1/Sherry_Skin04_1_Prefab.prefab",
		"CombatModel": "",
		"ModelScale": 0,
		"BFModelScale": 0,
		"UIModelScale": 0,
		"UIModelOffsetX": 0,
		"UIModelOffsetY": 0,
		"MeleeATKID": 0,
		"RangeATKID": 0,
		"SkillID": 0,
		"MoveSound": ""
	},
	{
		"ID": 5102,
		"Name": "雪露法妮尔圣诞",
		"Model": "Spine/General/Schelfaniel_ABS/Schelfaniel_Skin02_1/Schelfaniel_Skin02_1_Prefab.prefab",
		"CombatModel": "",
		"ModelScale": 0,
		"BFModelScale": 0,
		"UIModelScale": 0,
		"UIModelOffsetX": 0,
		"UIModelOffsetY": 0,
		"MeleeATKID": 0,
		"RangeATKID": 0,
		"SkillID": 0,
		"MoveSound": ""
	},
	{
		"ID": 51021,
		"Name": "雪露法妮尔圣诞",
		"Model": "Spine/General/Schelfaniel_ABS/Schelfaniel_Skin02/Schelfaniel_Skin02_Prefab.prefab",
		"CombatModel": "",
		"ModelScale": 0,
		"BFModelScale": 0,
		"UIModelScale": 0,
		"UIModelOffsetX": 0,
		"UIModelOffsetY": 0,
		"MeleeATKID": 0,
		"RangeATKID": 0,
		"SkillID": 0,
		"MoveSound": ""
	},
	{
		"ID": 5202,
		"Name": "安洁丽娜圣诞",
		"Model": "Spine/General/Angelina_ABS/Angelina_Skin02/Angelina_Skin02_Prefab.prefab",
		"CombatModel": "",
		"ModelScale": 0,
		"BFModelScale": 0,
		"UIModelScale": 0,
		"UIModelOffsetX": 0,
		"UIModelOffsetY": 0,
		"MeleeATKID": 0,
		"RangeATKID": 0,
		"SkillID": 0,
		"MoveSound": ""
	},
	{
		"ID": 52021,
		"Name": "安洁丽娜圣诞",
		"Model": "Spine/General/Angelina_ABS/Angelina_Skin02_1/Angelina_Skin02_1_Prefab.prefab",
		"CombatModel": "Spine/General/Angelina_ABS/Angelina_Skin02_1/Angelina_Skin02_1_air_Prefab.prefab",
		"ModelScale": 0,
		"BFModelScale": 0,
		"UIModelScale": 0,
		"UIModelOffsetX": 0,
		"UIModelOffsetY": 0,
		"MeleeATKID": 0,
		"RangeATKID": 0,
		"SkillID": 0,
		"MoveSound": ""
	},
	{
		"ID": 1203,
		"Name": "Ruby Knight",
		"Model": "Spine/General/Elwin_ABS/Elwin_Skin03/Elwin_Skin03_Prefab.prefab",
		"CombatModel": "",
		"ModelScale": 0,
		"BFModelScale": 0,
		"UIModelScale": 0,
		"UIModelOffsetX": 0,
		"UIModelOffsetY": 0,
		"MeleeATKID": 0,
		"RangeATKID": 0,
		"SkillID": 0,
		"MoveSound": ""
	},
	{
		"ID": 12031,
		"Name": "Ruby Knight",
		"Model": "Spine/General/Elwin_ABS/Elwin_Skin03_1/Elwin_Skin03_1_Prefab.prefab",
		"CombatModel": "",
		"ModelScale": 0,
		"BFModelScale": 0,
		"UIModelScale": 0,
		"UIModelOffsetX": 0,
		"UIModelOffsetY": 0,
		"MeleeATKID": 0,
		"RangeATKID": 0,
		"SkillID": 0,
		"MoveSound": ""
	},
	{
		"ID": 603,
		"Name": "Azure Knight",
		"Model": "Spine/General/Leon_ABS/Leon_Skin03/Leon_Skin03_Prefab.prefab",
		"CombatModel": "",
		"ModelScale": 0,
		"BFModelScale": 0,
		"UIModelScale": 0,
		"UIModelOffsetX": 0,
		"UIModelOffsetY": 0,
		"MeleeATKID": 0,
		"RangeATKID": 0,
		"SkillID": 0,
		"MoveSound": ""
	},
	{
		"ID": 1302,
		"Name": "Hyperspace Princess",
		"Model": "Spine/General/Hein_ABS/Hein_Skin02/Hein_Skin02_Prefab.prefab",
		"CombatModel": "",
		"ModelScale": 0,
		"BFModelScale": 0,
		"UIModelScale": 0,
		"UIModelOffsetX": 0,
		"UIModelOffsetY": 0,
		"MeleeATKID": 0,
		"RangeATKID": 0,
		"SkillID": 0,
		"MoveSound": ""
	},
	{
		"ID": 7001,
		"Name": "Princess Cecilia",
		"Model": "Spine/General/Joshua_ABS/Joshua_Skin01/Joshua_Skin01_Prefab.prefab",
		"CombatModel": "",
		"ModelScale": 0,
		"BFModelScale": 0,
		"UIModelScale": 0,
		"UIModelOffsetX": 0,
		"UIModelOffsetY": 0,
		"MeleeATKID": 0,
		"RangeATKID": 0,
		"SkillID": 0,
		"MoveSound": ""
	},
	{
		"ID": 402,
		"Name": "Ancient Beauty",
		"Model": "Spine/General/Aimeeda_ABS/Aimeeda_Skin02/Aimeeda_Skin02_Prefab.prefab",
		"CombatModel": "",
		"ModelScale": 0,
		"BFModelScale": 0,
		"UIModelScale": 0,
		"UIModelOffsetX": 0,
		"UIModelOffsetY": 0,
		"MeleeATKID": 0,
		"RangeATKID": 0,
		"SkillID": 0,
		"MoveSound": ""
	},
	{
		"ID": 2802,
		"Name": "Frost Shadow",
		"Model": "Spine/General/Zalrahda_ABS/Zalrahda_Skin02/Zalrahda_Skin02_Prefab.prefab",
		"CombatModel": "",
		"ModelScale": 0,
		"BFModelScale": 0,
		"UIModelScale": 0,
		"UIModelOffsetX": 0,
		"UIModelOffsetY": 0,
		"MeleeATKID": 0,
		"RangeATKID": 0,
		"SkillID": 0,
		"MoveSound": ""
	},
	{
		"ID": 502,
		"Name": "Silver Cat",
		"Model": "Spine/General/Chris_ABS/Chris_Skin02/Chris_Skin02_Prefab.prefab",
		"CombatModel": "",
		"ModelScale": 0,
		"BFModelScale": 0,
		"UIModelScale": 0,
		"UIModelOffsetX": 0,
		"UIModelOffsetY": 0,
		"MeleeATKID": 0,
		"RangeATKID": 0,
		"SkillID": 0,
		"MoveSound": ""
	},
	{
		"ID": 7201,
		"Name": "Dark Knight",
		"Model": "Spine/General/Leonhardt_ABS/Leonhardt_Skin01/Leonhardt_Skin01_Prefab.prefab",
		"CombatModel": "",
		"ModelScale": 0,
		"BFModelScale": 0,
		"UIModelScale": 0,
		"UIModelOffsetX": 0,
		"UIModelOffsetY": 0,
		"MeleeATKID": 0,
		"RangeATKID": 0,
		"SkillID": 0,
		"MoveSound": ""
	},
	{
		"ID": 1002,
		"Name": "战神雷丁",
		"Model": "Spine/General/Ledin_ABS/Ledin_Skin02/Ledin_Skin02_Prefab.prefab",
		"CombatModel": "",
		"ModelScale": 0,
		"BFModelScale": 0,
		"UIModelScale": 0,
		"UIModelOffsetX": 0,
		"UIModelOffsetY": 0,
		"MeleeATKID": 0,
		"RangeATKID": 0,
		"SkillID": 0,
		"MoveSound": ""
	},
	{
		"ID": 10021,
		"Name": "战神雷丁",
		"Model": "Spine/General/Ledin_ABS/Ledin_Skin02_1/Ledin_Skin02_1_Prefab.prefab",
		"CombatModel": "",
		"ModelScale": 0,
		"BFModelScale": 0,
		"UIModelScale": 0,
		"UIModelOffsetX": 0,
		"UIModelOffsetY": 0,
		"MeleeATKID": 0,
		"RangeATKID": 0,
		"SkillID": 0,
		"MoveSound": ""
	},
	{
		"ID": 2502,
		"Name": "海王元帅",
		"Model": "Spine/General/Alutemurat_ABS/Alutemurat_Skin02/Alutemurat_Skin02_Prefab.prefab",
		"CombatModel": "Spine/General/Alutemurat_ABS/Alutemurat_Skin02/Alutemurat_Skin02_air_Prefab.prefab",
		"ModelScale": 0,
		"BFModelScale": 0,
		"UIModelScale": 0,
		"UIModelOffsetX": 0,
		"UIModelOffsetY": 0,
		"MeleeATKID": 0,
		"RangeATKID": 0,
		"SkillID": 0,
		"MoveSound": ""
	},
	{
		"ID": 25021,
		"Name": "海王元帅",
		"Model": "Spine/General/Alutemurat_ABS/Alutemurat_Skin02_1/Alutemurat_Skin02_1_Prefab.prefab",
		"CombatModel": "",
		"ModelScale": 0,
		"BFModelScale": 0,
		"UIModelScale": 0,
		"UIModelOffsetX": 0,
		"UIModelOffsetY": 0,
		"MeleeATKID": 0,
		"RangeATKID": 0,
		"SkillID": 0,
		"MoveSound": ""
	},
	{
		"ID": 6001,
		"Name": "偶像西格玛",
		"Model": "Spine/General/Sigma_ABS/Sigma_Skin01_1/Sigma_Skin01_1_Prefab.prefab",
		"CombatModel": "",
		"ModelScale": 0,
		"BFModelScale": 0,
		"UIModelScale": 0,
		"UIModelOffsetX": 0,
		"UIModelOffsetY": 0,
		"MeleeATKID": 0,
		"RangeATKID": 0,
		"SkillID": 0,
		"MoveSound": ""
	},
	{
		"ID": 60011,
		"Name": "偶像西格玛",
		"Model": "Spine/General/Sigma_ABS/Sigma_Skin01/Sigma_Skin01_Prefab.prefab",
		"CombatModel": "",
		"ModelScale": 0,
		"BFModelScale": 0,
		"UIModelScale": 0,
		"UIModelOffsetX": 0,
		"UIModelOffsetY": 0,
		"MeleeATKID": 0,
		"RangeATKID": 0,
		"SkillID": 0,
		"MoveSound": ""
	},
	{
		"ID": 6101,
		"Name": "偶像拉姆达",
		"Model": "Spine/General/Lambda_ABS/Lambda_Skin01/Lambda_Skin01_Prefab.prefab",
		"CombatModel": "",
		"ModelScale": 0,
		"BFModelScale": 0,
		"UIModelScale": 0,
		"UIModelOffsetX": 0,
		"UIModelOffsetY": 0,
		"MeleeATKID": 0,
		"RangeATKID": 0,
		"SkillID": 0,
		"MoveSound": ""
	},
	{
		"ID": 902,
		"Name": "冥王波赞鲁",
		"Model": "Spine/General/Boser_ABS/Boser_Skin02/Boser_Skin02_Prefab.prefab",
		"CombatModel": "",
		"ModelScale": 0,
		"BFModelScale": 0,
		"UIModelScale": 0,
		"UIModelOffsetX": 0,
		"UIModelOffsetY": 0,
		"MeleeATKID": 0,
		"RangeATKID": 0,
		"SkillID": 0,
		"MoveSound": ""
	},
	{
		"ID": 3201,
		"Name": "法老艾玛",
		"Model": "Spine/General/EmmaLink_ABS/EmmaLink_Skin01_1/EmmaLink_Skin01_1_Prefab.prefab",
		"CombatModel": "",
		"ModelScale": 0,
		"BFModelScale": 0,
		"UIModelScale": 0,
		"UIModelOffsetX": 0,
		"UIModelOffsetY": 0,
		"MeleeATKID": 0,
		"RangeATKID": 0,
		"SkillID": 0,
		"MoveSound": ""
	},
	{
		"ID": 32011,
		"Name": "法老艾玛",
		"Model": "Spine/General/EmmaLink_ABS/EmmaLink_Skin01/EmmaLink_Skin01_Prefab.prefab",
		"CombatModel": "",
		"ModelScale": 0,
		"BFModelScale": 0,
		"UIModelScale": 0,
		"UIModelOffsetX": 0,
		"UIModelOffsetY": 0,
		"MeleeATKID": 0,
		"RangeATKID": 0,
		"SkillID": 0,
		"MoveSound": ""
	},
	{
		"ID": 5701,
		"Name": "Star Commander",
		"Model": "Spine/General/Wiler_ABS/Wiler_Skin01_1/Wiler_Skin01_1_Prefab.prefab",
		"CombatModel": "",
		"ModelScale": 0,
		"BFModelScale": 0,
		"UIModelScale": 0,
		"UIModelOffsetX": 0,
		"UIModelOffsetY": 0,
		"MeleeATKID": 0,
		"RangeATKID": 0,
		"SkillID": 0,
		"MoveSound": ""
	},
	{
		"ID": 57011,
		"Name": "Star Commander",
		"Model": "Spine/General/Wiler_ABS/Wiler_Skin01/Wiler_Skin01_Prefab.prefab",
		"CombatModel": "",
		"ModelScale": 0,
		"BFModelScale": 0,
		"UIModelScale": 0,
		"UIModelOffsetX": 0,
		"UIModelOffsetY": 0,
		"MeleeATKID": 0,
		"RangeATKID": 0,
		"SkillID": 0,
		"MoveSound": ""
	},
	{
		"ID": 1204,
		"Name": "Solitary King",
		"Model": "Spine/General/Elwin_ABS/Elwin_Skin04/Elwin_Skin04_Prefab.prefab",
		"CombatModel": "",
		"ModelScale": 0,
		"BFModelScale": 0,
		"UIModelScale": 0,
		"UIModelOffsetX": 0,
		"UIModelOffsetY": 0,
		"MeleeATKID": 0,
		"RangeATKID": 0,
		"SkillID": 0,
		"MoveSound": ""
	},
	{
		"ID": 12041,
		"Name": "Solitary King",
		"Model": "Spine/General/Elwin_ABS/Elwin_Skin04_1/Elwin_Skin04_1_Prefab.prefab",
		"CombatModel": "",
		"ModelScale": 0,
		"BFModelScale": 0,
		"UIModelScale": 0,
		"UIModelOffsetX": 0,
		"UIModelOffsetY": 0,
		"MeleeATKID": 0,
		"RangeATKID": 0,
		"SkillID": 0,
		"MoveSound": ""
	},
	{
		"ID": 5402,
		"Name": "Nether Nurse",
		"Model": "Spine/General/Listell_ABS/Listell_Skin02/Listell_Skin02_Prefab.prefab",
		"CombatModel": "",
		"ModelScale": 0,
		"BFModelScale": 0,
		"UIModelScale": 0,
		"UIModelOffsetX": 0,
		"UIModelOffsetY": 0,
		"MeleeATKID": 0,
		"RangeATKID": 0,
		"SkillID": 0,
		"MoveSound": ""
	},
	{
		"ID": 54021,
		"Name": "Nether Nurse",
		"Model": "Spine/General/Listell_ABS/Listell_Skin02_1/Listell_Skin02_1_Prefab.prefab",
		"CombatModel": "",
		"ModelScale": 0,
		"BFModelScale": 0,
		"UIModelScale": 0,
		"UIModelOffsetX": 0,
		"UIModelOffsetY": 0,
		"MeleeATKID": 0,
		"RangeATKID": 0,
		"SkillID": 0,
		"MoveSound": ""
	},
	{
		"ID": 2001,
		"Name": "Skysoar",
		"Model": "Spine/General/Sonia_ABS/Sonia_Skin01/Sonia_Skin01_Prefab.prefab",
		"CombatModel": "",
		"ModelScale": 0,
		"BFModelScale": 0,
		"UIModelScale": 0,
		"UIModelOffsetX": 0,
		"UIModelOffsetY": 0,
		"MeleeATKID": 0,
		"RangeATKID": 0,
		"SkillID": 0,
		"MoveSound": ""
	},
	{
		"ID": 5502,
		"Name": "Kajishin",
		"Model": "Spine/General/Landius_ABS/Landius_Skin02_1/Landius_Skin02_1_Prefab.prefab",
		"CombatModel": "",
		"ModelScale": 0,
		"BFModelScale": 0,
		"UIModelScale": 0,
		"UIModelOffsetX": 0,
		"UIModelOffsetY": 0,
		"MeleeATKID": 0,
		"RangeATKID": 0,
		"SkillID": 0,
		"MoveSound": ""
	},
	{
		"ID": 55021,
		"Name": "Kajishin",
		"Model": "Spine/General/Landius_ABS/Landius_Skin02/Landius_Skin02_Prefab.prefab",
		"CombatModel": "",
		"ModelScale": 0,
		"BFModelScale": 0,
		"UIModelScale": 0,
		"UIModelOffsetX": 0,
		"UIModelOffsetY": 0,
		"MeleeATKID": 0,
		"RangeATKID": 0,
		"SkillID": 0,
		"MoveSound": ""
	},
	{
		"ID": 7901,
		"Name": "Sakura Force",
		"Model": "Spine/General/Sakura_ABS/Sakura_Skin01/Sakura_Skin01_Prefab.prefab",
		"CombatModel": "",
		"ModelScale": 0,
		"BFModelScale": 0,
		"UIModelScale": 0,
		"UIModelOffsetX": 0,
		"UIModelOffsetY": 0,
		"MeleeATKID": 0,
		"RangeATKID": 0,
		"SkillID": 0,
		"MoveSound": ""
	},
	{
		"ID": 8001,
		"Name": "Sakura Blizzard",
		"Model": "Spine/General/Sumire_ABS/Sumire_Skin01/Sumire_Skin01_Prefab.prefab",
		"CombatModel": "",
		"ModelScale": 0,
		"BFModelScale": 0,
		"UIModelScale": 0,
		"UIModelOffsetX": 0,
		"UIModelOffsetY": 0,
		"MeleeATKID": 0,
		"RangeATKID": 0,
		"SkillID": 0,
		"MoveSound": ""
	},
	{
		"ID": 8101,
		"Name": "Sakura Sweetheart",
		"Model": "Spine/General/Alice_ABS/Alice_Skin01/Alice_Skin01_Prefab.prefab",
		"CombatModel": "",
		"ModelScale": 0,
		"BFModelScale": 0,
		"UIModelScale": 0,
		"UIModelOffsetX": 0,
		"UIModelOffsetY": 0,
		"MeleeATKID": 0,
		"RangeATKID": 0,
		"SkillID": 0,
		"MoveSound": ""
	},
	{
		"ID": 6601,
		"Name": "魔女公主",
		"Model": "Spine/General/Clarett_ABS/Clarett_Skin01/Clarett_Skin01_Prefab.prefab",
		"CombatModel": "",
		"ModelScale": 0,
		"BFModelScale": 0,
		"UIModelScale": 0,
		"UIModelOffsetX": 0,
		"UIModelOffsetY": 0,
		"MeleeATKID": 0,
		"RangeATKID": 0,
		"SkillID": 0,
		"MoveSound": ""
	},
	{
		"ID": 66011,
		"Name": "魔女公主",
		"Model": "Spine/General/Clarett_ABS/Clarett_Skin01_1/Clarett_Skin01_1_Prefab.prefab",
		"CombatModel": "Spine/General/Clarett_ABS/Clarett_Skin01_1/Clarett_Skin01_1_air_Prefab.prefab",
		"ModelScale": 0,
		"BFModelScale": 0,
		"UIModelScale": 0,
		"UIModelOffsetX": 0,
		"UIModelOffsetY": 0,
		"MeleeATKID": 0,
		"RangeATKID": 0,
		"SkillID": 0,
		"MoveSound": ""
	},
	{
		"ID": 8801,
		"Name": "丛林女王",
		"Model": "Spine/General/Alustriel_ABS/Alustriel_Skin01/Alustriel_Skin01_Prefab.prefab",
		"CombatModel": "",
		"ModelScale": 0,
		"BFModelScale": 0,
		"UIModelScale": 0,
		"UIModelOffsetX": 0,
		"UIModelOffsetY": 0,
		"MeleeATKID": 0,
		"RangeATKID": 0,
		"SkillID": 0,
		"MoveSound": ""
	},
	{
		"ID": 88011,
		"Name": "丛林女王",
		"Model": "Spine/General/Alustriel_ABS/Alustriel_Skin01_1/Alustriel_Skin01_1_Prefab.prefab",
		"CombatModel": "",
		"ModelScale": 0,
		"BFModelScale": 0,
		"UIModelScale": 0,
		"UIModelOffsetX": 0,
		"UIModelOffsetY": 0,
		"MeleeATKID": 0,
		"RangeATKID": 0,
		"SkillID": 0,
		"MoveSound": ""
	},
	{
		"ID": 2603,
		"Name": "露娜音乐会",
		"Model": "Spine/General/Luna_ABS/Luna_Skin03/Luna_Skin03_Prefab.prefab",
		"CombatModel": "",
		"ModelScale": 0,
		"BFModelScale": 0,
		"UIModelScale": 0,
		"UIModelOffsetX": 0,
		"UIModelOffsetY": 0,
		"MeleeATKID": 0,
		"RangeATKID": 0,
		"SkillID": 0,
		"MoveSound": ""
	},
	{
		"ID": 26031,
		"Name": "露娜音乐会",
		"Model": "Spine/General/Luna_ABS/Luna_Skin03_1/Luna_Skin03_1_Prefab.prefab",
		"CombatModel": "",
		"ModelScale": 0,
		"BFModelScale": 0,
		"UIModelScale": 0,
		"UIModelOffsetX": 0,
		"UIModelOffsetY": 0,
		"MeleeATKID": 0,
		"RangeATKID": 0,
		"SkillID": 0,
		"MoveSound": ""
	},
	{
		"ID": 2803,
		"Name": "泽瑞达音乐会",
		"Model": "Spine/General/Zalrahda_ABS/Zalrahda_Skin03_1/Zalrahda_Skin03_1_Prefab.prefab",
		"CombatModel": "",
		"ModelScale": 0,
		"BFModelScale": 0,
		"UIModelScale": 0,
		"UIModelOffsetX": 0,
		"UIModelOffsetY": 0,
		"MeleeATKID": 0,
		"RangeATKID": 0,
		"SkillID": 0,
		"MoveSound": ""
	},
	{
		"ID": 28031,
		"Name": "泽瑞达音乐会",
		"Model": "Spine/General/Zalrahda_ABS/Zalrahda_Skin03/Zalrahda_Skin03_Prefab.prefab",
		"CombatModel": "",
		"ModelScale": 0,
		"BFModelScale": 0,
		"UIModelScale": 0,
		"UIModelOffsetX": 0,
		"UIModelOffsetY": 0,
		"MeleeATKID": 0,
		"RangeATKID": 0,
		"SkillID": 0,
		"MoveSound": ""
	},
	{
		"ID": 103,
		"Name": "马修音乐会",
		"Model": "Spine/General/Mathew_ABS/Mathew_Skin02/Mathew_Skin02_Prefab.prefab",
		"CombatModel": "",
		"ModelScale": 0,
		"BFModelScale": 0,
		"UIModelScale": 0,
		"UIModelOffsetX": 0,
		"UIModelOffsetY": 0,
		"MeleeATKID": 0,
		"RangeATKID": 0,
		"SkillID": 0,
		"MoveSound": ""
	},
	{
		"ID": 1031,
		"Name": "马修音乐会",
		"Model": "Spine/General/Mathew_ABS/Mathew_Skin02_1/Mathew_Skin02_1_Prefab.prefab",
		"CombatModel": "",
		"ModelScale": 0,
		"BFModelScale": 0,
		"UIModelScale": 0,
		"UIModelOffsetX": 0,
		"UIModelOffsetY": 0,
		"MeleeATKID": 0,
		"RangeATKID": 0,
		"SkillID": 0,
		"MoveSound": ""
	},
	{
		"ID": 1032,
		"Name": "马修音乐会",
		"Model": "Spine/General/Mathew_ABS/Mathew_Skin02_2/Mathew_Skin02_2_Prefab.prefab",
		"CombatModel": "",
		"ModelScale": 0,
		"BFModelScale": 0,
		"UIModelScale": 0,
		"UIModelOffsetX": 0,
		"UIModelOffsetY": 0,
		"MeleeATKID": 0,
		"RangeATKID": 0,
		"SkillID": 0,
		"MoveSound": ""
	},
	{
		"ID": 1033,
		"Name": "马修音乐会",
		"Model": "Spine/General/Mathew_ABS/Mathew_Skin02_3/Mathew_Skin02_3_Prefab.prefab",
		"CombatModel": "Spine/General/Mathew_ABS/Mathew_Skin02_3/Mathew_Skin02_3_air_Prefab.prefab",
		"ModelScale": 0,
		"BFModelScale": 0,
		"UIModelScale": 0,
		"UIModelOffsetX": 0,
		"UIModelOffsetY": 0,
		"MeleeATKID": 0,
		"RangeATKID": 0,
		"SkillID": 0,
		"MoveSound": ""
	},
	{
		"ID": 1034,
		"Name": "马修音乐会",
		"Model": "Spine/General/Mathew_ABS/Mathew_Skin02_4/Mathew_Skin02_4_Prefab.prefab",
		"CombatModel": "",
		"ModelScale": 0,
		"BFModelScale": 0,
		"UIModelScale": 0,
		"UIModelOffsetX": 0,
		"UIModelOffsetY": 0,
		"MeleeATKID": 0,
		"RangeATKID": 0,
		"SkillID": 0,
		"MoveSound": ""
	},
	{
		"ID": 403,
		"Name": "艾梅达音乐会",
		"Model": "Spine/General/Aimeeda_ABS/Aimeeda_Skin03/Aimeeda_Skin03_Prefab.prefab",
		"CombatModel": "",
		"ModelScale": 0,
		"BFModelScale": 0,
		"UIModelScale": 0,
		"UIModelOffsetX": 0,
		"UIModelOffsetY": 0,
		"MeleeATKID": 0,
		"RangeATKID": 0,
		"SkillID": 0,
		"MoveSound": ""
	},
	{
		"ID": 1503,
		"Name": "莉亚娜音乐会",
		"Model": "Spine/General/Riana_ABS/Riana_Skin03/Riana_Skin03_Prefab.prefab",
		"CombatModel": "",
		"ModelScale": 0,
		"BFModelScale": 0,
		"UIModelScale": 0,
		"UIModelOffsetX": 0,
		"UIModelOffsetY": 0,
		"MeleeATKID": 0,
		"RangeATKID": 0,
		"SkillID": 0,
		"MoveSound": ""
	},
	{
		"ID": 6701,
		"Name": "Raise the Roof",
		"Model": "Spine/General/Omega_ABS/Omega_Skin01/Omega_Skin01_Prefab.prefab",
		"CombatModel": "",
		"ModelScale": 0,
		"BFModelScale": 0,
		"UIModelScale": 0,
		"UIModelOffsetX": 0,
		"UIModelOffsetY": 0,
		"MeleeATKID": 0,
		"RangeATKID": 0,
		"SkillID": 0,
		"MoveSound": ""
	},
	{
		"ID": 67011,
		"Name": "Raise the Roof",
		"Model": "Spine/General/Omega_ABS/Omega_Skin01_1/Omega_Skin01_1_Prefab.prefab",
		"CombatModel": "",
		"ModelScale": 0,
		"BFModelScale": 0,
		"UIModelScale": 0,
		"UIModelOffsetX": 0,
		"UIModelOffsetY": 0,
		"MeleeATKID": 0,
		"RangeATKID": 0,
		"SkillID": 0,
		"MoveSound": ""
	},
	{
		"ID": 8901,
		"Name": "Blade of Desolation",
		"Model": "Spine/General/Yulia_ABS/Yulia_Skin01/Yulia_Skin01_Prefab.prefab",
		"CombatModel": "",
		"ModelScale": 0,
		"BFModelScale": 0,
		"UIModelScale": 0,
		"UIModelOffsetX": 0,
		"UIModelOffsetY": 0,
		"MeleeATKID": 0,
		"RangeATKID": 0,
		"SkillID": 0,
		"MoveSound": ""
	},
	{
		"ID": 3701,
		"Name": "Taiko Shrine",
		"Model": "Spine/General/Zigodlla_ABS/Zigodlla_Skin01/Zigodlla_Skin01_Prefab.prefab",
		"CombatModel": "",
		"ModelScale": 0,
		"BFModelScale": 0,
		"UIModelScale": 0,
		"UIModelOffsetX": 0,
		"UIModelOffsetY": 0,
		"MeleeATKID": 0,
		"RangeATKID": 0,
		"SkillID": 0,
		"MoveSound": ""
	},
	{
		"ID": 3303,
		"Name": "Flowing Yukata",
		"Model": "Spine/General/Freya_ABS/Freya_Skin03/Freya_Skin03_Prefab.prefab",
		"CombatModel": "",
		"ModelScale": 0,
		"BFModelScale": 0,
		"UIModelScale": 0,
		"UIModelOffsetX": 0,
		"UIModelOffsetY": 0,
		"MeleeATKID": 0,
		"RangeATKID": 0,
		"SkillID": 0,
		"MoveSound": ""
	},
	{
		"ID": 33031,
		"Name": "Flowing Yukata",
		"Model": "Spine/General/Freya_ABS/Freya_Skin03_1/Freya_Skin03_1_Prefab.prefab",
		"CombatModel": "",
		"ModelScale": 0,
		"BFModelScale": 0,
		"UIModelScale": 0,
		"UIModelOffsetX": 0,
		"UIModelOffsetY": 0,
		"MeleeATKID": 0,
		"RangeATKID": 0,
		"SkillID": 0,
		"MoveSound": ""
	},
	{
		"ID": 2102,
		"Name": "Sexy Roast",
		"Model": "Spine/General/Bargas_ABS/Bargas_Skin02/Bargas_Skin02_Prefab.prefab",
		"CombatModel": "",
		"ModelScale": 0,
		"BFModelScale": 0,
		"UIModelScale": 0,
		"UIModelOffsetX": 0,
		"UIModelOffsetY": 0,
		"MeleeATKID": 0,
		"RangeATKID": 0,
		"SkillID": 0,
		"MoveSound": ""
	},
	{
		"ID": 21021,
		"Name": "Sexy Roast",
		"Model": "Spine/General/Bargas_ABS/Bargas_Skin02_1/Bargas_Skin02_1_Prefab.prefab",
		"CombatModel": "",
		"ModelScale": 0,
		"BFModelScale": 0,
		"UIModelScale": 0,
		"UIModelOffsetX": 0,
		"UIModelOffsetY": 0,
		"MeleeATKID": 0,
		"RangeATKID": 0,
		"SkillID": 0,
		"MoveSound": ""
	},
	{
		"ID": 2903,
		"Name": "Drummer Girl",
		"Model": "Spine/General/Tialice_ABS/Tialice_Skin03/Tialice_Skin03_Prefab.prefab",
		"CombatModel": "",
		"ModelScale": 0,
		"BFModelScale": 0,
		"UIModelScale": 0,
		"UIModelOffsetX": 0,
		"UIModelOffsetY": 0,
		"MeleeATKID": 0,
		"RangeATKID": 0,
		"SkillID": 0,
		"MoveSound": ""
	},
	{
		"ID": 2702,
		"Name": "Bamboo Sword Heart",
		"Model": "Spine/General/Dehault_ABS/Dehault_Skin02/Dehault_Skin02_Prefab.prefab",
		"CombatModel": "",
		"ModelScale": 0,
		"BFModelScale": 0,
		"UIModelScale": 0,
		"UIModelOffsetX": 0,
		"UIModelOffsetY": 0,
		"MeleeATKID": 0,
		"RangeATKID": 0,
		"SkillID": 0,
		"MoveSound": ""
	},
	{
		"ID": 27021,
		"Name": "Bamboo Sword Heart",
		"Model": "Spine/General/Dehault_ABS/Dehault_Skin02_1/Dehault_Skin02_1_Prefab.prefab",
		"CombatModel": "",
		"ModelScale": 0,
		"BFModelScale": 0,
		"UIModelScale": 0,
		"UIModelOffsetX": 0,
		"UIModelOffsetY": 0,
		"MeleeATKID": 0,
		"RangeATKID": 0,
		"SkillID": 0,
		"MoveSound": ""
	},
	{
		"ID": 899,
		"Name": "Endless Love",
		"Model": "Spine/General/Lana_ABS/Lana_Skin04/Lana_Skin04_Prefab.prefab",
		"CombatModel": "",
		"ModelScale": 0,
		"BFModelScale": 0,
		"UIModelScale": 0,
		"UIModelOffsetX": 0,
		"UIModelOffsetY": 0,
		"MeleeATKID": 0,
		"RangeATKID": 0,
		"SkillID": 0,
		"MoveSound": ""
	},
	{
		"ID": 1499,
		"Name": "Runaway Bride",
		"Model": "Spine/General/Sherry_ABS/Sherry_Skin05/Sherry_Skin05_Perfab.prefab",
		"CombatModel": "Spine/General/Sherry_ABS/Sherry_Skin05/Sherry_Skin05_air_Prefab.prefab",
		"ModelScale": 0,
		"BFModelScale": 0,
		"UIModelScale": 0,
		"UIModelOffsetX": 0,
		"UIModelOffsetY": 0,
		"MeleeATKID": 0,
		"RangeATKID": 0,
		"SkillID": 0,
		"MoveSound": ""
	},
	{
		"ID": 14991,
		"Name": "Runaway Bride",
		"Model": "Spine/General/Sherry_ABS/Sherry_Skin05_1/Sherry_Skin05_1_Prefab.prefab",
		"CombatModel": "",
		"ModelScale": 0,
		"BFModelScale": 0,
		"UIModelScale": 0,
		"UIModelOffsetX": 0,
		"UIModelOffsetY": 0,
		"MeleeATKID": 0,
		"RangeATKID": 0,
		"SkillID": 0,
		"MoveSound": ""
	},
	{
		"ID": 3901,
		"Name": "Demon Shadow Holy Lance",
		"Model": "Spine/General/Flakia_ABS/Flakia_Skin01/Flakia_Skin01_Prefab.prefab",
		"CombatModel": "",
		"ModelScale": 0,
		"BFModelScale": 0,
		"UIModelScale": 0,
		"UIModelOffsetX": 0,
		"UIModelOffsetY": 0,
		"MeleeATKID": 0,
		"RangeATKID": 0,
		"SkillID": 0,
		"MoveSound": ""
	},
	{
		"ID": 39011,
		"Name": "Demon Shadow Holy Lance",
		"Model": "Spine/General/Flakia_ABS/Flakia_Skin01_1/Flakia_Skin01_1_Prefab.prefab",
		"CombatModel": "",
		"ModelScale": 0,
		"BFModelScale": 0,
		"UIModelScale": 0,
		"UIModelOffsetX": 0,
		"UIModelOffsetY": 0,
		"MeleeATKID": 0,
		"RangeATKID": 0,
		"SkillID": 0,
		"MoveSound": ""
	},
	{
		"ID": 8201,
		"Name": "Demon Yusuke",
		"Model": "Spine/General/Yuusuke_ABS/Yuusuke_Skin01/Yuusuke_Skin01_Prefab.prefab",
		"CombatModel": "",
		"ModelScale": 0,
		"BFModelScale": 0,
		"UIModelScale": 0,
		"UIModelOffsetX": 0,
		"UIModelOffsetY": 0,
		"MeleeATKID": 0,
		"RangeATKID": 0,
		"SkillID": 0,
		"MoveSound": ""
	},
	{
		"ID": 8401,
		"Name": "Yoko Kurama",
		"Model": "Spine/General/Kurama_ABS/Kurama_Skin01/Kurama_Skin01_Prefab.prefab",
		"CombatModel": "",
		"ModelScale": 0,
		"BFModelScale": 0,
		"UIModelScale": 0,
		"UIModelOffsetX": 0,
		"UIModelOffsetY": 0,
		"MeleeATKID": 0,
		"RangeATKID": 0,
		"SkillID": 0,
		"MoveSound": ""
	},
	{
		"ID": 8301,
		"Name": "Dragon of the Darkness Flame",
		"Model": "Spine/General/Hiei_ABS/Hiei_Skin01/Hiei_Skin01_Prefab.prefab",
		"CombatModel": "",
		"ModelScale": 0,
		"BFModelScale": 0,
		"UIModelScale": 0,
		"UIModelOffsetX": 0,
		"UIModelOffsetY": 0,
		"MeleeATKID": 0,
		"RangeATKID": 0,
		"SkillID": 0,
		"MoveSound": ""
	},
	{
		"ID": 5302,
		"Name": "Blade of the Guardian",
		"Model": "Spine/General/Ranford_ABS/Ranford_Skin02/Ranford_skin02_Prefab.prefab",
		"CombatModel": "",
		"ModelScale": 0,
		"BFModelScale": 0,
		"UIModelScale": 0,
		"UIModelOffsetX": 0,
		"UIModelOffsetY": 0,
		"MeleeATKID": 0,
		"RangeATKID": 0,
		"SkillID": 0,
		"MoveSound": ""
	},
	{
		"ID": 53021,
		"Name": "Blade of the Guardian",
		"Model": "Spine/General/Ranford_ABS/Ranford_Skin02_1/Ranford_Skin02_1_Prefab.prefab",
		"CombatModel": "",
		"ModelScale": 0,
		"BFModelScale": 0,
		"UIModelScale": 0,
		"UIModelOffsetX": 0,
		"UIModelOffsetY": 0,
		"MeleeATKID": 0,
		"RangeATKID": 0,
		"SkillID": 0,
		"MoveSound": ""
	},
	{
		"ID": 702,
		"Name": "Apex Power",
		"Model": "Spine/General/Barnhart_ABS/Barnhart_Skin02/Barnhart_Skin02_Prefab.prefab",
		"CombatModel": "",
		"ModelScale": 0,
		"BFModelScale": 0,
		"UIModelScale": 0,
		"UIModelOffsetX": 0,
		"UIModelOffsetY": 0,
		"MeleeATKID": 0,
		"RangeATKID": 0,
		"SkillID": 0,
		"MoveSound": ""
	},
	{
		"ID": 8802,
		"Name": "Worker Elf",
		"Model": "Spine/General/Alustriel_ABS/Alustriel_Skin02/Alustriel_Skin02_Prefab.prefab",
		"CombatModel": "",
		"ModelScale": 0,
		"BFModelScale": 0,
		"UIModelScale": 0,
		"UIModelOffsetX": 0,
		"UIModelOffsetY": 0,
		"MeleeATKID": 0,
		"RangeATKID": 0,
		"SkillID": 0,
		"MoveSound": ""
	},
	{
		"ID": 88021,
		"Name": "Worker Elf",
		"Model": "Spine/General/Alustriel_ABS/Alustriel_Skin02_1/Alustriel_Skin02_1_Prefab.prefab",
		"CombatModel": "",
		"ModelScale": 70,
		"BFModelScale": 70,
		"UIModelScale": 75,
		"UIModelOffsetX": 0,
		"UIModelOffsetY": 0,
		"MeleeATKID": 0,
		"RangeATKID": 0,
		"SkillID": 0,
		"MoveSound": ""
	},
	{
		"ID": 6301,
		"Name": "Medicine Man",
		"Model": "Spine/General/Lainforce_ABS/Lainforce_Skin01/Lainforce_Skin01_Prefab.prefab",
		"CombatModel": "",
		"ModelScale": 0,
		"BFModelScale": 0,
		"UIModelScale": 0,
		"UIModelOffsetX": 0,
		"UIModelOffsetY": 0,
		"MeleeATKID": 0,
		"RangeATKID": 0,
		"SkillID": 0,
		"MoveSound": ""
	},
	{
		"ID": 63011,
		"Name": "Medicine Man",
		"Model": "Spine/General/Lainforce_ABS/Lainforce_Skin01_1/Lainforce_Skin01_1_Prefab.prefab",
		"CombatModel": "",
		"ModelScale": 0,
		"BFModelScale": 0,
		"UIModelScale": 0,
		"UIModelOffsetX": 0,
		"UIModelOffsetY": 0,
		"MeleeATKID": 0,
		"RangeATKID": 0,
		"SkillID": 0,
		"MoveSound": ""
	},
	{
		"ID": 8701,
		"Name": "Crimson Sword",
		"Model": "Spine/General/Betty_ABS/Betty_Skin01/Betty_Skin01_Prefab.prefab",
		"CombatModel": "",
		"ModelScale": 0,
		"BFModelScale": 0,
		"UIModelScale": 0,
		"UIModelOffsetX": 0,
		"UIModelOffsetY": 0,
		"MeleeATKID": 0,
		"RangeATKID": 0,
		"SkillID": 0,
		"MoveSound": ""
	},
	{
		"ID": 87011,
		"Name": "Crimson Sword",
		"Model": "Spine/General/Betty_ABS/Betty_Skin01_1/Betty_Skin01_1_Prefab.prefab",
		"CombatModel": "",
		"ModelScale": 0,
		"BFModelScale": 0,
		"UIModelScale": 0,
		"UIModelOffsetX": 0,
		"UIModelOffsetY": 0,
		"MeleeATKID": 0,
		"RangeATKID": 0,
		"SkillID": 0,
		"MoveSound": ""
	},
	{
		"ID": 2899,
		"Name": "Azure Babe",
		"Model": "Spine/General/Zalrahda_ABS/Zalrahda_Skin04/Zalrahda_Skin04_Prefab.prefab",
		"CombatModel": "",
		"ModelScale": 65,
		"BFModelScale": 65,
		"UIModelScale": 55,
		"UIModelOffsetX": 0,
		"UIModelOffsetY": 10,
		"MeleeATKID": 0,
		"RangeATKID": 0,
		"SkillID": 0,
		"MoveSound": ""
	},
	{
		"ID": 1899,
		"Name": "Cowskin Bikini",
		"Model": "Spine/General/Imelda_ABS/Imelda_Skin02/Imelda_Skin02_Prefab.prefab",
		"CombatModel": "",
		"ModelScale": 0,
		"BFModelScale": 0,
		"UIModelScale": 0,
		"UIModelOffsetX": 0,
		"UIModelOffsetY": 0,
		"MeleeATKID": 0,
		"RangeATKID": 0,
		"SkillID": 0,
		"MoveSound": ""
	},
	{
		"ID": 104,
		"Name": "Swordsmith Hero",
		"Model": "Spine/General/Mathew_ABS/Mathew_Skin03/Mathew_Skin03_Prefab.prefab",
		"CombatModel": "",
		"ModelScale": 0,
		"BFModelScale": 0,
		"UIModelScale": 0,
		"UIModelOffsetX": 0,
		"UIModelOffsetY": 0,
		"MeleeATKID": 0,
		"RangeATKID": 0,
		"SkillID": 0,
		"MoveSound": ""
	},
	{
		"ID": 1041,
		"Name": "Swordsmith Hero",
		"Model": "Spine/General/Mathew_ABS/Mathew_Skin03_1/Mathew_Skin03_1_Prefab.prefab",
		"CombatModel": "",
		"ModelScale": 0,
		"BFModelScale": 0,
		"UIModelScale": 0,
		"UIModelOffsetX": 0,
		"UIModelOffsetY": 0,
		"MeleeATKID": 0,
		"RangeATKID": 0,
		"SkillID": 0,
		"MoveSound": ""
	},
	{
		"ID": 1042,
		"Name": "Swordsmith Hero",
		"Model": "Spine/General/Mathew_ABS/Mathew_Skin03_2/Mathew_Skin03_2_Prefab.prefab",
		"CombatModel": "",
		"ModelScale": 0,
		"BFModelScale": 0,
		"UIModelScale": 0,
		"UIModelOffsetX": 0,
		"UIModelOffsetY": 0,
		"MeleeATKID": 0,
		"RangeATKID": 0,
		"SkillID": 0,
		"MoveSound": ""
	},
	{
		"ID": 1043,
		"Name": "Swordsmith Hero",
		"Model": "Spine/General/Mathew_ABS/Mathew_Skin03_3/Mathew_Skin03_3_Prefab.prefab",
		"CombatModel": "Spine/General/Mathew_ABS/Mathew_Skin03_3/Mathew_Skin03_3_air_Prefab.prefab",
		"ModelScale": 0,
		"BFModelScale": 0,
		"UIModelScale": 0,
		"UIModelOffsetX": 0,
		"UIModelOffsetY": 0,
		"MeleeATKID": 0,
		"RangeATKID": 0,
		"SkillID": 0,
		"MoveSound": ""
	},
	{
		"ID": 1044,
		"Name": "Swordsmith Hero",
		"Model": "Spine/General/Mathew_ABS/Mathew_Skin03_4/Mathew_Skin03_4_Prefab.prefab",
		"CombatModel": "",
		"ModelScale": 0,
		"BFModelScale": 0,
		"UIModelScale": 0,
		"UIModelOffsetX": 0,
		"UIModelOffsetY": 0,
		"MeleeATKID": 0,
		"RangeATKID": 0,
		"SkillID": 0,
		"MoveSound": ""
	},
	{
		"ID": 2804,
		"Name": "Bladed Bond",
		"Model": "Spine/General/Zalrahda_ABS/Zalrahda_Skin05/Zalrahda_Skin05_Prefab.prefab",
		"CombatModel": "",
		"ModelScale": 0,
		"BFModelScale": 0,
		"UIModelScale": 0,
		"UIModelOffsetX": 0,
		"UIModelOffsetY": 0,
		"MeleeATKID": 0,
		"RangeATKID": 0,
		"SkillID": 0,
		"MoveSound": ""
	},
	{
		"ID": 2201,
		"Name": "Glorious Enlightenment",
		"Model": "Spine/General/Jessica_ABS/Jessica_Skin01/Jessica_Skin01_Prefab.prefab",
		"CombatModel": "",
		"ModelScale": 0,
		"BFModelScale": 0,
		"UIModelScale": 0,
		"UIModelOffsetX": 0,
		"UIModelOffsetY": 0,
		"MeleeATKID": 0,
		"RangeATKID": 0,
		"SkillID": 0,
		"MoveSound": ""
	},
	{
		"ID": 6102,
		"Name": "Ice Maiden",
		"Model": "Spine/General/Lambda_ABS/Lambda_Skin02/Lambda_Skin02_Prefab.prefab",
		"CombatModel": "",
		"ModelScale": 0,
		"BFModelScale": 0,
		"UIModelScale": 0,
		"UIModelOffsetX": 0,
		"UIModelOffsetY": 0,
		"MeleeATKID": 0,
		"RangeATKID": 0,
		"SkillID": 0,
		"MoveSound": ""
	},
	{
		"ID": 9201,
		"Name": "Ruby Rebellion",
		"Model": "Spine/General/PeakJessica_ABS/PeakJessica_Skin01/PeakJessica_Skin01_Prefab.prefab",
		"CombatModel": "",
		"ModelScale": 0,
		"BFModelScale": 0,
		"UIModelScale": 0,
		"UIModelOffsetX": 0,
		"UIModelOffsetY": 0,
		"MeleeATKID": 0,
		"RangeATKID": 0,
		"SkillID": 0,
		"MoveSound": ""
	},
	{
		"ID": 92011,
		"Name": "Ruby Rebellion",
		"Model": "Spine/General/PeakJessica_ABS/PeakJessica_Skin01_1/PeakJessica_Skin01_1_Prefab.prefab",
		"CombatModel": "",
		"ModelScale": 0,
		"BFModelScale": 0,
		"UIModelScale": 0,
		"UIModelOffsetX": 0,
		"UIModelOffsetY": 0,
		"MeleeATKID": 0,
		"RangeATKID": 0,
		"SkillID": 0,
		"MoveSound": ""
	},
	{
		"ID": 9101,
		"Name": "Black Gold",
		"Model": "Spine/General/Emilia_ABS/Emilia_Skin01/Emilia_Skin01_Prefab.prefab",
		"CombatModel": "",
		"ModelScale": 0,
		"BFModelScale": 0,
		"UIModelScale": 0,
		"UIModelOffsetX": 0,
		"UIModelOffsetY": 0,
		"MeleeATKID": 0,
		"RangeATKID": 0,
		"SkillID": 0,
		"MoveSound": ""
	},
	{
		"ID": 91011,
		"Name": "Black Gold",
		"Model": "Spine/General/Emilia_ABS/Emilia_Skin01_1/Emilia_Skin01_1_Prefab.prefab",
		"CombatModel": "",
		"ModelScale": 0,
		"BFModelScale": 0,
		"UIModelScale": 0,
		"UIModelOffsetX": 0,
		"UIModelOffsetY": 0,
		"MeleeATKID": 0,
		"RangeATKID": 0,
		"SkillID": 0,
		"MoveSound": ""
	},
	{
		"ID": 2904,
		"Name": "Violet Moon",
		"Model": "Spine/General/Tialice_ABS/Tialice_Skin04/Tialice_Skin04_Prefab.prefab",
		"CombatModel": "",
		"ModelScale": 0,
		"BFModelScale": 0,
		"UIModelScale": 0,
		"UIModelOffsetX": 0,
		"UIModelOffsetY": 0,
		"MeleeATKID": 0,
		"RangeATKID": 0,
		"SkillID": 0,
		"MoveSound": ""
	},
	{
		"ID": 5199,
		"Name": "Team Spirit",
		"Model": "Spine/General/Schelfaniel_ABS/Schelfaniel_Skin03/Schelfaniel_Skin03_Prefab.prefab",
		"CombatModel": "",
		"ModelScale": 0,
		"BFModelScale": 0,
		"UIModelScale": 0,
		"UIModelOffsetX": 0,
		"UIModelOffsetY": 0,
		"MeleeATKID": 0,
		"RangeATKID": 0,
		"SkillID": 0,
		"MoveSound": ""
	},
	{
		"ID": 5299,
		"Name": "Charming Cheerleader",
		"Model": "Spine/General/Angelina_ABS/Angelina_Skin03/Angelina_Skin03_Prefab.prefab",
		"CombatModel": "",
		"ModelScale": 0,
		"BFModelScale": 0,
		"UIModelScale": 0,
		"UIModelOffsetX": 0,
		"UIModelOffsetY": 0,
		"MeleeATKID": 0,
		"RangeATKID": 0,
		"SkillID": 0,
		"MoveSound": ""
	},
	{
		"ID": 52991,
		"Name": "Charming Cheerleader",
		"Model": "Spine/General/Angelina_ABS/Angelina_Skin03_1/Angelina_Skin03_1_Prefab.prefab",
		"CombatModel": "Spine/General/Angelina_ABS/Angelina_Skin03_1/Angelina_Skin03_1_air_Prefab.prefab",
		"ModelScale": 0,
		"BFModelScale": 0,
		"UIModelScale": 0,
		"UIModelOffsetX": 0,
		"UIModelOffsetY": 0,
		"MeleeATKID": 0,
		"RangeATKID": 0,
		"SkillID": 0,
		"MoveSound": ""
	},
	{
		"ID": 6501,
		"Name": "Eye of the Tiger",
		"Model": "Spine/General/Virash_ABS/Virash_Skin01/Virash_Skin01_Prefab.prefab",
		"CombatModel": "",
		"ModelScale": 0,
		"BFModelScale": 0,
		"UIModelScale": 0,
		"UIModelOffsetX": 0,
		"UIModelOffsetY": 0,
		"MeleeATKID": 0,
		"RangeATKID": 0,
		"SkillID": 0,
		"MoveSound": ""
	},
	{
		"ID": 9301,
		"Name": "Party Paladin",
		"Model": "Spine/General/MysteryKnight_ABS/MysteryKnight_Skin01/MysteryKnight_Skin01_Prefab.prefab",
		"CombatModel": "",
		"ModelScale": 0,
		"BFModelScale": 0,
		"UIModelScale": 0,
		"UIModelOffsetX": 0,
		"UIModelOffsetY": 0,
		"MeleeATKID": 0,
		"RangeATKID": 0,
		"SkillID": 0,
		"MoveSound": ""
	},
	{
		"ID": 6002,
		"Name": "Watcher's Blade",
		"Model": "Spine/General/Sigma_ABS/Sigma_Skin02/Sigma_Skin02_Prefab.prefab",
		"CombatModel": "",
		"ModelScale": 0,
		"BFModelScale": 0,
		"UIModelScale": 0,
		"UIModelOffsetX": 0,
		"UIModelOffsetY": 0,
		"MeleeATKID": 0,
		"RangeATKID": 0,
		"SkillID": 0,
		"MoveSound": ""
	},
	{
		"ID": 60021,
		"Name": "Watcher's Blade",
		"Model": "Spine/General/Sigma_ABS/Sigma_Skin02_1/Sigma_Skin02_1_Prefab.prefab",
		"CombatModel": "",
		"ModelScale": 0,
		"BFModelScale": 0,
		"UIModelScale": 0,
		"UIModelOffsetX": 0,
		"UIModelOffsetY": 0,
		"MeleeATKID": 0,
		"RangeATKID": 0,
		"SkillID": 0,
		"MoveSound": ""
	},
	{
		"ID": 3801,
		"Name": "Bump in the Night",
		"Model": "Spine/General/JellioruLela_ABS/JellioruLela_Skin01/JellioruLela_Skin01_Prefab.prefab",
		"CombatModel": "",
		"ModelScale": 0,
		"BFModelScale": 0,
		"UIModelScale": 0,
		"UIModelOffsetX": 0,
		"UIModelOffsetY": 0,
		"MeleeATKID": 0,
		"RangeATKID": 0,
		"SkillID": 0,
		"MoveSound": ""
	},
	{
		"ID": 3101,
		"Name": "Howling Heartbreaker",
		"Model": "Spine/General/Sofia_ABS/Sofia_Skin01/Sofia_Skin01_Prefab.prefab",
		"CombatModel": "",
		"ModelScale": 0,
		"BFModelScale": 0,
		"UIModelScale": 0,
		"UIModelOffsetX": 0,
		"UIModelOffsetY": 0,
		"MeleeATKID": 0,
		"RangeATKID": 0,
		"SkillID": 0,
		"MoveSound": ""
	},
	{
		"ID": 31011,
		"Name": "Howling Heartbreaker",
		"Model": "Spine/General/Sofia_ABS/Sofia_Skin01_1/Sofia_Skin01_1_Prefab.prefab",
		"CombatModel": "",
		"ModelScale": 0,
		"BFModelScale": 0,
		"UIModelScale": 0,
		"UIModelOffsetX": 0,
		"UIModelOffsetY": 0,
		"MeleeATKID": 0,
		"RangeATKID": 0,
		"SkillID": 0,
		"MoveSound": ""
	},
	{
		"ID": 604,
		"Name": "利昂冠军",
		"Model": "Spine/General/Leon_ABS/Leon_Skin04/Leon_Skin04_Prefab.prefab",
		"CombatModel": "",
		"ModelScale": 0,
		"BFModelScale": 0,
		"UIModelScale": 0,
		"UIModelOffsetX": 0,
		"UIModelOffsetY": 0,
		"MeleeATKID": 0,
		"RangeATKID": 0,
		"SkillID": 0,
		"MoveSound": ""
	},
	{
		"ID": 3401,
		"Name": "雾风S3",
		"Model": "Spine/General/Kirikaze_ABS/Kirikaze_Skin/Kirikaze_Skin_Prefab.prefab",
		"CombatModel": "",
		"ModelScale": 0,
		"BFModelScale": 0,
		"UIModelScale": 0,
		"UIModelOffsetX": 0,
		"UIModelOffsetY": 0,
		"MeleeATKID": 0,
		"RangeATKID": 0,
		"SkillID": 0,
		"MoveSound": ""
	},
	{
		"ID": 9401,
		"Name": "阿卡娅光之回响",
		"Model": "Spine/General/Aka_ABS/Aka_Skin01/Aka_Skin01_Prefab.prefab",
		"CombatModel": "",
		"ModelScale": 0,
		"BFModelScale": 0,
		"UIModelScale": 0,
		"UIModelOffsetX": 0,
		"UIModelOffsetY": 0,
		"MeleeATKID": 0,
		"RangeATKID": 0,
		"SkillID": 0,
		"MoveSound": ""
	},
	{
		"ID": 94011,
		"Name": "阿卡娅光之回响",
		"Model": "Spine/General/Aka_ABS/Aka_Skin01_1/Aka_Skin01_1_Prefab.prefab",
		"CombatModel": "",
		"ModelScale": 0,
		"BFModelScale": 0,
		"UIModelScale": 0,
		"UIModelOffsetX": 0,
		"UIModelOffsetY": 0,
		"MeleeATKID": 0,
		"RangeATKID": 0,
		"SkillID": 0,
		"MoveSound": ""
	},
	{
		"ID": 6401,
		"Name": "布琳达光之回响",
		"Model": "Spine/General/Brenda_ABS/Brenda_Skin01/Brenda_Skin01_Prefab.prefab",
		"CombatModel": "",
		"ModelScale": 0,
		"BFModelScale": 0,
		"UIModelScale": 0,
		"UIModelOffsetX": 0,
		"UIModelOffsetY": 0,
		"MeleeATKID": 0,
		"RangeATKID": 0,
		"SkillID": 0,
		"MoveSound": ""
	},
	{
		"ID": 64011,
		"Name": "布琳达光之回响",
		"Model": "Spine/General/Brenda_ABS/Brenda_Skin01_1/Brenda_Skin01_1_Prefab.prefab",
		"CombatModel": "",
		"ModelScale": 0,
		"BFModelScale": 0,
		"UIModelScale": 0,
		"UIModelOffsetX": 0,
		"UIModelOffsetY": 0,
		"MeleeATKID": 0,
		"RangeATKID": 0,
		"SkillID": 0,
		"MoveSound": ""
	},
	{
		"ID": 6602,
		"Name": "克拉蕾特哲学",
		"Model": "Spine/General/Clarett_ABS/Clarett_Skin02/Clarett_Skin02_Prefab.prefab",
		"CombatModel": "",
		"ModelScale": 0,
		"BFModelScale": 0,
		"UIModelScale": 0,
		"UIModelOffsetX": 0,
		"UIModelOffsetY": 0,
		"MeleeATKID": 0,
		"RangeATKID": 0,
		"SkillID": 0,
		"MoveSound": ""
	},
	{
		"ID": 66021,
		"Name": "克拉蕾特哲学",
		"Model": "Spine/General/Clarett_ABS/Clarett_Skin02_1/Clarett_Skin02_1_Prefab.prefab",
		"CombatModel": "Spine/General/Clarett_ABS/Clarett_Skin02_1/Clarett_Skin02_1_air_Prefab.prefab",
		"ModelScale": 0,
		"BFModelScale": 0,
		"UIModelScale": 0,
		"UIModelOffsetX": 0,
		"UIModelOffsetY": 0,
		"MeleeATKID": 0,
		"RangeATKID": 0,
		"SkillID": 0,
		"MoveSound": ""
	},
	{
		"ID": 5602,
		"Name": "Celestial Herald",
		"Model": "Spine/General/Rachel_ABS/Rachel_Skin02/Rachel_Ski02_Prefab.prefab",
		"CombatModel": "",
		"ModelScale": 0,
		"BFModelScale": 0,
		"UIModelScale": 0,
		"UIModelOffsetX": 0,
		"UIModelOffsetY": 0,
		"MeleeATKID": 0,
		"RangeATKID": 0,
		"SkillID": 0,
		"MoveSound": ""
	},
	{
		"ID": 56021,
		"Name": "Celestial Herald",
		"Model": "Spine/General/Rachel_ABS/Rachel_Skin02_1/Rachel_Skin02_1_Prefab.prefab",
		"CombatModel": "",
		"ModelScale": 0,
		"BFModelScale": 0,
		"UIModelScale": 0,
		"UIModelOffsetX": 0,
		"UIModelOffsetY": 0,
		"MeleeATKID": 0,
		"RangeATKID": 0,
		"SkillID": 0,
		"MoveSound": ""
	},
	{
		"ID": 2503,
		"Name": "元帅学生会",
		"Model": "Spine/General/Alutemurat_ABS/Alutemurat_Skin03/Alutemurat_Skin03_Prefab.prefab",
		"CombatModel": "Spine/General/Alutemurat_ABS/Alutemurat_Skin03/Alutemurat_Skin03_air_Prefab.prefab",
		"ModelScale": 0,
		"BFModelScale": 0,
		"UIModelScale": 0,
		"UIModelOffsetX": 0,
		"UIModelOffsetY": 0,
		"MeleeATKID": 0,
		"RangeATKID": 0,
		"SkillID": 0,
		"MoveSound": ""
	},
	{
		"ID": 25031,
		"Name": "元帅学生会",
		"Model": "Spine/General/Alutemurat_ABS/Alutemurat_Skin03_1/Alutemurat_Skin03_1_Prefab.prefab",
		"CombatModel": "",
		"ModelScale": 0,
		"BFModelScale": 0,
		"UIModelScale": 0,
		"UIModelOffsetX": 0,
		"UIModelOffsetY": 0,
		"MeleeATKID": 0,
		"RangeATKID": 0,
		"SkillID": 0,
		"MoveSound": ""
	},
	{
		"ID": 3001,
		"Name": "莉法妮学生会",
		"Model": "Spine/General/Leafani_ABS/Leafani_Skin01/Leafani_Skin01_Prefab.prefab",
		"CombatModel": "",
		"ModelScale": 0,
		"BFModelScale": 0,
		"UIModelScale": 0,
		"UIModelOffsetX": 0,
		"UIModelOffsetY": 0,
		"MeleeATKID": 0,
		"RangeATKID": 0,
		"SkillID": 0,
		"MoveSound": ""
	},
	{
		"ID": 94001,
		"Name": "Wolf Soul",
		"Model": "Spine/Soldier/Aka_Wolfspirit_ABS/Aka_Wolfspirit_Skin01/Aka_Wolfspirit_Skin01_Prefab.prefab",
		"CombatModel": "",
		"ModelScale": 0,
		"BFModelScale": 0,
		"UIModelScale": 0,
		"UIModelOffsetX": 0,
		"UIModelOffsetY": 0,
		"MeleeATKID": 0,
		"RangeATKID": 0,
		"SkillID": 0,
		"MoveSound": ""
	},
	{
		"ID": 94002,
		"Name": "Wolf Soul",
		"Model": "Spine/Soldier/Aka_Wolfspirit_ABS/Aka_Wolfspirit_Skin01/Aka_Wolfspirit_Skin01_Prefab.prefab",
		"CombatModel": "",
		"ModelScale": 0,
		"BFModelScale": 0,
		"UIModelScale": 0,
		"UIModelOffsetX": 0,
		"UIModelOffsetY": 0,
		"MeleeATKID": 0,
		"RangeATKID": 0,
		"SkillID": 0,
		"MoveSound": ""
	},
	{
		"ID": 7701,
		"Name": "Errant Knight",
		"Model": "Spine/General/Parn_ABS/Parn_Skin01/Parn_Skin01_Prefab.prefab",
		"CombatModel": "",
		"ModelScale": 0,
		"BFModelScale": 0,
		"UIModelScale": 0,
		"UIModelOffsetX": 0,
		"UIModelOffsetY": 0,
		"MeleeATKID": 0,
		"RangeATKID": 0,
		"SkillID": 0,
		"MoveSound": ""
	},
	{
		"ID": 77011,
		"Name": "Errant Knight",
		"Model": "Spine/General/Parn_ABS/Parn_Skin01_1/Parn_Skin01_1_Prefab.prefab",
		"CombatModel": "",
		"ModelScale": 0,
		"BFModelScale": 0,
		"UIModelScale": 0,
		"UIModelOffsetX": 0,
		"UIModelOffsetY": 0,
		"MeleeATKID": 0,
		"RangeATKID": 0,
		"SkillID": 0,
		"MoveSound": ""
	},
	{
		"ID": 7501,
		"Name": "White Fairy Lullaby",
		"Model": "Spine/General/Deedlit_ABS/Deedlit_Skin01/Deedlit_Skin01_Prefab.prefab",
		"CombatModel": "",
		"ModelScale": 0,
		"BFModelScale": 0,
		"UIModelScale": 0,
		"UIModelOffsetX": 0,
		"UIModelOffsetY": 0,
		"MeleeATKID": 0,
		"RangeATKID": 0,
		"SkillID": 0,
		"MoveSound": ""
	},
	{
		"ID": 75011,
		"Name": "White Fairy Lullaby",
		"Model": "Spine/General/Deedlit_ABS/Deedlit_Skin01_1/Deedlit_Skin01_1_Prefab.prefab",
		"CombatModel": "",
		"ModelScale": 0,
		"BFModelScale": 0,
		"UIModelScale": 0,
		"UIModelOffsetX": 0,
		"UIModelOffsetY": 0,
		"MeleeATKID": 0,
		"RangeATKID": 0,
		"SkillID": 0,
		"MoveSound": ""
	},
	{
		"ID": 5901,
		"Name": "Dark Lion",
		"Model": "Spine/General/Gizlof_ABS/Gizlof_Skin01/Gizlof_Skin01_Prefab.prefab",
		"CombatModel": "",
		"ModelScale": 0,
		"BFModelScale": 0,
		"UIModelScale": 0,
		"UIModelOffsetX": 0,
		"UIModelOffsetY": 0,
		"MeleeATKID": 0,
		"RangeATKID": 0,
		"SkillID": 0,
		"MoveSound": ""
	},
	{
		"ID": 59001,
		"Name": "Fine Fabrics",
		"Model": "Spine/Soldier/Robot_ABS/Robot_Skin01/Robot_Skine01_Prefab.prefab",
		"CombatModel": "",
		"ModelScale": 0,
		"BFModelScale": 0,
		"UIModelScale": 0,
		"UIModelOffsetX": 0,
		"UIModelOffsetY": 0,
		"MeleeATKID": 0,
		"RangeATKID": 0,
		"SkillID": 0,
		"MoveSound": ""
	},
	{
		"ID": 59002,
		"Name": "Fine Fabrics",
		"Model": "Spine/Soldier/Robot_ABS/Robot_Skin01/Robot_Skine01_Prefab.prefab",
		"CombatModel": "",
		"ModelScale": 0,
		"BFModelScale": 0,
		"UIModelScale": 0,
		"UIModelOffsetX": 0,
		"UIModelOffsetY": 0,
		"MeleeATKID": 0,
		"RangeATKID": 0,
		"SkillID": 0,
		"MoveSound": ""
	},
	{
		"ID": 1003,
		"Name": "Lion Dance Leader",
		"Model": "Spine/General/Ledin_ABS/Ledin_Skin03/Ledin_Skin03_Prefab.prefab",
		"CombatModel": "",
		"ModelScale": 0,
		"BFModelScale": 0,
		"UIModelScale": 0,
		"UIModelOffsetX": 0,
		"UIModelOffsetY": 0,
		"MeleeATKID": 0,
		"RangeATKID": 0,
		"SkillID": 0,
		"MoveSound": ""
	},
	{
		"ID": 503,
		"Name": "Springtime Splendor",
		"Model": "Spine/General/Chris_ABS/Chris_Skin03/Chris_Skin03_Prefab.prefab",
		"CombatModel": "",
		"ModelScale": 0,
		"BFModelScale": 0,
		"UIModelScale": 0,
		"UIModelOffsetX": 0,
		"UIModelOffsetY": 0,
		"MeleeATKID": 0,
		"RangeATKID": 0,
		"SkillID": 0,
		"MoveSound": ""
	},
	{
		"ID": 11001,
		"Name": "Chaos Illusion",
		"Model": "Spine/General/Ares_ABS/Ares_Skin01/Ares_Skin01_Prefab.prefab",
		"CombatModel": "",
		"ModelScale": 0,
		"BFModelScale": 0,
		"UIModelScale": 0,
		"UIModelOffsetX": 0,
		"UIModelOffsetY": 0,
		"MeleeATKID": 0,
		"RangeATKID": 0,
		"SkillID": 0,
		"MoveSound": ""
	},
	{
		"ID": 110011,
		"Name": "Chaos Illusion",
		"Model": "Spine/General/Ares_ABS/Ares_Skin01_1/Ares_Skin01_1_Prefab.prefab",
		"CombatModel": "Spine/General/Ares_ABS/Ares_Skin01_1/Ares_Skin01_1_air_Prefab.prefab",
		"ModelScale": 0,
		"BFModelScale": 0,
		"UIModelScale": 0,
		"UIModelOffsetX": 0,
		"UIModelOffsetY": 0,
		"MeleeATKID": 0,
		"RangeATKID": 0,
		"SkillID": 0,
		"MoveSound": ""
	},
	{
		"ID": 11101,
		"Name": "Thorncloud Rouge",
		"Model": "Spine/General/Maiya_ABS/Maiya_Skin01/Maiya_Skin01_Prefab.prefab",
		"CombatModel": "",
		"ModelScale": 0,
		"BFModelScale": 0,
		"UIModelScale": 0,
		"UIModelOffsetX": 0,
		"UIModelOffsetY": 0,
		"MeleeATKID": 0,
		"RangeATKID": 0,
		"SkillID": 0,
		"MoveSound": ""
	},
	{
		"ID": 8702,
		"Name": "Violet Twilight",
		"Model": "Spine/General/Betty_ABS/Betty_Skin02/Betty_Skin02_Prefab.prefab",
		"CombatModel": "",
		"ModelScale": 0,
		"BFModelScale": 0,
		"UIModelScale": 0,
		"UIModelOffsetX": 0,
		"UIModelOffsetY": 0,
		"MeleeATKID": 0,
		"RangeATKID": 0,
		"SkillID": 0,
		"MoveSound": ""
	},
	{
		"ID": 1103,
		"Name": "Lovers' Dip",
		"Model": "Spine/General/Norm_ABS/Norm_Skin03/Norm_Skin03_Prefab.prefab",
		"CombatModel": "",
		"ModelScale": 0,
		"BFModelScale": 0,
		"UIModelScale": 0,
		"UIModelOffsetX": 0,
		"UIModelOffsetY": 0,
		"MeleeATKID": 0,
		"RangeATKID": 0,
		"SkillID": 0,
		"MoveSound": ""
	},
	{
		"ID": 11031,
		"Name": "Lovers' Dip",
		"Model": "Spine/General/Norm_ABS/Norm_Skin03_1/Norm_Skin03_1_Prefab.prefab",
		"CombatModel": "Spine/General/Norm_ABS/Norm_Skin03_1/Norm_Skin03_1_air_Prefab.prefab",
		"ModelScale": 0,
		"BFModelScale": 0,
		"UIModelScale": 0,
		"UIModelOffsetX": 0,
		"UIModelOffsetY": 0,
		"MeleeATKID": 0,
		"RangeATKID": 0,
		"SkillID": 0,
		"MoveSound": ""
	},
	{
		"ID": 8902,
		"Name": "Triumphant Return",
		"Model": "Spine/General/Yulia_ABS/Yulia_Skin02/Yulia_Skin02_Prefab.prefab",
		"CombatModel": "",
		"ModelScale": 0,
		"BFModelScale": 0,
		"UIModelScale": 0,
		"UIModelOffsetX": 0,
		"UIModelOffsetY": 0,
		"MeleeATKID": 0,
		"RangeATKID": 0,
		"SkillID": 0,
		"MoveSound": ""
	},
	{
		"ID": 5801,
		"Name": "Steel Valiance",
		"Model": "Spine/General/Serena_ABS/Serena_Skin01/Serena_Skin01_Prefab.prefab",
		"CombatModel": "",
		"ModelScale": 0,
		"BFModelScale": 0,
		"UIModelScale": 0,
		"UIModelOffsetX": 0,
		"UIModelOffsetY": 0,
		"MeleeATKID": 0,
		"RangeATKID": 0,
		"SkillID": 0,
		"MoveSound": ""
	},
	{
		"ID": 5702,
		"Name": "Final Salute",
		"Model": "Spine/General/Wiler_ABS/Wiler_Skin02/Wiler_Skin02_Prefab.prefab",
		"CombatModel": "",
		"ModelScale": 0,
		"BFModelScale": 0,
		"UIModelScale": 0,
		"UIModelOffsetX": 0,
		"UIModelOffsetY": 0,
		"MeleeATKID": 0,
		"RangeATKID": 0,
		"SkillID": 0,
		"MoveSound": ""
	},
	{
		"ID": 103011,
		"Name": "Shadowsworn Plume",
		"Model": "Spine/General/Sirink_ABS/Sirink_Skin01/Sirink_Skin01_Prefab.prefab",
		"CombatModel": "",
		"ModelScale": 0,
		"BFModelScale": 0,
		"UIModelScale": 0,
		"UIModelOffsetX": 0,
		"UIModelOffsetY": 0,
		"MeleeATKID": 0,
		"RangeATKID": 0,
		"SkillID": 0,
		"MoveSound": ""
	},
	{
		"ID": 1030111,
		"Name": "Shadowsworn Plume",
		"Model": "Spine/General/Sirink_ABS/Sirink_Skin01_1/Sirink_Skin01_1_Prefab.prefab",
		"CombatModel": "Spine/General/Sirink_ABS/Sirink_Skin01_1/Sirink_Skin01_1_air_Prefab.prefab",
		"ModelScale": 0,
		"BFModelScale": 0,
		"UIModelScale": 0,
		"UIModelOffsetX": 0,
		"UIModelOffsetY": 0,
		"MeleeATKID": 0,
		"RangeATKID": 0,
		"SkillID": 0,
		"MoveSound": ""
	},
	{
		"ID": 9701,
		"Name": "Blossoming Flowers",
		"Model": "Spine/General/Elucia_ABS/Elucia_Skin01/Elucia_Skin01_Prefab.prefab",
		"CombatModel": "",
		"ModelScale": 0,
		"BFModelScale": 0,
		"UIModelScale": 0,
		"UIModelOffsetX": 0,
		"UIModelOffsetY": 0,
		"MeleeATKID": 0,
		"RangeATKID": 0,
		"SkillID": 0,
		"MoveSound": ""
	},
	{
		"ID": 97011,
		"Name": "Blossoming Flowers",
		"Model": "Spine/General/Elucia_ABS/Elucia_Skin01_1/Elucia_Skin01_1_Prefab.prefab",
		"CombatModel": "",
		"ModelScale": 0,
		"BFModelScale": 0,
		"UIModelScale": 0,
		"UIModelOffsetX": 0,
		"UIModelOffsetY": 0,
		"MeleeATKID": 0,
		"RangeATKID": 0,
		"SkillID": 0,
		"MoveSound": ""
	},
	{
		"ID": 5603,
		"Name": "Cold Heart Complex",
		"Model": "Spine/General/Rachel_ABS/Rachel_Skin03/Rachel_Skin03_Prefab.prefab",
		"CombatModel": "",
		"ModelScale": 0,
		"BFModelScale": 0,
		"UIModelScale": 0,
		"UIModelOffsetX": 0,
		"UIModelOffsetY": 0,
		"MeleeATKID": 0,
		"RangeATKID": 0,
		"SkillID": 0,
		"MoveSound": ""
	},
	{
		"ID": 56031,
		"Name": "Cold Heart Complex",
		"Model": "Spine/General/Rachel_ABS/Rachel_Skin03_1/Rachel_Skin03_1_Prefab.prefab",
		"CombatModel": "",
		"ModelScale": 0,
		"BFModelScale": 0,
		"UIModelScale": 0,
		"UIModelOffsetX": 0,
		"UIModelOffsetY": 0,
		"MeleeATKID": 0,
		"RangeATKID": 0,
		"SkillID": 0,
		"MoveSound": ""
	},
	{
		"ID": 4902,
		"Name": "Sweet Confusion",
		"Model": "Spine/General/Fana_ABS/Fana_Skin02/Fana_Skin02_Prefab.prefab",
		"CombatModel": "",
		"ModelScale": 0,
		"BFModelScale": 0,
		"UIModelScale": 0,
		"UIModelOffsetX": 0,
		"UIModelOffsetY": 0,
		"MeleeATKID": 0,
		"RangeATKID": 0,
		"SkillID": 0,
		"MoveSound": ""
	},
	{
		"ID": 49021,
		"Name": "Sweet Confusion",
		"Model": "Spine/General/Fana_ABS/Fana_Skin02_1/Fana_Skin02_1_Prefab.prefab",
		"CombatModel": "Spine/General/Fana_ABS/Fana_Skin02_1/Fana_Skin02_1_air_Prefab.prefab",
		"ModelScale": 0,
		"BFModelScale": 0,
		"UIModelScale": 0,
		"UIModelOffsetX": 0,
		"UIModelOffsetY": 0,
		"MeleeATKID": 0,
		"RangeATKID": 0,
		"SkillID": 0,
		"MoveSound": ""
	},
	{
		"ID": 1,
		"Name": "Hardcore Fan",
		"Model": "Spine/Soldier/Qudao_ABS/Qudao_100W/Qudao_Fanti_Prefab.prefab",
		"CombatModel": "",
		"ModelScale": 0,
		"BFModelScale": 0,
		"UIModelScale": 0,
		"UIModelOffsetX": 0,
		"UIModelOffsetY": 0,
		"MeleeATKID": 0,
		"RangeATKID": 0,
		"SkillID": 0,
		"MoveSound": ""
	},
	{
		"ID": 2,
		"Name": "Black Pill",
		"Model": "Spine/Soldier/Qudao_ABS/QudaoTW_Xiaoxiong/QudaoTW_Xiaoxiong_Prefab.prefab",
		"CombatModel": "",
		"ModelScale": 0,
		"BFModelScale": 0,
		"UIModelScale": 0,
		"UIModelOffsetX": 0,
		"UIModelOffsetY": 0,
		"MeleeATKID": 0,
		"RangeATKID": 0,
		"SkillID": 0,
		"MoveSound": ""
	}
]