[
	{
		"ID": 1,
		"Name": "Practice Stage (not for other uses)",
		"Desc": "PVP1",
		"WinDesc": "Destroy the enemy's Core Demon Tower.",
		"LoseDesc": "Your Core Demon Tower is destroyed.",
		"BattlefieldID": 700,
		"CameraX": 5,
		"CameraY": 6,
		"DefendCameraX": 10,
		"DefendCameraY": 6,
		"PrepareMusic": "BattleMusic_Prepare",
		"BattleMusic": "BattleMusic_Knights_Errant",
		"DefendBattleMusic": "BattleMusic_09_Reinforce_of_Enemy_Remake",
		"TurnMax": 15,
		"FastKillTurn": 13,
		"BuffID": [
			48718,
			213
		],
		"AttackPickPositions": [
			{
				"X": 1,
				"Y": 4
			},
			{
				"X": 1,
				"Y": 6
			},
			{
				"X": 2,
				"Y": 4
			},
			{
				"X": 2,
				"Y": 5
			},
			{
				"X": 2,
				"Y": 6
			},
			{
				"X": 0,
				"Y": 4
			},
			{
				"X": 0,
				"Y": 5
			},
			{
				"X": 0,
				"Y": 6
			},
			{
				"X": 2,
				"Y": 2
			},
			{
				"X": 3,
				"Y": 1
			},
			{
				"X": 3,
				"Y": 3
			},
			{
				"X": 4,
				"Y": 2
			},
			{
				"X": 2,
				"Y": 8
			},
			{
				"X": 3,
				"Y": 7
			},
			{
				"X": 3,
				"Y": 9
			},
			{
				"X": 4,
				"Y": 8
			}
		],
		"AttackPickDirs": [
			1,
			1,
			1,
			1,
			1,
			1,
			1,
			1,
			1,
			1,
			1,
			1,
			1,
			1,
			1,
			1
		],
		"AttackPickCount": 8,
		"DefendPickPositions": [
			{
				"X": 10,
				"Y": 4
			},
			{
				"X": 10,
				"Y": 6
			},
			{
				"X": 9,
				"Y": 4
			},
			{
				"X": 9,
				"Y": 5
			},
			{
				"X": 9,
				"Y": 6
			},
			{
				"X": 11,
				"Y": 4
			},
			{
				"X": 11,
				"Y": 5
			},
			{
				"X": 11,
				"Y": 6
			},
			{
				"X": 9,
				"Y": 2
			},
			{
				"X": 8,
				"Y": 1
			},
			{
				"X": 8,
				"Y": 3
			},
			{
				"X": 7,
				"Y": 2
			},
			{
				"X": 9,
				"Y": 8
			},
			{
				"X": 8,
				"Y": 7
			},
			{
				"X": 8,
				"Y": 9
			},
			{
				"X": 7,
				"Y": 8
			}
		],
		"DefendPickDirs": [
			-1,
			-1,
			-1,
			-1,
			-1,
			-1,
			-1,
			-1,
			-1,
			-1,
			-1,
			-1,
			-1,
			-1,
			-1,
			-1
		],
		"DefendPickCount": 8,
		"AttackActors": [
			{
				"X": 1,
				"Y": 5,
				"ID": 40004,
				"Level": 0
			},
			{
				"X": 3,
				"Y": 2,
				"ID": 49998,
				"Level": 0
			},
			{
				"X": 3,
				"Y": 8,
				"ID": 49998,
				"Level": 0
			}
		],
		"AttackDirs": [
			1,
			1,
			1
		],
		"DefendActors": [
			{
				"X": 10,
				"Y": 5,
				"ID": 40005,
				"Level": 0
			},
			{
				"X": 8,
				"Y": 2,
				"ID": 49999,
				"Level": 0
			},
			{
				"X": 8,
				"Y": 8,
				"ID": 49999,
				"Level": 0
			}
		],
		"DefendDirs": [
			-1,
			-1,
			-1
		],
		"MapName": "Magic Tower Conquest - Practice",
		"MapImage": "UI/BattleThumbnail_ABS/CastleWar001.png"
	},
	{
		"ID": 2,
		"Name": "Vanguard Battle A",
		"Desc": "PVP1",
		"WinDesc": "Destroy the enemy's Core Demon Tower.",
		"LoseDesc": "Your Core Demon Tower is destroyed.",
		"BattlefieldID": 700,
		"CameraX": 5,
		"CameraY": 6,
		"DefendCameraX": 10,
		"DefendCameraY": 6,
		"PrepareMusic": "BattleMusic_Prepare",
		"BattleMusic": "BattleMusic_Knights_Errant",
		"DefendBattleMusic": "BattleMusic_09_Reinforce_of_Enemy_Remake",
		"TurnMax": 15,
		"FastKillTurn": 13,
		"BuffID": [
			48718,
			213
		],
		"AttackPickPositions": [
			{
				"X": 1,
				"Y": 4
			},
			{
				"X": 1,
				"Y": 6
			},
			{
				"X": 2,
				"Y": 4
			},
			{
				"X": 2,
				"Y": 5
			},
			{
				"X": 2,
				"Y": 6
			},
			{
				"X": 0,
				"Y": 4
			},
			{
				"X": 0,
				"Y": 5
			},
			{
				"X": 0,
				"Y": 6
			},
			{
				"X": 2,
				"Y": 2
			},
			{
				"X": 3,
				"Y": 1
			},
			{
				"X": 3,
				"Y": 3
			},
			{
				"X": 4,
				"Y": 2
			},
			{
				"X": 2,
				"Y": 8
			},
			{
				"X": 3,
				"Y": 7
			},
			{
				"X": 3,
				"Y": 9
			},
			{
				"X": 4,
				"Y": 8
			}
		],
		"AttackPickDirs": [
			1,
			1,
			1,
			1,
			1,
			1,
			1,
			1,
			1,
			1,
			1,
			1,
			1,
			1,
			1,
			1
		],
		"AttackPickCount": 8,
		"DefendPickPositions": [
			{
				"X": 10,
				"Y": 4
			},
			{
				"X": 10,
				"Y": 6
			},
			{
				"X": 9,
				"Y": 4
			},
			{
				"X": 9,
				"Y": 5
			},
			{
				"X": 9,
				"Y": 6
			},
			{
				"X": 11,
				"Y": 4
			},
			{
				"X": 11,
				"Y": 5
			},
			{
				"X": 11,
				"Y": 6
			},
			{
				"X": 9,
				"Y": 2
			},
			{
				"X": 8,
				"Y": 1
			},
			{
				"X": 8,
				"Y": 3
			},
			{
				"X": 7,
				"Y": 2
			},
			{
				"X": 9,
				"Y": 8
			},
			{
				"X": 8,
				"Y": 7
			},
			{
				"X": 8,
				"Y": 9
			},
			{
				"X": 7,
				"Y": 8
			}
		],
		"DefendPickDirs": [
			-1,
			-1,
			-1,
			-1,
			-1,
			-1,
			-1,
			-1,
			-1,
			-1,
			-1,
			-1,
			-1,
			-1,
			-1,
			-1
		],
		"DefendPickCount": 8,
		"AttackActors": [
			{
				"X": 1,
				"Y": 5,
				"ID": 40004,
				"Level": 0
			},
			{
				"X": 3,
				"Y": 2,
				"ID": 49998,
				"Level": 0
			},
			{
				"X": 3,
				"Y": 8,
				"ID": 49998,
				"Level": 0
			}
		],
		"AttackDirs": [
			1,
			1,
			1
		],
		"DefendActors": [
			{
				"X": 10,
				"Y": 5,
				"ID": 40005,
				"Level": 0
			},
			{
				"X": 8,
				"Y": 2,
				"ID": 49999,
				"Level": 0
			},
			{
				"X": 8,
				"Y": 8,
				"ID": 49999,
				"Level": 0
			}
		],
		"DefendDirs": [
			-1,
			-1,
			-1
		],
		"MapName": "Mountain Valley Stream",
		"MapImage": "UI/BattleThumbnail_ABS/CastleWar001.png"
	},
	{
		"ID": 3,
		"Name": "Vanguard Battle B",
		"Desc": "PVP1",
		"WinDesc": "Destroy the enemy's Core Demon Tower.",
		"LoseDesc": "Your Core Demon Tower is destroyed.",
		"BattlefieldID": 701,
		"CameraX": 5,
		"CameraY": 6,
		"DefendCameraX": 10,
		"DefendCameraY": 6,
		"PrepareMusic": "BattleMusic_Prepare",
		"BattleMusic": "BattleMusic_Knights_Errant",
		"DefendBattleMusic": "BattleMusic_09_Reinforce_of_Enemy_Remake",
		"TurnMax": 15,
		"FastKillTurn": 13,
		"BuffID": [
			48718,
			213
		],
		"AttackPickPositions": [
			{
				"X": 1,
				"Y": 4
			},
			{
				"X": 1,
				"Y": 6
			},
			{
				"X": 2,
				"Y": 4
			},
			{
				"X": 2,
				"Y": 5
			},
			{
				"X": 2,
				"Y": 6
			},
			{
				"X": 0,
				"Y": 4
			},
			{
				"X": 0,
				"Y": 5
			},
			{
				"X": 0,
				"Y": 6
			},
			{
				"X": 2,
				"Y": 2
			},
			{
				"X": 3,
				"Y": 1
			},
			{
				"X": 3,
				"Y": 3
			},
			{
				"X": 4,
				"Y": 2
			},
			{
				"X": 2,
				"Y": 8
			},
			{
				"X": 3,
				"Y": 7
			},
			{
				"X": 3,
				"Y": 9
			},
			{
				"X": 4,
				"Y": 8
			}
		],
		"AttackPickDirs": [
			1,
			1,
			1,
			1,
			1,
			1,
			1,
			1,
			1,
			1,
			1,
			1,
			1,
			1,
			1,
			1
		],
		"AttackPickCount": 8,
		"DefendPickPositions": [
			{
				"X": 10,
				"Y": 4
			},
			{
				"X": 10,
				"Y": 6
			},
			{
				"X": 9,
				"Y": 4
			},
			{
				"X": 9,
				"Y": 5
			},
			{
				"X": 9,
				"Y": 6
			},
			{
				"X": 11,
				"Y": 4
			},
			{
				"X": 11,
				"Y": 5
			},
			{
				"X": 11,
				"Y": 6
			},
			{
				"X": 9,
				"Y": 2
			},
			{
				"X": 8,
				"Y": 1
			},
			{
				"X": 8,
				"Y": 3
			},
			{
				"X": 7,
				"Y": 2
			},
			{
				"X": 9,
				"Y": 8
			},
			{
				"X": 8,
				"Y": 7
			},
			{
				"X": 8,
				"Y": 9
			},
			{
				"X": 7,
				"Y": 8
			}
		],
		"DefendPickDirs": [
			-1,
			-1,
			-1,
			-1,
			-1,
			-1,
			-1,
			-1,
			-1,
			-1,
			-1,
			-1,
			-1,
			-1,
			-1,
			-1
		],
		"DefendPickCount": 8,
		"AttackActors": [
			{
				"X": 1,
				"Y": 5,
				"ID": 40004,
				"Level": 0
			},
			{
				"X": 3,
				"Y": 2,
				"ID": 49998,
				"Level": 0
			},
			{
				"X": 3,
				"Y": 8,
				"ID": 49998,
				"Level": 0
			}
		],
		"AttackDirs": [
			1,
			1,
			1
		],
		"DefendActors": [
			{
				"X": 10,
				"Y": 5,
				"ID": 40005,
				"Level": 0
			},
			{
				"X": 8,
				"Y": 2,
				"ID": 49999,
				"Level": 0
			},
			{
				"X": 8,
				"Y": 8,
				"ID": 49999,
				"Level": 0
			}
		],
		"DefendDirs": [
			-1,
			-1,
			-1
		],
		"MapName": "Lava Cave",
		"MapImage": "UI/BattleThumbnail_ABS/CastleWar002.png"
	},
	{
		"ID": 4,
		"Name": "Vanguard Battle C",
		"Desc": "PVP1",
		"WinDesc": "Destroy the enemy's Core Demon Tower.",
		"LoseDesc": "Your Core Demon Tower is destroyed.",
		"BattlefieldID": 702,
		"CameraX": 5,
		"CameraY": 6,
		"DefendCameraX": 10,
		"DefendCameraY": 6,
		"PrepareMusic": "BattleMusic_Prepare",
		"BattleMusic": "BattleMusic_Knights_Errant",
		"DefendBattleMusic": "BattleMusic_09_Reinforce_of_Enemy_Remake",
		"TurnMax": 15,
		"FastKillTurn": 13,
		"BuffID": [
			48718,
			213
		],
		"AttackPickPositions": [
			{
				"X": 1,
				"Y": 4
			},
			{
				"X": 1,
				"Y": 6
			},
			{
				"X": 2,
				"Y": 4
			},
			{
				"X": 2,
				"Y": 5
			},
			{
				"X": 2,
				"Y": 6
			},
			{
				"X": 0,
				"Y": 4
			},
			{
				"X": 0,
				"Y": 5
			},
			{
				"X": 0,
				"Y": 6
			},
			{
				"X": 2,
				"Y": 2
			},
			{
				"X": 3,
				"Y": 1
			},
			{
				"X": 3,
				"Y": 3
			},
			{
				"X": 4,
				"Y": 2
			},
			{
				"X": 2,
				"Y": 8
			},
			{
				"X": 3,
				"Y": 7
			},
			{
				"X": 3,
				"Y": 9
			},
			{
				"X": 4,
				"Y": 8
			}
		],
		"AttackPickDirs": [
			1,
			1,
			1,
			1,
			1,
			1,
			1,
			1,
			1,
			1,
			1,
			1,
			1,
			1,
			1,
			1
		],
		"AttackPickCount": 8,
		"DefendPickPositions": [
			{
				"X": 10,
				"Y": 4
			},
			{
				"X": 10,
				"Y": 6
			},
			{
				"X": 9,
				"Y": 4
			},
			{
				"X": 9,
				"Y": 5
			},
			{
				"X": 9,
				"Y": 6
			},
			{
				"X": 11,
				"Y": 4
			},
			{
				"X": 11,
				"Y": 5
			},
			{
				"X": 11,
				"Y": 6
			},
			{
				"X": 9,
				"Y": 2
			},
			{
				"X": 8,
				"Y": 1
			},
			{
				"X": 8,
				"Y": 3
			},
			{
				"X": 7,
				"Y": 2
			},
			{
				"X": 9,
				"Y": 8
			},
			{
				"X": 8,
				"Y": 7
			},
			{
				"X": 8,
				"Y": 9
			},
			{
				"X": 7,
				"Y": 8
			}
		],
		"DefendPickDirs": [
			-1,
			-1,
			-1,
			-1,
			-1,
			-1,
			-1,
			-1,
			-1,
			-1,
			-1,
			-1,
			-1,
			-1,
			-1,
			-1
		],
		"DefendPickCount": 8,
		"AttackActors": [
			{
				"X": 1,
				"Y": 5,
				"ID": 40004,
				"Level": 0
			},
			{
				"X": 3,
				"Y": 2,
				"ID": 49998,
				"Level": 0
			},
			{
				"X": 3,
				"Y": 8,
				"ID": 49998,
				"Level": 0
			}
		],
		"AttackDirs": [
			1,
			1,
			1
		],
		"DefendActors": [
			{
				"X": 10,
				"Y": 5,
				"ID": 40005,
				"Level": 0
			},
			{
				"X": 8,
				"Y": 2,
				"ID": 49999,
				"Level": 0
			},
			{
				"X": 8,
				"Y": 8,
				"ID": 49999,
				"Level": 0
			}
		],
		"DefendDirs": [
			-1,
			-1,
			-1
		],
		"MapName": "Majestic Palace",
		"MapImage": "UI/BattleThumbnail_ABS/CastleWar003.png"
	}
]