[
	{
		"ID": 1,
		"Desc": "Bond Lv. 25",
		"FetterLevelList": [
			{
				"FetterSortId": 1,
				"FetterLv": 1
			}
		],
		"FetterHeartLevel": 0
	},
	{
		"ID": 2,
		"Desc": "Bond Lv. 30",
		"FetterLevelList": [
			{
				"FetterSortId": 1,
				"FetterLv": 3
			}
		],
		"FetterHeartLevel": 0
	},
	{
		"ID": 3,
		"Desc": "Bond Lv. 35",
		"FetterLevelList": [
			{
				"FetterSortId": 1,
				"FetterLv": 6
			},
			{
				"FetterSortId": 2,
				"FetterLv": 1
			}
		],
		"FetterHeartLevel": 0
	},
	{
		"ID": 4,
		"Desc": "Bond Lv. 40",
		"FetterLevelList": [
			{
				"FetterSortId": 1,
				"FetterLv": 7
			},
			{
				"FetterSortId": 2,
				"FetterLv": 3
			},
			{
				"FetterSortId": 3,
				"FetterLv": 1
			}
		],
		"FetterHeartLevel": 0
	},
	{
		"ID": 5,
		"Desc": "Bond Lv. 45",
		"FetterLevelList": [
			{
				"FetterSortId": 1,
				"FetterLv": 9
			},
			{
				"FetterSortId": 2,
				"FetterLv": 5
			},
			{
				"FetterSortId": 3,
				"FetterLv": 3
			}
		],
		"FetterHeartLevel": 0
	},
	{
		"ID": 6,
		"Desc": "Bond Lv. 50",
		"FetterLevelList": [
			{
				"FetterSortId": 1,
				"FetterLv": 10
			},
			{
				"FetterSortId": 2,
				"FetterLv": 8
			},
			{
				"FetterSortId": 3,
				"FetterLv": 5
			},
			{
				"FetterSortId": 4,
				"FetterLv": 1
			},
			{
				"FetterSortId": 5,
				"FetterLv": 1
			}
		],
		"FetterHeartLevel": 0
	},
	{
		"ID": 7,
		"Desc": "Bond Lv. 55",
		"FetterLevelList": [
			{
				"FetterSortId": 1,
				"FetterLv": 10
			},
			{
				"FetterSortId": 2,
				"FetterLv": 9
			},
			{
				"FetterSortId": 3,
				"FetterLv": 6
			},
			{
				"FetterSortId": 4,
				"FetterLv": 2
			},
			{
				"FetterSortId": 5,
				"FetterLv": 1
			}
		],
		"FetterHeartLevel": 0
	},
	{
		"ID": 8,
		"Desc": "Bond Lv. 60",
		"FetterLevelList": [
			{
				"FetterSortId": 1,
				"FetterLv": 10
			},
			{
				"FetterSortId": 2,
				"FetterLv": 10
			},
			{
				"FetterSortId": 3,
				"FetterLv": 10
			},
			{
				"FetterSortId": 4,
				"FetterLv": 2
			},
			{
				"FetterSortId": 5,
				"FetterLv": 3
			}
		],
		"FetterHeartLevel": 3
	},
	{
		"ID": 9,
		"Desc": "Bond Lv. 65",
		"FetterLevelList": [
			{
				"FetterSortId": 1,
				"FetterLv": 10
			},
			{
				"FetterSortId": 2,
				"FetterLv": 10
			},
			{
				"FetterSortId": 3,
				"FetterLv": 10
			},
			{
				"FetterSortId": 4,
				"FetterLv": 3
			},
			{
				"FetterSortId": 5,
				"FetterLv": 5
			}
		],
		"FetterHeartLevel": 5
	},
	{
		"ID": 10,
		"Desc": "Bond Lv. 70",
		"FetterLevelList": [
			{
				"FetterSortId": 1,
				"FetterLv": 10
			},
			{
				"FetterSortId": 2,
				"FetterLv": 10
			},
			{
				"FetterSortId": 3,
				"FetterLv": 10
			},
			{
				"FetterSortId": 4,
				"FetterLv": 7
			},
			{
				"FetterSortId": 5,
				"FetterLv": 7
			}
		],
		"FetterHeartLevel": 7
	},
	{
		"ID": 11,
		"Desc": "Bond Lv. 70 (Advanced)",
		"FetterLevelList": [
			{
				"FetterSortId": 1,
				"FetterLv": 10
			},
			{
				"FetterSortId": 2,
				"FetterLv": 10
			},
			{
				"FetterSortId": 3,
				"FetterLv": 10
			},
			{
				"FetterSortId": 4,
				"FetterLv": 9
			},
			{
				"FetterSortId": 5,
				"FetterLv": 9
			}
		],
		"FetterHeartLevel": 10
	}
]