[
	{
		"ID": 1,
		"Chapter": "Chapter 1",
		"Name": "Prologue",
		"Desc": "",
		"WaypointID": 1,
		"NextScenarioID": 2,
		"MonsterLevel": 1,
		"BattleID": 101,
		"DialogBeforeID": 10001,
		"DialogAfterID": 19001,
		"PlayerExpReward": 10,
		"HeroExpReward": 20,
		"GoldReward": 123,
		"EnergySuccess": 10,
		"EnergyFail": 1,
		"FirstReward": [
			{
				"GoodsType": "GoodsType_Crystal",
				"Id": 0,
				"Count": 30
			},
			{
				"GoodsType": "GoodsType_Gold",
				"Id": 0,
				"Count": 200
			},
			{
				"GoodsType": "GoodsType_Item",
				"Id": 3002,
				"Count": 1
			}
		],
		"DropID": 101,
		"Achievement1ID": 0,
		"Achievement2ID": 0,
		"Achievement3ID": 0,
		"Strategy": "The first stage of the adventure will teach you about battle. Our formation consists of Infantry Matthew, Lancer Grenier and Holy Almeda. This stage requires a good understanding of the class priority relationship between Infantry and Lancers, focusing on Matthew as your main force. As a support class, Almeda can supply Matthew with sufficient healing. Blessed with relatively high DEF, Lancer Grenier can face the enemy forces alone. As long as we destroy the enemy on the left side, we will win the battle.",
		"IsOpened": true,
		"TreeNode": 0,
		"TreeDialogID": 0,
		"MapImage": "",
		"TreeMemoryAge": "TreeMemoryAgeType_None",
		"TreeMemoryImage": ""
	},
	{
		"ID": 2,
		"Chapter": "Chapter 2",
		"Name": "Iconoclastic Mage",
		"Desc": "",
		"WaypointID": 5,
		"NextScenarioID": 3,
		"MonsterLevel": 3,
		"BattleID": 104,
		"DialogBeforeID": 22001,
		"DialogAfterID": 0,
		"PlayerExpReward": 10,
		"HeroExpReward": 30,
		"GoldReward": 133,
		"EnergySuccess": 10,
		"EnergyFail": 1,
		"FirstReward": [
			{
				"GoodsType": "GoodsType_Crystal",
				"Id": 0,
				"Count": 30
			},
			{
				"GoodsType": "GoodsType_Item",
				"Id": 4001,
				"Count": 1
			},
			{
				"GoodsType": "GoodsType_Gold",
				"Id": 0,
				"Count": 500
			},
			{
				"GoodsType": "GoodsType_Item",
				"Id": 4000,
				"Count": 1
			}
		],
		"DropID": 102,
		"Achievement1ID": 0,
		"Achievement2ID": 0,
		"Achievement3ID": 0,
		"Strategy": "Although this stage's objective is to protect Angelica, the enemy will not attack her. Beware: The enemy's Infantry will suppress Grenier. Don't forget to take the chest!",
		"IsOpened": true,
		"TreeNode": 0,
		"TreeDialogID": 0,
		"MapImage": "",
		"TreeMemoryAge": "TreeMemoryAgeType_None",
		"TreeMemoryImage": ""
	},
	{
		"ID": 3,
		"Chapter": "Chapter 3",
		"Name": "A Wanted Trio",
		"Desc": "",
		"WaypointID": 9,
		"NextScenarioID": 4,
		"MonsterLevel": 3,
		"BattleID": 106,
		"DialogBeforeID": 30001,
		"DialogAfterID": 39001,
		"PlayerExpReward": 10,
		"HeroExpReward": 30,
		"GoldReward": 133,
		"EnergySuccess": 10,
		"EnergyFail": 1,
		"FirstReward": [
			{
				"GoodsType": "GoodsType_Crystal",
				"Id": 0,
				"Count": 30
			},
			{
				"GoodsType": "GoodsType_Equipment",
				"Id": 9,
				"Count": 1
			},
			{
				"GoodsType": "GoodsType_Equipment",
				"Id": 33,
				"Count": 1
			},
			{
				"GoodsType": "GoodsType_Equipment",
				"Id": 41,
				"Count": 1
			},
			{
				"GoodsType": "GoodsType_Equipment",
				"Id": 9,
				"Count": 1
			}
		],
		"DropID": 103,
		"Achievement1ID": 0,
		"Achievement2ID": 0,
		"Achievement3ID": 0,
		"Strategy": "In this stage, you need to survive for five rounds. Use the top left as a defensive position. The enemy has an Infantry, Lancer, and Cavalry, so take advantage of the class priority relationships! Enemy reinforcements arrive after the second turn, resulting in 12 enemies total. Protect the healer and ensure the team's survival.",
		"IsOpened": true,
		"TreeNode": 0,
		"TreeDialogID": 0,
		"MapImage": "",
		"TreeMemoryAge": "TreeMemoryAgeType_None",
		"TreeMemoryImage": ""
	},
	{
		"ID": 4,
		"Chapter": "Chapter 4",
		"Name": "Mightiest Knight",
		"Desc": "",
		"WaypointID": 12,
		"NextScenarioID": 5,
		"MonsterLevel": 6,
		"BattleID": 107,
		"DialogBeforeID": 40001,
		"DialogAfterID": 49001,
		"PlayerExpReward": 12,
		"HeroExpReward": 38,
		"GoldReward": 188,
		"EnergySuccess": 12,
		"EnergyFail": 2,
		"FirstReward": [
			{
				"GoodsType": "GoodsType_Crystal",
				"Id": 0,
				"Count": 30
			},
			{
				"GoodsType": "GoodsType_Equipment",
				"Id": 54,
				"Count": 1
			},
			{
				"GoodsType": "GoodsType_Equipment",
				"Id": 55,
				"Count": 1
			},
			{
				"GoodsType": "GoodsType_Item",
				"Id": 3002,
				"Count": 3
			}
		],
		"DropID": 104,
		"Achievement1ID": 0,
		"Achievement2ID": 0,
		"Achievement3ID": 0,
		"Strategy": "When Leon's HP falls below 50%, you will win the stage. The enemy is a combination of Infantry and Cavalry, so use a Lancer against Leon and eliminate the Infantry with your other units. In addition, there's a strange fruit tree on the map. It's likely to be a hidden chest! In future stages, you might discover other strange items...",
		"IsOpened": true,
		"TreeNode": 0,
		"TreeDialogID": 0,
		"MapImage": "",
		"TreeMemoryAge": "TreeMemoryAgeType_None",
		"TreeMemoryImage": ""
	},
	{
		"ID": 5,
		"Chapter": "Chapter 5",
		"Name": "Trial of Courage",
		"Desc": "",
		"WaypointID": 17,
		"NextScenarioID": 6,
		"MonsterLevel": 9,
		"BattleID": 108,
		"DialogBeforeID": 50001,
		"DialogAfterID": 59001,
		"UnlockCondition": [
			{
				"ConditionType": "ScenarioUnlockConditionType_RiftLevel",
				"Param": 104
			}
		],
		"PlayerExpReward": 12,
		"HeroExpReward": 41,
		"GoldReward": 226,
		"EnergySuccess": 12,
		"EnergyFail": 2,
		"FirstReward": [
			{
				"GoodsType": "GoodsType_Crystal",
				"Id": 0,
				"Count": 30
			},
			{
				"GoodsType": "GoodsType_Equipment",
				"Id": 34,
				"Count": 1
			},
			{
				"GoodsType": "GoodsType_Item",
				"Id": 1003,
				"Count": 20
			},
			{
				"GoodsType": "GoodsType_Item",
				"Id": 3002,
				"Count": 3
			}
		],
		"DropID": 105,
		"Achievement1ID": 0,
		"Achievement2ID": 0,
		"Achievement3ID": 0,
		"Strategy": "The starting formation is Lancer on the left, and Demon and Flier on the right. There should be no problem organizing your classes based on their priority relationships. The enemy will receive reinforcements in the third round. The real difficulty will come after defeating the Demon, as Elwin's trio will emerge from below. This group comprises of an Infantry, Mage, and Holy unit. If you fail to prepare adequately, and your heroes are not of a high enough level, this will be a very difficult battle. Make sure you're ready!",
		"IsOpened": true,
		"TreeNode": 0,
		"TreeDialogID": 0,
		"MapImage": "",
		"TreeMemoryAge": "TreeMemoryAgeType_None",
		"TreeMemoryImage": ""
	},
	{
		"ID": 6,
		"Chapter": "Chapter 6",
		"Name": "Help Me...",
		"Desc": "",
		"WaypointID": 17,
		"NextScenarioID": 7,
		"MonsterLevel": 10,
		"BattleID": 0,
		"DialogBeforeID": 60001,
		"DialogAfterID": 0,
		"PlayerExpReward": 0,
		"HeroExpReward": 0,
		"GoldReward": 0,
		"EnergySuccess": 0,
		"EnergyFail": 0,
		"FirstReward": [
			{
				"GoodsType": "GoodsType_Item",
				"Id": 1004,
				"Count": 20
			}
		],
		"DropID": 0,
		"Achievement1ID": 0,
		"Achievement2ID": 0,
		"Achievement3ID": 0,
		"Strategy": "",
		"IsOpened": true,
		"TreeNode": 0,
		"TreeDialogID": 0,
		"MapImage": "",
		"TreeMemoryAge": "TreeMemoryAgeType_None",
		"TreeMemoryImage": ""
	},
	{
		"ID": 7,
		"Chapter": "Chapter 7",
		"Name": "Secret... Realm!?",
		"Desc": "",
		"WaypointID": 21,
		"NextScenarioID": 8,
		"MonsterLevel": 12,
		"BattleID": 109,
		"DialogBeforeID": 70001,
		"DialogAfterID": 0,
		"UnlockCondition": [
			{
				"ConditionType": "ScenarioUnlockConditionType_RiftLevel",
				"Param": 107
			}
		],
		"PlayerExpReward": 12,
		"HeroExpReward": 43,
		"GoldReward": 284,
		"EnergySuccess": 12,
		"EnergyFail": 2,
		"FirstReward": [
			{
				"GoodsType": "GoodsType_Crystal",
				"Id": 0,
				"Count": 30
			},
			{
				"GoodsType": "GoodsType_Item",
				"Id": 6001,
				"Count": 1
			},
			{
				"GoodsType": "GoodsType_Equipment",
				"Id": 83,
				"Count": 1
			},
			{
				"GoodsType": "GoodsType_Item",
				"Id": 3002,
				"Count": 5
			}
		],
		"DropID": 107,
		"Achievement1ID": 0,
		"Achievement2ID": 0,
		"Achievement3ID": 0,
		"Strategy": "In this stage, you'll face a famous enemy from the Langrisser series - Aniki! As the boss of the stage, Aniki has high power and can cast buffs on your enemies. Eliminate the rest of the enemy forces before concentrating on Aniki. He's an Infantry type, so use a Cavalry hero to suppress him!",
		"IsOpened": true,
		"TreeNode": 0,
		"TreeDialogID": 0,
		"MapImage": "",
		"TreeMemoryAge": "TreeMemoryAgeType_None",
		"TreeMemoryImage": ""
	},
	{
		"ID": 8,
		"Chapter": "Chapter 8",
		"Name": "A Dangerous Request",
		"Desc": "",
		"WaypointID": 24,
		"NextScenarioID": 9,
		"MonsterLevel": 13,
		"BattleID": 110,
		"DialogBeforeID": 80001,
		"DialogAfterID": 89001,
		"UnlockCondition": [
			{
				"ConditionType": "ScenarioUnlockConditionType_RiftLevel",
				"Param": 110
			}
		],
		"PlayerExpReward": 14,
		"HeroExpReward": 52,
		"GoldReward": 371,
		"EnergySuccess": 14,
		"EnergyFail": 2,
		"FirstReward": [
			{
				"GoodsType": "GoodsType_Crystal",
				"Id": 0,
				"Count": 30
			},
			{
				"GoodsType": "GoodsType_Equipment",
				"Id": 50,
				"Count": 1
			},
			{
				"GoodsType": "GoodsType_JobMaterial",
				"Id": 1,
				"Count": 2
			},
			{
				"GoodsType": "GoodsType_Equipment",
				"Id": 301,
				"Count": 3
			}
		],
		"DropID": 108,
		"Achievement1ID": 0,
		"Achievement2ID": 0,
		"Achievement3ID": 0,
		"Strategy": "On the left side, there's a Cavalry formation with three wolves. The top right hosts Demon skeletons, easily defeated by a Lancer and a Holy unit. Attack the enemy Fliers in the top right last.",
		"IsOpened": true,
		"TreeNode": 0,
		"TreeDialogID": 0,
		"MapImage": "",
		"TreeMemoryAge": "TreeMemoryAgeType_None",
		"TreeMemoryImage": ""
	},
	{
		"ID": 9,
		"Chapter": "Chapter 9",
		"Name": "Demonic Bloodline",
		"Desc": "",
		"WaypointID": 26,
		"NextScenarioID": 10,
		"MonsterLevel": 16,
		"BattleID": 112,
		"DialogBeforeID": 90001,
		"DialogAfterID": 99001,
		"UnlockCondition": [
			{
				"ConditionType": "ScenarioUnlockConditionType_RiftLevel",
				"Param": 113
			}
		],
		"PlayerExpReward": 14,
		"HeroExpReward": 52,
		"GoldReward": 392,
		"EnergySuccess": 14,
		"EnergyFail": 2,
		"FirstReward": [
			{
				"GoodsType": "GoodsType_Crystal",
				"Id": 0,
				"Count": 30
			},
			{
				"GoodsType": "GoodsType_Gold",
				"Id": 0,
				"Count": 3000
			},
			{
				"GoodsType": "GoodsType_Equipment",
				"Id": 55,
				"Count": 1
			},
			{
				"GoodsType": "GoodsType_Equipment",
				"Id": 301,
				"Count": 3
			}
		],
		"DropID": 109,
		"Achievement1ID": 0,
		"Achievement2ID": 0,
		"Achievement3ID": 0,
		"Strategy": "A Lancer is a must to fight the large number of Demons and Cavalry! The chest on the other side of the river can be taken with a Flier. The boss, Sonya, is also a Cavalry unit, quickly beaten by a Lancer. Be careful of distance - Sonya has a debuff with a range of 3 blocks.",
		"IsOpened": true,
		"TreeNode": 0,
		"TreeDialogID": 0,
		"MapImage": "",
		"TreeMemoryAge": "TreeMemoryAgeType_None",
		"TreeMemoryImage": ""
	},
	{
		"ID": 10,
		"Chapter": "Chapter 10",
		"Name": "Union Mercenaries",
		"Desc": "",
		"WaypointID": 17,
		"NextScenarioID": 11,
		"MonsterLevel": 18,
		"BattleID": 113,
		"DialogBeforeID": 100001,
		"DialogAfterID": 109001,
		"UnlockCondition": [
			{
				"ConditionType": "ScenarioUnlockConditionType_RiftLevel",
				"Param": 119
			}
		],
		"PlayerExpReward": 14,
		"HeroExpReward": 53,
		"GoldReward": 435,
		"EnergySuccess": 14,
		"EnergyFail": 2,
		"FirstReward": [
			{
				"GoodsType": "GoodsType_Crystal",
				"Id": 0,
				"Count": 30
			},
			{
				"GoodsType": "GoodsType_Equipment",
				"Id": 91,
				"Count": 1
			},
			{
				"GoodsType": "GoodsType_JobMaterial",
				"Id": 3,
				"Count": 2
			},
			{
				"GoodsType": "GoodsType_Item",
				"Id": 3003,
				"Count": 2
			}
		],
		"DropID": 110,
		"Achievement1ID": 0,
		"Achievement2ID": 0,
		"Achievement3ID": 0,
		"Strategy": "Cavalry and Archers are tricky without a Lancer hero! Lure the enemy Lancer closer in the first round and destroy the enemy Archers afterwards. Do you see the strange Rune Stone Tablet on the right side of the river? Think of fruit trees...",
		"IsOpened": true,
		"TreeNode": 0,
		"TreeDialogID": 0,
		"MapImage": "",
		"TreeMemoryAge": "TreeMemoryAgeType_None",
		"TreeMemoryImage": ""
	},
	{
		"ID": 11,
		"Chapter": "Chapter 11",
		"Name": "Smoke Signals",
		"Desc": "",
		"WaypointID": 1,
		"NextScenarioID": 12,
		"MonsterLevel": 19,
		"BattleID": 114,
		"DialogBeforeID": 0,
		"DialogAfterID": 119001,
		"UnlockCondition": [
			{
				"ConditionType": "ScenarioUnlockConditionType_PlayerLevel",
				"Param": 18
			}
		],
		"PlayerExpReward": 14,
		"HeroExpReward": 55,
		"GoldReward": 458,
		"EnergySuccess": 14,
		"EnergyFail": 2,
		"FirstReward": [
			{
				"GoodsType": "GoodsType_Crystal",
				"Id": 0,
				"Count": 30
			},
			{
				"GoodsType": "GoodsType_JobMaterial",
				"Id": 7,
				"Count": 1
			},
			{
				"GoodsType": "GoodsType_Equipment",
				"Id": 10,
				"Count": 1
			},
			{
				"GoodsType": "GoodsType_Item",
				"Id": 3002,
				"Count": 6
			}
		],
		"DropID": 111,
		"Achievement1ID": 0,
		"Achievement2ID": 0,
		"Achievement3ID": 0,
		"Strategy": "During this level, remember to protect the villagers and the village elder as they escape from the left side of the map. With regards to the enemy lineup, there are two groups of Infantry on the left, and a Lancer and ranged Cavalry on the right. Choose how to set up your units based on the types of enemies you face. In the third round, the enemy will be reinforced on the right by three groups of Fliers. Be careful not to let your weaker units enter their attack range.",
		"IsOpened": true,
		"TreeNode": 0,
		"TreeDialogID": 0,
		"MapImage": "",
		"TreeMemoryAge": "TreeMemoryAgeType_None",
		"TreeMemoryImage": ""
	},
	{
		"ID": 12,
		"Chapter": "Chapter 12",
		"Name": "Draconic Shadow",
		"Desc": "",
		"WaypointID": 43,
		"NextScenarioID": 13,
		"MonsterLevel": 19,
		"BattleID": 119,
		"DialogBeforeID": 160001,
		"DialogAfterID": 169001,
		"UnlockCondition": [
			{
				"ConditionType": "ScenarioUnlockConditionType_PlayerLevel",
				"Param": 20
			}
		],
		"PlayerExpReward": 15,
		"HeroExpReward": 60,
		"GoldReward": 516,
		"EnergySuccess": 15,
		"EnergyFail": 3,
		"FirstReward": [
			{
				"GoodsType": "GoodsType_Crystal",
				"Id": 0,
				"Count": 30
			},
			{
				"GoodsType": "GoodsType_Equipment",
				"Id": 58,
				"Count": 1
			},
			{
				"GoodsType": "GoodsType_Equipment",
				"Id": 56,
				"Count": 1
			},
			{
				"GoodsType": "GoodsType_Equipment",
				"Id": 301,
				"Count": 4
			}
		],
		"DropID": 112,
		"Achievement1ID": 0,
		"Achievement2ID": 0,
		"Achievement3ID": 0,
		"Strategy": "The enemy has lots of slimes and a huge scarlet demon dragon! Be ready for this challenge. The dragon has the [Dragon Fire] skill, which attacks single targets, the skill [Dragon Breath] that covers 4 blocks, and the debuff [Dragon Roar] that will affect everyone. The demon dragon also has the inherited skill [Legendary Dragon] that can not only add a [Tremble] effect to enemies within 3 blocks, but also be immune to a large number of debuffs.",
		"IsOpened": true,
		"TreeNode": 0,
		"TreeDialogID": 0,
		"MapImage": "",
		"TreeMemoryAge": "TreeMemoryAgeType_None",
		"TreeMemoryImage": ""
	},
	{
		"ID": 13,
		"Chapter": "Chapter 13",
		"Name": "Dream of Flying",
		"Desc": "",
		"WaypointID": 17,
		"NextScenarioID": 14,
		"MonsterLevel": 22,
		"BattleID": 115,
		"DialogBeforeID": 120001,
		"DialogAfterID": 129001,
		"UnlockCondition": [
			{
				"ConditionType": "ScenarioUnlockConditionType_PlayerLevel",
				"Param": 22
			}
		],
		"PlayerExpReward": 15,
		"HeroExpReward": 63,
		"GoldReward": 567,
		"EnergySuccess": 15,
		"EnergyFail": 3,
		"FirstReward": [
			{
				"GoodsType": "GoodsType_Crystal",
				"Id": 0,
				"Count": 30
			},
			{
				"GoodsType": "GoodsType_Item",
				"Id": 4001,
				"Count": 1
			},
			{
				"GoodsType": "GoodsType_JobMaterial",
				"Id": 8,
				"Count": 1
			},
			{
				"GoodsType": "GoodsType_Item",
				"Id": 4009,
				"Count": 1
			},
			{
				"GoodsType": "GoodsType_Item",
				"Id": 3003,
				"Count": 2
			}
		],
		"DropID": 113,
		"Achievement1ID": 0,
		"Achievement2ID": 0,
		"Achievement3ID": 0,
		"Strategy": "McAvoy's mercenaries have brought numerous Archers and Cavalry to this stage. In order to hold on for 8 turns, a Lancer with good recovery who can resist a lot of damage is essential. Take advantage of the 30% defensive bonus provided by the ramparts and get ready for battle!",
		"IsOpened": true,
		"TreeNode": 0,
		"TreeDialogID": 0,
		"MapImage": "",
		"TreeMemoryAge": "TreeMemoryAgeType_None",
		"TreeMemoryImage": ""
	},
	{
		"ID": 14,
		"Chapter": "Chapter 14",
		"Name": "Tough Choices",
		"Desc": "",
		"WaypointID": 17,
		"NextScenarioID": 15,
		"MonsterLevel": 23,
		"BattleID": 0,
		"DialogBeforeID": 130001,
		"DialogAfterID": 0,
		"UnlockCondition": [
			{
				"ConditionType": "ScenarioUnlockConditionType_PlayerLevel",
				"Param": 23
			}
		],
		"PlayerExpReward": 0,
		"HeroExpReward": 0,
		"GoldReward": 0,
		"EnergySuccess": 0,
		"EnergyFail": 0,
		"FirstReward": [
			{
				"GoodsType": "GoodsType_Item",
				"Id": 3113,
				"Count": 1
			},
			{
				"GoodsType": "GoodsType_Item",
				"Id": 3115,
				"Count": 1
			},
			{
				"GoodsType": "GoodsType_Item",
				"Id": 3117,
				"Count": 1
			}
		],
		"DropID": 0,
		"Achievement1ID": 0,
		"Achievement2ID": 0,
		"Achievement3ID": 0,
		"Strategy": "",
		"IsOpened": true,
		"TreeNode": 0,
		"TreeDialogID": 0,
		"MapImage": "",
		"TreeMemoryAge": "TreeMemoryAgeType_None",
		"TreeMemoryImage": ""
	},
	{
		"ID": 15,
		"Chapter": "Chapter 15",
		"Name": "Bloodstained Siege",
		"Desc": "",
		"WaypointID": 35,
		"NextScenarioID": 16,
		"MonsterLevel": 25,
		"BattleID": 116,
		"DialogBeforeID": 0,
		"DialogAfterID": 149001,
		"UnlockCondition": [
			{
				"ConditionType": "ScenarioUnlockConditionType_PlayerLevel",
				"Param": 25
			}
		],
		"PlayerExpReward": 15,
		"HeroExpReward": 68,
		"GoldReward": 650,
		"EnergySuccess": 15,
		"EnergyFail": 3,
		"FirstReward": [
			{
				"GoodsType": "GoodsType_Crystal",
				"Id": 0,
				"Count": 30
			},
			{
				"GoodsType": "GoodsType_Equipment",
				"Id": 300,
				"Count": 1
			},
			{
				"GoodsType": "GoodsType_EnchantStone",
				"Id": 3,
				"Count": 2
			},
			{
				"GoodsType": "GoodsType_EnchantStone",
				"Id": 11,
				"Count": 2
			},
			{
				"GoodsType": "GoodsType_EnchantStone",
				"Id": 8,
				"Count": 2
			}
		],
		"DropID": 115,
		"Achievement1ID": 0,
		"Achievement2ID": 0,
		"Achievement3ID": 0,
		"Strategy": "In this stage, we need to protect McAvoy. The enemy team is mainly formed of Demons, Cavalry, and Fliers. Bring in a healer. Don't engage the Demon Knight for too long. If you enter his attack range, his alpha damage will be very scary!",
		"IsOpened": true,
		"TreeNode": 0,
		"TreeDialogID": 0,
		"MapImage": "",
		"TreeMemoryAge": "TreeMemoryAgeType_None",
		"TreeMemoryImage": ""
	},
	{
		"ID": 16,
		"Chapter": "Chapter 16",
		"Name": "Demon-Eyed Girl",
		"Desc": "",
		"WaypointID": 39,
		"NextScenarioID": 17,
		"MonsterLevel": 27,
		"BattleID": 118,
		"DialogBeforeID": 150001,
		"DialogAfterID": 159010,
		"UnlockCondition": [
			{
				"ConditionType": "ScenarioUnlockConditionType_PlayerLevel",
				"Param": 27
			}
		],
		"PlayerExpReward": 15,
		"HeroExpReward": 71,
		"GoldReward": 707,
		"EnergySuccess": 15,
		"EnergyFail": 3,
		"FirstReward": [
			{
				"GoodsType": "GoodsType_Crystal",
				"Id": 0,
				"Count": 30
			},
			{
				"GoodsType": "GoodsType_Item",
				"Id": 4000,
				"Count": 2
			},
			{
				"GoodsType": "GoodsType_Gold",
				"Id": 0,
				"Count": 5000
			},
			{
				"GoodsType": "GoodsType_Item",
				"Id": 3003,
				"Count": 3
			}
		],
		"DropID": 116,
		"Achievement1ID": 0,
		"Achievement2ID": 0,
		"Achievement3ID": 0,
		"Strategy": "You're fighting alongside Zerida in this stage, so only one person is allowed in the formation. The enemy's formation consists of Fliers and Cavalry on the left, and Demons and Aquatic units on the right. Zerida's default action is to attack the enemy on the left. You can use a hero that has high DEF and HP to power through, or you can use a support hero to restore Zerida's HP until she destroys the enemy.",
		"IsOpened": true,
		"TreeNode": 0,
		"TreeDialogID": 0,
		"MapImage": "",
		"TreeMemoryAge": "TreeMemoryAgeType_None",
		"TreeMemoryImage": ""
	},
	{
		"ID": 17,
		"Chapter": "Chapter 17",
		"Name": "Northern Bloodshed",
		"Desc": "",
		"WaypointID": 46,
		"NextScenarioID": 18,
		"MonsterLevel": 29,
		"BattleID": 120,
		"DialogBeforeID": 170001,
		"DialogAfterID": 179001,
		"UnlockCondition": [
			{
				"ConditionType": "ScenarioUnlockConditionType_PlayerLevel",
				"Param": 29
			}
		],
		"PlayerExpReward": 15,
		"HeroExpReward": 75,
		"GoldReward": 797,
		"EnergySuccess": 15,
		"EnergyFail": 3,
		"FirstReward": [
			{
				"GoodsType": "GoodsType_Crystal",
				"Id": 0,
				"Count": 30
			},
			{
				"GoodsType": "GoodsType_Equipment",
				"Id": 43,
				"Count": 1
			},
			{
				"GoodsType": "GoodsType_Item",
				"Id": 4001,
				"Count": 1
			},
			{
				"GoodsType": "GoodsType_Item",
				"Id": 3003,
				"Count": 3
			}
		],
		"DropID": 117,
		"Achievement1ID": 0,
		"Achievement2ID": 0,
		"Achievement3ID": 0,
		"Strategy": "",
		"IsOpened": true,
		"TreeNode": 0,
		"TreeDialogID": 0,
		"MapImage": "",
		"TreeMemoryAge": "TreeMemoryAgeType_None",
		"TreeMemoryImage": ""
	},
	{
		"ID": 18,
		"Chapter": "Chapter 18",
		"Name": "Trial of Choice",
		"Desc": "",
		"WaypointID": 49,
		"NextScenarioID": 19,
		"MonsterLevel": 31,
		"BattleID": 121,
		"DialogBeforeID": 180001,
		"DialogAfterID": 189001,
		"UnlockCondition": [
			{
				"ConditionType": "ScenarioUnlockConditionType_PlayerLevel",
				"Param": 31
			}
		],
		"PlayerExpReward": 15,
		"HeroExpReward": 78,
		"GoldReward": 860,
		"EnergySuccess": 15,
		"EnergyFail": 3,
		"FirstReward": [
			{
				"GoodsType": "GoodsType_Crystal",
				"Id": 0,
				"Count": 30
			},
			{
				"GoodsType": "GoodsType_JobMaterial",
				"Id": 48,
				"Count": 1
			},
			{
				"GoodsType": "GoodsType_JobMaterial",
				"Id": 41,
				"Count": 2
			},
			{
				"GoodsType": "GoodsType_Item",
				"Id": 3003,
				"Count": 3
			}
		],
		"DropID": 118,
		"Achievement1ID": 0,
		"Achievement2ID": 0,
		"Achievement3ID": 0,
		"Strategy": "",
		"IsOpened": true,
		"TreeNode": 0,
		"TreeDialogID": 0,
		"MapImage": "",
		"TreeMemoryAge": "TreeMemoryAgeType_None",
		"TreeMemoryImage": ""
	},
	{
		"ID": 19,
		"Chapter": "Chapter 19",
		"Name": "Ashes to Ashes",
		"Desc": "",
		"WaypointID": 53,
		"NextScenarioID": 20,
		"MonsterLevel": 33,
		"BattleID": 123,
		"DialogBeforeID": 190001,
		"DialogAfterID": 199001,
		"UnlockCondition": [
			{
				"ConditionType": "ScenarioUnlockConditionType_PlayerLevel",
				"Param": 33
			}
		],
		"PlayerExpReward": 15,
		"HeroExpReward": 83,
		"GoldReward": 957,
		"EnergySuccess": 15,
		"EnergyFail": 3,
		"FirstReward": [
			{
				"GoodsType": "GoodsType_Crystal",
				"Id": 0,
				"Count": 30
			},
			{
				"GoodsType": "GoodsType_JobMaterial",
				"Id": 50,
				"Count": 1
			},
			{
				"GoodsType": "GoodsType_Equipment",
				"Id": 29,
				"Count": 1
			},
			{
				"GoodsType": "GoodsType_Item",
				"Id": 3003,
				"Count": 3
			}
		],
		"DropID": 119,
		"Achievement1ID": 0,
		"Achievement2ID": 0,
		"Achievement3ID": 0,
		"Strategy": "",
		"IsOpened": true,
		"TreeNode": 0,
		"TreeDialogID": 0,
		"MapImage": "",
		"TreeMemoryAge": "TreeMemoryAgeType_None",
		"TreeMemoryImage": ""
	},
	{
		"ID": 20,
		"Chapter": "Chapter 20",
		"Name": "Counterattack Horn",
		"Desc": "",
		"WaypointID": 82,
		"NextScenarioID": 21,
		"MonsterLevel": 35,
		"BattleID": 124,
		"DialogBeforeID": 200001,
		"DialogAfterID": 0,
		"UnlockCondition": [
			{
				"ConditionType": "ScenarioUnlockConditionType_PlayerLevel",
				"Param": 35
			}
		],
		"PlayerExpReward": 15,
		"HeroExpReward": 84,
		"GoldReward": 990,
		"EnergySuccess": 15,
		"EnergyFail": 3,
		"FirstReward": [
			{
				"GoodsType": "GoodsType_Crystal",
				"Id": 0,
				"Count": 30
			},
			{
				"GoodsType": "GoodsType_JobMaterial",
				"Id": 49,
				"Count": 2
			},
			{
				"GoodsType": "GoodsType_Equipment",
				"Id": 65,
				"Count": 1
			},
			{
				"GoodsType": "GoodsType_Item",
				"Id": 3003,
				"Count": 4
			}
		],
		"DropID": 120,
		"Achievement1ID": 0,
		"Achievement2ID": 0,
		"Achievement3ID": 0,
		"Strategy": "",
		"IsOpened": true,
		"TreeNode": 0,
		"TreeDialogID": 0,
		"MapImage": "",
		"TreeMemoryAge": "TreeMemoryAgeType_None",
		"TreeMemoryImage": ""
	},
	{
		"ID": 21,
		"Chapter": "Chapter 21",
		"Name": "The Deceiver's End",
		"Desc": "",
		"WaypointID": 82,
		"NextScenarioID": 22,
		"MonsterLevel": 36,
		"BattleID": 125,
		"DialogBeforeID": 201001,
		"DialogAfterID": 201901,
		"UnlockCondition": [
			{
				"ConditionType": "ScenarioUnlockConditionType_PlayerLevel",
				"Param": 36
			}
		],
		"PlayerExpReward": 15,
		"HeroExpReward": 86,
		"GoldReward": 1025,
		"EnergySuccess": 15,
		"EnergyFail": 3,
		"FirstReward": [
			{
				"GoodsType": "GoodsType_Crystal",
				"Id": 0,
				"Count": 30
			},
			{
				"GoodsType": "GoodsType_JobMaterial",
				"Id": 53,
				"Count": 2
			},
			{
				"GoodsType": "GoodsType_Item",
				"Id": 4000,
				"Count": 3
			},
			{
				"GoodsType": "GoodsType_Item",
				"Id": 3003,
				"Count": 4
			}
		],
		"DropID": 121,
		"Achievement1ID": 0,
		"Achievement2ID": 0,
		"Achievement3ID": 0,
		"Strategy": "",
		"IsOpened": true,
		"TreeNode": 0,
		"TreeDialogID": 0,
		"MapImage": "",
		"TreeMemoryAge": "TreeMemoryAgeType_None",
		"TreeMemoryImage": ""
	},
	{
		"ID": 22,
		"Chapter": "Chapter 22",
		"Name": "Trial of Faith",
		"Desc": "",
		"WaypointID": 83,
		"NextScenarioID": 23,
		"MonsterLevel": 38,
		"BattleID": 126,
		"DialogBeforeID": 210001,
		"DialogAfterID": 219001,
		"UnlockCondition": [
			{
				"ConditionType": "ScenarioUnlockConditionType_PlayerLevel",
				"Param": 38
			}
		],
		"PlayerExpReward": 15,
		"HeroExpReward": 87,
		"GoldReward": 1059,
		"EnergySuccess": 15,
		"EnergyFail": 3,
		"FirstReward": [
			{
				"GoodsType": "GoodsType_Crystal",
				"Id": 0,
				"Count": 30
			},
			{
				"GoodsType": "GoodsType_JobMaterial",
				"Id": 49,
				"Count": 2
			},
			{
				"GoodsType": "GoodsType_JobMaterial",
				"Id": 47,
				"Count": 1
			},
			{
				"GoodsType": "GoodsType_Equipment",
				"Id": 51,
				"Count": 1
			},
			{
				"GoodsType": "GoodsType_Item",
				"Id": 3004,
				"Count": 1
			}
		],
		"DropID": 122,
		"Achievement1ID": 0,
		"Achievement2ID": 0,
		"Achievement3ID": 0,
		"Strategy": "",
		"IsOpened": true,
		"TreeNode": 0,
		"TreeDialogID": 0,
		"MapImage": "",
		"TreeMemoryAge": "TreeMemoryAgeType_None",
		"TreeMemoryImage": ""
	},
	{
		"ID": 23,
		"Chapter": "Chapter 23",
		"Name": "Salvation of Ibbas",
		"Desc": "",
		"WaypointID": 84,
		"NextScenarioID": 24,
		"MonsterLevel": 41,
		"BattleID": 127,
		"DialogBeforeID": 220001,
		"DialogAfterID": 229001,
		"UnlockCondition": [
			{
				"ConditionType": "ScenarioUnlockConditionType_PlayerLevel",
				"Param": 41
			}
		],
		"PlayerExpReward": 15,
		"HeroExpReward": 92,
		"GoldReward": 1164,
		"EnergySuccess": 15,
		"EnergyFail": 3,
		"FirstReward": [
			{
				"GoodsType": "GoodsType_Crystal",
				"Id": 0,
				"Count": 30
			},
			{
				"GoodsType": "GoodsType_EnchantStone",
				"Id": 26,
				"Count": 2
			},
			{
				"GoodsType": "GoodsType_EnchantStone",
				"Id": 24,
				"Count": 2
			},
			{
				"GoodsType": "GoodsType_Equipment",
				"Id": 131,
				"Count": 1
			},
			{
				"GoodsType": "GoodsType_Item",
				"Id": 3004,
				"Count": 2
			}
		],
		"DropID": 123,
		"Achievement1ID": 0,
		"Achievement2ID": 0,
		"Achievement3ID": 0,
		"Strategy": "",
		"IsOpened": true,
		"TreeNode": 0,
		"TreeDialogID": 0,
		"MapImage": "",
		"TreeMemoryAge": "TreeMemoryAgeType_None",
		"TreeMemoryImage": ""
	},
	{
		"ID": 24,
		"Chapter": "Chapter 24",
		"Name": "Battle on the Bridge",
		"Desc": "",
		"WaypointID": 85,
		"NextScenarioID": 25,
		"MonsterLevel": 42,
		"BattleID": 128,
		"DialogBeforeID": 230001,
		"DialogAfterID": 239001,
		"UnlockCondition": [
			{
				"ConditionType": "ScenarioUnlockConditionType_PlayerLevel",
				"Param": 42
			}
		],
		"PlayerExpReward": 15,
		"HeroExpReward": 93,
		"GoldReward": 1200,
		"EnergySuccess": 15,
		"EnergyFail": 3,
		"FirstReward": [
			{
				"GoodsType": "GoodsType_Crystal",
				"Id": 0,
				"Count": 30
			},
			{
				"GoodsType": "GoodsType_JobMaterial",
				"Id": 14,
				"Count": 2
			},
			{
				"GoodsType": "GoodsType_JobMaterial",
				"Id": 15,
				"Count": 2
			},
			{
				"GoodsType": "GoodsType_Item",
				"Id": 3004,
				"Count": 2
			}
		],
		"DropID": 124,
		"Achievement1ID": 0,
		"Achievement2ID": 0,
		"Achievement3ID": 0,
		"Strategy": "",
		"IsOpened": true,
		"TreeNode": 0,
		"TreeDialogID": 0,
		"MapImage": "",
		"TreeMemoryAge": "TreeMemoryAgeType_None",
		"TreeMemoryImage": ""
	},
	{
		"ID": 25,
		"Chapter": "Chapter 25",
		"Name": "Defensive Lifeline",
		"Desc": "",
		"WaypointID": 86,
		"NextScenarioID": 26,
		"MonsterLevel": 44,
		"BattleID": 129,
		"DialogBeforeID": 240001,
		"DialogAfterID": 249001,
		"UnlockCondition": [
			{
				"ConditionType": "ScenarioUnlockConditionType_PlayerLevel",
				"Param": 44
			}
		],
		"PlayerExpReward": 15,
		"HeroExpReward": 96,
		"GoldReward": 1275,
		"EnergySuccess": 15,
		"EnergyFail": 3,
		"FirstReward": [
			{
				"GoodsType": "GoodsType_Crystal",
				"Id": 0,
				"Count": 30
			},
			{
				"GoodsType": "GoodsType_JobMaterial",
				"Id": 19,
				"Count": 1
			},
			{
				"GoodsType": "GoodsType_JobMaterial",
				"Id": 14,
				"Count": 3
			},
			{
				"GoodsType": "GoodsType_Item",
				"Id": 3004,
				"Count": 2
			}
		],
		"DropID": 125,
		"Achievement1ID": 0,
		"Achievement2ID": 0,
		"Achievement3ID": 0,
		"Strategy": "",
		"IsOpened": true,
		"TreeNode": 0,
		"TreeDialogID": 0,
		"MapImage": "",
		"TreeMemoryAge": "TreeMemoryAgeType_None",
		"TreeMemoryImage": ""
	},
	{
		"ID": 26,
		"Chapter": "Chapter 26",
		"Name": "Bloody Rampart",
		"Desc": "",
		"WaypointID": 134,
		"NextScenarioID": 27,
		"MonsterLevel": 46,
		"BattleID": 130,
		"DialogBeforeID": 250001,
		"DialogAfterID": 259001,
		"UnlockCondition": [
			{
				"ConditionType": "ScenarioUnlockConditionType_PlayerLevel",
				"Param": 46
			}
		],
		"PlayerExpReward": 15,
		"HeroExpReward": 99,
		"GoldReward": 1350,
		"EnergySuccess": 15,
		"EnergyFail": 3,
		"FirstReward": [
			{
				"GoodsType": "GoodsType_Crystal",
				"Id": 0,
				"Count": 30
			},
			{
				"GoodsType": "GoodsType_JobMaterial",
				"Id": 18,
				"Count": 2
			},
			{
				"GoodsType": "GoodsType_JobMaterial",
				"Id": 22,
				"Count": 2
			},
			{
				"GoodsType": "GoodsType_Item",
				"Id": 3004,
				"Count": 4
			}
		],
		"DropID": 126,
		"Achievement1ID": 0,
		"Achievement2ID": 0,
		"Achievement3ID": 0,
		"Strategy": "",
		"IsOpened": true,
		"TreeNode": 0,
		"TreeDialogID": 0,
		"MapImage": "",
		"TreeMemoryAge": "TreeMemoryAgeType_None",
		"TreeMemoryImage": ""
	},
	{
		"ID": 27,
		"Chapter": "Chapter 27",
		"Name": "Alliance of Light",
		"Desc": "",
		"WaypointID": 139,
		"NextScenarioID": 28,
		"MonsterLevel": 48,
		"BattleID": 131,
		"DialogBeforeID": 261001,
		"DialogAfterID": 261901,
		"UnlockCondition": [
			{
				"ConditionType": "ScenarioUnlockConditionType_PlayerLevel",
				"Param": 48
			}
		],
		"PlayerExpReward": 15,
		"HeroExpReward": 102,
		"GoldReward": 1427,
		"EnergySuccess": 15,
		"EnergyFail": 3,
		"FirstReward": [
			{
				"GoodsType": "GoodsType_Crystal",
				"Id": 0,
				"Count": 30
			},
			{
				"GoodsType": "GoodsType_JobMaterial",
				"Id": 27,
				"Count": 1
			},
			{
				"GoodsType": "GoodsType_JobMaterial",
				"Id": 31,
				"Count": 1
			},
			{
				"GoodsType": "GoodsType_Item",
				"Id": 3005,
				"Count": 2
			}
		],
		"DropID": 127,
		"Achievement1ID": 0,
		"Achievement2ID": 0,
		"Achievement3ID": 0,
		"Strategy": "",
		"IsOpened": true,
		"TreeNode": 0,
		"TreeDialogID": 0,
		"MapImage": "",
		"TreeMemoryAge": "TreeMemoryAgeType_None",
		"TreeMemoryImage": ""
	},
	{
		"ID": 28,
		"Chapter": "Chapter 28",
		"Name": "Battle of Cellier",
		"Desc": "",
		"WaypointID": 145,
		"NextScenarioID": 29,
		"MonsterLevel": 50,
		"BattleID": 132,
		"DialogBeforeID": 270001,
		"DialogAfterID": 279001,
		"UnlockCondition": [
			{
				"ConditionType": "ScenarioUnlockConditionType_PlayerLevel",
				"Param": 50
			}
		],
		"PlayerExpReward": 15,
		"HeroExpReward": 105,
		"GoldReward": 1506,
		"EnergySuccess": 15,
		"EnergyFail": 3,
		"FirstReward": [
			{
				"GoodsType": "GoodsType_Crystal",
				"Id": 0,
				"Count": 30
			},
			{
				"GoodsType": "GoodsType_JobMaterial",
				"Id": 30,
				"Count": 2
			},
			{
				"GoodsType": "GoodsType_EnchantStone",
				"Id": 22,
				"Count": 3
			},
			{
				"GoodsType": "GoodsType_Item",
				"Id": 3005,
				"Count": 3
			}
		],
		"DropID": 128,
		"Achievement1ID": 0,
		"Achievement2ID": 0,
		"Achievement3ID": 0,
		"Strategy": "",
		"IsOpened": true,
		"TreeNode": 0,
		"TreeDialogID": 0,
		"MapImage": "",
		"TreeMemoryAge": "TreeMemoryAgeType_None",
		"TreeMemoryImage": ""
	},
	{
		"ID": 29,
		"Chapter": "Chapter 29",
		"Name": "A Test of Tenacity",
		"Desc": "",
		"WaypointID": 152,
		"NextScenarioID": 30,
		"MonsterLevel": 51,
		"BattleID": 133,
		"DialogBeforeID": 280001,
		"DialogAfterID": 289001,
		"UnlockCondition": [
			{
				"ConditionType": "ScenarioUnlockConditionType_PlayerLevel",
				"Param": 51
			}
		],
		"PlayerExpReward": 15,
		"HeroExpReward": 107,
		"GoldReward": 1547,
		"EnergySuccess": 15,
		"EnergyFail": 3,
		"FirstReward": [
			{
				"GoodsType": "GoodsType_Crystal",
				"Id": 0,
				"Count": 30
			},
			{
				"GoodsType": "GoodsType_JobMaterial",
				"Id": 36,
				"Count": 1
			},
			{
				"GoodsType": "GoodsType_JobMaterial",
				"Id": 35,
				"Count": 1
			},
			{
				"GoodsType": "GoodsType_Item",
				"Id": 3005,
				"Count": 3
			}
		],
		"DropID": 129,
		"Achievement1ID": 0,
		"Achievement2ID": 0,
		"Achievement3ID": 0,
		"Strategy": "",
		"IsOpened": true,
		"TreeNode": 0,
		"TreeDialogID": 0,
		"MapImage": "",
		"TreeMemoryAge": "TreeMemoryAgeType_None",
		"TreeMemoryImage": ""
	},
	{
		"ID": 30,
		"Chapter": "Chapter 30",
		"Name": "Counter Strike",
		"Desc": "",
		"WaypointID": 152,
		"NextScenarioID": 31,
		"MonsterLevel": 51,
		"BattleID": 134,
		"DialogBeforeID": 0,
		"DialogAfterID": 0,
		"UnlockCondition": [
			{
				"ConditionType": "ScenarioUnlockConditionType_PlayerLevel",
				"Param": 51
			}
		],
		"PlayerExpReward": 15,
		"HeroExpReward": 108,
		"GoldReward": 1586,
		"EnergySuccess": 15,
		"EnergyFail": 3,
		"FirstReward": [
			{
				"GoodsType": "GoodsType_Crystal",
				"Id": 0,
				"Count": 30
			},
			{
				"GoodsType": "GoodsType_JobMaterial",
				"Id": 32,
				"Count": 1
			},
			{
				"GoodsType": "GoodsType_JobMaterial",
				"Id": 40,
				"Count": 1
			},
			{
				"GoodsType": "GoodsType_Equipment",
				"Id": 304,
				"Count": 1
			}
		],
		"DropID": 130,
		"Achievement1ID": 0,
		"Achievement2ID": 0,
		"Achievement3ID": 0,
		"Strategy": "",
		"IsOpened": true,
		"TreeNode": 0,
		"TreeDialogID": 0,
		"MapImage": "",
		"TreeMemoryAge": "TreeMemoryAgeType_None",
		"TreeMemoryImage": ""
	},
	{
		"ID": 31,
		"Chapter": "Chapter 31",
		"Name": "The Sanguine Plane",
		"Desc": "",
		"WaypointID": 156,
		"NextScenarioID": 32,
		"MonsterLevel": 52,
		"BattleID": 135,
		"DialogBeforeID": 0,
		"DialogAfterID": 292001,
		"UnlockCondition": [
			{
				"ConditionType": "ScenarioUnlockConditionType_PlayerLevel",
				"Param": 52
			}
		],
		"PlayerExpReward": 15,
		"HeroExpReward": 110,
		"GoldReward": 1628,
		"EnergySuccess": 15,
		"EnergyFail": 3,
		"FirstReward": [
			{
				"GoodsType": "GoodsType_Crystal",
				"Id": 0,
				"Count": 30
			},
			{
				"GoodsType": "GoodsType_JobMaterial",
				"Id": 35,
				"Count": 1
			},
			{
				"GoodsType": "GoodsType_JobMaterial",
				"Id": 38,
				"Count": 1
			},
			{
				"GoodsType": "GoodsType_Equipment",
				"Id": 304,
				"Count": 1
			}
		],
		"DropID": 131,
		"Achievement1ID": 0,
		"Achievement2ID": 0,
		"Achievement3ID": 0,
		"Strategy": "",
		"IsOpened": true,
		"TreeNode": 0,
		"TreeDialogID": 0,
		"MapImage": "",
		"TreeMemoryAge": "TreeMemoryAgeType_None",
		"TreeMemoryImage": ""
	},
	{
		"ID": 32,
		"Chapter": "Chapter 32",
		"Name": "A Test of Strength",
		"Desc": "",
		"WaypointID": 87,
		"NextScenarioID": 33,
		"MonsterLevel": 53,
		"BattleID": 136,
		"DialogBeforeID": 300001,
		"DialogAfterID": 0,
		"UnlockCondition": [
			{
				"ConditionType": "ScenarioUnlockConditionType_PlayerLevel",
				"Param": 53
			}
		],
		"PlayerExpReward": 15,
		"HeroExpReward": 111,
		"GoldReward": 1668,
		"EnergySuccess": 15,
		"EnergyFail": 3,
		"FirstReward": [
			{
				"GoodsType": "GoodsType_Crystal",
				"Id": 0,
				"Count": 30
			},
			{
				"GoodsType": "GoodsType_JobMaterial",
				"Id": 32,
				"Count": 1
			},
			{
				"GoodsType": "GoodsType_JobMaterial",
				"Id": 33,
				"Count": 1
			},
			{
				"GoodsType": "GoodsType_Item",
				"Id": 3005,
				"Count": 5
			}
		],
		"DropID": 132,
		"Achievement1ID": 0,
		"Achievement2ID": 0,
		"Achievement3ID": 0,
		"Strategy": "",
		"IsOpened": true,
		"TreeNode": 0,
		"TreeDialogID": 0,
		"MapImage": "",
		"TreeMemoryAge": "TreeMemoryAgeType_None",
		"TreeMemoryImage": ""
	},
	{
		"ID": 33,
		"Chapter": "Chapter 33",
		"Name": "Desperate Stronghold",
		"Desc": "",
		"WaypointID": 88,
		"NextScenarioID": 34,
		"MonsterLevel": 54,
		"BattleID": 137,
		"DialogBeforeID": 0,
		"DialogAfterID": 0,
		"UnlockCondition": [
			{
				"ConditionType": "ScenarioUnlockConditionType_PlayerLevel",
				"Param": 54
			}
		],
		"PlayerExpReward": 15,
		"HeroExpReward": 113,
		"GoldReward": 1710,
		"EnergySuccess": 15,
		"EnergyFail": 3,
		"FirstReward": [
			{
				"GoodsType": "GoodsType_Crystal",
				"Id": 0,
				"Count": 30
			},
			{
				"GoodsType": "GoodsType_JobMaterial",
				"Id": 37,
				"Count": 1
			},
			{
				"GoodsType": "GoodsType_JobMaterial",
				"Id": 34,
				"Count": 1
			},
			{
				"GoodsType": "GoodsType_Equipment",
				"Id": 304,
				"Count": 1
			}
		],
		"DropID": 133,
		"Achievement1ID": 0,
		"Achievement2ID": 0,
		"Achievement3ID": 0,
		"Strategy": "",
		"IsOpened": true,
		"TreeNode": 0,
		"TreeDialogID": 0,
		"MapImage": "",
		"TreeMemoryAge": "TreeMemoryAgeType_None",
		"TreeMemoryImage": ""
	},
	{
		"ID": 34,
		"Chapter": "Chapter 34",
		"Name": "Bloody Battle Cries",
		"Desc": "",
		"WaypointID": 89,
		"NextScenarioID": 35,
		"MonsterLevel": 55,
		"BattleID": 138,
		"DialogBeforeID": 0,
		"DialogAfterID": 0,
		"UnlockCondition": [
			{
				"ConditionType": "ScenarioUnlockConditionType_PlayerLevel",
				"Param": 55
			}
		],
		"PlayerExpReward": 15,
		"HeroExpReward": 113,
		"GoldReward": 1710,
		"EnergySuccess": 15,
		"EnergyFail": 3,
		"FirstReward": [
			{
				"GoodsType": "GoodsType_Crystal",
				"Id": 0,
				"Count": 30
			},
			{
				"GoodsType": "GoodsType_Item",
				"Id": 3221,
				"Count": 2
			},
			{
				"GoodsType": "GoodsType_Item",
				"Id": 3209,
				"Count": 2
			},
			{
				"GoodsType": "GoodsType_Equipment",
				"Id": 304,
				"Count": 2
			}
		],
		"DropID": 134,
		"Achievement1ID": 0,
		"Achievement2ID": 0,
		"Achievement3ID": 0,
		"Strategy": "",
		"IsOpened": true,
		"TreeNode": 0,
		"TreeDialogID": 0,
		"MapImage": "",
		"TreeMemoryAge": "TreeMemoryAgeType_None",
		"TreeMemoryImage": ""
	},
	{
		"ID": 35,
		"Chapter": "Chapter 35",
		"Name": "Symphony of Light and Darkness",
		"Desc": "",
		"WaypointID": 89,
		"NextScenarioID": 36,
		"MonsterLevel": 55,
		"BattleID": 0,
		"DialogBeforeID": 272001,
		"DialogAfterID": 0,
		"UnlockCondition": [
			{
				"ConditionType": "ScenarioUnlockConditionType_PlayerLevel",
				"Param": 55
			}
		],
		"PlayerExpReward": 0,
		"HeroExpReward": 0,
		"GoldReward": 0,
		"EnergySuccess": 0,
		"EnergyFail": 0,
		"FirstReward": [
			{
				"GoodsType": "GoodsType_Crystal",
				"Id": 0,
				"Count": 30
			}
		],
		"DropID": 0,
		"Achievement1ID": 0,
		"Achievement2ID": 0,
		"Achievement3ID": 0,
		"Strategy": "",
		"IsOpened": true,
		"TreeNode": 0,
		"TreeDialogID": 0,
		"MapImage": "",
		"TreeMemoryAge": "TreeMemoryAgeType_None",
		"TreeMemoryImage": ""
	},
	{
		"ID": 36,
		"Chapter": "Chapter 36",
		"Name": "Love Songs in the Ruins",
		"Desc": "",
		"WaypointID": 90,
		"NextScenarioID": 37,
		"MonsterLevel": 56,
		"BattleID": 139,
		"DialogBeforeID": 272051,
		"DialogAfterID": 272071,
		"UnlockCondition": [
			{
				"ConditionType": "ScenarioUnlockConditionType_PlayerLevel",
				"Param": 56
			}
		],
		"PlayerExpReward": 15,
		"HeroExpReward": 114,
		"GoldReward": 1752,
		"EnergySuccess": 15,
		"EnergyFail": 3,
		"FirstReward": [
			{
				"GoodsType": "GoodsType_Crystal",
				"Id": 0,
				"Count": 30
			},
			{
				"GoodsType": "GoodsType_Item",
				"Id": 3216,
				"Count": 2
			},
			{
				"GoodsType": "GoodsType_Item",
				"Id": 3204,
				"Count": 2
			},
			{
				"GoodsType": "GoodsType_EnchantStone",
				"Id": 36,
				"Count": 3
			}
		],
		"DropID": 136,
		"Achievement1ID": 0,
		"Achievement2ID": 0,
		"Achievement3ID": 0,
		"Strategy": "",
		"IsOpened": true,
		"TreeNode": 0,
		"TreeDialogID": 0,
		"MapImage": "",
		"TreeMemoryAge": "TreeMemoryAgeType_None",
		"TreeMemoryImage": ""
	},
	{
		"ID": 37,
		"Chapter": "Chapter 37",
		"Name": "King of the Old Empire",
		"Desc": "",
		"WaypointID": 91,
		"NextScenarioID": 38,
		"MonsterLevel": 57,
		"BattleID": 140,
		"DialogBeforeID": 272091,
		"DialogAfterID": 272111,
		"UnlockCondition": [
			{
				"ConditionType": "ScenarioUnlockConditionType_PlayerLevel",
				"Param": 57
			}
		],
		"PlayerExpReward": 15,
		"HeroExpReward": 116,
		"GoldReward": 1794,
		"EnergySuccess": 15,
		"EnergyFail": 3,
		"FirstReward": [
			{
				"GoodsType": "GoodsType_Crystal",
				"Id": 0,
				"Count": 30
			},
			{
				"GoodsType": "GoodsType_JobMaterial",
				"Id": 40,
				"Count": 2
			},
			{
				"GoodsType": "GoodsType_EnchantStone",
				"Id": 30,
				"Count": 2
			},
			{
				"GoodsType": "GoodsType_Item",
				"Id": 3005,
				"Count": 5
			}
		],
		"DropID": 137,
		"Achievement1ID": 0,
		"Achievement2ID": 0,
		"Achievement3ID": 0,
		"Strategy": "",
		"IsOpened": true,
		"TreeNode": 0,
		"TreeDialogID": 0,
		"MapImage": "",
		"TreeMemoryAge": "TreeMemoryAgeType_None",
		"TreeMemoryImage": ""
	},
	{
		"ID": 38,
		"Chapter": "Chapter 38",
		"Name": "Shadow Cathedral",
		"Desc": "",
		"WaypointID": 92,
		"NextScenarioID": 39,
		"MonsterLevel": 57,
		"BattleID": 141,
		"DialogBeforeID": 0,
		"DialogAfterID": 370020,
		"UnlockCondition": [
			{
				"ConditionType": "ScenarioUnlockConditionType_PlayerLevel",
				"Param": 58
			}
		],
		"PlayerExpReward": 15,
		"HeroExpReward": 116,
		"GoldReward": 1794,
		"EnergySuccess": 15,
		"EnergyFail": 3,
		"FirstReward": [
			{
				"GoodsType": "GoodsType_Crystal",
				"Id": 0,
				"Count": 30
			},
			{
				"GoodsType": "GoodsType_JobMaterial",
				"Id": 32,
				"Count": 3
			},
			{
				"GoodsType": "GoodsType_Item",
				"Id": 3222,
				"Count": 2
			},
			{
				"GoodsType": "GoodsType_EnchantStone",
				"Id": 27,
				"Count": 3
			}
		],
		"DropID": 138,
		"Achievement1ID": 0,
		"Achievement2ID": 0,
		"Achievement3ID": 0,
		"Strategy": "",
		"IsOpened": true,
		"TreeNode": 0,
		"TreeDialogID": 0,
		"MapImage": "",
		"TreeMemoryAge": "TreeMemoryAgeType_None",
		"TreeMemoryImage": ""
	},
	{
		"ID": 39,
		"Chapter": "Chapter 39",
		"Name": "The Last Allied Force",
		"Desc": "",
		"WaypointID": 89,
		"NextScenarioID": 40,
		"MonsterLevel": 58,
		"BattleID": 0,
		"DialogBeforeID": 370036,
		"DialogAfterID": 0,
		"UnlockCondition": [
			{
				"ConditionType": "ScenarioUnlockConditionType_PlayerLevel",
				"Param": 58
			}
		],
		"PlayerExpReward": 0,
		"HeroExpReward": 0,
		"GoldReward": 0,
		"EnergySuccess": 0,
		"EnergyFail": 0,
		"FirstReward": [
			{
				"GoodsType": "GoodsType_Crystal",
				"Id": 0,
				"Count": 30
			}
		],
		"DropID": 0,
		"Achievement1ID": 0,
		"Achievement2ID": 0,
		"Achievement3ID": 0,
		"Strategy": "",
		"IsOpened": true,
		"TreeNode": 0,
		"TreeDialogID": 0,
		"MapImage": "",
		"TreeMemoryAge": "TreeMemoryAgeType_None",
		"TreeMemoryImage": ""
	},
	{
		"ID": 40,
		"Chapter": "Chapter 40",
		"Name": "Infected Tyrant",
		"Desc": "",
		"WaypointID": 93,
		"NextScenarioID": 41,
		"MonsterLevel": 58,
		"BattleID": 142,
		"DialogBeforeID": 380001,
		"DialogAfterID": 0,
		"UnlockCondition": [
			{
				"ConditionType": "ScenarioUnlockConditionType_PlayerLevel",
				"Param": 58
			}
		],
		"PlayerExpReward": 15,
		"HeroExpReward": 117,
		"GoldReward": 1836,
		"EnergySuccess": 15,
		"EnergyFail": 3,
		"FirstReward": [
			{
				"GoodsType": "GoodsType_Crystal",
				"Id": 0,
				"Count": 30
			},
			{
				"GoodsType": "GoodsType_Item",
				"Id": 3222,
				"Count": 3
			},
			{
				"GoodsType": "GoodsType_Item",
				"Id": 3211,
				"Count": 2
			},
			{
				"GoodsType": "GoodsType_EnchantStone",
				"Id": 39,
				"Count": 3
			}
		],
		"DropID": 140,
		"Achievement1ID": 0,
		"Achievement2ID": 0,
		"Achievement3ID": 0,
		"Strategy": "",
		"IsOpened": true,
		"TreeNode": 0,
		"TreeDialogID": 0,
		"MapImage": "",
		"TreeMemoryAge": "TreeMemoryAgeType_None",
		"TreeMemoryImage": ""
	},
	{
		"ID": 41,
		"Chapter": "Chapter 41",
		"Name": "Disguised Sorceress Queen",
		"Desc": "",
		"WaypointID": 94,
		"NextScenarioID": 42,
		"MonsterLevel": 59,
		"BattleID": 143,
		"DialogBeforeID": 390001,
		"DialogAfterID": 391001,
		"UnlockCondition": [
			{
				"ConditionType": "ScenarioUnlockConditionType_PlayerLevel",
				"Param": 59
			}
		],
		"PlayerExpReward": 15,
		"HeroExpReward": 119,
		"GoldReward": 1880,
		"EnergySuccess": 15,
		"EnergyFail": 3,
		"FirstReward": [
			{
				"GoodsType": "GoodsType_Crystal",
				"Id": 0,
				"Count": 30
			},
			{
				"GoodsType": "GoodsType_JobMaterial",
				"Id": 34,
				"Count": 3
			},
			{
				"GoodsType": "GoodsType_JobMaterial",
				"Id": 35,
				"Count": 3
			},
			{
				"GoodsType": "GoodsType_EnchantStone",
				"Id": 32,
				"Count": 3
			}
		],
		"DropID": 141,
		"Achievement1ID": 0,
		"Achievement2ID": 0,
		"Achievement3ID": 0,
		"Strategy": "",
		"IsOpened": true,
		"TreeNode": 0,
		"TreeDialogID": 0,
		"MapImage": "",
		"TreeMemoryAge": "TreeMemoryAgeType_None",
		"TreeMemoryImage": ""
	},
	{
		"ID": 42,
		"Chapter": "Chapter 42",
		"Name": "Soulbound Fortress",
		"Desc": "",
		"WaypointID": 95,
		"NextScenarioID": 43,
		"MonsterLevel": 59,
		"BattleID": 144,
		"DialogBeforeID": 400001,
		"DialogAfterID": 0,
		"UnlockCondition": [
			{
				"ConditionType": "ScenarioUnlockConditionType_PlayerLevel",
				"Param": 59
			}
		],
		"PlayerExpReward": 15,
		"HeroExpReward": 119,
		"GoldReward": 1880,
		"EnergySuccess": 15,
		"EnergyFail": 3,
		"FirstReward": [
			{
				"GoodsType": "GoodsType_Crystal",
				"Id": 0,
				"Count": 30
			},
			{
				"GoodsType": "GoodsType_JobMaterial",
				"Id": 38,
				"Count": 3
			},
			{
				"GoodsType": "GoodsType_JobMaterial",
				"Id": 39,
				"Count": 3
			},
			{
				"GoodsType": "GoodsType_EnchantStone",
				"Id": 36,
				"Count": 3
			}
		],
		"DropID": 142,
		"Achievement1ID": 0,
		"Achievement2ID": 0,
		"Achievement3ID": 0,
		"Strategy": "",
		"IsOpened": true,
		"TreeNode": 0,
		"TreeDialogID": 0,
		"MapImage": "",
		"TreeMemoryAge": "TreeMemoryAgeType_None",
		"TreeMemoryImage": ""
	},
	{
		"ID": 43,
		"Chapter": "Chapter 43",
		"Name": "Insects Under the City",
		"Desc": "",
		"WaypointID": 89,
		"NextScenarioID": 44,
		"MonsterLevel": 60,
		"BattleID": 145,
		"DialogBeforeID": 410001,
		"DialogAfterID": 411001,
		"UnlockCondition": [
			{
				"ConditionType": "ScenarioUnlockConditionType_PlayerLevel",
				"Param": 60
			}
		],
		"PlayerExpReward": 15,
		"HeroExpReward": 120,
		"GoldReward": 1923,
		"EnergySuccess": 15,
		"EnergyFail": 3,
		"FirstReward": [
			{
				"GoodsType": "GoodsType_Crystal",
				"Id": 0,
				"Count": 30
			},
			{
				"GoodsType": "GoodsType_JobMaterial",
				"Id": 33,
				"Count": 3
			},
			{
				"GoodsType": "GoodsType_Item",
				"Id": 3215,
				"Count": 3
			},
			{
				"GoodsType": "GoodsType_EnchantStone",
				"Id": 38,
				"Count": 3
			}
		],
		"DropID": 143,
		"Achievement1ID": 0,
		"Achievement2ID": 0,
		"Achievement3ID": 0,
		"Strategy": "",
		"IsOpened": true,
		"TreeNode": 0,
		"TreeDialogID": 0,
		"MapImage": "",
		"TreeMemoryAge": "TreeMemoryAgeType_None",
		"TreeMemoryImage": ""
	},
	{
		"ID": 44,
		"Chapter": "Chapter 44",
		"Name": "Boarding War",
		"Desc": "",
		"WaypointID": 96,
		"NextScenarioID": 45,
		"MonsterLevel": 60,
		"BattleID": 146,
		"DialogBeforeID": 0,
		"DialogAfterID": 421001,
		"UnlockCondition": [
			{
				"ConditionType": "ScenarioUnlockConditionType_PlayerLevel",
				"Param": 60
			}
		],
		"PlayerExpReward": 15,
		"HeroExpReward": 120,
		"GoldReward": 1923,
		"EnergySuccess": 15,
		"EnergyFail": 3,
		"FirstReward": [
			{
				"GoodsType": "GoodsType_Crystal",
				"Id": 0,
				"Count": 30
			},
			{
				"GoodsType": "GoodsType_Item",
				"Id": 1035,
				"Count": 20
			},
			{
				"GoodsType": "GoodsType_Item",
				"Id": 3217,
				"Count": 3
			},
			{
				"GoodsType": "GoodsType_EnchantStone",
				"Id": 34,
				"Count": 3
			}
		],
		"DropID": 144,
		"Achievement1ID": 0,
		"Achievement2ID": 0,
		"Achievement3ID": 0,
		"Strategy": "",
		"IsOpened": true,
		"TreeNode": 0,
		"TreeDialogID": 0,
		"MapImage": "",
		"TreeMemoryAge": "TreeMemoryAgeType_None",
		"TreeMemoryImage": ""
	},
	{
		"ID": 45,
		"Chapter": "Chapter 45",
		"Name": "Crossing the Strait",
		"Desc": "",
		"WaypointID": 97,
		"NextScenarioID": 46,
		"MonsterLevel": 60,
		"BattleID": 147,
		"DialogBeforeID": 450001,
		"DialogAfterID": 0,
		"UnlockCondition": [
			{
				"ConditionType": "ScenarioUnlockConditionType_PlayerLevel",
				"Param": 60
			}
		],
		"PlayerExpReward": 15,
		"HeroExpReward": 120,
		"GoldReward": 1923,
		"EnergySuccess": 15,
		"EnergyFail": 3,
		"FirstReward": [
			{
				"GoodsType": "GoodsType_Crystal",
				"Id": 0,
				"Count": 30
			},
			{
				"GoodsType": "GoodsType_Item",
				"Id": 1035,
				"Count": 30
			},
			{
				"GoodsType": "GoodsType_Item",
				"Id": 3220,
				"Count": 3
			},
			{
				"GoodsType": "GoodsType_EnchantStone",
				"Id": 30,
				"Count": 3
			}
		],
		"DropID": 145,
		"Achievement1ID": 0,
		"Achievement2ID": 0,
		"Achievement3ID": 0,
		"Strategy": "",
		"IsOpened": true,
		"TreeNode": 0,
		"TreeDialogID": 0,
		"MapImage": "",
		"TreeMemoryAge": "TreeMemoryAgeType_None",
		"TreeMemoryImage": ""
	},
	{
		"ID": 46,
		"Chapter": "Chapter 46",
		"Name": "The Demon Capital",
		"Desc": "",
		"WaypointID": 98,
		"NextScenarioID": 47,
		"MonsterLevel": 60,
		"BattleID": 148,
		"DialogBeforeID": 0,
		"DialogAfterID": 451000,
		"UnlockCondition": [
			{
				"ConditionType": "ScenarioUnlockConditionType_PlayerLevel",
				"Param": 60
			}
		],
		"PlayerExpReward": 15,
		"HeroExpReward": 120,
		"GoldReward": 1923,
		"EnergySuccess": 15,
		"EnergyFail": 3,
		"FirstReward": [
			{
				"GoodsType": "GoodsType_Crystal",
				"Id": 0,
				"Count": 30
			},
			{
				"GoodsType": "GoodsType_Item",
				"Id": 1035,
				"Count": 30
			},
			{
				"GoodsType": "GoodsType_Item",
				"Id": 3211,
				"Count": 3
			},
			{
				"GoodsType": "GoodsType_EnchantStone",
				"Id": 37,
				"Count": 3
			}
		],
		"DropID": 146,
		"Achievement1ID": 0,
		"Achievement2ID": 0,
		"Achievement3ID": 0,
		"Strategy": "",
		"IsOpened": true,
		"TreeNode": 0,
		"TreeDialogID": 0,
		"MapImage": "",
		"TreeMemoryAge": "TreeMemoryAgeType_None",
		"TreeMemoryImage": ""
	},
	{
		"ID": 47,
		"Chapter": "Chapter 47",
		"Name": "Trial of Hope",
		"Desc": "",
		"WaypointID": 99,
		"NextScenarioID": 48,
		"MonsterLevel": 60,
		"BattleID": 149,
		"DialogBeforeID": 0,
		"DialogAfterID": 0,
		"UnlockCondition": [
			{
				"ConditionType": "ScenarioUnlockConditionType_PlayerLevel",
				"Param": 60
			}
		],
		"PlayerExpReward": 15,
		"HeroExpReward": 120,
		"GoldReward": 1923,
		"EnergySuccess": 15,
		"EnergyFail": 3,
		"FirstReward": [
			{
				"GoodsType": "GoodsType_Crystal",
				"Id": 0,
				"Count": 30
			},
			{
				"GoodsType": "GoodsType_Item",
				"Id": 1035,
				"Count": 30
			},
			{
				"GoodsType": "GoodsType_Item",
				"Id": 3227,
				"Count": 3
			},
			{
				"GoodsType": "GoodsType_EnchantStone",
				"Id": 29,
				"Count": 3
			}
		],
		"DropID": 147,
		"Achievement1ID": 0,
		"Achievement2ID": 0,
		"Achievement3ID": 0,
		"Strategy": "",
		"IsOpened": true,
		"TreeNode": 0,
		"TreeDialogID": 0,
		"MapImage": "",
		"TreeMemoryAge": "TreeMemoryAgeType_None",
		"TreeMemoryImage": ""
	},
	{
		"ID": 48,
		"Chapter": "Interlude",
		"Name": "Spirit of Langrisser",
		"Desc": "",
		"WaypointID": 99,
		"NextScenarioID": 49,
		"MonsterLevel": 60,
		"BattleID": 0,
		"DialogBeforeID": 0,
		"DialogAfterID": 452001,
		"UnlockCondition": [
			{
				"ConditionType": "ScenarioUnlockConditionType_PlayerLevel",
				"Param": 60
			}
		],
		"PlayerExpReward": 0,
		"HeroExpReward": 0,
		"GoldReward": 0,
		"EnergySuccess": 0,
		"EnergyFail": 0,
		"FirstReward": [
			{
				"GoodsType": "GoodsType_Crystal",
				"Id": 0,
				"Count": 30
			}
		],
		"DropID": 0,
		"Achievement1ID": 0,
		"Achievement2ID": 0,
		"Achievement3ID": 0,
		"Strategy": "",
		"IsOpened": true,
		"TreeNode": 0,
		"TreeDialogID": 0,
		"MapImage": "",
		"TreeMemoryAge": "TreeMemoryAgeType_None",
		"TreeMemoryImage": ""
	},
	{
		"ID": 49,
		"Chapter": "Interlude",
		"Name": "Spirit of Langrisser I",
		"Desc": "",
		"WaypointID": 35,
		"NextScenarioID": 50,
		"MonsterLevel": 60,
		"BattleID": 150,
		"DialogBeforeID": 452101,
		"DialogAfterID": 452151,
		"UnlockCondition": [
			{
				"ConditionType": "ScenarioUnlockConditionType_PlayerLevel",
				"Param": 60
			}
		],
		"PlayerExpReward": 15,
		"HeroExpReward": 120,
		"GoldReward": 1923,
		"EnergySuccess": 15,
		"EnergyFail": 3,
		"FirstReward": [
			{
				"GoodsType": "GoodsType_Crystal",
				"Id": 0,
				"Count": 30
			},
			{
				"GoodsType": "GoodsType_Item",
				"Id": 3214,
				"Count": 3
			},
			{
				"GoodsType": "GoodsType_Item",
				"Id": 3204,
				"Count": 3
			},
			{
				"GoodsType": "GoodsType_EnchantStone",
				"Id": 31,
				"Count": 3
			}
		],
		"DropID": 140,
		"Achievement1ID": 0,
		"Achievement2ID": 0,
		"Achievement3ID": 0,
		"Strategy": "",
		"IsOpened": true,
		"TreeNode": 0,
		"TreeDialogID": 0,
		"MapImage": "",
		"TreeMemoryAge": "TreeMemoryAgeType_None",
		"TreeMemoryImage": ""
	},
	{
		"ID": 50,
		"Chapter": "Interlude",
		"Name": "Spirit of Langrisser II",
		"Desc": "",
		"WaypointID": 46,
		"NextScenarioID": 51,
		"MonsterLevel": 60,
		"BattleID": 151,
		"DialogBeforeID": 452201,
		"DialogAfterID": 452251,
		"UnlockCondition": [
			{
				"ConditionType": "ScenarioUnlockConditionType_PlayerLevel",
				"Param": 60
			}
		],
		"PlayerExpReward": 15,
		"HeroExpReward": 120,
		"GoldReward": 1923,
		"EnergySuccess": 15,
		"EnergyFail": 3,
		"FirstReward": [
			{
				"GoodsType": "GoodsType_Crystal",
				"Id": 0,
				"Count": 30
			},
			{
				"GoodsType": "GoodsType_Item",
				"Id": 3215,
				"Count": 3
			},
			{
				"GoodsType": "GoodsType_Item",
				"Id": 3205,
				"Count": 3
			},
			{
				"GoodsType": "GoodsType_EnchantStone",
				"Id": 39,
				"Count": 3
			}
		],
		"DropID": 141,
		"Achievement1ID": 0,
		"Achievement2ID": 0,
		"Achievement3ID": 0,
		"Strategy": "",
		"IsOpened": true,
		"TreeNode": 0,
		"TreeDialogID": 0,
		"MapImage": "",
		"TreeMemoryAge": "TreeMemoryAgeType_None",
		"TreeMemoryImage": ""
	},
	{
		"ID": 51,
		"Chapter": "Interlude",
		"Name": "Spirit of Langrisser III",
		"Desc": "",
		"WaypointID": 134,
		"NextScenarioID": 52,
		"MonsterLevel": 60,
		"BattleID": 152,
		"DialogBeforeID": 452300,
		"DialogAfterID": 452350,
		"UnlockCondition": [
			{
				"ConditionType": "ScenarioUnlockConditionType_PlayerLevel",
				"Param": 60
			}
		],
		"PlayerExpReward": 15,
		"HeroExpReward": 120,
		"GoldReward": 1923,
		"EnergySuccess": 15,
		"EnergyFail": 3,
		"FirstReward": [
			{
				"GoodsType": "GoodsType_Crystal",
				"Id": 0,
				"Count": 30
			},
			{
				"GoodsType": "GoodsType_Item",
				"Id": 3216,
				"Count": 3
			},
			{
				"GoodsType": "GoodsType_Item",
				"Id": 3206,
				"Count": 3
			},
			{
				"GoodsType": "GoodsType_EnchantStone",
				"Id": 36,
				"Count": 3
			}
		],
		"DropID": 142,
		"Achievement1ID": 0,
		"Achievement2ID": 0,
		"Achievement3ID": 0,
		"Strategy": "",
		"IsOpened": true,
		"TreeNode": 0,
		"TreeDialogID": 0,
		"MapImage": "",
		"TreeMemoryAge": "TreeMemoryAgeType_None",
		"TreeMemoryImage": ""
	},
	{
		"ID": 52,
		"Chapter": "Interlude",
		"Name": "Spirit of Langrisser IV",
		"Desc": "",
		"WaypointID": 156,
		"NextScenarioID": 53,
		"MonsterLevel": 60,
		"BattleID": 153,
		"DialogBeforeID": 452400,
		"DialogAfterID": 0,
		"UnlockCondition": [
			{
				"ConditionType": "ScenarioUnlockConditionType_PlayerLevel",
				"Param": 60
			}
		],
		"PlayerExpReward": 15,
		"HeroExpReward": 120,
		"GoldReward": 1923,
		"EnergySuccess": 15,
		"EnergyFail": 3,
		"FirstReward": [
			{
				"GoodsType": "GoodsType_Crystal",
				"Id": 0,
				"Count": 30
			},
			{
				"GoodsType": "GoodsType_Item",
				"Id": 3217,
				"Count": 3
			},
			{
				"GoodsType": "GoodsType_Item",
				"Id": 3207,
				"Count": 3
			},
			{
				"GoodsType": "GoodsType_EnchantStone",
				"Id": 30,
				"Count": 3
			}
		],
		"DropID": 143,
		"Achievement1ID": 0,
		"Achievement2ID": 0,
		"Achievement3ID": 0,
		"Strategy": "",
		"IsOpened": true,
		"TreeNode": 0,
		"TreeDialogID": 0,
		"MapImage": "",
		"TreeMemoryAge": "TreeMemoryAgeType_None",
		"TreeMemoryImage": ""
	},
	{
		"ID": 53,
		"Chapter": "Interlude",
		"Name": "Spirit of Langrisser V",
		"Desc": "",
		"WaypointID": 89,
		"NextScenarioID": 54,
		"MonsterLevel": 60,
		"BattleID": 154,
		"DialogBeforeID": 452500,
		"DialogAfterID": 0,
		"UnlockCondition": [
			{
				"ConditionType": "ScenarioUnlockConditionType_PlayerLevel",
				"Param": 60
			}
		],
		"PlayerExpReward": 15,
		"HeroExpReward": 120,
		"GoldReward": 1923,
		"EnergySuccess": 15,
		"EnergyFail": 3,
		"FirstReward": [
			{
				"GoodsType": "GoodsType_Crystal",
				"Id": 0,
				"Count": 30
			},
			{
				"GoodsType": "GoodsType_Item",
				"Id": 3218,
				"Count": 3
			},
			{
				"GoodsType": "GoodsType_Item",
				"Id": 3208,
				"Count": 3
			},
			{
				"GoodsType": "GoodsType_EnchantStone",
				"Id": 33,
				"Count": 3
			}
		],
		"DropID": 144,
		"Achievement1ID": 0,
		"Achievement2ID": 0,
		"Achievement3ID": 0,
		"Strategy": "",
		"IsOpened": true,
		"TreeNode": 0,
		"TreeDialogID": 0,
		"MapImage": "",
		"TreeMemoryAge": "TreeMemoryAgeType_None",
		"TreeMemoryImage": ""
	},
	{
		"ID": 54,
		"Chapter": "Chapter 48",
		"Name": "Demon Slash Strike",
		"Desc": "",
		"WaypointID": 223,
		"NextScenarioID": 55,
		"MonsterLevel": 60,
		"BattleID": 155,
		"DialogBeforeID": 0,
		"DialogAfterID": 0,
		"UnlockCondition": [
			{
				"ConditionType": "ScenarioUnlockConditionType_PlayerLevel",
				"Param": 60
			}
		],
		"PlayerExpReward": 15,
		"HeroExpReward": 120,
		"GoldReward": 1923,
		"EnergySuccess": 15,
		"EnergyFail": 3,
		"FirstReward": [
			{
				"GoodsType": "GoodsType_Crystal",
				"Id": 0,
				"Count": 30
			},
			{
				"GoodsType": "GoodsType_Item",
				"Id": 1035,
				"Count": 15
			},
			{
				"GoodsType": "GoodsType_JobMaterial",
				"Id": 35,
				"Count": 4
			},
			{
				"GoodsType": "GoodsType_Item",
				"Id": 3213,
				"Count": 3
			}
		],
		"DropID": 145,
		"Achievement1ID": 0,
		"Achievement2ID": 0,
		"Achievement3ID": 0,
		"Strategy": "",
		"IsOpened": true,
		"TreeNode": 0,
		"TreeDialogID": 0,
		"MapImage": "",
		"TreeMemoryAge": "TreeMemoryAgeType_None",
		"TreeMemoryImage": ""
	},
	{
		"ID": 55,
		"Chapter": "Chapter 49",
		"Name": "Dark Prince",
		"Desc": "",
		"WaypointID": 228,
		"NextScenarioID": 56,
		"MonsterLevel": 60,
		"BattleID": 156,
		"DialogBeforeID": 0,
		"DialogAfterID": 0,
		"UnlockCondition": [
			{
				"ConditionType": "ScenarioUnlockConditionType_PlayerLevel",
				"Param": 60
			}
		],
		"PlayerExpReward": 15,
		"HeroExpReward": 120,
		"GoldReward": 1923,
		"EnergySuccess": 15,
		"EnergyFail": 3,
		"FirstReward": [
			{
				"GoodsType": "GoodsType_Crystal",
				"Id": 0,
				"Count": 30
			},
			{
				"GoodsType": "GoodsType_Item",
				"Id": 1035,
				"Count": 20
			},
			{
				"GoodsType": "GoodsType_JobMaterial",
				"Id": 39,
				"Count": 4
			},
			{
				"GoodsType": "GoodsType_Item",
				"Id": 3211,
				"Count": 3
			}
		],
		"DropID": 146,
		"Achievement1ID": 0,
		"Achievement2ID": 0,
		"Achievement3ID": 0,
		"Strategy": "",
		"IsOpened": true,
		"TreeNode": 0,
		"TreeDialogID": 0,
		"MapImage": "",
		"TreeMemoryAge": "TreeMemoryAgeType_None",
		"TreeMemoryImage": ""
	},
	{
		"ID": 56,
		"Chapter": "Chapter 50",
		"Name": "Meeting in the Eye of Chaos",
		"Desc": "",
		"WaypointID": 228,
		"NextScenarioID": 57,
		"MonsterLevel": 60,
		"BattleID": 157,
		"DialogBeforeID": 0,
		"DialogAfterID": 501000,
		"UnlockCondition": [
			{
				"ConditionType": "ScenarioUnlockConditionType_PlayerLevel",
				"Param": 60
			}
		],
		"PlayerExpReward": 15,
		"HeroExpReward": 120,
		"GoldReward": 1923,
		"EnergySuccess": 15,
		"EnergyFail": 3,
		"FirstReward": [
			{
				"GoodsType": "GoodsType_Crystal",
				"Id": 0,
				"Count": 30
			},
			{
				"GoodsType": "GoodsType_Item",
				"Id": 1035,
				"Count": 20
			},
			{
				"GoodsType": "GoodsType_Item",
				"Id": 3014,
				"Count": 1
			},
			{
				"GoodsType": "GoodsType_Item",
				"Id": 3213,
				"Count": 3
			}
		],
		"DropID": 147,
		"Achievement1ID": 0,
		"Achievement2ID": 0,
		"Achievement3ID": 0,
		"Strategy": "",
		"IsOpened": true,
		"TreeNode": 0,
		"TreeDialogID": 0,
		"MapImage": "",
		"TreeMemoryAge": "TreeMemoryAgeType_None",
		"TreeMemoryImage": ""
	},
	{
		"ID": 57,
		"Chapter": "Second Prologue",
		"Name": "Endings and Beginnings I",
		"Desc": "",
		"WaypointID": 152,
		"NextScenarioID": 58,
		"MonsterLevel": 60,
		"BattleID": 0,
		"DialogBeforeID": 452600,
		"DialogAfterID": 0,
		"UnlockCondition": [
			{
				"ConditionType": "ScenarioUnlockConditionType_PlayerLevel",
				"Param": 60
			}
		],
		"PlayerExpReward": 0,
		"HeroExpReward": 0,
		"GoldReward": 0,
		"EnergySuccess": 0,
		"EnergyFail": 0,
		"FirstReward": [
			{
				"GoodsType": "GoodsType_Crystal",
				"Id": 0,
				"Count": 30
			}
		],
		"DropID": 0,
		"Achievement1ID": 0,
		"Achievement2ID": 0,
		"Achievement3ID": 0,
		"Strategy": "",
		"IsOpened": true,
		"TreeNode": 0,
		"TreeDialogID": 0,
		"MapImage": "",
		"TreeMemoryAge": "TreeMemoryAgeType_None",
		"TreeMemoryImage": ""
	},
	{
		"ID": 58,
		"Chapter": "Second Prologue",
		"Name": "Endings and Beginnings II",
		"Desc": "",
		"WaypointID": 89,
		"NextScenarioID": 59,
		"MonsterLevel": 60,
		"BattleID": 0,
		"DialogBeforeID": 452700,
		"DialogAfterID": 0,
		"UnlockCondition": [
			{
				"ConditionType": "ScenarioUnlockConditionType_PlayerLevel",
				"Param": 60
			}
		],
		"PlayerExpReward": 0,
		"HeroExpReward": 0,
		"GoldReward": 0,
		"EnergySuccess": 0,
		"EnergyFail": 0,
		"FirstReward": [
			{
				"GoodsType": "GoodsType_Item",
				"Id": 4062,
				"Count": 1
			}
		],
		"DropID": 0,
		"Achievement1ID": 0,
		"Achievement2ID": 0,
		"Achievement3ID": 0,
		"Strategy": "",
		"IsOpened": true,
		"TreeNode": 0,
		"TreeDialogID": 0,
		"MapImage": "",
		"TreeMemoryAge": "TreeMemoryAgeType_None",
		"TreeMemoryImage": ""
	},
	{
		"ID": 59,
		"Chapter": "Second Prologue",
		"Name": "Endings and Beginnings III",
		"Desc": "",
		"WaypointID": 84,
		"NextScenarioID": 60,
		"MonsterLevel": 60,
		"BattleID": 0,
		"DialogBeforeID": 452800,
		"DialogAfterID": 0,
		"UnlockCondition": [
			{
				"ConditionType": "ScenarioUnlockConditionType_PlayerLevel",
				"Param": 60
			}
		],
		"PlayerExpReward": 0,
		"HeroExpReward": 0,
		"GoldReward": 0,
		"EnergySuccess": 0,
		"EnergyFail": 0,
		"FirstReward": [
			{
				"GoodsType": "GoodsType_Item",
				"Id": 4063,
				"Count": 1
			}
		],
		"DropID": 0,
		"Achievement1ID": 0,
		"Achievement2ID": 0,
		"Achievement3ID": 0,
		"Strategy": "",
		"IsOpened": true,
		"TreeNode": 0,
		"TreeDialogID": 0,
		"MapImage": "",
		"TreeMemoryAge": "TreeMemoryAgeType_None",
		"TreeMemoryImage": ""
	},
	{
		"ID": 60,
		"Chapter": "Second Prologue",
		"Name": "Endings and Beginnings IV",
		"Desc": "",
		"WaypointID": 17,
		"NextScenarioID": 61,
		"MonsterLevel": 60,
		"BattleID": 0,
		"DialogBeforeID": 452900,
		"DialogAfterID": 0,
		"UnlockCondition": [
			{
				"ConditionType": "ScenarioUnlockConditionType_PlayerLevel",
				"Param": 60
			}
		],
		"PlayerExpReward": 0,
		"HeroExpReward": 0,
		"GoldReward": 0,
		"EnergySuccess": 0,
		"EnergyFail": 0,
		"FirstReward": [
			{
				"GoodsType": "GoodsType_Item",
				"Id": 4064,
				"Count": 1
			}
		],
		"DropID": 0,
		"Achievement1ID": 0,
		"Achievement2ID": 0,
		"Achievement3ID": 0,
		"Strategy": "",
		"IsOpened": true,
		"TreeNode": 0,
		"TreeDialogID": 0,
		"MapImage": "",
		"TreeMemoryAge": "TreeMemoryAgeType_None",
		"TreeMemoryImage": ""
	},
	{
		"ID": 61,
		"Chapter": "Second Prologue",
		"Name": "Endings and Beginnings V",
		"Desc": "",
		"WaypointID": 5,
		"NextScenarioID": 62,
		"MonsterLevel": 60,
		"BattleID": 0,
		"DialogBeforeID": 453000,
		"DialogAfterID": 0,
		"UnlockCondition": [
			{
				"ConditionType": "ScenarioUnlockConditionType_PlayerLevel",
				"Param": 60
			}
		],
		"PlayerExpReward": 0,
		"HeroExpReward": 0,
		"GoldReward": 0,
		"EnergySuccess": 0,
		"EnergyFail": 0,
		"FirstReward": [
			{
				"GoodsType": "GoodsType_Item",
				"Id": 4065,
				"Count": 1
			}
		],
		"DropID": 0,
		"Achievement1ID": 0,
		"Achievement2ID": 0,
		"Achievement3ID": 0,
		"Strategy": "",
		"IsOpened": true,
		"TreeNode": 0,
		"TreeDialogID": 0,
		"MapImage": "",
		"TreeMemoryAge": "TreeMemoryAgeType_None",
		"TreeMemoryImage": ""
	},
	{
		"ID": 62,
		"Chapter": "Second Prologue",
		"Name": "Endings and Beginnings VI",
		"Desc": "",
		"WaypointID": 96,
		"NextScenarioID": 63,
		"MonsterLevel": 60,
		"BattleID": 0,
		"DialogBeforeID": 453100,
		"DialogAfterID": 0,
		"UnlockCondition": [
			{
				"ConditionType": "ScenarioUnlockConditionType_PlayerLevel",
				"Param": 60
			}
		],
		"PlayerExpReward": 0,
		"HeroExpReward": 0,
		"GoldReward": 0,
		"EnergySuccess": 0,
		"EnergyFail": 0,
		"FirstReward": [
			{
				"GoodsType": "GoodsType_VisitingCardBackGround",
				"Id": 2,
				"Count": 1
			}
		],
		"DropID": 0,
		"Achievement1ID": 0,
		"Achievement2ID": 0,
		"Achievement3ID": 0,
		"Strategy": "",
		"IsOpened": true,
		"TreeNode": 0,
		"TreeDialogID": 0,
		"MapImage": "",
		"TreeMemoryAge": "TreeMemoryAgeType_None",
		"TreeMemoryImage": ""
	},
	{
		"ID": 63,
		"Chapter": "Chapter 1",
		"Name": "A Light in the Fog",
		"Desc": "",
		"WaypointID": 301,
		"NextScenarioID": 64,
		"MonsterLevel": 60,
		"BattleID": 158,
		"DialogBeforeID": 453200,
		"DialogAfterID": 453250,
		"UnlockCondition": [
			{
				"ConditionType": "ScenarioUnlockConditionType_PlayerLevel",
				"Param": 60
			}
		],
		"PlayerExpReward": 15,
		"HeroExpReward": 120,
		"GoldReward": 1923,
		"EnergySuccess": 15,
		"EnergyFail": 3,
		"FirstReward": [
			{
				"GoodsType": "GoodsType_Crystal",
				"Id": 0,
				"Count": 30
			},
			{
				"GoodsType": "GoodsType_Item",
				"Id": 1035,
				"Count": 10
			},
			{
				"GoodsType": "GoodsType_EnchantStone",
				"Id": 31,
				"Count": 3
			}
		],
		"DropID": 147,
		"Achievement1ID": 0,
		"Achievement2ID": 0,
		"Achievement3ID": 0,
		"Strategy": "",
		"IsOpened": true,
		"TreeNode": 0,
		"TreeDialogID": 0,
		"MapImage": "",
		"TreeMemoryAge": "TreeMemoryAgeType_None",
		"TreeMemoryImage": ""
	},
	{
		"ID": 64,
		"Chapter": "Chapter 2",
		"Name": "Shadow of the World Tree",
		"Desc": "",
		"WaypointID": 302,
		"NextScenarioID": 65,
		"MonsterLevel": 61,
		"BattleID": 159,
		"DialogBeforeID": 501050,
		"DialogAfterID": 501060,
		"UnlockCondition": [
			{
				"ConditionType": "ScenarioUnlockConditionType_PlayerLevel",
				"Param": 61
			}
		],
		"PlayerExpReward": 15,
		"HeroExpReward": 120,
		"GoldReward": 1923,
		"EnergySuccess": 15,
		"EnergyFail": 3,
		"FirstReward": [
			{
				"GoodsType": "GoodsType_Crystal",
				"Id": 0,
				"Count": 30
			},
			{
				"GoodsType": "GoodsType_Item",
				"Id": 1035,
				"Count": 10
			},
			{
				"GoodsType": "GoodsType_EnchantStone",
				"Id": 29,
				"Count": 3
			}
		],
		"DropID": 147,
		"Achievement1ID": 100065,
		"AchievementReward1": [
			{
				"GoodsType": "GoodsType_Crystal",
				"Id": 0,
				"Count": 40
			}
		],
		"Achievement2ID": 0,
		"Achievement3ID": 0,
		"Strategy": "",
		"IsOpened": true,
		"TreeNode": 0,
		"TreeDialogID": 0,
		"MapImage": "",
		"TreeMemoryAge": "TreeMemoryAgeType_None",
		"TreeMemoryImage": ""
	},
	{
		"ID": 65,
		"Chapter": "Chapter 3",
		"Name": "The Comet's Secret",
		"Desc": "",
		"WaypointID": 303,
		"NextScenarioID": 66,
		"MonsterLevel": 61,
		"BattleID": 160,
		"DialogBeforeID": 510001,
		"DialogAfterID": 510101,
		"UnlockCondition": [
			{
				"ConditionType": "ScenarioUnlockConditionType_PlayerLevel",
				"Param": 61
			}
		],
		"PlayerExpReward": 15,
		"HeroExpReward": 120,
		"GoldReward": 1923,
		"EnergySuccess": 15,
		"EnergyFail": 3,
		"FirstReward": [
			{
				"GoodsType": "GoodsType_Crystal",
				"Id": 0,
				"Count": 30
			},
			{
				"GoodsType": "GoodsType_Item",
				"Id": 1035,
				"Count": 10
			},
			{
				"GoodsType": "GoodsType_EnchantStone",
				"Id": 33,
				"Count": 3
			}
		],
		"DropID": 147,
		"Achievement1ID": 0,
		"Achievement2ID": 0,
		"Achievement3ID": 0,
		"Strategy": "",
		"IsOpened": true,
		"TreeNode": 0,
		"TreeDialogID": 0,
		"MapImage": "",
		"TreeMemoryAge": "TreeMemoryAgeType_None",
		"TreeMemoryImage": ""
	},
	{
		"ID": 66,
		"Chapter": "Chapter 4",
		"Name": "Pursuer of Mysteries",
		"Desc": "",
		"WaypointID": 304,
		"NextScenarioID": 67,
		"MonsterLevel": 62,
		"BattleID": 161,
		"DialogBeforeID": 500000,
		"DialogAfterID": 500020,
		"UnlockCondition": [
			{
				"ConditionType": "ScenarioUnlockConditionType_PlayerLevel",
				"Param": 62
			}
		],
		"PlayerExpReward": 15,
		"HeroExpReward": 120,
		"GoldReward": 1923,
		"EnergySuccess": 15,
		"EnergyFail": 3,
		"FirstReward": [
			{
				"GoodsType": "GoodsType_Crystal",
				"Id": 0,
				"Count": 30
			},
			{
				"GoodsType": "GoodsType_Item",
				"Id": 1035,
				"Count": 10
			},
			{
				"GoodsType": "GoodsType_EnchantStone",
				"Id": 30,
				"Count": 3
			}
		],
		"DropID": 147,
		"Achievement1ID": 100066,
		"AchievementReward1": [
			{
				"GoodsType": "GoodsType_BrillianceMithralStone",
				"Id": 0,
				"Count": 50
			}
		],
		"Achievement2ID": 0,
		"Achievement3ID": 0,
		"Strategy": "",
		"IsOpened": true,
		"TreeNode": 0,
		"TreeDialogID": 0,
		"MapImage": "",
		"TreeMemoryAge": "TreeMemoryAgeType_None",
		"TreeMemoryImage": ""
	},
	{
		"ID": 67,
		"Chapter": "Chapter 5",
		"Name": "Alhazard Vs. Alhazard",
		"Desc": "",
		"WaypointID": 305,
		"NextScenarioID": 68,
		"MonsterLevel": 62,
		"BattleID": 162,
		"DialogBeforeID": 500100,
		"DialogAfterID": 500120,
		"UnlockCondition": [
			{
				"ConditionType": "ScenarioUnlockConditionType_PlayerLevel",
				"Param": 62
			}
		],
		"PlayerExpReward": 15,
		"HeroExpReward": 120,
		"GoldReward": 1923,
		"EnergySuccess": 15,
		"EnergyFail": 3,
		"FirstReward": [
			{
				"GoodsType": "GoodsType_Crystal",
				"Id": 0,
				"Count": 30
			},
			{
				"GoodsType": "GoodsType_Item",
				"Id": 1035,
				"Count": 10
			},
			{
				"GoodsType": "GoodsType_EnchantStone",
				"Id": 27,
				"Count": 3
			}
		],
		"DropID": 147,
		"Achievement1ID": 100072,
		"AchievementReward1": [
			{
				"GoodsType": "GoodsType_Item",
				"Id": 4534,
				"Count": 1
			}
		],
		"Achievement2ID": 0,
		"Achievement3ID": 0,
		"Strategy": "",
		"IsOpened": true,
		"TreeNode": 0,
		"TreeDialogID": 0,
		"MapImage": "",
		"TreeMemoryAge": "TreeMemoryAgeType_None",
		"TreeMemoryImage": ""
	},
	{
		"ID": 68,
		"Chapter": "Chapter 6",
		"Name": "Immolation Crystal Marshal",
		"Desc": "",
		"WaypointID": 306,
		"NextScenarioID": 69,
		"MonsterLevel": 63,
		"BattleID": 164,
		"DialogBeforeID": 500200,
		"DialogAfterID": 0,
		"UnlockCondition": [
			{
				"ConditionType": "ScenarioUnlockConditionType_PlayerLevel",
				"Param": 63
			}
		],
		"PlayerExpReward": 15,
		"HeroExpReward": 120,
		"GoldReward": 1923,
		"EnergySuccess": 15,
		"EnergyFail": 3,
		"FirstReward": [
			{
				"GoodsType": "GoodsType_Crystal",
				"Id": 0,
				"Count": 30
			},
			{
				"GoodsType": "GoodsType_Item",
				"Id": 1035,
				"Count": 25
			},
			{
				"GoodsType": "GoodsType_EnchantStone",
				"Id": 28,
				"Count": 3
			}
		],
		"DropID": 142,
		"Achievement1ID": 100119,
		"AchievementReward1": [
			{
				"GoodsType": "GoodsType_Crystal",
				"Id": 0,
				"Count": 40
			}
		],
		"Achievement2ID": 0,
		"Achievement3ID": 0,
		"Strategy": "",
		"IsOpened": true,
		"TreeNode": 0,
		"TreeDialogID": 0,
		"MapImage": "",
		"TreeMemoryAge": "TreeMemoryAgeType_None",
		"TreeMemoryImage": ""
	},
	{
		"ID": 69,
		"Chapter": "Chapter 7",
		"Name": "Twins of the Tree, Wings of the Steel",
		"Desc": "",
		"WaypointID": 307,
		"NextScenarioID": 70,
		"MonsterLevel": 63,
		"BattleID": 165,
		"DialogBeforeID": 530001,
		"DialogAfterID": 530030,
		"UnlockCondition": [
			{
				"ConditionType": "ScenarioUnlockConditionType_PlayerLevel",
				"Param": 63
			}
		],
		"PlayerExpReward": 15,
		"HeroExpReward": 120,
		"GoldReward": 1923,
		"EnergySuccess": 15,
		"EnergyFail": 3,
		"FirstReward": [
			{
				"GoodsType": "GoodsType_Crystal",
				"Id": 0,
				"Count": 30
			},
			{
				"GoodsType": "GoodsType_Item",
				"Id": 1035,
				"Count": 25
			},
			{
				"GoodsType": "GoodsType_EnchantStone",
				"Id": 29,
				"Count": 3
			}
		],
		"DropID": 143,
		"Achievement1ID": 100122,
		"AchievementReward1": [
			{
				"GoodsType": "GoodsType_BrillianceMithralStone",
				"Id": 0,
				"Count": 50
			}
		],
		"Achievement2ID": 0,
		"Achievement3ID": 0,
		"Strategy": "",
		"IsOpened": true,
		"TreeNode": 0,
		"TreeDialogID": 0,
		"MapImage": "",
		"TreeMemoryAge": "TreeMemoryAgeType_None",
		"TreeMemoryImage": ""
	},
	{
		"ID": 70,
		"Chapter": "Chapter 8",
		"Name": "The Calamitous Prince",
		"Desc": "",
		"WaypointID": 308,
		"NextScenarioID": 71,
		"MonsterLevel": 64,
		"BattleID": 166,
		"DialogBeforeID": 0,
		"DialogAfterID": 540001,
		"UnlockCondition": [
			{
				"ConditionType": "ScenarioUnlockConditionType_PlayerLevel",
				"Param": 64
			}
		],
		"PlayerExpReward": 15,
		"HeroExpReward": 120,
		"GoldReward": 1923,
		"EnergySuccess": 15,
		"EnergyFail": 3,
		"FirstReward": [
			{
				"GoodsType": "GoodsType_Crystal",
				"Id": 0,
				"Count": 30
			},
			{
				"GoodsType": "GoodsType_Item",
				"Id": 1095,
				"Count": 20
			},
			{
				"GoodsType": "GoodsType_EnchantStone",
				"Id": 36,
				"Count": 3
			}
		],
		"DropID": 144,
		"Achievement1ID": 0,
		"Achievement2ID": 0,
		"Achievement3ID": 0,
		"Strategy": "",
		"IsOpened": true,
		"TreeNode": 0,
		"TreeDialogID": 0,
		"MapImage": "",
		"TreeMemoryAge": "TreeMemoryAgeType_None",
		"TreeMemoryImage": ""
	},
	{
		"ID": 71,
		"Chapter": "Chapter 9",
		"Name": "The Battle of Caconsis",
		"Desc": "",
		"WaypointID": 309,
		"NextScenarioID": 72,
		"MonsterLevel": 64,
		"BattleID": 167,
		"DialogBeforeID": 550001,
		"DialogAfterID": 550026,
		"UnlockCondition": [
			{
				"ConditionType": "ScenarioUnlockConditionType_PlayerLevel",
				"Param": 64
			}
		],
		"PlayerExpReward": 15,
		"HeroExpReward": 120,
		"GoldReward": 1923,
		"EnergySuccess": 15,
		"EnergyFail": 3,
		"FirstReward": [
			{
				"GoodsType": "GoodsType_Crystal",
				"Id": 0,
				"Count": 30
			},
			{
				"GoodsType": "GoodsType_Item",
				"Id": 1095,
				"Count": 20
			},
			{
				"GoodsType": "GoodsType_EnchantStone",
				"Id": 35,
				"Count": 3
			}
		],
		"DropID": 145,
		"Achievement1ID": 100121,
		"AchievementReward1": [
			{
				"GoodsType": "GoodsType_Item",
				"Id": 4534,
				"Count": 1
			}
		],
		"Achievement2ID": 0,
		"Achievement3ID": 0,
		"Strategy": "",
		"IsOpened": true,
		"TreeNode": 0,
		"TreeDialogID": 0,
		"MapImage": "",
		"TreeMemoryAge": "TreeMemoryAgeType_None",
		"TreeMemoryImage": ""
	},
	{
		"ID": 72,
		"Chapter": "Chapter 10",
		"Name": "Emerald Wing, Immolation Crystal",
		"Desc": "",
		"WaypointID": 310,
		"NextScenarioID": 73,
		"MonsterLevel": 65,
		"BattleID": 168,
		"DialogBeforeID": 560001,
		"DialogAfterID": 561001,
		"UnlockCondition": [
			{
				"ConditionType": "ScenarioUnlockConditionType_PlayerLevel",
				"Param": 65
			}
		],
		"PlayerExpReward": 15,
		"HeroExpReward": 120,
		"GoldReward": 1923,
		"EnergySuccess": 15,
		"EnergyFail": 3,
		"FirstReward": [
			{
				"GoodsType": "GoodsType_Crystal",
				"Id": 0,
				"Count": 30
			},
			{
				"GoodsType": "GoodsType_Item",
				"Id": 1095,
				"Count": 20
			},
			{
				"GoodsType": "GoodsType_EnchantStone",
				"Id": 31,
				"Count": 3
			}
		],
		"DropID": 146,
		"Achievement1ID": 0,
		"Achievement2ID": 0,
		"Achievement3ID": 0,
		"Strategy": "",
		"IsOpened": true,
		"TreeNode": 0,
		"TreeDialogID": 0,
		"MapImage": "",
		"TreeMemoryAge": "TreeMemoryAgeType_None",
		"TreeMemoryImage": ""
	},
	{
		"ID": 73,
		"Chapter": "Chapter 11",
		"Name": "Misty Ruins",
		"Desc": "",
		"WaypointID": 311,
		"NextScenarioID": 74,
		"MonsterLevel": 65,
		"BattleID": 169,
		"DialogBeforeID": 570001,
		"DialogAfterID": 571001,
		"UnlockCondition": [
			{
				"ConditionType": "ScenarioUnlockConditionType_PlayerLevel",
				"Param": 65
			}
		],
		"PlayerExpReward": 15,
		"HeroExpReward": 120,
		"GoldReward": 1923,
		"EnergySuccess": 15,
		"EnergyFail": 3,
		"FirstReward": [
			{
				"GoodsType": "GoodsType_Crystal",
				"Id": 0,
				"Count": 30
			},
			{
				"GoodsType": "GoodsType_Item",
				"Id": 1095,
				"Count": 20
			},
			{
				"GoodsType": "GoodsType_Item",
				"Id": 3212,
				"Count": 4
			}
		],
		"DropID": 147,
		"Achievement1ID": 100157,
		"AchievementReward1": [
			{
				"GoodsType": "GoodsType_Crystal",
				"Id": 0,
				"Count": 40
			}
		],
		"Achievement2ID": 0,
		"Achievement3ID": 0,
		"Strategy": "",
		"IsOpened": true,
		"TreeNode": 0,
		"TreeDialogID": 0,
		"MapImage": "",
		"TreeMemoryAge": "TreeMemoryAgeType_None",
		"TreeMemoryImage": ""
	},
	{
		"ID": 74,
		"Chapter": "Chapter 12",
		"Name": "The Land of Crystals",
		"Desc": "",
		"WaypointID": 312,
		"NextScenarioID": 75,
		"MonsterLevel": 65,
		"BattleID": 170,
		"DialogBeforeID": 580000,
		"DialogAfterID": 580020,
		"UnlockCondition": [
			{
				"ConditionType": "ScenarioUnlockConditionType_PlayerLevel",
				"Param": 65
			}
		],
		"PlayerExpReward": 15,
		"HeroExpReward": 120,
		"GoldReward": 1923,
		"EnergySuccess": 15,
		"EnergyFail": 3,
		"FirstReward": [
			{
				"GoodsType": "GoodsType_Crystal",
				"Id": 0,
				"Count": 30
			},
			{
				"GoodsType": "GoodsType_Item",
				"Id": 1095,
				"Count": 20
			},
			{
				"GoodsType": "GoodsType_EnchantStone",
				"Id": 32,
				"Count": 3
			}
		],
		"DropID": 142,
		"Achievement1ID": 100149,
		"AchievementReward1": [
			{
				"GoodsType": "GoodsType_BrillianceMithralStone",
				"Id": 0,
				"Count": 50
			}
		],
		"Achievement2ID": 0,
		"Achievement3ID": 0,
		"Strategy": "",
		"IsOpened": true,
		"TreeNode": 0,
		"TreeDialogID": 0,
		"MapImage": "",
		"TreeMemoryAge": "TreeMemoryAgeType_None",
		"TreeMemoryImage": ""
	},
	{
		"ID": 75,
		"Chapter": "Chapter 13",
		"Name": "Crystal Lady Knight",
		"Desc": "",
		"WaypointID": 313,
		"NextScenarioID": 76,
		"MonsterLevel": 66,
		"BattleID": 171,
		"DialogBeforeID": 590001,
		"DialogAfterID": 590030,
		"UnlockCondition": [
			{
				"ConditionType": "ScenarioUnlockConditionType_PlayerLevel",
				"Param": 66
			}
		],
		"PlayerExpReward": 15,
		"HeroExpReward": 120,
		"GoldReward": 1923,
		"EnergySuccess": 15,
		"EnergyFail": 3,
		"FirstReward": [
			{
				"GoodsType": "GoodsType_Crystal",
				"Id": 0,
				"Count": 30
			},
			{
				"GoodsType": "GoodsType_Item",
				"Id": 1095,
				"Count": 20
			},
			{
				"GoodsType": "GoodsType_Item",
				"Id": 3223,
				"Count": 4
			}
		],
		"DropID": 143,
		"Achievement1ID": 0,
		"Achievement2ID": 0,
		"Achievement3ID": 0,
		"Strategy": "",
		"IsOpened": true,
		"TreeNode": 0,
		"TreeDialogID": 0,
		"MapImage": "",
		"TreeMemoryAge": "TreeMemoryAgeType_None",
		"TreeMemoryImage": ""
	},
	{
		"ID": 76,
		"Chapter": "Chapter 14",
		"Name": "Fake Sword Field",
		"Desc": "",
		"WaypointID": 314,
		"NextScenarioID": 77,
		"MonsterLevel": 66,
		"BattleID": 172,
		"DialogBeforeID": 600001,
		"DialogAfterID": 600040,
		"UnlockCondition": [
			{
				"ConditionType": "ScenarioUnlockConditionType_PlayerLevel",
				"Param": 66
			}
		],
		"PlayerExpReward": 15,
		"HeroExpReward": 120,
		"GoldReward": 1923,
		"EnergySuccess": 15,
		"EnergyFail": 3,
		"FirstReward": [
			{
				"GoodsType": "GoodsType_Crystal",
				"Id": 0,
				"Count": 30
			},
			{
				"GoodsType": "GoodsType_Item",
				"Id": 1095,
				"Count": 20
			},
			{
				"GoodsType": "GoodsType_EnchantStone",
				"Id": 35,
				"Count": 3
			}
		],
		"DropID": 144,
		"Achievement1ID": 0,
		"Achievement2ID": 0,
		"Achievement3ID": 0,
		"Strategy": "",
		"IsOpened": true,
		"TreeNode": 0,
		"TreeDialogID": 0,
		"MapImage": "",
		"TreeMemoryAge": "TreeMemoryAgeType_None",
		"TreeMemoryImage": ""
	},
	{
		"ID": 77,
		"Chapter": "Chapter 15",
		"Name": "An Everlasting Bond",
		"Desc": "",
		"WaypointID": 315,
		"NextScenarioID": 78,
		"MonsterLevel": 67,
		"BattleID": 173,
		"DialogBeforeID": 610001,
		"DialogAfterID": 610033,
		"UnlockCondition": [
			{
				"ConditionType": "ScenarioUnlockConditionType_PlayerLevel",
				"Param": 67
			}
		],
		"PlayerExpReward": 15,
		"HeroExpReward": 120,
		"GoldReward": 1923,
		"EnergySuccess": 15,
		"EnergyFail": 3,
		"FirstReward": [
			{
				"GoodsType": "GoodsType_Crystal",
				"Id": 0,
				"Count": 30
			},
			{
				"GoodsType": "GoodsType_Item",
				"Id": 1095,
				"Count": 20
			},
			{
				"GoodsType": "GoodsType_Item",
				"Id": 3227,
				"Count": 4
			}
		],
		"DropID": 145,
		"Achievement1ID": 100150,
		"AchievementReward1": [
			{
				"GoodsType": "GoodsType_Item",
				"Id": 4534,
				"Count": 1
			}
		],
		"Achievement2ID": 0,
		"Achievement3ID": 0,
		"Strategy": "",
		"IsOpened": true,
		"TreeNode": 0,
		"TreeDialogID": 0,
		"MapImage": "",
		"TreeMemoryAge": "TreeMemoryAgeType_None",
		"TreeMemoryImage": ""
	},
	{
		"ID": 78,
		"Chapter": "Chapter 15",
		"Name": "An Everlasting Bond",
		"Desc": "",
		"WaypointID": 315,
		"NextScenarioID": 0,
		"MonsterLevel": 67,
		"BattleID": 173,
		"DialogBeforeID": 610001,
		"DialogAfterID": 610033,
		"UnlockCondition": [
			{
				"ConditionType": "ScenarioUnlockConditionType_PlayerLevel",
				"Param": 62
			}
		],
		"PlayerExpReward": 15,
		"HeroExpReward": 120,
		"GoldReward": 1923,
		"EnergySuccess": 15,
		"EnergyFail": 3,
		"FirstReward": [
			{
				"GoodsType": "GoodsType_Crystal",
				"Id": 0,
				"Count": 30
			},
			{
				"GoodsType": "GoodsType_Item",
				"Id": 1095,
				"Count": 20
			},
			{
				"GoodsType": "GoodsType_EnchantStone",
				"Id": 31,
				"Count": 3
			}
		],
		"DropID": 146,
		"Achievement1ID": 0,
		"Achievement2ID": 0,
		"Achievement3ID": 0,
		"Strategy": "",
		"IsOpened": false,
		"TreeNode": 0,
		"TreeDialogID": 0,
		"MapImage": "",
		"TreeMemoryAge": "TreeMemoryAgeType_None",
		"TreeMemoryImage": ""
	},
	{
		"ID": 1001,
		"Chapter": "Fragmented Story",
		"Name": "Crimzonian Knight",
		"Desc": "The knight from another world hasn't fallen just yet. He carries with him long and heavy memories...",
		"WaypointID": 506,
		"NextScenarioID": 0,
		"MonsterLevel": 61,
		"BattleID": 46000,
		"DialogBeforeID": 0,
		"DialogAfterID": 0,
		"UnlockCondition": [
			{
				"ConditionType": "ScenarioUnlockConditionType_BattleAchievement",
				"Param": 100065
			}
		],
		"PlayerExpReward": 15,
		"HeroExpReward": 120,
		"GoldReward": 1923,
		"EnergySuccess": 15,
		"EnergyFail": 3,
		"FirstReward": [
			{
				"GoodsType": "GoodsType_JobMaterial",
				"Id": 29,
				"Count": 4
			},
			{
				"GoodsType": "GoodsType_EnchantStone",
				"Id": 39,
				"Count": 3
			},
			{
				"GoodsType": "GoodsType_Item",
				"Id": 3221,
				"Count": 3
			}
		],
		"DropID": 147,
		"Achievement1ID": 0,
		"Achievement2ID": 0,
		"Achievement3ID": 0,
		"Strategy": "",
		"IsOpened": true,
		"TreeNode": 1,
		"TreeDialogID": 101,
		"MapImage": "UI/BattleThumbnail_ABS/WildField024.png",
		"TreeMemoryAge": "TreeMemoryAgeType_Silver",
		"TreeMemoryImage": "UI/StoryReview_ABS/Stamp_01_01.png"
	},
	{
		"ID": 1002,
		"Chapter": "Fragmented Story",
		"Name": "Kingdom Defender",
		"Desc": "The story of the Enigma Knight reveals memories of the Kingdom Defender's origin...",
		"WaypointID": 516,
		"NextScenarioID": 0,
		"MonsterLevel": 62,
		"BattleID": 46003,
		"DialogBeforeID": 7002001,
		"DialogAfterID": 7002101,
		"UnlockCondition": [
			{
				"ConditionType": "ScenarioUnlockConditionType_BattleAchievement",
				"Param": 100066
			}
		],
		"PlayerExpReward": 15,
		"HeroExpReward": 120,
		"GoldReward": 1923,
		"EnergySuccess": 15,
		"EnergyFail": 3,
		"FirstReward": [
			{
				"GoodsType": "GoodsType_JobMaterial",
				"Id": 37,
				"Count": 4
			},
			{
				"GoodsType": "GoodsType_Item",
				"Id": 3209,
				"Count": 4
			},
			{
				"GoodsType": "GoodsType_EnchantStone",
				"Id": 32,
				"Count": 3
			}
		],
		"DropID": 147,
		"Achievement1ID": 0,
		"Achievement2ID": 0,
		"Achievement3ID": 0,
		"Strategy": "",
		"IsOpened": true,
		"TreeNode": 2,
		"TreeDialogID": 201,
		"MapImage": "UI/BattleThumbnail_ABS/Town003.png",
		"TreeMemoryAge": "TreeMemoryAgeType_Silver",
		"TreeMemoryImage": "UI/StoryReview_ABS/Stamp_01_01.png"
	},
	{
		"ID": 1003,
		"Chapter": "Fragmented Story",
		"Name": "Heart of Alhazard",
		"Desc": "The sword Matthew wields is broken, but the two souls meet once again in the realm of memories...",
		"WaypointID": 522,
		"NextScenarioID": 0,
		"MonsterLevel": 62,
		"BattleID": 46006,
		"DialogBeforeID": 0,
		"DialogAfterID": 7003001,
		"UnlockCondition": [
			{
				"ConditionType": "ScenarioUnlockConditionType_BattleAchievement",
				"Param": 100072
			}
		],
		"PlayerExpReward": 15,
		"HeroExpReward": 120,
		"GoldReward": 1923,
		"EnergySuccess": 15,
		"EnergyFail": 3,
		"FirstReward": [
			{
				"GoodsType": "GoodsType_JobMaterial",
				"Id": 26,
				"Count": 4
			},
			{
				"GoodsType": "GoodsType_Item",
				"Id": 3220,
				"Count": 4
			},
			{
				"GoodsType": "GoodsType_Item",
				"Id": 3211,
				"Count": 3
			}
		],
		"DropID": 147,
		"Achievement1ID": 0,
		"Achievement2ID": 0,
		"Achievement3ID": 0,
		"Strategy": "",
		"IsOpened": true,
		"TreeNode": 41,
		"TreeDialogID": 301,
		"MapImage": "UI/BattleThumbnail_ABS/Ground001.png",
		"TreeMemoryAge": "TreeMemoryAgeType_Colour",
		"TreeMemoryImage": "UI/StoryReview_ABS/Stamp_03_01.png"
	},
	{
		"ID": 1004,
		"Chapter": "Fragmented Story",
		"Name": "Unshakable Shadow",
		"Desc": "Almeda should be careful of that dream... That old dream about Gizarof...",
		"WaypointID": 529,
		"NextScenarioID": 0,
		"MonsterLevel": 63,
		"BattleID": 46009,
		"DialogBeforeID": 0,
		"DialogAfterID": 7004000,
		"UnlockCondition": [
			{
				"ConditionType": "ScenarioUnlockConditionType_BattleAchievement",
				"Param": 100119
			}
		],
		"PlayerExpReward": 15,
		"HeroExpReward": 120,
		"GoldReward": 1923,
		"EnergySuccess": 15,
		"EnergyFail": 3,
		"FirstReward": [
			{
				"GoodsType": "GoodsType_JobMaterial",
				"Id": 31,
				"Count": 4
			},
			{
				"GoodsType": "GoodsType_Item",
				"Id": 3225,
				"Count": 4
			},
			{
				"GoodsType": "GoodsType_Item",
				"Id": 5011,
				"Count": 4
			}
		],
		"DropID": 140,
		"Achievement1ID": 0,
		"Achievement2ID": 0,
		"Achievement3ID": 0,
		"Strategy": "",
		"IsOpened": true,
		"TreeNode": 42,
		"TreeDialogID": 401,
		"MapImage": "UI/BattleThumbnail_ABS/Castle007.png",
		"TreeMemoryAge": "TreeMemoryAgeType_Colour",
		"TreeMemoryImage": "UI/StoryReview_ABS/Stamp_03_01.png"
	},
	{
		"ID": 1005,
		"Chapter": "Fragmented Story",
		"Name": "Glory of the Continent",
		"Desc": "The golden age of Caconsis, cherished memories of the nation's past heroes...",
		"WaypointID": 535,
		"NextScenarioID": 0,
		"MonsterLevel": 63,
		"BattleID": 46015,
		"DialogBeforeID": 7005001,
		"DialogAfterID": 7005101,
		"UnlockCondition": [
			{
				"ConditionType": "ScenarioUnlockConditionType_BattleAchievement",
				"Param": 100122
			}
		],
		"PlayerExpReward": 15,
		"HeroExpReward": 120,
		"GoldReward": 1923,
		"EnergySuccess": 15,
		"EnergyFail": 3,
		"FirstReward": [
			{
				"GoodsType": "GoodsType_JobMaterial",
				"Id": 36,
				"Count": 4
			},
			{
				"GoodsType": "GoodsType_Item",
				"Id": 3256,
				"Count": 3
			},
			{
				"GoodsType": "GoodsType_Item",
				"Id": 3251,
				"Count": 3
			}
		],
		"DropID": 141,
		"Achievement1ID": 0,
		"Achievement2ID": 0,
		"Achievement3ID": 0,
		"Strategy": "",
		"IsOpened": true,
		"TreeNode": 3,
		"TreeDialogID": 501,
		"MapImage": "UI/BattleThumbnail_ABS/WildField015.png",
		"TreeMemoryAge": "TreeMemoryAgeType_Silver",
		"TreeMemoryImage": "UI/StoryReview_ABS/Stamp_01_01.png"
	},
	{
		"ID": 1006,
		"Chapter": "Fragmented Story",
		"Name": "Ten-Year Cycle",
		"Desc": "Ilucia falls into a distant memory... Ten years ago... she had a certain encounter...",
		"WaypointID": 542,
		"NextScenarioID": 0,
		"MonsterLevel": 64,
		"BattleID": 46012,
		"DialogBeforeID": 7006001,
		"DialogAfterID": 7006008,
		"UnlockCondition": [
			{
				"ConditionType": "ScenarioUnlockConditionType_BattleAchievement",
				"Param": 100121
			}
		],
		"PlayerExpReward": 15,
		"HeroExpReward": 120,
		"GoldReward": 1923,
		"EnergySuccess": 15,
		"EnergyFail": 3,
		"FirstReward": [
			{
				"GoodsType": "GoodsType_JobMaterial",
				"Id": 27,
				"Count": 4
			},
			{
				"GoodsType": "GoodsType_Item",
				"Id": 3256,
				"Count": 3
			},
			{
				"GoodsType": "GoodsType_Item",
				"Id": 3249,
				"Count": 3
			}
		],
		"DropID": 142,
		"Achievement1ID": 0,
		"Achievement2ID": 0,
		"Achievement3ID": 0,
		"Strategy": "",
		"IsOpened": true,
		"TreeNode": 21,
		"TreeDialogID": 601,
		"MapImage": "UI/BattleThumbnail_ABS/Plain002.PNG",
		"TreeMemoryAge": "TreeMemoryAgeType_Golden",
		"TreeMemoryImage": "UI/StoryReview_ABS/Stamp_02_01.png"
	},
	{
		"ID": 1007,
		"Chapter": "Fragmented Story",
		"Name": "From Within the Fog",
		"Desc": "After the battle, the heroes return to the Ancient Weather Center once again...",
		"WaypointID": 556,
		"NextScenarioID": 0,
		"MonsterLevel": 65,
		"BattleID": 46017,
		"DialogBeforeID": 7007001,
		"DialogAfterID": 7007021,
		"UnlockCondition": [
			{
				"ConditionType": "ScenarioUnlockConditionType_BattleAchievement",
				"Param": 100157
			}
		],
		"PlayerExpReward": 15,
		"HeroExpReward": 120,
		"GoldReward": 1923,
		"EnergySuccess": 15,
		"EnergyFail": 3,
		"FirstReward": [
			{
				"GoodsType": "GoodsType_JobMaterial",
				"Id": 38,
				"Count": 4
			},
			{
				"GoodsType": "GoodsType_Item",
				"Id": 3232,
				"Count": 2
			},
			{
				"GoodsType": "GoodsType_EnchantStone",
				"Id": 31,
				"Count": 3
			}
		],
		"DropID": 143,
		"Achievement1ID": 0,
		"Achievement2ID": 0,
		"Achievement3ID": 0,
		"Strategy": "",
		"IsOpened": true,
		"TreeNode": 22,
		"TreeDialogID": 701,
		"MapImage": "UI/BattleThumbnail_ABS/WildField034.png",
		"TreeMemoryAge": "TreeMemoryAgeType_Golden",
		"TreeMemoryImage": "UI/StoryReview_ABS/Stamp_02_01.png"
	},
	{
		"ID": 1008,
		"Chapter": "Fragmented Story",
		"Name": "Crystal Soul",
		"Desc": "Unable to sleep, Prince Oliver meets a girl on the moors in the middle of the night...",
		"WaypointID": 562,
		"NextScenarioID": 0,
		"MonsterLevel": 65,
		"BattleID": 46019,
		"DialogBeforeID": 7008001,
		"DialogAfterID": 7008070,
		"UnlockCondition": [
			{
				"ConditionType": "ScenarioUnlockConditionType_BattleAchievement",
				"Param": 100149
			}
		],
		"PlayerExpReward": 15,
		"HeroExpReward": 120,
		"GoldReward": 1923,
		"EnergySuccess": 15,
		"EnergyFail": 3,
		"FirstReward": [
			{
				"GoodsType": "GoodsType_JobMaterial",
				"Id": 28,
				"Count": 4
			},
			{
				"GoodsType": "GoodsType_Item",
				"Id": 3251,
				"Count": 4
			},
			{
				"GoodsType": "GoodsType_Item",
				"Id": 5019,
				"Count": 4
			}
		],
		"DropID": 144,
		"Achievement1ID": 0,
		"Achievement2ID": 0,
		"Achievement3ID": 0,
		"Strategy": "",
		"IsOpened": true,
		"TreeNode": 4,
		"TreeDialogID": 801,
		"MapImage": "UI/BattleThumbnail_ABS/Desert005.png",
		"TreeMemoryAge": "TreeMemoryAgeType_Silver",
		"TreeMemoryImage": "UI/StoryReview_ABS/Stamp_01_01.png"
	},
	{
		"ID": 1009,
		"Chapter": "Fragmented Story",
		"Name": "Past & Future",
		"Desc": "With his friends having passed away one by one, Landius now arrives at the Yggdrasil in the north...",
		"WaypointID": 573,
		"NextScenarioID": 0,
		"MonsterLevel": 67,
		"BattleID": 46022,
		"DialogBeforeID": 7009001,
		"DialogAfterID": 7009025,
		"UnlockCondition": [
			{
				"ConditionType": "ScenarioUnlockConditionType_BattleAchievement",
				"Param": 100150
			}
		],
		"PlayerExpReward": 15,
		"HeroExpReward": 120,
		"GoldReward": 1923,
		"EnergySuccess": 15,
		"EnergyFail": 3,
		"FirstReward": [
			{
				"GoodsType": "GoodsType_JobMaterial",
				"Id": 25,
				"Count": 4
			},
			{
				"GoodsType": "GoodsType_Item",
				"Id": 3256,
				"Count": 4
			},
			{
				"GoodsType": "GoodsType_EnchantStone",
				"Id": 39,
				"Count": 3
			}
		],
		"DropID": 145,
		"Achievement1ID": 0,
		"Achievement2ID": 0,
		"Achievement3ID": 0,
		"Strategy": "",
		"IsOpened": true,
		"TreeNode": 43,
		"TreeDialogID": 901,
		"MapImage": "UI/BattleThumbnail_ABS/WildField035.png",
		"TreeMemoryAge": "TreeMemoryAgeType_Colour",
		"TreeMemoryImage": "UI/StoryReview_ABS/Stamp_03_01.png"
	}
]