[
	{
		"ID": 1,
		"Name": "区域1",
		"WaypointsID": [
			1,
			2,
			3,
			4,
			5,
			54
		],
		"OpenByScenarioID": 0
	},
	{
		"ID": 2,
		"Name": "区域2",
		"WaypointsID": [
			6,
			7,
			55,
			56,
			8,
			9
		],
		"OpenByScenarioID": 2
	},
	{
		"ID": 3,
		"Name": "区域3",
		"WaypointsID": [
			10,
			57,
			11,
			12
		],
		"OpenByScenarioID": 3
	},
	{
		"ID": 4,
		"Name": "区域4",
		"WaypointsID": [
			13,
			58,
			78,
			14,
			15,
			16,
			17,
			59
		],
		"OpenByScenarioID": 4
	},
	{
		"ID": 5,
		"Name": "区域5",
		"WaypointsID": [
			18,
			19,
			20,
			60,
			61,
			21
		],
		"OpenByScenarioID": 6
	},
	{
		"ID": 6,
		"Name": "区域6",
		"WaypointsID": [
			22,
			23,
			24
		],
		"OpenByScenarioID": 7
	},
	{
		"ID": 7,
		"Name": "区域7",
		"WaypointsID": [
			25,
			79,
			80,
			26
		],
		"OpenByScenarioID": 8
	},
	{
		"ID": 8,
		"Name": "区域8",
		"WaypointsID": [
			27
		],
		"OpenByScenarioID": 9
	},
	{
		"ID": 9,
		"Name": "区域9",
		"WaypointsID": [
			28,
			29,
			30,
			31
		],
		"OpenByScenarioID": 10
	},
	{
		"ID": 10,
		"Name": "区域10",
		"WaypointsID": [
			63,
			64,
			65,
			43
		],
		"OpenByScenarioID": 11
	},
	{
		"ID": 11,
		"Name": "区域11",
		"WaypointsID": [
			32,
			33,
			34,
			66,
			67,
			68,
			69,
			35
		],
		"OpenByScenarioID": 14
	},
	{
		"ID": 12,
		"Name": "区域12",
		"WaypointsID": [
			36,
			37,
			70,
			71,
			38,
			39
		],
		"OpenByScenarioID": 15
	},
	{
		"ID": 13,
		"Name": "区域13",
		"WaypointsID": [
			40,
			41,
			42,
			62,
			44,
			72,
			45,
			46
		],
		"OpenByScenarioID": 16
	},
	{
		"ID": 14,
		"Name": "区域14",
		"WaypointsID": [
			47,
			48,
			73,
			74,
			75,
			76,
			49
		],
		"OpenByScenarioID": 17
	},
	{
		"ID": 15,
		"Name": "区域15",
		"WaypointsID": [
			50,
			51,
			77,
			52,
			81,
			53
		],
		"OpenByScenarioID": 18
	},
	{
		"ID": 16,
		"Name": "区域16",
		"WaypointsID": [
			101,
			102,
			103,
			104,
			82
		],
		"OpenByScenarioID": 19
	},
	{
		"ID": 17,
		"Name": "区域17",
		"WaypointsID": [
			105,
			106,
			107,
			108,
			109,
			110,
			121,
			83
		],
		"OpenByScenarioID": 21
	},
	{
		"ID": 18,
		"Name": "区域18",
		"WaypointsID": [
			119,
			111,
			112,
			113,
			84,
			114,
			115,
			116,
			117,
			118
		],
		"OpenByScenarioID": 22
	},
	{
		"ID": 19,
		"Name": "区域19",
		"WaypointsID": [
			120,
			85
		],
		"OpenByScenarioID": 23
	},
	{
		"ID": 20,
		"Name": "区域20",
		"WaypointsID": [
			122,
			123,
			86
		],
		"OpenByScenarioID": 24
	},
	{
		"ID": 21,
		"Name": "区域21",
		"WaypointsID": [
			124,
			125,
			126,
			127,
			128,
			129,
			130,
			131,
			132,
			133,
			134
		],
		"OpenByScenarioID": 25
	},
	{
		"ID": 22,
		"Name": "区域22",
		"WaypointsID": [
			135,
			136,
			137,
			138,
			140,
			141,
			139,
			142
		],
		"OpenByScenarioID": 26
	},
	{
		"ID": 23,
		"Name": "区域23",
		"WaypointsID": [
			143,
			144,
			145,
			146,
			147,
			148,
			149
		],
		"OpenByScenarioID": 27
	},
	{
		"ID": 24,
		"Name": "区域24",
		"WaypointsID": [
			150,
			151,
			152
		],
		"OpenByScenarioID": 28
	},
	{
		"ID": 25,
		"Name": "区域25",
		"WaypointsID": [
			153,
			154,
			155,
			156
		],
		"OpenByScenarioID": 30
	},
	{
		"ID": 26,
		"Name": "区域26",
		"WaypointsID": [
			157,
			158,
			159,
			160,
			87
		],
		"OpenByScenarioID": 31
	},
	{
		"ID": 27,
		"Name": "区域27",
		"WaypointsID": [
			161,
			162,
			163,
			164,
			88
		],
		"OpenByScenarioID": 32
	},
	{
		"ID": 28,
		"Name": "区域28",
		"WaypointsID": [
			170,
			171,
			172,
			173,
			165,
			166,
			167,
			168,
			169,
			89
		],
		"OpenByScenarioID": 33
	},
	{
		"ID": 29,
		"Name": "区域29",
		"WaypointsID": [
			174,
			175,
			176,
			177,
			90
		],
		"OpenByScenarioID": 35
	},
	{
		"ID": 30,
		"Name": "区域30",
		"WaypointsID": [
			178,
			179,
			180,
			181,
			91
		],
		"OpenByScenarioID": 36
	},
	{
		"ID": 31,
		"Name": "区域31",
		"WaypointsID": [
			182,
			183,
			184,
			185,
			186,
			92
		],
		"OpenByScenarioID": 37
	},
	{
		"ID": 32,
		"Name": "区域32",
		"WaypointsID": [
			187,
			188,
			189,
			190
		],
		"OpenByScenarioID": 38
	},
	{
		"ID": 33,
		"Name": "区域33",
		"WaypointsID": [
			191,
			192,
			93
		],
		"OpenByScenarioID": 39
	},
	{
		"ID": 34,
		"Name": "区域34",
		"WaypointsID": [
			193,
			194,
			195,
			196,
			197,
			201,
			202,
			94
		],
		"OpenByScenarioID": 40
	},
	{
		"ID": 35,
		"Name": "区域35",
		"WaypointsID": [
			198,
			199,
			200,
			95
		],
		"OpenByScenarioID": 41
	},
	{
		"ID": 36,
		"Name": "区域36",
		"WaypointsID": [
			203,
			204,
			96
		],
		"OpenByScenarioID": 43
	},
	{
		"ID": 37,
		"Name": "区域37",
		"WaypointsID": [
			205,
			206,
			207,
			208,
			97
		],
		"OpenByScenarioID": 44
	},
	{
		"ID": 38,
		"Name": "区域38",
		"WaypointsID": [
			209,
			210,
			211,
			212,
			98
		],
		"OpenByScenarioID": 45
	},
	{
		"ID": 39,
		"Name": "区域39",
		"WaypointsID": [
			213,
			214,
			215,
			216,
			217,
			218,
			99
		],
		"OpenByScenarioID": 46
	},
	{
		"ID": 40,
		"Name": "区域40",
		"WaypointsID": [
			219,
			220,
			221,
			222,
			223
		],
		"OpenByScenarioID": 47
	},
	{
		"ID": 41,
		"Name": "区域41",
		"WaypointsID": [
			224,
			225,
			226,
			227,
			228
		],
		"OpenByScenarioID": 48
	},
	{
		"ID": 42,
		"Name": "区域42（新大陆）",
		"WaypointsID": [
			301
		],
		"OpenByScenarioID": 62
	},
	{
		"ID": 43,
		"Name": "区域43",
		"WaypointsID": [
			302,
			501,
			502,
			503,
			504
		],
		"OpenByScenarioID": 63
	},
	{
		"ID": 44,
		"Name": "区域44",
		"WaypointsID": [
			303,
			505,
			506,
			507,
			508,
			509,
			510
		],
		"OpenByScenarioID": 64
	},
	{
		"ID": 45,
		"Name": "区域45",
		"WaypointsID": [
			304,
			511,
			512,
			513,
			514
		],
		"OpenByScenarioID": 65
	},
	{
		"ID": 46,
		"Name": "区域46",
		"WaypointsID": [
			305,
			515,
			516,
			517,
			518,
			519,
			520
		],
		"OpenByScenarioID": 66
	},
	{
		"ID": 47,
		"Name": "区域47",
		"WaypointsID": [
			306,
			521,
			522,
			523,
			524,
			525
		],
		"OpenByScenarioID": 67
	},
	{
		"ID": 48,
		"Name": "区域48",
		"WaypointsID": [
			307,
			526,
			527,
			528,
			529,
			530,
			531
		],
		"OpenByScenarioID": 68
	},
	{
		"ID": 49,
		"Name": "区域49",
		"WaypointsID": [
			308,
			532,
			533,
			534,
			535,
			536,
			537
		],
		"OpenByScenarioID": 69
	},
	{
		"ID": 50,
		"Name": "区域50",
		"WaypointsID": [
			309,
			538,
			539,
			540,
			541
		],
		"OpenByScenarioID": 70
	},
	{
		"ID": 51,
		"Name": "区域51",
		"WaypointsID": [
			310,
			542,
			543,
			544,
			545,
			546,
			547,
			548,
			549,
			550,
			551,
			552
		],
		"OpenByScenarioID": 71
	},
	{
		"ID": 52,
		"Name": "区域52",
		"WaypointsID": [
			311,
			553,
			554,
			555,
			556,
			557,
			558
		],
		"OpenByScenarioID": 72
	},
	{
		"ID": 53,
		"Name": "区域53",
		"WaypointsID": [
			312,
			559,
			560,
			561,
			562,
			563,
			564
		],
		"OpenByScenarioID": 73
	},
	{
		"ID": 54,
		"Name": "区域54",
		"WaypointsID": [
			313,
			565,
			566,
			567,
			568
		],
		"OpenByScenarioID": 74
	},
	{
		"ID": 55,
		"Name": "区域55",
		"WaypointsID": [
			314,
			569,
			570,
			571,
			572
		],
		"OpenByScenarioID": 75
	},
	{
		"ID": 56,
		"Name": "区域56",
		"WaypointsID": [
			315,
			573
		],
		"OpenByScenarioID": 76
	}
]