[
	{
		"ID": 1,
		"NovicePoints": 1,
		"ActivateTime": 0,
		"DeactivateTime": 1209600
	},
	{
		"ID": 2,
		"NovicePoints": 1,
		"ActivateTime": 86400,
		"DeactivateTime": 1209600
	},
	{
		"ID": 3,
		"NovicePoints": 1,
		"ActivateTime": 172800,
		"DeactivateTime": 1209600
	},
	{
		"ID": 4,
		"NovicePoints": 1,
		"ActivateTime": 259200,
		"DeactivateTime": 1209600
	},
	{
		"ID": 5,
		"NovicePoints": 1,
		"ActivateTime": 345600,
		"DeactivateTime": 1209600
	},
	{
		"ID": 6,
		"NovicePoints": 1,
		"ActivateTime": 432000,
		"DeactivateTime": 1209600
	},
	{
		"ID": 7,
		"NovicePoints": 1,
		"ActivateTime": 518400,
		"DeactivateTime": 1209600
	}
]