[
	{
		"ID": 1,
		"Name": "Snowman Valley Crisis",
		"DaysBeforeActivate": 9,
		"PlayerLevelRequired": 55,
		"MonsterLevel": 65,
		"BattleID": 6611,
		"DialogBeforeBattle": 0,
		"DialogAfterBattle": 0,
		"PlayerExp": 10,
		"HeroExp": 80,
		"GoldReward": 1282,
		"EnergyCostSuccess": 10,
		"EnergyCostFail": 2,
		"FirstClearDrop": [
			{
				"GoodsType": "GoodsType_Crystal",
				"Id": 0,
				"Count": 30
			},
			{
				"GoodsType": "GoodsType_SkinTicket",
				"Id": 0,
				"Count": 60
			}
		],
		"DropDisplayCount": 3,
		"Score": 0,
		"Strategy": ""
	},
	{
		"ID": 2,
		"Name": "Between Heaven and Earth",
		"DaysBeforeActivate": 10,
		"PlayerLevelRequired": 55,
		"MonsterLevel": 65,
		"BattleID": 6612,
		"DialogBeforeBattle": 0,
		"DialogAfterBattle": 0,
		"PlayerExp": 10,
		"HeroExp": 80,
		"GoldReward": 1282,
		"EnergyCostSuccess": 10,
		"EnergyCostFail": 2,
		"FirstClearDrop": [
			{
				"GoodsType": "GoodsType_Crystal",
				"Id": 0,
				"Count": 30
			},
			{
				"GoodsType": "GoodsType_Item",
				"Id": 4001,
				"Count": 3
			}
		],
		"DropDisplayCount": 3,
		"Score": 0,
		"Strategy": ""
	},
	{
		"ID": 3,
		"Name": "Vampire in the Night",
		"DaysBeforeActivate": 11,
		"PlayerLevelRequired": 55,
		"MonsterLevel": 65,
		"BattleID": 6613,
		"DialogBeforeBattle": 0,
		"DialogAfterBattle": 0,
		"PlayerExp": 10,
		"HeroExp": 80,
		"GoldReward": 1282,
		"EnergyCostSuccess": 10,
		"EnergyCostFail": 2,
		"FirstClearDrop": [
			{
				"GoodsType": "GoodsType_Crystal",
				"Id": 0,
				"Count": 30
			},
			{
				"GoodsType": "GoodsType_Equipment",
				"Id": 269,
				"Count": 1
			}
		],
		"DropDisplayCount": 3,
		"Score": 0,
		"Strategy": ""
	},
	{
		"ID": 4,
		"Name": "The Strange Thief's Welcome",
		"DaysBeforeActivate": 8,
		"PlayerLevelRequired": 55,
		"MonsterLevel": 60,
		"BattleID": 6614,
		"DialogBeforeBattle": 0,
		"DialogAfterBattle": 0,
		"PlayerExp": 10,
		"HeroExp": 80,
		"GoldReward": 1282,
		"EnergyCostSuccess": 10,
		"EnergyCostFail": 2,
		"FirstClearDrop": [
			{
				"GoodsType": "GoodsType_Crystal",
				"Id": 0,
				"Count": 30
			},
			{
				"GoodsType": "GoodsType_HeadFrame",
				"Id": 19,
				"Count": 1
			}
		],
		"DropDisplayCount": 3,
		"Score": 0,
		"Strategy": ""
	},
	{
		"ID": 5,
		"Name": "I Love Rock and Roll",
		"DaysBeforeActivate": 7,
		"PlayerLevelRequired": 55,
		"MonsterLevel": 60,
		"BattleID": 6615,
		"DialogBeforeBattle": 0,
		"DialogAfterBattle": 0,
		"PlayerExp": 10,
		"HeroExp": 80,
		"GoldReward": 1282,
		"EnergyCostSuccess": 10,
		"EnergyCostFail": 2,
		"FirstClearDrop": [
			{
				"GoodsType": "GoodsType_Crystal",
				"Id": 0,
				"Count": 30
			},
			{
				"GoodsType": "GoodsType_Gold",
				"Id": 0,
				"Count": 600000
			}
		],
		"DropDisplayCount": 3,
		"Score": 0,
		"Strategy": ""
	},
	{
		"ID": 101,
		"Name": "Multiple Explosions",
		"DaysBeforeActivate": 5,
		"PlayerLevelRequired": 55,
		"MonsterLevel": 60,
		"BattleID": 6811,
		"DialogBeforeBattle": 0,
		"DialogAfterBattle": 0,
		"PlayerExp": 10,
		"HeroExp": 80,
		"GoldReward": 1282,
		"EnergyCostSuccess": 10,
		"EnergyCostFail": 2,
		"FirstClearDrop": [
			{
				"GoodsType": "GoodsType_Crystal",
				"Id": 0,
				"Count": 30
			},
			{
				"GoodsType": "GoodsType_ChallengePoint",
				"Id": 0,
				"Count": 20
			},
			{
				"GoodsType": "GoodsType_Gold",
				"Id": 0,
				"Count": 200000
			}
		],
		"DropDisplayCount": 4,
		"Score": 800,
		"Strategy": ""
	},
	{
		"ID": 102,
		"Name": "Thousands of Joshuas",
		"DaysBeforeActivate": 6,
		"PlayerLevelRequired": 55,
		"MonsterLevel": 60,
		"BattleID": 6814,
		"DialogBeforeBattle": 0,
		"DialogAfterBattle": 0,
		"PlayerExp": 10,
		"HeroExp": 80,
		"GoldReward": 1282,
		"EnergyCostSuccess": 10,
		"EnergyCostFail": 2,
		"FirstClearDrop": [
			{
				"GoodsType": "GoodsType_Crystal",
				"Id": 0,
				"Count": 30
			},
			{
				"GoodsType": "GoodsType_ChallengePoint",
				"Id": 0,
				"Count": 20
			},
			{
				"GoodsType": "GoodsType_Gold",
				"Id": 0,
				"Count": 200000
			}
		],
		"DropDisplayCount": 4,
		"Score": 800,
		"Strategy": ""
	},
	{
		"ID": 103,
		"Name": "Distant Torrent",
		"DaysBeforeActivate": 7,
		"PlayerLevelRequired": 55,
		"MonsterLevel": 65,
		"BattleID": 6812,
		"DialogBeforeBattle": 0,
		"DialogAfterBattle": 0,
		"PlayerExp": 10,
		"HeroExp": 80,
		"GoldReward": 1282,
		"EnergyCostSuccess": 10,
		"EnergyCostFail": 2,
		"FirstClearDrop": [
			{
				"GoodsType": "GoodsType_Crystal",
				"Id": 0,
				"Count": 30
			},
			{
				"GoodsType": "GoodsType_ChallengePoint",
				"Id": 0,
				"Count": 40
			},
			{
				"GoodsType": "GoodsType_Item",
				"Id": 3203,
				"Count": 5
			}
		],
		"DropDisplayCount": 4,
		"Score": 1000,
		"Strategy": ""
	},
	{
		"ID": 104,
		"Name": "Invitation Under the Moon",
		"DaysBeforeActivate": 8,
		"PlayerLevelRequired": 55,
		"MonsterLevel": 65,
		"BattleID": 6813,
		"DialogBeforeBattle": 0,
		"DialogAfterBattle": 0,
		"PlayerExp": 10,
		"HeroExp": 80,
		"GoldReward": 1282,
		"EnergyCostSuccess": 10,
		"EnergyCostFail": 2,
		"FirstClearDrop": [
			{
				"GoodsType": "GoodsType_Crystal",
				"Id": 0,
				"Count": 30
			},
			{
				"GoodsType": "GoodsType_ChallengePoint",
				"Id": 0,
				"Count": 60
			},
			{
				"GoodsType": "GoodsType_Gold",
				"Id": 0,
				"Count": 400000
			}
		],
		"DropDisplayCount": 4,
		"Score": 1000,
		"Strategy": ""
	},
	{
		"ID": 105,
		"Name": "Arena Nightmare",
		"DaysBeforeActivate": 9,
		"PlayerLevelRequired": 55,
		"MonsterLevel": 65,
		"BattleID": 6815,
		"DialogBeforeBattle": 0,
		"DialogAfterBattle": 0,
		"PlayerExp": 10,
		"HeroExp": 80,
		"GoldReward": 1282,
		"EnergyCostSuccess": 10,
		"EnergyCostFail": 2,
		"FirstClearDrop": [
			{
				"GoodsType": "GoodsType_Crystal",
				"Id": 0,
				"Count": 30
			},
			{
				"GoodsType": "GoodsType_ChallengePoint",
				"Id": 0,
				"Count": 60
			},
			{
				"GoodsType": "GoodsType_Item",
				"Id": 4001,
				"Count": 3
			}
		],
		"DropDisplayCount": 4,
		"Score": 1000,
		"Strategy": ""
	},
	{
		"ID": 201,
		"Name": "Bizarro Dragon Sorceress",
		"DaysBeforeActivate": 6,
		"PlayerLevelRequired": 55,
		"MonsterLevel": 60,
		"BattleID": 50021,
		"DialogBeforeBattle": 0,
		"DialogAfterBattle": 0,
		"PlayerExp": 10,
		"HeroExp": 80,
		"GoldReward": 1282,
		"EnergyCostSuccess": 10,
		"EnergyCostFail": 2,
		"FirstClearDrop": [
			{
				"GoodsType": "GoodsType_Crystal",
				"Id": 0,
				"Count": 30
			},
			{
				"GoodsType": "GoodsType_ChallengePoint",
				"Id": 0,
				"Count": 20
			},
			{
				"GoodsType": "GoodsType_Gold",
				"Id": 0,
				"Count": 200000
			}
		],
		"DropDisplayCount": 3,
		"Score": 0,
		"Strategy": ""
	},
	{
		"ID": 202,
		"Name": "Weismann's Return",
		"DaysBeforeActivate": 7,
		"PlayerLevelRequired": 55,
		"MonsterLevel": 60,
		"BattleID": 50022,
		"DialogBeforeBattle": 0,
		"DialogAfterBattle": 0,
		"PlayerExp": 10,
		"HeroExp": 80,
		"GoldReward": 1282,
		"EnergyCostSuccess": 10,
		"EnergyCostFail": 2,
		"FirstClearDrop": [
			{
				"GoodsType": "GoodsType_Crystal",
				"Id": 0,
				"Count": 30
			},
			{
				"GoodsType": "GoodsType_ChallengePoint",
				"Id": 0,
				"Count": 20
			},
			{
				"GoodsType": "GoodsType_Gold",
				"Id": 0,
				"Count": 200000
			}
		],
		"DropDisplayCount": 3,
		"Score": 0,
		"Strategy": ""
	},
	{
		"ID": 203,
		"Name": "Trails in Time Family Bucket",
		"DaysBeforeActivate": 8,
		"PlayerLevelRequired": 55,
		"MonsterLevel": 65,
		"BattleID": 50023,
		"DialogBeforeBattle": 0,
		"DialogAfterBattle": 0,
		"PlayerExp": 10,
		"HeroExp": 80,
		"GoldReward": 1282,
		"EnergyCostSuccess": 10,
		"EnergyCostFail": 2,
		"FirstClearDrop": [
			{
				"GoodsType": "GoodsType_Crystal",
				"Id": 0,
				"Count": 30
			},
			{
				"GoodsType": "GoodsType_ChallengePoint",
				"Id": 0,
				"Count": 40
			},
			{
				"GoodsType": "GoodsType_SoldierSkin",
				"Id": 12101,
				"Count": 1
			}
		],
		"DropDisplayCount": 3,
		"Score": 0,
		"Strategy": ""
	},
	{
		"ID": 204,
		"Name": "Black & White",
		"DaysBeforeActivate": 9,
		"PlayerLevelRequired": 55,
		"MonsterLevel": 65,
		"BattleID": 50024,
		"DialogBeforeBattle": 0,
		"DialogAfterBattle": 0,
		"PlayerExp": 10,
		"HeroExp": 80,
		"GoldReward": 1282,
		"EnergyCostSuccess": 10,
		"EnergyCostFail": 2,
		"FirstClearDrop": [
			{
				"GoodsType": "GoodsType_Crystal",
				"Id": 0,
				"Count": 30
			},
			{
				"GoodsType": "GoodsType_ChallengePoint",
				"Id": 0,
				"Count": 60
			},
			{
				"GoodsType": "GoodsType_Item",
				"Id": 3203,
				"Count": 5
			}
		],
		"DropDisplayCount": 3,
		"Score": 0,
		"Strategy": ""
	},
	{
		"ID": 205,
		"Name": "Nightmare of the Arena",
		"DaysBeforeActivate": 10,
		"PlayerLevelRequired": 55,
		"MonsterLevel": 65,
		"BattleID": 50025,
		"DialogBeforeBattle": 0,
		"DialogAfterBattle": 0,
		"PlayerExp": 10,
		"HeroExp": 80,
		"GoldReward": 1282,
		"EnergyCostSuccess": 10,
		"EnergyCostFail": 2,
		"FirstClearDrop": [
			{
				"GoodsType": "GoodsType_Crystal",
				"Id": 0,
				"Count": 30
			},
			{
				"GoodsType": "GoodsType_ChallengePoint",
				"Id": 0,
				"Count": 60
			},
			{
				"GoodsType": "GoodsType_Item",
				"Id": 4001,
				"Count": 2
			}
		],
		"DropDisplayCount": 3,
		"Score": 0,
		"Strategy": ""
	},
	{
		"ID": 301,
		"Name": "The Final Day of the Empire",
		"PrevLevel": [
			{
				"LevelType": "CollectionActivityLevelType_Scenario",
				"ID": 305
			}
		],
		"DaysBeforeActivate": 0,
		"PlayerLevelRequired": 55,
		"MonsterLevel": 60,
		"BattleID": 50221,
		"DialogBeforeBattle": 8061101,
		"DialogAfterBattle": 0,
		"WayPointsStateAfterBattle": [
			{
				"ID": 307,
				"State": "CollectionActivityWaypointStateType_Unlocked"
			}
		],
		"PlayerExp": 10,
		"HeroExp": 80,
		"GoldReward": 1282,
		"EnergyCostSuccess": 10,
		"EnergyCostFail": 2,
		"FirstClearDrop": [
			{
				"GoodsType": "GoodsType_Crystal",
				"Id": 0,
				"Count": 30
			},
			{
				"GoodsType": "GoodsType_ChallengePoint",
				"Id": 0,
				"Count": 20
			},
			{
				"GoodsType": "GoodsType_FashionPoint",
				"Id": 0,
				"Count": 2
			}
		],
		"DropDisplayCount": 3,
		"Score": 0,
		"Strategy": ""
	},
	{
		"ID": 302,
		"Name": "Legends of Darkness",
		"PrevLevel": [
			{
				"LevelType": "CollectionActivityLevelType_Challenge",
				"ID": 301
			}
		],
		"DaysBeforeActivate": 0,
		"PlayerLevelRequired": 55,
		"MonsterLevel": 65,
		"BattleID": 50222,
		"DialogBeforeBattle": 8061201,
		"DialogAfterBattle": 0,
		"PlayerExp": 10,
		"HeroExp": 80,
		"GoldReward": 1282,
		"EnergyCostSuccess": 10,
		"EnergyCostFail": 2,
		"FirstClearDrop": [
			{
				"GoodsType": "GoodsType_Crystal",
				"Id": 0,
				"Count": 30
			},
			{
				"GoodsType": "GoodsType_ChallengePoint",
				"Id": 0,
				"Count": 40
			},
			{
				"GoodsType": "GoodsType_FashionPoint",
				"Id": 0,
				"Count": 2
			}
		],
		"DropDisplayCount": 3,
		"Score": 0,
		"Strategy": ""
	},
	{
		"ID": 303,
		"Name": "Remnants of a God",
		"PrevLevel": [
			{
				"LevelType": "CollectionActivityLevelType_Scenario",
				"ID": 308
			}
		],
		"DaysBeforeActivate": 0,
		"PlayerLevelRequired": 55,
		"MonsterLevel": 60,
		"BattleID": 50223,
		"DialogBeforeBattle": 8061301,
		"DialogAfterBattle": 0,
		"WayPointsStateAfterBattle": [
			{
				"ID": 315,
				"State": "CollectionActivityWaypointStateType_Unlocked"
			}
		],
		"PlayerExp": 10,
		"HeroExp": 80,
		"GoldReward": 1282,
		"EnergyCostSuccess": 10,
		"EnergyCostFail": 2,
		"FirstClearDrop": [
			{
				"GoodsType": "GoodsType_Crystal",
				"Id": 0,
				"Count": 30
			},
			{
				"GoodsType": "GoodsType_ChallengePoint",
				"Id": 0,
				"Count": 20
			},
			{
				"GoodsType": "GoodsType_FashionPoint",
				"Id": 0,
				"Count": 2
			}
		],
		"DropDisplayCount": 3,
		"Score": 0,
		"Strategy": ""
	},
	{
		"ID": 304,
		"Name": "New Glory",
		"PrevLevel": [
			{
				"LevelType": "CollectionActivityLevelType_Challenge",
				"ID": 303
			}
		],
		"DaysBeforeActivate": 0,
		"PlayerLevelRequired": 55,
		"MonsterLevel": 65,
		"BattleID": 50224,
		"DialogBeforeBattle": 8061401,
		"DialogAfterBattle": 0,
		"PlayerExp": 10,
		"HeroExp": 80,
		"GoldReward": 1282,
		"EnergyCostSuccess": 10,
		"EnergyCostFail": 2,
		"FirstClearDrop": [
			{
				"GoodsType": "GoodsType_Crystal",
				"Id": 0,
				"Count": 30
			},
			{
				"GoodsType": "GoodsType_ChallengePoint",
				"Id": 0,
				"Count": 60
			},
			{
				"GoodsType": "GoodsType_Gold",
				"Id": 0,
				"Count": 400000
			}
		],
		"DropDisplayCount": 3,
		"Score": 0,
		"Strategy": ""
	},
	{
		"ID": 305,
		"Name": "Lightless Eulogy",
		"PrevLevel": [
			{
				"LevelType": "CollectionActivityLevelType_Scenario",
				"ID": 310
			}
		],
		"DaysBeforeActivate": 0,
		"PlayerLevelRequired": 55,
		"MonsterLevel": 65,
		"BattleID": 50225,
		"DialogBeforeBattle": 8061501,
		"DialogAfterBattle": 0,
		"PlayerExp": 10,
		"HeroExp": 80,
		"GoldReward": 1282,
		"EnergyCostSuccess": 10,
		"EnergyCostFail": 2,
		"FirstClearDrop": [
			{
				"GoodsType": "GoodsType_Crystal",
				"Id": 0,
				"Count": 30
			},
			{
				"GoodsType": "GoodsType_ChallengePoint",
				"Id": 0,
				"Count": 60
			},
			{
				"GoodsType": "GoodsType_Item",
				"Id": 4001,
				"Count": 2
			}
		],
		"DropDisplayCount": 3,
		"Score": 0,
		"Strategy": ""
	},
	{
		"ID": 401,
		"Name": "Special Training - Aid Defense",
		"DaysBeforeActivate": 5,
		"PlayerLevelRequired": 55,
		"MonsterLevel": 60,
		"BattleID": 50327,
		"DialogBeforeBattle": 0,
		"DialogAfterBattle": 0,
		"PlayerExp": 10,
		"HeroExp": 80,
		"GoldReward": 1282,
		"EnergyCostSuccess": 10,
		"EnergyCostFail": 2,
		"FirstClearDrop": [
			{
				"GoodsType": "GoodsType_Crystal",
				"Id": 0,
				"Count": 30
			}
		],
		"DropDisplayCount": 3,
		"Score": 0,
		"Strategy": ""
	},
	{
		"ID": 402,
		"Name": "Special Training - Aid Attack",
		"DaysBeforeActivate": 6,
		"PlayerLevelRequired": 55,
		"MonsterLevel": 60,
		"BattleID": 50326,
		"DialogBeforeBattle": 0,
		"DialogAfterBattle": 0,
		"PlayerExp": 10,
		"HeroExp": 80,
		"GoldReward": 1282,
		"EnergyCostSuccess": 10,
		"EnergyCostFail": 2,
		"FirstClearDrop": [
			{
				"GoodsType": "GoodsType_Crystal",
				"Id": 0,
				"Count": 30
			}
		],
		"DropDisplayCount": 3,
		"Score": 0,
		"Strategy": ""
	},
	{
		"ID": 403,
		"Name": "Elementary Exam - Aid Defense",
		"PrevLevel": [
			{
				"LevelType": "CollectionActivityLevelType_Challenge",
				"ID": 401
			}
		],
		"DaysBeforeActivate": 5,
		"PlayerLevelRequired": 55,
		"MonsterLevel": 60,
		"BattleID": 50322,
		"DialogBeforeBattle": 0,
		"DialogAfterBattle": 0,
		"PlayerExp": 10,
		"HeroExp": 80,
		"GoldReward": 1282,
		"EnergyCostSuccess": 10,
		"EnergyCostFail": 2,
		"FirstClearDrop": [
			{
				"GoodsType": "GoodsType_Crystal",
				"Id": 0,
				"Count": 30
			},
			{
				"GoodsType": "GoodsType_ChallengePoint",
				"Id": 0,
				"Count": 20
			},
			{
				"GoodsType": "GoodsType_Gold",
				"Id": 0,
				"Count": 200000
			}
		],
		"DropDisplayCount": 3,
		"Score": 0,
		"Strategy": ""
	},
	{
		"ID": 404,
		"Name": "Elementary Exam - Aid Attack",
		"PrevLevel": [
			{
				"LevelType": "CollectionActivityLevelType_Challenge",
				"ID": 402
			}
		],
		"DaysBeforeActivate": 6,
		"PlayerLevelRequired": 55,
		"MonsterLevel": 60,
		"BattleID": 50321,
		"DialogBeforeBattle": 0,
		"DialogAfterBattle": 0,
		"PlayerExp": 10,
		"HeroExp": 80,
		"GoldReward": 1282,
		"EnergyCostSuccess": 10,
		"EnergyCostFail": 2,
		"FirstClearDrop": [
			{
				"GoodsType": "GoodsType_Crystal",
				"Id": 0,
				"Count": 30
			},
			{
				"GoodsType": "GoodsType_ChallengePoint",
				"Id": 0,
				"Count": 20
			},
			{
				"GoodsType": "GoodsType_Gold",
				"Id": 0,
				"Count": 200000
			}
		],
		"DropDisplayCount": 3,
		"Score": 0,
		"Strategy": ""
	},
	{
		"ID": 405,
		"Name": "Intermediate Exam - Aid Defense",
		"PrevLevel": [
			{
				"LevelType": "CollectionActivityLevelType_Challenge",
				"ID": 403
			}
		],
		"DaysBeforeActivate": 7,
		"PlayerLevelRequired": 55,
		"MonsterLevel": 65,
		"BattleID": 50324,
		"DialogBeforeBattle": 0,
		"DialogAfterBattle": 0,
		"PlayerExp": 10,
		"HeroExp": 80,
		"GoldReward": 1282,
		"EnergyCostSuccess": 10,
		"EnergyCostFail": 2,
		"FirstClearDrop": [
			{
				"GoodsType": "GoodsType_Crystal",
				"Id": 0,
				"Count": 30
			},
			{
				"GoodsType": "GoodsType_ChallengePoint",
				"Id": 0,
				"Count": 40
			},
			{
				"GoodsType": "GoodsType_Item",
				"Id": 3203,
				"Count": 5
			}
		],
		"DropDisplayCount": 3,
		"Score": 0,
		"Strategy": ""
	},
	{
		"ID": 406,
		"Name": "Intermediate Exam - Aid Attack",
		"PrevLevel": [
			{
				"LevelType": "CollectionActivityLevelType_Challenge",
				"ID": 404
			}
		],
		"DaysBeforeActivate": 8,
		"PlayerLevelRequired": 55,
		"MonsterLevel": 65,
		"BattleID": 50323,
		"DialogBeforeBattle": 0,
		"DialogAfterBattle": 0,
		"PlayerExp": 10,
		"HeroExp": 80,
		"GoldReward": 1282,
		"EnergyCostSuccess": 10,
		"EnergyCostFail": 2,
		"FirstClearDrop": [
			{
				"GoodsType": "GoodsType_Crystal",
				"Id": 0,
				"Count": 30
			},
			{
				"GoodsType": "GoodsType_ChallengePoint",
				"Id": 0,
				"Count": 60
			},
			{
				"GoodsType": "GoodsType_Gold",
				"Id": 0,
				"Count": 400000
			}
		],
		"DropDisplayCount": 3,
		"Score": 0,
		"Strategy": ""
	},
	{
		"ID": 407,
		"Name": "Graduation Exam",
		"PrevLevel": [
			{
				"LevelType": "CollectionActivityLevelType_Challenge",
				"ID": 406
			}
		],
		"DaysBeforeActivate": 9,
		"PlayerLevelRequired": 55,
		"MonsterLevel": 65,
		"BattleID": 50325,
		"DialogBeforeBattle": 0,
		"DialogAfterBattle": 0,
		"PlayerExp": 10,
		"HeroExp": 80,
		"GoldReward": 1282,
		"EnergyCostSuccess": 10,
		"EnergyCostFail": 2,
		"FirstClearDrop": [
			{
				"GoodsType": "GoodsType_Crystal",
				"Id": 0,
				"Count": 30
			},
			{
				"GoodsType": "GoodsType_ChallengePoint",
				"Id": 0,
				"Count": 60
			},
			{
				"GoodsType": "GoodsType_Item",
				"Id": 4001,
				"Count": 2
			}
		],
		"DropDisplayCount": 3,
		"Score": 0,
		"Strategy": ""
	},
	{
		"ID": 501,
		"Name": "Solo Angel",
		"DaysBeforeActivate": 8,
		"PlayerLevelRequired": 55,
		"MonsterLevel": 60,
		"BattleID": 50421,
		"DialogBeforeBattle": 0,
		"DialogAfterBattle": 0,
		"PlayerExp": 10,
		"HeroExp": 80,
		"GoldReward": 1282,
		"EnergyCostSuccess": 10,
		"EnergyCostFail": 2,
		"FirstClearDrop": [
			{
				"GoodsType": "GoodsType_Crystal",
				"Id": 0,
				"Count": 30
			},
			{
				"GoodsType": "GoodsType_ChallengePoint",
				"Id": 0,
				"Count": 20
			},
			{
				"GoodsType": "GoodsType_Gold",
				"Id": 0,
				"Count": 200000
			}
		],
		"DropDisplayCount": 4,
		"Score": 800,
		"Strategy": ""
	},
	{
		"ID": 502,
		"Name": "Four Seasons Allegria",
		"DaysBeforeActivate": 9,
		"PlayerLevelRequired": 55,
		"MonsterLevel": 60,
		"BattleID": 50422,
		"DialogBeforeBattle": 0,
		"DialogAfterBattle": 0,
		"PlayerExp": 10,
		"HeroExp": 80,
		"GoldReward": 1282,
		"EnergyCostSuccess": 10,
		"EnergyCostFail": 2,
		"FirstClearDrop": [
			{
				"GoodsType": "GoodsType_Crystal",
				"Id": 0,
				"Count": 30
			},
			{
				"GoodsType": "GoodsType_ChallengePoint",
				"Id": 0,
				"Count": 20
			},
			{
				"GoodsType": "GoodsType_Gold",
				"Id": 0,
				"Count": 200000
			}
		],
		"DropDisplayCount": 4,
		"Score": 800,
		"Strategy": ""
	},
	{
		"ID": 503,
		"Name": "Midnight Mystery",
		"DaysBeforeActivate": 10,
		"PlayerLevelRequired": 55,
		"MonsterLevel": 65,
		"BattleID": 50423,
		"DialogBeforeBattle": 0,
		"DialogAfterBattle": 0,
		"PlayerExp": 10,
		"HeroExp": 80,
		"GoldReward": 1282,
		"EnergyCostSuccess": 10,
		"EnergyCostFail": 2,
		"FirstClearDrop": [
			{
				"GoodsType": "GoodsType_Crystal",
				"Id": 0,
				"Count": 30
			},
			{
				"GoodsType": "GoodsType_ChallengePoint",
				"Id": 0,
				"Count": 40
			},
			{
				"GoodsType": "GoodsType_Item",
				"Id": 3203,
				"Count": 5
			}
		],
		"DropDisplayCount": 4,
		"Score": 1000,
		"Strategy": ""
	},
	{
		"ID": 504,
		"Name": "Costume - Aniki Wars",
		"DaysBeforeActivate": 11,
		"PlayerLevelRequired": 55,
		"MonsterLevel": 65,
		"BattleID": 50424,
		"DialogBeforeBattle": 0,
		"DialogAfterBattle": 0,
		"PlayerExp": 10,
		"HeroExp": 80,
		"GoldReward": 1282,
		"EnergyCostSuccess": 10,
		"EnergyCostFail": 2,
		"FirstClearDrop": [
			{
				"GoodsType": "GoodsType_Crystal",
				"Id": 0,
				"Count": 30
			},
			{
				"GoodsType": "GoodsType_ChallengePoint",
				"Id": 0,
				"Count": 60
			},
			{
				"GoodsType": "GoodsType_Gold",
				"Id": 0,
				"Count": 400000
			}
		],
		"DropDisplayCount": 4,
		"Score": 1000,
		"Strategy": ""
	},
	{
		"ID": 505,
		"Name": "Ten Thousand Bozels",
		"DaysBeforeActivate": 12,
		"PlayerLevelRequired": 55,
		"MonsterLevel": 65,
		"BattleID": 50425,
		"DialogBeforeBattle": 0,
		"DialogAfterBattle": 0,
		"PlayerExp": 10,
		"HeroExp": 80,
		"GoldReward": 1282,
		"EnergyCostSuccess": 10,
		"EnergyCostFail": 2,
		"FirstClearDrop": [
			{
				"GoodsType": "GoodsType_Crystal",
				"Id": 0,
				"Count": 30
			},
			{
				"GoodsType": "GoodsType_ChallengePoint",
				"Id": 0,
				"Count": 60
			},
			{
				"GoodsType": "GoodsType_Item",
				"Id": 4001,
				"Count": 3
			}
		],
		"DropDisplayCount": 4,
		"Score": 1000,
		"Strategy": ""
	},
	{
		"ID": 601,
		"Name": "Fireworks of a Midsummer Night's Dream",
		"DaysBeforeActivate": 7,
		"PlayerLevelRequired": 55,
		"MonsterLevel": 60,
		"BattleID": 50521,
		"DialogBeforeBattle": 0,
		"DialogAfterBattle": 0,
		"PlayerExp": 10,
		"HeroExp": 80,
		"GoldReward": 1282,
		"EnergyCostSuccess": 10,
		"EnergyCostFail": 2,
		"FirstClearDrop": [
			{
				"GoodsType": "GoodsType_Crystal",
				"Id": 0,
				"Count": 30
			},
			{
				"GoodsType": "GoodsType_ChallengePoint",
				"Id": 0,
				"Count": 20
			},
			{
				"GoodsType": "GoodsType_FashionPoint",
				"Id": 0,
				"Count": 2
			}
		],
		"DropDisplayCount": 4,
		"Score": 0,
		"Strategy": ""
	},
	{
		"ID": 602,
		"Name": "Angela's Mad Test Subject",
		"DaysBeforeActivate": 8,
		"PlayerLevelRequired": 55,
		"MonsterLevel": 60,
		"BattleID": 50522,
		"DialogBeforeBattle": 0,
		"DialogAfterBattle": 0,
		"PlayerExp": 10,
		"HeroExp": 80,
		"GoldReward": 1282,
		"EnergyCostSuccess": 10,
		"EnergyCostFail": 2,
		"FirstClearDrop": [
			{
				"GoodsType": "GoodsType_Crystal",
				"Id": 0,
				"Count": 30
			},
			{
				"GoodsType": "GoodsType_ChallengePoint",
				"Id": 0,
				"Count": 20
			},
			{
				"GoodsType": "GoodsType_FashionPoint",
				"Id": 0,
				"Count": 2
			}
		],
		"DropDisplayCount": 4,
		"Score": 0,
		"Strategy": ""
	},
	{
		"ID": 603,
		"Name": "Lobster King in the Mud",
		"DaysBeforeActivate": 9,
		"PlayerLevelRequired": 55,
		"MonsterLevel": 65,
		"BattleID": 50523,
		"DialogBeforeBattle": 0,
		"DialogAfterBattle": 0,
		"PlayerExp": 10,
		"HeroExp": 80,
		"GoldReward": 1282,
		"EnergyCostSuccess": 10,
		"EnergyCostFail": 2,
		"FirstClearDrop": [
			{
				"GoodsType": "GoodsType_Crystal",
				"Id": 0,
				"Count": 30
			},
			{
				"GoodsType": "GoodsType_ChallengePoint",
				"Id": 0,
				"Count": 40
			},
			{
				"GoodsType": "GoodsType_FashionPoint",
				"Id": 0,
				"Count": 2
			}
		],
		"DropDisplayCount": 4,
		"Score": 0,
		"Strategy": ""
	},
	{
		"ID": 604,
		"Name": "Fight! Aniki Wars!",
		"DaysBeforeActivate": 10,
		"PlayerLevelRequired": 55,
		"MonsterLevel": 65,
		"BattleID": 50524,
		"DialogBeforeBattle": 0,
		"DialogAfterBattle": 0,
		"PlayerExp": 10,
		"HeroExp": 80,
		"GoldReward": 1282,
		"EnergyCostSuccess": 10,
		"EnergyCostFail": 2,
		"FirstClearDrop": [
			{
				"GoodsType": "GoodsType_Crystal",
				"Id": 0,
				"Count": 30
			},
			{
				"GoodsType": "GoodsType_ChallengePoint",
				"Id": 0,
				"Count": 60
			},
			{
				"GoodsType": "GoodsType_Gold",
				"Id": 0,
				"Count": 400000
			}
		],
		"DropDisplayCount": 4,
		"Score": 0,
		"Strategy": ""
	},
	{
		"ID": 605,
		"Name": "Unable to transmit fireworks!",
		"DaysBeforeActivate": 11,
		"PlayerLevelRequired": 55,
		"MonsterLevel": 65,
		"BattleID": 50525,
		"DialogBeforeBattle": 0,
		"DialogAfterBattle": 0,
		"PlayerExp": 10,
		"HeroExp": 80,
		"GoldReward": 1282,
		"EnergyCostSuccess": 10,
		"EnergyCostFail": 2,
		"FirstClearDrop": [
			{
				"GoodsType": "GoodsType_Crystal",
				"Id": 0,
				"Count": 30
			},
			{
				"GoodsType": "GoodsType_ChallengePoint",
				"Id": 0,
				"Count": 60
			},
			{
				"GoodsType": "GoodsType_Item",
				"Id": 4001,
				"Count": 2
			}
		],
		"DropDisplayCount": 4,
		"Score": 0,
		"Strategy": ""
	},
	{
		"ID": 701,
		"Name": "Make a level myself!?",
		"DaysBeforeActivate": 7,
		"PlayerLevelRequired": 0,
		"MonsterLevel": 60,
		"BattleID": 50721,
		"DialogBeforeBattle": 0,
		"DialogAfterBattle": 0,
		"PlayerExp": 10,
		"HeroExp": 80,
		"GoldReward": 1282,
		"EnergyCostSuccess": 10,
		"EnergyCostFail": 2,
		"FirstClearDrop": [
			{
				"GoodsType": "GoodsType_Crystal",
				"Id": 0,
				"Count": 30
			},
			{
				"GoodsType": "GoodsType_ChallengePoint",
				"Id": 0,
				"Count": 20
			},
			{
				"GoodsType": "GoodsType_FashionPoint",
				"Id": 0,
				"Count": 2
			}
		],
		"DropDisplayCount": 4,
		"Score": 0,
		"Strategy": ""
	},
	{
		"ID": 702,
		"Name": "Bozel's Counterattack",
		"DaysBeforeActivate": 8,
		"PlayerLevelRequired": 0,
		"MonsterLevel": 60,
		"BattleID": 50722,
		"DialogBeforeBattle": 0,
		"DialogAfterBattle": 0,
		"PlayerExp": 10,
		"HeroExp": 80,
		"GoldReward": 1282,
		"EnergyCostSuccess": 10,
		"EnergyCostFail": 2,
		"FirstClearDrop": [
			{
				"GoodsType": "GoodsType_Crystal",
				"Id": 0,
				"Count": 30
			},
			{
				"GoodsType": "GoodsType_ChallengePoint",
				"Id": 0,
				"Count": 20
			},
			{
				"GoodsType": "GoodsType_FashionPoint",
				"Id": 0,
				"Count": 2
			}
		],
		"DropDisplayCount": 4,
		"Score": 0,
		"Strategy": ""
	},
	{
		"ID": 703,
		"Name": "I didn't notice any bugs...",
		"DaysBeforeActivate": 9,
		"PlayerLevelRequired": 0,
		"MonsterLevel": 60,
		"BattleID": 50723,
		"DialogBeforeBattle": 0,
		"DialogAfterBattle": 0,
		"PlayerExp": 10,
		"HeroExp": 80,
		"GoldReward": 1282,
		"EnergyCostSuccess": 10,
		"EnergyCostFail": 2,
		"FirstClearDrop": [
			{
				"GoodsType": "GoodsType_Crystal",
				"Id": 0,
				"Count": 30
			},
			{
				"GoodsType": "GoodsType_ChallengePoint",
				"Id": 0,
				"Count": 40
			},
			{
				"GoodsType": "GoodsType_FashionPoint",
				"Id": 0,
				"Count": 2
			}
		],
		"DropDisplayCount": 4,
		"Score": 0,
		"Strategy": ""
	},
	{
		"ID": 704,
		"Name": "Planner Face-off",
		"DaysBeforeActivate": 10,
		"PlayerLevelRequired": 0,
		"MonsterLevel": 65,
		"BattleID": 50724,
		"DialogBeforeBattle": 0,
		"DialogAfterBattle": 0,
		"PlayerExp": 10,
		"HeroExp": 80,
		"GoldReward": 1282,
		"EnergyCostSuccess": 10,
		"EnergyCostFail": 2,
		"FirstClearDrop": [
			{
				"GoodsType": "GoodsType_Crystal",
				"Id": 0,
				"Count": 30
			},
			{
				"GoodsType": "GoodsType_ChallengePoint",
				"Id": 0,
				"Count": 60
			},
			{
				"GoodsType": "GoodsType_Gold",
				"Id": 0,
				"Count": 400000
			}
		],
		"DropDisplayCount": 4,
		"Score": 0,
		"Strategy": ""
	},
	{
		"ID": 705,
		"Name": "Rowing Planner's Daily",
		"DaysBeforeActivate": 11,
		"PlayerLevelRequired": 0,
		"MonsterLevel": 65,
		"BattleID": 50725,
		"DialogBeforeBattle": 0,
		"DialogAfterBattle": 0,
		"PlayerExp": 10,
		"HeroExp": 80,
		"GoldReward": 1282,
		"EnergyCostSuccess": 10,
		"EnergyCostFail": 2,
		"FirstClearDrop": [
			{
				"GoodsType": "GoodsType_Crystal",
				"Id": 0,
				"Count": 30
			},
			{
				"GoodsType": "GoodsType_ChallengePoint",
				"Id": 0,
				"Count": 60
			},
			{
				"GoodsType": "GoodsType_Item",
				"Id": 4001,
				"Count": 2
			}
		],
		"DropDisplayCount": 4,
		"Score": 0,
		"Strategy": ""
	},
	{
		"ID": 801,
		"Name": "Goddess Trial",
		"PrevLevel": [
			{
				"LevelType": "CollectionActivityLevelType_Scenario",
				"ID": 804
			}
		],
		"DaysBeforeActivate": 0,
		"PlayerLevelRequired": 0,
		"MonsterLevel": 60,
		"BattleID": 50821,
		"DialogBeforeBattle": 0,
		"DialogAfterBattle": 0,
		"PlayerExp": 10,
		"HeroExp": 80,
		"GoldReward": 1282,
		"EnergyCostSuccess": 10,
		"EnergyCostFail": 2,
		"FirstClearDrop": [
			{
				"GoodsType": "GoodsType_Crystal",
				"Id": 0,
				"Count": 30
			},
			{
				"GoodsType": "GoodsType_ChallengePoint",
				"Id": 0,
				"Count": 20
			},
			{
				"GoodsType": "GoodsType_Gold",
				"Id": 0,
				"Count": 200000
			}
		],
		"DropDisplayCount": 4,
		"Score": 800,
		"Strategy": ""
	},
	{
		"ID": 802,
		"Name": "Unyielding Overlord",
		"PrevLevel": [
			{
				"LevelType": "CollectionActivityLevelType_Scenario",
				"ID": 806
			}
		],
		"DaysBeforeActivate": 0,
		"PlayerLevelRequired": 0,
		"MonsterLevel": 60,
		"BattleID": 50822,
		"DialogBeforeBattle": 0,
		"DialogAfterBattle": 0,
		"PlayerExp": 10,
		"HeroExp": 80,
		"GoldReward": 1282,
		"EnergyCostSuccess": 10,
		"EnergyCostFail": 2,
		"FirstClearDrop": [
			{
				"GoodsType": "GoodsType_Crystal",
				"Id": 0,
				"Count": 30
			},
			{
				"GoodsType": "GoodsType_ChallengePoint",
				"Id": 0,
				"Count": 20
			},
			{
				"GoodsType": "GoodsType_Gold",
				"Id": 0,
				"Count": 200000
			}
		],
		"DropDisplayCount": 4,
		"Score": 800,
		"Strategy": ""
	},
	{
		"ID": 803,
		"Name": "Legacy of the Empire",
		"PrevLevel": [
			{
				"LevelType": "CollectionActivityLevelType_Scenario",
				"ID": 805
			}
		],
		"DaysBeforeActivate": 0,
		"PlayerLevelRequired": 0,
		"MonsterLevel": 60,
		"BattleID": 50823,
		"DialogBeforeBattle": 0,
		"DialogAfterBattle": 0,
		"PlayerExp": 10,
		"HeroExp": 80,
		"GoldReward": 1282,
		"EnergyCostSuccess": 10,
		"EnergyCostFail": 2,
		"FirstClearDrop": [
			{
				"GoodsType": "GoodsType_Crystal",
				"Id": 0,
				"Count": 30
			},
			{
				"GoodsType": "GoodsType_ChallengePoint",
				"Id": 0,
				"Count": 40
			},
			{
				"GoodsType": "GoodsType_Item",
				"Id": 3203,
				"Count": 5
			}
		],
		"DropDisplayCount": 4,
		"Score": 1000,
		"Strategy": ""
	},
	{
		"ID": 804,
		"Name": "Morning Glory",
		"PrevLevel": [
			{
				"LevelType": "CollectionActivityLevelType_Scenario",
				"ID": 807
			}
		],
		"DaysBeforeActivate": 0,
		"PlayerLevelRequired": 0,
		"MonsterLevel": 65,
		"BattleID": 50824,
		"DialogBeforeBattle": 0,
		"DialogAfterBattle": 0,
		"PlayerExp": 10,
		"HeroExp": 80,
		"GoldReward": 1282,
		"EnergyCostSuccess": 10,
		"EnergyCostFail": 2,
		"FirstClearDrop": [
			{
				"GoodsType": "GoodsType_Crystal",
				"Id": 0,
				"Count": 30
			},
			{
				"GoodsType": "GoodsType_ChallengePoint",
				"Id": 0,
				"Count": 60
			},
			{
				"GoodsType": "GoodsType_Gold",
				"Id": 0,
				"Count": 400000
			}
		],
		"DropDisplayCount": 4,
		"Score": 1000,
		"Strategy": ""
	},
	{
		"ID": 805,
		"Name": "Light and Dark",
		"PrevLevel": [
			{
				"LevelType": "CollectionActivityLevelType_Scenario",
				"ID": 808
			}
		],
		"DaysBeforeActivate": 0,
		"PlayerLevelRequired": 0,
		"MonsterLevel": 70,
		"BattleID": 50825,
		"DialogBeforeBattle": 0,
		"DialogAfterBattle": 0,
		"PlayerExp": 10,
		"HeroExp": 80,
		"GoldReward": 1282,
		"EnergyCostSuccess": 10,
		"EnergyCostFail": 2,
		"FirstClearDrop": [
			{
				"GoodsType": "GoodsType_Crystal",
				"Id": 0,
				"Count": 30
			},
			{
				"GoodsType": "GoodsType_ChallengePoint",
				"Id": 0,
				"Count": 60
			},
			{
				"GoodsType": "GoodsType_Item",
				"Id": 4001,
				"Count": 3
			}
		],
		"DropDisplayCount": 4,
		"Score": 1000,
		"Strategy": ""
	},
	{
		"ID": 901,
		"Name": "Night of Wild Magic",
		"DaysBeforeActivate": 8,
		"PlayerLevelRequired": 0,
		"MonsterLevel": 60,
		"BattleID": 51021,
		"DialogBeforeBattle": 0,
		"DialogAfterBattle": 0,
		"PlayerExp": 10,
		"HeroExp": 80,
		"GoldReward": 1282,
		"EnergyCostSuccess": 10,
		"EnergyCostFail": 2,
		"FirstClearDrop": [
			{
				"GoodsType": "GoodsType_Crystal",
				"Id": 0,
				"Count": 30
			},
			{
				"GoodsType": "GoodsType_ChallengePoint",
				"Id": 0,
				"Count": 20
			},
			{
				"GoodsType": "GoodsType_Gold",
				"Id": 0,
				"Count": 200000
			}
		],
		"DropDisplayCount": 4,
		"Score": 0,
		"Strategy": ""
	},
	{
		"ID": 902,
		"Name": "For the Children",
		"DaysBeforeActivate": 9,
		"PlayerLevelRequired": 0,
		"MonsterLevel": 60,
		"BattleID": 51022,
		"DialogBeforeBattle": 0,
		"DialogAfterBattle": 0,
		"PlayerExp": 10,
		"HeroExp": 80,
		"GoldReward": 1282,
		"EnergyCostSuccess": 10,
		"EnergyCostFail": 2,
		"FirstClearDrop": [
			{
				"GoodsType": "GoodsType_Crystal",
				"Id": 0,
				"Count": 30
			},
			{
				"GoodsType": "GoodsType_ChallengePoint",
				"Id": 0,
				"Count": 20
			},
			{
				"GoodsType": "GoodsType_Gold",
				"Id": 0,
				"Count": 200000
			}
		],
		"DropDisplayCount": 4,
		"Score": 0,
		"Strategy": ""
	},
	{
		"ID": 903,
		"Name": "The Troublemaker’s Special Attack",
		"DaysBeforeActivate": 10,
		"PlayerLevelRequired": 0,
		"MonsterLevel": 60,
		"BattleID": 51023,
		"DialogBeforeBattle": 0,
		"DialogAfterBattle": 0,
		"PlayerExp": 10,
		"HeroExp": 80,
		"GoldReward": 1282,
		"EnergyCostSuccess": 10,
		"EnergyCostFail": 2,
		"FirstClearDrop": [
			{
				"GoodsType": "GoodsType_Crystal",
				"Id": 0,
				"Count": 30
			},
			{
				"GoodsType": "GoodsType_ChallengePoint",
				"Id": 0,
				"Count": 40
			},
			{
				"GoodsType": "GoodsType_Item",
				"Id": 3203,
				"Count": 5
			}
		],
		"DropDisplayCount": 4,
		"Score": 0,
		"Strategy": ""
	},
	{
		"ID": 904,
		"Name": "Welcome to the Candy Shop",
		"DaysBeforeActivate": 11,
		"PlayerLevelRequired": 0,
		"MonsterLevel": 65,
		"BattleID": 51024,
		"DialogBeforeBattle": 0,
		"DialogAfterBattle": 0,
		"PlayerExp": 10,
		"HeroExp": 80,
		"GoldReward": 1282,
		"EnergyCostSuccess": 10,
		"EnergyCostFail": 2,
		"FirstClearDrop": [
			{
				"GoodsType": "GoodsType_Crystal",
				"Id": 0,
				"Count": 30
			},
			{
				"GoodsType": "GoodsType_ChallengePoint",
				"Id": 0,
				"Count": 60
			},
			{
				"GoodsType": "GoodsType_Gold",
				"Id": 0,
				"Count": 400000
			}
		],
		"DropDisplayCount": 4,
		"Score": 0,
		"Strategy": ""
	},
	{
		"ID": 905,
		"Name": "Lurking in the Night",
		"DaysBeforeActivate": 12,
		"PlayerLevelRequired": 0,
		"MonsterLevel": 70,
		"BattleID": 51025,
		"DialogBeforeBattle": 0,
		"DialogAfterBattle": 0,
		"PlayerExp": 10,
		"HeroExp": 80,
		"GoldReward": 1282,
		"EnergyCostSuccess": 10,
		"EnergyCostFail": 2,
		"FirstClearDrop": [
			{
				"GoodsType": "GoodsType_Crystal",
				"Id": 0,
				"Count": 30
			},
			{
				"GoodsType": "GoodsType_ChallengePoint",
				"Id": 0,
				"Count": 60
			},
			{
				"GoodsType": "GoodsType_Item",
				"Id": 4001,
				"Count": 2
			}
		],
		"DropDisplayCount": 4,
		"Score": 0,
		"Strategy": ""
	},
	{
		"ID": 1001,
		"Name": "In the Forest of No Return",
		"DaysBeforeActivate": 8,
		"PlayerLevelRequired": 0,
		"MonsterLevel": 60,
		"BattleID": 52021,
		"DialogBeforeBattle": 0,
		"DialogAfterBattle": 0,
		"PlayerExp": 10,
		"HeroExp": 80,
		"GoldReward": 1282,
		"EnergyCostSuccess": 10,
		"EnergyCostFail": 2,
		"FirstClearDrop": [
			{
				"GoodsType": "GoodsType_Crystal",
				"Id": 0,
				"Count": 30
			},
			{
				"GoodsType": "GoodsType_ChallengePoint",
				"Id": 0,
				"Count": 20
			},
			{
				"GoodsType": "GoodsType_Gold",
				"Id": 0,
				"Count": 200000
			}
		],
		"DropDisplayCount": 4,
		"Score": 800,
		"Strategy": ""
	},
	{
		"ID": 1002,
		"Name": "An Ode to Heroes",
		"DaysBeforeActivate": 9,
		"PlayerLevelRequired": 0,
		"MonsterLevel": 60,
		"BattleID": 52022,
		"DialogBeforeBattle": 0,
		"DialogAfterBattle": 0,
		"PlayerExp": 10,
		"HeroExp": 80,
		"GoldReward": 1282,
		"EnergyCostSuccess": 10,
		"EnergyCostFail": 2,
		"FirstClearDrop": [
			{
				"GoodsType": "GoodsType_Crystal",
				"Id": 0,
				"Count": 30
			},
			{
				"GoodsType": "GoodsType_ChallengePoint",
				"Id": 0,
				"Count": 20
			},
			{
				"GoodsType": "GoodsType_Gold",
				"Id": 0,
				"Count": 200000
			}
		],
		"DropDisplayCount": 4,
		"Score": 800,
		"Strategy": ""
	},
	{
		"ID": 1003,
		"Name": "Truth's Beckoning",
		"DaysBeforeActivate": 10,
		"PlayerLevelRequired": 0,
		"MonsterLevel": 60,
		"BattleID": 52023,
		"DialogBeforeBattle": 0,
		"DialogAfterBattle": 0,
		"PlayerExp": 10,
		"HeroExp": 80,
		"GoldReward": 1282,
		"EnergyCostSuccess": 10,
		"EnergyCostFail": 2,
		"FirstClearDrop": [
			{
				"GoodsType": "GoodsType_Crystal",
				"Id": 0,
				"Count": 30
			},
			{
				"GoodsType": "GoodsType_ChallengePoint",
				"Id": 0,
				"Count": 40
			},
			{
				"GoodsType": "GoodsType_Item",
				"Id": 3203,
				"Count": 5
			}
		],
		"DropDisplayCount": 4,
		"Score": 1000,
		"Strategy": ""
	},
	{
		"ID": 1004,
		"Name": "The Grey Witch Cometh",
		"DaysBeforeActivate": 11,
		"PlayerLevelRequired": 0,
		"MonsterLevel": 65,
		"BattleID": 52024,
		"DialogBeforeBattle": 0,
		"DialogAfterBattle": 0,
		"PlayerExp": 10,
		"HeroExp": 80,
		"GoldReward": 1282,
		"EnergyCostSuccess": 10,
		"EnergyCostFail": 2,
		"FirstClearDrop": [
			{
				"GoodsType": "GoodsType_Crystal",
				"Id": 0,
				"Count": 30
			},
			{
				"GoodsType": "GoodsType_ChallengePoint",
				"Id": 0,
				"Count": 60
			},
			{
				"GoodsType": "GoodsType_Gold",
				"Id": 0,
				"Count": 400000
			}
		],
		"DropDisplayCount": 4,
		"Score": 1000,
		"Strategy": ""
	},
	{
		"ID": 1005,
		"Name": "Flames of the Frozen Sky",
		"DaysBeforeActivate": 12,
		"PlayerLevelRequired": 0,
		"MonsterLevel": 70,
		"BattleID": 52025,
		"DialogBeforeBattle": 0,
		"DialogAfterBattle": 0,
		"PlayerExp": 10,
		"HeroExp": 80,
		"GoldReward": 1282,
		"EnergyCostSuccess": 10,
		"EnergyCostFail": 2,
		"FirstClearDrop": [
			{
				"GoodsType": "GoodsType_Crystal",
				"Id": 0,
				"Count": 30
			},
			{
				"GoodsType": "GoodsType_ChallengePoint",
				"Id": 0,
				"Count": 60
			},
			{
				"GoodsType": "GoodsType_Item",
				"Id": 4001,
				"Count": 3
			}
		],
		"DropDisplayCount": 4,
		"Score": 1000,
		"Strategy": ""
	},
	{
		"ID": 1201,
		"Name": "Dumpling Clan",
		"DaysBeforeActivate": 8,
		"PlayerLevelRequired": 0,
		"MonsterLevel": 60,
		"BattleID": 52121,
		"DialogBeforeBattle": 0,
		"DialogAfterBattle": 0,
		"PlayerExp": 10,
		"HeroExp": 80,
		"GoldReward": 1282,
		"EnergyCostSuccess": 10,
		"EnergyCostFail": 2,
		"FirstClearDrop": [
			{
				"GoodsType": "GoodsType_Crystal",
				"Id": 0,
				"Count": 30
			},
			{
				"GoodsType": "GoodsType_ChallengePoint",
				"Id": 0,
				"Count": 20
			},
			{
				"GoodsType": "GoodsType_Gold",
				"Id": 0,
				"Count": 200000
			}
		],
		"DropDisplayCount": 4,
		"Score": 0,
		"Strategy": ""
	},
	{
		"ID": 1202,
		"Name": "Beast King's Wrath",
		"DaysBeforeActivate": 9,
		"PlayerLevelRequired": 0,
		"MonsterLevel": 60,
		"BattleID": 52122,
		"DialogBeforeBattle": 0,
		"DialogAfterBattle": 0,
		"PlayerExp": 10,
		"HeroExp": 80,
		"GoldReward": 1282,
		"EnergyCostSuccess": 10,
		"EnergyCostFail": 2,
		"FirstClearDrop": [
			{
				"GoodsType": "GoodsType_Crystal",
				"Id": 0,
				"Count": 30
			},
			{
				"GoodsType": "GoodsType_ChallengePoint",
				"Id": 0,
				"Count": 20
			},
			{
				"GoodsType": "GoodsType_Gold",
				"Id": 0,
				"Count": 200000
			}
		],
		"DropDisplayCount": 4,
		"Score": 0,
		"Strategy": ""
	},
	{
		"ID": 1203,
		"Name": "Venom Raid",
		"DaysBeforeActivate": 10,
		"PlayerLevelRequired": 0,
		"MonsterLevel": 60,
		"BattleID": 52123,
		"DialogBeforeBattle": 0,
		"DialogAfterBattle": 0,
		"PlayerExp": 10,
		"HeroExp": 80,
		"GoldReward": 1282,
		"EnergyCostSuccess": 10,
		"EnergyCostFail": 2,
		"FirstClearDrop": [
			{
				"GoodsType": "GoodsType_Crystal",
				"Id": 0,
				"Count": 30
			},
			{
				"GoodsType": "GoodsType_ChallengePoint",
				"Id": 0,
				"Count": 40
			},
			{
				"GoodsType": "GoodsType_Item",
				"Id": 3203,
				"Count": 5
			}
		],
		"DropDisplayCount": 4,
		"Score": 0,
		"Strategy": ""
	},
	{
		"ID": 1204,
		"Name": "Diamond Star Legend",
		"DaysBeforeActivate": 11,
		"PlayerLevelRequired": 0,
		"MonsterLevel": 65,
		"BattleID": 52124,
		"DialogBeforeBattle": 0,
		"DialogAfterBattle": 0,
		"PlayerExp": 10,
		"HeroExp": 80,
		"GoldReward": 1282,
		"EnergyCostSuccess": 10,
		"EnergyCostFail": 2,
		"FirstClearDrop": [
			{
				"GoodsType": "GoodsType_Crystal",
				"Id": 0,
				"Count": 30
			},
			{
				"GoodsType": "GoodsType_ChallengePoint",
				"Id": 0,
				"Count": 60
			},
			{
				"GoodsType": "GoodsType_Gold",
				"Id": 0,
				"Count": 400000
			}
		],
		"DropDisplayCount": 4,
		"Score": 0,
		"Strategy": ""
	},
	{
		"ID": 1205,
		"Name": "New Year Nightmare?",
		"DaysBeforeActivate": 12,
		"PlayerLevelRequired": 0,
		"MonsterLevel": 70,
		"BattleID": 52125,
		"DialogBeforeBattle": 0,
		"DialogAfterBattle": 0,
		"PlayerExp": 10,
		"HeroExp": 80,
		"GoldReward": 1282,
		"EnergyCostSuccess": 10,
		"EnergyCostFail": 2,
		"FirstClearDrop": [
			{
				"GoodsType": "GoodsType_Crystal",
				"Id": 0,
				"Count": 30
			},
			{
				"GoodsType": "GoodsType_ChallengePoint",
				"Id": 0,
				"Count": 60
			},
			{
				"GoodsType": "GoodsType_Item",
				"Id": 4001,
				"Count": 3
			}
		],
		"DropDisplayCount": 4,
		"Score": 0,
		"Strategy": ""
	}
]