[
	{
		"ID": 1,
		"Model": "Spine/Char/Bozel_ABS/Bozel_Prefab.prefab",
		"UIModelScale": 90,
		"UIModelOffsetX": 0,
		"UIModelOffsetY": 0,
		"UIModelDir": 1
	},
	{
		"ID": 2,
		"Model": "Spine/Char/Luna_ABS/Luna_Skin02_Prefab.prefab",
		"UIModelScale": 90,
		"UIModelOffsetX": 0,
		"UIModelOffsetY": 0,
		"UIModelDir": 1
	},
	{
		"ID": 3,
		"Model": "Spine/Char/Lana_ABS/Lana_Skin3_Prefab.prefab",
		"UIModelScale": 90,
		"UIModelOffsetX": 0,
		"UIModelOffsetY": 0,
		"UIModelDir": 1
	},
	{
		"ID": 4,
		"Model": "Spine/Char/Tialice_ABS/Tialice_Skin01_Prefab.prefab",
		"UIModelScale": 90,
		"UIModelOffsetX": 0,
		"UIModelOffsetY": 0,
		"UIModelDir": 1
	},
	{
		"ID": 5,
		"Model": "Spine/Char/Fana_ABS/Fana_Skin_Prefab.prefab",
		"UIModelScale": 90,
		"UIModelOffsetX": 0,
		"UIModelOffsetY": 0,
		"UIModelDir": 1
	},
	{
		"ID": 6,
		"Model": "Spine/Char/Nahm_ABS/Nahm_Skin02_Prefab.prefab",
		"UIModelScale": 90,
		"UIModelOffsetX": 0,
		"UIModelOffsetY": 0,
		"UIModelDir": 1
	},
	{
		"ID": 7,
		"Model": "Spine/Char/Freya_ABS/Freya_Skin02_Prefab.prefab",
		"UIModelScale": 90,
		"UIModelOffsetX": 0,
		"UIModelOffsetY": 0,
		"UIModelDir": 1
	},
	{
		"ID": 8,
		"Model": "Spine/Char/Jellioru&Lela_ABS/Jellioru&Lela_Prefab.prefab",
		"UIModelScale": 90,
		"UIModelOffsetX": 0,
		"UIModelOffsetY": 0,
		"UIModelDir": 1
	},
	{
		"ID": 9,
		"Model": "Spine/Char/Mathew_ABS/Mathew_Skin01_Prefab.prefab",
		"UIModelScale": 90,
		"UIModelOffsetX": 0,
		"UIModelOffsetY": 0,
		"UIModelDir": 1
	},
	{
		"ID": 10,
		"Model": "Spine/Char/Aimeeda_ABS/Aimeeda_Skin01_Prefab.prefab",
		"UIModelScale": 90,
		"UIModelOffsetX": 0,
		"UIModelOffsetY": 0,
		"UIModelDir": 1
	},
	{
		"ID": 11,
		"Model": "Spine/Char/Grenier_ABS/Grenier_Skin_Prefab.prefab",
		"UIModelScale": 90,
		"UIModelOffsetX": 0,
		"UIModelOffsetY": 0,
		"UIModelDir": 1
	},
	{
		"ID": 12,
		"Model": "Spine/Char/Botan_ABS/Botan_Prefab.prefab",
		"UIModelScale": 90,
		"UIModelOffsetX": 0,
		"UIModelOffsetY": 0,
		"UIModelDir": 1
	},
	{
		"ID": 13,
		"Model": "Spine/Char/Rachel_ABS/Rachel_Skin03_Prefab.prefab",
		"UIModelScale": 90,
		"UIModelOffsetX": 0,
		"UIModelOffsetY": 0,
		"UIModelDir": 1
	},
	{
		"ID": 14,
		"Model": "Spine/Char/Fana_ABS/Fana_Skin02_Prefab.prefab",
		"UIModelScale": 90,
		"UIModelOffsetX": 0,
		"UIModelOffsetY": 0,
		"UIModelDir": 1
	}
]