[
	{
		"ID": 1,
		"Name": "Tier 1 Infantry Training",
		"TeamName": "Lv.15",
		"OpenPlayerLevel": 10,
		"TicketCost": 0,
		"EnergySuccess": 10,
		"EnergyFail": 2,
		"TeamEnergyCost": 8,
		"MonsterLevel": 15,
		"BattleID": 6200,
		"PlayerExp": 10,
		"HeroExp": 37,
		"Gold": 265,
		"DropID": 4512,
		"TeamDropID": 8041,
		"OperationalActivityDropID": 0,
		"DayBonusDropID": 4501,
		"DayBonusExtraDropID": 0,
		"DisplayRewardCount": 1,
		"Icon": "UI/Uncharted_ABS/Occupation_Infantryman.png",
		"Strategy": "",
		"GrowUpSpeedUpExt": 4501
	},
	{
		"ID": 2,
		"Name": "Tier 2 Infantry Training",
		"TeamName": "Lv.20",
		"OpenPlayerLevel": 20,
		"TicketCost": 0,
		"EnergySuccess": 10,
		"EnergyFail": 2,
		"TeamEnergyCost": 8,
		"MonsterLevel": 20,
		"BattleID": 6201,
		"PlayerExp": 10,
		"HeroExp": 40,
		"Gold": 344,
		"DropID": 4513,
		"TeamDropID": 8042,
		"OperationalActivityDropID": 0,
		"DayBonusDropID": 4502,
		"DayBonusExtraDropID": 0,
		"DisplayRewardCount": 1,
		"Icon": "UI/Uncharted_ABS/Occupation_Infantryman.png",
		"Strategy": "",
		"GrowUpSpeedUpExt": 4502
	},
	{
		"ID": 3,
		"Name": "Tier 3 Infantry Training",
		"TeamName": "Lv.25",
		"OpenPlayerLevel": 25,
		"TicketCost": 0,
		"EnergySuccess": 10,
		"EnergyFail": 2,
		"TeamEnergyCost": 8,
		"MonsterLevel": 25,
		"BattleID": 6202,
		"PlayerExp": 10,
		"HeroExp": 45,
		"Gold": 433,
		"DropID": 4514,
		"TeamDropID": 8043,
		"OperationalActivityDropID": 0,
		"DayBonusDropID": 4503,
		"DayBonusExtraDropID": 0,
		"DisplayRewardCount": 2,
		"Icon": "UI/Uncharted_ABS/Occupation_Infantryman.png",
		"Strategy": "",
		"GrowUpSpeedUpExt": 4503
	},
	{
		"ID": 4,
		"Name": "Tier 4 Infantry Training",
		"TeamName": "Lv.30",
		"OpenPlayerLevel": 30,
		"TicketCost": 0,
		"EnergySuccess": 10,
		"EnergyFail": 2,
		"TeamEnergyCost": 8,
		"MonsterLevel": 30,
		"BattleID": 6202,
		"PlayerExp": 10,
		"HeroExp": 50,
		"Gold": 531,
		"DropID": 4515,
		"TeamDropID": 8044,
		"OperationalActivityDropID": 0,
		"DayBonusDropID": 4504,
		"DayBonusExtraDropID": 0,
		"DisplayRewardCount": 2,
		"Icon": "UI/Uncharted_ABS/Occupation_Infantryman.png",
		"Strategy": "",
		"GrowUpSpeedUpExt": 4504
	},
	{
		"ID": 5,
		"Name": "Tier 5 Infantry Training",
		"TeamName": "Lv.35",
		"OpenPlayerLevel": 35,
		"TicketCost": 0,
		"EnergySuccess": 10,
		"EnergyFail": 2,
		"TeamEnergyCost": 8,
		"MonsterLevel": 35,
		"BattleID": 6203,
		"PlayerExp": 10,
		"HeroExp": 55,
		"Gold": 638,
		"DropID": 4516,
		"TeamDropID": 8045,
		"OperationalActivityDropID": 0,
		"DayBonusDropID": 4505,
		"DayBonusExtraDropID": 0,
		"DisplayRewardCount": 2,
		"Icon": "UI/Uncharted_ABS/Occupation_Infantryman.png",
		"Strategy": "",
		"GrowUpSpeedUpExt": 4505
	},
	{
		"ID": 6,
		"Name": "Tier 6 Infantry Training",
		"TeamName": "Lv.40",
		"OpenPlayerLevel": 40,
		"TicketCost": 0,
		"EnergySuccess": 10,
		"EnergyFail": 2,
		"TeamEnergyCost": 8,
		"MonsterLevel": 40,
		"BattleID": 6204,
		"PlayerExp": 10,
		"HeroExp": 60,
		"Gold": 752,
		"DropID": 4517,
		"TeamDropID": 8046,
		"OperationalActivityDropID": 0,
		"DayBonusDropID": 4506,
		"DayBonusExtraDropID": 0,
		"DisplayRewardCount": 3,
		"Icon": "UI/Uncharted_ABS/Occupation_Infantryman.png",
		"Strategy": "",
		"GrowUpSpeedUpExt": 4506
	},
	{
		"ID": 7,
		"Name": "Tier 7 Infantry Training",
		"TeamName": "Lv.45",
		"OpenPlayerLevel": 45,
		"TicketCost": 0,
		"EnergySuccess": 10,
		"EnergyFail": 2,
		"TeamEnergyCost": 8,
		"MonsterLevel": 45,
		"BattleID": 6205,
		"PlayerExp": 10,
		"HeroExp": 65,
		"Gold": 875,
		"DropID": 4518,
		"TeamDropID": 8047,
		"OperationalActivityDropID": 0,
		"DayBonusDropID": 4507,
		"DayBonusExtraDropID": 0,
		"DisplayRewardCount": 3,
		"Icon": "UI/Uncharted_ABS/Occupation_Infantryman.png",
		"Strategy": "",
		"GrowUpSpeedUpExt": 4507
	},
	{
		"ID": 8,
		"Name": "Tier 8 Infantry Training",
		"TeamName": "Lv.50",
		"OpenPlayerLevel": 50,
		"TicketCost": 0,
		"EnergySuccess": 10,
		"EnergyFail": 2,
		"TeamEnergyCost": 8,
		"MonsterLevel": 50,
		"BattleID": 6206,
		"PlayerExp": 10,
		"HeroExp": 70,
		"Gold": 1004,
		"DropID": 4519,
		"TeamDropID": 8048,
		"OperationalActivityDropID": 0,
		"DayBonusDropID": 4508,
		"DayBonusExtraDropID": 0,
		"DisplayRewardCount": 3,
		"Icon": "UI/Uncharted_ABS/Occupation_Infantryman.png",
		"Strategy": "",
		"GrowUpSpeedUpExt": 4508
	},
	{
		"ID": 9,
		"Name": "Tier 9 Infantry Training",
		"TeamName": "Lv.55",
		"OpenPlayerLevel": 55,
		"TicketCost": 0,
		"EnergySuccess": 10,
		"EnergyFail": 2,
		"TeamEnergyCost": 8,
		"MonsterLevel": 55,
		"BattleID": 6207,
		"PlayerExp": 10,
		"HeroExp": 75,
		"Gold": 1140,
		"DropID": 4520,
		"TeamDropID": 8049,
		"OperationalActivityDropID": 0,
		"DayBonusDropID": 4509,
		"DayBonusExtraDropID": 0,
		"DisplayRewardCount": 3,
		"Icon": "UI/Uncharted_ABS/Occupation_Infantryman.png",
		"Strategy": "",
		"GrowUpSpeedUpExt": 4509
	},
	{
		"ID": 10,
		"Name": "Tier 10 Infantry Training",
		"TeamName": "Lv.60",
		"OpenPlayerLevel": 60,
		"TicketCost": 0,
		"EnergySuccess": 10,
		"EnergyFail": 2,
		"TeamEnergyCost": 8,
		"MonsterLevel": 60,
		"BattleID": 6208,
		"PlayerExp": 10,
		"HeroExp": 80,
		"Gold": 1282,
		"DropID": 4521,
		"TeamDropID": 8050,
		"OperationalActivityDropID": 0,
		"DayBonusDropID": 4510,
		"DayBonusExtraDropID": 0,
		"DisplayRewardCount": 3,
		"Icon": "UI/Uncharted_ABS/Occupation_Infantryman.png",
		"Strategy": "",
		"GrowUpSpeedUpExt": 4510
	},
	{
		"ID": 41,
		"Name": "Infantry Training Stage 11",
		"TeamName": "Lv.65",
		"OpenPlayerLevel": 60,
		"TicketCost": 0,
		"EnergySuccess": 10,
		"EnergyFail": 2,
		"TeamEnergyCost": 8,
		"MonsterLevel": 65,
		"BattleID": 6208,
		"PlayerExp": 10,
		"HeroExp": 80,
		"Gold": 1282,
		"DropID": 4522,
		"TeamDropID": 8050,
		"OperationalActivityDropID": 0,
		"DayBonusDropID": 4511,
		"DayBonusExtraDropID": 0,
		"DisplayRewardCount": 3,
		"Icon": "UI/Uncharted_ABS/Occupation_Infantryman.png",
		"Strategy": "",
		"GrowUpSpeedUpExt": 4511
	},
	{
		"ID": 11,
		"Name": "Tier 1 Lancer Training",
		"TeamName": "Lv.15",
		"OpenPlayerLevel": 10,
		"TicketCost": 0,
		"EnergySuccess": 10,
		"EnergyFail": 2,
		"TeamEnergyCost": 8,
		"MonsterLevel": 15,
		"BattleID": 6210,
		"PlayerExp": 10,
		"HeroExp": 37,
		"Gold": 265,
		"DropID": 4512,
		"TeamDropID": 8041,
		"OperationalActivityDropID": 0,
		"DayBonusDropID": 4501,
		"DayBonusExtraDropID": 0,
		"DisplayRewardCount": 1,
		"Icon": "UI/Uncharted_ABS/Occupation_Marines.png",
		"Strategy": "",
		"GrowUpSpeedUpExt": 4501
	},
	{
		"ID": 12,
		"Name": "Tier 2 Lancer Training",
		"TeamName": "Lv.20",
		"OpenPlayerLevel": 20,
		"TicketCost": 0,
		"EnergySuccess": 10,
		"EnergyFail": 2,
		"TeamEnergyCost": 8,
		"MonsterLevel": 20,
		"BattleID": 6211,
		"PlayerExp": 10,
		"HeroExp": 40,
		"Gold": 344,
		"DropID": 4513,
		"TeamDropID": 8042,
		"OperationalActivityDropID": 0,
		"DayBonusDropID": 4502,
		"DayBonusExtraDropID": 0,
		"DisplayRewardCount": 1,
		"Icon": "UI/Uncharted_ABS/Occupation_Marines.png",
		"Strategy": "",
		"GrowUpSpeedUpExt": 4502
	},
	{
		"ID": 13,
		"Name": "Tier 3 Lancer Training",
		"TeamName": "Lv.25",
		"OpenPlayerLevel": 25,
		"TicketCost": 0,
		"EnergySuccess": 10,
		"EnergyFail": 2,
		"TeamEnergyCost": 8,
		"MonsterLevel": 25,
		"BattleID": 6212,
		"PlayerExp": 10,
		"HeroExp": 45,
		"Gold": 433,
		"DropID": 4514,
		"TeamDropID": 8043,
		"OperationalActivityDropID": 0,
		"DayBonusDropID": 4503,
		"DayBonusExtraDropID": 0,
		"DisplayRewardCount": 2,
		"Icon": "UI/Uncharted_ABS/Occupation_Marines.png",
		"Strategy": "",
		"GrowUpSpeedUpExt": 4503
	},
	{
		"ID": 14,
		"Name": "Tier 4 Lancer Training",
		"TeamName": "Lv.30",
		"OpenPlayerLevel": 30,
		"TicketCost": 0,
		"EnergySuccess": 10,
		"EnergyFail": 2,
		"TeamEnergyCost": 8,
		"MonsterLevel": 30,
		"BattleID": 6212,
		"PlayerExp": 10,
		"HeroExp": 50,
		"Gold": 531,
		"DropID": 4515,
		"TeamDropID": 8044,
		"OperationalActivityDropID": 0,
		"DayBonusDropID": 4504,
		"DayBonusExtraDropID": 0,
		"DisplayRewardCount": 2,
		"Icon": "UI/Uncharted_ABS/Occupation_Marines.png",
		"Strategy": "",
		"GrowUpSpeedUpExt": 4504
	},
	{
		"ID": 15,
		"Name": "Tier 5 Lancer Training",
		"TeamName": "Lv.35",
		"OpenPlayerLevel": 35,
		"TicketCost": 0,
		"EnergySuccess": 10,
		"EnergyFail": 2,
		"TeamEnergyCost": 8,
		"MonsterLevel": 35,
		"BattleID": 6213,
		"PlayerExp": 10,
		"HeroExp": 55,
		"Gold": 638,
		"DropID": 4516,
		"TeamDropID": 8045,
		"OperationalActivityDropID": 0,
		"DayBonusDropID": 4505,
		"DayBonusExtraDropID": 0,
		"DisplayRewardCount": 2,
		"Icon": "UI/Uncharted_ABS/Occupation_Marines.png",
		"Strategy": "",
		"GrowUpSpeedUpExt": 4505
	},
	{
		"ID": 16,
		"Name": "Tier 6 Lancer Training",
		"TeamName": "Lv.40",
		"OpenPlayerLevel": 40,
		"TicketCost": 0,
		"EnergySuccess": 10,
		"EnergyFail": 2,
		"TeamEnergyCost": 8,
		"MonsterLevel": 40,
		"BattleID": 6214,
		"PlayerExp": 10,
		"HeroExp": 60,
		"Gold": 752,
		"DropID": 4517,
		"TeamDropID": 8046,
		"OperationalActivityDropID": 0,
		"DayBonusDropID": 4506,
		"DayBonusExtraDropID": 0,
		"DisplayRewardCount": 3,
		"Icon": "UI/Uncharted_ABS/Occupation_Marines.png",
		"Strategy": "",
		"GrowUpSpeedUpExt": 4506
	},
	{
		"ID": 17,
		"Name": "Tier 7 Lancer Training",
		"TeamName": "Lv.45",
		"OpenPlayerLevel": 45,
		"TicketCost": 0,
		"EnergySuccess": 10,
		"EnergyFail": 2,
		"TeamEnergyCost": 8,
		"MonsterLevel": 45,
		"BattleID": 6215,
		"PlayerExp": 10,
		"HeroExp": 65,
		"Gold": 875,
		"DropID": 4518,
		"TeamDropID": 8047,
		"OperationalActivityDropID": 0,
		"DayBonusDropID": 4507,
		"DayBonusExtraDropID": 0,
		"DisplayRewardCount": 3,
		"Icon": "UI/Uncharted_ABS/Occupation_Marines.png",
		"Strategy": "",
		"GrowUpSpeedUpExt": 4507
	},
	{
		"ID": 18,
		"Name": "Tier 8 Lancer Training",
		"TeamName": "Lv.50",
		"OpenPlayerLevel": 50,
		"TicketCost": 0,
		"EnergySuccess": 10,
		"EnergyFail": 2,
		"TeamEnergyCost": 8,
		"MonsterLevel": 50,
		"BattleID": 6216,
		"PlayerExp": 10,
		"HeroExp": 70,
		"Gold": 1004,
		"DropID": 4519,
		"TeamDropID": 8048,
		"OperationalActivityDropID": 0,
		"DayBonusDropID": 4508,
		"DayBonusExtraDropID": 0,
		"DisplayRewardCount": 3,
		"Icon": "UI/Uncharted_ABS/Occupation_Marines.png",
		"Strategy": "",
		"GrowUpSpeedUpExt": 4508
	},
	{
		"ID": 19,
		"Name": "Tier 9 Lancer Training",
		"TeamName": "Lv.55",
		"OpenPlayerLevel": 55,
		"TicketCost": 0,
		"EnergySuccess": 10,
		"EnergyFail": 2,
		"TeamEnergyCost": 8,
		"MonsterLevel": 55,
		"BattleID": 6217,
		"PlayerExp": 10,
		"HeroExp": 75,
		"Gold": 1140,
		"DropID": 4520,
		"TeamDropID": 8049,
		"OperationalActivityDropID": 0,
		"DayBonusDropID": 4509,
		"DayBonusExtraDropID": 0,
		"DisplayRewardCount": 3,
		"Icon": "UI/Uncharted_ABS/Occupation_Marines.png",
		"Strategy": "",
		"GrowUpSpeedUpExt": 4509
	},
	{
		"ID": 20,
		"Name": "Tier 10 Lancer Training",
		"TeamName": "Lv.60",
		"OpenPlayerLevel": 60,
		"TicketCost": 0,
		"EnergySuccess": 10,
		"EnergyFail": 2,
		"TeamEnergyCost": 8,
		"MonsterLevel": 60,
		"BattleID": 6218,
		"PlayerExp": 10,
		"HeroExp": 80,
		"Gold": 1282,
		"DropID": 4521,
		"TeamDropID": 8050,
		"OperationalActivityDropID": 0,
		"DayBonusDropID": 4510,
		"DayBonusExtraDropID": 0,
		"DisplayRewardCount": 3,
		"Icon": "UI/Uncharted_ABS/Occupation_Marines.png",
		"Strategy": "",
		"GrowUpSpeedUpExt": 4510
	},
	{
		"ID": 42,
		"Name": "Lancer Training Stage 11",
		"TeamName": "Lv.65",
		"OpenPlayerLevel": 60,
		"TicketCost": 0,
		"EnergySuccess": 10,
		"EnergyFail": 2,
		"TeamEnergyCost": 8,
		"MonsterLevel": 65,
		"BattleID": 6218,
		"PlayerExp": 10,
		"HeroExp": 80,
		"Gold": 1282,
		"DropID": 4522,
		"TeamDropID": 8050,
		"OperationalActivityDropID": 0,
		"DayBonusDropID": 4511,
		"DayBonusExtraDropID": 0,
		"DisplayRewardCount": 3,
		"Icon": "UI/Uncharted_ABS/Occupation_Marines.png",
		"Strategy": "",
		"GrowUpSpeedUpExt": 4511
	},
	{
		"ID": 21,
		"Name": "Tier 1 Cavalry Training",
		"TeamName": "Lv.15",
		"OpenPlayerLevel": 10,
		"TicketCost": 0,
		"EnergySuccess": 10,
		"EnergyFail": 2,
		"TeamEnergyCost": 8,
		"MonsterLevel": 15,
		"BattleID": 6220,
		"PlayerExp": 10,
		"HeroExp": 37,
		"Gold": 265,
		"DropID": 4512,
		"TeamDropID": 8041,
		"OperationalActivityDropID": 0,
		"DayBonusDropID": 4501,
		"DayBonusExtraDropID": 0,
		"DisplayRewardCount": 1,
		"Icon": "UI/Uncharted_ABS/Occupation_Cavalry.png",
		"Strategy": "",
		"GrowUpSpeedUpExt": 4501
	},
	{
		"ID": 22,
		"Name": "Tier 2 Cavalry Training",
		"TeamName": "Lv.20",
		"OpenPlayerLevel": 20,
		"TicketCost": 0,
		"EnergySuccess": 10,
		"EnergyFail": 2,
		"TeamEnergyCost": 8,
		"MonsterLevel": 20,
		"BattleID": 6221,
		"PlayerExp": 10,
		"HeroExp": 40,
		"Gold": 344,
		"DropID": 4513,
		"TeamDropID": 8042,
		"OperationalActivityDropID": 0,
		"DayBonusDropID": 4502,
		"DayBonusExtraDropID": 0,
		"DisplayRewardCount": 1,
		"Icon": "UI/Uncharted_ABS/Occupation_Cavalry.png",
		"Strategy": "",
		"GrowUpSpeedUpExt": 4502
	},
	{
		"ID": 23,
		"Name": "Tier 3 Cavalry Training",
		"TeamName": "Lv.25",
		"OpenPlayerLevel": 25,
		"TicketCost": 0,
		"EnergySuccess": 10,
		"EnergyFail": 2,
		"TeamEnergyCost": 8,
		"MonsterLevel": 25,
		"BattleID": 6222,
		"PlayerExp": 10,
		"HeroExp": 45,
		"Gold": 433,
		"DropID": 4514,
		"TeamDropID": 8043,
		"OperationalActivityDropID": 0,
		"DayBonusDropID": 4503,
		"DayBonusExtraDropID": 0,
		"DisplayRewardCount": 2,
		"Icon": "UI/Uncharted_ABS/Occupation_Cavalry.png",
		"Strategy": "",
		"GrowUpSpeedUpExt": 4503
	},
	{
		"ID": 24,
		"Name": "Tier 4 Cavalry Training",
		"TeamName": "Lv.30",
		"OpenPlayerLevel": 30,
		"TicketCost": 0,
		"EnergySuccess": 10,
		"EnergyFail": 2,
		"TeamEnergyCost": 8,
		"MonsterLevel": 30,
		"BattleID": 6222,
		"PlayerExp": 10,
		"HeroExp": 50,
		"Gold": 531,
		"DropID": 4515,
		"TeamDropID": 8044,
		"OperationalActivityDropID": 0,
		"DayBonusDropID": 4504,
		"DayBonusExtraDropID": 0,
		"DisplayRewardCount": 2,
		"Icon": "UI/Uncharted_ABS/Occupation_Cavalry.png",
		"Strategy": "",
		"GrowUpSpeedUpExt": 4504
	},
	{
		"ID": 25,
		"Name": "Tier 5 Cavalry Training",
		"TeamName": "Lv.35",
		"OpenPlayerLevel": 35,
		"TicketCost": 0,
		"EnergySuccess": 10,
		"EnergyFail": 2,
		"TeamEnergyCost": 8,
		"MonsterLevel": 35,
		"BattleID": 6223,
		"PlayerExp": 10,
		"HeroExp": 55,
		"Gold": 638,
		"DropID": 4516,
		"TeamDropID": 8045,
		"OperationalActivityDropID": 0,
		"DayBonusDropID": 4505,
		"DayBonusExtraDropID": 0,
		"DisplayRewardCount": 2,
		"Icon": "UI/Uncharted_ABS/Occupation_Cavalry.png",
		"Strategy": "",
		"GrowUpSpeedUpExt": 4505
	},
	{
		"ID": 26,
		"Name": "Tier 6 Cavalry Training",
		"TeamName": "Lv.40",
		"OpenPlayerLevel": 40,
		"TicketCost": 0,
		"EnergySuccess": 10,
		"EnergyFail": 2,
		"TeamEnergyCost": 8,
		"MonsterLevel": 40,
		"BattleID": 6224,
		"PlayerExp": 10,
		"HeroExp": 60,
		"Gold": 752,
		"DropID": 4517,
		"TeamDropID": 8046,
		"OperationalActivityDropID": 0,
		"DayBonusDropID": 4506,
		"DayBonusExtraDropID": 0,
		"DisplayRewardCount": 3,
		"Icon": "UI/Uncharted_ABS/Occupation_Cavalry.png",
		"Strategy": "",
		"GrowUpSpeedUpExt": 4506
	},
	{
		"ID": 27,
		"Name": "Tier 7 Cavalry Training",
		"TeamName": "Lv.45",
		"OpenPlayerLevel": 45,
		"TicketCost": 0,
		"EnergySuccess": 10,
		"EnergyFail": 2,
		"TeamEnergyCost": 8,
		"MonsterLevel": 45,
		"BattleID": 6225,
		"PlayerExp": 10,
		"HeroExp": 65,
		"Gold": 875,
		"DropID": 4518,
		"TeamDropID": 8047,
		"OperationalActivityDropID": 0,
		"DayBonusDropID": 4507,
		"DayBonusExtraDropID": 0,
		"DisplayRewardCount": 3,
		"Icon": "UI/Uncharted_ABS/Occupation_Cavalry.png",
		"Strategy": "",
		"GrowUpSpeedUpExt": 4507
	},
	{
		"ID": 28,
		"Name": "Tier 8 Cavalry Training",
		"TeamName": "Lv.50",
		"OpenPlayerLevel": 50,
		"TicketCost": 0,
		"EnergySuccess": 10,
		"EnergyFail": 2,
		"TeamEnergyCost": 8,
		"MonsterLevel": 50,
		"BattleID": 6226,
		"PlayerExp": 10,
		"HeroExp": 70,
		"Gold": 1004,
		"DropID": 4519,
		"TeamDropID": 8048,
		"OperationalActivityDropID": 0,
		"DayBonusDropID": 4508,
		"DayBonusExtraDropID": 0,
		"DisplayRewardCount": 3,
		"Icon": "UI/Uncharted_ABS/Occupation_Cavalry.png",
		"Strategy": "",
		"GrowUpSpeedUpExt": 4508
	},
	{
		"ID": 29,
		"Name": "Tier 9 Cavalry Training",
		"TeamName": "Lv.55",
		"OpenPlayerLevel": 55,
		"TicketCost": 0,
		"EnergySuccess": 10,
		"EnergyFail": 2,
		"TeamEnergyCost": 8,
		"MonsterLevel": 55,
		"BattleID": 6227,
		"PlayerExp": 10,
		"HeroExp": 75,
		"Gold": 1140,
		"DropID": 4520,
		"TeamDropID": 8049,
		"OperationalActivityDropID": 0,
		"DayBonusDropID": 4509,
		"DayBonusExtraDropID": 0,
		"DisplayRewardCount": 3,
		"Icon": "UI/Uncharted_ABS/Occupation_Cavalry.png",
		"Strategy": "",
		"GrowUpSpeedUpExt": 4509
	},
	{
		"ID": 30,
		"Name": "Tier 10 Cavalry Training",
		"TeamName": "Lv.60",
		"OpenPlayerLevel": 60,
		"TicketCost": 0,
		"EnergySuccess": 10,
		"EnergyFail": 2,
		"TeamEnergyCost": 8,
		"MonsterLevel": 60,
		"BattleID": 6228,
		"PlayerExp": 10,
		"HeroExp": 80,
		"Gold": 1282,
		"DropID": 4521,
		"TeamDropID": 8050,
		"OperationalActivityDropID": 0,
		"DayBonusDropID": 4510,
		"DayBonusExtraDropID": 0,
		"DisplayRewardCount": 3,
		"Icon": "UI/Uncharted_ABS/Occupation_Cavalry.png",
		"Strategy": "",
		"GrowUpSpeedUpExt": 4510
	},
	{
		"ID": 43,
		"Name": "Cavalry Training Stage 11",
		"TeamName": "Lv.65",
		"OpenPlayerLevel": 60,
		"TicketCost": 0,
		"EnergySuccess": 10,
		"EnergyFail": 2,
		"TeamEnergyCost": 8,
		"MonsterLevel": 65,
		"BattleID": 6228,
		"PlayerExp": 10,
		"HeroExp": 80,
		"Gold": 1282,
		"DropID": 4522,
		"TeamDropID": 8050,
		"OperationalActivityDropID": 0,
		"DayBonusDropID": 4511,
		"DayBonusExtraDropID": 0,
		"DisplayRewardCount": 3,
		"Icon": "UI/Uncharted_ABS/Occupation_Cavalry.png",
		"Strategy": "",
		"GrowUpSpeedUpExt": 4511
	},
	{
		"ID": 31,
		"Name": "Tier 1 Demon Training",
		"TeamName": "Lv.15",
		"OpenPlayerLevel": 10,
		"TicketCost": 0,
		"EnergySuccess": 10,
		"EnergyFail": 2,
		"TeamEnergyCost": 8,
		"MonsterLevel": 15,
		"BattleID": 6230,
		"PlayerExp": 10,
		"HeroExp": 37,
		"Gold": 265,
		"DropID": 4512,
		"TeamDropID": 8041,
		"OperationalActivityDropID": 0,
		"DayBonusDropID": 4501,
		"DayBonusExtraDropID": 0,
		"DisplayRewardCount": 1,
		"Icon": "UI/Uncharted_ABS/Occupation_Monster.png",
		"Strategy": "",
		"GrowUpSpeedUpExt": 4501
	},
	{
		"ID": 32,
		"Name": "Tier 2 Demon Training",
		"TeamName": "Lv.20",
		"OpenPlayerLevel": 20,
		"TicketCost": 0,
		"EnergySuccess": 10,
		"EnergyFail": 2,
		"TeamEnergyCost": 8,
		"MonsterLevel": 20,
		"BattleID": 6231,
		"PlayerExp": 10,
		"HeroExp": 40,
		"Gold": 344,
		"DropID": 4513,
		"TeamDropID": 8042,
		"OperationalActivityDropID": 0,
		"DayBonusDropID": 4502,
		"DayBonusExtraDropID": 0,
		"DisplayRewardCount": 1,
		"Icon": "UI/Uncharted_ABS/Occupation_Monster.png",
		"Strategy": "",
		"GrowUpSpeedUpExt": 4502
	},
	{
		"ID": 33,
		"Name": "Tier 3 Demon Training",
		"TeamName": "Lv.25",
		"OpenPlayerLevel": 25,
		"TicketCost": 0,
		"EnergySuccess": 10,
		"EnergyFail": 2,
		"TeamEnergyCost": 8,
		"MonsterLevel": 25,
		"BattleID": 6232,
		"PlayerExp": 10,
		"HeroExp": 45,
		"Gold": 433,
		"DropID": 4514,
		"TeamDropID": 8043,
		"OperationalActivityDropID": 0,
		"DayBonusDropID": 4503,
		"DayBonusExtraDropID": 0,
		"DisplayRewardCount": 2,
		"Icon": "UI/Uncharted_ABS/Occupation_Monster.png",
		"Strategy": "",
		"GrowUpSpeedUpExt": 4503
	},
	{
		"ID": 34,
		"Name": "Tier 4 Demon Training",
		"TeamName": "Lv.30",
		"OpenPlayerLevel": 30,
		"TicketCost": 0,
		"EnergySuccess": 10,
		"EnergyFail": 2,
		"TeamEnergyCost": 8,
		"MonsterLevel": 30,
		"BattleID": 6232,
		"PlayerExp": 10,
		"HeroExp": 50,
		"Gold": 531,
		"DropID": 4515,
		"TeamDropID": 8044,
		"OperationalActivityDropID": 0,
		"DayBonusDropID": 4504,
		"DayBonusExtraDropID": 0,
		"DisplayRewardCount": 2,
		"Icon": "UI/Uncharted_ABS/Occupation_Monster.png",
		"Strategy": "",
		"GrowUpSpeedUpExt": 4504
	},
	{
		"ID": 35,
		"Name": "Tier 5 Demon Training",
		"TeamName": "Lv.35",
		"OpenPlayerLevel": 35,
		"TicketCost": 0,
		"EnergySuccess": 10,
		"EnergyFail": 2,
		"TeamEnergyCost": 8,
		"MonsterLevel": 35,
		"BattleID": 6233,
		"PlayerExp": 10,
		"HeroExp": 55,
		"Gold": 638,
		"DropID": 4516,
		"TeamDropID": 8045,
		"OperationalActivityDropID": 0,
		"DayBonusDropID": 4505,
		"DayBonusExtraDropID": 0,
		"DisplayRewardCount": 2,
		"Icon": "UI/Uncharted_ABS/Occupation_Monster.png",
		"Strategy": "",
		"GrowUpSpeedUpExt": 4505
	},
	{
		"ID": 36,
		"Name": "Tier 6 Demon Training",
		"TeamName": "Lv.40",
		"OpenPlayerLevel": 40,
		"TicketCost": 0,
		"EnergySuccess": 10,
		"EnergyFail": 2,
		"TeamEnergyCost": 8,
		"MonsterLevel": 40,
		"BattleID": 6234,
		"PlayerExp": 10,
		"HeroExp": 60,
		"Gold": 752,
		"DropID": 4517,
		"TeamDropID": 8046,
		"OperationalActivityDropID": 0,
		"DayBonusDropID": 4506,
		"DayBonusExtraDropID": 0,
		"DisplayRewardCount": 3,
		"Icon": "UI/Uncharted_ABS/Occupation_Monster.png",
		"Strategy": "",
		"GrowUpSpeedUpExt": 4506
	},
	{
		"ID": 37,
		"Name": "Tier 7 Demon Training",
		"TeamName": "Lv.45",
		"OpenPlayerLevel": 45,
		"TicketCost": 0,
		"EnergySuccess": 10,
		"EnergyFail": 2,
		"TeamEnergyCost": 8,
		"MonsterLevel": 45,
		"BattleID": 6235,
		"PlayerExp": 10,
		"HeroExp": 65,
		"Gold": 875,
		"DropID": 4518,
		"TeamDropID": 8047,
		"OperationalActivityDropID": 0,
		"DayBonusDropID": 4507,
		"DayBonusExtraDropID": 0,
		"DisplayRewardCount": 3,
		"Icon": "UI/Uncharted_ABS/Occupation_Monster.png",
		"Strategy": "",
		"GrowUpSpeedUpExt": 4507
	},
	{
		"ID": 38,
		"Name": "Tier 8 Demon Training",
		"TeamName": "Lv.50",
		"OpenPlayerLevel": 50,
		"TicketCost": 0,
		"EnergySuccess": 10,
		"EnergyFail": 2,
		"TeamEnergyCost": 8,
		"MonsterLevel": 50,
		"BattleID": 6236,
		"PlayerExp": 10,
		"HeroExp": 70,
		"Gold": 1004,
		"DropID": 4519,
		"TeamDropID": 8048,
		"OperationalActivityDropID": 0,
		"DayBonusDropID": 4508,
		"DayBonusExtraDropID": 0,
		"DisplayRewardCount": 3,
		"Icon": "UI/Uncharted_ABS/Occupation_Monster.png",
		"Strategy": "",
		"GrowUpSpeedUpExt": 4508
	},
	{
		"ID": 39,
		"Name": "Tier 9 Demon Training",
		"TeamName": "Lv.55",
		"OpenPlayerLevel": 55,
		"TicketCost": 0,
		"EnergySuccess": 10,
		"EnergyFail": 2,
		"TeamEnergyCost": 8,
		"MonsterLevel": 55,
		"BattleID": 6237,
		"PlayerExp": 10,
		"HeroExp": 75,
		"Gold": 1140,
		"DropID": 4520,
		"TeamDropID": 8049,
		"OperationalActivityDropID": 0,
		"DayBonusDropID": 4509,
		"DayBonusExtraDropID": 0,
		"DisplayRewardCount": 3,
		"Icon": "UI/Uncharted_ABS/Occupation_Monster.png",
		"Strategy": "",
		"GrowUpSpeedUpExt": 4509
	},
	{
		"ID": 40,
		"Name": "Tier 10 Demon Training",
		"TeamName": "Lv.60",
		"OpenPlayerLevel": 60,
		"TicketCost": 0,
		"EnergySuccess": 10,
		"EnergyFail": 2,
		"TeamEnergyCost": 8,
		"MonsterLevel": 60,
		"BattleID": 6238,
		"PlayerExp": 10,
		"HeroExp": 80,
		"Gold": 1282,
		"DropID": 4521,
		"TeamDropID": 8050,
		"OperationalActivityDropID": 0,
		"DayBonusDropID": 4510,
		"DayBonusExtraDropID": 0,
		"DisplayRewardCount": 3,
		"Icon": "UI/Uncharted_ABS/Occupation_Monster.png",
		"Strategy": "",
		"GrowUpSpeedUpExt": 4510
	},
	{
		"ID": 44,
		"Name": "Demon Training Stage 11",
		"TeamName": "Lv.65",
		"OpenPlayerLevel": 60,
		"TicketCost": 0,
		"EnergySuccess": 10,
		"EnergyFail": 2,
		"TeamEnergyCost": 8,
		"MonsterLevel": 65,
		"BattleID": 6238,
		"PlayerExp": 10,
		"HeroExp": 80,
		"Gold": 1282,
		"DropID": 4522,
		"TeamDropID": 8050,
		"OperationalActivityDropID": 0,
		"DayBonusDropID": 4511,
		"DayBonusExtraDropID": 0,
		"DisplayRewardCount": 3,
		"Icon": "UI/Uncharted_ABS/Occupation_Monster.png",
		"Strategy": "",
		"GrowUpSpeedUpExt": 4511
	}
]