[
	{
		"ID": 1,
		"Name": "Dovalu Village",
		"FuncType": "WaypointFuncType_Scenario",
		"FuncTypeParam1": 0,
		"WaypointsID": [
			2,
			63
		],
		"StyleType": "WaypointStyleType_Village",
		"Model": "Waypoint_ABS/Icon-Village_Prefab.prefab",
		"Background": "",
		"StateList": [
			{
				"ScenarioId": 11,
				"StateName": "Fire"
			},
			{
				"ScenarioId": 12,
				"StateName": "Broken"
			}
		]
	},
	{
		"ID": 2,
		"Name": "Waypoint 2",
		"FuncType": "WaypointFuncType_Event",
		"FuncTypeParam1": 100,
		"WaypointsID": [
			1,
			3,
			31
		],
		"StyleType": "WaypointStyleType_Forest",
		"Model": "Waypoint_ABS/Icon-ThePlace_Prefab.prefab",
		"Background": ""
	},
	{
		"ID": 3,
		"Name": "Waypoint 3",
		"FuncType": "WaypointFuncType_Event",
		"FuncTypeParam1": 101,
		"WaypointsID": [
			2,
			4,
			54
		],
		"StyleType": "WaypointStyleType_Mountain",
		"Model": "Waypoint_ABS/Icon-ThePlace_Prefab.prefab",
		"Background": ""
	},
	{
		"ID": 4,
		"Name": "Waypoint 4",
		"FuncType": "WaypointFuncType_Event",
		"FuncTypeParam1": 102,
		"WaypointsID": [
			3,
			5,
			6
		],
		"StyleType": "WaypointStyleType_Forest",
		"Model": "Waypoint_ABS/Icon-ThePlace_Prefab.prefab",
		"Background": ""
	},
	{
		"ID": 5,
		"Name": "Kalxath Forest",
		"FuncType": "WaypointFuncType_Scenario",
		"FuncTypeParam1": 0,
		"WaypointsID": [
			4
		],
		"StyleType": "WaypointStyleType_Forest",
		"Model": "Waypoint_ABS/Icon_KarthusForest_Prefab.prefab",
		"Background": ""
	},
	{
		"ID": 6,
		"Name": "Waypoint 6",
		"FuncType": "WaypointFuncType_Event",
		"FuncTypeParam1": 104,
		"WaypointsID": [
			4,
			7,
			55
		],
		"StyleType": "WaypointStyleType_Forest",
		"Model": "Waypoint_ABS/Icon-ThePlace_Prefab.prefab",
		"Background": ""
	},
	{
		"ID": 7,
		"Name": "Waypoint 7",
		"FuncType": "WaypointFuncType_Event",
		"FuncTypeParam1": 103,
		"WaypointsID": [
			6,
			8
		],
		"StyleType": "WaypointStyleType_Mountain",
		"Model": "Waypoint_ABS/Icon-ThePlace_Prefab.prefab",
		"Background": ""
	},
	{
		"ID": 8,
		"Name": "Waypoint 8",
		"FuncType": "WaypointFuncType_Event",
		"FuncTypeParam1": 105,
		"WaypointsID": [
			7,
			9
		],
		"StyleType": "WaypointStyleType_Mountain",
		"Model": "Waypoint_ABS/Icon-ThePlace_Prefab.prefab",
		"Background": ""
	},
	{
		"ID": 9,
		"Name": "Mishura Town",
		"FuncType": "WaypointFuncType_Scenario",
		"FuncTypeParam1": 0,
		"WaypointsID": [
			8,
			10
		],
		"StyleType": "WaypointStyleType_Village",
		"Model": "Waypoint_ABS/Icon-Town_Prefab.prefab",
		"Background": ""
	},
	{
		"ID": 10,
		"Name": "Waypoint 11",
		"FuncType": "WaypointFuncType_Event",
		"FuncTypeParam1": 106,
		"WaypointsID": [
			9,
			11,
			57
		],
		"StyleType": "WaypointStyleType_Mountain",
		"Model": "Waypoint_ABS/Icon-ThePlace_Prefab.prefab",
		"Background": ""
	},
	{
		"ID": 11,
		"Name": "Waypoint 12",
		"FuncType": "WaypointFuncType_Event",
		"FuncTypeParam1": 107,
		"WaypointsID": [
			10,
			12
		],
		"StyleType": "WaypointStyleType_Mountain",
		"Model": "Waypoint_ABS/Icon-ThePlace_Prefab.prefab",
		"Background": ""
	},
	{
		"ID": 12,
		"Name": "Secluded Shack",
		"FuncType": "WaypointFuncType_Scenario",
		"FuncTypeParam1": 0,
		"WaypointsID": [
			11,
			13
		],
		"StyleType": "WaypointStyleType_Village",
		"Model": "Waypoint_ABS/Icon-PrivateHouse_Prefab.prefab",
		"Background": ""
	},
	{
		"ID": 13,
		"Name": "Waypoint 13",
		"FuncType": "WaypointFuncType_Event",
		"FuncTypeParam1": 108,
		"WaypointsID": [
			12,
			14,
			58
		],
		"StyleType": "WaypointStyleType_Forest",
		"Model": "Waypoint_ABS/Icon-ThePlace_Prefab.prefab",
		"Background": ""
	},
	{
		"ID": 14,
		"Name": "Waypoint 14",
		"FuncType": "WaypointFuncType_Event",
		"FuncTypeParam1": 109,
		"WaypointsID": [
			13,
			15,
			32
		],
		"StyleType": "WaypointStyleType_Forest",
		"Model": "Waypoint_ABS/Icon-ThePlace_Prefab.prefab",
		"Background": ""
	},
	{
		"ID": 15,
		"Name": "Waypoint 15",
		"FuncType": "WaypointFuncType_Event",
		"FuncTypeParam1": 110,
		"WaypointsID": [
			14,
			16,
			18
		],
		"StyleType": "WaypointStyleType_Mountain",
		"Model": "Waypoint_ABS/Icon-ThePlace_Prefab.prefab",
		"Background": ""
	},
	{
		"ID": 16,
		"Name": "Waypoint 16",
		"FuncType": "WaypointFuncType_Event",
		"FuncTypeParam1": 111,
		"WaypointsID": [
			15,
			17,
			18
		],
		"StyleType": "WaypointStyleType_Forest",
		"Model": "Waypoint_ABS/Icon-ThePlace_Prefab.prefab",
		"Background": ""
	},
	{
		"ID": 17,
		"Name": "Floating City - Tiseo",
		"FuncType": "WaypointFuncType_Scenario",
		"FuncTypeParam1": 0,
		"WaypointsID": [
			16,
			22,
			27,
			59
		],
		"StyleType": "WaypointStyleType_Village",
		"Model": "Waypoint_ABS/Icon-SkyCity_Prefab.prefab",
		"Background": "",
		"StateList": [
			{
				"ScenarioId": 14,
				"StateName": "fLY"
			}
		]
	},
	{
		"ID": 18,
		"Name": "Waypoint 18",
		"FuncType": "WaypointFuncType_Event",
		"FuncTypeParam1": 112,
		"WaypointsID": [
			15,
			16,
			19
		],
		"StyleType": "WaypointStyleType_Forest",
		"Model": "Waypoint_ABS/Icon-ThePlace_Prefab.prefab",
		"Background": ""
	},
	{
		"ID": 19,
		"Name": "Waypoint 19",
		"FuncType": "WaypointFuncType_Event",
		"FuncTypeParam1": 113,
		"WaypointsID": [
			18,
			20
		],
		"StyleType": "WaypointStyleType_Forest",
		"Model": "Waypoint_ABS/Icon-ThePlace_Prefab.prefab",
		"Background": ""
	},
	{
		"ID": 20,
		"Name": "Waypoint 20",
		"FuncType": "WaypointFuncType_Event",
		"FuncTypeParam1": 114,
		"WaypointsID": [
			19,
			21,
			60
		],
		"StyleType": "WaypointStyleType_Mountain",
		"Model": "Waypoint_ABS/Icon-ThePlace_Prefab.prefab",
		"Background": ""
	},
	{
		"ID": 21,
		"Name": "Roga Valley",
		"FuncType": "WaypointFuncType_Scenario",
		"FuncTypeParam1": 0,
		"WaypointsID": [
			20
		],
		"StyleType": "WaypointStyleType_Village",
		"Model": "Waypoint_ABS/Icon-AnikiPalace_Prefab.prefab",
		"Background": ""
	},
	{
		"ID": 22,
		"Name": "Waypoint 22",
		"FuncType": "WaypointFuncType_Event",
		"FuncTypeParam1": 115,
		"WaypointsID": [
			17,
			23
		],
		"StyleType": "WaypointStyleType_Forest",
		"Model": "Waypoint_ABS/Icon-ThePlace_Prefab.prefab",
		"Background": ""
	},
	{
		"ID": 23,
		"Name": "Waypoint 23",
		"FuncType": "WaypointFuncType_Event",
		"FuncTypeParam1": 116,
		"WaypointsID": [
			22,
			24
		],
		"StyleType": "WaypointStyleType_ActivityEvent",
		"Model": "Waypoint_ABS/Icon-ThePlace_Prefab.prefab",
		"Background": ""
	},
	{
		"ID": 24,
		"Name": "Rocky Valley",
		"FuncType": "WaypointFuncType_Scenario",
		"FuncTypeParam1": 0,
		"WaypointsID": [
			23,
			25
		],
		"StyleType": "WaypointStyleType_Mountain",
		"Model": "Waypoint_ABS/Icon-WindValley_Prefab.prefab",
		"Background": ""
	},
	{
		"ID": 25,
		"Name": "Waypoint 25",
		"FuncType": "WaypointFuncType_Event",
		"FuncTypeParam1": 117,
		"WaypointsID": [
			24,
			26,
			79
		],
		"StyleType": "WaypointStyleType_Forest",
		"Model": "Waypoint_ABS/Icon-ThePlace_Prefab.prefab",
		"Background": ""
	},
	{
		"ID": 26,
		"Name": "Crossroads",
		"FuncType": "WaypointFuncType_Scenario",
		"FuncTypeParam1": 0,
		"WaypointsID": [
			25,
			27,
			28
		],
		"StyleType": "WaypointStyleType_Forest",
		"Model": "Waypoint_ABS/Icon-Guideboard_Prefab.prefab",
		"Background": ""
	},
	{
		"ID": 27,
		"Name": "Waypoint 27",
		"FuncType": "WaypointFuncType_Event",
		"FuncTypeParam1": 118,
		"WaypointsID": [
			26,
			17
		],
		"StyleType": "WaypointStyleType_Mountain",
		"Model": "Waypoint_ABS/Icon-ThePlace_Prefab.prefab",
		"Background": ""
	},
	{
		"ID": 28,
		"Name": "Waypoint 28",
		"FuncType": "WaypointFuncType_Event",
		"FuncTypeParam1": 119,
		"WaypointsID": [
			26,
			29
		],
		"StyleType": "WaypointStyleType_Mountain",
		"Model": "Waypoint_ABS/Icon-ThePlace_Prefab.prefab",
		"Background": ""
	},
	{
		"ID": 29,
		"Name": "Waypoint 29",
		"FuncType": "WaypointFuncType_Event",
		"FuncTypeParam1": 120,
		"WaypointsID": [
			28,
			30,
			125
		],
		"StyleType": "WaypointStyleType_Forest",
		"Model": "Waypoint_ABS/Icon-ThePlace_Prefab.prefab",
		"Background": ""
	},
	{
		"ID": 30,
		"Name": "Waypoint 30",
		"FuncType": "WaypointFuncType_Event",
		"FuncTypeParam1": 121,
		"WaypointsID": [
			29,
			31,
			43
		],
		"StyleType": "WaypointStyleType_Forest",
		"Model": "Waypoint_ABS/Icon-ThePlace_Prefab.prefab",
		"Background": ""
	},
	{
		"ID": 31,
		"Name": "Waypoint 31",
		"FuncType": "WaypointFuncType_Event",
		"FuncTypeParam1": 122,
		"WaypointsID": [
			30,
			2
		],
		"StyleType": "WaypointStyleType_Forest",
		"Model": "Waypoint_ABS/Icon-ThePlace_Prefab.prefab",
		"Background": ""
	},
	{
		"ID": 32,
		"Name": "Waypoint 32",
		"FuncType": "WaypointFuncType_Event",
		"FuncTypeParam1": 123,
		"WaypointsID": [
			14,
			33
		],
		"StyleType": "WaypointStyleType_Forest",
		"Model": "Waypoint_ABS/Icon-ThePlace_Prefab.prefab",
		"Background": ""
	},
	{
		"ID": 33,
		"Name": "Waypoint 33",
		"FuncType": "WaypointFuncType_Event",
		"FuncTypeParam1": 124,
		"WaypointsID": [
			32,
			34,
			36
		],
		"StyleType": "WaypointStyleType_Forest",
		"Model": "Waypoint_ABS/Icon-ThePlace_Prefab.prefab",
		"Background": ""
	},
	{
		"ID": 34,
		"Name": "Waypoint 34",
		"FuncType": "WaypointFuncType_Event",
		"FuncTypeParam1": 125,
		"WaypointsID": [
			33,
			35,
			66
		],
		"StyleType": "WaypointStyleType_Forest",
		"Model": "Waypoint_ABS/Icon-ThePlace_Prefab.prefab",
		"Background": ""
	},
	{
		"ID": 35,
		"Name": "The City of Carmen",
		"FuncType": "WaypointFuncType_Scenario",
		"FuncTypeParam1": 0,
		"WaypointsID": [
			34
		],
		"StyleType": "WaypointStyleType_Village",
		"Model": "Waypoint_ABS/Icon-StockadeVillage_Prefab.prefab",
		"Background": "",
		"StateList": [
			{
				"ScenarioId": 16,
				"StateName": "Fire"
			},
			{
				"ScenarioId": 35,
				"StateName": "Standby"
			},
			{
				"ScenarioId": 50,
				"StateName": "Light"
			}
		]
	},
	{
		"ID": 36,
		"Name": "Waypoint 36",
		"FuncType": "WaypointFuncType_Event",
		"FuncTypeParam1": 126,
		"WaypointsID": [
			33,
			37
		],
		"StyleType": "WaypointStyleType_Mountain",
		"Model": "Waypoint_ABS/Icon-ThePlace_Prefab.prefab",
		"Background": ""
	},
	{
		"ID": 37,
		"Name": "Waypoint 37",
		"FuncType": "WaypointFuncType_Event",
		"FuncTypeParam1": 127,
		"WaypointsID": [
			36,
			38,
			70
		],
		"StyleType": "WaypointStyleType_Mountain",
		"Model": "Waypoint_ABS/Icon-ThePlace_Prefab.prefab",
		"Background": ""
	},
	{
		"ID": 38,
		"Name": "Waypoint 38",
		"FuncType": "WaypointFuncType_Event",
		"FuncTypeParam1": 128,
		"WaypointsID": [
			37,
			39
		],
		"StyleType": "WaypointStyleType_Mountain",
		"Model": "Waypoint_ABS/Icon-ThePlace_Prefab.prefab",
		"Background": ""
	},
	{
		"ID": 39,
		"Name": "Snowfield Camp",
		"FuncType": "WaypointFuncType_Scenario",
		"FuncTypeParam1": 0,
		"WaypointsID": [
			38,
			40
		],
		"StyleType": "WaypointStyleType_Forest",
		"Model": "Waypoint_ABS/Icon-KampoSnowfieldCampsite_Prefab.prefab",
		"Background": ""
	},
	{
		"ID": 40,
		"Name": "Waypoint 40",
		"FuncType": "WaypointFuncType_Event",
		"FuncTypeParam1": 129,
		"WaypointsID": [
			39,
			41
		],
		"StyleType": "WaypointStyleType_Mountain",
		"Model": "Waypoint_ABS/Icon-ThePlace_Prefab.prefab",
		"Background": ""
	},
	{
		"ID": 41,
		"Name": "Waypoint 41",
		"FuncType": "WaypointFuncType_Event",
		"FuncTypeParam1": 130,
		"WaypointsID": [
			40,
			42
		],
		"StyleType": "WaypointStyleType_ActivityEvent",
		"Model": "Waypoint_ABS/Icon-ThePlace_Prefab.prefab",
		"Background": ""
	},
	{
		"ID": 42,
		"Name": "Waypoint 42",
		"FuncType": "WaypointFuncType_Event",
		"FuncTypeParam1": 131,
		"WaypointsID": [
			41,
			44,
			62
		],
		"StyleType": "WaypointStyleType_Mountain",
		"Model": "Waypoint_ABS/Icon-ThePlace_Prefab.prefab",
		"Background": ""
	},
	{
		"ID": 43,
		"Name": "Dark Cave",
		"FuncType": "WaypointFuncType_Scenario",
		"FuncTypeParam1": 0,
		"WaypointsID": [
			30
		],
		"StyleType": "WaypointStyleType_Mountain",
		"Model": "Waypoint_ABS/Icon-KampoCaveIces_Prefab.prefab",
		"Background": ""
	},
	{
		"ID": 44,
		"Name": "Waypoint 44",
		"FuncType": "WaypointFuncType_Event",
		"FuncTypeParam1": 132,
		"WaypointsID": [
			42,
			45,
			72
		],
		"StyleType": "WaypointStyleType_Mountain",
		"Model": "Waypoint_ABS/Icon-ThePlace_Prefab.prefab",
		"Background": ""
	},
	{
		"ID": 45,
		"Name": "Waypoint 45",
		"FuncType": "WaypointFuncType_Event",
		"FuncTypeParam1": 133,
		"WaypointsID": [
			44,
			46
		],
		"StyleType": "WaypointStyleType_Forest",
		"Model": "Waypoint_ABS/Icon-ThePlace_Prefab.prefab",
		"Background": ""
	},
	{
		"ID": 46,
		"Name": "Isskano Fortress",
		"FuncType": "WaypointFuncType_Scenario",
		"FuncTypeParam1": 0,
		"WaypointsID": [
			45,
			47
		],
		"StyleType": "WaypointStyleType_Village",
		"Model": "Waypoint_ABS/Icon-IscanoFort.prefab",
		"Background": "",
		"StateList": [
			{
				"ScenarioId": 18,
				"StateName": "Fire"
			},
			{
				"ScenarioId": 35,
				"StateName": "Standby"
			},
			{
				"ScenarioId": 51,
				"StateName": "Light"
			}
		]
	},
	{
		"ID": 47,
		"Name": "Waypoint 47",
		"FuncType": "WaypointFuncType_Event",
		"FuncTypeParam1": 134,
		"WaypointsID": [
			46,
			48
		],
		"StyleType": "WaypointStyleType_Mountain",
		"Model": "Waypoint_ABS/Icon-ThePlace_Prefab.prefab",
		"Background": ""
	},
	{
		"ID": 48,
		"Name": "Waypoint 48",
		"FuncType": "WaypointFuncType_Event",
		"FuncTypeParam1": 135,
		"WaypointsID": [
			47,
			49,
			73
		],
		"StyleType": "WaypointStyleType_Mountain",
		"Model": "Waypoint_ABS/Icon-ThePlace_Prefab.prefab",
		"Background": ""
	},
	{
		"ID": 49,
		"Name": "Molzement Post",
		"FuncType": "WaypointFuncType_Scenario",
		"FuncTypeParam1": 0,
		"WaypointsID": [
			48,
			50,
			101
		],
		"StyleType": "WaypointStyleType_Forest",
		"Model": "Waypoint_ABS/Icon-Sentry_Prefab.prefab",
		"Background": ""
	},
	{
		"ID": 50,
		"Name": "Waypoint 50",
		"FuncType": "WaypointFuncType_Event",
		"FuncTypeParam1": 136,
		"WaypointsID": [
			49,
			51
		],
		"StyleType": "WaypointStyleType_None",
		"Model": "Waypoint_ABS/Icon-ThePlace_Prefab.prefab",
		"Background": ""
	},
	{
		"ID": 51,
		"Name": "Waypoint 51",
		"FuncType": "WaypointFuncType_Event",
		"FuncTypeParam1": 137,
		"WaypointsID": [
			50,
			52,
			77
		],
		"StyleType": "WaypointStyleType_ActivityEvent",
		"Model": "Waypoint_ABS/Icon-ThePlace_Prefab.prefab",
		"Background": ""
	},
	{
		"ID": 52,
		"Name": "Waypoint 52",
		"FuncType": "WaypointFuncType_Event",
		"FuncTypeParam1": 138,
		"WaypointsID": [
			51,
			81,
			53
		],
		"StyleType": "WaypointStyleType_None",
		"Model": "Waypoint_ABS/Icon-ThePlace_Prefab.prefab",
		"Background": ""
	},
	{
		"ID": 53,
		"Name": "Swamp Island",
		"FuncType": "WaypointFuncType_Scenario",
		"FuncTypeParam1": 0,
		"WaypointsID": [
			52
		],
		"StyleType": "WaypointStyleType_Mountain",
		"Model": "Waypoint_ABS/Icon_BogLand_Prefab.prefab",
		"Background": ""
	},
	{
		"ID": 54,
		"Name": "Waypoint 54",
		"FuncType": "WaypointFuncType_Event",
		"FuncTypeParam1": 139,
		"WaypointsID": [
			3
		],
		"StyleType": "WaypointStyleType_Mountain",
		"Model": "Waypoint_ABS/Icon-ThePlace_Prefab.prefab",
		"Background": ""
	},
	{
		"ID": 55,
		"Name": "Waypoint 55",
		"FuncType": "WaypointFuncType_Event",
		"FuncTypeParam1": 140,
		"WaypointsID": [
			6,
			56
		],
		"StyleType": "WaypointStyleType_Forest",
		"Model": "Waypoint_ABS/Icon-ThePlace_Prefab.prefab",
		"Background": ""
	},
	{
		"ID": 56,
		"Name": "Waypoint 56",
		"FuncType": "WaypointFuncType_Event",
		"FuncTypeParam1": 141,
		"WaypointsID": [
			55
		],
		"StyleType": "WaypointStyleType_Forest",
		"Model": "Waypoint_ABS/Icon-ThePlace_Prefab.prefab",
		"Background": ""
	},
	{
		"ID": 57,
		"Name": "Waypoint 57",
		"FuncType": "WaypointFuncType_Event",
		"FuncTypeParam1": 142,
		"WaypointsID": [
			10
		],
		"StyleType": "WaypointStyleType_Mountain",
		"Model": "Waypoint_ABS/Icon-ThePlace_Prefab.prefab",
		"Background": ""
	},
	{
		"ID": 58,
		"Name": "Waypoint 58",
		"FuncType": "WaypointFuncType_Event",
		"FuncTypeParam1": 143,
		"WaypointsID": [
			13,
			78
		],
		"StyleType": "WaypointStyleType_Mountain",
		"Model": "Waypoint_ABS/Icon-ThePlace_Prefab.prefab",
		"Background": ""
	},
	{
		"ID": 59,
		"Name": "Waypoint 59",
		"FuncType": "WaypointFuncType_Event",
		"FuncTypeParam1": 144,
		"WaypointsID": [
			17
		],
		"StyleType": "WaypointStyleType_Forest",
		"Model": "Waypoint_ABS/Icon-ThePlace_Prefab.prefab",
		"Background": ""
	},
	{
		"ID": 60,
		"Name": "Waypoint 60",
		"FuncType": "WaypointFuncType_Event",
		"FuncTypeParam1": 145,
		"WaypointsID": [
			20,
			61
		],
		"StyleType": "WaypointStyleType_Mountain",
		"Model": "Waypoint_ABS/Icon-ThePlace_Prefab.prefab",
		"Background": ""
	},
	{
		"ID": 61,
		"Name": "Waypoint 61",
		"FuncType": "WaypointFuncType_Event",
		"FuncTypeParam1": 146,
		"WaypointsID": [
			60
		],
		"StyleType": "WaypointStyleType_Mountain",
		"Model": "Waypoint_ABS/Icon-ThePlace_Prefab.prefab",
		"Background": ""
	},
	{
		"ID": 62,
		"Name": "Waypoint 62",
		"FuncType": "WaypointFuncType_Event",
		"FuncTypeParam1": 147,
		"WaypointsID": [
			42
		],
		"StyleType": "WaypointStyleType_Mountain",
		"Model": "Waypoint_ABS/Icon-ThePlace_Prefab.prefab",
		"Background": ""
	},
	{
		"ID": 63,
		"Name": "Waypoint 63",
		"FuncType": "WaypointFuncType_Event",
		"FuncTypeParam1": 148,
		"WaypointsID": [
			1,
			64
		],
		"StyleType": "WaypointStyleType_Forest",
		"Model": "Waypoint_ABS/Icon-ThePlace_Prefab.prefab",
		"Background": ""
	},
	{
		"ID": 64,
		"Name": "Waypoint 64",
		"FuncType": "WaypointFuncType_Event",
		"FuncTypeParam1": 149,
		"WaypointsID": [
			63,
			65
		],
		"StyleType": "WaypointStyleType_Forest",
		"Model": "Waypoint_ABS/Icon-ThePlace_Prefab.prefab",
		"Background": ""
	},
	{
		"ID": 65,
		"Name": "Waypoint 65",
		"FuncType": "WaypointFuncType_Event",
		"FuncTypeParam1": 150,
		"WaypointsID": [
			64
		],
		"StyleType": "WaypointStyleType_Mountain",
		"Model": "Waypoint_ABS/Icon-ThePlace_Prefab.prefab",
		"Background": ""
	},
	{
		"ID": 66,
		"Name": "Waypoint 66",
		"FuncType": "WaypointFuncType_Event",
		"FuncTypeParam1": 151,
		"WaypointsID": [
			34,
			67
		],
		"StyleType": "WaypointStyleType_Mountain",
		"Model": "Waypoint_ABS/Icon-ThePlace_Prefab.prefab",
		"Background": ""
	},
	{
		"ID": 67,
		"Name": "Waypoint 67",
		"FuncType": "WaypointFuncType_Event",
		"FuncTypeParam1": 152,
		"WaypointsID": [
			66,
			68
		],
		"StyleType": "WaypointStyleType_Forest",
		"Model": "Waypoint_ABS/Icon-ThePlace_Prefab.prefab",
		"Background": ""
	},
	{
		"ID": 68,
		"Name": "Waypoint 68",
		"FuncType": "WaypointFuncType_Event",
		"FuncTypeParam1": 153,
		"WaypointsID": [
			67,
			69
		],
		"StyleType": "WaypointStyleType_Mountain",
		"Model": "Waypoint_ABS/Icon-ThePlace_Prefab.prefab",
		"Background": ""
	},
	{
		"ID": 69,
		"Name": "Waypoint 69",
		"FuncType": "WaypointFuncType_Event",
		"FuncTypeParam1": 154,
		"WaypointsID": [
			68
		],
		"StyleType": "WaypointStyleType_Mountain",
		"Model": "Waypoint_ABS/Icon-ThePlace_Prefab.prefab",
		"Background": ""
	},
	{
		"ID": 70,
		"Name": "Waypoint 70",
		"FuncType": "WaypointFuncType_Event",
		"FuncTypeParam1": 155,
		"WaypointsID": [
			37,
			71
		],
		"StyleType": "WaypointStyleType_Mountain",
		"Model": "Waypoint_ABS/Icon-ThePlace_Prefab.prefab",
		"Background": ""
	},
	{
		"ID": 71,
		"Name": "Waypoint 71",
		"FuncType": "WaypointFuncType_Event",
		"FuncTypeParam1": 156,
		"WaypointsID": [
			70
		],
		"StyleType": "WaypointStyleType_Forest",
		"Model": "Waypoint_ABS/Icon-ThePlace_Prefab.prefab",
		"Background": ""
	},
	{
		"ID": 72,
		"Name": "Waypoint 72",
		"FuncType": "WaypointFuncType_Event",
		"FuncTypeParam1": 157,
		"WaypointsID": [
			44
		],
		"StyleType": "WaypointStyleType_Mountain",
		"Model": "Waypoint_ABS/Icon-ThePlace_Prefab.prefab",
		"Background": ""
	},
	{
		"ID": 73,
		"Name": "Waypoint 73",
		"FuncType": "WaypointFuncType_Event",
		"FuncTypeParam1": 158,
		"WaypointsID": [
			48,
			74
		],
		"StyleType": "WaypointStyleType_Mountain",
		"Model": "Waypoint_ABS/Icon-ThePlace_Prefab.prefab",
		"Background": ""
	},
	{
		"ID": 74,
		"Name": "Waypoint 74",
		"FuncType": "WaypointFuncType_Event",
		"FuncTypeParam1": 159,
		"WaypointsID": [
			73,
			75,
			76
		],
		"StyleType": "WaypointStyleType_Mountain",
		"Model": "Waypoint_ABS/Icon-ThePlace_Prefab.prefab",
		"Background": ""
	},
	{
		"ID": 75,
		"Name": "Waypoint 75",
		"FuncType": "WaypointFuncType_Event",
		"FuncTypeParam1": 160,
		"WaypointsID": [
			74
		],
		"StyleType": "WaypointStyleType_Forest",
		"Model": "Waypoint_ABS/Icon-ThePlace_Prefab.prefab",
		"Background": ""
	},
	{
		"ID": 76,
		"Name": "Waypoint 76",
		"FuncType": "WaypointFuncType_Event",
		"FuncTypeParam1": 161,
		"WaypointsID": [
			74
		],
		"StyleType": "WaypointStyleType_Forest",
		"Model": "Waypoint_ABS/Icon-ThePlace_Prefab.prefab",
		"Background": ""
	},
	{
		"ID": 77,
		"Name": "Waypoint 77",
		"FuncType": "WaypointFuncType_Event",
		"FuncTypeParam1": 162,
		"WaypointsID": [
			51
		],
		"StyleType": "WaypointStyleType_Mountain",
		"Model": "Waypoint_ABS/Icon-ThePlace_Prefab.prefab",
		"Background": ""
	},
	{
		"ID": 78,
		"Name": "Waypoint 78",
		"FuncType": "WaypointFuncType_Event",
		"FuncTypeParam1": 163,
		"WaypointsID": [
			58
		],
		"StyleType": "WaypointStyleType_Mountain",
		"Model": "Waypoint_ABS/Icon-ThePlace_Prefab.prefab",
		"Background": ""
	},
	{
		"ID": 79,
		"Name": "Waypoint 79",
		"FuncType": "WaypointFuncType_Event",
		"FuncTypeParam1": 164,
		"WaypointsID": [
			25,
			80
		],
		"StyleType": "WaypointStyleType_Forest",
		"Model": "Waypoint_ABS/Icon-ThePlace_Prefab.prefab",
		"Background": ""
	},
	{
		"ID": 80,
		"Name": "Waypoint 80",
		"FuncType": "WaypointFuncType_Event",
		"FuncTypeParam1": 165,
		"WaypointsID": [
			79
		],
		"StyleType": "WaypointStyleType_Mountain",
		"Model": "Waypoint_ABS/Icon-ThePlace_Prefab.prefab",
		"Background": ""
	},
	{
		"ID": 81,
		"Name": "Waypoint 81",
		"FuncType": "WaypointFuncType_Event",
		"FuncTypeParam1": 166,
		"WaypointsID": [
			52
		],
		"StyleType": "WaypointStyleType_Mountain",
		"Model": "Waypoint_ABS/Icon-ThePlace_Prefab.prefab",
		"Background": ""
	},
	{
		"ID": 82,
		"Name": "Neaux City",
		"FuncType": "WaypointFuncType_Scenario",
		"FuncTypeParam1": 0,
		"WaypointsID": [
			104,
			105,
			108
		],
		"StyleType": "WaypointStyleType_Mountain",
		"Model": "Waypoint_ABS/Icon_Nossen_Prefab.prefab",
		"Background": ""
	},
	{
		"ID": 83,
		"Name": "Acedru Ruins",
		"FuncType": "WaypointFuncType_Scenario",
		"FuncTypeParam1": 0,
		"WaypointsID": [
			110,
			119,
			111
		],
		"StyleType": "WaypointStyleType_Forest",
		"Model": "Waypoint_ABS/Icon_TheTempleRuins_Prefab.prefab",
		"Background": ""
	},
	{
		"ID": 84,
		"Name": "Elis City",
		"FuncType": "WaypointFuncType_Scenario",
		"FuncTypeParam1": 0,
		"WaypointsID": [
			113,
			120
		],
		"StyleType": "WaypointStyleType_Village",
		"Model": "Waypoint_ABS/Icon_Isbash_Prefab.prefab",
		"Background": ""
	},
	{
		"ID": 85,
		"Name": "Gemini Crossing",
		"FuncType": "WaypointFuncType_Scenario",
		"FuncTypeParam1": 0,
		"WaypointsID": [
			120,
			122
		],
		"StyleType": "WaypointStyleType_Mountain",
		"Model": "Waypoint_ABS/Icon_TwinBridges_Prefab.prefab",
		"Background": ""
	},
	{
		"ID": 86,
		"Name": "Emerald Gate",
		"FuncType": "WaypointFuncType_Scenario",
		"FuncTypeParam1": 0,
		"WaypointsID": [
			123,
			124
		],
		"StyleType": "WaypointStyleType_Mountain",
		"Model": "Waypoint_ABS/Icon_TheDoorOfJade_Prefab.prefab",
		"Background": ""
	},
	{
		"ID": 87,
		"Name": "Port Rimilia",
		"FuncType": "WaypointFuncType_Scenario",
		"FuncTypeParam1": 0,
		"WaypointsID": [
			160,
			161
		],
		"StyleType": "WaypointStyleType_Forest",
		"Model": "Waypoint_ABS/Icon_Limuliyagang_Prefab.prefab",
		"Background": ""
	},
	{
		"ID": 88,
		"Name": "Baldea Fortress",
		"FuncType": "WaypointFuncType_Scenario",
		"FuncTypeParam1": 0,
		"WaypointsID": [
			162,
			170,
			165,
			174
		],
		"StyleType": "WaypointStyleType_Mountain",
		"Model": "Waypoint_ABS/Icon_Baerdiyaosai_Prefab.prefab",
		"Background": ""
	},
	{
		"ID": 89,
		"Name": "Hyborea",
		"FuncType": "WaypointFuncType_Scenario",
		"FuncTypeParam1": 0,
		"WaypointsID": [
			168
		],
		"StyleType": "WaypointStyleType_Mountain",
		"Model": "Waypoint_ABS/Icon_Hyperborea_Prefab.prefab",
		"Background": "",
		"StateList": [
			{
				"ScenarioId": 35,
				"StateName": "Standby"
			},
			{
				"ScenarioId": 54,
				"StateName": "Light"
			}
		]
	},
	{
		"ID": 90,
		"Name": "Clarion Sentinel",
		"FuncType": "WaypointFuncType_Scenario",
		"FuncTypeParam1": 0,
		"WaypointsID": [
			175,
			178,
			179
		],
		"StyleType": "WaypointStyleType_Forest",
		"Model": "Waypoint_ABS/Icon_KelaireienSentry_Prefab.prefab",
		"Background": ""
	},
	{
		"ID": 91,
		"Name": "Ancient Ruins",
		"FuncType": "WaypointFuncType_Scenario",
		"FuncTypeParam1": 0,
		"WaypointsID": [
			178,
			182
		],
		"StyleType": "WaypointStyleType_Mountain",
		"Model": "Waypoint_ABS/Icon_EmpireRuins_Prefab.prefab",
		"Background": ""
	},
	{
		"ID": 92,
		"Name": "Hyborea Cathedral",
		"FuncType": "WaypointFuncType_Scenario",
		"FuncTypeParam1": 0,
		"WaypointsID": [
			184
		],
		"StyleType": "WaypointStyleType_Forest",
		"Model": "Waypoint_ABS/Icon_SadChurch_Prefab.prefab",
		"Background": ""
	},
	{
		"ID": 93,
		"Name": "Crescent Harbor",
		"FuncType": "WaypointFuncType_Scenario",
		"FuncTypeParam1": 0,
		"WaypointsID": [
			192,
			193,
			198
		],
		"StyleType": "WaypointStyleType_Forest",
		"Model": "Waypoint_ABS/Icon_MoonHarbor_Prefab.prefab",
		"Background": ""
	},
	{
		"ID": 94,
		"Name": "Rand Town",
		"FuncType": "WaypointFuncType_Scenario",
		"FuncTypeParam1": 0,
		"WaypointsID": [
			194
		],
		"StyleType": "WaypointStyleType_Forest",
		"Model": "Waypoint_ABS/Icon_MiraPort_Prefab.prefab",
		"Background": ""
	},
	{
		"ID": 95,
		"Name": "Ark Fortress",
		"FuncType": "WaypointFuncType_Scenario",
		"FuncTypeParam1": 0,
		"WaypointsID": [
			199
		],
		"StyleType": "WaypointStyleType_Forest",
		"Model": "Waypoint_ABS/Icon_AkamuFort_Prefab.prefab",
		"Background": ""
	},
	{
		"ID": 96,
		"Name": "Temporary Airport",
		"FuncType": "WaypointFuncType_Scenario",
		"FuncTypeParam1": 0,
		"WaypointsID": [
			204,
			207,
			205
		],
		"StyleType": "WaypointStyleType_Forest",
		"Model": "Waypoint_ABS/Icon_TemporaryAirport_Prefab.prefab",
		"Background": ""
	},
	{
		"ID": 97,
		"Name": "Dilis Strait",
		"FuncType": "WaypointFuncType_Scenario",
		"FuncTypeParam1": 0,
		"WaypointsID": [
			208,
			209,
			211
		],
		"StyleType": "WaypointStyleType_Forest",
		"Model": "Waypoint_ABS/Icon_DslStrait_Prefab.prefab",
		"Background": ""
	},
	{
		"ID": 98,
		"Name": "Demon Claw Fortress",
		"FuncType": "WaypointFuncType_Scenario",
		"FuncTypeParam1": 0,
		"WaypointsID": [
			212,
			217
		],
		"StyleType": "WaypointStyleType_Forest",
		"Model": "Waypoint_ABS/Icon_DevilFortress_Prefab.prefab",
		"Background": ""
	},
	{
		"ID": 99,
		"Name": "Sealed Hall",
		"FuncType": "WaypointFuncType_Scenario",
		"FuncTypeParam1": 0,
		"WaypointsID": [
			218,
			219
		],
		"StyleType": "WaypointStyleType_Forest",
		"Model": "Waypoint_ABS/Icon_ClosedPalace_Prefab.prefab",
		"Background": ""
	},
	{
		"ID": 101,
		"Name": "Waypoint 101",
		"FuncType": "WaypointFuncType_Event",
		"FuncTypeParam1": 167,
		"WaypointsID": [
			49,
			102
		],
		"StyleType": "WaypointStyleType_Mountain",
		"Model": "Waypoint_ABS/Icon-ThePlace_Prefab.prefab",
		"Background": ""
	},
	{
		"ID": 102,
		"Name": "Waypoint 102",
		"FuncType": "WaypointFuncType_Event",
		"FuncTypeParam1": 168,
		"WaypointsID": [
			101,
			103,
			104
		],
		"StyleType": "WaypointStyleType_Forest",
		"Model": "Waypoint_ABS/Icon-ThePlace_Prefab.prefab",
		"Background": ""
	},
	{
		"ID": 103,
		"Name": "Waypoint 103",
		"FuncType": "WaypointFuncType_Event",
		"FuncTypeParam1": 169,
		"WaypointsID": [
			102
		],
		"StyleType": "WaypointStyleType_Mountain",
		"Model": "Waypoint_ABS/Icon-ThePlace_Prefab.prefab",
		"Background": ""
	},
	{
		"ID": 104,
		"Name": "Waypoint 104",
		"FuncType": "WaypointFuncType_Event",
		"FuncTypeParam1": 170,
		"WaypointsID": [
			102,
			82
		],
		"StyleType": "WaypointStyleType_Forest",
		"Model": "Waypoint_ABS/Icon-ThePlace_Prefab.prefab",
		"Background": ""
	},
	{
		"ID": 105,
		"Name": "Waypoint 105",
		"FuncType": "WaypointFuncType_Event",
		"FuncTypeParam1": 171,
		"WaypointsID": [
			82,
			106
		],
		"StyleType": "WaypointStyleType_Forest",
		"Model": "Waypoint_ABS/Icon-ThePlace_Prefab.prefab",
		"Background": ""
	},
	{
		"ID": 106,
		"Name": "Waypoint 106",
		"FuncType": "WaypointFuncType_Event",
		"FuncTypeParam1": 172,
		"WaypointsID": [
			105,
			107
		],
		"StyleType": "WaypointStyleType_Mountain",
		"Model": "Waypoint_ABS/Icon-ThePlace_Prefab.prefab",
		"Background": ""
	},
	{
		"ID": 107,
		"Name": "Waypoint 107",
		"FuncType": "WaypointFuncType_Event",
		"FuncTypeParam1": 173,
		"WaypointsID": [
			106
		],
		"StyleType": "WaypointStyleType_Mountain",
		"Model": "Waypoint_ABS/Icon-ThePlace_Prefab.prefab",
		"Background": ""
	},
	{
		"ID": 108,
		"Name": "Waypoint 108",
		"FuncType": "WaypointFuncType_Event",
		"FuncTypeParam1": 174,
		"WaypointsID": [
			82,
			109
		],
		"StyleType": "WaypointStyleType_Forest",
		"Model": "Waypoint_ABS/Icon-ThePlace_Prefab.prefab",
		"Background": ""
	},
	{
		"ID": 109,
		"Name": "Waypoint 109",
		"FuncType": "WaypointFuncType_Event",
		"FuncTypeParam1": 175,
		"WaypointsID": [
			108,
			121,
			110
		],
		"StyleType": "WaypointStyleType_Forest",
		"Model": "Waypoint_ABS/Icon-ThePlace_Prefab.prefab",
		"Background": ""
	},
	{
		"ID": 110,
		"Name": "Waypoint 110",
		"FuncType": "WaypointFuncType_Event",
		"FuncTypeParam1": 176,
		"WaypointsID": [
			109,
			83
		],
		"StyleType": "WaypointStyleType_Cave",
		"Model": "Waypoint_ABS/Icon-ThePlace_Prefab.prefab",
		"Background": ""
	},
	{
		"ID": 111,
		"Name": "Waypoint 111",
		"FuncType": "WaypointFuncType_Event",
		"FuncTypeParam1": 179,
		"WaypointsID": [
			83,
			112
		],
		"StyleType": "WaypointStyleType_Cave",
		"Model": "Waypoint_ABS/Icon-ThePlace_Prefab.prefab",
		"Background": ""
	},
	{
		"ID": 112,
		"Name": "Waypoint 112",
		"FuncType": "WaypointFuncType_Event",
		"FuncTypeParam1": 180,
		"WaypointsID": [
			111,
			113,
			114,
			126
		],
		"StyleType": "WaypointStyleType_Cave",
		"Model": "Waypoint_ABS/Icon-ThePlace_Prefab.prefab",
		"Background": ""
	},
	{
		"ID": 113,
		"Name": "Waypoint 113",
		"FuncType": "WaypointFuncType_Event",
		"FuncTypeParam1": 186,
		"WaypointsID": [
			112,
			84
		],
		"StyleType": "WaypointStyleType_ActivityEvent",
		"Model": "Waypoint_ABS/Icon-ThePlace_Prefab.prefab",
		"Background": ""
	},
	{
		"ID": 114,
		"Name": "Waypoint 114",
		"FuncType": "WaypointFuncType_Event",
		"FuncTypeParam1": 181,
		"WaypointsID": [
			112,
			116
		],
		"StyleType": "WaypointStyleType_Forest",
		"Model": "Waypoint_ABS/Icon-ThePlace_Prefab.prefab",
		"Background": ""
	},
	{
		"ID": 115,
		"Name": "Waypoint 115",
		"FuncType": "WaypointFuncType_Event",
		"FuncTypeParam1": 182,
		"WaypointsID": [
			116
		],
		"StyleType": "WaypointStyleType_Mountain",
		"Model": "Waypoint_ABS/Icon-ThePlace_Prefab.prefab",
		"Background": ""
	},
	{
		"ID": 116,
		"Name": "Waypoint 116",
		"FuncType": "WaypointFuncType_Event",
		"FuncTypeParam1": 183,
		"WaypointsID": [
			114,
			115,
			117
		],
		"StyleType": "WaypointStyleType_Mountain",
		"Model": "Waypoint_ABS/Icon-ThePlace_Prefab.prefab",
		"Background": ""
	},
	{
		"ID": 117,
		"Name": "Waypoint 117",
		"FuncType": "WaypointFuncType_Event",
		"FuncTypeParam1": 184,
		"WaypointsID": [
			116,
			118
		],
		"StyleType": "WaypointStyleType_Forest",
		"Model": "Waypoint_ABS/Icon-ThePlace_Prefab.prefab",
		"Background": ""
	},
	{
		"ID": 118,
		"Name": "Waypoint 118",
		"FuncType": "WaypointFuncType_Event",
		"FuncTypeParam1": 185,
		"WaypointsID": [
			117
		],
		"StyleType": "WaypointStyleType_Mountain",
		"Model": "Waypoint_ABS/Icon-ThePlace_Prefab.prefab",
		"Background": ""
	},
	{
		"ID": 119,
		"Name": "Waypoint 119",
		"FuncType": "WaypointFuncType_Event",
		"FuncTypeParam1": 178,
		"WaypointsID": [
			83
		],
		"StyleType": "WaypointStyleType_Cave",
		"Model": "Waypoint_ABS/Icon-ThePlace_Prefab.prefab",
		"Background": ""
	},
	{
		"ID": 120,
		"Name": "Waypoint 120",
		"FuncType": "WaypointFuncType_Event",
		"FuncTypeParam1": 187,
		"WaypointsID": [
			84,
			85,
			137
		],
		"StyleType": "WaypointStyleType_Mountain",
		"Model": "Waypoint_ABS/Icon-ThePlace_Prefab.prefab",
		"Background": ""
	},
	{
		"ID": 121,
		"Name": "Waypoint 121",
		"FuncType": "WaypointFuncType_Event",
		"FuncTypeParam1": 177,
		"WaypointsID": [
			109
		],
		"StyleType": "WaypointStyleType_Forest",
		"Model": "Waypoint_ABS/Icon-ThePlace_Prefab.prefab",
		"Background": ""
	},
	{
		"ID": 122,
		"Name": "Waypoint 122",
		"FuncType": "WaypointFuncType_Event",
		"FuncTypeParam1": 188,
		"WaypointsID": [
			85,
			123
		],
		"StyleType": "WaypointStyleType_Mountain",
		"Model": "Waypoint_ABS/Icon-ThePlace_Prefab.prefab",
		"Background": ""
	},
	{
		"ID": 123,
		"Name": "Waypoint 123",
		"FuncType": "WaypointFuncType_Event",
		"FuncTypeParam1": 189,
		"WaypointsID": [
			122,
			86
		],
		"StyleType": "WaypointStyleType_Mountain",
		"Model": "Waypoint_ABS/Icon-ThePlace_Prefab.prefab",
		"Background": ""
	},
	{
		"ID": 124,
		"Name": "Waypoint 124",
		"FuncType": "WaypointFuncType_Event",
		"FuncTypeParam1": 190,
		"WaypointsID": [
			86,
			125
		],
		"StyleType": "WaypointStyleType_Forest",
		"Model": "Waypoint_ABS/Icon-ThePlace_Prefab.prefab",
		"Background": ""
	},
	{
		"ID": 125,
		"Name": "Waypoint 125",
		"FuncType": "WaypointFuncType_Event",
		"FuncTypeParam1": 191,
		"WaypointsID": [
			124,
			29
		],
		"StyleType": "WaypointStyleType_Forest",
		"Model": "Waypoint_ABS/Icon-ThePlace_Prefab.prefab",
		"Background": ""
	},
	{
		"ID": 126,
		"Name": "Waypoint 126",
		"FuncType": "WaypointFuncType_Event",
		"FuncTypeParam1": 192,
		"WaypointsID": [
			112,
			127
		],
		"StyleType": "WaypointStyleType_Cave",
		"Model": "Waypoint_ABS/Icon-ThePlace_Prefab.prefab",
		"Background": ""
	},
	{
		"ID": 127,
		"Name": "Waypoint 127",
		"FuncType": "WaypointFuncType_Event",
		"FuncTypeParam1": 193,
		"WaypointsID": [
			126,
			130,
			128,
			132
		],
		"StyleType": "WaypointStyleType_Cave",
		"Model": "Waypoint_ABS/Icon-ThePlace_Prefab.prefab",
		"Background": ""
	},
	{
		"ID": 128,
		"Name": "Waypoint 128",
		"FuncType": "WaypointFuncType_Event",
		"FuncTypeParam1": 196,
		"WaypointsID": [
			127,
			129
		],
		"StyleType": "WaypointStyleType_Cave",
		"Model": "Waypoint_ABS/Icon-ThePlace_Prefab.prefab",
		"Background": ""
	},
	{
		"ID": 129,
		"Name": "Waypoint 129",
		"FuncType": "WaypointFuncType_Event",
		"FuncTypeParam1": 197,
		"WaypointsID": [
			128
		],
		"StyleType": "WaypointStyleType_Cave",
		"Model": "Waypoint_ABS/Icon-ThePlace_Prefab.prefab",
		"Background": ""
	},
	{
		"ID": 130,
		"Name": "Waypoint 130",
		"FuncType": "WaypointFuncType_Event",
		"FuncTypeParam1": 194,
		"WaypointsID": [
			127,
			131
		],
		"StyleType": "WaypointStyleType_Cave",
		"Model": "Waypoint_ABS/Icon-ThePlace_Prefab.prefab",
		"Background": ""
	},
	{
		"ID": 131,
		"Name": "Waypoint 131",
		"FuncType": "WaypointFuncType_Event",
		"FuncTypeParam1": 195,
		"WaypointsID": [
			130
		],
		"StyleType": "WaypointStyleType_Cave",
		"Model": "Waypoint_ABS/Icon-ThePlace_Prefab.prefab",
		"Background": ""
	},
	{
		"ID": 132,
		"Name": "Waypoint 132",
		"FuncType": "WaypointFuncType_Event",
		"FuncTypeParam1": 198,
		"WaypointsID": [
			127,
			133
		],
		"StyleType": "WaypointStyleType_ActivityEvent",
		"Model": "Waypoint_ABS/Icon-ThePlace_Prefab.prefab",
		"Background": ""
	},
	{
		"ID": 133,
		"Name": "Waypoint 133",
		"FuncType": "WaypointFuncType_Event",
		"FuncTypeParam1": 199,
		"WaypointsID": [
			132,
			134
		],
		"StyleType": "WaypointStyleType_Cave",
		"Model": "Waypoint_ABS/Icon-ThePlace_Prefab.prefab",
		"Background": ""
	},
	{
		"ID": 134,
		"Name": "Hyborea Fortress",
		"FuncType": "WaypointFuncType_Scenario",
		"FuncTypeParam1": 0,
		"WaypointsID": [
			133,
			135
		],
		"StyleType": "WaypointStyleType_Mountain",
		"Model": "Waypoint_ABS/Icon_HimladFort_Prefab.prefab",
		"Background": "",
		"StateList": [
			{
				"ScenarioId": 27,
				"StateName": "Broken"
			},
			{
				"ScenarioId": 35,
				"StateName": "Standby"
			},
			{
				"ScenarioId": 52,
				"StateName": "Light"
			}
		]
	},
	{
		"ID": 135,
		"Name": "Waypoint 135",
		"FuncType": "WaypointFuncType_Event",
		"FuncTypeParam1": 200,
		"WaypointsID": [
			134,
			136
		],
		"StyleType": "WaypointStyleType_Mountain",
		"Model": "Waypoint_ABS/Icon-ThePlace_Prefab.prefab",
		"Background": ""
	},
	{
		"ID": 136,
		"Name": "Waypoint 136",
		"FuncType": "WaypointFuncType_Event",
		"FuncTypeParam1": 201,
		"WaypointsID": [
			135
		],
		"StyleType": "WaypointStyleType_Mountain",
		"Model": "Waypoint_ABS/Icon-ThePlace_Prefab.prefab",
		"Background": ""
	},
	{
		"ID": 137,
		"Name": "Waypoint 137",
		"FuncType": "WaypointFuncType_Event",
		"FuncTypeParam1": 202,
		"WaypointsID": [
			120,
			138
		],
		"StyleType": "WaypointStyleType_Mountain",
		"Model": "Waypoint_ABS/Icon-ThePlace_Prefab.prefab",
		"Background": ""
	},
	{
		"ID": 138,
		"Name": "Waypoint 138",
		"FuncType": "WaypointFuncType_Event",
		"FuncTypeParam1": 203,
		"WaypointsID": [
			137,
			140,
			139
		],
		"StyleType": "WaypointStyleType_Forest",
		"Model": "Waypoint_ABS/Icon-ThePlace_Prefab.prefab",
		"Background": ""
	},
	{
		"ID": 139,
		"Name": "Mira Port",
		"FuncType": "WaypointFuncType_Scenario",
		"FuncTypeParam1": 0,
		"WaypointsID": [
			138,
			143
		],
		"StyleType": "WaypointStyleType_Village",
		"Model": "Waypoint_ABS/Icon_MiraPort_Prefab.prefab",
		"Background": ""
	},
	{
		"ID": 140,
		"Name": "Waypoint 140",
		"FuncType": "WaypointFuncType_Event",
		"FuncTypeParam1": 204,
		"WaypointsID": [
			138,
			141
		],
		"StyleType": "WaypointStyleType_Forest",
		"Model": "Waypoint_ABS/Icon-ThePlace_Prefab.prefab",
		"Background": ""
	},
	{
		"ID": 141,
		"Name": "Waypoint 141",
		"FuncType": "WaypointFuncType_Event",
		"FuncTypeParam1": 205,
		"WaypointsID": [
			140,
			142
		],
		"StyleType": "WaypointStyleType_Forest",
		"Model": "Waypoint_ABS/Icon-ThePlace_Prefab.prefab",
		"Background": ""
	},
	{
		"ID": 142,
		"Name": "Waypoint 142",
		"FuncType": "WaypointFuncType_Event",
		"FuncTypeParam1": 206,
		"WaypointsID": [
			141
		],
		"StyleType": "WaypointStyleType_Mountain",
		"Model": "Waypoint_ABS/Icon-ThePlace_Prefab.prefab",
		"Background": ""
	},
	{
		"ID": 143,
		"Name": "Waypoint 143",
		"FuncType": "WaypointFuncType_Event",
		"FuncTypeParam1": 207,
		"WaypointsID": [
			139,
			144
		],
		"StyleType": "WaypointStyleType_None",
		"Model": "Waypoint_ABS/Icon-ThePlace_Prefab.prefab",
		"Background": ""
	},
	{
		"ID": 144,
		"Name": "Waypoint 144",
		"FuncType": "WaypointFuncType_Event",
		"FuncTypeParam1": 208,
		"WaypointsID": [
			143,
			145
		],
		"StyleType": "WaypointStyleType_None",
		"Model": "Waypoint_ABS/Icon-ThePlace_Prefab.prefab",
		"Background": ""
	},
	{
		"ID": 145,
		"Name": "Imperial Ship",
		"FuncType": "WaypointFuncType_Scenario",
		"FuncTypeParam1": 0,
		"WaypointsID": [
			144,
			146,
			150
		],
		"StyleType": "WaypointStyleType_None",
		"Model": "Waypoint_ABS/Icon_Warship_Prefab.prefab",
		"Background": ""
	},
	{
		"ID": 146,
		"Name": "Waypoint 146",
		"FuncType": "WaypointFuncType_Event",
		"FuncTypeParam1": 209,
		"WaypointsID": [
			145,
			147
		],
		"StyleType": "WaypointStyleType_None",
		"Model": "Waypoint_ABS/Icon-ThePlace_Prefab.prefab",
		"Background": ""
	},
	{
		"ID": 147,
		"Name": "Waypoint 147",
		"FuncType": "WaypointFuncType_Event",
		"FuncTypeParam1": 210,
		"WaypointsID": [
			146,
			148
		],
		"StyleType": "WaypointStyleType_Forest",
		"Model": "Waypoint_ABS/Icon-ThePlace_Prefab.prefab",
		"Background": ""
	},
	{
		"ID": 148,
		"Name": "Waypoint 148",
		"FuncType": "WaypointFuncType_Event",
		"FuncTypeParam1": 211,
		"WaypointsID": [
			147,
			149
		],
		"StyleType": "WaypointStyleType_Forest",
		"Model": "Waypoint_ABS/Icon-ThePlace_Prefab.prefab",
		"Background": ""
	},
	{
		"ID": 149,
		"Name": "Waypoint 149",
		"FuncType": "WaypointFuncType_Event",
		"FuncTypeParam1": 212,
		"WaypointsID": [
			148
		],
		"StyleType": "WaypointStyleType_Mountain",
		"Model": "Waypoint_ABS/Icon-ThePlace_Prefab.prefab",
		"Background": ""
	},
	{
		"ID": 150,
		"Name": "Waypoint 150",
		"FuncType": "WaypointFuncType_Event",
		"FuncTypeParam1": 213,
		"WaypointsID": [
			145,
			151
		],
		"StyleType": "WaypointStyleType_Forest",
		"Model": "Waypoint_ABS/Icon-ThePlace_Prefab.prefab",
		"Background": ""
	},
	{
		"ID": 151,
		"Name": "Waypoint 151",
		"FuncType": "WaypointFuncType_Event",
		"FuncTypeParam1": 214,
		"WaypointsID": [
			150,
			152
		],
		"StyleType": "WaypointStyleType_Forest",
		"Model": "Waypoint_ABS/Icon-ThePlace_Prefab.prefab",
		"Background": ""
	},
	{
		"ID": 152,
		"Name": "Lake Temple",
		"FuncType": "WaypointFuncType_Scenario",
		"FuncTypeParam1": 0,
		"WaypointsID": [
			151,
			153
		],
		"StyleType": "WaypointStyleType_Forest",
		"Model": "Waypoint_ABS/Icon_Huzhongshendian_Prefab.prefab",
		"Background": ""
	},
	{
		"ID": 153,
		"Name": "Waypoint 153",
		"FuncType": "WaypointFuncType_Event",
		"FuncTypeParam1": 215,
		"WaypointsID": [
			152,
			154,
			159
		],
		"StyleType": "WaypointStyleType_None",
		"Model": "Waypoint_ABS/Icon-ThePlace_Prefab.prefab",
		"Background": ""
	},
	{
		"ID": 154,
		"Name": "Waypoint 154",
		"FuncType": "WaypointFuncType_Event",
		"FuncTypeParam1": 216,
		"WaypointsID": [
			153,
			155,
			157
		],
		"StyleType": "WaypointStyleType_Forest",
		"Model": "Waypoint_ABS/Icon-ThePlace_Prefab.prefab",
		"Background": ""
	},
	{
		"ID": 155,
		"Name": "Waypoint 155",
		"FuncType": "WaypointFuncType_Event",
		"FuncTypeParam1": 217,
		"WaypointsID": [
			154,
			156
		],
		"StyleType": "WaypointStyleType_None",
		"Model": "Waypoint_ABS/Icon-ThePlace_Prefab.prefab",
		"Background": ""
	},
	{
		"ID": 156,
		"Name": "Crimson Lake",
		"FuncType": "WaypointFuncType_Scenario",
		"FuncTypeParam1": 0,
		"WaypointsID": [
			155
		],
		"StyleType": "WaypointStyleType_None",
		"Model": "Waypoint_ABS/Icon_Xuesehumian_Prefab.prefab",
		"Background": "",
		"StateList": [
			{
				"ScenarioId": 32,
				"StateName": "Broken"
			},
			{
				"ScenarioId": 35,
				"StateName": "Standby"
			},
			{
				"ScenarioId": 53,
				"StateName": "Light"
			}
		]
	},
	{
		"ID": 157,
		"Name": "Waypoint 157",
		"FuncType": "WaypointFuncType_Event",
		"FuncTypeParam1": 218,
		"WaypointsID": [
			154,
			158
		],
		"StyleType": "WaypointStyleType_None",
		"Model": "Waypoint_ABS/Icon-ThePlace_Prefab.prefab",
		"Background": ""
	},
	{
		"ID": 158,
		"Name": "Waypoint 158",
		"FuncType": "WaypointFuncType_Event",
		"FuncTypeParam1": 219,
		"WaypointsID": [
			157
		],
		"StyleType": "WaypointStyleType_Village",
		"Model": "Waypoint_ABS/Icon-ThePlace_Prefab.prefab",
		"Background": ""
	},
	{
		"ID": 159,
		"Name": "Waypoint 159",
		"FuncType": "WaypointFuncType_Event",
		"FuncTypeParam1": 220,
		"WaypointsID": [
			153,
			160
		],
		"StyleType": "WaypointStyleType_None",
		"Model": "Waypoint_ABS/Icon-ThePlace_Prefab.prefab",
		"Background": ""
	},
	{
		"ID": 160,
		"Name": "Waypoint 160",
		"FuncType": "WaypointFuncType_Event",
		"FuncTypeParam1": 221,
		"WaypointsID": [
			159,
			87
		],
		"StyleType": "WaypointStyleType_None",
		"Model": "Waypoint_ABS/Icon-ThePlace_Prefab.prefab",
		"Background": ""
	},
	{
		"ID": 161,
		"Name": "Waypoint 161",
		"FuncType": "WaypointFuncType_Event",
		"FuncTypeParam1": 222,
		"WaypointsID": [
			87,
			162
		],
		"StyleType": "WaypointStyleType_ActivityEvent",
		"Model": "Waypoint_ABS/Icon-ThePlace_Prefab.prefab",
		"Background": ""
	},
	{
		"ID": 162,
		"Name": "Waypoint 162",
		"FuncType": "WaypointFuncType_Event",
		"FuncTypeParam1": 223,
		"WaypointsID": [
			161,
			88,
			163
		],
		"StyleType": "WaypointStyleType_Forest",
		"Model": "Waypoint_ABS/Icon-ThePlace_Prefab.prefab",
		"Background": ""
	},
	{
		"ID": 163,
		"Name": "Waypoint 163",
		"FuncType": "WaypointFuncType_Event",
		"FuncTypeParam1": 224,
		"WaypointsID": [
			162,
			164
		],
		"StyleType": "WaypointStyleType_Forest",
		"Model": "Waypoint_ABS/Icon-ThePlace_Prefab.prefab",
		"Background": ""
	},
	{
		"ID": 164,
		"Name": "Waypoint 164",
		"FuncType": "WaypointFuncType_Event",
		"FuncTypeParam1": 225,
		"WaypointsID": [
			163
		],
		"StyleType": "WaypointStyleType_Cave",
		"Model": "Waypoint_ABS/Icon-ThePlace_Prefab.prefab",
		"Background": ""
	},
	{
		"ID": 165,
		"Name": "Waypoint 165",
		"FuncType": "WaypointFuncType_Event",
		"FuncTypeParam1": 226,
		"WaypointsID": [
			88,
			166
		],
		"StyleType": "WaypointStyleType_Village",
		"Model": "Waypoint_ABS/Icon-ThePlace_Prefab.prefab",
		"Background": ""
	},
	{
		"ID": 166,
		"Name": "Waypoint 166",
		"FuncType": "WaypointFuncType_Event",
		"FuncTypeParam1": 227,
		"WaypointsID": [
			165,
			167,
			168
		],
		"StyleType": "WaypointStyleType_ActivityEvent",
		"Model": "Waypoint_ABS/Icon-ThePlace_Prefab.prefab",
		"Background": ""
	},
	{
		"ID": 167,
		"Name": "Waypoint 167",
		"FuncType": "WaypointFuncType_Event",
		"FuncTypeParam1": 228,
		"WaypointsID": [
			166,
			169
		],
		"StyleType": "WaypointStyleType_Mountain",
		"Model": "Waypoint_ABS/Icon-ThePlace_Prefab.prefab",
		"Background": ""
	},
	{
		"ID": 168,
		"Name": "Waypoint 168",
		"FuncType": "WaypointFuncType_Event",
		"FuncTypeParam1": 229,
		"WaypointsID": [
			166,
			89
		],
		"StyleType": "WaypointStyleType_ActivityEvent",
		"Model": "Waypoint_ABS/Icon-ThePlace_Prefab.prefab",
		"Background": ""
	},
	{
		"ID": 169,
		"Name": "Waypoint 169",
		"FuncType": "WaypointFuncType_Event",
		"FuncTypeParam1": 230,
		"WaypointsID": [
			167
		],
		"StyleType": "WaypointStyleType_Village",
		"Model": "Waypoint_ABS/Icon-ThePlace_Prefab.prefab",
		"Background": ""
	},
	{
		"ID": 170,
		"Name": "Waypoint 170",
		"FuncType": "WaypointFuncType_Event",
		"FuncTypeParam1": 231,
		"WaypointsID": [
			88,
			171
		],
		"StyleType": "WaypointStyleType_Forest",
		"Model": "Waypoint_ABS/Icon-ThePlace_Prefab.prefab",
		"Background": ""
	},
	{
		"ID": 171,
		"Name": "Waypoint 171",
		"FuncType": "WaypointFuncType_Event",
		"FuncTypeParam1": 232,
		"WaypointsID": [
			170,
			172,
			173
		],
		"StyleType": "WaypointStyleType_Mountain",
		"Model": "Waypoint_ABS/Icon-ThePlace_Prefab.prefab",
		"Background": ""
	},
	{
		"ID": 172,
		"Name": "Waypoint 172",
		"FuncType": "WaypointFuncType_Event",
		"FuncTypeParam1": 233,
		"WaypointsID": [
			171
		],
		"StyleType": "WaypointStyleType_Cave",
		"Model": "Waypoint_ABS/Icon-ThePlace_Prefab.prefab",
		"Background": ""
	},
	{
		"ID": 173,
		"Name": "Waypoint 173",
		"FuncType": "WaypointFuncType_Event",
		"FuncTypeParam1": 234,
		"WaypointsID": [
			171
		],
		"StyleType": "WaypointStyleType_Village",
		"Model": "Waypoint_ABS/Icon-ThePlace_Prefab.prefab",
		"Background": ""
	},
	{
		"ID": 174,
		"Name": "Waypoint 174",
		"FuncType": "WaypointFuncType_Event",
		"FuncTypeParam1": 235,
		"WaypointsID": [
			88,
			175
		],
		"StyleType": "WaypointStyleType_Forest",
		"Model": "Waypoint_ABS/Icon-ThePlace_Prefab.prefab",
		"Background": ""
	},
	{
		"ID": 175,
		"Name": "Waypoint 175",
		"FuncType": "WaypointFuncType_Event",
		"FuncTypeParam1": 236,
		"WaypointsID": [
			174,
			176,
			90
		],
		"StyleType": "WaypointStyleType_Forest",
		"Model": "Waypoint_ABS/Icon-ThePlace_Prefab.prefab",
		"Background": ""
	},
	{
		"ID": 176,
		"Name": "Waypoint 176",
		"FuncType": "WaypointFuncType_Event",
		"FuncTypeParam1": 237,
		"WaypointsID": [
			175,
			177,
			191
		],
		"StyleType": "WaypointStyleType_Village",
		"Model": "Waypoint_ABS/Icon-ThePlace_Prefab.prefab",
		"Background": ""
	},
	{
		"ID": 177,
		"Name": "Waypoint 177",
		"FuncType": "WaypointFuncType_Event",
		"FuncTypeParam1": 238,
		"WaypointsID": [
			176
		],
		"StyleType": "WaypointStyleType_Mountain",
		"Model": "Waypoint_ABS/Icon-ThePlace_Prefab.prefab",
		"Background": ""
	},
	{
		"ID": 178,
		"Name": "Waypoint 178",
		"FuncType": "WaypointFuncType_Event",
		"FuncTypeParam1": 239,
		"WaypointsID": [
			90,
			181,
			91
		],
		"StyleType": "WaypointStyleType_Forest",
		"Model": "Waypoint_ABS/Icon-ThePlace_Prefab.prefab",
		"Background": ""
	},
	{
		"ID": 179,
		"Name": "Waypoint 179",
		"FuncType": "WaypointFuncType_Event",
		"FuncTypeParam1": 240,
		"WaypointsID": [
			90,
			180
		],
		"StyleType": "WaypointStyleType_Forest",
		"Model": "Waypoint_ABS/Icon-ThePlace_Prefab.prefab",
		"Background": ""
	},
	{
		"ID": 180,
		"Name": "Waypoint 180",
		"FuncType": "WaypointFuncType_Event",
		"FuncTypeParam1": 241,
		"WaypointsID": [
			179
		],
		"StyleType": "WaypointStyleType_Village",
		"Model": "Waypoint_ABS/Icon-ThePlace_Prefab.prefab",
		"Background": ""
	},
	{
		"ID": 181,
		"Name": "Waypoint 181",
		"FuncType": "WaypointFuncType_Event",
		"FuncTypeParam1": 242,
		"WaypointsID": [
			178
		],
		"StyleType": "WaypointStyleType_Mountain",
		"Model": "Waypoint_ABS/Icon-ThePlace_Prefab.prefab",
		"Background": ""
	},
	{
		"ID": 182,
		"Name": "Waypoint 182",
		"FuncType": "WaypointFuncType_Event",
		"FuncTypeParam1": 243,
		"WaypointsID": [
			91,
			185,
			187,
			183
		],
		"StyleType": "WaypointStyleType_Forest",
		"Model": "Waypoint_ABS/Icon-ThePlace_Prefab.prefab",
		"Background": ""
	},
	{
		"ID": 183,
		"Name": "Waypoint 183",
		"FuncType": "WaypointFuncType_Event",
		"FuncTypeParam1": 244,
		"WaypointsID": [
			182,
			184
		],
		"StyleType": "WaypointStyleType_None",
		"Model": "Waypoint_ABS/Icon-ThePlace_Prefab.prefab",
		"Background": ""
	},
	{
		"ID": 184,
		"Name": "Waypoint 184",
		"FuncType": "WaypointFuncType_Event",
		"FuncTypeParam1": 245,
		"WaypointsID": [
			183,
			92
		],
		"StyleType": "WaypointStyleType_None",
		"Model": "Waypoint_ABS/Icon-ThePlace_Prefab.prefab",
		"Background": ""
	},
	{
		"ID": 185,
		"Name": "Waypoint 185",
		"FuncType": "WaypointFuncType_Event",
		"FuncTypeParam1": 246,
		"WaypointsID": [
			182,
			186
		],
		"StyleType": "WaypointStyleType_Mountain",
		"Model": "Waypoint_ABS/Icon-ThePlace_Prefab.prefab",
		"Background": ""
	},
	{
		"ID": 186,
		"Name": "Waypoint 186",
		"FuncType": "WaypointFuncType_Event",
		"FuncTypeParam1": 247,
		"WaypointsID": [
			185
		],
		"StyleType": "WaypointStyleType_Forest",
		"Model": "Waypoint_ABS/Icon-ThePlace_Prefab.prefab",
		"Background": ""
	},
	{
		"ID": 187,
		"Name": "Waypoint 187",
		"FuncType": "WaypointFuncType_Event",
		"FuncTypeParam1": 248,
		"WaypointsID": [
			182,
			188
		],
		"StyleType": "WaypointStyleType_Forest",
		"Model": "Waypoint_ABS/Icon-ThePlace_Prefab.prefab",
		"Background": ""
	},
	{
		"ID": 188,
		"Name": "Waypoint 188",
		"FuncType": "WaypointFuncType_Event",
		"FuncTypeParam1": 249,
		"WaypointsID": [
			187,
			189
		],
		"StyleType": "WaypointStyleType_Mountain",
		"Model": "Waypoint_ABS/Icon-ThePlace_Prefab.prefab",
		"Background": ""
	},
	{
		"ID": 189,
		"Name": "Waypoint 189",
		"FuncType": "WaypointFuncType_Event",
		"FuncTypeParam1": 250,
		"WaypointsID": [
			188,
			190
		],
		"StyleType": "WaypointStyleType_None",
		"Model": "Waypoint_ABS/Icon-ThePlace_Prefab.prefab",
		"Background": ""
	},
	{
		"ID": 190,
		"Name": "Waypoint 190",
		"FuncType": "WaypointFuncType_Event",
		"FuncTypeParam1": 251,
		"WaypointsID": [
			189
		],
		"StyleType": "WaypointStyleType_None",
		"Model": "Waypoint_ABS/Icon-ThePlace_Prefab.prefab",
		"Background": ""
	},
	{
		"ID": 191,
		"Name": "Waypoint 191",
		"FuncType": "WaypointFuncType_Event",
		"FuncTypeParam1": 252,
		"WaypointsID": [
			176,
			192
		],
		"StyleType": "WaypointStyleType_Mountain",
		"Model": "Waypoint_ABS/Icon-ThePlace_Prefab.prefab",
		"Background": ""
	},
	{
		"ID": 192,
		"Name": "Waypoint 192",
		"FuncType": "WaypointFuncType_Event",
		"FuncTypeParam1": 253,
		"WaypointsID": [
			191,
			93
		],
		"StyleType": "WaypointStyleType_Mountain",
		"Model": "Waypoint_ABS/Icon-ThePlace_Prefab.prefab",
		"Background": ""
	},
	{
		"ID": 193,
		"Name": "Waypoint 193",
		"FuncType": "WaypointFuncType_Event",
		"FuncTypeParam1": 254,
		"WaypointsID": [
			93,
			194,
			195
		],
		"StyleType": "WaypointStyleType_Forest",
		"Model": "Waypoint_ABS/Icon-ThePlace_Prefab.prefab",
		"Background": ""
	},
	{
		"ID": 194,
		"Name": "Waypoint 194",
		"FuncType": "WaypointFuncType_Event",
		"FuncTypeParam1": 255,
		"WaypointsID": [
			193,
			195,
			94,
			203
		],
		"StyleType": "WaypointStyleType_Forest",
		"Model": "Waypoint_ABS/Icon-ThePlace_Prefab.prefab",
		"Background": ""
	},
	{
		"ID": 195,
		"Name": "Waypoint 195",
		"FuncType": "WaypointFuncType_Event",
		"FuncTypeParam1": 256,
		"WaypointsID": [
			193,
			194,
			196
		],
		"StyleType": "WaypointStyleType_Mountain",
		"Model": "Waypoint_ABS/Icon-ThePlace_Prefab.prefab",
		"Background": ""
	},
	{
		"ID": 196,
		"Name": "Waypoint 196",
		"FuncType": "WaypointFuncType_Event",
		"FuncTypeParam1": 257,
		"WaypointsID": [
			195,
			197,
			201
		],
		"StyleType": "WaypointStyleType_Forest",
		"Model": "Waypoint_ABS/Icon-ThePlace_Prefab.prefab",
		"Background": ""
	},
	{
		"ID": 197,
		"Name": "Waypoint 197",
		"FuncType": "WaypointFuncType_Event",
		"FuncTypeParam1": 258,
		"WaypointsID": [
			196
		],
		"StyleType": "WaypointStyleType_Forest",
		"Model": "Waypoint_ABS/Icon-ThePlace_Prefab.prefab",
		"Background": ""
	},
	{
		"ID": 198,
		"Name": "Waypoint 198",
		"FuncType": "WaypointFuncType_Event",
		"FuncTypeParam1": 259,
		"WaypointsID": [
			93,
			199
		],
		"StyleType": "WaypointStyleType_Mountain",
		"Model": "Waypoint_ABS/Icon-ThePlace_Prefab.prefab",
		"Background": ""
	},
	{
		"ID": 199,
		"Name": "Waypoint 199",
		"FuncType": "WaypointFuncType_Event",
		"FuncTypeParam1": 260,
		"WaypointsID": [
			198,
			200,
			95
		],
		"StyleType": "WaypointStyleType_Forest",
		"Model": "Waypoint_ABS/Icon-ThePlace_Prefab.prefab",
		"Background": ""
	},
	{
		"ID": 200,
		"Name": "Waypoint 200",
		"FuncType": "WaypointFuncType_Event",
		"FuncTypeParam1": 261,
		"WaypointsID": [
			199
		],
		"StyleType": "WaypointStyleType_Mountain",
		"Model": "Waypoint_ABS/Icon-ThePlace_Prefab.prefab",
		"Background": ""
	},
	{
		"ID": 201,
		"Name": "Waypoint 201",
		"FuncType": "WaypointFuncType_Event",
		"FuncTypeParam1": 262,
		"WaypointsID": [
			196,
			202
		],
		"StyleType": "WaypointStyleType_Forest",
		"Model": "Waypoint_ABS/Icon-ThePlace_Prefab.prefab",
		"Background": ""
	},
	{
		"ID": 202,
		"Name": "Waypoint 202",
		"FuncType": "WaypointFuncType_Event",
		"FuncTypeParam1": 263,
		"WaypointsID": [
			201
		],
		"StyleType": "WaypointStyleType_Forest",
		"Model": "Waypoint_ABS/Icon-ThePlace_Prefab.prefab",
		"Background": ""
	},
	{
		"ID": 203,
		"Name": "Waypoint 203",
		"FuncType": "WaypointFuncType_Event",
		"FuncTypeParam1": 264,
		"WaypointsID": [
			194,
			204
		],
		"StyleType": "WaypointStyleType_Forest",
		"Model": "Waypoint_ABS/Icon-ThePlace_Prefab.prefab",
		"Background": ""
	},
	{
		"ID": 204,
		"Name": "Waypoint 204",
		"FuncType": "WaypointFuncType_Event",
		"FuncTypeParam1": 265,
		"WaypointsID": [
			203,
			96
		],
		"StyleType": "WaypointStyleType_Forest",
		"Model": "Waypoint_ABS/Icon-ThePlace_Prefab.prefab",
		"Background": ""
	},
	{
		"ID": 205,
		"Name": "Waypoint 205",
		"FuncType": "WaypointFuncType_Event",
		"FuncTypeParam1": 266,
		"WaypointsID": [
			96,
			206
		],
		"StyleType": "WaypointStyleType_None",
		"Model": "Waypoint_ABS/Icon-ThePlace_Prefab.prefab",
		"Background": ""
	},
	{
		"ID": 206,
		"Name": "Waypoint 206",
		"FuncType": "WaypointFuncType_Event",
		"FuncTypeParam1": 267,
		"WaypointsID": [
			205
		],
		"StyleType": "WaypointStyleType_None",
		"Model": "Waypoint_ABS/Icon-ThePlace_Prefab.prefab",
		"Background": ""
	},
	{
		"ID": 207,
		"Name": "Waypoint 207",
		"FuncType": "WaypointFuncType_Event",
		"FuncTypeParam1": 268,
		"WaypointsID": [
			96,
			208
		],
		"StyleType": "WaypointStyleType_None",
		"Model": "Waypoint_ABS/Icon-ThePlace_Prefab.prefab",
		"Background": ""
	},
	{
		"ID": 208,
		"Name": "Waypoint 208",
		"FuncType": "WaypointFuncType_Event",
		"FuncTypeParam1": 269,
		"WaypointsID": [
			207,
			97
		],
		"StyleType": "WaypointStyleType_None",
		"Model": "Waypoint_ABS/Icon-ThePlace_Prefab.prefab",
		"Background": ""
	},
	{
		"ID": 209,
		"Name": "Waypoint 209",
		"FuncType": "WaypointFuncType_Event",
		"FuncTypeParam1": 270,
		"WaypointsID": [
			97,
			210
		],
		"StyleType": "WaypointStyleType_None",
		"Model": "Waypoint_ABS/Icon-ThePlace_Prefab.prefab",
		"Background": ""
	},
	{
		"ID": 210,
		"Name": "Waypoint 210",
		"FuncType": "WaypointFuncType_Event",
		"FuncTypeParam1": 271,
		"WaypointsID": [
			209
		],
		"StyleType": "WaypointStyleType_None",
		"Model": "Waypoint_ABS/Icon-ThePlace_Prefab.prefab",
		"Background": ""
	},
	{
		"ID": 211,
		"Name": "Waypoint 211",
		"FuncType": "WaypointFuncType_Event",
		"FuncTypeParam1": 272,
		"WaypointsID": [
			97,
			212
		],
		"StyleType": "WaypointStyleType_None",
		"Model": "Waypoint_ABS/Icon-ThePlace_Prefab.prefab",
		"Background": ""
	},
	{
		"ID": 212,
		"Name": "Waypoint 212",
		"FuncType": "WaypointFuncType_Event",
		"FuncTypeParam1": 273,
		"WaypointsID": [
			211,
			98
		],
		"StyleType": "WaypointStyleType_None",
		"Model": "Waypoint_ABS/Icon-ThePlace_Prefab.prefab",
		"Background": ""
	},
	{
		"ID": 213,
		"Name": "Waypoint 213",
		"FuncType": "WaypointFuncType_Event",
		"FuncTypeParam1": 274,
		"WaypointsID": [
			217,
			214
		],
		"StyleType": "WaypointStyleType_Mountain",
		"Model": "Waypoint_ABS/Icon-ThePlace_Prefab.prefab",
		"Background": ""
	},
	{
		"ID": 214,
		"Name": "Waypoint 214",
		"FuncType": "WaypointFuncType_Event",
		"FuncTypeParam1": 275,
		"WaypointsID": [
			213
		],
		"StyleType": "WaypointStyleType_Mountain",
		"Model": "Waypoint_ABS/Icon-ThePlace_Prefab.prefab",
		"Background": ""
	},
	{
		"ID": 215,
		"Name": "Waypoint 215",
		"FuncType": "WaypointFuncType_Event",
		"FuncTypeParam1": 276,
		"WaypointsID": [
			217,
			216
		],
		"StyleType": "WaypointStyleType_None",
		"Model": "Waypoint_ABS/Icon-ThePlace_Prefab.prefab",
		"Background": ""
	},
	{
		"ID": 216,
		"Name": "Waypoint 216",
		"FuncType": "WaypointFuncType_Event",
		"FuncTypeParam1": 277,
		"WaypointsID": [
			215
		],
		"StyleType": "WaypointStyleType_None",
		"Model": "Waypoint_ABS/Icon-ThePlace_Prefab.prefab",
		"Background": ""
	},
	{
		"ID": 217,
		"Name": "Waypoint 217",
		"FuncType": "WaypointFuncType_Event",
		"FuncTypeParam1": 278,
		"WaypointsID": [
			98,
			213,
			215,
			218
		],
		"StyleType": "WaypointStyleType_Village",
		"Model": "Waypoint_ABS/Icon-ThePlace_Prefab.prefab",
		"Background": ""
	},
	{
		"ID": 218,
		"Name": "Waypoint 218",
		"FuncType": "WaypointFuncType_Event",
		"FuncTypeParam1": 279,
		"WaypointsID": [
			217,
			99
		],
		"StyleType": "WaypointStyleType_Mountain",
		"Model": "Waypoint_ABS/Icon-ThePlace_Prefab.prefab",
		"Background": ""
	},
	{
		"ID": 219,
		"Name": "Waypoint 219",
		"FuncType": "WaypointFuncType_Event",
		"FuncTypeParam1": 280,
		"WaypointsID": [
			99,
			221,
			222
		],
		"StyleType": "WaypointStyleType_Mountain",
		"Model": "Waypoint_ABS/Icon-ThePlace_Prefab.prefab",
		"Background": ""
	},
	{
		"ID": 220,
		"Name": "Waypoint 220",
		"FuncType": "WaypointFuncType_Event",
		"FuncTypeParam1": 281,
		"WaypointsID": [
			221
		],
		"StyleType": "WaypointStyleType_Village",
		"Model": "Waypoint_ABS/Icon-ThePlace_Prefab.prefab",
		"Background": ""
	},
	{
		"ID": 221,
		"Name": "Waypoint 221",
		"FuncType": "WaypointFuncType_Event",
		"FuncTypeParam1": 282,
		"WaypointsID": [
			220,
			219
		],
		"StyleType": "WaypointStyleType_Mountain",
		"Model": "Waypoint_ABS/Icon-ThePlace_Prefab.prefab",
		"Background": ""
	},
	{
		"ID": 222,
		"Name": "Waypoint 222",
		"FuncType": "WaypointFuncType_Event",
		"FuncTypeParam1": 283,
		"WaypointsID": [
			219,
			223
		],
		"StyleType": "WaypointStyleType_Mountain",
		"Model": "Waypoint_ABS/Icon-ThePlace_Prefab.prefab",
		"Background": ""
	},
	{
		"ID": 223,
		"Name": "Demon City Gate",
		"FuncType": "WaypointFuncType_Scenario",
		"FuncTypeParam1": 0,
		"WaypointsID": [
			222,
			224
		],
		"StyleType": "WaypointStyleType_Forest",
		"Model": "Waypoint_ABS/Icon_DemoGate_Prefab.prefab",
		"Background": ""
	},
	{
		"ID": 224,
		"Name": "Waypoint 224",
		"FuncType": "WaypointFuncType_Event",
		"FuncTypeParam1": 284,
		"WaypointsID": [
			223,
			225,
			226
		],
		"StyleType": "WaypointStyleType_Mountain",
		"Model": "Waypoint_ABS/Icon-ThePlace_Prefab.prefab",
		"Background": ""
	},
	{
		"ID": 225,
		"Name": "Waypoint 225",
		"FuncType": "WaypointFuncType_Event",
		"FuncTypeParam1": 285,
		"WaypointsID": [
			224,
			227
		],
		"StyleType": "WaypointStyleType_Village",
		"Model": "Waypoint_ABS/Icon-ThePlace_Prefab.prefab",
		"Background": ""
	},
	{
		"ID": 226,
		"Name": "Waypoint 226",
		"FuncType": "WaypointFuncType_Event",
		"FuncTypeParam1": 286,
		"WaypointsID": [
			224,
			228
		],
		"StyleType": "WaypointStyleType_Mountain",
		"Model": "Waypoint_ABS/Icon-ThePlace_Prefab.prefab",
		"Background": ""
	},
	{
		"ID": 227,
		"Name": "Waypoint 227",
		"FuncType": "WaypointFuncType_Event",
		"FuncTypeParam1": 287,
		"WaypointsID": [
			225
		],
		"StyleType": "WaypointStyleType_Mountain",
		"Model": "Waypoint_ABS/Icon-ThePlace_Prefab.prefab",
		"Background": ""
	},
	{
		"ID": 228,
		"Name": "Velzeria City",
		"FuncType": "WaypointFuncType_Scenario",
		"FuncTypeParam1": 0,
		"WaypointsID": [
			226
		],
		"StyleType": "WaypointStyleType_Forest",
		"Model": "Waypoint_ABS/Icon_DarkCastle_Prefab.prefab",
		"Background": ""
	},
	{
		"ID": 301,
		"Name": "Airship",
		"FuncType": "WaypointFuncType_Scenario",
		"FuncTypeParam1": 0,
		"WaypointsID": [
			501
		],
		"StyleType": "WaypointStyleType_None",
		"Model": "Waypoint2_ABS/Icon_2_1_DslStrait_Prefab.prefab",
		"Background": ""
	},
	{
		"ID": 302,
		"Name": "World Tree of the Island",
		"FuncType": "WaypointFuncType_Scenario",
		"FuncTypeParam1": 0,
		"WaypointsID": [
			502,
			507,
			505
		],
		"StyleType": "WaypointStyleType_Forest",
		"Model": "Waypoint2_ABS/Icon_2_2_WorldTree_Prefab.prefab",
		"Background": ""
	},
	{
		"ID": 303,
		"Name": "Comet Landing Site",
		"FuncType": "WaypointFuncType_Scenario",
		"FuncTypeParam1": 0,
		"WaypointsID": [
			508,
			511
		],
		"StyleType": "WaypointStyleType_Mountain",
		"Model": "Waypoint2_ABS/Icon_2_3_FallenSpaceship_Prefab.prefab",
		"Background": ""
	},
	{
		"ID": 304,
		"Name": "Island Jungle",
		"FuncType": "WaypointFuncType_Scenario",
		"FuncTypeParam1": 0,
		"WaypointsID": [
			513,
			515,
			517
		],
		"StyleType": "WaypointStyleType_Forest",
		"Model": "Waypoint2_ABS/Icon_2_4_IslandForest_Prefab.prefab",
		"Background": ""
	},
	{
		"ID": 305,
		"Name": "Green Harbor",
		"FuncType": "WaypointFuncType_Scenario",
		"FuncTypeParam1": 0,
		"WaypointsID": [
			518,
			519,
			521
		],
		"StyleType": "WaypointStyleType_Forest",
		"Model": "Waypoint2_ABS/Icon_2_5_NaturalSeaport_Prefab.prefab",
		"Background": ""
	},
	{
		"ID": 306,
		"Name": "Divoli Village",
		"FuncType": "WaypointFuncType_Scenario",
		"FuncTypeParam1": 0,
		"WaypointsID": [
			525,
			526,
			530,
			545
		],
		"StyleType": "WaypointStyleType_Village",
		"Model": "Waypoint2_ABS/Icon_2_6_Village_Prefab.prefab",
		"Background": ""
	},
	{
		"ID": 307,
		"Name": "Gemini Yggdrasil",
		"FuncType": "WaypointFuncType_Scenario",
		"FuncTypeParam1": 0,
		"WaypointsID": [
			531,
			532,
			536
		],
		"StyleType": "WaypointStyleType_Mountain",
		"Model": "Waypoint2_ABS/Icon_2_7_TwinsWorldTree_Prefab.prefab",
		"Background": ""
	},
	{
		"ID": 308,
		"Name": "Royal Avenue",
		"FuncType": "WaypointFuncType_Scenario",
		"FuncTypeParam1": 0,
		"WaypointsID": [
			537,
			538,
			540
		],
		"StyleType": "WaypointStyleType_Forest",
		"Model": "Waypoint2_ABS/Icon_2_8_Avenue_Prefab.prefab",
		"Background": ""
	},
	{
		"ID": 309,
		"Name": "Caconsis City",
		"FuncType": "WaypointFuncType_Scenario",
		"FuncTypeParam1": 0,
		"WaypointsID": [
			541,
			542
		],
		"StyleType": "WaypointStyleType_Village",
		"Model": "Waypoint2_ABS/Icon_2_9_Palace_Prefab.prefab",
		"Background": ""
	},
	{
		"ID": 310,
		"Name": "Border Sentry Post",
		"FuncType": "WaypointFuncType_Scenario",
		"FuncTypeParam1": 0,
		"WaypointsID": [
			550,
			551
		],
		"StyleType": "WaypointStyleType_Mountain",
		"Model": "Waypoint2_ABS/Icon_2_10_BorderPost_Prefab.prefab",
		"Background": ""
	},
	{
		"ID": 311,
		"Name": "Ancient Weather Center",
		"FuncType": "WaypointFuncType_Scenario",
		"FuncTypeParam1": 0,
		"WaypointsID": [
			552,
			553,
			557
		],
		"StyleType": "WaypointStyleType_Mountain",
		"Model": "Waypoint2_ABS/Icon_3_11_ClimateHub_Prefab.prefab",
		"Background": ""
	},
	{
		"ID": 312,
		"Name": "Crystalized Yggdrasil",
		"FuncType": "WaypointFuncType_Scenario",
		"FuncTypeParam1": 0,
		"WaypointsID": [
			558,
			559,
			563
		],
		"StyleType": "WaypointStyleType_Forest",
		"Model": "Waypoint2_ABS/Icon_3_13_CrystalWorldTree_Prefab.prefab",
		"Background": ""
	},
	{
		"ID": 313,
		"Name": "Crystal Desert",
		"FuncType": "WaypointFuncType_Scenario",
		"FuncTypeParam1": 0,
		"WaypointsID": [
			564,
			565
		],
		"StyleType": "WaypointStyleType_Mountain",
		"Model": "Waypoint2_ABS/Icon_3_12_CrystalWilderness_Prefab.prefab",
		"Background": ""
	},
	{
		"ID": 314,
		"Name": "Magic City of the North",
		"FuncType": "WaypointFuncType_Scenario",
		"FuncTypeParam1": 0,
		"WaypointsID": [
			568,
			569
		],
		"StyleType": "WaypointStyleType_Mountain",
		"Model": "Waypoint2_ABS/Icon_3_14_NorthRuins_Prefab.prefab",
		"Background": ""
	},
	{
		"ID": 315,
		"Name": "Frozen Yggdrasil",
		"FuncType": "WaypointFuncType_Scenario",
		"FuncTypeParam1": 0,
		"WaypointsID": [
			572,
			573
		],
		"StyleType": "WaypointStyleType_Forest",
		"Model": "Waypoint2_ABS/Icon_3_15_FrostWorldTree_Prefab.prefab",
		"Background": ""
	},
	{
		"ID": 501,
		"Name": "Waypoint 501",
		"FuncType": "WaypointFuncType_Event",
		"FuncTypeParam1": 288,
		"WaypointsID": [
			301,
			502,
			503
		],
		"StyleType": "WaypointStyleType_None",
		"Model": "Waypoint_ABS/Icon-ThePlace_Prefab.prefab",
		"Background": ""
	},
	{
		"ID": 502,
		"Name": "Waypoint 502",
		"FuncType": "WaypointFuncType_Event",
		"FuncTypeParam1": 289,
		"WaypointsID": [
			302,
			501
		],
		"StyleType": "WaypointStyleType_None",
		"Model": "Waypoint_ABS/Icon-ThePlace_Prefab.prefab",
		"Background": ""
	},
	{
		"ID": 503,
		"Name": "Waypoint 503",
		"FuncType": "WaypointFuncType_Event",
		"FuncTypeParam1": 290,
		"WaypointsID": [
			501,
			504
		],
		"StyleType": "WaypointStyleType_None",
		"Model": "Waypoint_ABS/Icon-ThePlace_Prefab.prefab",
		"Background": ""
	},
	{
		"ID": 504,
		"Name": "Waypoint 504",
		"FuncType": "WaypointFuncType_Event",
		"FuncTypeParam1": 291,
		"WaypointsID": [
			503
		],
		"StyleType": "WaypointStyleType_None",
		"Model": "Waypoint_ABS/Icon-ThePlace_Prefab.prefab",
		"Background": ""
	},
	{
		"ID": 505,
		"Name": "Waypoint 505",
		"FuncType": "WaypointFuncType_Event",
		"FuncTypeParam1": 292,
		"WaypointsID": [
			302,
			506
		],
		"StyleType": "WaypointStyleType_Forest",
		"Model": "Waypoint_ABS/Icon-ThePlace_Prefab.prefab",
		"Background": ""
	},
	{
		"ID": 506,
		"Name": "Lost Island",
		"FuncType": "WaypointFuncType_Scenario",
		"FuncTypeParam1": 0,
		"WaypointsID": [
			505
		],
		"StyleType": "WaypointStyleType_Forest",
		"Model": "Waypoint2_ABS/Icon_FragmentStory_New_Prefab.prefab",
		"Background": "",
		"StateList": [
			{
				"ScenarioId": 1001,
				"StateName": "Broken"
			}
		]
	},
	{
		"ID": 507,
		"Name": "Waypoint 507",
		"FuncType": "WaypointFuncType_Event",
		"FuncTypeParam1": 293,
		"WaypointsID": [
			302,
			508
		],
		"StyleType": "WaypointStyleType_Forest",
		"Model": "Waypoint_ABS/Icon-ThePlace_Prefab.prefab",
		"Background": ""
	},
	{
		"ID": 508,
		"Name": "Waypoint 508",
		"FuncType": "WaypointFuncType_Event",
		"FuncTypeParam1": 294,
		"WaypointsID": [
			303,
			507,
			509
		],
		"StyleType": "WaypointStyleType_Mountain",
		"Model": "Waypoint_ABS/Icon-ThePlace_Prefab.prefab",
		"Background": ""
	},
	{
		"ID": 509,
		"Name": "Waypoint 509",
		"FuncType": "WaypointFuncType_Event",
		"FuncTypeParam1": 295,
		"WaypointsID": [
			508,
			510
		],
		"StyleType": "WaypointStyleType_Forest",
		"Model": "Waypoint_ABS/Icon-ThePlace_Prefab.prefab",
		"Background": ""
	},
	{
		"ID": 510,
		"Name": "Waypoint 510",
		"FuncType": "WaypointFuncType_Event",
		"FuncTypeParam1": 296,
		"WaypointsID": [
			509
		],
		"StyleType": "WaypointStyleType_Forest",
		"Model": "Waypoint_ABS/Icon-ThePlace_Prefab.prefab",
		"Background": ""
	},
	{
		"ID": 511,
		"Name": "Waypoint 511",
		"FuncType": "WaypointFuncType_Event",
		"FuncTypeParam1": 297,
		"WaypointsID": [
			303,
			512,
			514
		],
		"StyleType": "WaypointStyleType_Mountain",
		"Model": "Waypoint_ABS/Icon-ThePlace_Prefab.prefab",
		"Background": ""
	},
	{
		"ID": 512,
		"Name": "Waypoint 512",
		"FuncType": "WaypointFuncType_Event",
		"FuncTypeParam1": 298,
		"WaypointsID": [
			511,
			513
		],
		"StyleType": "WaypointStyleType_Mountain",
		"Model": "Waypoint_ABS/Icon-ThePlace_Prefab.prefab",
		"Background": ""
	},
	{
		"ID": 513,
		"Name": "Waypoint 513",
		"FuncType": "WaypointFuncType_Event",
		"FuncTypeParam1": 299,
		"WaypointsID": [
			304,
			512
		],
		"StyleType": "WaypointStyleType_Forest",
		"Model": "Waypoint_ABS/Icon-ThePlace_Prefab.prefab",
		"Background": ""
	},
	{
		"ID": 514,
		"Name": "Waypoint 514",
		"FuncType": "WaypointFuncType_Event",
		"FuncTypeParam1": 300,
		"WaypointsID": [
			511
		],
		"StyleType": "WaypointStyleType_Forest",
		"Model": "Waypoint_ABS/Icon-ThePlace_Prefab.prefab",
		"Background": ""
	},
	{
		"ID": 515,
		"Name": "Waypoint 515",
		"FuncType": "WaypointFuncType_Event",
		"FuncTypeParam1": 301,
		"WaypointsID": [
			304,
			516
		],
		"StyleType": "WaypointStyleType_Mountain",
		"Model": "Waypoint_ABS/Icon-ThePlace_Prefab.prefab",
		"Background": ""
	},
	{
		"ID": 516,
		"Name": "Island of Remembrance",
		"FuncType": "WaypointFuncType_Scenario",
		"FuncTypeParam1": 0,
		"WaypointsID": [
			515
		],
		"StyleType": "WaypointStyleType_Forest",
		"Model": "Waypoint2_ABS/Icon_FragmentStory_New_Prefab.prefab",
		"Background": "",
		"StateList": [
			{
				"ScenarioId": 1002,
				"StateName": "Broken"
			}
		]
	},
	{
		"ID": 517,
		"Name": "Waypoint 517",
		"FuncType": "WaypointFuncType_Event",
		"FuncTypeParam1": 302,
		"WaypointsID": [
			304,
			518
		],
		"StyleType": "WaypointStyleType_Forest",
		"Model": "Waypoint_ABS/Icon-ThePlace_Prefab.prefab",
		"Background": ""
	},
	{
		"ID": 518,
		"Name": "Waypoint 518",
		"FuncType": "WaypointFuncType_Event",
		"FuncTypeParam1": 303,
		"WaypointsID": [
			305,
			517
		],
		"StyleType": "WaypointStyleType_Forest",
		"Model": "Waypoint_ABS/Icon-ThePlace_Prefab.prefab",
		"Background": ""
	},
	{
		"ID": 519,
		"Name": "Waypoint 519",
		"FuncType": "WaypointFuncType_Event",
		"FuncTypeParam1": 304,
		"WaypointsID": [
			305,
			520,
			524
		],
		"StyleType": "WaypointStyleType_Forest",
		"Model": "Waypoint_ABS/Icon-ThePlace_Prefab.prefab",
		"Background": ""
	},
	{
		"ID": 520,
		"Name": "Waypoint 520",
		"FuncType": "WaypointFuncType_Event",
		"FuncTypeParam1": 305,
		"WaypointsID": [
			519
		],
		"StyleType": "WaypointStyleType_None",
		"Model": "Waypoint_ABS/Icon-ThePlace_Prefab.prefab",
		"Background": ""
	},
	{
		"ID": 521,
		"Name": "Waypoint 521",
		"FuncType": "WaypointFuncType_Event",
		"FuncTypeParam1": 306,
		"WaypointsID": [
			305,
			522
		],
		"StyleType": "WaypointStyleType_None",
		"Model": "Waypoint_ABS/Icon-ThePlace_Prefab.prefab",
		"Background": ""
	},
	{
		"ID": 522,
		"Name": "Island of the Broken Sword",
		"FuncType": "WaypointFuncType_Scenario",
		"FuncTypeParam1": 0,
		"WaypointsID": [
			521,
			523
		],
		"StyleType": "WaypointStyleType_Forest",
		"Model": "Waypoint2_ABS/Icon_FragmentStory_New_Prefab.prefab",
		"Background": "",
		"StateList": [
			{
				"ScenarioId": 1003,
				"StateName": "Light"
			}
		]
	},
	{
		"ID": 523,
		"Name": "Waypoint 523",
		"FuncType": "WaypointFuncType_Event",
		"FuncTypeParam1": 307,
		"WaypointsID": [
			522
		],
		"StyleType": "WaypointStyleType_Forest",
		"Model": "Waypoint_ABS/Icon-ThePlace_Prefab.prefab",
		"Background": ""
	},
	{
		"ID": 524,
		"Name": "Waypoint 524",
		"FuncType": "WaypointFuncType_Event",
		"FuncTypeParam1": 308,
		"WaypointsID": [
			519,
			525
		],
		"StyleType": "WaypointStyleType_Forest",
		"Model": "Waypoint_ABS/Icon-ThePlace_Prefab.prefab",
		"Background": ""
	},
	{
		"ID": 525,
		"Name": "Waypoint 525",
		"FuncType": "WaypointFuncType_Event",
		"FuncTypeParam1": 309,
		"WaypointsID": [
			306,
			524
		],
		"StyleType": "WaypointStyleType_Mountain",
		"Model": "Waypoint_ABS/Icon-ThePlace_Prefab.prefab",
		"Background": ""
	},
	{
		"ID": 526,
		"Name": "Waypoint 526",
		"FuncType": "WaypointFuncType_Event",
		"FuncTypeParam1": 310,
		"WaypointsID": [
			306,
			527,
			529
		],
		"StyleType": "WaypointStyleType_Mountain",
		"Model": "Waypoint_ABS/Icon-ThePlace_Prefab.prefab",
		"Background": ""
	},
	{
		"ID": 527,
		"Name": "Waypoint 527",
		"FuncType": "WaypointFuncType_Event",
		"FuncTypeParam1": 311,
		"WaypointsID": [
			526,
			528
		],
		"StyleType": "WaypointStyleType_Forest",
		"Model": "Waypoint_ABS/Icon-ThePlace_Prefab.prefab",
		"Background": ""
	},
	{
		"ID": 528,
		"Name": "Waypoint 528",
		"FuncType": "WaypointFuncType_Event",
		"FuncTypeParam1": 312,
		"WaypointsID": [
			527
		],
		"StyleType": "WaypointStyleType_None",
		"Model": "Waypoint_ABS/Icon-ThePlace_Prefab.prefab",
		"Background": ""
	},
	{
		"ID": 529,
		"Name": "Shadow Gorge",
		"FuncType": "WaypointFuncType_Scenario",
		"FuncTypeParam1": 0,
		"WaypointsID": [
			526
		],
		"StyleType": "WaypointStyleType_Village",
		"Model": "Waypoint2_ABS/Icon_FragmentStory_New_Prefab.prefab",
		"Background": "",
		"StateList": [
			{
				"ScenarioId": 1004,
				"StateName": "Light"
			}
		]
	},
	{
		"ID": 530,
		"Name": "Waypoint 530",
		"FuncType": "WaypointFuncType_Event",
		"FuncTypeParam1": 313,
		"WaypointsID": [
			306,
			531
		],
		"StyleType": "WaypointStyleType_Mountain",
		"Model": "Waypoint_ABS/Icon-ThePlace_Prefab.prefab",
		"Background": ""
	},
	{
		"ID": 531,
		"Name": "Waypoint 531",
		"FuncType": "WaypointFuncType_Event",
		"FuncTypeParam1": 314,
		"WaypointsID": [
			307,
			530
		],
		"StyleType": "WaypointStyleType_Mountain",
		"Model": "Waypoint_ABS/Icon-ThePlace_Prefab.prefab",
		"Background": ""
	},
	{
		"ID": 532,
		"Name": "Waypoint 532",
		"FuncType": "WaypointFuncType_Event",
		"FuncTypeParam1": 315,
		"WaypointsID": [
			307,
			533,
			534
		],
		"StyleType": "WaypointStyleType_Forest",
		"Model": "Waypoint_ABS/Icon-ThePlace_Prefab.prefab",
		"Background": ""
	},
	{
		"ID": 533,
		"Name": "Waypoint 533",
		"FuncType": "WaypointFuncType_Event",
		"FuncTypeParam1": 316,
		"WaypointsID": [
			532
		],
		"StyleType": "WaypointStyleType_Forest",
		"Model": "Waypoint_ABS/Icon-ThePlace_Prefab.prefab",
		"Background": ""
	},
	{
		"ID": 534,
		"Name": "Waypoint 534",
		"FuncType": "WaypointFuncType_Event",
		"FuncTypeParam1": 317,
		"WaypointsID": [
			532,
			535
		],
		"StyleType": "WaypointStyleType_Forest",
		"Model": "Waypoint_ABS/Icon-ThePlace_Prefab.prefab",
		"Background": ""
	},
	{
		"ID": 535,
		"Name": "Glory Hill",
		"FuncType": "WaypointFuncType_Scenario",
		"FuncTypeParam1": 0,
		"WaypointsID": [
			534
		],
		"StyleType": "WaypointStyleType_Forest",
		"Model": "Waypoint2_ABS/Icon_FragmentStory_New_Prefab.prefab",
		"Background": "",
		"StateList": [
			{
				"ScenarioId": 1005,
				"StateName": "Broken"
			}
		]
	},
	{
		"ID": 536,
		"Name": "Waypoint 536",
		"FuncType": "WaypointFuncType_Event",
		"FuncTypeParam1": 318,
		"WaypointsID": [
			307,
			537
		],
		"StyleType": "WaypointStyleType_Forest",
		"Model": "Waypoint_ABS/Icon-ThePlace_Prefab.prefab",
		"Background": ""
	},
	{
		"ID": 537,
		"Name": "Waypoint 537",
		"FuncType": "WaypointFuncType_Event",
		"FuncTypeParam1": 319,
		"WaypointsID": [
			308,
			536
		],
		"StyleType": "WaypointStyleType_Village",
		"Model": "Waypoint_ABS/Icon-ThePlace_Prefab.prefab",
		"Background": ""
	},
	{
		"ID": 538,
		"Name": "Waypoint 538",
		"FuncType": "WaypointFuncType_Event",
		"FuncTypeParam1": 320,
		"WaypointsID": [
			308,
			539
		],
		"StyleType": "WaypointStyleType_Mountain",
		"Model": "Waypoint_ABS/Icon-ThePlace_Prefab.prefab",
		"Background": ""
	},
	{
		"ID": 539,
		"Name": "Waypoint 539",
		"FuncType": "WaypointFuncType_Event",
		"FuncTypeParam1": 321,
		"WaypointsID": [
			538
		],
		"StyleType": "WaypointStyleType_Village",
		"Model": "Waypoint_ABS/Icon-ThePlace_Prefab.prefab",
		"Background": ""
	},
	{
		"ID": 540,
		"Name": "Waypoint 540",
		"FuncType": "WaypointFuncType_Event",
		"FuncTypeParam1": 322,
		"WaypointsID": [
			308,
			541
		],
		"StyleType": "WaypointStyleType_Mountain",
		"Model": "Waypoint_ABS/Icon-ThePlace_Prefab.prefab",
		"Background": ""
	},
	{
		"ID": 541,
		"Name": "Waypoint 541",
		"FuncType": "WaypointFuncType_Event",
		"FuncTypeParam1": 323,
		"WaypointsID": [
			309,
			540,
			543
		],
		"StyleType": "WaypointStyleType_Village",
		"Model": "Waypoint_ABS/Icon-ThePlace_Prefab.prefab",
		"Background": ""
	},
	{
		"ID": 542,
		"Name": "Honor Ridge",
		"FuncType": "WaypointFuncType_Scenario",
		"FuncTypeParam1": 0,
		"WaypointsID": [
			309
		],
		"StyleType": "WaypointStyleType_Village",
		"Model": "Waypoint2_ABS/Icon_FragmentStory_New_Prefab.prefab",
		"Background": "",
		"StateList": [
			{
				"ScenarioId": 1006,
				"StateName": "Standby"
			}
		]
	},
	{
		"ID": 543,
		"Name": "Waypoint 543",
		"FuncType": "WaypointFuncType_Event",
		"FuncTypeParam1": 324,
		"WaypointsID": [
			541,
			544
		],
		"StyleType": "WaypointStyleType_Forest",
		"Model": "Waypoint_ABS/Icon-ThePlace_Prefab.prefab",
		"Background": ""
	},
	{
		"ID": 544,
		"Name": "Waypoint 544",
		"FuncType": "WaypointFuncType_Event",
		"FuncTypeParam1": 325,
		"WaypointsID": [
			543
		],
		"StyleType": "WaypointStyleType_Mountain",
		"Model": "Waypoint_ABS/Icon-ThePlace_Prefab.prefab",
		"Background": ""
	},
	{
		"ID": 545,
		"Name": "Waypoint 545",
		"FuncType": "WaypointFuncType_Event",
		"FuncTypeParam1": 326,
		"WaypointsID": [
			306,
			546
		],
		"StyleType": "WaypointStyleType_Mountain",
		"Model": "Waypoint_ABS/Icon-ThePlace_Prefab.prefab",
		"Background": ""
	},
	{
		"ID": 546,
		"Name": "Waypoint 546",
		"FuncType": "WaypointFuncType_Event",
		"FuncTypeParam1": 327,
		"WaypointsID": [
			545,
			547
		],
		"StyleType": "WaypointStyleType_Mountain",
		"Model": "Waypoint_ABS/Icon-ThePlace_Prefab.prefab",
		"Background": ""
	},
	{
		"ID": 547,
		"Name": "Waypoint 547",
		"FuncType": "WaypointFuncType_Event",
		"FuncTypeParam1": 328,
		"WaypointsID": [
			546,
			548,
			550
		],
		"StyleType": "WaypointStyleType_Village",
		"Model": "Waypoint_ABS/Icon-ThePlace_Prefab.prefab",
		"Background": ""
	},
	{
		"ID": 548,
		"Name": "Waypoint 548",
		"FuncType": "WaypointFuncType_Event",
		"FuncTypeParam1": 329,
		"WaypointsID": [
			547,
			549
		],
		"StyleType": "WaypointStyleType_Forest",
		"Model": "Waypoint_ABS/Icon-ThePlace_Prefab.prefab",
		"Background": ""
	},
	{
		"ID": 549,
		"Name": "Waypoint 549",
		"FuncType": "WaypointFuncType_Event",
		"FuncTypeParam1": 330,
		"WaypointsID": [
			548
		],
		"StyleType": "WaypointStyleType_Forest",
		"Model": "Waypoint_ABS/Icon-ThePlace_Prefab.prefab",
		"Background": ""
	},
	{
		"ID": 550,
		"Name": "Waypoint 550",
		"FuncType": "WaypointFuncType_Event",
		"FuncTypeParam1": 331,
		"WaypointsID": [
			310,
			547
		],
		"StyleType": "WaypointStyleType_Mountain",
		"Model": "Waypoint_ABS/Icon-ThePlace_Prefab.prefab",
		"Background": ""
	},
	{
		"ID": 551,
		"Name": "Waypoint 551",
		"FuncType": "WaypointFuncType_Event",
		"FuncTypeParam1": 332,
		"WaypointsID": [
			310,
			552
		],
		"StyleType": "WaypointStyleType_Mountain",
		"Model": "Waypoint_ABS/Icon-ThePlace_Prefab.prefab",
		"Background": ""
	},
	{
		"ID": 552,
		"Name": "Waypoint 552",
		"FuncType": "WaypointFuncType_Event",
		"FuncTypeParam1": 333,
		"WaypointsID": [
			311,
			551
		],
		"StyleType": "WaypointStyleType_Mountain",
		"Model": "Waypoint_ABS/Icon-ThePlace_Prefab.prefab",
		"Background": ""
	},
	{
		"ID": 553,
		"Name": "Waypoint 553",
		"FuncType": "WaypointFuncType_Event",
		"FuncTypeParam1": 334,
		"WaypointsID": [
			311,
			554
		],
		"StyleType": "WaypointStyleType_Mountain",
		"Model": "Waypoint_ABS/Icon-ThePlace_Prefab.prefab",
		"Background": ""
	},
	{
		"ID": 554,
		"Name": "Waypoint 554",
		"FuncType": "WaypointFuncType_Event",
		"FuncTypeParam1": 335,
		"WaypointsID": [
			553,
			555,
			556
		],
		"StyleType": "WaypointStyleType_Mountain",
		"Model": "Waypoint_ABS/Icon-ThePlace_Prefab.prefab",
		"Background": ""
	},
	{
		"ID": 555,
		"Name": "A Damned Soul",
		"FuncType": "WaypointFuncType_Event",
		"FuncTypeParam1": 336,
		"WaypointsID": [
			554
		],
		"StyleType": "WaypointStyleType_Village",
		"Model": "Waypoint_ABS/Icon-ThePlace_Prefab.prefab",
		"Background": ""
	},
	{
		"ID": 556,
		"Name": "Misty Mount",
		"FuncType": "WaypointFuncType_Scenario",
		"FuncTypeParam1": 0,
		"WaypointsID": [
			554
		],
		"StyleType": "WaypointStyleType_Mountain",
		"Model": "Waypoint2_ABS/Icon_FragmentStory_New_Prefab.prefab",
		"Background": "",
		"StateList": [
			{
				"ScenarioId": 1007,
				"StateName": "Standby"
			}
		]
	},
	{
		"ID": 557,
		"Name": "Waypoint 557",
		"FuncType": "WaypointFuncType_Event",
		"FuncTypeParam1": 337,
		"WaypointsID": [
			311,
			558
		],
		"StyleType": "WaypointStyleType_Mountain",
		"Model": "Waypoint_ABS/Icon-ThePlace_Prefab.prefab",
		"Background": ""
	},
	{
		"ID": 558,
		"Name": "Waypoint 558",
		"FuncType": "WaypointFuncType_Event",
		"FuncTypeParam1": 338,
		"WaypointsID": [
			557,
			312
		],
		"StyleType": "WaypointStyleType_Mountain",
		"Model": "Waypoint_ABS/Icon-ThePlace_Prefab.prefab",
		"Background": ""
	},
	{
		"ID": 559,
		"Name": "Waypoint 559",
		"FuncType": "WaypointFuncType_Event",
		"FuncTypeParam1": 339,
		"WaypointsID": [
			312,
			560
		],
		"StyleType": "WaypointStyleType_Mountain",
		"Model": "Waypoint_ABS/Icon-ThePlace_Prefab.prefab",
		"Background": ""
	},
	{
		"ID": 560,
		"Name": "Waypoint 560",
		"FuncType": "WaypointFuncType_Event",
		"FuncTypeParam1": 340,
		"WaypointsID": [
			559,
			561,
			562
		],
		"StyleType": "WaypointStyleType_Mountain",
		"Model": "Waypoint_ABS/Icon-ThePlace_Prefab.prefab",
		"Background": ""
	},
	{
		"ID": 561,
		"Name": "Waypoint 561",
		"FuncType": "WaypointFuncType_Event",
		"FuncTypeParam1": 341,
		"WaypointsID": [
			560
		],
		"StyleType": "WaypointStyleType_Mountain",
		"Model": "Waypoint_ABS/Icon-ThePlace_Prefab.prefab",
		"Background": ""
	},
	{
		"ID": 562,
		"Name": "Distant Shore",
		"FuncType": "WaypointFuncType_Scenario",
		"FuncTypeParam1": 0,
		"WaypointsID": [
			560
		],
		"StyleType": "WaypointStyleType_Mountain",
		"Model": "Waypoint2_ABS/Icon_FragmentStory_New_Prefab.prefab",
		"Background": "",
		"StateList": [
			{
				"ScenarioId": 1008,
				"StateName": "Broken"
			}
		]
	},
	{
		"ID": 563,
		"Name": "Waypoint 563",
		"FuncType": "WaypointFuncType_Event",
		"FuncTypeParam1": 342,
		"WaypointsID": [
			312,
			564
		],
		"StyleType": "WaypointStyleType_Mountain",
		"Model": "Waypoint_ABS/Icon-ThePlace_Prefab.prefab",
		"Background": ""
	},
	{
		"ID": 564,
		"Name": "Waypoint 564",
		"FuncType": "WaypointFuncType_Event",
		"FuncTypeParam1": 343,
		"WaypointsID": [
			563,
			313
		],
		"StyleType": "WaypointStyleType_Mountain",
		"Model": "Waypoint_ABS/Icon-ThePlace_Prefab.prefab",
		"Background": ""
	},
	{
		"ID": 565,
		"Name": "Waypoint 565",
		"FuncType": "WaypointFuncType_Event",
		"FuncTypeParam1": 344,
		"WaypointsID": [
			313,
			566,
			568
		],
		"StyleType": "WaypointStyleType_Forest",
		"Model": "Waypoint_ABS/Icon-ThePlace_Prefab.prefab",
		"Background": ""
	},
	{
		"ID": 566,
		"Name": "Waypoint 566",
		"FuncType": "WaypointFuncType_Event",
		"FuncTypeParam1": 345,
		"WaypointsID": [
			565,
			567
		],
		"StyleType": "WaypointStyleType_Forest",
		"Model": "Waypoint_ABS/Icon-ThePlace_Prefab.prefab",
		"Background": ""
	},
	{
		"ID": 567,
		"Name": "Waypoint 567",
		"FuncType": "WaypointFuncType_Event",
		"FuncTypeParam1": 346,
		"WaypointsID": [
			566
		],
		"StyleType": "WaypointStyleType_Forest",
		"Model": "Waypoint_ABS/Icon-ThePlace_Prefab.prefab",
		"Background": ""
	},
	{
		"ID": 568,
		"Name": "Waypoint 568",
		"FuncType": "WaypointFuncType_Event",
		"FuncTypeParam1": 347,
		"WaypointsID": [
			565,
			314
		],
		"StyleType": "WaypointStyleType_Forest",
		"Model": "Waypoint_ABS/Icon-ThePlace_Prefab.prefab",
		"Background": ""
	},
	{
		"ID": 569,
		"Name": "Waypoint 569",
		"FuncType": "WaypointFuncType_Event",
		"FuncTypeParam1": 348,
		"WaypointsID": [
			314,
			572,
			570
		],
		"StyleType": "WaypointStyleType_Forest",
		"Model": "Waypoint_ABS/Icon-ThePlace_Prefab.prefab",
		"Background": ""
	},
	{
		"ID": 570,
		"Name": "Waypoint 570",
		"FuncType": "WaypointFuncType_Event",
		"FuncTypeParam1": 349,
		"WaypointsID": [
			569,
			571
		],
		"StyleType": "WaypointStyleType_Mountain",
		"Model": "Waypoint_ABS/Icon-ThePlace_Prefab.prefab",
		"Background": ""
	},
	{
		"ID": 571,
		"Name": "Waypoint 571",
		"FuncType": "WaypointFuncType_Event",
		"FuncTypeParam1": 350,
		"WaypointsID": [
			570
		],
		"StyleType": "WaypointStyleType_Village",
		"Model": "Waypoint_ABS/Icon-ThePlace_Prefab.prefab",
		"Background": ""
	},
	{
		"ID": 572,
		"Name": "Waypoint 572",
		"FuncType": "WaypointFuncType_Event",
		"FuncTypeParam1": 351,
		"WaypointsID": [
			569,
			315
		],
		"StyleType": "WaypointStyleType_Mountain",
		"Model": "Waypoint_ABS/Icon-ThePlace_Prefab.prefab",
		"Background": ""
	},
	{
		"ID": 573,
		"Name": "Rimethaw Ridge",
		"FuncType": "WaypointFuncType_Scenario",
		"FuncTypeParam1": 0,
		"WaypointsID": [
			315
		],
		"StyleType": "WaypointStyleType_Mountain",
		"Model": "Waypoint2_ABS/Icon_FragmentStory_New_Prefab.prefab",
		"Background": "",
		"StateList": [
			{
				"ScenarioId": 1009,
				"StateName": "Light"
			}
		]
	}
]