[
	{
		"ID": 0,
		"Desc": "Z"
	},
	{
		"ID": 1,
		"Desc": "N"
	},
	{
		"ID": 2,
		"Desc": "R"
	},
	{
		"ID": 3,
		"Desc": "SR"
	},
	{
		"ID": 4,
		"Desc": "SSR"
	},
	{
		"ID": 5,
		"Desc": "SSSR"
	},
	{
		"ID": 6,
		"Desc": "SSSS"
	}
]