[
	{
		"ID": 1,
		"Name": "_Aragon"
	},
	{
		"ID": 2,
		"Name": "_Bachman"
	},
	{
		"ID": 3,
		"Name": "_Basuin"
	},
	{
		"ID": 4,
		"Name": "_Beneoit"
	},
	{
		"ID": 5,
		"Name": "_Berchar"
	},
	{
		"ID": 6,
		"Name": "_Bertaut"
	},
	{
		"ID": 7,
		"Name": "_Bohun"
	},
	{
		"ID": 8,
		"Name": "_Bonne"
	},
	{
		"ID": 9,
		"Name": "_Bordat"
	},
	{
		"ID": 10,
		"Name": "_Borgond"
	},
	{
		"ID": 11,
		"Name": "_Braver"
	},
	{
		"ID": 12,
		"Name": "_Brethen"
	},
	{
		"ID": 13,
		"Name": "_Clemens"
	},
	{
		"ID": 14,
		"Name": "_Codros"
	},
	{
		"ID": 15,
		"Name": "_Cromus"
	},
	{
		"ID": 16,
		"Name": "_Cyweth"
	},
	{
		"ID": 17,
		"Name": "_Darkday"
	},
	{
		"ID": 18,
		"Name": "_Darwell"
	},
	{
		"ID": 19,
		"Name": "_Degarre"
	},
	{
		"ID": 20,
		"Name": "_Demonax"
	},
	{
		"ID": 21,
		"Name": "_Dunham"
	},
	{
		"ID": 22,
		"Name": "_Elitram"
	},
	{
		"ID": 23,
		"Name": "_Elbrige"
	},
	{
		"ID": 24,
		"Name": "_Fermin"
	},
	{
		"ID": 25,
		"Name": "_Fierlus"
	},
	{
		"ID": 26,
		"Name": "_Flanber"
	},
	{
		"ID": 27,
		"Name": "_Fortcom"
	},
	{
		"ID": 28,
		"Name": "_Gallard"
	},
	{
		"ID": 29,
		"Name": "_Gervais"
	},
	{
		"ID": 30,
		"Name": "_Gibbon"
	},
	{
		"ID": 31,
		"Name": "_Gilebin"
	},
	{
		"ID": 32,
		"Name": "_Godard"
	},
	{
		"ID": 33,
		"Name": "_Grenfel"
	},
	{
		"ID": 34,
		"Name": "_Grimbal"
	},
	{
		"ID": 35,
		"Name": "_Gyffard"
	},
	{
		"ID": 36,
		"Name": "_Hagen"
	},
	{
		"ID": 37,
		"Name": "_Halbert"
	},
	{
		"ID": 38,
		"Name": "_Haldron"
	},
	{
		"ID": 39,
		"Name": "_Hammond"
	},
	{
		"ID": 40,
		"Name": "_Hannes"
	},
	{
		"ID": 41,
		"Name": "_Hawtrey"
	},
	{
		"ID": 42,
		"Name": "_Herbran"
	},
	{
		"ID": 43,
		"Name": "_Herold"
	},
	{
		"ID": 44,
		"Name": "_Heron"
	},
	{
		"ID": 45,
		"Name": "_Hewelet"
	},
	{
		"ID": 46,
		"Name": "_Ingram"
	},
	{
		"ID": 47,
		"Name": "_Ironoak"
	},
	{
		"ID": 48,
		"Name": "_Jewell"
	},
	{
		"ID": 49,
		"Name": "_Kendrik"
	},
	{
		"ID": 50,
		"Name": "_Kline"
	},
	{
		"ID": 51,
		"Name": "_Knut"
	},
	{
		"ID": 52,
		"Name": "_Lain"
	},
	{
		"ID": 53,
		"Name": "_Lambert"
	},
	{
		"ID": 54,
		"Name": "_Lanslet"
	},
	{
		"ID": 55,
		"Name": "_Levin"
	},
	{
		"ID": 56,
		"Name": "_Lenhart"
	},
	{
		"ID": 57,
		"Name": "_Lionet"
	},
	{
		"ID": 58,
		"Name": "_Lovell"
	},
	{
		"ID": 59,
		"Name": "_Lowrens"
	},
	{
		"ID": 60,
		"Name": "_Lyonell"
	},
	{
		"ID": 61,
		"Name": "_Mainard"
	},
	{
		"ID": 62,
		"Name": "_Magrave"
	},
	{
		"ID": 63,
		"Name": "_Martel"
	},
	{
		"ID": 64,
		"Name": "_Melcort"
	},
	{
		"ID": 65,
		"Name": "_Midas"
	},
	{
		"ID": 66,
		"Name": "_Mundy"
	},
	{
		"ID": 67,
		"Name": "_Obelyn"
	},
	{
		"ID": 68,
		"Name": "_Orion"
	},
	{
		"ID": 69,
		"Name": "_Oswold"
	},
	{
		"ID": 70,
		"Name": "_Pannet"
	},
	{
		"ID": 71,
		"Name": "_Peleus"
	},
	{
		"ID": 72,
		"Name": "_Picard"
	},
	{
		"ID": 73,
		"Name": "_Puvis"
	},
	{
		"ID": 74,
		"Name": "_Pygott"
	},
	{
		"ID": 75,
		"Name": "_Quenall"
	},
	{
		"ID": 76,
		"Name": "_Radigis"
	},
	{
		"ID": 77,
		"Name": "_Fincort"
	},
	{
		"ID": 78,
		"Name": "_Richier"
	},
	{
		"ID": 79,
		"Name": "_Rolendi"
	},
	{
		"ID": 80,
		"Name": "_Rowan"
	},
	{
		"ID": 81,
		"Name": "_Sagard"
	},
	{
		"ID": 82,
		"Name": "_Sanders"
	},
	{
		"ID": 83,
		"Name": "_Searle"
	},
	{
		"ID": 84,
		"Name": "_Sedge"
	},
	{
		"ID": 85,
		"Name": "_Segar"
	},
	{
		"ID": 86,
		"Name": "_Serell"
	},
	{
		"ID": 87,
		"Name": "_Serrill"
	},
	{
		"ID": 88,
		"Name": "_Shade"
	},
	{
		"ID": 89,
		"Name": "_Haltorn"
	},
	{
		"ID": 90,
		"Name": "_Simonet"
	},
	{
		"ID": 91,
		"Name": "_Stauton"
	},
	{
		"ID": 92,
		"Name": "_Stanton"
	},
	{
		"ID": 93,
		"Name": "_Nash"
	},
	{
		"ID": 94,
		"Name": "_Marley"
	},
	{
		"ID": 95,
		"Name": "_Talbot"
	},
	{
		"ID": 96,
		"Name": "_Turpin"
	},
	{
		"ID": 97,
		"Name": "_Turstin"
	},
	{
		"ID": 98,
		"Name": "_Dark"
	},
	{
		"ID": 99,
		"Name": "_Muray"
	},
	{
		"ID": 100,
		"Name": "_Black"
	},
	{
		"ID": 101,
		"Name": "_Cahal"
	},
	{
		"ID": 102,
		"Name": "_Felix"
	},
	{
		"ID": 103,
		"Name": "_Pryle"
	},
	{
		"ID": 104,
		"Name": "_Smith"
	},
	{
		"ID": 105,
		"Name": "_Johnson"
	},
	{
		"ID": 106,
		"Name": "_Woods"
	},
	{
		"ID": 107,
		"Name": "_Brown"
	},
	{
		"ID": 108,
		"Name": "_Jones"
	},
	{
		"ID": 109,
		"Name": "_Miller"
	},
	{
		"ID": 110,
		"Name": "_Davis"
	},
	{
		"ID": 111,
		"Name": "_Garcia"
	},
	{
		"ID": 112,
		"Name": "_Clarke"
	},
	{
		"ID": 113,
		"Name": "_Wilson"
	},
	{
		"ID": 114,
		"Name": "_Long"
	},
	{
		"ID": 115,
		"Name": "_Sander"
	},
	{
		"ID": 116,
		"Name": "_Taylor"
	},
	{
		"ID": 117,
		"Name": "_Thomas"
	},
	{
		"ID": 118,
		"Name": "_Ross"
	},
	{
		"ID": 119,
		"Name": "_Moore"
	},
	{
		"ID": 120,
		"Name": "_Martin"
	},
	{
		"ID": 121,
		"Name": "_Jackson"
	},
	{
		"ID": 122,
		"Name": "_Powell"
	},
	{
		"ID": 123,
		"Name": "_White"
	},
	{
		"ID": 124,
		"Name": "_Lopez"
	},
	{
		"ID": 125,
		"Name": "_Lee"
	},
	{
		"ID": 126,
		"Name": "_Russell"
	},
	{
		"ID": 127,
		"Name": "_Harris"
	},
	{
		"ID": 128,
		"Name": "_Clark"
	},
	{
		"ID": 129,
		"Name": "_Lewis"
	},
	{
		"ID": 130,
		"Name": "_Jenkins"
	},
	{
		"ID": 131,
		"Name": "_Walker"
	},
	{
		"ID": 132,
		"Name": "_Perez"
	},
	{
		"ID": 133,
		"Name": "_Hall"
	},
	{
		"ID": 134,
		"Name": "_Young"
	},
	{
		"ID": 135,
		"Name": "_Allen"
	},
	{
		"ID": 136,
		"Name": "_Sanchez"
	},
	{
		"ID": 137,
		"Name": "_Wright"
	},
	{
		"ID": 138,
		"Name": "_King"
	},
	{
		"ID": 139,
		"Name": "_Scott"
	},
	{
		"ID": 140,
		"Name": "_Green"
	},
	{
		"ID": 141,
		"Name": "_Baker"
	},
	{
		"ID": 142,
		"Name": "_Adams"
	},
	{
		"ID": 143,
		"Name": "_Nelson"
	},
	{
		"ID": 144,
		"Name": "_Hill"
	},
	{
		"ID": 145,
		"Name": "_Ramirez"
	},
	{
		"ID": 146,
		"Name": "_Butler"
	},
	{
		"ID": 147,
		"Name": "_Barnes"
	},
	{
		"ID": 148,
		"Name": "_Roberts"
	},
	{
		"ID": 149,
		"Name": "_Carter"
	},
	{
		"ID": 150,
		"Name": "_Perry"
	},
	{
		"ID": 151,
		"Name": "_Evans"
	},
	{
		"ID": 152,
		"Name": "_Turner"
	},
	{
		"ID": 153,
		"Name": "_Torres"
	},
	{
		"ID": 154,
		"Name": "_Parker"
	},
	{
		"ID": 155,
		"Name": "_Collins"
	},
	{
		"ID": 156,
		"Name": "_Edwards"
	},
	{
		"ID": 157,
		"Name": "_Stewart"
	},
	{
		"ID": 158,
		"Name": "_Flores"
	},
	{
		"ID": 159,
		"Name": "_Morris"
	},
	{
		"ID": 160,
		"Name": "_Nguyen"
	},
	{
		"ID": 161,
		"Name": "_Murphy"
	},
	{
		"ID": 162,
		"Name": "_Rivera"
	},
	{
		"ID": 163,
		"Name": "_Cook"
	},
	{
		"ID": 164,
		"Name": "_Rogers"
	},
	{
		"ID": 165,
		"Name": "_Morgan"
	},
	{
		"ID": 166,
		"Name": "_Peters"
	},
	{
		"ID": 167,
		"Name": "_Cooper"
	},
	{
		"ID": 168,
		"Name": "_Reed"
	},
	{
		"ID": 169,
		"Name": "_Bailey"
	},
	{
		"ID": 170,
		"Name": "_Bell"
	},
	{
		"ID": 171,
		"Name": "_Gomez"
	},
	{
		"ID": 172,
		"Name": "_Kelly"
	},
	{
		"ID": 173,
		"Name": "_Howard"
	},
	{
		"ID": 174,
		"Name": "_Ward"
	},
	{
		"ID": 175,
		"Name": "_Cox"
	},
	{
		"ID": 176,
		"Name": "_Diaz"
	},
	{
		"ID": 177,
		"Name": "_Fisher"
	},
	{
		"ID": 178,
		"Name": "_Wood"
	},
	{
		"ID": 179,
		"Name": "_Watson"
	},
	{
		"ID": 180,
		"Name": "_Brooks"
	},
	{
		"ID": 181,
		"Name": "_Bennett"
	},
	{
		"ID": 182,
		"Name": "_Gray"
	},
	{
		"ID": 183,
		"Name": "_James"
	},
	{
		"ID": 184,
		"Name": "_Reyes"
	},
	{
		"ID": 185,
		"Name": "_Cruz"
	},
	{
		"ID": 186,
		"Name": "_Hughes"
	},
	{
		"ID": 187,
		"Name": "_Price"
	},
	{
		"ID": 188,
		"Name": "_Myers"
	}
]