[
	{
		"ID": 1,
		"ArmyTagA": "ArmyTag_Spear",
		"ArmyTagB": "ArmyTag_Ride",
		"Attack": 30,
		"Defend": 0,
		"Magic": 30,
		"MagicDefend": 0
	},
	{
		"ID": 2,
		"ArmyTagA": "ArmyTag_Ride",
		"ArmyTagB": "ArmyTag_Spear",
		"Attack": -30,
		"Defend": 0,
		"Magic": -30,
		"MagicDefend": 0
	},
	{
		"ID": 3,
		"ArmyTagA": "ArmyTag_Walk",
		"ArmyTagB": "ArmyTag_Spear",
		"Attack": 40,
		"Defend": 0,
		"Magic": 40,
		"MagicDefend": 0
	},
	{
		"ID": 4,
		"ArmyTagA": "ArmyTag_Spear",
		"ArmyTagB": "ArmyTag_Walk",
		"Attack": -20,
		"Defend": 0,
		"Magic": -20,
		"MagicDefend": 0
	},
	{
		"ID": 5,
		"ArmyTagA": "ArmyTag_Ride",
		"ArmyTagB": "ArmyTag_Walk",
		"Attack": 20,
		"Defend": 0,
		"Magic": 20,
		"MagicDefend": 0
	},
	{
		"ID": 6,
		"ArmyTagA": "ArmyTag_Walk",
		"ArmyTagB": "ArmyTag_Ride",
		"Attack": -30,
		"Defend": 0,
		"Magic": -30,
		"MagicDefend": 0
	},
	{
		"ID": 7,
		"ArmyTagA": "ArmyTag_Bow",
		"ArmyTagB": "ArmyTag_Fly",
		"Attack": 30,
		"Defend": 0,
		"Magic": 30,
		"MagicDefend": 0
	},
	{
		"ID": 8,
		"ArmyTagA": "ArmyTag_Monk",
		"ArmyTagB": "ArmyTag_Demon",
		"Attack": 80,
		"Defend": 0,
		"Magic": 80,
		"MagicDefend": 0
	},
	{
		"ID": 9,
		"ArmyTagA": "ArmyTag_Demon",
		"ArmyTagB": "ArmyTag_Monk",
		"Attack": -40,
		"Defend": 0,
		"Magic": -40,
		"MagicDefend": 0
	},
	{
		"ID": 10,
		"ArmyTagA": "ArmyTag_Monk",
		"ArmyTagB": "ArmyTag_Death",
		"Attack": 80,
		"Defend": 0,
		"Magic": 80,
		"MagicDefend": 0
	},
	{
		"ID": 11,
		"ArmyTagA": "ArmyTag_Death",
		"ArmyTagB": "ArmyTag_Monk",
		"Attack": -40,
		"Defend": 0,
		"Magic": -40,
		"MagicDefend": 0
	},
	{
		"ID": 12,
		"ArmyTagA": "ArmyTag_Spear",
		"ArmyTagB": "ArmyTag_PuppetRide",
		"Attack": 40,
		"Defend": 40,
		"Magic": 0,
		"MagicDefend": 0
	},
	{
		"ID": 13,
		"ArmyTagA": "ArmyTag_PuppetRide",
		"ArmyTagB": "ArmyTag_Walk",
		"Attack": 20,
		"Defend": 110,
		"Magic": 0,
		"MagicDefend": 0
	},
	{
		"ID": 14,
		"ArmyTagA": "ArmyTag_PuppetRide",
		"ArmyTagB": "ArmyTag_Ride",
		"Attack": 0,
		"Defend": 40,
		"Magic": 0,
		"MagicDefend": 40
	},
	{
		"ID": 15,
		"ArmyTagA": "ArmyTag_PuppetRide",
		"ArmyTagB": "ArmyTag_Fly",
		"Attack": 0,
		"Defend": 40,
		"Magic": 0,
		"MagicDefend": 40
	},
	{
		"ID": 16,
		"ArmyTagA": "ArmyTag_PuppetRide",
		"ArmyTagB": "ArmyTag_Water",
		"Attack": 0,
		"Defend": 40,
		"Magic": 0,
		"MagicDefend": 40
	},
	{
		"ID": 17,
		"ArmyTagA": "ArmyTag_PuppetRide",
		"ArmyTagB": "ArmyTag_Bow",
		"Attack": 0,
		"Defend": 40,
		"Magic": 0,
		"MagicDefend": 40
	},
	{
		"ID": 18,
		"ArmyTagA": "ArmyTag_PuppetRide",
		"ArmyTagB": "ArmyTag_Magic",
		"Attack": 0,
		"Defend": 40,
		"Magic": 0,
		"MagicDefend": 40
	},
	{
		"ID": 19,
		"ArmyTagA": "ArmyTag_PuppetRide",
		"ArmyTagB": "ArmyTag_Monk",
		"Attack": 0,
		"Defend": 40,
		"Magic": 0,
		"MagicDefend": 40
	},
	{
		"ID": 20,
		"ArmyTagA": "ArmyTag_PuppetRide",
		"ArmyTagB": "ArmyTag_Demon",
		"Attack": 0,
		"Defend": 40,
		"Magic": 0,
		"MagicDefend": 40
	},
	{
		"ID": 21,
		"ArmyTagA": "ArmyTag_PuppetRide",
		"ArmyTagB": "ArmyTag_Death",
		"Attack": 0,
		"Defend": 40,
		"Magic": 0,
		"MagicDefend": 40
	},
	{
		"ID": 22,
		"ArmyTagA": "ArmyTag_PuppetRide",
		"ArmyTagB": "ArmyTag_Assassin",
		"Attack": 0,
		"Defend": 40,
		"Magic": 0,
		"MagicDefend": 40
	},
	{
		"ID": 23,
		"ArmyTagA": "ArmyTag_Walk",
		"ArmyTagB": "ArmyTag_PuppetSpear",
		"Attack": 40,
		"Defend": 30,
		"Magic": 0,
		"MagicDefend": 0
	},
	{
		"ID": 24,
		"ArmyTagA": "ArmyTag_PuppetSpear",
		"ArmyTagB": "ArmyTag_Spear",
		"Attack": 0,
		"Defend": 20,
		"Magic": 0,
		"MagicDefend": 20
	},
	{
		"ID": 25,
		"ArmyTagA": "ArmyTag_PuppetSpear",
		"ArmyTagB": "ArmyTag_Ride",
		"Attack": 30,
		"Defend": 110,
		"Magic": 0,
		"MagicDefend": 0
	},
	{
		"ID": 26,
		"ArmyTagA": "ArmyTag_PuppetSpear",
		"ArmyTagB": "ArmyTag_Fly",
		"Attack": 0,
		"Defend": 20,
		"Magic": 0,
		"MagicDefend": 20
	},
	{
		"ID": 27,
		"ArmyTagA": "ArmyTag_PuppetSpear",
		"ArmyTagB": "ArmyTag_Water",
		"Attack": 0,
		"Defend": 20,
		"Magic": 0,
		"MagicDefend": 20
	},
	{
		"ID": 28,
		"ArmyTagA": "ArmyTag_PuppetSpear",
		"ArmyTagB": "ArmyTag_Bow",
		"Attack": 0,
		"Defend": 20,
		"Magic": 0,
		"MagicDefend": 20
	},
	{
		"ID": 29,
		"ArmyTagA": "ArmyTag_PuppetSpear",
		"ArmyTagB": "ArmyTag_Magic",
		"Attack": 0,
		"Defend": 20,
		"Magic": 0,
		"MagicDefend": 20
	},
	{
		"ID": 30,
		"ArmyTagA": "ArmyTag_PuppetSpear",
		"ArmyTagB": "ArmyTag_Monk",
		"Attack": 0,
		"Defend": 20,
		"Magic": 0,
		"MagicDefend": 20
	},
	{
		"ID": 31,
		"ArmyTagA": "ArmyTag_PuppetSpear",
		"ArmyTagB": "ArmyTag_Demon",
		"Attack": 0,
		"Defend": 20,
		"Magic": 0,
		"MagicDefend": 20
	},
	{
		"ID": 32,
		"ArmyTagA": "ArmyTag_PuppetSpear",
		"ArmyTagB": "ArmyTag_Death",
		"Attack": 0,
		"Defend": 20,
		"Magic": 0,
		"MagicDefend": 20
	},
	{
		"ID": 33,
		"ArmyTagA": "ArmyTag_PuppetSpear",
		"ArmyTagB": "ArmyTag_Assassin",
		"Attack": 0,
		"Defend": 20,
		"Magic": 0,
		"MagicDefend": 20
	},
	{
		"ID": 34,
		"ArmyTagA": "ArmyTag_Ride",
		"ArmyTagB": "ArmyTag_PuppetWalk",
		"Attack": 30,
		"Defend": 40,
		"Magic": 0,
		"MagicDefend": 0
	},
	{
		"ID": 35,
		"ArmyTagA": "ArmyTag_PuppetWalk",
		"ArmyTagB": "ArmyTag_Spear",
		"Attack": 30,
		"Defend": 90,
		"Magic": 0,
		"MagicDefend": 0
	},
	{
		"ID": 36,
		"ArmyTagA": "ArmyTag_PuppetWalk",
		"ArmyTagB": "ArmyTag_Walk",
		"Attack": 0,
		"Defend": 30,
		"Magic": 0,
		"MagicDefend": 30
	},
	{
		"ID": 37,
		"ArmyTagA": "ArmyTag_PuppetWalk",
		"ArmyTagB": "ArmyTag_Fly",
		"Attack": 0,
		"Defend": 30,
		"Magic": 0,
		"MagicDefend": 30
	},
	{
		"ID": 38,
		"ArmyTagA": "ArmyTag_PuppetWalk",
		"ArmyTagB": "ArmyTag_Water",
		"Attack": 0,
		"Defend": 30,
		"Magic": 0,
		"MagicDefend": 30
	},
	{
		"ID": 39,
		"ArmyTagA": "ArmyTag_PuppetWalk",
		"ArmyTagB": "ArmyTag_Bow",
		"Attack": 0,
		"Defend": 30,
		"Magic": 0,
		"MagicDefend": 30
	},
	{
		"ID": 40,
		"ArmyTagA": "ArmyTag_PuppetWalk",
		"ArmyTagB": "ArmyTag_Magic",
		"Attack": 0,
		"Defend": 30,
		"Magic": 0,
		"MagicDefend": 30
	},
	{
		"ID": 41,
		"ArmyTagA": "ArmyTag_PuppetWalk",
		"ArmyTagB": "ArmyTag_Monk",
		"Attack": 0,
		"Defend": 30,
		"Magic": 0,
		"MagicDefend": 30
	},
	{
		"ID": 42,
		"ArmyTagA": "ArmyTag_PuppetWalk",
		"ArmyTagB": "ArmyTag_Demon",
		"Attack": 0,
		"Defend": 30,
		"Magic": 0,
		"MagicDefend": 30
	},
	{
		"ID": 43,
		"ArmyTagA": "ArmyTag_PuppetWalk",
		"ArmyTagB": "ArmyTag_Death",
		"Attack": 0,
		"Defend": 30,
		"Magic": 0,
		"MagicDefend": 30
	},
	{
		"ID": 44,
		"ArmyTagA": "ArmyTag_PuppetWalk",
		"ArmyTagB": "ArmyTag_Assassin",
		"Attack": 0,
		"Defend": 30,
		"Magic": 0,
		"MagicDefend": 30
	},
	{
		"ID": 45,
		"ArmyTagA": "ArmyTag_Monk",
		"ArmyTagB": "ArmyTag_PuppetDemon",
		"Attack": 110,
		"Defend": 40,
		"Magic": 110,
		"MagicDefend": 0
	},
	{
		"ID": 46,
		"ArmyTagA": "ArmyTag_PuppetDemon",
		"ArmyTagB": "ArmyTag_Spear",
		"Attack": 0,
		"Defend": 20,
		"Magic": 0,
		"MagicDefend": 20
	},
	{
		"ID": 47,
		"ArmyTagA": "ArmyTag_PuppetDemon",
		"ArmyTagB": "ArmyTag_Walk",
		"Attack": 0,
		"Defend": 20,
		"Magic": 0,
		"MagicDefend": 20
	},
	{
		"ID": 48,
		"ArmyTagA": "ArmyTag_PuppetDemon",
		"ArmyTagB": "ArmyTag_Fly",
		"Attack": 0,
		"Defend": 20,
		"Magic": 0,
		"MagicDefend": 20
	},
	{
		"ID": 49,
		"ArmyTagA": "ArmyTag_PuppetDemon",
		"ArmyTagB": "ArmyTag_Water",
		"Attack": 0,
		"Defend": 20,
		"Magic": 0,
		"MagicDefend": 20
	},
	{
		"ID": 50,
		"ArmyTagA": "ArmyTag_PuppetDemon",
		"ArmyTagB": "ArmyTag_Bow",
		"Attack": 0,
		"Defend": 20,
		"Magic": 0,
		"MagicDefend": 20
	},
	{
		"ID": 51,
		"ArmyTagA": "ArmyTag_PuppetDemon",
		"ArmyTagB": "ArmyTag_Magic",
		"Attack": 0,
		"Defend": 20,
		"Magic": 0,
		"MagicDefend": 20
	},
	{
		"ID": 52,
		"ArmyTagA": "ArmyTag_PuppetDemon",
		"ArmyTagB": "ArmyTag_Ride",
		"Attack": 0,
		"Defend": 20,
		"Magic": 0,
		"MagicDefend": 20
	},
	{
		"ID": 53,
		"ArmyTagA": "ArmyTag_PuppetDemon",
		"ArmyTagB": "ArmyTag_Demon",
		"Attack": 0,
		"Defend": 20,
		"Magic": 0,
		"MagicDefend": 20
	},
	{
		"ID": 54,
		"ArmyTagA": "ArmyTag_PuppetDemon",
		"ArmyTagB": "ArmyTag_Death",
		"Attack": 0,
		"Defend": 20,
		"Magic": 0,
		"MagicDefend": 20
	},
	{
		"ID": 55,
		"ArmyTagA": "ArmyTag_PuppetDemon",
		"ArmyTagB": "ArmyTag_Assassin",
		"Attack": 0,
		"Defend": 20,
		"Magic": 0,
		"MagicDefend": 20
	},
	{
		"ID": 56,
		"ArmyTagA": "ArmyTag_Boss2",
		"ArmyTagB": "ArmyTag_Bow",
		"Attack": -30,
		"Defend": 0,
		"Magic": -30,
		"MagicDefend": 0
	},
	{
		"ID": 57,
		"ArmyTagA": "ArmyTag_Bow",
		"ArmyTagB": "ArmyTag_Boss2",
		"Attack": 30,
		"Defend": 0,
		"Magic": 30,
		"MagicDefend": 0
	},
	{
		"ID": 58,
		"ArmyTagA": "ArmyTag_Boss2",
		"ArmyTagB": "ArmyTag_Magic",
		"Attack": -25,
		"Defend": 0,
		"Magic": -25,
		"MagicDefend": 0
	},
	{
		"ID": 59,
		"ArmyTagA": "ArmyTag_Magic",
		"ArmyTagB": "ArmyTag_Boss2",
		"Attack": 40,
		"Defend": 0,
		"Magic": 40,
		"MagicDefend": 0
	},
	{
		"ID": 60,
		"ArmyTagA": "ArmyTag_Boss2",
		"ArmyTagB": "ArmyTag_Demon",
		"Attack": -25,
		"Defend": 0,
		"Magic": -25,
		"MagicDefend": 0
	},
	{
		"ID": 61,
		"ArmyTagA": "ArmyTag_Demon",
		"ArmyTagB": "ArmyTag_Boss2",
		"Attack": 40,
		"Defend": 0,
		"Magic": 40,
		"MagicDefend": 0
	},
	{
		"ID": 62,
		"ArmyTagA": "ArmyTag_Boss2",
		"ArmyTagB": "ArmyTag_Death",
		"Attack": -25,
		"Defend": 0,
		"Magic": -25,
		"MagicDefend": 0
	},
	{
		"ID": 63,
		"ArmyTagA": "ArmyTag_Death",
		"ArmyTagB": "ArmyTag_Boss2",
		"Attack": 40,
		"Defend": 0,
		"Magic": 40,
		"MagicDefend": 0
	},
	{
		"ID": 64,
		"ArmyTagA": "ArmyTag_Boss2",
		"ArmyTagB": "ArmyTag_Monk",
		"Attack": -20,
		"Defend": 0,
		"Magic": -20,
		"MagicDefend": 0
	},
	{
		"ID": 65,
		"ArmyTagA": "ArmyTag_Monk",
		"ArmyTagB": "ArmyTag_Boss2",
		"Attack": 30,
		"Defend": 0,
		"Magic": 30,
		"MagicDefend": 0
	},
	{
		"ID": 66,
		"ArmyTagA": "ArmyTag_Boss3",
		"ArmyTagB": "ArmyTag_Walk",
		"Attack": -25,
		"Defend": 0,
		"Magic": -25,
		"MagicDefend": 0
	},
	{
		"ID": 67,
		"ArmyTagA": "ArmyTag_Walk",
		"ArmyTagB": "ArmyTag_Boss3",
		"Attack": 30,
		"Defend": 0,
		"Magic": 30,
		"MagicDefend": 0
	},
	{
		"ID": 68,
		"ArmyTagA": "ArmyTag_Boss3",
		"ArmyTagB": "ArmyTag_Spear",
		"Attack": -5,
		"Defend": 0,
		"Magic": -5,
		"MagicDefend": 0
	},
	{
		"ID": 69,
		"ArmyTagA": "ArmyTag_Spear",
		"ArmyTagB": "ArmyTag_Boss3",
		"Attack": 30,
		"Defend": 0,
		"Magic": 30,
		"MagicDefend": 0
	},
	{
		"ID": 70,
		"ArmyTagA": "ArmyTag_Boss3",
		"ArmyTagB": "ArmyTag_Water",
		"Attack": -15,
		"Defend": 0,
		"Magic": -15,
		"MagicDefend": 0
	},
	{
		"ID": 71,
		"ArmyTagA": "ArmyTag_Water",
		"ArmyTagB": "ArmyTag_Boss3",
		"Attack": 30,
		"Defend": 0,
		"Magic": 30,
		"MagicDefend": 0
	},
	{
		"ID": 72,
		"ArmyTagA": "ArmyTag_Boss4",
		"ArmyTagB": "ArmyTag_Fly",
		"Attack": -25,
		"Defend": 0,
		"Magic": -25,
		"MagicDefend": 0
	},
	{
		"ID": 73,
		"ArmyTagA": "ArmyTag_Fly",
		"ArmyTagB": "ArmyTag_Boss4",
		"Attack": 30,
		"Defend": 0,
		"Magic": 30,
		"MagicDefend": 0
	},
	{
		"ID": 74,
		"ArmyTagA": "ArmyTag_Boss4",
		"ArmyTagB": "ArmyTag_Ride",
		"Attack": -25,
		"Defend": 0,
		"Magic": -25,
		"MagicDefend": 0
	},
	{
		"ID": 75,
		"ArmyTagA": "ArmyTag_Ride",
		"ArmyTagB": "ArmyTag_Boss4",
		"Attack": 40,
		"Defend": 0,
		"Magic": 40,
		"MagicDefend": 0
	},
	{
		"ID": 76,
		"ArmyTagA": "ArmyTag_Boss4",
		"ArmyTagB": "ArmyTag_Assassin",
		"Attack": -25,
		"Defend": 0,
		"Magic": -25,
		"MagicDefend": 0
	},
	{
		"ID": 77,
		"ArmyTagA": "ArmyTag_Assassin",
		"ArmyTagB": "ArmyTag_Boss4",
		"Attack": 35,
		"Defend": 0,
		"Magic": 35,
		"MagicDefend": 0
	}
]