v 0.18074141442775726 0.9814754128456116 0.15808425843715668
v 0.10913533717393875 -1.3754667043685913 -0.045805588364601135
v 0.17646580934524536 -1.3745003938674927 0.18154944479465485
v 0.10913533717393875 -1.3754667043685913 -0.045805588364601135
v 0.18074141442775726 0.9814754128456116 0.15808425843715668
v 0.09766344726085663 0.9805314540863037 -0.06404222548007965
v 0.09766344726085663 0.9805314540863037 -0.06404222548007965
v -0.12789921462535858 -1.3754931688308716 -0.05202861502766609
v 0.10913533717393875 -1.3754667043685913 -0.045805588364601135
v -0.12789921462535858 -1.3754931688308716 -0.05202861502766609
v 0.09766344726085663 0.9805314540863037 -0.06404222548007965
v -0.13926486670970917 0.980575442314148 -0.05367307364940643
v -0.13926486670970917 0.980575442314148 -0.05367307364940643
v -0.20706576108932495 -1.374543309211731 0.17147929966449738
v -0.12789921462535858 -1.3754931688308716 -0.05202861502766609
v -0.20706576108932495 -1.374543309211731 0.17147929966449738
v -0.13926486670970917 0.980575442314148 -0.05367307364940643
v -0.20261821150779724 0.981546938419342 0.17486122250556946
v -0.20261821150779724 0.981546938419342 0.17486122250556946
v -0.018958264961838722 -1.3739296197891235 0.31583935022354126
v -0.20706576108932495 -1.374543309211731 0.17147929966449738
v -0.018958264961838722 -1.3739296197891235 0.31583935022354126
v -0.20261821150779724 0.981546938419342 0.17486122250556946
v -0.0048438310623168945 0.982103168964386 0.3057352900505066
v -0.0048438310623168945 0.982103168964386 0.3057352900505066
v 0.17646580934524536 -1.3745003938674927 0.18154944479465485
v -0.018958264961838722 -1.3739296197891235 0.31583935022354126
v 0.17646580934524536 -1.3745003938674927 0.18154944479465485
v -0.0048438310623168945 0.982103168964386 0.3057352900505066
v 0.18074141442775726 0.9814754128456116 0.15808425843715668
v 0.10913533717393875 -1.3754667043685913 -0.045805588364601135
v -0.013665303587913513 -1.4033644199371338 0.11432795226573944
v 0.17646580934524536 -1.3745003938674927 0.18154944479465485
v -0.12789921462535858 -1.3754931688308716 -0.05202861502766609
v -0.013665303587913513 -1.4033644199371338 0.11432795226573944
v 0.10913533717393875 -1.3754667043685913 -0.045805588364601135
v -0.20706576108932495 -1.374543309211731 0.17147929966449738
v -0.013665303587913513 -1.4033644199371338 0.11432795226573944
v -0.12789921462535858 -1.3754931688308716 -0.05202861502766609
v -0.018958264961838722 -1.3739296197891235 0.31583935022354126
v -0.013665303587913513 -1.4033644199371338 0.11432795226573944
v -0.20706576108932495 -1.374543309211731 0.17147929966449738
v 0.17646580934524536 -1.3745003938674927 0.18154944479465485
v -0.013665303587913513 -1.4033644199371338 0.11432795226573944
v -0.018958264961838722 -1.3739296197891235 0.31583935022354126
v -0.36630478501319885 -0.5669398307800293 0.6425443887710571
v 0.36621686816215515 -1.3432788848876953 0.6454329490661621
v -0.3662165701389313 -1.3432791233062744 0.6454329490661621
v 0.3658980131149292 -0.5588982701301575 0.6406130194664001
v 0.36621686816215515 -1.3432788848876953 0.6454329490661621
v -0.3795446455478668 -1.358139157295227 0.45096075534820557
v -0.3662165701389313 -1.3432791233062744 0.6454329490661621
v -0.3795446455478668 -1.358139157295227 0.45096075534820557
v 0.36621686816215515 -1.3432788848876953 0.6454329490661621
v 0.3790653944015503 -1.3538362979888916 0.4449317455291748
v 0.36621686816215515 -1.3432788848876953 0.6454329490661621
v 0.383129745721817 -0.5569459199905396 0.4454876482486725
v 0.3790653944015503 -1.3538362979888916 0.4449317455291748
v 0.3658980131149292 -0.5588982701301575 0.6406130194664001
v 0.3658980131149292 -0.5588982701301575 0.6406130194664001
v -0.37504035234451294 -0.5485841035842896 0.4451608657836914
v 0.383129745721817 -0.5569459199905396 0.4454876482486725
v -0.37504035234451294 -0.5485841035842896 0.4451608657836914
v 0.3658980131149292 -0.5588982701301575 0.6406130194664001
v -0.36630478501319885 -0.5669398307800293 0.6425443887710571
v -0.36630478501319885 -0.5669398307800293 0.6425443887710571
v -0.3795446455478668 -1.358139157295227 0.45096075534820557
v -0.37504035234451294 -0.5485841035842896 0.4451608657836914
v -0.3662165701389313 -1.3432791233062744 0.6454329490661621
v -0.30991196632385254 -1.2800893783569336 0.41305387020111084
v -0.37504035234451294 -0.5485841035842896 0.4451608657836914
v -0.3795446455478668 -1.358139157295227 0.45096075534820557
v -0.30847153067588806 -0.6263256072998047 0.41244739294052124
v -0.30847153067588806 -0.6263256072998047 0.41244739294052124
v 0.383129745721817 -0.5569459199905396 0.4454876482486725
v -0.37504035234451294 -0.5485841035842896 0.4451608657836914
v 0.383129745721817 -0.5569459199905396 0.4454876482486725
v -0.30847153067588806 -0.6263256072998047 0.41244739294052124
v 0.3141786754131317 -0.6344091892242432 0.4121573865413666
v 0.3141786754131317 -0.6344091892242432 0.4121573865413666
v 0.3790653944015503 -1.3538362979888916 0.4449317455291748
v 0.383129745721817 -0.5569459199905396 0.4454876482486725
v 0.3790653944015503 -1.3538362979888916 0.4449317455291748
v 0.3141786754131317 -0.6344091892242432 0.4121573865413666
v 0.3023969829082489 -1.2879512310028076 0.4165566563606262
v 0.3023969829082489 -1.2879512310028076 0.4165566563606262
v -0.3795446455478668 -1.358139157295227 0.45096075534820557
v 0.3790653944015503 -1.3538362979888916 0.4449317455291748
v -0.3795446455478668 -1.358139157295227 0.45096075534820557
v 0.3023969829082489 -1.2879512310028076 0.4165566563606262
v -0.30991196632385254 -1.2800893783569336 0.41305387020111084
v -0.30853283405303955 -1.2788933515548706 0.12383081763982773
v -0.30847153067588806 -0.6263256072998047 0.41244739294052124
v -0.30991196632385254 -1.2800893783569336 0.41305387020111084
v -0.3050893247127533 -0.6802563071250916 0.12164232134819031
v -0.30847153067588806 -0.6263256072998047 0.41244739294052124
v 0.3022691607475281 -0.6778625845909119 0.12221457809209824
v 0.3141786754131317 -0.6344091892242432 0.4121573865413666
v -0.3050893247127533 -0.6802563071250916 0.12164232134819031
v 0.30495330691337585 -1.2830450534820557 0.12418466061353683
v 0.3141786754131317 -0.6344091892242432 0.4121573865413666
v 0.3022691607475281 -0.6778625845909119 0.12221457809209824
v 0.3141786754131317 -0.6344091892242432 0.4121573865413666
v 0.30495330691337585 -1.2830450534820557 0.12418466061353683
v 0.3023969829082489 -1.2879512310028076 0.4165566563606262
v 0.3023969829082489 -1.2879512310028076 0.4165566563606262
v -0.30853283405303955 -1.2788933515548706 0.12383081763982773
v -0.30991196632385254 -1.2800893783569336 0.41305387020111084
v 0.30495330691337585 -1.2830450534820557 0.12418466061353683
v -0.30853283405303955 -1.2788933515548706 0.12383081763982773
v -0.33262762427330017 -0.6040436625480652 -0.16459089517593384
v -0.3050893247127533 -0.6802563071250916 0.12164232134819031
v -0.33262762427330017 -0.6040436625480652 -0.16459089517593384
v -0.30853283405303955 -1.2788933515548706 0.12383081763982773
v -0.33209171891212463 -1.321054220199585 -0.17092353105545044
v 0.3022691607475281 -0.6778625845909119 0.12221457809209824
v -0.33262762427330017 -0.6040436625480652 -0.16459089517593384
v 0.334160715341568 -0.6058880686759949 -0.1645878702402115
v -0.3050893247127533 -0.6802563071250916 0.12164232134819031
v 0.3022691607475281 -0.6778625845909119 0.12221457809209824
v 0.3435803949832916 -1.3114473819732666 -0.1733204573392868
v 0.30495330691337585 -1.2830450534820557 0.12418466061353683
v 0.3435803949832916 -1.3114473819732666 -0.1733204573392868
v 0.3022691607475281 -0.6778625845909119 0.12221457809209824
v 0.334160715341568 -0.6058880686759949 -0.1645878702402115
v 0.30495330691337585 -1.2830450534820557 0.12418466061353683
v -0.33209171891212463 -1.321054220199585 -0.17092353105545044
v -0.30853283405303955 -1.2788933515548706 0.12383081763982773
v -0.33209171891212463 -1.321054220199585 -0.17092353105545044
v 0.30495330691337585 -1.2830450534820557 0.12418466061353683
v 0.3435803949832916 -1.3114473819732666 -0.1733204573392868
v -0.49356916546821594 -1.4020872116088867 -0.2449893355369568
v -0.33262762427330017 -0.6040436625480652 -0.16459089517593384
v -0.33209171891212463 -1.321054220199585 -0.17092353105545044
v -0.33262762427330017 -0.6040436625480652 -0.16459089517593384
v -0.49356916546821594 -1.4020872116088867 -0.2449893355369568
v -0.48944276571273804 -0.251188188791275 -0.2488512396812439
v 0.483411967754364 -0.24432137608528137 -0.2523863613605499
v -0.33262762427330017 -0.6040436625480652 -0.16459089517593384
v -0.48944276571273804 -0.251188188791275 -0.2488512396812439
v 0.334160715341568 -0.6058880686759949 -0.1645878702402115
v 0.4889633059501648 -1.4091652631759644 -0.2453424036502838
v 0.334160715341568 -0.6058880686759949 -0.1645878702402115
v 0.483411967754364 -0.24432137608528137 -0.2523863613605499
v 0.334160715341568 -0.6058880686759949 -0.1645878702402115
v 0.4889633059501648 -1.4091652631759644 -0.2453424036502838
v 0.3435803949832916 -1.3114473819732666 -0.1733204573392868
v 0.4889633059501648 -1.4091652631759644 -0.2453424036502838
v -0.33209171891212463 -1.321054220199585 -0.17092353105545044
v 0.3435803949832916 -1.3114473819732666 -0.1733204573392868
v -0.33209171891212463 -1.321054220199585 -0.17092353105545044
v 0.4889633059501648 -1.4091652631759644 -0.2453424036502838
v -0.49356916546821594 -1.4020872116088867 -0.2449893355369568
v -0.4774058163166046 -0.5020577311515808 -0.6361293196678162
v -0.49356916546821594 -1.4020872116088867 -0.2449893355369568
v -0.47684749960899353 -1.4164762496948242 -0.6274067759513855
v -0.49356916546821594 -1.4020872116088867 -0.2449893355369568
v -0.4774058163166046 -0.5020577311515808 -0.6361293196678162
v -0.48944276571273804 -0.251188188791275 -0.2488512396812439
v -0.4774058163166046 -0.5020577311515808 -0.6361293196678162
v 0.483411967754364 -0.24432137608528137 -0.2523863613605499
v -0.48944276571273804 -0.251188188791275 -0.2488512396812439
v 0.4844043254852295 -0.5030083060264587 -0.6330099105834961
v 0.4844043254852295 -0.5030083060264587 -0.6330099105834961
v 0.4889633059501648 -1.4091652631759644 -0.2453424036502838
v 0.483411967754364 -0.24432137608528137 -0.2523863613605499
v 0.4889633059501648 -1.4091652631759644 -0.2453424036502838
v 0.4844043254852295 -0.5030083060264587 -0.6330099105834961
v 0.473753958940506 -1.4042671918869019 -0.6339247226715088
v -0.47684749960899353 -1.4164762496948242 -0.6274067759513855
v 0.4889633059501648 -1.4091652631759644 -0.2453424036502838
v 0.473753958940506 -1.4042671918869019 -0.6339247226715088
v 0.4889633059501648 -1.4091652631759644 -0.2453424036502838
v -0.47684749960899353 -1.4164762496948242 -0.6274067759513855
v -0.49356916546821594 -1.4020872116088867 -0.2449893355369568
v -0.4774058163166046 -0.5020577311515808 -0.6361293196678162
v 0.473753958940506 -1.4042671918869019 -0.6339247226715088
v 0.4844043254852295 -0.5030083060264587 -0.6330099105834961
v -0.47684749960899353 -1.4164762496948242 -0.6274067759513855
v 0.22167697548866272 0.9648590683937073 -0.22810058295726776
v -0.013993989676237106 0.8899793028831482 0.09321091324090958
v 0.3641130030155182 0.9667542576789856 0.21783141791820526
v -0.24644947052001953 0.9648492932319641 -0.23043742775917053
v -0.013993989676237106 0.8899793028831482 0.09321091324090958
v 0.22167697548866272 0.9648590683937073 -0.22810058295726776
v -0.393330842256546 0.9667381644248962 0.21404936909675598
v -0.013993989676237106 0.8899793028831482 0.09321091324090958
v -0.24644947052001953 0.9648492932319641 -0.23043742775917053
v -0.013993989676237106 0.8899793028831482 0.09321091324090958
v -0.393330842256546 0.9667381644248962 0.21404936909675598
v -0.015981389209628105 0.9679156541824341 0.4910951256752014
v 0.3641130030155182 0.9667542576789856 0.21783141791820526
v -0.013993989676237106 0.8899793028831482 0.09321091324090958
v -0.015981389209628105 0.9679156541824341 0.4910951256752014
v 0.3672991991043091 1.360481858253479 0.2056407332420349
v 0.22167697548866272 0.9648590683937073 -0.22810058295726776
v 0.3641130030155182 0.9667542576789856 0.21783141791820526
v 0.2126591056585312 1.3586045503616333 -0.23605449497699738
v 0.2126591056585312 1.3586045503616333 -0.23605449497699738
v -0.24644947052001953 0.9648492932319641 -0.23043742775917053
v 0.22167697548866272 0.9648590683937073 -0.22810058295726776
v -0.2552090883255005 1.358649730682373 -0.22547531127929688
v -0.2552090883255005 1.358649730682373 -0.22547531127929688
v -0.393330842256546 0.9667381644248962 0.21404936909675598
v -0.24644947052001953 0.9648492932319641 -0.23043742775917053
v -0.3897266685962677 1.360554814338684 0.2227572351694107
v -0.3897266685962677 1.360554814338684 0.2227572351694107
v -0.015981389209628105 0.9679156541824341 0.4910951256752014
v -0.393330842256546 0.9667381644248962 0.21404936909675598
v -0.004994303919374943 1.3616851568222046 0.4892018735408783
v -0.004994303919374943 1.3616851568222046 0.4892018735408783
v 0.3641130030155182 0.9667542576789856 0.21783141791820526
v -0.015981389209628105 0.9679156541824341 0.4910951256752014
v 0.3672991991043091 1.360481858253479 0.2056407332420349
v 0.3672991991043091 1.360481858253479 0.2056407332420349
v -0.013995196670293808 1.4262489080429077 0.09093136340379715
v 0.2126591056585312 1.3586045503616333 -0.23605449497699738
v 0.2126591056585312 1.3586045503616333 -0.23605449497699738
v -0.013995196670293808 1.4262489080429077 0.09093136340379715
v -0.2552090883255005 1.358649730682373 -0.22547531127929688
v -0.2552090883255005 1.358649730682373 -0.22547531127929688
v -0.013995196670293808 1.4262489080429077 0.09093136340379715
v -0.3897266685962677 1.360554814338684 0.2227572351694107
v -0.3897266685962677 1.360554814338684 0.2227572351694107
v -0.013995196670293808 1.4262489080429077 0.09093136340379715
v -0.004994303919374943 1.3616851568222046 0.4892018735408783
v -0.004994303919374943 1.3616851568222046 0.4892018735408783
v -0.013995196670293808 1.4262489080429077 0.09093136340379715
v 0.3672991991043091 1.360481858253479 0.2056407332420349
v 0.08648055791854858 0.9806497693061829 -0.03620468080043793
v 0.18074141442775726 0.9814754128456116 0.15808425843715668
v 0.1508103907108307 0.9814668297767639 0.1560511738061905
v 0.09766344726085663 0.9805314540863037 -0.06404222548007965
v -0.11624526977539062 0.9806572794914246 -0.03443530946969986
v -0.13926486670970917 0.980575442314148 -0.05367307364940643
v -0.0048438310623168945 0.982103168964386 0.3057352900505066
v -0.012159271165728569 0.981979489326477 0.2766411602497101
v -0.20261821150779724 0.981546938419342 0.17486122250556946
v -0.17720839381217957 0.9814791679382324 0.1589132696390152
v -0.13926486670970917 0.980575442314148 -0.05367307364940643
v -0.11624526977539062 0.9806572794914246 -0.03443530946969986
vn 0.9588324427604675 -0.004568043164908886 -0.2839357554912567
vn 0.9588323831558228 -0.004568043630570173 -0.2839358150959015
vn 0.9588323831558228 -0.004568043164908886 -0.2839357852935791
vn 0.9366288781166077 0.0018490145448595285 -0.3503183126449585
vn 0.9366288781166077 0.0018490145448595285 -0.3503183126449585
vn 0.9366288781166077 0.0018490145448595285 -0.3503183126449585
vn 0.026244724169373512 -0.007609834894537926 -0.999626636505127
vn 0.026244724169373512 -0.007609835360199213 -0.999626636505127
vn 0.026244720444083214 -0.007609834894537926 -0.999626636505127
vn -0.04372322931885719 -0.0009082198957912624 -0.9990432858467102
vn -0.04372323304414749 -0.0009082200704142451 -0.9990432858467102
vn -0.04372322931885719 -0.0009082198957912624 -0.9990432858467102
vn -0.942612886428833 -0.004780173767358065 -0.3338533639907837
vn -0.942612886428833 -0.004780173767358065 -0.3338533639907837
vn -0.942612886428833 -0.004780174233019352 -0.3338533639907837
vn -0.9636526703834534 0.0022025371436029673 -0.2671492099761963
vn -0.9636526703834534 0.0022025371436029673 -0.2671492099761963
vn -0.9636526703834534 0.0022025371436029673 -0.2671492099761963
vn -0.6088147163391113 1.0533672138990369e-05 0.7933124303817749
vn -0.6088147163391113 1.0533673957979772e-05 0.7933124899864197
vn -0.6088147163391113 1.0533673957979772e-05 0.7933124303817749
vn -0.5518496036529541 0.006882317364215851 0.8339152932167053
vn -0.5518495440483093 0.0068823168985545635 0.8339152932167053
vn -0.5518496036529541 0.0068823168985545635 0.8339152932167053
vn 0.5663453340530396 0.00014167370682116598 0.8241680264472961
vn 0.5663453340530396 0.00014167370682116598 0.8241680860519409
vn 0.5663453340530396 0.0001416737213730812 0.8241680860519409
vn 0.6225917935371399 0.00666389986872673 0.7825184464454651
vn 0.6225917935371399 0.006663900800049305 0.7825184464454651
vn 0.6225917339324951 0.00666389986872673 0.7825184464454651
vn 0.16540320217609406 -0.9852081537246704 -0.044796157628297806
vn 0.16540321707725525 -0.9852081537246704 -0.044796157628297806
vn 0.16540320217609406 -0.9852081537246704 -0.044796157628297806
vn 0.0045271581038832664 -0.9857326745986938 -0.16825759410858154
vn 0.0045271581038832664 -0.9857326745986938 -0.16825760900974274
vn 0.0045271581038832664 -0.9857326745986938 -0.16825759410858154
vn -0.16260655224323273 -0.9852444529533386 -0.05340820923447609
vn -0.16260655224323273 -0.9852444529533386 -0.05340820550918579
vn -0.16260656714439392 -0.9852444529533386 -0.05340820550918579
vn -0.10502377152442932 -0.9844180941581726 0.14103561639785767
vn -0.10502377152442932 -0.9844180941581726 0.14103560149669647
vn -0.10502377897500992 -0.9844180941581726 0.14103560149669647
vn 0.09769701212644577 -0.9843957424163818 0.14635707437992096
vn 0.09769701957702637 -0.9843957424163818 0.14635705947875977
vn 0.09769701957702637 -0.9843957424163818 0.14635707437992096
vn -0.0 0.0037207254208624363 0.999993085861206
vn -0.0 0.0037207251880317926 0.999993085861206
vn -0.0 0.0037207251880317926 0.999993085861206
vn 0.002570211887359619 0.006145814433693886 0.9999778270721436
vn 2.0772445452621469e-07 -0.9970932602882385 0.07619021832942963
vn 2.077244687370694e-07 -0.9970932602882385 0.07619021832942963
vn 2.0772445452621469e-07 -0.9970932602882385 0.07619021832942963
vn 0.006084894761443138 -0.9985775351524353 0.05297009274363518
vn 0.006084895692765713 -0.9985775351524353 0.052970096468925476
vn 0.006084895227104425 -0.9985775351524353 0.052970096468925476
vn 0.9979225993156433 -0.005134491249918938 0.06421919912099838
vn 0.9979225993156433 -0.00513449078425765 0.06421919167041779
vn 0.9979225993156433 -0.00513449078425765 0.06421919167041779
vn 0.9961219429969788 0.0009455663966946304 0.08797816932201385
vn 0.011022928170859814 0.9998789429664612 0.010977722704410553
vn 0.011022927239537239 0.9998789429664612 0.010977721773087978
vn 0.011022928170859814 0.9998789429664612 0.010977721773087978
vn -0.010688954032957554 0.9956031441688538 0.09305952489376068
vn -0.010688954964280128 0.9956031441688538 0.09305953979492188
vn -0.01068895310163498 0.9956031441688538 0.09305951744318008
vn -0.9989805221557617 0.0058788880705833435 0.044758476316928864
vn -0.9989805221557617 0.005878887604922056 0.044758472591638565
vn -0.9989805221557617 0.0058788880705833435 0.044758476316928864
vn -0.9976604580879211 0.0001410242257406935 0.06836339086294174
vn -0.47495436668395996 -0.003662017174065113 -0.8800027966499329
vn -0.47495436668395996 -0.003662017174065113 -0.8800027966499329
vn -0.47495436668395996 -0.003662017174065113 -0.8800027966499329
vn -0.4409143924713135 0.00013881491031497717 -0.8975490927696228
vn 0.004712081979960203 0.39127853512763977 -0.9202602505683899
vn 0.004712081979960203 0.39127853512763977 -0.9202602505683899
vn 0.004712081979960203 0.39127856492996216 -0.9202602505683899
vn 0.004657180514186621 0.39173373579978943 -0.9200668334960938
vn 0.004657180979847908 0.39173373579978943 -0.9200668334960938
vn 0.004657180048525333 0.39173370599746704 -0.9200668334960938
vn 0.43666553497314453 -0.0015995367430150509 -0.8996224999427795
vn 0.43666547536849976 -0.001599536626599729 -0.8996224999427795
vn 0.43666550517082214 -0.0015995367430150509 -0.8996224999427795
vn 0.3376590609550476 -0.012422644533216953 -0.9411864876747131
vn 0.3376590609550476 -0.012422644533216953 -0.9411864876747131
vn 0.3376590609550476 -0.012422644533216953 -0.9411864876747131
vn -0.005010857246816158 -0.40045884251594543 -0.9163010120391846
vn -0.005010858178138733 -0.4004588723182678 -0.9163010120391846
vn -0.005010857712477446 -0.40045884251594543 -0.9163010120391846
vn -0.0004583352420013398 -0.43654489517211914 -0.899682343006134
vn -0.0004583351837936789 -0.43654489517211914 -0.899682343006134
vn -0.0004583353002090007 -0.43654492497444153 -0.899682343006134
vn -0.9999862313270569 0.002198871225118637 -0.00475929444655776
vn -0.9999862313270569 0.002198871225118637 -0.0047592949122190475
vn -0.9999862313270569 0.0021988714579492807 -0.0047592949122190475
vn -0.9999032020568848 0.0057052746415138245 -0.012687360867857933
vn 0.01276782900094986 0.9887977242469788 -0.1487145870923996
vn 0.01276782900094986 0.9887977242469788 -0.1487146019935608
vn 0.01276782900094986 0.9887977242469788 -0.1487146019935608
vn -0.003703224938362837 0.9832203388214111 -0.1823844462633133
vn 0.9991216063499451 0.004295692779123783 -0.041683129966259
vn 0.9991216063499451 0.004295692779123783 -0.0416831336915493
vn 0.9991216063499451 0.004295692313462496 -0.041683129966259
vn 0.9998029470443726 -0.01796707883477211 0.008440176956355572
vn 0.9998029470443726 -0.01796707697212696 0.008440176025032997
vn 0.9998029470443726 -0.01796707697212696 0.008440176025032997
vn -0.012814401648938656 -0.9999091029167175 -0.004195889458060265
vn -0.01281440258026123 -0.9999091029167175 -0.004195889923721552
vn -0.012814403511583805 -0.9999091029167175 -0.004195889458060265
vn -0.006756422109901905 -0.9998354315757751 -0.016836846247315407
vn -0.9952297210693359 0.0060807401314377785 0.09736943989992142
vn -0.9952297210693359 0.006080739200115204 0.09736943244934082
vn -0.9952297210693359 0.006080739200115204 0.09736943989992142
vn -0.9968034625053406 -0.0014505507424473763 0.07987916469573975
vn -0.9968034625053406 -0.001450550858862698 0.07987917214632034
vn -0.9968034625053406 -0.0014505507424473763 0.07987917214632034
vn 0.0026815501041710377 0.9698502421379089 0.24368712306022644
vn 0.002681549871340394 0.9698502421379089 0.24368709325790405
vn 0.002681549871340394 0.9698502421379089 0.24368712306022644
vn -0.004050867632031441 0.966227650642395 0.2576581537723541
vn 0.9917234182357788 0.004816242028027773 0.12830230593681335
vn 0.9917234182357788 0.0048162429593503475 0.12830232083797455
vn 0.9917234182357788 0.0048162429593503475 0.12830232083797455
vn 0.9934731721878052 0.011859383434057236 0.113447405397892
vn 0.9934731721878052 0.011859383434057236 0.11344742029905319
vn 0.9934731721878052 0.011859383434057236 0.1134474128484726
vn -0.006780366413295269 -0.9898256659507751 0.14212366938591003
vn -0.006780365947633982 -0.9898256659507751 0.14212366938591003
vn -0.006780366413295269 -0.9898256659507751 0.14212368428707123
vn 0.014493430964648724 -0.9951894283294678 0.0968911349773407
vn 0.014493429102003574 -0.9951894283294678 0.0968911349773407
vn 0.014493431895971298 -0.9951894283294678 0.0968911424279213
vn -0.413432240486145 -0.008350535295903683 0.9104966521263123
vn -0.413432240486145 -0.008350535295903683 0.9104966521263123
vn -0.413432240486145 -0.008350535295903683 0.9104966521263123
vn -0.46519842743873596 0.004638224840164185 0.8851942420005798
vn -0.46519842743873596 0.004638224840164185 0.8851943016052246
vn -0.46519842743873596 0.004638224840164185 0.8851943016052246
vn 0.0018886789912357926 0.23305873572826385 0.9724608659744263
vn 0.0018886789912357926 0.23305878043174744 0.9724608659744263
vn 0.0018886789912357926 0.23305876553058624 0.9724608659744263
vn 0.0006476150010712445 0.23571808636188507 0.9718212485313416
vn 0.4932595193386078 0.007610840257257223 0.869848906993866
vn 0.4932595193386078 0.007610840257257223 0.869848906993866
vn 0.4932595491409302 0.007610839791595936 0.8698488473892212
vn 0.44108447432518005 -0.005218827165663242 0.8974503874778748
vn 0.44108444452285767 -0.00521882763132453 0.8974504470825195
vn 0.44108447432518005 -0.005218827165663242 0.8974503874778748
vn 0.011164667084813118 -0.582448422908783 0.8127909302711487
vn 0.011164667084813118 -0.582448422908783 0.8127909302711487
vn 0.011164667084813118 -0.582448422908783 0.8127909302711487
vn -0.004557554144412279 -0.6696920394897461 0.7426248788833618
vn -0.004557554144412279 -0.6696920394897461 0.7426248788833618
vn -0.0045575546100735664 -0.6696920990943909 0.7426249384880066
vn -0.9990465641021729 -0.001026324462145567 -0.043645959347486496
vn -0.9990465641021729 -0.0010263243457302451 -0.043645959347486496
vn -0.9990465641021729 -0.001026324462145567 -0.043645959347486496
vn -0.9994389414787292 0.0034715745132416487 -0.03331231325864792
vn -0.9994389414787292 0.003471574978902936 -0.03331231325864792
vn -0.9994389414787292 0.0034715747460722923 -0.03331231698393822
vn -0.007899285294115543 0.839157223701477 -0.5438315272331238
vn -0.007899285294115543 0.839157223701477 -0.5438315272331238
vn -0.007899285294115543 0.839157223701477 -0.5438315272331238
vn 0.002640476217493415 0.8270652890205383 -0.5620996952056885
vn 0.9999884366989136 0.004761875607073307 -0.0006292074103839695
vn 0.9999884366989136 0.004761875607073307 -0.0006292074685916305
vn 0.9999884366989136 0.004761875607073307 -0.0006292074103839695
vn 0.9991599321365356 -0.011767440475523472 -0.03925606235861778
vn 0.9991599321365356 -0.011767441406846046 -0.03925606608390808
vn 0.9991599321365356 -0.011767440475523472 -0.03925606235861778
vn 0.01275148056447506 -0.9998328685760498 -0.013101969845592976
vn 0.012751479633152485 -0.9998328685760498 -0.013101969845592976
vn 0.01275148056447506 -0.9998328685760498 -0.013101971708238125
vn -0.007185336202383041 -0.9992788434028625 0.037285201251506805
vn -0.007185335271060467 -0.9992788434028625 0.03728519380092621
vn -0.0071853348053991795 -0.9992788434028625 0.03728519380092621
vn 0.0032441983930766582 0.0009766420116648078 -0.9999942779541016
vn 0.0032441983930766582 0.000976641895249486 -0.9999942779541016
vn 0.0032441983930766582 0.0009766420116648078 -0.9999942779541016
vn -0.006733587943017483 -0.009542346000671387 -0.999931812286377
vn 0.21938355267047882 -0.973408043384552 -0.06593672186136246
vn 0.21938355267047882 -0.973408043384552 -0.06593672186136246
vn 0.21938355267047882 -0.973408043384552 -0.06593672186136246
vn 0.0011493045603856444 -0.9740888476371765 -0.22616271674633026
vn 0.0011493046768009663 -0.9740888476371765 -0.22616274654865265
vn 0.0011493045603856444 -0.9740888476371765 -0.22616271674633026
vn -0.21867221593856812 -0.9734174609184265 -0.0681239664554596
vn -0.21867221593856812 -0.9734174609184265 -0.0681239664554596
vn -0.21867221593856812 -0.9734174609184265 -0.0681239664554596
vn -0.13629640638828278 -0.9723214507102966 0.1897745281457901
vn -0.13629639148712158 -0.9723214507102966 0.1897745281457901
vn -0.13629640638828278 -0.9723214507102966 0.1897745430469513
vn 0.13443636894226074 -0.9723157286643982 0.19112569093704224
vn 0.13443636894226074 -0.9723157286643982 0.19112567603588104
vn 0.13443636894226074 -0.9723157286643982 0.19112569093704224
vn 0.9524679780006409 -0.017125098034739494 -0.30415692925453186
vn 0.9524679780006409 -0.017125098034739494 -0.30415692925453186
vn 0.9524679780006409 -0.017125099897384644 -0.30415692925453186
vn 0.9437021017074585 0.014937919564545155 -0.3304591178894043
vn 0.004991260357201099 -0.020082000643014908 -0.999785840511322
vn 0.004991260357201099 -0.020082000643014908 -0.999785840511322
vn 0.004991259891539812 -0.02008199878036976 -0.999785840511322
vn -0.02260286547243595 0.012093682773411274 -0.9996713995933533
vn -0.9493827819824219 -0.017165664583444595 -0.3136521279811859
vn -0.9493827819824219 -0.017165666446089745 -0.3136521279811859
vn -0.9493827819824219 -0.017165664583444595 -0.3136520981788635
vn -0.9576709866523743 0.015120829455554485 -0.2874677777290344
vn -0.5917413234710693 -0.012407018803060055 0.8060324192047119
vn -0.5917413234710693 -0.012407018803060055 0.8060324192047119
vn -0.5917413234710693 -0.012407018803060055 0.8060324192047119
vn -0.5692694187164307 0.01983567327260971 0.8219116926193237
vn 0.5836660861968994 -0.012382051907479763 0.8118993639945984
vn 0.5836660265922546 -0.012382051907479763 0.8118993639945984
vn 0.5836660861968994 -0.012382051907479763 0.8118993639945984
vn 0.6058427095413208 0.01972280628979206 0.7953400015830994
vn 0.19017845392227173 0.9791973233222961 -0.07074436545372009
vn 0.19017845392227173 0.9791973233222961 -0.07074436545372009
vn 0.19017845392227173 0.9791973233222961 -0.0707443580031395
vn -0.0045546116307377815 0.9786239862442017 -0.20560738444328308
vn -0.004554612096399069 0.9786239862442017 -0.20560741424560547
vn -0.004554612096399069 0.9786239862442017 -0.20560738444328308
vn -0.19299355149269104 0.9792341589927673 -0.06208055838942528
vn -0.19299355149269104 0.9792341589927673 -0.06208055838942528
vn -0.19299353659152985 0.9792341589927673 -0.06208055838942528
vn -0.11471938341856003 0.9801837801933289 0.1614905297756195
vn -0.11471938341856003 0.9801837801933289 0.1614905148744583
vn -0.11471938341856003 0.9801837801933289 0.1614905297756195
vn 0.12208984047174454 0.9801611304283142 0.15613499283790588
vn 0.12208984047174454 0.9801611304283142 0.15613499283790588
vn 0.12208983302116394 0.9801611304283142 0.15613499283790588
vn 6.424240268643189e-07 0.9999909400939941 -0.004249887075275183
vn 6.424239700209e-07 0.9999909400939941 -0.004249886609613895
vn 6.424239700209e-07 0.9999909400939941 -0.004249886609613895
vn 1.3389075093073188e-06 0.9999909400939941 -0.0042502256110310555
vn -2.1997725241362787e-07 0.9999909400939941 -0.004250852391123772
vn -2.471833795425482e-07 0.9999909400939941 -0.0042510489001870155
vn 3.4171856100329023e-07 0.9999909400939941 -0.004250815603882074
vn -6.010873221384827e-07 0.9999909996986389 -0.004249052610248327
vn -2.017078713834053e-06 0.9999909400939941 -0.004251308273524046
vn -2.87760656192404e-07 0.9999909400939941 -0.004251000005751848
vn -2.877606846141134e-07 0.9999909400939941 -0.004251000005751848
vn -2.877606846141134e-07 0.9999909400939941 -0.004250999540090561
vt 0.15459340810775757 0.7829127758741379
vt 0.98163902759552 0.7253049314022064
vt 0.98163902759552 0.7829127758741379
vt 0.98163902759552 0.7253049314022064
vt 0.15459340810775757 0.7829127758741379
vt 0.15459340810775757 0.7253049314022064
vt 0.15459340810775757 0.7253049314022064
vt 0.98163902759552 0.6578290462493896
vt 0.98163902759552 0.7253049314022064
vt 0.98163902759552 0.6578290462493896
vt 0.15459340810775757 0.7253049314022064
vt 0.15459340810775757 0.6578290462493896
vt 0.15459340810775757 0.9794728495180607
vt 0.98163902759552 0.9082631766796112
vt 0.98163902759552 0.9794728495180607
vt 0.98163902759552 0.9082631766796112
vt 0.15459340810775757 0.9794728495180607
vt 0.15459340810775757 0.9082631766796112
vt 0.15459340810775757 0.9082631766796112
vt 0.98163902759552 0.8405206203460693
vt 0.98163902759552 0.9082631766796112
vt 0.98163902759552 0.8405206203460693
vt 0.15459340810775757 0.9082631766796112
vt 0.15459340810775757 0.8405206203460693
vt 0.15459340810775757 0.8405206203460693
vt 0.98163902759552 0.7829127758741379
vt 0.98163902759552 0.8405206203460693
vt 0.98163902759552 0.7829127758741379
vt 0.15459340810775757 0.8405206203460693
vt 0.15459340810775757 0.7829127758741379
vt 0.8312034010887146 0.24214142560958862
vt 0.8762763738632202 0.17866605520248413
vt 0.9224159121513367 0.24107462167739868
vt 0.8021328449249268 0.15546298027038574
vt 0.8762763738632202 0.17866605520248413
vt 0.8312034010887146 0.24214142560958862
vt 0.875476062297821 0.1010555624961853
vt 0.8762763738632202 0.17866605520248413
vt 0.8021328449249268 0.15546298027038574
vt 0.9498862624168396 0.15412944555282593
vt 0.8762763738632202 0.17866605520248413
vt 0.875476062297821 0.1010555624961853
vt 0.9224159121513367 0.24107462167739868
vt 0.8762763738632202 0.17866605520248413
vt 0.9498862624168396 0.15412944555282593
vt 0.6962669491767883 0.07268291711807251
vt 0.49197232723236084 0.2601749897003174
vt 0.49197232723236084 0.07268291711807251
vt 0.6962669491767883 0.2601749897003174
vt 0.49197232723236084 0.2601749897003174
vt 0.4506337642669678 0.07054924964904785
vt 0.49197232723236084 0.07268291711807251
vt 0.4506337642669678 0.07054924964904785
vt 0.49197232723236084 0.2601749897003174
vt 0.4506337642669678 0.26230865716934204
vt 0.49197232723236084 0.2601749897003174
vt 0.6962669491767883 0.31404900550842285
vt 0.49197232723236084 0.31404900550842285
vt 0.6962669491767883 0.2601749897003174
vt 0.6962669491767883 0.2601749897003174
vt 0.7530747652053833 0.07054924964904785
vt 0.7530747652053833 0.26230865716934204
vt 0.7530747652053833 0.07054924964904785
vt 0.6962669491767883 0.2601749897003174
vt 0.6962669491767883 0.07268291711807251
vt 0.6962669491767883 0.07268291711807251
vt 0.49197232723236084 0.0209425687789917
vt 0.6962669491767883 0.0209425687789917
vt 0.49197232723236084 0.07268291711807251
vt 0.503440797328949 0.005740463733673096
vt 0.6962669491767883 0.0209425687789917
vt 0.49197232723236084 0.0209425687789917
vt 0.6850654482841492 0.005740463733673096
vt 0.765609860420227 0.08121734857559204
vt 0.7530747652053833 0.26230865716934204
vt 0.7530747652053833 0.07054924964904785
vt 0.7530747652053833 0.26230865716934204
vt 0.765609860420227 0.08121734857559204
vt 0.765609860420227 0.2516404390335083
vt 0.6850654482841492 0.32818424701690674
vt 0.49197232723236084 0.31404900550842285
vt 0.6962669491767883 0.31404900550842285
vt 0.49197232723236084 0.31404900550842285
vt 0.6850654482841492 0.32818424701690674
vt 0.503440797328949 0.32818424701690674
vt 0.43383121490478516 0.2516404390335083
vt 0.4506337642669678 0.07054924964904785
vt 0.4506337642669678 0.26230865716934204
vt 0.4506337642669678 0.07054924964904785
vt 0.43383121490478516 0.2516404390335083
vt 0.43383121490478516 0.08121734857559204
vt 0.8792251944541931 0.5114091634750366
vt 0.9560357332229614 0.30311423540115356
vt 0.9560357332229614 0.5114091634750366
vt 0.8792251944541931 0.31884968280792236
vt 0.9507015943527222 0.5180767178535461
vt 0.8021480441093445 0.5796850919723511
vt 0.8018814325332642 0.5183433890342712
vt 0.9507015943527222 0.579418420791626
vt 0.8792251944541931 0.5114091634750366
vt 0.9560357332229614 0.30311423540115356
vt 0.8792251944541931 0.31884968280792236
vt 0.9560357332229614 0.30311423540115356
vt 0.8792251944541931 0.5114091634750366
vt 0.9560357332229614 0.5114091634750366
vt 0.8018814325332642 0.5183433890342712
vt 0.9507015943527222 0.579418420791626
vt 0.9507015943527222 0.5180767178535461
vt 0.8021480441093445 0.5796850919723511
vt 0.8792251944541931 0.5114091634750366
vt 0.7896132469177246 0.30311423540115356
vt 0.8792251944541931 0.31884968280792236
vt 0.7896132469177246 0.30311423540115356
vt 0.8792251944541931 0.5114091634750366
vt 0.7896132469177246 0.5114091634750366
vt 0.8021480441093445 0.5796850919723511
vt 0.9509682059288025 0.6508948504924774
vt 0.8021480441093445 0.6511614918708801
vt 0.9507015943527222 0.579418420791626
vt 0.8792251944541931 0.31884968280792236
vt 0.7896132469177246 0.5114091634750366
vt 0.8792251944541931 0.5114091634750366
vt 0.7896132469177246 0.5114091634750366
vt 0.8792251944541931 0.31884968280792236
vt 0.7896132469177246 0.30311423540115356
vt 0.8021480441093445 0.5796850919723511
vt 0.9509682059288025 0.6508948504924774
vt 0.9507015943527222 0.579418420791626
vt 0.9509682059288025 0.6508948504924774
vt 0.8021480441093445 0.5796850919723511
vt 0.8021480441093445 0.6511614918708801
vt 0.4012936055660248 0.31404900550842285
vt 0.361021488904953 0.49407339096069336
vt 0.361021488904953 0.3353853225708008
vt 0.361021488904953 0.49407339096069336
vt 0.4012936055660248 0.31404900550842285
vt 0.4012936055660248 0.5615493059158325
vt 0.18873125314712524 0.5615493059158325
vt 0.361021488904953 0.49407339096069336
vt 0.4012936055660248 0.5615493059158325
vt 0.21913540363311768 0.49407339096069336
vt 0.18873125314712524 0.31404900550842285
vt 0.21913540363311768 0.49407339096069336
vt 0.18873125314712524 0.5615493059158325
vt 0.21913540363311768 0.49407339096069336
vt 0.18873125314712524 0.31404900550842285
vt 0.21913540363311768 0.3353853225708008
vt 0.18873125314712524 0.31404900550842285
vt 0.361021488904953 0.3353853225708008
vt 0.21913540363311768 0.3353853225708008
vt 0.361021488904953 0.3353853225708008
vt 0.18873125314712524 0.31404900550842285
vt 0.4012936055660248 0.31404900550842285
vt 0.4767704904079437 0.5196769833564758
vt 0.4012936055660248 0.31404900550842285
vt 0.47863736748695374 0.3132489323616028
vt 0.4012936055660248 0.31404900550842285
vt 0.4767704904079437 0.5196769833564758
vt 0.4012936055660248 0.5615493059158325
vt 0.40396052598953247 0.6426270306110382
vt 0.18873125314712524 0.5615493059158325
vt 0.4012936055660248 0.5615493059158325
vt 0.18606430292129517 0.6426270306110382
vt 0.1137877032160759 0.5191435813903809
vt 0.18873125314712524 0.31404900550842285
vt 0.18873125314712524 0.5615493059158325
vt 0.18873125314712524 0.31404900550842285
vt 0.1137877032160759 0.5191435813903809
vt 0.1137877032160759 0.31244879961013794
vt 0.40396052598953247 0.23297125101089478
vt 0.18873125314712524 0.31404900550842285
vt 0.18606430292129517 0.23297125101089478
vt 0.18873125314712524 0.31404900550842285
vt 0.40396052598953247 0.23297125101089478
vt 0.4012936055660248 0.31404900550842285
vt 0.5066412687301636 0.6332923769950867
vt 0.750140905380249 0.3911260962486267
vt 0.750140905380249 0.6332923769950867
vt 0.5066412687301636 0.3911260962486267
vt 0.051912762224674225 0.933599941432476
vt 0.014307726174592972 0.7871355563402176
vt 0.051912762224674225 0.8439877480268478
vt 0.051912762224674225 0.9941415055654943
vt 0.014307726174592972 0.7871355563402176
vt 0.051912762224674225 0.933599941432476
vt 0.051912762224674225 0.6460942029953003
vt 0.014307726174592972 0.7871355563402176
vt 0.051912762224674225 0.5759513080120087
vt 0.014307726174592972 0.7871355563402176
vt 0.051912762224674225 0.6460942029953003
vt 0.051912762224674225 0.7405069768428802
vt 0.051912762224674225 0.8439877480268478
vt 0.014307726174592972 0.7871355563402176
vt 0.051912762224674225 0.7405069768428802
vt 0.1335238218307495 0.8439877480268478
vt 0.051912762224674225 0.933599941432476
vt 0.051912762224674225 0.8439877480268478
vt 0.1335238218307495 0.933599941432476
vt 0.1335238218307495 0.933599941432476
vt 0.051912762224674225 0.9941415055654943
vt 0.051912762224674225 0.933599941432476
vt 0.1335238218307495 0.9941415055654943
vt 0.1335238218307495 0.5746177732944489
vt 0.051912762224674225 0.6460942029953003
vt 0.051912762224674225 0.5759513080120087
vt 0.1335238218307495 0.6460942029953003
vt 0.1335238218307495 0.6460942029953003
vt 0.051912762224674225 0.7405069768428802
vt 0.051912762224674225 0.6460942029953003
vt 0.1335238218307495 0.7405069768428802
vt 0.1335238218307495 0.7405069768428802
vt 0.051912762224674225 0.8439877480268478
vt 0.051912762224674225 0.7405069768428802
vt 0.1335238218307495 0.8439877480268478
vt 0.23647108674049377 0.419930100440979
vt 0.2890116274356842 0.419930100440979
vt 0.27274268865585327 0.46980351209640503
vt 0.27274268865585327 0.46980351209640503
vt 0.2890116274356842 0.419930100440979
vt 0.3316841721534729 0.4508674740791321
vt 0.3316841721534729 0.4508674740791321
vt 0.2890116274356842 0.419930100440979
vt 0.3316841721534729 0.38899242877960205
vt 0.3316841721534729 0.38899242877960205
vt 0.2890116274356842 0.419930100440979
vt 0.27274268865585327 0.36978989839553833
vt 0.27274268865585327 0.36978989839553833
vt 0.2890116274356842 0.419930100440979
vt 0.23647108674049377 0.419930100440979
vt 0.15459340810775757 0.7253049314022064
vt 0.15459340810775757 0.7829127758741379
vt 0.15459340810775757 0.7829127758741379
vt 0.15459340810775757 0.7253049314022064
vt 0.15459340810775757 0.6578290462493896
vt 0.15459340810775757 0.6578290462493896
vt 0.15459340810775757 0.8405206203460693
vt 0.15459340810775757 0.8405206203460693
vt 0.15459340810775757 0.9082631766796112
vt 0.15459340810775757 0.9082631766796112
vt 0.15459340810775757 0.9794728495180607
vt 0.15459340810775757 0.9794728495180607

g M_chuizi
s 1
usemtl M_chuizi
f 3/3/3 2/2/2 1/1/1 
f 6/6/6 5/5/5 4/4/4 
f 9/9/9 8/8/8 7/7/7 
f 12/12/12 11/11/11 10/10/10 
f 15/15/15 14/14/14 13/13/13 
f 18/18/18 17/17/17 16/16/16 
f 21/21/21 20/20/20 19/19/19 
f 24/24/24 23/23/23 22/22/22 
f 27/27/27 26/26/26 25/25/25 
f 30/30/30 29/29/29 28/28/28 
f 33/33/33 32/32/32 31/31/31 
f 36/36/36 35/35/35 34/34/34 
f 39/39/39 38/38/38 37/37/37 
f 42/42/42 41/41/41 40/40/40 
f 45/45/45 44/44/44 43/43/43 
f 48/48/48 47/47/47 46/46/46 
f 49/49/49 46/46/46 47/47/47 
f 52/52/52 51/51/51 50/50/50 
f 55/55/55 54/54/54 53/53/53 
f 58/58/58 57/57/57 56/56/56 
f 59/59/59 56/56/56 57/57/57 
f 62/62/62 61/61/61 60/60/60 
f 65/65/65 64/64/64 63/63/63 
f 68/68/68 67/67/67 66/66/66 
f 69/69/69 66/66/66 67/67/67 
f 72/72/72 71/71/71 70/70/70 
f 73/73/73 70/70/70 71/71/71 
f 76/76/76 75/75/75 74/74/74 
f 79/79/79 78/78/78 77/77/77 
f 82/82/82 81/81/81 80/80/80 
f 85/85/85 84/84/84 83/83/83 
f 88/88/88 87/87/87 86/86/86 
f 91/91/91 90/90/90 89/89/89 
f 94/94/94 93/93/93 92/92/92 
f 95/95/95 92/92/92 93/93/93 
f 98/98/98 97/97/97 96/96/96 
f 99/99/99 96/96/96 97/97/97 
f 102/102/102 101/101/101 100/100/100 
f 105/105/105 104/104/104 103/103/103 
f 108/108/108 107/107/107 106/106/106 
f 109/109/109 106/106/106 107/107/107 
f 112/112/112 111/111/111 110/110/110 
f 115/115/115 114/114/114 113/113/113 
f 118/118/118 117/117/117 116/116/116 
f 119/119/119 116/116/116 117/117/117 
f 122/122/122 121/121/121 120/120/120 
f 125/125/125 124/124/124 123/123/123 
f 128/128/128 127/127/127 126/126/126 
f 131/131/131 130/130/130 129/129/129 
f 134/134/134 133/133/133 132/132/132 
f 137/137/137 136/136/136 135/135/135 
f 140/140/140 139/139/139 138/138/138 
f 141/141/141 138/138/138 139/139/139 
f 144/144/144 143/143/143 142/142/142 
f 147/147/147 146/146/146 145/145/145 
f 150/150/150 149/149/149 148/148/148 
f 153/153/153 152/152/152 151/151/151 
f 156/156/156 155/155/155 154/154/154 
f 159/159/159 158/158/158 157/157/157 
f 162/162/162 161/161/161 160/160/160 
f 163/163/163 160/160/160 161/161/161 
f 166/166/166 165/165/165 164/164/164 
f 169/169/169 168/168/168 167/167/167 
f 172/172/172 171/171/171 170/170/170 
f 175/175/175 174/174/174 173/173/173 
f 178/178/178 177/177/177 176/176/176 
f 179/179/179 176/176/176 177/177/177 
f 182/182/182 181/181/181 180/180/180 
f 185/185/185 184/184/184 183/183/183 
f 188/188/188 187/187/187 186/186/186 
f 191/191/191 190/190/190 189/189/189 
f 194/194/194 193/193/193 192/192/192 
f 197/197/197 196/196/196 195/195/195 
f 198/198/198 195/195/195 196/196/196 
f 201/201/201 200/200/200 199/199/199 
f 202/202/202 199/199/199 200/200/200 
f 205/205/205 204/204/204 203/203/203 
f 206/206/206 203/203/203 204/204/204 
f 209/209/209 208/208/208 207/207/207 
f 210/210/210 207/207/207 208/208/208 
f 213/213/213 212/212/212 211/211/211 
f 214/214/214 211/211/211 212/212/212 
f 217/217/217 216/216/216 215/215/215 
f 220/220/220 219/219/219 218/218/218 
f 223/223/223 222/222/222 221/221/221 
f 226/226/226 225/225/225 224/224/224 
f 229/229/229 228/228/228 227/227/227 
f 232/232/232 231/231/231 230/230/230 
f 233/233/233 230/230/230 231/231/231 
f 230/230/230 233/233/233 234/234/234 
f 235/235/235 234/234/234 233/233/233 
f 231/231/231 232/232/232 236/236/236 
f 237/237/237 236/236/236 232/232/232 
f 236/236/236 237/237/237 238/238/238 
f 239/239/239 238/238/238 237/237/237 
f 238/238/238 239/239/239 240/240/240 
f 241/241/241 240/240/240 239/239/239 

