v -2.0 -1.0 -4.999999873689376e-05
v -2.0 1.0 -4.999999873689376e-05
v -0.0 1.0 -4.999999873689376e-05
v -0.0 -1.0 -4.999999873689376e-05
vn -0.0 0.0 1.0
vn -0.0 0.0 1.0
vn -0.0 0.0 1.0
vn -0.0 0.0 1.0
vt 0.0 1.0
vt 0.0 0.0
vt 1.0 0.0
vt 1.0 1.0

g Mesh_FX_Quad_02
s 1
usemtl Mesh_FX_Quad_02
f 3/3/3 2/2/2 1/1/1 
f 4/4/4 3/3/3 1/1/1 

