v 4.560476779937744 -1.6479952431118472e-16 2.691380500793457
v 3.5050060749053955 -2.7674014283742205e-16 4.519509315490723
v 3.5050060749053955 -2.0211307264319037e-16 3.3007569313049316
v 5.615947246551514 -2.7674008989786285e-16 4.5195088386535645
v 4.560476779937744 -3.140536382298685e-16 5.128885269165039
v 5.615947246551514 -2.0211305940830057e-16 3.3007566928863525
v 6.840144157409668 -1.6479952431118472e-16 2.691380500793457
v 5.784673690795898 -2.7674008989786285e-16 4.5195088386535645
v 5.784673690795898 -2.0211305940830057e-16 3.3007566928863525
v 7.895615100860596 -2.7674014283742205e-16 4.519509315490723
v 6.840144157409668 -3.140536382298685e-16 5.128885269165039
v 7.8956146240234375 -2.0211303293852096e-16 3.3007562160491943
v 9.131484031677246 -1.6479952431118472e-16 2.691380500793457
v 8.076013565063477 -2.7674008989786285e-16 4.5195088386535645
v 8.076013565063477 -2.0211304617341077e-16 3.3007564544677734
v 10.186954498291016 -2.7674006342808324e-16 4.519508361816406
v 9.131484031677246 -3.140536117600889e-16 5.128884792327881
v 10.186956405639648 -2.0211300646874136e-16 3.3007559776306152
v 11.411151885986328 -1.6479952431118472e-16 2.691380500793457
v 10.355681419372559 -2.7674008989786285e-16 4.5195088386535645
v 10.355681419372559 -2.0211304617341077e-16 3.3007564544677734
v 12.466622352600098 -2.7674008989786285e-16 4.5195088386535645
v 11.411151885986328 -3.140536117600889e-16 5.128884792327881
v 12.466622352600098 -2.0211300646874136e-16 3.3007559776306152
v 13.691960334777832 -1.6479952431118472e-16 2.691380500793457
v 12.636490821838379 -2.7674008989786285e-16 4.5195088386535645
v 12.636489868164062 -2.0211304617341077e-16 3.3007564544677734
v 14.747432708740234 -2.7674006342808324e-16 4.519508361816406
v 13.691961288452148 -3.140536117600889e-16 5.128884792327881
v 14.747431755065918 -2.0211304617341077e-16 3.3007564544677734
v 15.971628189086914 -1.6479948460651532e-16 2.6913797855377197
v 14.916157722473145 -2.7674008989786285e-16 4.5195088386535645
v 14.916159629821777 -2.0211304617341077e-16 3.3007564544677734
v 17.027097702026367 -2.7674006342808324e-16 4.519508361816406
v 15.971628189086914 -3.140536117600889e-16 5.128884792327881
v 17.027099609375 -2.0211297999896176e-16 3.300755500793457
v -18.255876541137695 -1.6479959048563373e-16 2.6913814544677734
v -19.31134796142578 -2.7674022224676085e-16 4.519510746002197
v -19.31134796142578 -2.0211311234785977e-16 3.300757646560669
v -17.200407028198242 -2.7674019577698125e-16 4.519510269165039
v -18.255876541137695 -3.140537176392073e-16 5.1288862228393555
v -17.20040512084961 -2.0211313881763937e-16 3.300758123397827
v -11.415732383728027 -1.6479955078096433e-16 2.6913809776306152
v -12.47120475769043 -2.7674014283742205e-16 4.519509315490723
v -12.47120475769043 -2.0211307264319037e-16 3.3007569313049316
v -10.360261917114258 -2.7674014283742205e-16 4.519509315490723
v -11.415731430053711 -3.140536646996481e-16 5.128885746002197
v -10.360261917114258 -2.0211307264319037e-16 3.3007569313049316
v -9.12439250946045 -1.6479959048563373e-16 2.6913814544677734
v -10.179863929748535 -2.7674014283742205e-16 4.519509315490723
v -10.179863929748535 -2.0211313881763937e-16 3.300758123397827
v -8.068921089172363 -2.7674014283742205e-16 4.519509315490723
v -9.12439250946045 -3.140536646996481e-16 5.128885746002197
v -8.06892204284668 -2.0211307264319037e-16 3.3007569313049316
v -6.844725131988525 -1.6479955078096433e-16 2.6913809776306152
v -7.900195598602295 -2.7674019577698125e-16 4.519510269165039
v -7.900196552276611 -2.0211311234785977e-16 3.300757646560669
v -5.789255142211914 -2.7674016930720165e-16 4.519509792327881
v -6.844724655151367 -3.140536382298685e-16 5.128885269165039
v -5.789254665374756 -2.0211307264319037e-16 3.3007569313049316
v -4.563919544219971 -1.6479952431118472e-16 2.691380500793457
v -5.619389057159424 -2.7674006342808324e-16 4.519508361816406
v -5.619388103485107 -2.0211313881763937e-16 3.300758123397827
v -3.5084469318389893 -2.7674008989786285e-16 4.5195088386535645
v -4.563919544219971 -3.140536382298685e-16 5.128885269165039
v -3.5084471702575684 -2.0211313881763937e-16 3.300758123397827
v -2.2842483520507812 -1.6479952431118472e-16 2.691380500793457
v -3.339719295501709 -2.7674016930720165e-16 4.519509792327881
v -3.339719295501709 -2.0211309911296997e-16 3.30075740814209
v -1.228778600692749 -2.7674016930720165e-16 4.519509792327881
v -2.284248113632202 -3.140536382298685e-16 5.128885269165039
v -1.2287777662277222 -2.0211307264319037e-16 3.3007569313049316
v 18.249975204467773 -1.6479952431118472e-16 2.691380500793457
v 17.194503784179688 -2.7674006342808324e-16 4.519508361816406
v 17.19450569152832 -2.0211304617341077e-16 3.3007564544677734
v 19.30544662475586 -2.7674006342808324e-16 4.519508361816406
v 18.249977111816406 -3.140536117600889e-16 5.128884792327881
v 19.305448532104492 -2.0211300646874136e-16 3.3007559776306152
v -1.1445599794387817 -4.572392706247325e-17 0.7467284202575684
v -2.2000298500061035 -1.5766452904509833e-16 2.574857234954834
v -2.2000303268432617 -8.303745885086664e-17 1.3561046123504639
v -0.08908919245004654 -1.5766454227998813e-16 2.574857473373413
v -1.1445595026016235 -1.9497807737710397e-16 3.1842336654663086
v -0.08908912539482117 -8.303747208575644e-17 1.356104850769043
v 1.1351076364517212 -4.572392706247325e-17 0.7467284202575684
v 0.07963725924491882 -1.5766452904509833e-16 2.574857234954834
v 0.07963719218969345 -8.303748532064624e-17 1.356105089187622
v 2.1905784606933594 -1.5766452904509833e-16 2.574857234954834
v 1.1351077556610107 -1.9497806414221417e-16 3.1842334270477295
v 2.1905782222747803 -8.303745885086664e-17 1.3561046123504639
v 7.986923694610596 -4.5723943606085503e-17 0.7467286586761475
v 6.931452751159668 -1.5766452904509833e-16 2.574857234954834
v 6.931452751159668 -8.303745885086664e-17 1.3561046123504639
v 9.042394638061523 -1.5766447610553912e-16 2.5748562812805176
v 7.9869232177734375 -1.9497805090732437e-16 3.1842331886291504
v 9.04239559173584 -8.303741252875234e-17 1.3561038970947266
v 10.266592025756836 -4.5723956840975304e-17 0.7467288970947266
v 9.21112060546875 -1.5766450257531872e-16 2.574856758117676
v 9.21112060546875 -8.303747208575644e-17 1.356104850769043
v 11.322059631347656 -1.5766450257531872e-16 2.574856758117676
v 10.26659107208252 -1.9497802443754476e-16 3.184232711791992
v 11.322061538696289 -8.303739929386254e-17 1.3561036586761475
v 12.547399520874023 -4.572392706247325e-17 0.7467284202575684
v 11.49193000793457 -1.5766450257531872e-16 2.574856758117676
v 11.491929054260254 -8.303743238108704e-17 1.3561041355133057
v 13.602871894836426 -1.5766450257531872e-16 2.574856758117676
v 12.54740047454834 -1.9497809061199377e-16 3.1842339038848877
v 13.602869987487793 -8.303745885086664e-17 1.3561046123504639
v 14.827065467834473 -4.5723943606085503e-17 0.7467286586761475
v 13.771595001220703 -1.5766452904509833e-16 2.574857234954834
v 13.77159595489502 -8.303747208575644e-17 1.356104850769043
v 15.882535934448242 -1.5766452904509833e-16 2.574857234954834
v 14.827066421508789 -1.9497806414221417e-16 3.1842334270477295
v 15.882539749145508 -8.303738605897274e-17 1.3561034202575684
v -17.120769500732422 -4.572392706247325e-17 0.7467284202575684
v -18.176239013671875 -1.5766463492421673e-16 2.5748589038848877
v -18.176239013671875 -8.303751840787075e-17 1.3561055660247803
v -16.065298080444336 -1.5766456874976773e-16 2.574857711791992
v -17.120769500732422 -1.9497817002133257e-16 3.184235095977783
v -16.065298080444336 -8.303751840787075e-17 1.3561055660247803
v -10.268951416015625 -4.572405941137126e-17 0.7467305660247803
v -11.324422836303711 -1.5766452904509833e-16 2.574857234954834
v -11.324422836303711 -8.303759119976465e-17 1.3561067581176758
v -9.213480949401855 -1.5766454227998813e-16 2.574857473373413
v -10.268950462341309 -1.9497811708177337e-16 3.184234380722046
v -9.213480949401855 -8.303748532064624e-17 1.356105089187622
v -7.989284038543701 -4.5723973384587555e-17 0.7467291355133057
v -9.044754981994629 -1.5766456874976773e-16 2.574857711791992
v -9.044755935668945 -8.303747208575644e-17 1.356104850769043
v -6.933814525604248 -1.5766459521954733e-16 2.5748581886291504
v -7.989284038543701 -1.9497807737710397e-16 3.1842336654663086
v -6.933813571929932 -8.303750517298095e-17 1.3561053276062012
v -5.708479404449463 -4.572392706247325e-17 0.7467284202575684
v -6.763948440551758 -1.5766444963575952e-16 2.5748558044433594
v -6.763947010040283 -8.303751840787075e-17 1.3561055660247803
v -4.653006076812744 -1.5766447610553912e-16 2.5748562812805176
v -5.708478927612305 -1.9497802443754476e-16 3.184232711791992
v -4.6530070304870605 -8.303751840787075e-17 1.3561055660247803
v -3.428807497024536 -4.5723956840975304e-17 0.7467288970947266
v -4.484279155731201 -1.5766454227998813e-16 2.574857473373413
v -4.484279155731201 -8.303748532064624e-17 1.356105089187622
v -2.373337984085083 -1.5766454227998813e-16 2.574857473373413
v -3.428807258605957 -1.9497805090732437e-16 3.1842331886291504
v -2.3733370304107666 -8.303748532064624e-17 1.356105089187622
v 17.10541343688965 -4.5723956840975304e-17 0.7467288970947266
v 16.049943923950195 -1.5766444963575952e-16 2.5748558044433594
v 16.049943923950195 -8.303745885086664e-17 1.3561046123504639
v 18.1608829498291 -1.5766447610553912e-16 2.5748562812805176
v 17.105417251586914 -1.9497798473287536e-16 3.184232234954834
v 18.160888671875 -8.303741252875234e-17 1.3561038970947266
v -0.0 -4.04036859892449e-16 6.598422527313232
v -1.0554702281951904 -5.159774254791271e-16 8.42655086517334
v -1.0554704666137695 -4.4135040822445464e-16 7.207798957824707
v 1.055470585823059 -5.159774254791271e-16 8.42655086517334
v 5.435151138044603e-07 -5.53291026750692e-16 9.035927772521973
v 1.0554707050323486 -4.4135035528489544e-16 7.207798480987549
v 11.411151885986328 -4.040368334226694e-16 6.598422050476074
v 10.355681419372559 -5.159774254791271e-16 8.42655086517334
v 10.355680465698242 -4.4135032881511584e-16 7.207798004150391
v 12.466621398925781 -5.159774254791271e-16 8.42655086517334
v 11.411151885986328 -5.532908679320144e-16 9.03592586517334
v 12.466622352600098 -4.4135030234533623e-16 7.207797527313232
v 13.691960334777832 -4.040368334226694e-16 6.598422050476074
v 12.636489868164062 -5.159773725395679e-16 8.426549911499023
v 12.636489868164062 -4.4135032881511584e-16 7.207798004150391
v 14.747431755065918 -5.159773725395679e-16 8.426549911499023
v 13.691960334777832 -5.532908679320144e-16 9.03592586517334
v 14.747430801391602 -4.4135032881511584e-16 7.207798004150391
v 15.971628189086914 -4.040368334226694e-16 6.598422050476074
v 14.916156768798828 -5.159774254791271e-16 8.42655086517334
v 14.916156768798828 -4.4135032881511584e-16 7.207798004150391
v 17.027097702026367 -5.159774254791271e-16 8.42655086517334
v 15.971628189086914 -5.532909208715736e-16 9.035926818847656
v 17.027099609375 -4.4135030234533623e-16 7.207797527313232
v -18.255876541137695 -4.040369128320082e-16 6.598423480987549
v -19.31134605407715 -5.159775313582455e-16 8.426552772521973
v -19.31134605407715 -4.4135040822445464e-16 7.207798957824707
v -17.20040512084961 -5.159775313582455e-16 8.426552772521973
v -18.255876541137695 -5.532910796902512e-16 9.035928726196289
v -17.20040512084961 -4.4135046116401384e-16 7.207799911499023
v -15.97620964050293 -4.040368863622286e-16 6.598423004150391
v -17.031681060791016 -5.159775313582455e-16 8.426552772521973
v -17.031679153442383 -4.4135046116401384e-16 7.207799911499023
v -14.920738220214844 -5.159774784186863e-16 8.426551818847656
v -15.97620964050293 -5.53291026750692e-16 9.035927772521973
v -14.920738220214844 -4.4135043469423424e-16 7.207799434661865
v -13.695398330688477 -4.04036859892449e-16 6.598422527313232
v -14.750871658325195 -5.159774784186863e-16 8.426551818847656
v -14.750869750976562 -4.4135046116401384e-16 7.207799911499023
v -12.639927864074707 -5.159774254791271e-16 8.42655086517334
v -13.695398330688477 -5.53291026750692e-16 9.035927772521973
v -12.639927864074707 -4.4135040822445464e-16 7.207798957824707
v -11.415732383728027 -4.040368863622286e-16 6.598423004150391
v -12.47120475769043 -5.159774254791271e-16 8.42655086517334
v -12.47120475769043 -4.4135040822445464e-16 7.207798957824707
v -10.360261917114258 -5.159774784186863e-16 8.426551818847656
v -11.415732383728027 -5.53291026750692e-16 9.035927772521973
v -10.360260963439941 -4.4135035528489544e-16 7.207798480987549
v -9.12439250946045 -4.040369128320082e-16 6.598423480987549
v -10.179863929748535 -5.159774254791271e-16 8.42655086517334
v -10.179863929748535 -4.4135046116401384e-16 7.207799911499023
v -8.068921089172363 -5.159774784186863e-16 8.426551818847656
v -9.12439250946045 -5.53291026750692e-16 9.035927772521973
v -8.06892204284668 -4.4135043469423424e-16 7.207799434661865
v -2.284247875213623 -4.040368334226694e-16 6.598422050476074
v -3.339718818664551 -5.159774254791271e-16 8.42655086517334
v -3.339719295501709 -4.4135040822445464e-16 7.207798957824707
v -1.2287782430648804 -5.159774254791271e-16 8.42655086517334
v -2.2842471599578857 -5.532909208715736e-16 9.035926818847656
v -1.228777527809143 -4.4135035528489544e-16 7.207798480987549
v 18.249977111816406 -4.040367540133306e-16 6.598421096801758
v 17.194501876831055 -5.159773725395679e-16 8.426549911499023
v 17.194507598876953 -4.4135035528489544e-16 7.207798480987549
v 19.305444717407227 -5.159773725395679e-16 8.426549911499023
v 18.249977111816406 -5.532908679320144e-16 9.03592586517334
v 19.305448532104492 -4.4135027587555663e-16 7.207797050476074
v -1.1445600986480713 -2.8496123286523547e-16 4.6537699699401855
v -2.2000298500061035 -3.969018513914728e-16 6.481899261474609
v -2.2000300884246826 -3.222747811972411e-16 5.26314640045166
v -0.0890890583395958 -3.969018513914728e-16 6.481899261474609
v -1.144559383392334 -4.3421537325369884e-16 7.091275215148926
v -0.0890890583395958 -3.222747811972411e-16 5.26314640045166
v 12.547399520874023 -2.849612593350151e-16 4.653770446777344
v 11.491929054260254 -3.969017984519136e-16 6.481898307800293
v 11.491929054260254 -3.222747282576819e-16 5.263145923614502
v 13.60287094116211 -3.969018249216932e-16 6.481898784637451
v 12.547399520874023 -4.3421542619325804e-16 7.091276168823242
v 13.602869033813477 -3.222747282576819e-16 5.263145923614502
v 14.827064514160156 -2.849612858047947e-16 4.653770923614502
v 13.771595001220703 -3.969018513914728e-16 6.481899261474609
v 13.771596908569336 -3.222747282576819e-16 5.263145923614502
v 15.882535934448242 -3.969018513914728e-16 6.481899261474609
v 14.827066421508789 -4.3421532031413964e-16 7.091274261474609
v 15.882539749145508 -3.222746753181227e-16 5.2631449699401855
v -17.120771408081055 -2.849613122745743e-16 4.65377140045166
v -18.176239013671875 -3.969019837403708e-16 6.481901168823242
v -18.176239013671875 -3.222748870763595e-16 5.263148307800293
v -16.065298080444336 -3.969019837403708e-16 6.481901168823242
v -17.120769500732422 -4.3421553207237645e-16 7.091277599334717
v -16.06529998779297 -3.2227491354613912e-16 5.263148784637451
v -14.839958190917969 -2.849612858047947e-16 4.653770923614502
v -15.89543342590332 -3.96901904331032e-16 6.481900215148926
v -15.895431518554688 -3.222748606065799e-16 5.263147830963135
v -13.784489631652832 -3.969018513914728e-16 6.481899261474609
v -14.839957237243652 -4.3421539972347844e-16 7.091275691986084
v -13.784488677978516 -3.222748606065799e-16 5.263147830963135
v -12.560293197631836 -2.849613652141335e-16 4.653772354125977
v -13.615764617919922 -3.96901904331032e-16 6.481900215148926
v -13.615764617919922 -3.222748870763595e-16 5.263148307800293
v -11.50482177734375 -3.969018513914728e-16 6.481899261474609
v -12.560293197631836 -4.3421539972347844e-16 7.091275691986084
v -11.50482177734375 -3.222748606065799e-16 5.263147830963135
v -10.268950462341309 -2.849613652141335e-16 4.653772354125977
v -11.324422836303711 -3.969018513914728e-16 6.481899261474609
v -11.324421882629395 -3.2227491354613912e-16 5.263148784637451
v -9.213479995727539 -3.969018513914728e-16 6.481899261474609
v -10.268950462341309 -4.3421545266303764e-16 7.0912766456604
v -9.213480949401855 -3.222748341368003e-16 5.263147354125977
v -7.989283561706543 -2.849613122745743e-16 4.65377140045166
v -9.044754981994629 -3.96901904331032e-16 6.481900215148926
v -9.044755935668945 -3.222748341368003e-16 5.263147354125977
v -6.93381404876709 -3.96901904331032e-16 6.481900215148926
v -7.989283084869385 -4.3421537325369884e-16 7.091275215148926
v -6.933813571929932 -3.222748341368003e-16 5.263147354125977
v -3.428807497024536 -2.849612593350151e-16 4.653770446777344
v -4.484279155731201 -3.969018513914728e-16 6.481899261474609
v -4.484279155731201 -3.222748076670207e-16 5.263146877288818
v -2.373337745666504 -3.969018513914728e-16 6.481899261474609
v -3.428806781768799 -4.3421532031413964e-16 7.091274261474609
v -2.3733367919921875 -3.222748076670207e-16 5.263146877288818
v 17.10541343688965 -2.849612593350151e-16 4.653770446777344
v 16.049943923950195 -3.969017455123544e-16 6.481897354125977
v 16.049943923950195 -3.222747811972411e-16 5.26314640045166
v 18.1608829498291 -3.969018249216932e-16 6.481898784637451
v 17.105417251586914 -4.3421537325369884e-16 7.091275215148926
v 18.160888671875 -3.222747282576819e-16 5.263145923614502
v -5.435151138044603e-07 3.1278809159733176e-16 -5.108217239379883
v -1.0554707050323486 2.0084753924554344e-16 -3.2800891399383545
v -1.0554713010787964 2.754745697351057e-16 -4.498841285705566
v 1.0554699897766113 2.0084753924554344e-16 -3.2800891399383545
v -2.7175755690223014e-07 1.635340173833174e-16 -2.670713186264038
v 1.0554699897766113 2.754745697351057e-16 -4.498841285705566
v 2.279667615890503 3.1278809159733176e-16 -5.108217239379883
v 1.2241965532302856 2.0084753924554344e-16 -3.2800891399383545
v 1.2241963148117065 2.754745697351057e-16 -4.498841285705566
v 3.3351378440856934 2.0084753924554344e-16 -3.2800891399383545
v 2.279667377471924 1.635340173833174e-16 -2.670713186264038
v 3.3351378440856934 2.754745697351057e-16 -4.498841285705566
v 4.5604753494262695 3.1278814453689096e-16 -5.108218193054199
v 3.5050058364868164 2.0084753924554344e-16 -3.2800891399383545
v 3.5050058364868164 2.754745697351057e-16 -4.498841285705566
v 5.6159467697143555 2.0084753924554344e-16 -3.2800891399383545
v 4.560476779937744 1.635340173833174e-16 -2.670713186264038
v 5.615945816040039 2.754745697351057e-16 -4.498841285705566
v 6.84014368057251 3.1278809159733176e-16 -5.108217239379883
v 5.784673690795898 2.0084756571532304e-16 -3.2800896167755127
v 5.784673690795898 2.754745697351057e-16 -4.498841285705566
v 7.895614147186279 2.0084753924554344e-16 -3.2800891399383545
v 6.840144157409668 1.63534043853097e-16 -2.6707136631011963
v 7.8956146240234375 2.754746491444445e-16 -4.498842239379883
v 9.13148307800293 3.1278809159733176e-16 -5.108217239379883
v 8.076013565063477 2.0084756571532304e-16 -3.2800896167755127
v 8.076013565063477 2.754745697351057e-16 -4.498841285705566
v 10.1869535446167 2.0084753924554344e-16 -3.2800891399383545
v 9.131484031677246 1.635340173833174e-16 -2.670713186264038
v 10.186956405639648 2.754745697351057e-16 -4.498841285705566
v 11.411151885986328 3.1278814453689096e-16 -5.108218193054199
v 10.355680465698242 2.0084756571532304e-16 -3.2800896167755127
v 10.355680465698242 2.754745697351057e-16 -4.498841285705566
v 12.466621398925781 2.0084756571532304e-16 -3.2800896167755127
v 11.411151885986328 1.63534043853097e-16 -2.6707136631011963
v 12.466621398925781 2.7547470208400373e-16 -4.498843193054199
v 13.6919584274292 3.1278814453689096e-16 -5.108218193054199
v 12.636489868164062 2.0084756571532304e-16 -3.2800896167755127
v 12.63648796081543 2.754746491444445e-16 -4.498842239379883
v 14.747431755065918 2.0084764512466184e-16 -3.2800910472869873
v 13.6919584274292 1.63534043853097e-16 -2.6707136631011963
v 14.747428894042969 2.754745697351057e-16 -4.498841285705566
v 15.971625328063965 3.1278814453689096e-16 -5.108218193054199
v 14.916156768798828 2.0084759218510264e-16 -3.280090093612671
v 14.916157722473145 2.754746491444445e-16 -4.498842239379883
v 17.027095794677734 2.0084753924554344e-16 -3.2800891399383545
v 15.971628189086914 1.635340703228766e-16 -2.6707141399383545
v 17.027099609375 2.7547470208400373e-16 -4.498843193054199
v -18.255876541137695 3.1278803865777255e-16 -5.108216285705566
v -19.31134796142578 2.0084735395708623e-16 -3.2800862789154053
v -19.31134796142578 2.754745167955465e-16 -4.49884033203125
v -17.20040512084961 2.0084747307109443e-16 -3.280088186264038
v -18.255876541137695 1.635339909135378e-16 -2.67071270942688
v -17.200407028198242 2.754744638559873e-16 -4.498839378356934
v -15.976210594177246 3.1278803865777255e-16 -5.108216285705566
v -17.031681060791016 2.0084749954087404e-16 -3.2800886631011963
v -17.031679153442383 2.754745697351057e-16 -4.498841285705566
v -14.92073917388916 2.0084753924554344e-16 -3.2800891399383545
v -15.976210594177246 1.635339909135378e-16 -2.67071270942688
v -14.920740127563477 2.754745697351057e-16 -4.498841285705566
v -13.695399284362793 3.1278803865777255e-16 -5.108216285705566
v -14.750871658325195 2.0084749954087404e-16 -3.2800886631011963
v -14.750870704650879 2.754745167955465e-16 -4.49884033203125
v -12.639928817749023 2.0084749954087404e-16 -3.2800886631011963
v -13.695398330688477 1.635339909135378e-16 -2.67071270942688
v -12.639928817749023 2.754745697351057e-16 -4.498841285705566
v -11.41573429107666 3.1278803865777255e-16 -5.108216285705566
v -12.471205711364746 2.0084749954087404e-16 -3.2800886631011963
v -12.471205711364746 2.754745697351057e-16 -4.498841285705566
v -10.360261917114258 2.0084753924554344e-16 -3.2800891399383545
v -11.415732383728027 1.635340173833174e-16 -2.670713186264038
v -10.360261917114258 2.754745697351057e-16 -4.498841285705566
v -2.2842483520507812 3.1278803865777255e-16 -5.108216285705566
v -3.3397200107574463 2.0084749954087404e-16 -3.2800886631011963
v -3.339719772338867 2.754745167955465e-16 -4.49884033203125
v -1.2287790775299072 2.0084749954087404e-16 -3.2800886631011963
v -2.2842483520507812 1.635340173833174e-16 -2.670713186264038
v -1.2287781238555908 2.754745697351057e-16 -4.498841285705566
v 18.249975204467773 3.1278809159733176e-16 -5.108217239379883
v 17.194503784179688 2.0084764512466184e-16 -3.2800910472869873
v 17.194503784179688 2.754745697351057e-16 -4.498841285705566
v 19.305444717407227 2.0084759218510264e-16 -3.280090093612671
v 18.249977111816406 1.63534043853097e-16 -2.6707136631011963
v 19.305450439453125 2.754746491444445e-16 -4.498842239379883
v -1.1445599794387817 4.318637186245453e-16 -7.05286979675293
v -2.2000303268432617 3.1992304715874875e-16 -5.224740028381348
v -2.200031280517578 3.9455019676231924e-16 -6.443493843078613
v -0.08908973634243011 3.1992304715874875e-16 -5.224740028381348
v -1.1445599794387817 2.826095517663023e-16 -4.615364074707031
v -0.08908946812152863 3.9455019676231924e-16 -6.443493843078613
v 1.1351079940795898 4.318637186245453e-16 -7.05286979675293
v 0.07963692396879196 3.1992304715874875e-16 -5.224740028381348
v 0.07963692396879196 3.9455014382276004e-16 -6.443492889404297
v 2.1905782222747803 3.1992304715874875e-16 -5.224740028381348
v 1.1351076364517212 2.826096047058615e-16 -4.615365028381348
v 2.190577983856201 3.9455019676231924e-16 -6.443493843078613
v 3.4159159660339355 4.318637186245453e-16 -7.05286979675293
v 2.360445976257324 3.1992304715874875e-16 -5.224740028381348
v 2.360445976257324 3.9455019676231924e-16 -6.443493843078613
v 4.471386909484863 3.1992317950764676e-16 -5.2247419357299805
v 3.4159159660339355 2.826096047058615e-16 -4.615365028381348
v 4.471385955810547 3.9455014382276004e-16 -6.443492889404297
v 5.695582866668701 4.318636656849861e-16 -7.052868843078613
v 4.640113353729248 3.1992317950764676e-16 -5.2247419357299805
v 4.640112400054932 3.9455027617165805e-16 -6.44349479675293
v 6.751053333282471 3.1992317950764676e-16 -5.2247419357299805
v 5.695583820343018 2.826096576454207e-16 -4.615365982055664
v 6.751053333282471 3.9455019676231924e-16 -6.443493843078613
v 12.547398567199707 4.318637186245453e-16 -7.05286979675293
v 11.491928100585938 3.1992317950764676e-16 -5.2247419357299805
v 11.491928100585938 3.9455027617165805e-16 -6.44349479675293
v 13.602869987487793 3.1992317950764676e-16 -5.2247419357299805
v 12.547399520874023 2.826095517663023e-16 -4.615364074707031
v 13.602869033813477 3.9455019676231924e-16 -6.443493843078613
v 14.827065467834473 4.318637186245453e-16 -7.05286979675293
v 13.771595001220703 3.1992317950764676e-16 -5.2247419357299805
v 13.77159595489502 3.9455027617165805e-16 -6.44349479675293
v 15.882536888122559 3.1992317950764676e-16 -5.2247419357299805
v 14.827067375183105 2.826096047058615e-16 -4.615365028381348
v 15.882538795471191 3.9455027617165805e-16 -6.44349479675293
v -17.120771408081055 4.318636656849861e-16 -7.052868843078613
v -18.176240921020508 3.1992304715874875e-16 -5.224740028381348
v -18.176239013671875 3.9455014382276004e-16 -6.443492889404297
v -16.065298080444336 3.1992304715874875e-16 -5.224740028381348
v -17.120769500732422 2.826094194174043e-16 -4.615362167358398
v -16.06529998779297 3.9455014382276004e-16 -6.443492889404297
v -14.839959144592285 4.318637186245453e-16 -7.05286979675293
v -15.895432472229004 3.1992304715874875e-16 -5.224740028381348
v -15.895431518554688 3.9455014382276004e-16 -6.443492889404297
v -13.784488677978516 3.1992304715874875e-16 -5.224740028381348
v -14.839958190917969 2.826095517663023e-16 -4.615364074707031
v -13.784488677978516 3.9455014382276004e-16 -6.443492889404297
v 17.10541343688965 4.318636656849861e-16 -7.052868843078613
v 16.049942016601562 3.1992323244720597e-16 -5.224742889404297
v 16.049943923950195 3.9455019676231924e-16 -6.443493843078613
v 18.1608829498291 3.1992323244720597e-16 -5.224742889404297
v 17.10541534423828 2.826096576454207e-16 -4.615365982055664
v 18.160888671875 3.9455027617165805e-16 -6.44349479675293
v -5.435151138044603e-07 7.355081557307159e-17 -1.2011759281158447
v -1.055470585823059 -3.8389793026998386e-17 0.6269528865814209
v -1.0554709434509277 3.6237267241065945e-17 -0.5917994976043701
v 1.0554702281951904 -3.8389793026998386e-17 0.6269528865814209
v 1.3587877845111507e-07 -7.570330496305708e-17 1.2363288402557373
v 1.0554701089859009 3.6237297019568e-17 -0.5917999744415283
v 2.2796671390533447 7.355084204285119e-17 -1.201176404953003
v 1.2241965532302856 -3.8389793026998386e-17 0.6269528865814209
v 1.2241970300674438 3.6237297019568e-17 -0.5917999744415283
v 3.3351380825042725 -3.8389793026998386e-17 0.6269528865814209
v 2.279667377471924 -7.570333805028158e-17 1.2363293170928955
v 3.3351380825042725 3.6237297019568e-17 -0.5917999744415283
v 11.411150932312012 7.355084204285119e-17 -1.201176404953003
v 10.355679512023926 -3.838972023510448e-17 0.6269516944885254
v 10.355679512023926 3.6237297019568e-17 -0.5917999744415283
v 12.466621398925781 -3.838970369149223e-17 0.6269514560699463
v 11.411151885986328 -7.570320570138357e-17 1.2363271713256836
v 12.466620445251465 3.623738635507415e-17 -0.5918014049530029
v -18.255876541137695 7.355084204285119e-17 -1.201176404953003
v -19.31134605407715 -3.838982280550044e-17 0.6269533634185791
v -19.31134605407715 3.623732679807005e-17 -0.5918004512786865
v -17.200403213500977 -3.838982280550044e-17 0.6269533634185791
v -18.255876541137695 -7.570337775495098e-17 1.2363300323486328
v -17.20040512084961 3.623721099278429e-17 -0.5917985439300537
v -15.97620964050293 7.355078248584709e-17 -1.2011754512786865
v -17.031681060791016 -3.838989559739434e-17 0.6269545555114746
v -17.031679153442383 3.623721099278429e-17 -0.5917985439300537
v -14.920738220214844 -3.838986581889229e-17 0.6269540786743164
v -15.976208686828613 -7.570332481539178e-17 1.2363290786743164
v -14.920738220214844 3.623721099278429e-17 -0.5917985439300537
v -11.415732383728027 7.355075601606748e-17 -1.2011749744415283
v -12.47120475769043 -3.838972023510448e-17 0.6269516944885254
v -12.47120475769043 3.6237267241065945e-17 -0.5917994976043701
v -10.360261917114258 -3.838986581889229e-17 0.6269540786743164
v -11.415732383728027 -7.570337775495098e-17 1.2363300323486328
v -10.360260963439941 3.6237297019568e-17 -0.5917999744415283
v -9.12439250946045 7.355078248584709e-17 -1.2011754512786865
v -10.179863929748535 -3.838982280550044e-17 0.6269533634185791
v -10.179863929748535 3.623721099278429e-17 -0.5917985439300537
v -8.06892204284668 -3.838980626188819e-17 0.626953125
v -9.12439250946045 -7.570336452006118e-17 1.2363297939300537
v -8.06892204284668 3.623721099278429e-17 -0.5917985439300537
v -6.844725131988525 7.355078248584709e-17 -1.2011754512786865
v -7.900195121765137 -3.8389793026998386e-17 0.6269528865814209
v -7.900196075439453 3.6237267241065945e-17 -0.5917994976043701
v -5.789255619049072 -3.8389793026998386e-17 0.6269528865814209
v -6.844724655151367 -7.570330496305708e-17 1.2363288402557373
v -5.789254188537598 3.6237297019568e-17 -0.5917999744415283
v -4.563919544219971 7.355081557307159e-17 -1.2011759281158447
v -5.619388580322266 -3.838969045660243e-17 0.6269512176513672
v -5.619388103485107 3.6237267241065945e-17 -0.5917994976043701
v -3.5084471702575684 -3.838970369149223e-17 0.6269514560699463
v -4.563919544219971 -7.570323217116317e-17 1.2363276481628418
v -3.5084471702575684 3.623721099278429e-17 -0.5917985439300537
v -2.284247875213623 7.355081557307159e-17 -1.2011759281158447
v -3.339718818664551 -3.838983604039024e-17 0.6269536018371582
v -3.339719772338867 3.6237237462563893e-17 -0.5917990207672119
v -1.2287784814834595 -3.838986581889229e-17 0.6269540786743164
v -2.284247875213623 -7.570327849327747e-17 1.236328363418579
v -1.2287781238555908 3.6237297019568e-17 -0.5917999744415283
v -1.1445600986480713 1.926264359828402e-16 -3.1458284854888916
v -2.2000303268432617 8.068586377871719e-17 -1.3177001476287842
v -2.2000303268432617 1.5531292735550397e-16 -2.536452531814575
v -0.08908932656049728 8.068580422171309e-17 -1.3176991939544678
v -1.1445599794387817 4.3372318755434e-17 -0.7083237171173096
v -0.08908973634243011 1.5531292735550397e-16 -2.536452531814575
v 1.1351076364517212 1.926264359828402e-16 -3.1458284854888916
v 0.07963719218969345 8.068583730893759e-17 -1.317699670791626
v 0.07963719218969345 1.5531292735550397e-16 -2.536452531814575
v 2.1905782222747803 8.068583730893759e-17 -1.317699670791626
v 1.1351076364517212 4.3372318755434e-17 -0.7083237171173096
v 2.1905784606933594 1.5531292735550397e-16 -2.536452531814575
v 3.4159159660339355 1.926264095130606e-16 -3.1458280086517334
v 2.360445976257324 8.068589024849679e-17 -1.3177006244659424
v 2.3604462146759033 1.5531292735550397e-16 -2.536452531814575
v 4.471386909484863 8.068583730893759e-17 -1.317699670791626
v 3.4159164428710938 4.337234853393605e-17 -0.7083241939544678
v 4.471386432647705 1.5531286118105497e-16 -2.536451578140259
v 10.266589164733887 1.926264095130606e-16 -3.1458280086517334
v 9.211121559143066 8.068586377871719e-17 -1.3177001476287842
v 9.211118698120117 1.5531286118105497e-16 -2.536451578140259
v 11.322061538696289 8.068586377871719e-17 -1.3177001476287842
v 10.26659107208252 4.337234853393605e-17 -0.7083241939544678
v 11.322061538696289 1.5531292735550397e-16 -2.536452531814575
v 12.547398567199707 1.926264095130606e-16 -3.1458280086517334
v 11.491927146911621 8.068583730893759e-17 -1.317699670791626
v 11.491928100585938 1.5531286118105497e-16 -2.536451578140259
v 13.602869033813477 8.068583730893759e-17 -1.317699670791626
v 12.547399520874023 4.337217317164619e-17 -0.7083213329315186
v 13.60286808013916 1.5531295382528357e-16 -2.5364530086517334
v -17.120771408081055 1.926264095130606e-16 -3.1458280086517334
v -18.176240921020508 8.068577775193348e-17 -1.3176987171173096
v -18.176240921020508 1.5531278177171616e-16 -2.536450147628784
v -16.065298080444336 8.068571819492938e-17 -1.3176977634429932
v -17.120769500732422 4.337214339314414e-17 -0.7083208560943604
v -16.06529998779297 1.5531278177171616e-16 -2.536450147628784
v -12.560293197631836 1.926263565735014e-16 -3.145827054977417
v -13.615764617919922 8.068580422171309e-17 -1.3176991939544678
v -13.615764617919922 1.5531283471127537e-16 -2.5364511013031006
v -11.504819869995117 8.068586377871719e-17 -1.3177001476287842
v -12.56029224395752 4.3372318755434e-17 -0.7083237171173096
v -11.50482177734375 1.5531286118105497e-16 -2.536451578140259
v -10.268949508666992 1.926262639292728e-16 -3.1458256244659424
v -11.324424743652344 8.068577775193348e-17 -1.3176987171173096
v -11.324421882629395 1.5531280824149576e-16 -2.5364506244659424
v -9.213480949401855 8.068580422171309e-17 -1.3176991939544678
v -10.268950462341309 4.337222941992784e-17 -0.708322286605835
v -9.213481903076172 1.5531286118105497e-16 -2.536451578140259
v -7.989284038543701 1.926263565735014e-16 -3.145827054977417
v -9.044754981994629 8.068577775193348e-17 -1.3176987171173096
v -9.044755935668945 1.5531283471127537e-16 -2.5364511013031006
v -6.933814525604248 8.068571819492938e-17 -1.3176977634429932
v -7.989283561706543 4.337222941992784e-17 -0.708322286605835
v -6.933813571929932 1.5531283471127537e-16 -2.5364511013031006
v -3.428807497024536 1.92626383043281e-16 -3.145827531814575
v -4.484279155731201 8.068583730893759e-17 -1.317699670791626
v -4.484279632568359 1.5531286118105497e-16 -2.536451578140259
v -2.373337745666504 8.068583730893759e-17 -1.317699670791626
v -3.428807020187378 4.3372404782217704e-17 -0.7083251476287842
v -2.3733367919921875 1.5531286118105497e-16 -2.536451578140259
v -5.435151138044603e-07 5.532908679320144e-16 -9.03592586517334
v -1.0554713010787964 4.4135046116401384e-16 -7.207799911499023
v -1.0554707050323486 5.159773725395679e-16 -8.426549911499023
v 1.0554696321487427 4.4135040822445464e-16 -7.207798957824707
v -5.435151138044603e-07 4.040368863622286e-16 -6.598423004150391
v 1.0554693937301636 5.159774784186863e-16 -8.426551818847656
v 2.2796671390533447 5.532909208715736e-16 -9.035926818847656
v 1.2241963148117065 4.4135040822445464e-16 -7.207798957824707
v 1.2241960763931274 5.159774784186863e-16 -8.426551818847656
v 3.335137367248535 4.4135040822445464e-16 -7.207798957824707
v 2.279667377471924 4.040368863622286e-16 -6.598423004150391
v 3.335137367248535 5.159774254791271e-16 -8.42655086517334
v 4.560474395751953 5.532909208715736e-16 -9.035926818847656
v 3.505005359649658 4.4135040822445464e-16 -7.207798957824707
v 3.505005359649658 5.159774254791271e-16 -8.42655086517334
v 5.615944862365723 4.4135040822445464e-16 -7.207798957824707
v 4.560476303100586 4.040368863622286e-16 -6.598423004150391
v 5.615944862365723 5.159774254791271e-16 -8.42655086517334
v 6.840143203735352 5.532909208715736e-16 -9.035926818847656
v 5.784672737121582 4.4135046116401384e-16 -7.207799911499023
v 5.784673690795898 5.159774254791271e-16 -8.42655086517334
v 7.895613670349121 4.4135040822445464e-16 -7.207798957824707
v 6.840144157409668 4.040368863622286e-16 -6.598423004150391
v 7.895614147186279 5.159774254791271e-16 -8.42655086517334
v 13.691956520080566 5.532909208715736e-16 -9.035926818847656
v 12.636489868164062 4.4135040822445464e-16 -7.207798957824707
v 12.636487007141113 5.159774254791271e-16 -8.42655086517334
v 14.747431755065918 4.4135051410357305e-16 -7.20780086517334
v 13.691957473754883 4.040368863622286e-16 -6.598423004150391
v 14.747426986694336 5.159774254791271e-16 -8.42655086517334
v 15.971625328063965 5.53291026750692e-16 -9.035927772521973
v 14.916154861450195 4.4135040822445464e-16 -7.207798957824707
v 14.916154861450195 5.159774254791271e-16 -8.42655086517334
v 17.0270938873291 4.4135032881511584e-16 -7.207798004150391
v 15.971627235412598 4.040369393017878e-16 -6.598423957824707
v 17.027099609375 5.159775313582455e-16 -8.426552772521973
v -18.255876541137695 5.532909208715736e-16 -9.035926818847656
v -19.31134796142578 4.4135027587555663e-16 -7.207797050476074
v -19.31134796142578 5.159773725395679e-16 -8.426549911499023
v -17.20040512084961 4.4135040822445464e-16 -7.207798957824707
v -18.255876541137695 4.040368863622286e-16 -6.598423004150391
v -17.20040512084961 5.159773725395679e-16 -8.426549911499023
v -15.976210594177246 5.532908149924552e-16 -9.035924911499023
v -17.031679153442383 4.4135032881511584e-16 -7.207798004150391
v -17.031679153442383 5.159773725395679e-16 -8.426549911499023
v -14.92073917388916 4.4135032881511584e-16 -7.207798004150391
v -15.97620964050293 4.040367010737714e-16 -6.598420143127441
v -14.920740127563477 5.159774254791271e-16 -8.42655086517334
v -13.69540023803711 5.532909208715736e-16 -9.035926818847656
v -14.750871658325195 4.4135040822445464e-16 -7.207798957824707
v -14.750871658325195 5.159773725395679e-16 -8.426549911499023
v -12.639928817749023 4.4135040822445464e-16 -7.207798957824707
v -13.695399284362793 4.040368863622286e-16 -6.598423004150391
v -12.639928817749023 5.159774254791271e-16 -8.42655086517334
v -6.844725131988525 5.532909208715736e-16 -9.035926818847656
v -7.900196075439453 4.4135040822445464e-16 -7.207798957824707
v -7.900196075439453 5.159773725395679e-16 -8.426549911499023
v -5.789255619049072 4.4135032881511584e-16 -7.207798004150391
v -6.844725131988525 4.040367540133306e-16 -6.598421096801758
v -5.789254665374756 5.159774254791271e-16 -8.42655086517334
v 18.249975204467773 5.532909208715736e-16 -9.035926818847656
v 17.194503784179688 4.4135046116401384e-16 -7.207799911499023
v 17.19450569152832 5.159774254791271e-16 -8.42655086517334
v 19.305444717407227 4.4135046116401384e-16 -7.207799911499023
v 18.24997901916504 4.040368863622286e-16 -6.598423004150391
v 19.305450439453125 5.159774784186863e-16 -8.426551818847656
vn -0.0 1.0 0.0
vn -0.0 1.0 0.0
vn -0.0 1.0 0.0
vn -0.0 1.0 0.0
vn -0.0 1.0 0.0
vn -0.0 1.0 0.0
vn -0.0 1.0 0.0
vn -0.0 1.0 0.0
vn -0.0 1.0 0.0
vn -0.0 1.0 0.0
vn -0.0 1.0 0.0
vn -0.0 1.0 0.0
vn -0.0 1.0 0.0
vn -0.0 1.0 0.0
vn -0.0 1.0 0.0
vn -0.0 1.0 0.0
vn -0.0 1.0 0.0
vn -0.0 1.0 0.0
vn -0.0 1.0 0.0
vn -0.0 1.0 0.0
vn -0.0 1.0 0.0
vn -0.0 1.0 0.0
vn -0.0 1.0 0.0
vn -0.0 1.0 0.0
vn -0.0 1.0 0.0
vn -0.0 1.0 0.0
vn -0.0 1.0 0.0
vn -0.0 1.0 0.0
vn -0.0 1.0 0.0
vn -0.0 1.0 0.0
vn -0.0 1.0 0.0
vn -0.0 1.0 0.0
vn -0.0 1.0 0.0
vn -0.0 1.0 0.0
vn -0.0 1.0 0.0
vn -0.0 1.0 0.0
vn -0.0 1.0 0.0
vn -0.0 1.0 0.0
vn -0.0 1.0 0.0
vn -0.0 1.0 0.0
vn -0.0 1.0 0.0
vn -0.0 1.0 0.0
vn -0.0 1.0 0.0
vn -0.0 1.0 0.0
vn -0.0 1.0 0.0
vn -0.0 1.0 0.0
vn -0.0 1.0 0.0
vn -0.0 1.0 0.0
vn -0.0 1.0 0.0
vn -0.0 1.0 0.0
vn -0.0 1.0 0.0
vn -0.0 1.0 0.0
vn -0.0 1.0 0.0
vn -0.0 1.0 0.0
vn -0.0 1.0 0.0
vn -0.0 1.0 0.0
vn -0.0 1.0 0.0
vn -0.0 1.0 0.0
vn -0.0 1.0 0.0
vn -0.0 1.0 0.0
vn -0.0 1.0 0.0
vn -0.0 1.0 0.0
vn -0.0 1.0 0.0
vn -0.0 1.0 0.0
vn -0.0 1.0 0.0
vn -0.0 1.0 0.0
vn -0.0 1.0 0.0
vn -0.0 1.0 0.0
vn -0.0 1.0 0.0
vn -0.0 1.0 0.0
vn -0.0 1.0 0.0
vn -0.0 1.0 0.0
vn -0.0 1.0 0.0
vn -0.0 1.0 0.0
vn -0.0 1.0 0.0
vn -0.0 1.0 0.0
vn -0.0 1.0 0.0
vn -0.0 1.0 0.0
vn -0.0 1.0 0.0
vn -0.0 1.0 0.0
vn -0.0 1.0 0.0
vn -0.0 1.0 0.0
vn -0.0 1.0 0.0
vn -0.0 1.0 0.0
vn -0.0 1.0 0.0
vn -0.0 1.0 0.0
vn -0.0 1.0 0.0
vn -0.0 1.0 0.0
vn -0.0 1.0 0.0
vn -0.0 1.0 0.0
vn -0.0 1.0 0.0
vn -0.0 1.0 0.0
vn -0.0 1.0 0.0
vn -0.0 1.0 0.0
vn -0.0 1.0 0.0
vn -0.0 1.0 0.0
vn -0.0 1.0 0.0
vn -0.0 1.0 0.0
vn -0.0 1.0 0.0
vn -0.0 1.0 0.0
vn -0.0 1.0 0.0
vn -0.0 1.0 0.0
vn -0.0 1.0 0.0
vn -0.0 1.0 0.0
vn -0.0 1.0 0.0
vn -0.0 1.0 0.0
vn -0.0 1.0 0.0
vn -0.0 1.0 0.0
vn -0.0 1.0 0.0
vn -0.0 1.0 0.0
vn -0.0 1.0 0.0
vn -0.0 1.0 0.0
vn -0.0 1.0 0.0
vn -0.0 1.0 0.0
vn -0.0 1.0 0.0
vn -0.0 1.0 0.0
vn -0.0 1.0 0.0
vn -0.0 1.0 0.0
vn -0.0 1.0 0.0
vn -0.0 1.0 0.0
vn -0.0 1.0 0.0
vn -0.0 1.0 0.0
vn -0.0 1.0 0.0
vn -0.0 1.0 0.0
vn -0.0 1.0 0.0
vn -0.0 1.0 0.0
vn -0.0 1.0 0.0
vn -0.0 1.0 0.0
vn -0.0 1.0 0.0
vn -0.0 1.0 0.0
vn -0.0 1.0 0.0
vn -0.0 1.0 0.0
vn -0.0 1.0 0.0
vn -0.0 1.0 0.0
vn -0.0 1.0 0.0
vn -0.0 1.0 0.0
vn -0.0 1.0 0.0
vn -0.0 1.0 0.0
vn -0.0 1.0 0.0
vn -0.0 1.0 0.0
vn -0.0 1.0 0.0
vn -0.0 1.0 0.0
vn -0.0 1.0 0.0
vn -0.0 1.0 0.0
vn -0.0 1.0 0.0
vn -0.0 1.0 0.0
vn -0.0 1.0 0.0
vn -0.0 1.0 0.0
vn -0.0 1.0 0.0
vn -0.0 1.0 0.0
vn -0.0 1.0 0.0
vn -0.0 1.0 0.0
vn -0.0 1.0 0.0
vn -0.0 1.0 0.0
vn -0.0 1.0 0.0
vn -0.0 1.0 0.0
vn -0.0 1.0 0.0
vn -0.0 1.0 0.0
vn -0.0 1.0 0.0
vn -0.0 1.0 0.0
vn -0.0 1.0 0.0
vn -0.0 1.0 0.0
vn -0.0 1.0 0.0
vn -0.0 1.0 0.0
vn -0.0 1.0 0.0
vn -0.0 1.0 0.0
vn -0.0 1.0 0.0
vn -0.0 1.0 0.0
vn -0.0 1.0 0.0
vn -0.0 1.0 0.0
vn -0.0 1.0 0.0
vn -0.0 1.0 0.0
vn -0.0 1.0 0.0
vn -0.0 1.0 0.0
vn -0.0 1.0 0.0
vn -0.0 1.0 0.0
vn -0.0 1.0 0.0
vn -0.0 1.0 0.0
vn -0.0 1.0 0.0
vn -0.0 1.0 0.0
vn -0.0 1.0 0.0
vn -0.0 1.0 0.0
vn -0.0 1.0 0.0
vn -0.0 1.0 0.0
vn -0.0 1.0 0.0
vn -0.0 1.0 0.0
vn -0.0 1.0 0.0
vn -0.0 1.0 0.0
vn -0.0 1.0 0.0
vn -0.0 1.0 0.0
vn -0.0 1.0 0.0
vn -0.0 1.0 0.0
vn -0.0 1.0 0.0
vn -0.0 1.0 0.0
vn -0.0 1.0 0.0
vn -0.0 1.0 0.0
vn -0.0 1.0 0.0
vn -0.0 1.0 0.0
vn -0.0 1.0 0.0
vn -0.0 1.0 0.0
vn -0.0 1.0 0.0
vn -0.0 1.0 0.0
vn -0.0 1.0 0.0
vn -0.0 1.0 0.0
vn -0.0 1.0 0.0
vn -0.0 1.0 0.0
vn -0.0 1.0 0.0
vn -0.0 1.0 0.0
vn -0.0 1.0 0.0
vn -0.0 1.0 0.0
vn -0.0 1.0 0.0
vn -0.0 1.0 0.0
vn -0.0 1.0 0.0
vn -0.0 1.0 0.0
vn -0.0 1.0 0.0
vn -0.0 1.0 0.0
vn -0.0 1.0 0.0
vn -0.0 1.0 0.0
vn -0.0 1.0 0.0
vn -0.0 1.0 0.0
vn -0.0 1.0 0.0
vn -0.0 1.0 0.0
vn -0.0 1.0 0.0
vn -0.0 1.0 0.0
vn -0.0 1.0 0.0
vn -0.0 1.0 0.0
vn -0.0 1.0 0.0
vn -0.0 1.0 0.0
vn -0.0 1.0 0.0
vn -0.0 1.0 0.0
vn -0.0 1.0 0.0
vn -0.0 1.0 0.0
vn -0.0 1.0 0.0
vn -0.0 1.0 0.0
vn -0.0 1.0 0.0
vn -0.0 1.0 0.0
vn -0.0 1.0 0.0
vn -0.0 1.0 0.0
vn -0.0 1.0 0.0
vn -0.0 1.0 0.0
vn -0.0 1.0 0.0
vn -0.0 1.0 0.0
vn -0.0 1.0 0.0
vn -0.0 1.0 0.0
vn -0.0 1.0 0.0
vn -0.0 1.0 0.0
vn -0.0 1.0 0.0
vn -0.0 1.0 0.0
vn -0.0 1.0 0.0
vn -0.0 1.0 0.0
vn -0.0 1.0 0.0
vn -0.0 1.0 0.0
vn -0.0 1.0 0.0
vn -0.0 1.0 0.0
vn -0.0 1.0 0.0
vn -0.0 1.0 0.0
vn -0.0 1.0 0.0
vn -0.0 1.0 0.0
vn -0.0 1.0 0.0
vn -0.0 1.0 0.0
vn -0.0 1.0 0.0
vn -0.0 1.0 0.0
vn -0.0 1.0 0.0
vn -0.0 1.0 0.0
vn -0.0 1.0 0.0
vn -0.0 1.0 0.0
vn -0.0 1.0 0.0
vn -0.0 1.0 0.0
vn -0.0 1.0 0.0
vn -0.0 1.0 0.0
vn -0.0 1.0 0.0
vn -0.0 1.0 0.0
vn -0.0 1.0 0.0
vn -0.0 1.0 0.0
vn -0.0 1.0 0.0
vn -0.0 1.0 0.0
vn -0.0 1.0 0.0
vn -0.0 1.0 0.0
vn -0.0 1.0 0.0
vn -0.0 1.0 0.0
vn -0.0 1.0 0.0
vn -0.0 1.0 0.0
vn -0.0 1.0 0.0
vn -0.0 1.0 0.0
vn -0.0 1.0 0.0
vn -0.0 1.0 0.0
vn -0.0 1.0 0.0
vn -0.0 1.0 0.0
vn -0.0 1.0 0.0
vn -0.0 1.0 0.0
vn -0.0 1.0 0.0
vn -0.0 1.0 0.0
vn -0.0 1.0 0.0
vn -0.0 1.0 0.0
vn -0.0 1.0 0.0
vn -0.0 1.0 0.0
vn -0.0 1.0 0.0
vn -0.0 1.0 0.0
vn -0.0 1.0 0.0
vn -0.0 1.0 0.0
vn -0.0 1.0 0.0
vn -0.0 1.0 0.0
vn -0.0 1.0 0.0
vn -0.0 1.0 0.0
vn -0.0 1.0 0.0
vn -0.0 1.0 0.0
vn -0.0 1.0 0.0
vn -0.0 1.0 0.0
vn -0.0 1.0 0.0
vn -0.0 1.0 0.0
vn -0.0 1.0 0.0
vn -0.0 1.0 0.0
vn -0.0 1.0 0.0
vn -0.0 1.0 0.0
vn -0.0 1.0 0.0
vn -0.0 1.0 0.0
vn -0.0 1.0 0.0
vn -0.0 1.0 0.0
vn -0.0 1.0 0.0
vn -0.0 1.0 0.0
vn -0.0 1.0 0.0
vn -0.0 1.0 0.0
vn -0.0 1.0 0.0
vn -0.0 1.0 0.0
vn -0.0 1.0 0.0
vn -0.0 1.0 0.0
vn -0.0 1.0 0.0
vn -0.0 1.0 0.0
vn -0.0 1.0 0.0
vn -0.0 1.0 0.0
vn -0.0 1.0 0.0
vn -0.0 1.0 0.0
vn -0.0 1.0 0.0
vn -0.0 1.0 0.0
vn -0.0 1.0 0.0
vn -0.0 1.0 0.0
vn -0.0 1.0 0.0
vn -0.0 1.0 0.0
vn -0.0 1.0 0.0
vn -0.0 1.0 0.0
vn -0.0 1.0 0.0
vn -0.0 1.0 0.0
vn -0.0 1.0 0.0
vn -0.0 1.0 0.0
vn -0.0 1.0 0.0
vn -0.0 1.0 0.0
vn -0.0 1.0 0.0
vn -0.0 1.0 0.0
vn -0.0 1.0 0.0
vn -0.0 1.0 0.0
vn -0.0 1.0 0.0
vn -0.0 1.0 0.0
vn -0.0 1.0 0.0
vn -0.0 1.0 0.0
vn -0.0 1.0 0.0
vn -0.0 1.0 0.0
vn -0.0 1.0 0.0
vn -0.0 1.0 0.0
vn -0.0 1.0 0.0
vn -0.0 1.0 0.0
vn -0.0 1.0 0.0
vn -0.0 1.0 0.0
vn -0.0 1.0 0.0
vn -0.0 1.0 0.0
vn -0.0 1.0 0.0
vn -0.0 1.0 0.0
vn -0.0 1.0 0.0
vn -0.0 1.0 0.0
vn -0.0 1.0 0.0
vn -0.0 1.0 0.0
vn -0.0 1.0 0.0
vn -0.0 1.0 0.0
vn -0.0 1.0 0.0
vn -0.0 1.0 0.0
vn -0.0 1.0 0.0
vn -0.0 1.0 0.0
vn -0.0 1.0 0.0
vn -0.0 1.0 0.0
vn -0.0 1.0 0.0
vn -0.0 1.0 0.0
vn -0.0 1.0 0.0
vn -0.0 1.0 0.0
vn -0.0 1.0 0.0
vn -0.0 1.0 0.0
vn -0.0 1.0 0.0
vn -0.0 1.0 0.0
vn -0.0 1.0 0.0
vn -0.0 1.0 0.0
vn -0.0 1.0 0.0
vn -0.0 1.0 0.0
vn -0.0 1.0 0.0
vn -0.0 1.0 0.0
vn -0.0 1.0 0.0
vn -0.0 1.0 0.0
vn -0.0 1.0 0.0
vn -0.0 1.0 0.0
vn -0.0 1.0 0.0
vn -0.0 1.0 0.0
vn -0.0 1.0 0.0
vn -0.0 1.0 0.0
vn -0.0 1.0 0.0
vn -0.0 1.0 0.0
vn -0.0 1.0 0.0
vn -0.0 1.0 0.0
vn -0.0 1.0 0.0
vn -0.0 1.0 0.0
vn -0.0 1.0 0.0
vn -0.0 1.0 0.0
vn -0.0 1.0 0.0
vn -0.0 1.0 0.0
vn -0.0 1.0 0.0
vn -0.0 1.0 0.0
vn -0.0 1.0 0.0
vn -0.0 1.0 0.0
vn -0.0 1.0 0.0
vn -0.0 1.0 0.0
vn -0.0 1.0 0.0
vn -0.0 1.0 0.0
vn -0.0 1.0 0.0
vn -0.0 1.0 0.0
vn -0.0 1.0 0.0
vn -0.0 1.0 0.0
vn -0.0 1.0 0.0
vn -0.0 1.0 0.0
vn -0.0 1.0 0.0
vn -0.0 1.0 0.0
vn -0.0 1.0 0.0
vn -0.0 1.0 0.0
vn -0.0 1.0 0.0
vn -0.0 1.0 0.0
vn -0.0 1.0 0.0
vn -0.0 1.0 0.0
vn -0.0 1.0 0.0
vn -0.0 1.0 0.0
vn -0.0 1.0 0.0
vn -0.0 1.0 0.0
vn -0.0 1.0 0.0
vn -0.0 1.0 0.0
vn -0.0 1.0 0.0
vn -0.0 1.0 0.0
vn -0.0 1.0 0.0
vn -0.0 1.0 0.0
vn -0.0 1.0 0.0
vn -0.0 1.0 0.0
vn -0.0 1.0 0.0
vn -0.0 1.0 0.0
vn -0.0 1.0 0.0
vn -0.0 1.0 0.0
vn -0.0 1.0 0.0
vn -0.0 1.0 0.0
vn -0.0 1.0 0.0
vn -0.0 1.0 0.0
vn -0.0 1.0 0.0
vn -0.0 1.0 0.0
vn -0.0 1.0 0.0
vn -0.0 1.0 0.0
vn -0.0 1.0 0.0
vn -0.0 1.0 0.0
vn -0.0 1.0 0.0
vn -0.0 1.0 0.0
vn -0.0 1.0 0.0
vn -0.0 1.0 0.0
vn -0.0 1.0 0.0
vn -0.0 1.0 0.0
vn -0.0 1.0 0.0
vn -0.0 1.0 0.0
vn -0.0 1.0 0.0
vn -0.0 1.0 0.0
vn -0.0 1.0 0.0
vn -0.0 1.0 0.0
vn -0.0 1.0 0.0
vn -0.0 1.0 0.0
vn -0.0 1.0 0.0
vn -0.0 1.0 0.0
vn -0.0 1.0 0.0
vn -0.0 1.0 0.0
vn -0.0 1.0 0.0
vn -0.0 1.0 0.0
vn -0.0 1.0 0.0
vn -0.0 1.0 0.0
vn -0.0 1.0 0.0
vn -0.0 1.0 0.0
vn -0.0 1.0 0.0
vn -0.0 1.0 0.0
vn -0.0 1.0 0.0
vn -0.0 1.0 0.0
vn -0.0 1.0 0.0
vn -0.0 1.0 0.0
vn -0.0 1.0 0.0
vn -0.0 1.0 0.0
vn -0.0 1.0 0.0
vn -0.0 1.0 0.0
vn -0.0 1.0 0.0
vn -0.0 1.0 0.0
vn -0.0 1.0 0.0
vn -0.0 1.0 0.0
vn -0.0 1.0 0.0
vn -0.0 1.0 0.0
vn -0.0 1.0 0.0
vn -0.0 1.0 0.0
vn -0.0 1.0 0.0
vn -0.0 1.0 0.0
vn -0.0 1.0 0.0
vn -0.0 1.0 0.0
vn -0.0 1.0 0.0
vn -0.0 1.0 0.0
vn -0.0 1.0 0.0
vn -0.0 1.0 0.0
vn -0.0 1.0 0.0
vn -0.0 1.0 0.0
vn -0.0 1.0 0.0
vn -0.0 1.0 0.0
vn -0.0 1.0 0.0
vn -0.0 1.0 0.0
vn -0.0 1.0 0.0
vn -0.0 1.0 0.0
vn -0.0 1.0 0.0
vn -0.0 1.0 0.0
vn -0.0 1.0 0.0
vn -0.0 1.0 0.0
vn -0.0 1.0 0.0
vn -0.0 1.0 0.0
vn -0.0 1.0 0.0
vn -0.0 1.0 0.0
vn -0.0 1.0 0.0
vn -0.0 1.0 0.0
vn -0.0 1.0 0.0
vn -0.0 1.0 0.0
vn -0.0 1.0 0.0
vn -0.0 1.0 0.0
vn -0.0 1.0 0.0
vn -0.0 1.0 0.0
vn -0.0 1.0 0.0
vn -0.0 1.0 0.0
vn -0.0 1.0 0.0
vn -0.0 1.0 0.0
vn -0.0 1.0 0.0
vn -0.0 1.0 0.0
vn -0.0 1.0 0.0
vn -0.0 1.0 0.0
vn -0.0 1.0 0.0
vn -0.0 1.0 0.0
vn -0.0 1.0 0.0
vn -0.0 1.0 0.0
vn -0.0 1.0 0.0
vn -0.0 1.0 0.0
vn -0.0 1.0 0.0
vn -0.0 1.0 0.0
vn -0.0 1.0 0.0
vn -0.0 1.0 0.0
vn -0.0 1.0 0.0
vn -0.0 1.0 0.0
vn -0.0 1.0 0.0
vn -0.0 1.0 0.0
vn -0.0 1.0 0.0
vn -0.0 1.0 0.0
vn -0.0 1.0 0.0
vn -0.0 1.0 0.0
vn -0.0 1.0 0.0
vn -0.0 1.0 0.0
vn -0.0 1.0 0.0
vn -0.0 1.0 0.0
vn -0.0 1.0 0.0
vn -0.0 1.0 0.0
vn -0.0 1.0 0.0
vn -0.0 1.0 0.0
vn -0.0 1.0 0.0
vn -0.0 1.0 0.0
vn -0.0 1.0 0.0
vn -0.0 1.0 0.0
vn -0.0 1.0 0.0
vn -0.0 1.0 0.0
vn -0.0 1.0 0.0
vn -0.0 1.0 0.0
vn -0.0 1.0 0.0
vn -0.0 1.0 0.0
vn -0.0 1.0 0.0
vn -0.0 1.0 0.0
vn -0.0 1.0 0.0
vn -0.0 1.0 0.0
vn -0.0 1.0 0.0
vn -0.0 1.0 0.0
vn -0.0 1.0 0.0
vn -0.0 1.0 0.0
vn -0.0 1.0 0.0
vn -0.0 1.0 0.0
vn -0.0 1.0 0.0
vn -0.0 1.0 0.0
vn -0.0 1.0 0.0
vn -0.0 1.0 0.0
vn -0.0 1.0 0.0
vn -0.0 1.0 0.0
vn -0.0 1.0 0.0
vn -0.0 1.0 0.0
vn -0.0 1.0 0.0
vn -0.0 1.0 0.0
vn -0.0 1.0 0.0
vn -0.0 1.0 0.0
vn -0.0 1.0 0.0
vn -0.0 1.0 0.0
vt 0.8453773260116577 0.7575525641441345
vt 0.8307697772979736 0.7549768686294556
vt 0.8388171195983887 0.7520479261875153
vt 0.8358428478240967 0.7689152657985687
vt 0.8292826414108276 0.7634105682373047
vt 0.8438901901245117 0.765986293554306
vt -0.049019694328308105 0.323663592338562
vt -0.0636272132396698 0.3210878372192383
vt -0.055579930543899536 0.3181588649749756
vt -0.058554112911224365 0.3350263237953186
vt -0.0651143491268158 0.3295215964317322
vt -0.050506770610809326 0.33209729194641113
vt 0.11141000688076019 0.4343411922454834
vt 0.09680245816707611 0.43176543712615967
vt 0.10484975576400757 0.428836464881897
vt 0.10187560319900513 0.4457038640975952
vt 0.0953153520822525 0.4401991367340088
vt 0.10992293059825897 0.4427748918533325
vt 0.21316328644752502 0.40083062648773193
vt 0.19855579733848572 0.39825499057769775
vt 0.20660319924354553 0.3953259587287903
vt 0.20362892746925354 0.41219329833984375
vt 0.19706867635250092 0.4066885709762573
vt 0.21167632937431335 0.4092642664909363
vt 0.4906295835971832 0.8230454325675964
vt 0.47602206468582153 0.8204697370529175
vt 0.4840693473815918 0.8175407648086548
vt 0.48109522461891174 0.8344081044197083
vt 0.4745349586009979 0.8289034366607666
vt 0.489142507314682 0.8314791321754456
vt 0.2556988596916199 1.0838340818881989
vt 0.2410912811756134 1.0812583789229393
vt 0.2491386979818344 1.078329361975193
vt 0.2461644411087036 1.0951967611908913
vt 0.23960420489311218 1.0896920561790466
vt 0.2542118430137634 1.092267744243145
vt 0.18701137602329254 0.7139152884483337
vt 0.17240384221076965 0.7113395631313324
vt 0.1804511547088623 0.7084105908870697
vt 0.17747700214385986 0.7252779304981232
vt 0.17091673612594604 0.7197732627391815
vt 0.1855243295431137 0.7223489880561829
vt 0.48584380745887756 0.5500441193580627
vt 0.4712362587451935 0.5474684238433838
vt 0.4792836010456085 0.5445394515991211
vt 0.4763094186782837 0.5614068508148193
vt 0.4697491526603699 0.5559021234512329
vt 0.48435673117637634 0.5584778189659119
vt 0.13681548833847046 0.5407019853591919
vt 0.12220792472362518 0.5381262302398682
vt 0.13025522232055664 0.5351972579956055
vt 0.1272810995578766 0.5520646572113037
vt 0.12072083353996277 0.5465599298477173
vt 0.13532839715480804 0.549135684967041
vt 0.4090268313884735 0.991974264383316
vt 0.3944191336631775 0.9893985390663147
vt 0.4024665057659149 0.9864695370197296
vt 0.3994923233985901 1.0033369362354279
vt 0.39293211698532104 0.9978322684764862
vt 0.4075396656990051 1.000407949090004
vt 0.05677112936973572 0.2840501666069031
vt 0.042163580656051636 0.2814744710922241
vt 0.05021087825298309 0.2785454988479614
vt 0.047236740589141846 0.29541289806365967
vt 0.04067647457122803 0.28990817070007324
vt 0.0552840381860733 0.292483925819397
vt 0.8037315607070923 0.30054086446762085
vt 0.7891238927841187 0.29796504974365234
vt 0.7971713542938232 0.2950360178947449
vt 0.7941970825195312 0.31190353631973267
vt 0.7876368761062622 0.30639880895614624
vt 0.8022445440292358 0.3089745044708252
vt 0.4937051832675934 0.4508419632911682
vt 0.4790976047515869 0.44826626777648926
vt 0.48714497685432434 0.44533735513687134
vt 0.4841707646846771 0.46220463514328003
vt 0.4776104986667633 0.4566999673843384
vt 0.49221810698509216 0.45927566289901733
vt 0.6352540254592896 0.5599033832550049
vt 0.6206464767456055 0.5573276877403259
vt 0.6286938190460205 0.5543987154960632
vt 0.6257195472717285 0.5712660551071167
vt 0.6191593408584595 0.5657613277435303
vt 0.6337668895721436 0.568337082862854
vt 0.41188758611679077 0.5894511938095093
vt 0.3972800076007843 0.5868754982948303
vt 0.4053274393081665 0.5839464664459229
vt 0.4023531675338745 0.6008139252662659
vt 0.39579296112060547 0.5953091979026794
vt 0.4104005992412567 0.5978848934173584
vt 0.8229403495788574 0.4490697979927063
vt 0.8083328008651733 0.4464941620826721
vt 0.8163801431655884 0.4435651898384094
vt 0.8134059906005859 0.4604325294494629
vt 0.8068457841873169 0.45492780208587646
vt 0.821453332901001 0.4575035572052002
vt 0.5645562410354614 0.021264493465423584
vt 0.5499486923217773 0.018688857555389404
vt 0.5579959154129028 0.01575988531112671
vt 0.5550218224525452 0.03262728452682495
vt 0.5484615564346313 0.027122557163238525
vt 0.5630691051483154 0.029698312282562256
vt 0.6743264198303223 0.36625999212265015
vt 0.6597188711166382 0.3636842370033264
vt 0.6677661538124084 0.3607552647590637
vt 0.6647920608520508 0.37762266397476196
vt 0.6582317352294922 0.37211793661117554
vt 0.6728392839431763 0.37469369173049927
vt 0.6898895502090454 0.7897195219993591
vt 0.6752820014953613 0.7871438264846802
vt 0.6833293437957764 0.7842148542404175
vt 0.6803551912307739 0.8010822236537933
vt 0.6737949848175049 0.7955775260925293
vt 0.688402533531189 0.798153281211853
vt 0.38676774501800537 0.9059873968362808
vt 0.3721601068973541 0.9034117162227631
vt 0.38020744919776917 0.900482714176178
vt 0.3772333264350891 0.9173500686883926
vt 0.3706730306148529 0.9118453860282898
vt 0.3852806091308594 0.9144210815429688
vt 0.04268287122249603 0.523408055305481
vt 0.028075262904167175 0.5208323001861572
vt 0.03612266480922699 0.5179032683372498
vt 0.03314843773841858 0.5347707867622375
vt 0.026588216423988342 0.5292660593986511
vt 0.041195839643478394 0.5318417549133301
vt 0.5474306344985962 0.5909403562545776
vt 0.5328230857849121 0.5883646011352539
vt 0.5408703088760376 0.5854356288909912
vt 0.5378962159156799 0.6023029685020447
vt 0.5313359498977661 0.596798300743103
vt 0.5459434986114502 0.599373996257782
vt 0.42369863390922546 0.39835911989212036
vt 0.40909111499786377 0.39578354358673096
vt 0.41713839769363403 0.39285457134246826
vt 0.4141642451286316 0.40972185134887695
vt 0.40760400891304016 0.4042171239852905
vt 0.42221152782440186 0.40679287910461426
vt 0.7846114635467529 0.1715640425682068
vt 0.7700039148330688 0.16898822784423828
vt 0.7780512571334839 0.1660591959953308
vt 0.7750769853591919 0.18292665481567383
vt 0.7685167789459229 0.17742198705673218
vt 0.7831244468688965 0.17999762296676636
vt 0.7632932662963867 0.7048493325710297
vt 0.7486857175827026 0.7022736072540283
vt 0.7567331790924072 0.6993446052074432
vt 0.7537589073181152 0.7162119746208191
vt 0.7471987009048462 0.7107073068618774
vt 0.7618062496185303 0.7132830023765564
vt 0.8333302736282349 0.8397293984889984
vt 0.8187228441238403 0.8371537327766418
vt 0.8267700672149658 0.8342247605323792
vt 0.8237959146499634 0.8510921001434326
vt 0.8172357082366943 0.8455873727798462
vt 0.831843376159668 0.8481630682945251
vt 0.4151099622249603 0.5179728865623474
vt 0.40050241351127625 0.5153970718383789
vt 0.4085496664047241 0.512468159198761
vt 0.40557557344436646 0.5293354988098145
vt 0.39901530742645264 0.5238308310508728
vt 0.4136229455471039 0.526406466960907
vt 0.32195645570755005 0.17255699634552002
vt 0.30734890699386597 0.16998130083084106
vt 0.315396249294281 0.1670522689819336
vt 0.3124220669269562 0.1839197278022766
vt 0.30586180090904236 0.17841500043869019
vt 0.3204694092273712 0.18099069595336914
vt 0.4699232578277588 0.7438696622848511
vt 0.4553156793117523 0.7412939071655273
vt 0.46336299180984497 0.7383649349212646
vt 0.46038883924484253 0.7552323043346405
vt 0.4538286328315735 0.7497276067733765
vt 0.4684361517429352 0.7523033618927002
vt 0.7995555400848389 0.0735275149345398
vt 0.7849478721618652 0.07095187902450562
vt 0.7929952144622803 0.06802290678024292
vt 0.7900210618972778 0.08489018678665161
vt 0.7834608554840088 0.07938557863235474
vt 0.7980684041976929 0.08196121454238892
vt 0.6321074366569519 -0.006561756134033203
vt 0.617499828338623 -0.009137392044067383
vt 0.6255471706390381 -0.012066364288330078
vt 0.6225730180740356 0.004800975322723389
vt 0.6160127520561218 -0.0007038116455078125
vt 0.6306203603744507 0.0018720030784606934
vt 0.3883640468120575 0.718256026506424
vt 0.373756468296051 0.715680330991745
vt 0.3818037807941437 0.7127513885498047
vt 0.37882962822914124 0.7296187579631805
vt 0.3722693920135498 0.7241140007972717
vt 0.3868769407272339 0.7266897857189178
vt 0.5136317610740662 0.9026132076978683
vt 0.4990242123603821 0.9000374972820282
vt 0.5070715546607971 0.8971084952354431
vt 0.5040973424911499 0.9139758944511414
vt 0.49753713607788086 0.9084711670875549
vt 0.5121446847915649 0.9110469073057175
vt 0.32668691873550415 0.7915089726448059
vt 0.3120793104171753 0.7889332175254822
vt 0.3201266825199127 0.7860042452812195
vt 0.3171525001525879 0.8028716444969177
vt 0.31059226393699646 0.7973669171333313
vt 0.32519984245300293 0.799942672252655
vt 0.7313309907913208 0.13358157873153687
vt 0.7167234420776367 0.13100582361221313
vt 0.7247707843780518 0.12807685136795044
vt 0.7217966318130493 0.14494413137435913
vt 0.7152363061904907 0.13943952322006226
vt 0.7298438549041748 0.14201515913009644
vt 0.4855005145072937 0.6648736596107483
vt 0.47089293599128723 0.6622979044914246
vt 0.47894027829170227 0.6593689918518066
vt 0.47596609592437744 0.6762362718582153
vt 0.469405859708786 0.6707316339015961
vt 0.4840134382247925 0.6733073592185974
vt 0.43996405601501465 0.19591718912124634
vt 0.425356388092041 0.19334149360656738
vt 0.43340378999710083 0.1904124617576599
vt 0.4304295778274536 0.20727992057800293
vt 0.42386937141418457 0.2017751932144165
vt 0.4384769797325134 0.20435088872909546
vt 0.957685112953186 0.7774646878242493
vt 0.943077564239502 0.7748889923095703
vt 0.9511247873306274 0.7719600200653076
vt 0.9481507539749146 0.7888273596763611
vt 0.941590428352356 0.7833226919174194
vt 0.95619797706604 0.7858983874320984
vt 0.7359998226165771 0.8954867273569107
vt 0.7213922739028931 0.8929110020399094
vt 0.7294396162033081 0.889982059597969
vt 0.7264654636383057 0.9068493843078613
vt 0.7199051380157471 0.9013447314500809
vt 0.7345128059387207 0.9039204716682434
vt 0.8958045244216919 0.3619932532310486
vt 0.8811969757080078 0.3594176173210144
vt 0.8892443180084229 0.3564886450767517
vt 0.8862701654434204 0.3733559250831604
vt 0.8797098398208618 0.3678513169288635
vt 0.8943175077438354 0.3704269528388977
vt 0.6273984909057617 0.7138278484344482
vt 0.6127908825874329 0.7112520933151245
vt 0.6208382844924927 0.7083231806755066
vt 0.6178641319274902 0.7251905202865601
vt 0.6113038659095764 0.719685822725296
vt 0.6259114742279053 0.7222615480422974
vt 0.2524980902671814 0.6073857545852661
vt 0.23789048194885254 0.6048099994659424
vt 0.245937779545784 0.6018810272216797
vt 0.24296370148658752 0.6187483668327332
vt 0.2364034205675125 0.6132436990737915
vt 0.2510109543800354 0.6158194541931152
vt 0.18723343312740326 0.6224744319915771
vt 0.1726258397102356 0.6198987364768982
vt 0.18067315220832825 0.6169698238372803
vt 0.177699014544487 0.6338371634483337
vt 0.1711387187242508 0.6283324360847473
vt 0.18574631214141846 0.630908191204071
vt 0.674598217010498 0.4660036563873291
vt 0.659990668296814 0.46342790126800537
vt 0.668038010597229 0.4604988694190979
vt 0.665063738822937 0.47736626863479614
vt 0.658503532409668 0.4718616008758545
vt 0.673111081123352 0.47443729639053345
vt 0.1937364637851715 0.20115244388580322
vt 0.17912888526916504 0.1985766887664795
vt 0.1871761679649353 0.1956477165222168
vt 0.18420204520225525 0.21251517534255981
vt 0.17764180898666382 0.2070103883743286
vt 0.1922493278980255 0.20958620309829712
vt 0.8362916707992554 0.5117830634117126
vt 0.8216841220855713 0.5092074275016785
vt 0.8297313451766968 0.5062784552574158
vt 0.8267571926116943 0.5231457352638245
vt 0.8201968669891357 0.5176411271095276
vt 0.8348045349121094 0.5202168226242065
vt 0.6741606593132019 0.22307568788528442
vt 0.6595531105995178 0.22049981355667114
vt 0.6676003932952881 0.21757084131240845
vt 0.6646262407302856 0.23443835973739624
vt 0.6580660939216614 0.22893363237380981
vt 0.6726735830307007 0.23150938749313354
vt 0.3836962878704071 0.07318812608718872
vt 0.36908870935440063 0.07061237096786499
vt 0.3771360218524933 0.0676833987236023
vt 0.37416189908981323 0.08455079793930054
vt 0.3676016628742218 0.07904607057571411
vt 0.3822092115879059 0.08162182569503784
vt 0.39060500264167786 0.27590030431747437
vt 0.3759974539279938 0.27332472801208496
vt 0.3840447962284088 0.27039575576782227
vt 0.3810705840587616 0.28726309537887573
vt 0.37451034784317017 0.28175830841064453
vt 0.38911792635917664 0.28433412313461304
vt 0.7298339605331421 0.3655034303665161
vt 0.715226411819458 0.3629276752471924
vt 0.7232738733291626 0.3599986433982849
vt 0.7202996015548706 0.37686604261398315
vt 0.7137393951416016 0.3713613748550415
vt 0.7283469438552856 0.3739370107650757
vt 0.48741281032562256 0.0659368634223938
vt 0.4728052616119385 0.06336110830307007
vt 0.4808526635169983 0.06043213605880737
vt 0.4778783917427063 0.07729953527450562
vt 0.47131818532943726 0.07179480791091919
vt 0.4859258532524109 0.07437056303024292
vt 0.42932969331741333 0.1466388702392578
vt 0.41472214460372925 0.14406323432922363
vt 0.4227694869041443 0.14113426208496094
vt 0.41979527473449707 0.15800154209136963
vt 0.413235068321228 0.1524968147277832
vt 0.4278426170349121 0.15507256984710693
vt 0.5948770046234131 0.1849568486213684
vt 0.5802693963050842 0.18238109350204468
vt 0.5883166790008545 0.17945212125778198
vt 0.5853425860404968 0.19631952047348022
vt 0.578782320022583 0.1908147931098938
vt 0.5933898687362671 0.19339054822921753
vt 0.2868005335330963 0.23577791452407837
vt 0.27219295501708984 0.23320215940475464
vt 0.2802402675151825 0.23027312755584717
vt 0.27726611495018005 0.24714058637619019
vt 0.2707058787345886 0.24163585901260376
vt 0.2853134274482727 0.2442116141319275
vt 0.5777665376663208 0.43256157636642456
vt 0.5631589889526367 0.4299859404563904
vt 0.5712063312530518 0.4270569682121277
vt 0.5682321786880493 0.44392430782318115
vt 0.5616718530654907 0.4384195804595947
vt 0.5762794017791748 0.44099533557891846
vt 0.552686333656311 0.6451092660427094
vt 0.538078784942627 0.6425336003303528
vt 0.546126127243042 0.6396046280860901
vt 0.5431519746780396 0.6564719676971436
vt 0.536591649055481 0.6509672403335571
vt 0.551199197769165 0.6535429954528809
vt 0.36453527212142944 0.32434505224227905
vt 0.34992772340774536 0.3217692971229553
vt 0.357975035905838 0.3188403248786926
vt 0.35500091314315796 0.33570772409439087
vt 0.34844058752059937 0.33020299673080444
vt 0.3630481958389282 0.3327787518501282
vt 0.5408480167388916 0.5174202919006348
vt 0.5262404680252075 0.514844536781311
vt 0.534287691116333 0.5119155645370483
vt 0.5313136577606201 0.5287829637527466
vt 0.5247533321380615 0.5232782959938049
vt 0.5393608808517456 0.5258539915084839
vt 0.5908474922180176 0.2650666832923889
vt 0.5762399435043335 0.2624909281730652
vt 0.5842872858047485 0.2595619559288025
vt 0.5813131332397461 0.27642935514450073
vt 0.5747528076171875 0.2709246277809143
vt 0.5893604755401611 0.27350038290023804
vt 0.32640355825424194 0.40604692697525024
vt 0.31179600954055786 0.4034712314605713
vt 0.3198432922363281 0.4005421996116638
vt 0.3168691396713257 0.4174095392227173
vt 0.31030893325805664 0.4119049310684204
vt 0.32491645216941833 0.41448062658309937
vt 0.7423197031021118 0.4676371216773987
vt 0.7277120351791382 0.46506136655807495
vt 0.7357593774795532 0.46213239431381226
vt 0.7327852249145508 0.4789998531341553
vt 0.7262248992919922 0.4734951853752136
vt 0.7408325672149658 0.4760708212852478
vt 0.23836588859558105 0.7618275284767151
vt 0.2237582951784134 0.7592517733573914
vt 0.23180559277534485 0.7563227713108063
vt 0.2288314700126648 0.7731901407241821
vt 0.22227123379707336 0.7676854729652405
vt 0.2368788719177246 0.770261138677597
vt 0.5433979630470276 0.14351552724838257
vt 0.5287903547286987 0.1409398317337036
vt 0.5368376970291138 0.13801079988479614
vt 0.5338635444641113 0.15487819910049438
vt 0.5273032784461975 0.14937353134155273
vt 0.5419108867645264 0.1519492268562317
vt 0.2673529386520386 0.31265437602996826
vt 0.2527453899383545 0.31007862091064453
vt 0.26079270243644714 0.30714964866638184
vt 0.2578185796737671 0.3240170478820801
vt 0.25125831365585327 0.3185123801231384
vt 0.26586589217185974 0.3210880756378174
vt 0.5975863337516785 0.8247125744819641
vt 0.5829787850379944 0.8221368789672852
vt 0.5910261273384094 0.8192079067230225
vt 0.5880519151687622 0.8360752761363983
vt 0.5814917087554932 0.8305705785751343
vt 0.5960992574691772 0.8331462740898132
vt 0.2795586585998535 0.8809594511985779
vt 0.26495110988616943 0.8783837556838989
vt 0.2729984521865845 0.8754547834396362
vt 0.27002426981925964 0.8923221230506897
vt 0.2634640336036682 0.886817455291748
vt 0.2780716121196747 0.889393150806427
vt 0.3982183635234833 0.8217326104640961
vt 0.3836108148097992 0.8191569149494171
vt 0.39165812730789185 0.8162279427051544
vt 0.3886839747428894 0.8330952823162079
vt 0.3821236789226532 0.8275905847549438
vt 0.39673125743865967 0.8301663100719452
vt 0.26036325097084045 0.4976785182952881
vt 0.2457556575536728 0.49510276317596436
vt 0.253803014755249 0.49217379093170166
vt 0.2508288323879242 0.5090412497520447
vt 0.24426859617233276 0.5035365223884583
vt 0.25887617468833923 0.506112277507782
vt 0.7454458475112915 0.8390639424324036
vt 0.730838418006897 0.8364882171154022
vt 0.7388856410980225 0.8335592746734619
vt 0.73591148853302 0.8504266142845154
vt 0.729351282119751 0.8449219465255737
vt 0.7439588308334351 0.8474976420402527
vt 0.6879332065582275 0.6644129157066345
vt 0.6733256578445435 0.6618371605873108
vt 0.6813730001449585 0.6589081883430481
vt 0.678398847579956 0.6757755279541016
vt 0.6718385815620422 0.6702708601951599
vt 0.6864461898803711 0.6728465557098389
vt 0.5214835405349731 0.7363346517086029
vt 0.5068759918212891 0.733758956193924
vt 0.5149232745170593 0.7308299839496613
vt 0.5119491815567017 0.7476973533630371
vt 0.5053888559341431 0.7421926259994507
vt 0.5199964046478271 0.7447683811187744
vt 0.48420414328575134 0.2706213593482971
vt 0.4695965647697449 0.2680456042289734
vt 0.4776439070701599 0.2651166319847107
vt 0.4746697247028351 0.28198403120040894
vt 0.46810945868492126 0.2764793038368225
vt 0.4827170670032501 0.27905505895614624
vt 0.2060393989086151 0.2605806589126587
vt 0.19143185019493103 0.25800496339797974
vt 0.19947916269302368 0.25507599115371704
vt 0.19650501012802124 0.2719433307647705
vt 0.18994471430778503 0.2664386034011841
vt 0.2045522928237915 0.2690143585205078
vt 0.0829053446650505 0.7036537826061249
vt 0.06829775869846344 0.7010780870914459
vt 0.07634508609771729 0.6981490850448608
vt 0.07337094843387604 0.7150164544582367
vt 0.06681069731712341 0.7095117568969727
vt 0.0814182460308075 0.7120874524116516
vt 0.786384105682373 0.6323226094245911
vt 0.7717764377593994 0.6297469139099121
vt 0.7798237800598145 0.6268179416656494
vt 0.776849627494812 0.6436852812767029
vt 0.770289421081543 0.6381805539131165
vt 0.784896969795227 0.6407563090324402
vt 1.049468755722046 0.6864742338657379
vt 1.0348612070083618 0.6838984787464142
vt 1.0429085493087769 0.6809695065021515
vt 1.0399343967437744 0.697836846113205
vt 1.0333741903305054 0.6923321783542633
vt 1.0479817390441895 0.6949078738689423
vt 0.18860630691051483 0.9683414101600647
vt 0.17399871349334717 0.9657656848430634
vt 0.1820460706949234 0.9628366827964783
vt 0.17907188832759857 0.9797041267156601
vt 0.17251165211200714 0.9741993844509125
vt 0.1871192455291748 0.976775124669075
vt 0.08499859273433685 0.17459195852279663
vt 0.07039101421833038 0.17201614379882812
vt 0.07843831181526184 0.16908717155456543
vt 0.07546420395374298 0.18595463037490845
vt 0.06890393793582916 0.18044990301132202
vt 0.08351150155067444 0.18302565813064575
vt -0.03571341931819916 0.2183539867401123
vt -0.05032101273536682 0.2157781720161438
vt -0.04227367043495178 0.2128491997718811
vt -0.04524785280227661 0.22971665859222412
vt -0.05180807411670685 0.2242119312286377
vt -0.03720051050186157 0.22678768634796143
vt 0.9378557205200195 0.4841082692146301
vt 0.9232480525970459 0.4815325140953064
vt 0.9312953948974609 0.4786035418510437
vt 0.9283212423324585 0.49547094106674194
vt 0.9217610359191895 0.4899662137031555
vt 0.9363685846328735 0.49254196882247925
vt 0.16229692101478577 0.860487312078476
vt 0.1476893424987793 0.857911616563797
vt 0.1557367593050003 0.8549826145172119
vt 0.1527625024318695 0.8718499839305878
vt 0.14620226621627808 0.8663452863693237
vt 0.16080991923809052 0.8689209818840027
vt 0.7237070798873901 -0.00512385368347168
vt 0.7090996503829956 -0.007699489593505859
vt 0.7171469926834106 -0.010628461837768555
vt 0.7141727209091187 0.006238877773284912
vt 0.7076125144958496 0.0007341504096984863
vt 0.7222200632095337 0.003309905529022217
vt 0.9052104949951172 0.6866104602813721
vt 0.8906029462814331 0.6840348243713379
vt 0.8986502885818481 0.6811058521270752
vt 0.8956761360168457 0.6979731917381287
vt 0.8891158103942871 0.692468523979187
vt 0.9037233591079712 0.695044219493866
vt 0.3360588550567627 0.5349962115287781
vt 0.3214512765407562 0.5324204564094543
vt 0.32949861884117126 0.5294914841651917
vt 0.32652443647384644 0.5463588833808899
vt 0.3199642300605774 0.5408542156219482
vt 0.3345717787742615 0.5434299111366272
vt 0.6452676057815552 0.888606071472168
vt 0.6306600570678711 0.886030375957489
vt 0.6387073993682861 0.8831014037132263
vt 0.6357332468032837 0.8999687731266022
vt 0.6291729211807251 0.8944640457630157
vt 0.643780529499054 0.8970397710800171
vt 0.2880995273590088 0.10315102338790894
vt 0.2734919488430023 0.1005752682685852
vt 0.2815392315387726 0.09764629602432251
vt 0.2785651385784149 0.11451369524002075
vt 0.2720048725605011 0.10900896787643433
vt 0.2866124212741852 0.11158472299575806
vt 0.5813918113708496 0.9202009439468384
vt 0.5667842626571655 0.9176251590251923
vt 0.5748316049575806 0.9146961569786072
vt 0.5718574523925781 0.9315635859966278
vt 0.5652972459793091 0.9260588735342026
vt 0.5799047946929932 0.9286345839500427
vt 0.74622642993927 0.24657708406448364
vt 0.7316187620162964 0.2440013289451599
vt 0.7396661043167114 0.24107235670089722
vt 0.736691951751709 0.25793975591659546
vt 0.7301317453384399 0.2524350881576538
vt 0.744739294052124 0.25501078367233276
vt 0.07956782728433609 0.615747332572937
vt 0.06496027112007141 0.6131716370582581
vt 0.07300756871700287 0.6102426648139954
vt 0.07003344595432281 0.6271100640296936
vt 0.06347319483757019 0.6216053366661072
vt 0.07808074355125427 0.6241810917854309
vt 0.1495901495218277 0.31561797857284546
vt 0.1349826157093048 0.3130423426628113
vt 0.14302991330623627 0.3101133704185486
vt 0.14005577564239502 0.3269806504249573
vt 0.13349549472332 0.3214759826660156
vt 0.14810307323932648 0.3240516781806946
vt 0.6669769287109375 0.104312002658844
vt 0.6523693203926086 0.10173624753952026
vt 0.6604166030883789 0.09880727529525757
vt 0.6574424505233765 0.11567467451095581
vt 0.6508822441101074 0.11017006635665894
vt 0.6654897928237915 0.11274570226669312
vt 0.8686227798461914 0.5664393901824951
vt 0.8540152311325073 0.5638637542724609
vt 0.8620624542236328 0.5609347224235535
vt 0.8590884208679199 0.5778021216392517
vt 0.8525280952453613 0.5722973942756653
vt 0.8671356439590454 0.5748730897903442
vt 0.21469908952713013 0.1495622992515564
vt 0.20009154081344604 0.14698660373687744
vt 0.2081388235092163 0.1440577507019043
vt 0.20516470074653625 0.160925030708313
vt 0.19860443472862244 0.15542030334472656
vt 0.21321195363998413 0.1579960584640503
vt 0.38128626346588135 0.45601892471313477
vt 0.36667871475219727 0.45344316959381104
vt 0.37472599744796753 0.45051419734954834
vt 0.37175190448760986 0.4673815965652466
vt 0.36519163846969604 0.46187686920166016
vt 0.3797991871833801 0.4644526243209839
vt 0.2828849256038666 0.9780466854572296
vt 0.2682773470878601 0.9754709452390671
vt 0.27632468938827515 0.9725419580936432
vt 0.27335047721862793 0.989409327507019
vt 0.2667903006076813 0.9839046448469162
vt 0.28139787912368774 0.9864803850650787
vt 0.5919075012207031 0.06500500440597534
vt 0.577299952507019 0.06242913007736206
vt 0.5853472948074341 0.059500277042388916
vt 0.5823730826377869 0.07636767625808716
vt 0.5758129358291626 0.07086294889450073
vt 0.5904204249382019 0.07343870401382446
vt 0.5237618684768677 0.3839421272277832
vt 0.5091543197631836 0.381366491317749
vt 0.5172016620635986 0.37843751907348633
vt 0.5142275094985962 0.395304799079895
vt 0.5076673030853271 0.3898000717163086
vt 0.5222748517990112 0.3923758268356323
vt 0.941356897354126 0.6252252459526062
vt 0.9267493486404419 0.6226495504379272
vt 0.9347966909408569 0.6197205781936646
vt 0.9318225383758545 0.636587917804718
vt 0.9252623319625854 0.6310831904411316
vt 0.9398698806762695 0.6336589455604553
vt 0.03970588743686676 0.38555973768234253
vt 0.025098294019699097 0.3829839825630188
vt 0.03314557671546936 0.3800550103187561
vt 0.030171453952789307 0.39692234992980957
vt 0.023611202836036682 0.3914176821708679
vt 0.03821876645088196 0.39399343729019165
vt 0.3308497369289398 0.6474254727363586
vt 0.3162422180175781 0.6448497474193573
vt 0.3242895007133484 0.641920804977417
vt 0.32131534814834595 0.6587881147861481
vt 0.31475508213043213 0.6532834768295288
vt 0.3293626606464386 0.6558591723442078

g Mesh_FX_RiftBG_Hex
s 1
usemtl Mesh_FX_RiftBG_Hex
f 3/3/3 2/2/2 1/1/1 
f 2/2/2 4/4/4 1/1/1 
f 5/5/5 4/4/4 2/2/2 
f 1/1/1 4/4/4 6/6/6 
f 9/9/9 8/8/8 7/7/7 
f 8/8/8 10/10/10 7/7/7 
f 11/11/11 10/10/10 8/8/8 
f 7/7/7 10/10/10 12/12/12 
f 15/15/15 14/14/14 13/13/13 
f 14/14/14 16/16/16 13/13/13 
f 17/17/17 16/16/16 14/14/14 
f 13/13/13 16/16/16 18/18/18 
f 21/21/21 20/20/20 19/19/19 
f 20/20/20 22/22/22 19/19/19 
f 23/23/23 22/22/22 20/20/20 
f 19/19/19 22/22/22 24/24/24 
f 27/27/27 26/26/26 25/25/25 
f 26/26/26 28/28/28 25/25/25 
f 29/29/29 28/28/28 26/26/26 
f 25/25/25 28/28/28 30/30/30 
f 33/33/33 32/32/32 31/31/31 
f 32/32/32 34/34/34 31/31/31 
f 35/35/35 34/34/34 32/32/32 
f 31/31/31 34/34/34 36/36/36 
f 39/39/39 38/38/38 37/37/37 
f 38/38/38 40/40/40 37/37/37 
f 41/41/41 40/40/40 38/38/38 
f 37/37/37 40/40/40 42/42/42 
f 45/45/45 44/44/44 43/43/43 
f 44/44/44 46/46/46 43/43/43 
f 47/47/47 46/46/46 44/44/44 
f 43/43/43 46/46/46 48/48/48 
f 51/51/51 50/50/50 49/49/49 
f 50/50/50 52/52/52 49/49/49 
f 53/53/53 52/52/52 50/50/50 
f 49/49/49 52/52/52 54/54/54 
f 57/57/57 56/56/56 55/55/55 
f 56/56/56 58/58/58 55/55/55 
f 59/59/59 58/58/58 56/56/56 
f 55/55/55 58/58/58 60/60/60 
f 63/63/63 62/62/62 61/61/61 
f 62/62/62 64/64/64 61/61/61 
f 65/65/65 64/64/64 62/62/62 
f 61/61/61 64/64/64 66/66/66 
f 69/69/69 68/68/68 67/67/67 
f 68/68/68 70/70/70 67/67/67 
f 71/71/71 70/70/70 68/68/68 
f 67/67/67 70/70/70 72/72/72 
f 75/75/75 74/74/74 73/73/73 
f 74/74/74 76/76/76 73/73/73 
f 77/77/77 76/76/76 74/74/74 
f 73/73/73 76/76/76 78/78/78 
f 81/81/81 80/80/80 79/79/79 
f 80/80/80 82/82/82 79/79/79 
f 83/83/83 82/82/82 80/80/80 
f 79/79/79 82/82/82 84/84/84 
f 87/87/87 86/86/86 85/85/85 
f 86/86/86 88/88/88 85/85/85 
f 89/89/89 88/88/88 86/86/86 
f 85/85/85 88/88/88 90/90/90 
f 93/93/93 92/92/92 91/91/91 
f 92/92/92 94/94/94 91/91/91 
f 95/95/95 94/94/94 92/92/92 
f 91/91/91 94/94/94 96/96/96 
f 99/99/99 98/98/98 97/97/97 
f 98/98/98 100/100/100 97/97/97 
f 101/101/101 100/100/100 98/98/98 
f 97/97/97 100/100/100 102/102/102 
f 105/105/105 104/104/104 103/103/103 
f 104/104/104 106/106/106 103/103/103 
f 107/107/107 106/106/106 104/104/104 
f 103/103/103 106/106/106 108/108/108 
f 111/111/111 110/110/110 109/109/109 
f 110/110/110 112/112/112 109/109/109 
f 113/113/113 112/112/112 110/110/110 
f 109/109/109 112/112/112 114/114/114 
f 117/117/117 116/116/116 115/115/115 
f 116/116/116 118/118/118 115/115/115 
f 119/119/119 118/118/118 116/116/116 
f 115/115/115 118/118/118 120/120/120 
f 123/123/123 122/122/122 121/121/121 
f 122/122/122 124/124/124 121/121/121 
f 125/125/125 124/124/124 122/122/122 
f 121/121/121 124/124/124 126/126/126 
f 129/129/129 128/128/128 127/127/127 
f 128/128/128 130/130/130 127/127/127 
f 131/131/131 130/130/130 128/128/128 
f 127/127/127 130/130/130 132/132/132 
f 135/135/135 134/134/134 133/133/133 
f 134/134/134 136/136/136 133/133/133 
f 137/137/137 136/136/136 134/134/134 
f 133/133/133 136/136/136 138/138/138 
f 141/141/141 140/140/140 139/139/139 
f 140/140/140 142/142/142 139/139/139 
f 143/143/143 142/142/142 140/140/140 
f 139/139/139 142/142/142 144/144/144 
f 147/147/147 146/146/146 145/145/145 
f 146/146/146 148/148/148 145/145/145 
f 149/149/149 148/148/148 146/146/146 
f 145/145/145 148/148/148 150/150/150 
f 153/153/153 152/152/152 151/151/151 
f 152/152/152 154/154/154 151/151/151 
f 155/155/155 154/154/154 152/152/152 
f 151/151/151 154/154/154 156/156/156 
f 159/159/159 158/158/158 157/157/157 
f 158/158/158 160/160/160 157/157/157 
f 161/161/161 160/160/160 158/158/158 
f 157/157/157 160/160/160 162/162/162 
f 165/165/165 164/164/164 163/163/163 
f 164/164/164 166/166/166 163/163/163 
f 167/167/167 166/166/166 164/164/164 
f 163/163/163 166/166/166 168/168/168 
f 171/171/171 170/170/170 169/169/169 
f 170/170/170 172/172/172 169/169/169 
f 173/173/173 172/172/172 170/170/170 
f 169/169/169 172/172/172 174/174/174 
f 177/177/177 176/176/176 175/175/175 
f 176/176/176 178/178/178 175/175/175 
f 179/179/179 178/178/178 176/176/176 
f 175/175/175 178/178/178 180/180/180 
f 183/183/183 182/182/182 181/181/181 
f 182/182/182 184/184/184 181/181/181 
f 185/185/185 184/184/184 182/182/182 
f 181/181/181 184/184/184 186/186/186 
f 189/189/189 188/188/188 187/187/187 
f 188/188/188 190/190/190 187/187/187 
f 191/191/191 190/190/190 188/188/188 
f 187/187/187 190/190/190 192/192/192 
f 195/195/195 194/194/194 193/193/193 
f 194/194/194 196/196/196 193/193/193 
f 197/197/197 196/196/196 194/194/194 
f 193/193/193 196/196/196 198/198/198 
f 201/201/201 200/200/200 199/199/199 
f 200/200/200 202/202/202 199/199/199 
f 203/203/203 202/202/202 200/200/200 
f 199/199/199 202/202/202 204/204/204 
f 207/207/207 206/206/206 205/205/205 
f 206/206/206 208/208/208 205/205/205 
f 209/209/209 208/208/208 206/206/206 
f 205/205/205 208/208/208 210/210/210 
f 213/213/213 212/212/212 211/211/211 
f 212/212/212 214/214/214 211/211/211 
f 215/215/215 214/214/214 212/212/212 
f 211/211/211 214/214/214 216/216/216 
f 219/219/219 218/218/218 217/217/217 
f 218/218/218 220/220/220 217/217/217 
f 221/221/221 220/220/220 218/218/218 
f 217/217/217 220/220/220 222/222/222 
f 225/225/225 224/224/224 223/223/223 
f 224/224/224 226/226/226 223/223/223 
f 227/227/227 226/226/226 224/224/224 
f 223/223/223 226/226/226 228/228/228 
f 231/231/231 230/230/230 229/229/229 
f 230/230/230 232/232/232 229/229/229 
f 233/233/233 232/232/232 230/230/230 
f 229/229/229 232/232/232 234/234/234 
f 237/237/237 236/236/236 235/235/235 
f 236/236/236 238/238/238 235/235/235 
f 239/239/239 238/238/238 236/236/236 
f 235/235/235 238/238/238 240/240/240 
f 243/243/243 242/242/242 241/241/241 
f 242/242/242 244/244/244 241/241/241 
f 245/245/245 244/244/244 242/242/242 
f 241/241/241 244/244/244 246/246/246 
f 249/249/249 248/248/248 247/247/247 
f 248/248/248 250/250/250 247/247/247 
f 251/251/251 250/250/250 248/248/248 
f 247/247/247 250/250/250 252/252/252 
f 255/255/255 254/254/254 253/253/253 
f 254/254/254 256/256/256 253/253/253 
f 257/257/257 256/256/256 254/254/254 
f 253/253/253 256/256/256 258/258/258 
f 261/261/261 260/260/260 259/259/259 
f 260/260/260 262/262/262 259/259/259 
f 263/263/263 262/262/262 260/260/260 
f 259/259/259 262/262/262 264/264/264 
f 267/267/267 266/266/266 265/265/265 
f 266/266/266 268/268/268 265/265/265 
f 269/269/269 268/268/268 266/266/266 
f 265/265/265 268/268/268 270/270/270 
f 273/273/273 272/272/272 271/271/271 
f 272/272/272 274/274/274 271/271/271 
f 275/275/275 274/274/274 272/272/272 
f 271/271/271 274/274/274 276/276/276 
f 279/279/279 278/278/278 277/277/277 
f 278/278/278 280/280/280 277/277/277 
f 281/281/281 280/280/280 278/278/278 
f 277/277/277 280/280/280 282/282/282 
f 285/285/285 284/284/284 283/283/283 
f 284/284/284 286/286/286 283/283/283 
f 287/287/287 286/286/286 284/284/284 
f 283/283/283 286/286/286 288/288/288 
f 291/291/291 290/290/290 289/289/289 
f 290/290/290 292/292/292 289/289/289 
f 293/293/293 292/292/292 290/290/290 
f 289/289/289 292/292/292 294/294/294 
f 297/297/297 296/296/296 295/295/295 
f 296/296/296 298/298/298 295/295/295 
f 299/299/299 298/298/298 296/296/296 
f 295/295/295 298/298/298 300/300/300 
f 303/303/303 302/302/302 301/301/301 
f 302/302/302 304/304/304 301/301/301 
f 305/305/305 304/304/304 302/302/302 
f 301/301/301 304/304/304 306/306/306 
f 309/309/309 308/308/308 307/307/307 
f 308/308/308 310/310/310 307/307/307 
f 311/311/311 310/310/310 308/308/308 
f 307/307/307 310/310/310 312/312/312 
f 315/315/315 314/314/314 313/313/313 
f 314/314/314 316/316/316 313/313/313 
f 317/317/317 316/316/316 314/314/314 
f 313/313/313 316/316/316 318/318/318 
f 321/321/321 320/320/320 319/319/319 
f 320/320/320 322/322/322 319/319/319 
f 323/323/323 322/322/322 320/320/320 
f 319/319/319 322/322/322 324/324/324 
f 327/327/327 326/326/326 325/325/325 
f 326/326/326 328/328/328 325/325/325 
f 329/329/329 328/328/328 326/326/326 
f 325/325/325 328/328/328 330/330/330 
f 333/333/333 332/332/332 331/331/331 
f 332/332/332 334/334/334 331/331/331 
f 335/335/335 334/334/334 332/332/332 
f 331/331/331 334/334/334 336/336/336 
f 339/339/339 338/338/338 337/337/337 
f 338/338/338 340/340/340 337/337/337 
f 341/341/341 340/340/340 338/338/338 
f 337/337/337 340/340/340 342/342/342 
f 345/345/345 344/344/344 343/343/343 
f 344/344/344 346/346/346 343/343/343 
f 347/347/347 346/346/346 344/344/344 
f 343/343/343 346/346/346 348/348/348 
f 351/351/351 350/350/350 349/349/349 
f 350/350/350 352/352/352 349/349/349 
f 353/353/353 352/352/352 350/350/350 
f 349/349/349 352/352/352 354/354/354 
f 357/357/357 356/356/356 355/355/355 
f 356/356/356 358/358/358 355/355/355 
f 359/359/359 358/358/358 356/356/356 
f 355/355/355 358/358/358 360/360/360 
f 363/363/363 362/362/362 361/361/361 
f 362/362/362 364/364/364 361/361/361 
f 365/365/365 364/364/364 362/362/362 
f 361/361/361 364/364/364 366/366/366 
f 369/369/369 368/368/368 367/367/367 
f 368/368/368 370/370/370 367/367/367 
f 371/371/371 370/370/370 368/368/368 
f 367/367/367 370/370/370 372/372/372 
f 375/375/375 374/374/374 373/373/373 
f 374/374/374 376/376/376 373/373/373 
f 377/377/377 376/376/376 374/374/374 
f 373/373/373 376/376/376 378/378/378 
f 381/381/381 380/380/380 379/379/379 
f 380/380/380 382/382/382 379/379/379 
f 383/383/383 382/382/382 380/380/380 
f 379/379/379 382/382/382 384/384/384 
f 387/387/387 386/386/386 385/385/385 
f 386/386/386 388/388/388 385/385/385 
f 389/389/389 388/388/388 386/386/386 
f 385/385/385 388/388/388 390/390/390 
f 393/393/393 392/392/392 391/391/391 
f 392/392/392 394/394/394 391/391/391 
f 395/395/395 394/394/394 392/392/392 
f 391/391/391 394/394/394 396/396/396 
f 399/399/399 398/398/398 397/397/397 
f 398/398/398 400/400/400 397/397/397 
f 401/401/401 400/400/400 398/398/398 
f 397/397/397 400/400/400 402/402/402 
f 405/405/405 404/404/404 403/403/403 
f 404/404/404 406/406/406 403/403/403 
f 407/407/407 406/406/406 404/404/404 
f 403/403/403 406/406/406 408/408/408 
f 411/411/411 410/410/410 409/409/409 
f 410/410/410 412/412/412 409/409/409 
f 413/413/413 412/412/412 410/410/410 
f 409/409/409 412/412/412 414/414/414 
f 417/417/417 416/416/416 415/415/415 
f 416/416/416 418/418/418 415/415/415 
f 419/419/419 418/418/418 416/416/416 
f 415/415/415 418/418/418 420/420/420 
f 423/423/423 422/422/422 421/421/421 
f 422/422/422 424/424/424 421/421/421 
f 425/425/425 424/424/424 422/422/422 
f 421/421/421 424/424/424 426/426/426 
f 429/429/429 428/428/428 427/427/427 
f 428/428/428 430/430/430 427/427/427 
f 431/431/431 430/430/430 428/428/428 
f 427/427/427 430/430/430 432/432/432 
f 435/435/435 434/434/434 433/433/433 
f 434/434/434 436/436/436 433/433/433 
f 437/437/437 436/436/436 434/434/434 
f 433/433/433 436/436/436 438/438/438 
f 441/441/441 440/440/440 439/439/439 
f 440/440/440 442/442/442 439/439/439 
f 443/443/443 442/442/442 440/440/440 
f 439/439/439 442/442/442 444/444/444 
f 447/447/447 446/446/446 445/445/445 
f 446/446/446 448/448/448 445/445/445 
f 449/449/449 448/448/448 446/446/446 
f 445/445/445 448/448/448 450/450/450 
f 453/453/453 452/452/452 451/451/451 
f 452/452/452 454/454/454 451/451/451 
f 455/455/455 454/454/454 452/452/452 
f 451/451/451 454/454/454 456/456/456 
f 459/459/459 458/458/458 457/457/457 
f 458/458/458 460/460/460 457/457/457 
f 461/461/461 460/460/460 458/458/458 
f 457/457/457 460/460/460 462/462/462 
f 465/465/465 464/464/464 463/463/463 
f 464/464/464 466/466/466 463/463/463 
f 467/467/467 466/466/466 464/464/464 
f 463/463/463 466/466/466 468/468/468 
f 471/471/471 470/470/470 469/469/469 
f 470/470/470 472/472/472 469/469/469 
f 473/473/473 472/472/472 470/470/470 
f 469/469/469 472/472/472 474/474/474 
f 477/477/477 476/476/476 475/475/475 
f 476/476/476 478/478/478 475/475/475 
f 479/479/479 478/478/478 476/476/476 
f 475/475/475 478/478/478 480/480/480 
f 483/483/483 482/482/482 481/481/481 
f 482/482/482 484/484/484 481/481/481 
f 485/485/485 484/484/484 482/482/482 
f 481/481/481 484/484/484 486/486/486 
f 489/489/489 488/488/488 487/487/487 
f 488/488/488 490/490/490 487/487/487 
f 491/491/491 490/490/490 488/488/488 
f 487/487/487 490/490/490 492/492/492 
f 495/495/495 494/494/494 493/493/493 
f 494/494/494 496/496/496 493/493/493 
f 497/497/497 496/496/496 494/494/494 
f 493/493/493 496/496/496 498/498/498 
f 501/501/501 500/500/500 499/499/499 
f 500/500/500 502/502/502 499/499/499 
f 503/503/503 502/502/502 500/500/500 
f 499/499/499 502/502/502 504/504/504 
f 507/507/507 506/506/506 505/505/505 
f 506/506/506 508/508/508 505/505/505 
f 509/509/509 508/508/508 506/506/506 
f 505/505/505 508/508/508 510/510/510 
f 513/513/513 512/512/512 511/511/511 
f 512/512/512 514/514/514 511/511/511 
f 515/515/515 514/514/514 512/512/512 
f 511/511/511 514/514/514 516/516/516 
f 519/519/519 518/518/518 517/517/517 
f 518/518/518 520/520/520 517/517/517 
f 521/521/521 520/520/520 518/518/518 
f 517/517/517 520/520/520 522/522/522 
f 525/525/525 524/524/524 523/523/523 
f 524/524/524 526/526/526 523/523/523 
f 527/527/527 526/526/526 524/524/524 
f 523/523/523 526/526/526 528/528/528 
f 531/531/531 530/530/530 529/529/529 
f 530/530/530 532/532/532 529/529/529 
f 533/533/533 532/532/532 530/530/530 
f 529/529/529 532/532/532 534/534/534 
f 537/537/537 536/536/536 535/535/535 
f 536/536/536 538/538/538 535/535/535 
f 539/539/539 538/538/538 536/536/536 
f 535/535/535 538/538/538 540/540/540 
f 543/543/543 542/542/542 541/541/541 
f 542/542/542 544/544/544 541/541/541 
f 545/545/545 544/544/544 542/542/542 
f 541/541/541 544/544/544 546/546/546 
f 549/549/549 548/548/548 547/547/547 
f 548/548/548 550/550/550 547/547/547 
f 551/551/551 550/550/550 548/548/548 
f 547/547/547 550/550/550 552/552/552 
f 555/555/555 554/554/554 553/553/553 
f 554/554/554 556/556/556 553/553/553 
f 557/557/557 556/556/556 554/554/554 
f 553/553/553 556/556/556 558/558/558 
f 561/561/561 560/560/560 559/559/559 
f 560/560/560 562/562/562 559/559/559 
f 563/563/563 562/562/562 560/560/560 
f 559/559/559 562/562/562 564/564/564 
f 567/567/567 566/566/566 565/565/565 
f 566/566/566 568/568/568 565/565/565 
f 569/569/569 568/568/568 566/566/566 
f 565/565/565 568/568/568 570/570/570 
f 573/573/573 572/572/572 571/571/571 
f 572/572/572 574/574/574 571/571/571 
f 575/575/575 574/574/574 572/572/572 
f 571/571/571 574/574/574 576/576/576 
f 579/579/579 578/578/578 577/577/577 
f 578/578/578 580/580/580 577/577/577 
f 581/581/581 580/580/580 578/578/578 
f 577/577/577 580/580/580 582/582/582 
f 585/585/585 584/584/584 583/583/583 
f 584/584/584 586/586/586 583/583/583 
f 587/587/587 586/586/586 584/584/584 
f 583/583/583 586/586/586 588/588/588 
f 591/591/591 590/590/590 589/589/589 
f 590/590/590 592/592/592 589/589/589 
f 593/593/593 592/592/592 590/590/590 
f 589/589/589 592/592/592 594/594/594 
f 597/597/597 596/596/596 595/595/595 
f 596/596/596 598/598/598 595/595/595 
f 599/599/599 598/598/598 596/596/596 
f 595/595/595 598/598/598 600/600/600 

