v 0.22957481443881989 8.920781335852723e-10 -0.012952087447047234
v 0.24111522734165192 3.5583656021742627e-09 -0.051894620060920715
v 0.22482101619243622 3.961333483459839e-09 -0.048396699130535126
v 0.24621452391147614 7.853985239947292e-10 -0.01387811079621315
v 0.23045018315315247 8.950874708091305e-09 -0.08786814659833908
v 0.21488238871097565 9.636116793387828e-09 -0.08191998302936554
v 0.21468210220336914 5.096493449485706e-09 -0.12132564932107925
v 0.20018403232097626 6.043278322209744e-09 -0.11310718208551407
v 0.1942736804485321 2.0658639243720245e-08 -0.15180541574954987
v 0.18115080893039703 2.1842074815481283e-08 -0.1415327489376068
v 0.16968394815921783 1.754280631871552e-08 -0.17885202169418335
v 0.15821118652820587 1.89353386303992e-08 -0.16676431894302368
v 0.14136828482151031 1.4874781406604143e-08 -0.20201151072978973
v 0.13179758191108704 1.644651526078178e-08 -0.18836824595928192
v 0.10978041589260101 1.2707136676226582e-08 -0.22082747519016266
v 0.10234364867210388 1.4425278749286008e-08 -0.20591334998607635
v 0.075377456843853 1.1092938123624663e-08 -0.2348393201828003
v 0.07027991861104965 1.2920818193151717e-08 -0.21897262334823608
v 0.03862482309341431 1.0085554613681325e-08 -0.2435837835073471
v 0.036028649657964706 1.1982012715350265e-08 -0.22712180018424988
v -1.383975586577435e-06 9.738109874035672e-09 -0.24659974873065948
v 1.3290778042573947e-06 1.1658009668735758e-08 -0.22993429005146027
v -0.038624826818704605 1.0085554613681325e-08 -0.2435837835073471
v -0.03602864593267441 1.1982012715350265e-08 -0.22712180018424988
v -0.0753774493932724 1.1092936347267823e-08 -0.2348393350839615
v -0.07027990370988846 1.2920815528616458e-08 -0.21897263824939728
v -0.10978036373853683 1.2707136676226582e-08 -0.22082744538784027
v -0.1023436039686203 1.4425278749286008e-08 -0.20591330528259277
v -0.14136824011802673 1.4874781406604143e-08 -0.20201146602630615
v -0.13179753720760345 1.644651526078178e-08 -0.18836820125579834
v -0.16968394815921783 1.754280454235868e-08 -0.17885200679302216
v -0.15821118652820587 1.8935335077685522e-08 -0.1667642891407013
v -0.1942736804485321 2.0658635691006566e-08 -0.15180540084838867
v -0.18115080893039703 2.1842069486410765e-08 -0.14153273403644562
v -0.21468211710453033 5.096487676325978e-09 -0.12132564187049866
v -0.20018404722213745 6.043272549050016e-09 -0.11310718953609467
v -0.23045022785663605 8.950877372626564e-09 -0.08786807209253311
v -0.21488238871097565 9.636118569744667e-09 -0.08191990852355957
v -0.24111518263816833 3.558361605371374e-09 -0.051894597709178925
v -0.22482097148895264 3.96133081892458e-09 -0.048396676778793335
v -0.24621449410915375 7.853933059465135e-10 -0.01387809868901968
v -0.2295747846364975 8.920719163363344e-10 -0.012952090241014957
v 0.237894669175148 0.008332725614309311 -0.013415098190307617
v 0.23296812176704407 -0.008332720957696438 -0.05014566332101822
v 0.23296812176704407 0.008332728408277035 -0.05014566332101822
v 0.237894669175148 -0.008332721889019012 -0.013415100052952766
v 0.22266627848148346 -0.008332710713148117 -0.08489406108856201
v 0.22266627848148346 0.00833272933959961 -0.08489406108856201
v 0.2074330598115921 -0.008332709781825542 -0.11721642315387726
v 0.2074330598115921 0.00833273958414793 -0.11721642315387726
v 0.18771225214004517 -0.008332713507115841 -0.14666907489299774
v 0.18771225214004517 0.008332736790180206 -0.14666907489299774
v 0.16394755244255066 -0.008332716301083565 -0.17280817031860352
v 0.16394755244255066 0.00833275355398655 -0.17280817031860352
v 0.13658294081687927 -0.008332719095051289 -0.19518987834453583
v 0.13658294081687927 0.008332749828696251 -0.19518987834453583
v 0.10606202483177185 -0.008332682773470879 -0.2133704125881195
v 0.10606202483177185 0.008332747966051102 -0.2133704125881195
v 0.07282869517803192 -0.008332684636116028 -0.2269059717655182
v 0.07282869517803192 0.008332747034728527 -0.2269059717655182
v 0.037326738238334656 -0.008332684636116028 -0.2353527992963791
v 0.037326738238334656 0.008332746103405952 -0.2353527992963791
v -2.7448853856526512e-08 -0.008332685567438602 -0.23826701939105988
v -2.744897287243475e-08 0.008332745172083378 -0.23826701939105988
v -0.03732673451304436 -0.008332684636116028 -0.2353527992963791
v -0.03732673451304436 0.008332746103405952 -0.2353527992963791
v -0.07282867282629013 -0.008332684636116028 -0.22690598666667938
v -0.07282867282629013 0.008332746103405952 -0.22690598666667938
v -0.10606198757886887 -0.008332682773470879 -0.21337038278579712
v -0.10606198757886887 0.008332747966051102 -0.21337038278579712
v -0.1365828812122345 -0.008332719095051289 -0.19518983364105225
v -0.1365828812122345 0.008332749828696251 -0.19518983364105225
v -0.16394755244255066 -0.008332716301083565 -0.17280814051628113
v -0.16394755244255066 0.00833275355398655 -0.17280814051628113
v -0.18771225214004517 -0.008332713507115841 -0.14666907489299774
v -0.18771225214004517 0.008332736790180206 -0.14666907489299774
v -0.2074330896139145 -0.008332709781825542 -0.11721641570329666
v -0.2074330896139145 0.00833273958414793 -0.11721641570329666
v -0.22266632318496704 -0.008332710713148117 -0.08489398658275604
v -0.22266632318496704 0.00833272933959961 -0.08489398658275604
v -0.23296807706356049 -0.008332720957696438 -0.05014563351869583
v -0.23296807706356049 0.008332728408277035 -0.05014563351869583
v -0.23789463937282562 -0.008332721889019012 -0.013415095396339893
v -0.23789463937282562 0.008332725614309311 -0.013415093533694744
vn -0.0 -1.0 -1.1520231879558196e-07
vn -0.0 -1.0 -1.1520231879558196e-07
vn -0.0 -1.0 -1.1520231879558196e-07
vn -0.0 -1.0 -1.1520232590100932e-07
vn -0.0 -1.0 -1.1520231879558196e-07
vn -0.0 -1.0 -1.1520232590100932e-07
vn -0.0 -1.0 -1.1520229037387253e-07
vn -0.0 -1.0 -1.1520230458472724e-07
vn -0.0 -1.0 -1.1520232590100932e-07
vn -0.0 -1.0 -1.1520232590100932e-07
vn -0.0 -1.0 -1.1520231879558196e-07
vn -0.0 -1.0 -1.1520231879558196e-07
vn -0.0 -1.0 -1.1520224774130838e-07
vn -0.0 -1.0 -1.152022619521631e-07
vn -0.0 -1.0 -1.1520230458472724e-07
vn -0.0 -1.0 -1.152023116901546e-07
vn -0.0 -1.0 -1.1520228326844517e-07
vn -0.0 -1.0 -1.1520230458472724e-07
vn -0.0 -1.0 -1.1520227616301781e-07
vn -0.0 -1.0 -1.1520229037387253e-07
vn -0.0 -1.0 -1.1520235432271875e-07
vn -0.0 -1.0 -1.1520234721729139e-07
vn -0.0 -1.0 -1.1520228326844517e-07
vn -0.0 -1.0 -1.152022619521631e-07
vn -0.0 -1.0 -1.152022619521631e-07
vn -0.0 -1.0 -1.152022619521631e-07
vn -0.0 -1.0 -1.152023116901546e-07
vn -0.0 -1.0 -1.1520229037387253e-07
vn -0.0 -1.0 -1.1520224774130838e-07
vn -0.0 -1.0 -1.1520224063588103e-07
vn -0.0 -1.0 -1.152023116901546e-07
vn -0.0 -1.0 -1.1520232590100932e-07
vn -0.0 -1.0 -1.1520230458472724e-07
vn -0.0 -1.0 -1.1520230458472724e-07
vn -0.0 -1.0 -1.1520231879558196e-07
vn -0.0 -1.0 -1.1520232590100932e-07
vn -0.0 -1.0 -1.1520231879558196e-07
vn -0.0 -1.0 -1.152023116901546e-07
vn -0.0 -1.0 -1.1520232590100932e-07
vn -0.0 -1.0 -1.1520232590100932e-07
vn -0.0 -1.0 -1.1520231879558196e-07
vn -0.0 -1.0 -1.1520231879558196e-07
vn -0.9911245703697205 0.0 0.13293622434139252
vn -0.9778695106506348 0.0 0.20921559631824493
vn -0.9778695106506348 0.0 0.20921561121940613
vn -0.9911245703697205 0.0 0.13293622434139252
vn -0.9343677163124084 0.0 0.3563101291656494
vn -0.9343677163124084 0.0 0.3563101291656494
vn -0.8701863288879395 0.0 0.492722749710083
vn -0.8701863288879395 0.0 0.4927228093147278
vn -0.7875737547874451 0.0 0.6162203550338745
vn -0.7875738143920898 0.0 0.6162203550338745
vn -0.6883799433708191 0.0 0.7253503203392029
vn -0.6883799433708191 0.0 0.7253502607345581
vn -0.5740135908126831 0.0 0.818845808506012
vn -0.5740135908126831 0.0 0.818845808506012
vn -0.4457424581050873 0.0 0.8951612114906311
vn -0.4457424581050873 0.0 0.8951612114906311
vn -0.30522841215133667 0.0 0.9522792100906372
vn -0.3052283823490143 0.0 0.9522792100906372
vn -0.15512001514434814 0.0 0.987895667552948
vn -0.15512001514434814 0.0 0.987895667552948
vn -0.0 0.0 1.0
vn -0.0 0.0 1.0
vn 0.1551198661327362 0.0 0.987895667552948
vn 0.1551198661327362 0.0 0.987895667552948
vn 0.30522897839546204 0.0 0.9522789716720581
vn 0.30522897839546204 0.0 0.9522789716720581
vn 0.44574329257011414 0.0 0.8951607942581177
vn 0.44574329257011414 0.0 0.8951607942581177
vn 0.5740131139755249 0.0 0.8188461661338806
vn 0.5740129947662354 0.0 0.8188461661338806
vn 0.6883794665336609 0.0 0.7253507971763611
vn 0.6883794665336609 0.0 0.7253507971763611
vn 0.7875735759735107 0.0 0.6162206530570984
vn 0.7875735759735107 0.0 0.6162206530570984
vn 0.8701863288879395 0.0 0.4927228093147278
vn 0.8701863288879395 0.0 0.492722749710083
vn 0.9343681335449219 0.0 0.3563092052936554
vn 0.9343680739402771 0.0 0.3563092350959778
vn 0.9778696298599243 0.0 0.20921507477760315
vn 0.9778696298599243 0.0 0.20921513438224792
vn 0.9911245107650757 0.0 0.13293683528900146
vn 0.9911245107650757 0.0 0.13293682038784027
vt 0.0 1.0
vt 0.05000000074505806 0.0
vt 0.05000000074505806 1.0
vt 0.0 0.0
vt 0.10000000149011612 0.0
vt 0.10000000149011612 1.0
vt 0.15000000596046448 0.0
vt 0.15000000596046448 1.0
vt 0.20000000298023224 0.0
vt 0.20000000298023224 1.0
vt 0.25 0.0
vt 0.25 1.0
vt 0.30000001192092896 0.0
vt 0.30000001192092896 1.0
vt 0.3500000238418579 0.0
vt 0.3500000238418579 1.0
vt 0.40000003576278687 0.0
vt 0.40000003576278687 1.0
vt 0.4500000476837158 0.0
vt 0.4500000476837158 1.0
vt 0.5000000596046448 0.0
vt 0.5000000596046448 1.0
vt 0.5500000715255737 0.0
vt 0.5500000715255737 1.0
vt 0.6000000834465027 0.0
vt 0.6000000834465027 1.0
vt 0.6500000953674316 0.0
vt 0.6500000953674316 1.0
vt 0.7000001072883606 0.0
vt 0.7000001072883606 1.0
vt 0.7500001192092896 0.0
vt 0.7500001192092896 1.0
vt 0.8000001311302185 0.0
vt 0.8000001311302185 1.0
vt 0.8500001430511475 0.0
vt 0.8500001430511475 1.0
vt 0.9000001549720764 0.0
vt 0.9000001549720764 1.0
vt 0.9500001668930054 0.0
vt 0.9500001668930054 1.0
vt 1.0000001192092896 0.0
vt 1.0000001192092896 1.0
vt 0.0 1.0
vt 0.05000000074505806 0.0
vt 0.05000000074505806 1.0
vt 0.0 0.0
vt 0.10000000149011612 0.0
vt 0.10000000149011612 1.0
vt 0.15000000596046448 0.0
vt 0.15000000596046448 1.0
vt 0.20000000298023224 0.0
vt 0.20000000298023224 1.0
vt 0.25 0.0
vt 0.25 1.0
vt 0.30000001192092896 0.0
vt 0.30000001192092896 1.0
vt 0.3500000238418579 0.0
vt 0.3500000238418579 1.0
vt 0.40000003576278687 0.0
vt 0.40000003576278687 1.0
vt 0.4500000476837158 0.0
vt 0.4500000476837158 1.0
vt 0.5000000596046448 0.0
vt 0.5000000596046448 1.0
vt 0.5500000715255737 0.0
vt 0.5500000715255737 1.0
vt 0.6000000834465027 0.0
vt 0.6000000834465027 1.0
vt 0.6500000953674316 0.0
vt 0.6500000953674316 1.0
vt 0.7000001072883606 0.0
vt 0.7000001072883606 1.0
vt 0.7500001192092896 0.0
vt 0.7500001192092896 1.0
vt 0.8000001311302185 0.0
vt 0.8000001311302185 1.0
vt 0.8500001430511475 0.0
vt 0.8500001430511475 1.0
vt 0.9000001549720764 0.0
vt 0.9000001549720764 1.0
vt 0.9500001668930054 0.0
vt 0.9500001668930054 1.0
vt 1.0000001192092896 0.0
vt 1.0000001192092896 1.0

g ribbon04
s 1
usemtl ribbon04
f 3/3/3 2/2/2 1/1/1 
f 4/4/4 1/1/1 2/2/2 
f 2/2/2 3/3/3 5/5/5 
f 6/6/6 5/5/5 3/3/3 
f 5/5/5 6/6/6 7/7/7 
f 8/8/8 7/7/7 6/6/6 
f 7/7/7 8/8/8 9/9/9 
f 10/10/10 9/9/9 8/8/8 
f 9/9/9 10/10/10 11/11/11 
f 12/12/12 11/11/11 10/10/10 
f 11/11/11 12/12/12 13/13/13 
f 14/14/14 13/13/13 12/12/12 
f 13/13/13 14/14/14 15/15/15 
f 16/16/16 15/15/15 14/14/14 
f 15/15/15 16/16/16 17/17/17 
f 18/18/18 17/17/17 16/16/16 
f 17/17/17 18/18/18 19/19/19 
f 20/20/20 19/19/19 18/18/18 
f 19/19/19 20/20/20 21/21/21 
f 22/22/22 21/21/21 20/20/20 
f 21/21/21 22/22/22 23/23/23 
f 24/24/24 23/23/23 22/22/22 
f 23/23/23 24/24/24 25/25/25 
f 26/26/26 25/25/25 24/24/24 
f 25/25/25 26/26/26 27/27/27 
f 28/28/28 27/27/27 26/26/26 
f 27/27/27 28/28/28 29/29/29 
f 30/30/30 29/29/29 28/28/28 
f 29/29/29 30/30/30 31/31/31 
f 32/32/32 31/31/31 30/30/30 
f 31/31/31 32/32/32 33/33/33 
f 34/34/34 33/33/33 32/32/32 
f 33/33/33 34/34/34 35/35/35 
f 36/36/36 35/35/35 34/34/34 
f 35/35/35 36/36/36 37/37/37 
f 38/38/38 37/37/37 36/36/36 
f 37/37/37 38/38/38 39/39/39 
f 40/40/40 39/39/39 38/38/38 
f 39/39/39 40/40/40 41/41/41 
f 42/42/42 41/41/41 40/40/40 
f 45/45/45 44/44/44 43/43/43 
f 46/46/46 43/43/43 44/44/44 
f 44/44/44 45/45/45 47/47/47 
f 48/48/48 47/47/47 45/45/45 
f 47/47/47 48/48/48 49/49/49 
f 50/50/50 49/49/49 48/48/48 
f 49/49/49 50/50/50 51/51/51 
f 52/52/52 51/51/51 50/50/50 
f 51/51/51 52/52/52 53/53/53 
f 54/54/54 53/53/53 52/52/52 
f 53/53/53 54/54/54 55/55/55 
f 56/56/56 55/55/55 54/54/54 
f 55/55/55 56/56/56 57/57/57 
f 58/58/58 57/57/57 56/56/56 
f 57/57/57 58/58/58 59/59/59 
f 60/60/60 59/59/59 58/58/58 
f 59/59/59 60/60/60 61/61/61 
f 62/62/62 61/61/61 60/60/60 
f 61/61/61 62/62/62 63/63/63 
f 64/64/64 63/63/63 62/62/62 
f 63/63/63 64/64/64 65/65/65 
f 66/66/66 65/65/65 64/64/64 
f 65/65/65 66/66/66 67/67/67 
f 68/68/68 67/67/67 66/66/66 
f 67/67/67 68/68/68 69/69/69 
f 70/70/70 69/69/69 68/68/68 
f 69/69/69 70/70/70 71/71/71 
f 72/72/72 71/71/71 70/70/70 
f 71/71/71 72/72/72 73/73/73 
f 74/74/74 73/73/73 72/72/72 
f 73/73/73 74/74/74 75/75/75 
f 76/76/76 75/75/75 74/74/74 
f 75/75/75 76/76/76 77/77/77 
f 78/78/78 77/77/77 76/76/76 
f 77/77/77 78/78/78 79/79/79 
f 80/80/80 79/79/79 78/78/78 
f 79/79/79 80/80/80 81/81/81 
f 82/82/82 81/81/81 80/80/80 
f 81/81/81 82/82/82 83/83/83 
f 84/84/84 83/83/83 82/82/82 

