v 0.428223192691803 0.006553863640874624 0.19852566719055176
v 0.02054932713508606 -0.045850690454244614 -0.19852566719055176
v 0.08575338870286942 -0.06680793315172195 -0.13573569059371948
v 0.4808572828769684 -0.060006801038980484 0.2608860731124878
v 0.1472913920879364 -0.10859375447034836 -0.06887343525886536
v 0.5199309587478638 -0.14460599422454834 0.32615241408348083
v 0.19688032567501068 -0.16872651875019073 -0.0013051650021225214
v 0.5394454598426819 -0.2398354560136795 0.39065295457839966
v 0.23026143014431 -0.24430620670318604 0.06693942099809647
v 0.5374909043312073 -0.3411998450756073 0.45436325669288635
v 0.24385187029838562 -0.33154094219207764 0.13582922518253326
v 0.5131456255912781 -0.4439714550971985 0.5172625780105591
v 0.23491841554641724 -0.42589983344078064 0.20533064007759094
v 0.46647995710372925 -0.5433942675590515 0.5793324708938599
v 0.20172391831874847 -0.5223004221916199 0.27540862560272217
v 0.39852121472358704 -0.6348755359649658 0.6405575275421143
v 0.14363008737564087 -0.6153193116188049 0.34602367877960205
v 0.31117984652519226 -0.7141722440719604 0.7009260058403015
v 0.061156731098890305 -0.6994272470474243 0.4171349108219147
v 0.20714859664440155 -0.7775408029556274 0.7604281902313232
v -0.04400903731584549 -0.7692301869392395 0.4886990487575531
v 0.08977542817592621 -0.8218719959259033 0.8190593123435974
v -0.16905072331428528 -0.819709062576294 0.5606694221496582
v -0.03708504140377045 -0.8447873592376709 0.8768161535263062
v -0.31011763215065 -0.8464506268501282 0.6329983472824097
v -0.16922716796398163 -0.8447082042694092 0.9336996078491211
v -0.46245649456977844 -0.8458526134490967 0.7056377530097961
v -0.30225515365600586 -0.8208891153335571 0.9897137880325317
v -0.6205941438674927 -0.8152977228164673 0.7785385251045227
v -0.43174636363983154 -0.7734231352806091 1.0448665618896484
v -0.7785266637802124 -0.7532937526702881 0.8516443371772766
v -0.5534092783927917 -0.7032120227813721 1.0991692543029785
v -0.9299743175506592 -0.6595667600631714 0.9249013662338257
v -0.6632168889045715 -0.6119157671928406 1.1526366472244263
v -1.068630337715149 -0.5350947976112366 0.998259425163269
v -0.7575339674949646 -0.5018799901008606 1.205285668373108
v -1.1883924007415771 -0.38211727142333984 1.071658968925476
v -0.8332287669181824 -0.37603265047073364 1.2571384906768799
v -1.2836289405822754 -0.20406699180603027 1.145043134689331
v -0.8877516388893127 -0.2377830594778061 1.3082201480865479
v -1.3494107723236084 -0.005449958145618439 1.2183585166931152
v -0.9191953539848328 -0.09090801328420639 1.3585577011108398
v -1.381703495979309 0.20827527344226837 1.2915458679199219
v -0.9263381361961365 0.060579635202884674 1.4081827402114868
v -1.377551555633545 0.43091100454330444 1.3645472526550293
v -0.9086567163467407 0.21254652738571167 1.457131028175354
v -1.3352001905441284 0.6557473540306091 1.4373087882995605
v -0.8663253784179688 0.360847532749176 1.5054371356964111
v -1.2541884183883667 0.8757657408714294 1.5097719430923462
v -0.8001881837844849 0.5014605522155762 1.553142786026001
v -1.1353765726089478 1.0839345455169678 1.5818836688995361
v -0.7117254137992859 0.6305685043334961 1.6002910137176514
v -0.9809394478797913 1.2734346389770508 1.6535860300064087
v -0.6029958128929138 0.7446621060371399 1.6469297409057617
v -0.7942985892295837 1.4379197359085083 1.7248286008834839
v -0.4765787422657013 0.8406087756156921 1.6931031942367554
v -0.5800120830535889 1.571745753288269 1.7955570220947266
v -0.3355001211166382 0.9157272577285767 1.7388644218444824
v -0.3436278700828552 1.6701610088348389 1.865721583366394
v -0.1831488013267517 0.9678418636322021 1.7842674255371094
v -0.09148608148097992 1.729492425918579 1.9352757930755615
v -0.023216314613819122 0.9953114986419678 1.8293631076812744
v 0.16947725415229797 1.7472584247589111 2.004171133041382
v 0.14042001962661743 0.997073233127594 1.8742109537124634
v 0.43197333812713623 1.7222636938095093 2.0723631381988525
v 0.3037508428096771 0.9726479649543762 1.9188700914382935
v 0.688622772693634 1.6546351909637451 2.1398115158081055
v 0.4627107083797455 0.9221545457839966 1.9633949995040894
v 0.932165265083313 1.545815110206604 2.206479072570801
v 0.6132928729057312 0.8463043570518494 2.007849931716919
v 1.1557115316390991 1.3985109329223633 2.272326707839966
v 0.751611590385437 0.7463813424110413 2.052297830581665
v 1.352980136871338 1.2165896892547607 2.3373241424560547
v 0.8739440441131592 0.6242527961730957 2.096795082092285
v 1.5184705257415771 1.004949927330017 2.4014415740966797
v 0.9768561720848083 0.48230940103530884 2.1414055824279785
v 1.6476373672485352 0.7693606019020081 2.464653730392456
v 1.0572456121444702 0.32344314455986023 2.186195135116577
v 1.7370198965072632 0.5162623524665833 2.5269365310668945
v 1.1124072074890137 0.15101568400859833 2.2312228679656982
v 1.7837387323379517 0.2563808560371399 2.5873944759368896
v 1.14424729347229 -0.058838073164224625 2.2833669185638428
vn 0.7040075063705444 -0.06358625739812851 -0.7073402404785156
vn 0.7040075063705444 -0.06358625739812851 -0.7073402404785156
vn 0.7046176791191101 -0.07642804831266403 -0.7054592370986938
vn 0.7058900594711304 -0.1372424215078354 -0.6948983669281006
vn 0.70473712682724 -0.17671696841716766 -0.6871075630187988
vn 0.7001344561576843 -0.23228374123573303 -0.6751710176467896
vn 0.6937478184700012 -0.27925366163253784 -0.663875937461853
vn 0.6841626167297363 -0.3291589319705963 -0.6508270502090454
vn 0.6707198023796082 -0.3832426369190216 -0.6350275278091431
vn 0.6572163105010986 -0.4271242916584015 -0.6209924221038818
vn 0.6349140405654907 -0.4874804615974426 -0.5993720889091492
vn 0.6185996532440186 -0.5250487923622131 -0.5845153331756592
vn 0.5856088995933533 -0.5904480218887329 -0.5553677082061768
vn 0.567653477191925 -0.6214742064476013 -0.5399438738822937
vn 0.522153913974762 -0.6901319622993469 -0.5010719895362854
vn 0.5038252472877502 -0.7144576907157898 -0.4855000376701355
vn 0.4441067576408386 -0.7837618589401245 -0.4341503977775574
vn 0.42679858207702637 -0.8013663291931152 -0.41911211609840393
vn 0.3515177369117737 -0.8674739599227905 -0.35202881693840027
vn 0.33675333857536316 -0.8786153793334961 -0.3385738432407379
vn 0.2454683780670166 -0.9359841346740723 -0.252346932888031
vn 0.2347966879606247 -0.9414543509483337 -0.2419382482767105
vn 0.12887321412563324 -0.982581615447998 -0.13388468325138092
vn 0.12357331067323685 -0.9840124845504761 -0.12825360894203186
vn 0.0073447925969958305 -0.9999709725379944 0.002025251043960452
vn 0.007899382151663303 -0.9999678730964661 0.0013717036927118897
vn -0.110567107796669 -0.9824622869491577 0.15014252066612244
vn -0.10501613467931747 -0.9841759204864502 0.1427210420370102
vn -0.2146870344877243 -0.9290614724159241 0.30125436186790466
vn -0.20638853311538696 -0.9350561499595642 0.2882251739501953
vn -0.29615336656570435 -0.8454789519309998 0.444362998008728
vn -0.2879543900489807 -0.8565276861190796 0.42830199003219604
vn -0.35039153695106506 -0.7429695725440979 0.5702823996543884
vn -0.34452518820762634 -0.7578299045562744 0.554072380065918
vn -0.37804532051086426 -0.6344524025917053 0.6742046475410461
vn -0.3754262924194336 -0.6508069634437561 0.6599283218383789
vn -0.3835771381855011 -0.5307151079177856 0.7557843923568726
vn -0.38394567370414734 -0.5463614463806152 0.7443620562553406
vn -0.37303978204727173 -0.438671350479126 0.8175626993179321
vn -0.37552589178085327 -0.4521845281124115 0.8090175986289978
vn -0.3523652255535126 -0.3615587651729584 0.8631998300552368
vn -0.35599416494369507 -0.3723447620868683 0.8571041822433472
vn -0.32654598355293274 -0.2999897003173828 0.8963112831115723
vn -0.3305027484893799 -0.30804622173309326 0.892118513584137
vn -0.29944977164268494 -0.25300025939941406 0.9199569225311279
vn -0.30315861105918884 -0.2586544454097748 0.9171656370162964
vn -0.27392345666885376 -0.21881507337093353 0.9365286231040955
vn -0.2770349085330963 -0.22252942621707916 0.9347364902496338
vn -0.2519840598106384 -0.19531184434890747 0.9478171467781067
vn -0.25432801246643066 -0.19756846129894257 0.9467227458953857
vn -0.2349953055381775 -0.18027104437351227 0.955133318901062
vn -0.23653563857078552 -0.18151196837425232 0.9545178413391113
vn -0.2238079160451889 -0.1715165227651596 0.959422767162323
vn -0.22460246086120605 -0.17211395502090454 0.959130048751831
vn -0.21886186301708221 -0.16698023676872253 0.9613620638847351
vn -0.21903254091739655 -0.16722747683525085 0.9612802863121033
vn -0.22026491165161133 -0.16473166644573212 0.9614295363426208
vn -0.2199728786945343 -0.16484041512012482 0.9614778161048889
vn -0.22784000635147095 -0.16299527883529663 0.959959089756012
vn -0.2272685021162033 -0.1630980521440506 0.9600771069526672
vn -0.24116888642311096 -0.16016048192977905 0.957176148891449
vn -0.24050594866275787 -0.16031420230865479 0.9573172330856323
vn -0.25963419675827026 -0.15478694438934326 0.9532214403152466
vn -0.2590595483779907 -0.154977947473526 0.9533467292785645
vn -0.2824352979660034 -0.145610049366951 0.9481708407402039
vn -0.2821091413497925 -0.14575940370559692 0.9482450485229492
vn -0.308627188205719 -0.13154186308383942 0.9420435428619385
vn -0.30867695808410645 -0.13151170313358307 0.9420314431190491
vn -0.33713629841804504 -0.11167808622121811 0.934808611869812
vn -0.33764761686325073 -0.11127784103155136 0.9346717596054077
vn -0.36677831411361694 -0.08530053496360779 0.9263894557952881
vn -0.3677848279476166 -0.08429394662380219 0.9260824918746948
vn -0.39629092812538147 -0.051872462034225464 0.9166584610939026
vn -0.39776334166526794 -0.049986403435468674 0.9161253571510315
vn -0.42434367537498474 -0.011039413511753082 0.9054339528083801
vn -0.4261808395385742 -0.007972067221999168 0.9046028852462769
vn -0.44955015182495117 0.03736378997564316 0.8924732804298401
vn -0.45156893134117126 0.04193204268813133 0.8912503123283386
vn -0.4705224931240082 0.09370968490839005 0.877397894859314
vn -0.47245511412620544 0.10019730776548386 0.8756406903266907
vn -0.4803957939147949 0.12766015529632568 0.8677111864089966
vn -0.4803957939147949 0.12766017019748688 0.8677111864089966
vt 0.9892450571060181 0.9946297407150269
vt 0.9933248162269592 0.014616608619689941
vt 0.9689365029335022 0.014616608619689941
vt 0.9647665023803711 0.9946297407150269
vt 0.9445482492446899 0.014616608619689941
vt 0.9402879476547241 0.9946297407150269
vt 0.9201599359512329 0.014616608619689941
vt 0.9158093929290771 0.9946297407150269
vt 0.8957716822624207 0.014616608619689941
vt 0.8913308382034302 0.9946297407150269
vt 0.8713833689689636 0.014616608619689941
vt 0.8668524026870728 0.9946297407150269
vt 0.8469951152801514 0.014616608619689941
vt 0.8423738479614258 0.9946297407150269
vt 0.8226068019866943 0.014616608619689941
vt 0.8178952932357788 0.9946297407150269
vt 0.7982185482978821 0.014616608619689941
vt 0.7934167385101318 0.9946297407150269
vt 0.7738302946090698 0.014616608619689941
vt 0.7689381837844849 0.9946297407150269
vt 0.749441921710968 0.014616608619689941
vt 0.7444597482681274 0.9946297407150269
vt 0.7250537276268005 0.014616608619689941
vt 0.7199811935424805 0.9946297407150269
vt 0.7006654143333435 0.014616608619689941
vt 0.6955026388168335 0.9946297407150269
vt 0.6762771010398865 0.014616608619689941
vt 0.6710240840911865 0.9946297407150269
vt 0.6518888473510742 0.014616608619689941
vt 0.6465456485748291 0.9946296811103821
vt 0.627500593662262 0.014616608619689941
vt 0.6220670938491821 0.9946296811103821
vt 0.6031122803688049 0.014616608619689941
vt 0.5975885391235352 0.9946296811103821
vt 0.5787240266799927 0.014616608619689941
vt 0.5731101036071777 0.9946296811103821
vt 0.5543357729911804 0.014616608619689941
vt 0.5486315488815308 0.9946296811103821
vt 0.5299474596977234 0.014616608619689941
vt 0.5241529941558838 0.9946296811103821
vt 0.5055592060089111 0.014616549015045166
vt 0.4996744990348816 0.9946296811103821
vt 0.4811709523200989 0.014616549015045166
vt 0.4751959443092346 0.9946296811103821
vt 0.4567825198173523 0.014616549015045166
vt 0.45071738958358765 0.9946296811103821
vt 0.4323943257331848 0.014616549015045166
vt 0.4262389540672302 0.9946296811103821
vt 0.4080060124397278 0.014616549015045166
vt 0.40176039934158325 0.9946296811103821
vt 0.38361769914627075 0.014616549015045166
vt 0.3772818446159363 0.9946296811103821
vt 0.3592293858528137 0.014616549015045166
vt 0.35280340909957886 0.9946296811103821
vt 0.3348410725593567 0.014616549015045166
vt 0.3283248543739319 0.9946296811103821
vt 0.31045275926589966 0.014616549015045166
vt 0.3038462996482849 0.9946296811103821
vt 0.2860644459724426 0.014616549015045166
vt 0.27936774492263794 0.9946296811103821
vt 0.26167625188827515 0.014616549015045166
vt 0.2548893690109253 0.9946296811103821
vt 0.23728793859481812 0.014616549015045166
vt 0.23041081428527832 0.9946296811103821
vt 0.21289962530136108 0.014616549015045166
vt 0.20593225955963135 0.9946296811103821
vt 0.18851131200790405 0.014616549015045166
vt 0.18145382404327393 0.9946296811103821
vt 0.16412299871444702 0.014616549015045166
vt 0.15697526931762695 0.9946296811103821
vt 0.13973468542099 0.014616549015045166
vt 0.13249671459197998 0.9946296811103821
vt 0.11534649133682251 0.014616549015045166
vt 0.10801827907562256 0.9946296811103821
vt 0.09095817804336548 0.014616549015045166
vt 0.08353972434997559 0.9946296811103821
vt 0.06656986474990845 0.014616549015045166
vt 0.05906116962432861 0.9946296811103821
vt 0.042181432247161865 0.014616549015045166
vt 0.03458261489868164 0.9946296811103821
vt 0.017793238162994385 0.014616549015045166
vt 0.010104060173034668 0.9946296811103821

g Helix001
s 1
usemtl Helix001
f 3/3/3 2/2/2 1/1/1 
f 4/4/4 3/3/3 1/1/1 
f 5/5/5 3/3/3 4/4/4 
f 6/6/6 5/5/5 4/4/4 
f 7/7/7 5/5/5 6/6/6 
f 8/8/8 7/7/7 6/6/6 
f 9/9/9 7/7/7 8/8/8 
f 10/10/10 9/9/9 8/8/8 
f 11/11/11 9/9/9 10/10/10 
f 12/12/12 11/11/11 10/10/10 
f 13/13/13 11/11/11 12/12/12 
f 14/14/14 13/13/13 12/12/12 
f 15/15/15 13/13/13 14/14/14 
f 16/16/16 15/15/15 14/14/14 
f 17/17/17 15/15/15 16/16/16 
f 18/18/18 17/17/17 16/16/16 
f 19/19/19 17/17/17 18/18/18 
f 20/20/20 19/19/19 18/18/18 
f 21/21/21 19/19/19 20/20/20 
f 22/22/22 21/21/21 20/20/20 
f 23/23/23 21/21/21 22/22/22 
f 24/24/24 23/23/23 22/22/22 
f 25/25/25 23/23/23 24/24/24 
f 26/26/26 25/25/25 24/24/24 
f 27/27/27 25/25/25 26/26/26 
f 28/28/28 27/27/27 26/26/26 
f 29/29/29 27/27/27 28/28/28 
f 30/30/30 29/29/29 28/28/28 
f 31/31/31 29/29/29 30/30/30 
f 32/32/32 31/31/31 30/30/30 
f 33/33/33 31/31/31 32/32/32 
f 34/34/34 33/33/33 32/32/32 
f 35/35/35 33/33/33 34/34/34 
f 36/36/36 35/35/35 34/34/34 
f 37/37/37 35/35/35 36/36/36 
f 38/38/38 37/37/37 36/36/36 
f 39/39/39 37/37/37 38/38/38 
f 40/40/40 39/39/39 38/38/38 
f 41/41/41 39/39/39 40/40/40 
f 42/42/42 41/41/41 40/40/40 
f 43/43/43 41/41/41 42/42/42 
f 44/44/44 43/43/43 42/42/42 
f 45/45/45 43/43/43 44/44/44 
f 46/46/46 45/45/45 44/44/44 
f 47/47/47 45/45/45 46/46/46 
f 48/48/48 47/47/47 46/46/46 
f 49/49/49 47/47/47 48/48/48 
f 50/50/50 49/49/49 48/48/48 
f 51/51/51 49/49/49 50/50/50 
f 52/52/52 51/51/51 50/50/50 
f 53/53/53 51/51/51 52/52/52 
f 54/54/54 53/53/53 52/52/52 
f 55/55/55 53/53/53 54/54/54 
f 56/56/56 55/55/55 54/54/54 
f 57/57/57 55/55/55 56/56/56 
f 58/58/58 57/57/57 56/56/56 
f 59/59/59 57/57/57 58/58/58 
f 60/60/60 59/59/59 58/58/58 
f 61/61/61 59/59/59 60/60/60 
f 62/62/62 61/61/61 60/60/60 
f 63/63/63 61/61/61 62/62/62 
f 64/64/64 63/63/63 62/62/62 
f 65/65/65 63/63/63 64/64/64 
f 66/66/66 65/65/65 64/64/64 
f 67/67/67 65/65/65 66/66/66 
f 68/68/68 67/67/67 66/66/66 
f 69/69/69 67/67/67 68/68/68 
f 70/70/70 69/69/69 68/68/68 
f 71/71/71 69/69/69 70/70/70 
f 72/72/72 71/71/71 70/70/70 
f 73/73/73 71/71/71 72/72/72 
f 74/74/74 73/73/73 72/72/72 
f 75/75/75 73/73/73 74/74/74 
f 76/76/76 75/75/75 74/74/74 
f 77/77/77 75/75/75 76/76/76 
f 78/78/78 77/77/77 76/76/76 
f 79/79/79 77/77/77 78/78/78 
f 80/80/80 79/79/79 78/78/78 
f 81/81/81 79/79/79 80/80/80 
f 82/82/82 81/81/81 80/80/80 

