v 3.814697265625e-05 1.5056381225585938 -0.0013233727077022195
v -0.5760955810546875 1.3910408020019531 -0.0013232592027634382
v -0.5322418212890625 1.3910388946533203 -0.22179843485355377
v -0.40735626220703125 1.3910408020019531 -0.4087090492248535
v -0.220428466796875 1.3910408020019531 -0.5335995554924011
v 3.814697265625e-05 1.3910388946533203 -0.5774550437927246
v 0.22051239013671875 1.3910388946533203 -0.5335995554924011
v 0.4074249267578125 1.3910369873046875 -0.4087091088294983
v 0.532318115234375 1.3910388946533203 -0.22179853916168213
v 0.5761795043945312 1.3910388946533203 -0.001323366304859519
v -0.9834747314453125 1.0646858215332031 -0.4087088704109192
v -1.06451416015625 1.0646858215332031 -0.0013232454657554626
v -0.7527084350585938 1.0646858215332031 -0.7540768384933472
v -0.4073486328125 1.0646858215332031 -0.9848423600196838
v 3.814697265625e-05 1.0646858215332031 -1.065877914428711
v 0.4074249267578125 1.0646858215332031 -0.9848424792289734
v 0.7527999877929688 1.0646858215332031 -0.7540769577026367
v 0.9835586547851562 1.0646858215332031 -0.4087090492248535
v 1.0645904541015625 1.0646858215332031 -0.0013234433718025684
v -1.2849884033203125 0.576263427734375 -0.5335991978645325
v -1.390869140625 0.576263427734375 -0.0013231926131993532
v -0.9834747314453125 0.576263427734375 -0.9848420023918152
v -0.5322418212890625 0.576263427734375 -1.2863539457321167
v 3.814697265625e-05 0.5762596130371094 -1.3922312259674072
v 0.5323257446289062 0.576263427734375 -1.2863540649414062
v 0.9835662841796875 0.576263427734375 -0.9848421812057495
v 1.2850723266601562 0.576263427734375 -0.5335994362831116
v 1.3909454345703125 0.5762653350830078 -0.001323451055213809
v -1.390869140625 0.0001277923583984375 -0.577454149723053
v -1.5054702758789062 0.0001277923583984375 -0.0013232389464974403
v -1.06451416015625 0.0001277923583984375 -1.0658776760101318
v -0.5760955810546875 0.0001277923583984375 -1.3922311067581177
v 3.814697265625e-05 0.0001277923583984375 -1.5068333148956299
v 0.5761795043945312 0.00012969970703125 -1.3922312259674072
v 1.0645904541015625 0.00012969970703125 -1.0658777952194214
v 1.3909530639648438 0.00012969970703125 -0.5774543881416321
v 1.5055465698242188 0.00012969970703125 -0.0013235188089311123
v -1.2849884033203125 -0.5760040283203125 -0.5335988998413086
v -1.390869140625 -0.5760040283203125 -0.0013232361525297165
v -0.9834747314453125 -0.5760040283203125 -0.9848417043685913
v -0.5322418212890625 -0.5760040283203125 -1.286353588104248
v 3.814697265625e-05 -0.5760059356689453 -1.3922308683395386
v 0.5323257446289062 -0.5760059356689453 -1.2863537073135376
v 0.9835662841796875 -0.5760040283203125 -0.9848418831825256
v 1.2850723266601562 -0.5760040283203125 -0.5335991382598877
v 1.3909454345703125 -0.5760040283203125 -0.0013234945945441723
v -0.9834747314453125 -1.0644264221191406 -0.4087084233760834
v -1.0645217895507812 -1.0644264221191406 -0.001323243253864348
v -0.7527084350585938 -1.0644264221191406 -0.7540751099586487
v -0.4073486328125 -1.0644264221191406 -0.9848418235778809
v 3.814697265625e-05 -1.0644264221191406 -1.0658767223358154
v 0.4074249267578125 -1.0644264221191406 -0.9848419427871704
v 0.7527999877929688 -1.0644264221191406 -0.7540752291679382
v 0.9835662841796875 -1.0644264221191406 -0.4087086021900177
v 1.0645904541015625 -1.0644264221191406 -0.0013234411599114537
v -0.5322341918945312 -1.3907794952392578 -0.2217978984117508
v -0.5760955810546875 -1.3907794952392578 -0.0013233209028840065
v -0.4073486328125 -1.3907794952392578 -0.4087085425853729
v -0.220428466796875 -1.3907794952392578 -0.5335990786552429
v 3.814697265625e-05 -1.3907794952392578 -0.5774551033973694
v 0.22051239013671875 -1.3907794952392578 -0.5335990786552429
v 0.4074249267578125 -1.3907794952392578 -0.4087086021900177
v 0.532318115234375 -1.3907794952392578 -0.22179800271987915
v 0.5761795043945312 -1.3907794952392578 -0.0013234280049800873
v 3.814697265625e-05 -1.5053787231445312 -0.0013233859790489078
v 3.814697265625e-05 1.5056381225585938 -0.0013233727077022195
v -0.5322418212890625 1.3910388946533203 0.21915176510810852
v -0.5760955810546875 1.3910408020019531 -0.0013232592027634382
v -0.40735626220703125 1.3910408020019531 0.40606239438056946
v -0.220428466796875 1.3910408020019531 0.5309528708457947
v 3.814697265625e-05 1.3910388946533203 0.5748083591461182
v 0.22051239013671875 1.3910388946533203 0.5309528708457947
v 0.4074249267578125 1.3910369873046875 0.4060623347759247
v 0.532318115234375 1.3910388946533203 0.21915166079998016
v 0.5761795043945312 1.3910388946533203 -0.001323366304859519
v -0.9834747314453125 1.0646858215332031 0.40606236457824707
v -1.06451416015625 1.0646858215332031 -0.0013232454657554626
v -0.7527084350585938 1.0646858215332031 0.751430094242096
v -0.4073486328125 1.0646858215332031 0.9821956157684326
v 3.814697265625e-05 1.0646858215332031 1.0632312297821045
v 0.4074249267578125 1.0646858215332031 0.9821954965591431
v 0.7527999877929688 1.0646858215332031 0.7514299750328064
v 0.9835586547851562 1.0646858215332031 0.40606218576431274
v 1.0645904541015625 1.0646858215332031 -0.0013234433718025684
v -1.2849884033203125 0.576263427734375 0.5309528708457947
v -1.390869140625 0.576263427734375 -0.0013231926131993532
v -0.9834747314453125 0.576263427734375 0.9821956753730774
v -0.5322418212890625 0.576263427734375 1.2837071418762207
v 3.814697265625e-05 0.5762596130371094 1.3895844221115112
v 0.5323257446289062 0.576263427734375 1.2837070226669312
v 0.9835662841796875 0.576263427734375 0.9821954965591431
v 1.2850723266601562 0.576263427734375 0.5309526324272156
v 1.3909454345703125 0.5762653350830078 -0.001323451055213809
v -1.390869140625 0.0001277923583984375 0.5748075842857361
v -1.5054702758789062 0.0001277923583984375 -0.0013232389464974403
v -1.06451416015625 0.0001277923583984375 1.063231110572815
v -0.5760955810546875 0.0001277923583984375 1.3895845413208008
v 3.814697265625e-05 0.0001277923583984375 1.5041868686676025
v 0.5761795043945312 0.00012969970703125 1.3895844221115112
v 1.0645904541015625 0.00012969970703125 1.0632309913635254
v 1.3909530639648438 0.00012969970703125 0.574807345867157
v 1.5055465698242188 0.00012969970703125 -0.0013235188089311123
v -1.2849884033203125 -0.5760040283203125 0.5309525728225708
v -1.390869140625 -0.5760040283203125 -0.0013232361525297165
v -0.9834747314453125 -0.5760040283203125 0.9821953773498535
v -0.5322418212890625 -0.5760040283203125 1.2837071418762207
v 3.814697265625e-05 -0.5760059356689453 1.3895844221115112
v 0.5323257446289062 -0.5760059356689453 1.2837070226669312
v 0.9835662841796875 -0.5760040283203125 0.9821951985359192
v 1.2850723266601562 -0.5760040283203125 0.5309523344039917
v 1.3909454345703125 -0.5760040283203125 -0.0013234945945441723
v -0.9834747314453125 -1.0644264221191406 0.4060620069503784
v -1.0645217895507812 -1.0644264221191406 -0.001323243253864348
v -0.7527084350585938 -1.0644264221191406 0.7514286041259766
v -0.4073486328125 -1.0644264221191406 0.982195258140564
v 3.814697265625e-05 -1.0644264221191406 1.0632303953170776
v 0.4074249267578125 -1.0644264221191406 0.9821951389312744
v 0.7527999877929688 -1.0644264221191406 0.751428484916687
v 0.9835662841796875 -1.0644264221191406 0.4060618281364441
v 1.0645904541015625 -1.0644264221191406 -0.0013234411599114537
v -0.5322341918945312 -1.3907794952392578 0.21915122866630554
v -0.5760955810546875 -1.3907794952392578 -0.0013233209028840065
v -0.4073486328125 -1.3907794952392578 0.4060618281364441
v -0.220428466796875 -1.3907794952392578 0.5309523344039917
v 3.814697265625e-05 -1.3907794952392578 0.5748083591461182
v 0.22051239013671875 -1.3907794952392578 0.5309523344039917
v 0.4074249267578125 -1.3907794952392578 0.4060617685317993
v 0.532318115234375 -1.3907794952392578 0.21915112435817719
v 0.5761795043945312 -1.3907794952392578 -0.0013234280049800873
v 3.814697265625e-05 -1.5053787231445312 -0.0013233859790489078
vn -0.0 1.0 0.0
vn -0.4030930995941162 0.9151589274406433 0.0
vn -0.37241363525390625 0.9151572585105896 -0.15425722301006317
vn -0.2850334942340851 0.9151576161384583 -0.2850307524204254
vn -0.1542508751153946 0.9151602983474731 -0.3724086284637451
vn -0.0 0.9151591062545776 -0.4030928909778595
vn 0.15425726771354675 0.9151599407196045 -0.37240707874298096
vn 0.2850273847579956 0.9151598811149597 -0.28502950072288513
vn 0.3724066913127899 0.9151595234870911 -0.15426024794578552
vn 0.4030967950820923 0.9151573777198792 0.0
vn -0.6641393303871155 0.6951543688774109 -0.2750988006591797
vn -0.7188596725463867 0.695155143737793 0.0
vn -0.5083120465278625 0.6951547265052795 -0.5083097219467163
vn -0.275096595287323 0.6951558589935303 -0.6641386151313782
vn -0.0 0.6951562762260437 -0.7188586592674255
vn 0.2750917971134186 0.6951585412025452 -0.6641378998756409
vn 0.5083097815513611 0.6951583027839661 -0.5083070993423462
vn 0.6641392111778259 0.6951572895050049 -0.2750917375087738
vn 0.718858540058136 0.6951563358306885 0.0
vn -0.8566927909851074 0.37436991930007935 -0.3548586368560791
vn -0.9272794127464294 0.3743700087070465 0.0
vn -0.6556876301765442 0.37436914443969727 -0.6556839942932129
vn -0.3548588752746582 0.3743681013584137 -0.8566935062408447
vn -0.0 0.3743668496608734 -0.9272806644439697
vn 0.35485604405403137 0.3743674159049988 -0.8566949367523193
vn 0.6556894183158875 0.3743658661842346 -0.6556840538978577
vn 0.8566969037055969 0.37436768412590027 -0.3548510670661926
vn 0.9272791147232056 0.37437066435813904 0.0
vn -0.9238781929016113 0.0 -0.3826866149902344
vn -1.0 0.0 0.0
vn -0.7071088552474976 0.0 -0.7071047425270081
vn -0.3826873004436493 0.0 -0.9238778948783875
vn -0.0 0.0 -1.0
vn 0.382686048746109 0.0 -0.9238784909248352
vn 0.7071072459220886 0.0 -0.7071062922477722
vn 0.9238806366920471 0.0 -0.3826808035373688
vn 1.0 0.0 0.0
vn -0.8566923141479492 -0.37436941266059875 -0.35486021637916565
vn -0.9272799491882324 -0.3743685185909271 0.0
vn -0.6556873917579651 -0.3743702471256256 -0.655683696269989
vn -0.35485970973968506 -0.3743690252304077 -0.8566926717758179
vn -0.0 -0.3743697702884674 -0.9272794723510742
vn 0.35485705733299255 -0.3743686378002167 -0.8566939830780029
vn 0.655689001083374 -0.3743651211261749 -0.6556848883628845
vn 0.8566975593566895 -0.3743661642074585 -0.354851096868515
vn 0.9272804260253906 -0.3743674159049988 0.0
vn -0.6641358733177185 -0.6951562166213989 -0.2751026153564453
vn -0.7188593149185181 -0.6951556205749512 0.0
vn -0.5083112120628357 -0.6951568126678467 -0.5083077549934387
vn -0.2750983238220215 -0.6951574087142944 -0.6641363501548767
vn -0.0 -0.695158064365387 -0.718856930732727
vn 0.275092214345932 -0.6951591968536377 -0.6641370058059692
vn 0.5083082914352417 -0.6951581835746765 -0.5083087086677551
vn 0.6641412377357483 -0.6951556205749512 -0.2750910520553589
vn 0.7188593149185181 -0.6951556205749512 0.0
vn -0.37240689992904663 -0.9151593446731567 -0.15426096320152283
vn -0.40309303998947144 -0.9151589870452881 0.0
vn -0.285031795501709 -0.9151581525802612 -0.2850304841995239
vn -0.1542557030916214 -0.9151598811149597 -0.37240782380104065
vn -0.0 -0.9151591062545776 -0.40309280157089233
vn 0.15425561368465424 -0.9151595234870911 -0.37240859866142273
vn 0.2850251793861389 -0.9151605367660522 -0.28502970933914185
vn 0.3724062144756317 -0.9151602387428284 -0.15425758063793182
vn 0.4030955731868744 -0.9151578545570374 0.0
vn -0.0 -1.0 0.0
vn -0.0 1.0 0.0
vn -0.37241360545158386 0.9151572585105896 0.15425726771354675
vn -0.4030930995941162 0.9151589274406433 0.0
vn -0.2850334644317627 0.9151576161384583 0.2850308120250702
vn -0.1542508751153946 0.9151602983474731 0.3724086582660675
vn -0.0 0.9151591062545776 0.4030928611755371
vn 0.1542573869228363 0.9151598811149597 0.37240707874298096
vn 0.2850273847579956 0.9151598811149597 0.28502950072288513
vn 0.3724066913127899 0.9151595234870911 0.15426024794578552
vn 0.4030967950820923 0.9151573777198792 0.0
vn -0.6641392707824707 0.6951543688774109 0.2750987708568573
vn -0.7188596725463867 0.695155143737793 0.0
vn -0.508311927318573 0.6951548457145691 0.5083097815513611
vn -0.27509650588035583 0.695155918598175 0.664138674736023
vn -0.0 0.6951562166213989 0.7188586592674255
vn 0.2750919461250305 0.6951585412025452 0.6641378998756409
vn 0.5083097219467163 0.6951583623886108 0.5083070993423462
vn 0.6641392111778259 0.6951572895050049 0.2750917375087738
vn 0.718858540058136 0.6951563358306885 0.0
vn -0.8566927909851074 0.37436988949775696 0.3548586666584015
vn -0.9272794127464294 0.3743700087070465 0.0
vn -0.6556874513626099 0.3743691146373749 0.6556841135025024
vn -0.35485875606536865 0.37436822056770325 0.8566935062408447
vn -0.0 0.3743670582771301 0.9272806644439697
vn 0.3548561632633209 0.3743675947189331 0.8566948175430298
vn 0.6556892991065979 0.374365895986557 0.6556841135025024
vn 0.8566969037055969 0.37436768412590027 0.35485100746154785
vn 0.9272791147232056 0.37437066435813904 0.0
vn -0.9238781929016113 0.0 0.382686585187912
vn -1.0 0.0 0.0
vn -0.707108736038208 0.0 0.7071048617362976
vn -0.3826872408390045 0.0 0.9238779544830322
vn -0.0 0.0 1.0
vn 0.3826862573623657 0.0 0.9238783717155457
vn 0.7071072459220886 0.0 0.7071062922477722
vn 0.9238806366920471 0.0 0.3826807141304016
vn 1.0 0.0 0.0
vn -0.8566923141479492 -0.37436938285827637 0.35486021637916565
vn -0.9272799491882324 -0.3743685185909271 0.0
vn -0.6556872725486755 -0.37437012791633606 0.655683696269989
vn -0.35485973954200745 -0.3743689954280853 0.8566927313804626
vn -0.0 -0.37436971068382263 0.9272794723510742
vn 0.35485726594924927 -0.3743685483932495 0.8566939234733582
vn 0.655689001083374 -0.3743651211261749 0.6556848883628845
vn 0.8566975593566895 -0.37436607480049133 0.354851096868515
vn 0.9272804260253906 -0.3743674159049988 0.0
vn -0.6641358733177185 -0.6951562166213989 0.2751026153564453
vn -0.7188593149185181 -0.6951556205749512 0.0
vn -0.5083110928535461 -0.6951568722724915 0.5083077549934387
vn -0.27509835362434387 -0.6951575875282288 0.6641362309455872
vn -0.0 -0.6951581835746765 0.7188568711280823
vn 0.2750924527645111 -0.6951592564582825 0.6641368865966797
vn 0.5083082318305969 -0.6951583027839661 0.5083087086677551
vn 0.6641411781311035 -0.6951556205749512 0.2750910222530365
vn 0.7188593149185181 -0.6951556205749512 0.0
vn -0.37240689992904663 -0.9151593446731567 0.15426096320152283
vn -0.40309303998947144 -0.9151589870452881 0.0
vn -0.2850317656993866 -0.9151581525802612 0.28503042459487915
vn -0.1542557179927826 -0.9151599407196045 0.3724077045917511
vn -0.0 -0.9151591658592224 0.4030926525592804
vn 0.15425574779510498 -0.9151595830917358 0.37240853905677795
vn 0.2850252389907837 -0.9151605367660522 0.28502964973449707
vn 0.37240615487098694 -0.9151602387428284 0.15425752103328705
vn 0.4030955731868744 -0.9151578545570374 0.0
vn -0.0 -1.0 0.0
vt 0.5 2.980232238769531e-07
vt 0.3086581230163574 0.03805965185165405
vt 0.3232225477695465 0.03806030750274658
vt 0.36469876766204834 0.03805965185165405
vt 0.42678001523017883 0.03805965185165405
vt 0.5 0.03806030750274658
vt 0.5732225179672241 0.03806030750274658
vt 0.6352987289428711 0.038060903549194336
vt 0.6767774820327759 0.03806030750274658
vt 0.6913444995880127 0.03806030750274658
vt 0.1733618974685669 0.14644664525985718
vt 0.14644759893417358 0.14644664525985718
vt 0.25000256299972534 0.14644664525985718
vt 0.3647012710571289 0.14644664525985718
vt 0.5 0.14644664525985718
vt 0.6352987289428711 0.14644664525985718
vt 0.7500025629997253 0.14644664525985718
vt 0.8266406655311584 0.14644664525985718
vt 0.8535524606704712 0.14644664525985718
vt 0.07322508096694946 0.3086584210395813
vt 0.03806060552597046 0.3086584210395813
vt 0.1733618974685669 0.3086584210395813
vt 0.3232225179672241 0.3086584210395813
vt 0.5 0.3086596727371216
vt 0.6767799854278564 0.3086584210395813
vt 0.8266432285308838 0.3086584210395813
vt 0.9267774820327759 0.3086584210395813
vt 0.9619393944740295 0.30865776538848877
vt 0.03806060552597046 0.5000009536743164
vt 0.0 0.5000009536743164
vt 0.14644759893417358 0.5000009536743164
vt 0.30865809321403503 0.5000009536743164
vt 0.5 0.5000009536743164
vt 0.6913444399833679 0.5000003278255463
vt 0.8535524606704712 0.5000003278255463
vt 0.9619419574737549 0.5000003278255463
vt 1.0 0.5000003278255463
vt 0.07322508096694946 0.6913422346115112
vt 0.03806060552597046 0.6913422346115112
vt 0.1733618974685669 0.6913422346115112
vt 0.3232225179672241 0.6913422346115112
vt 0.5 0.6913428604602814
vt 0.6767799854278564 0.6913428604602814
vt 0.8266432285308838 0.6913422346115112
vt 0.9267774820327759 0.6913422346115112
vt 0.9619393944740295 0.6913422346115112
vt 0.1733618974685669 0.8535540103912354
vt 0.14644503593444824 0.8535540103912354
vt 0.25000256299972534 0.8535540103912354
vt 0.3647012710571289 0.8535540103912354
vt 0.5 0.8535540103912354
vt 0.6352987289428711 0.8535540103912354
vt 0.7500025629997253 0.8535540103912354
vt 0.8266432285308838 0.8535540103912354
vt 0.8535524606704712 0.8535540103912354
vt 0.32322508096694946 0.961940348148346
vt 0.3086581230163574 0.961940348148346
vt 0.3647012710571289 0.961940348148346
vt 0.42678001523017883 0.961940348148346
vt 0.5 0.961940348148346
vt 0.5732225179672241 0.961940348148346
vt 0.6352987289428711 0.961940348148346
vt 0.6767774820327759 0.961940348148346
vt 0.6913444995880127 0.961940348148346
vt 0.5 1.0000002980232239
vt 0.5 2.980232238769531e-07
vt 0.3232225477695465 0.03806030750274658
vt 0.3086581230163574 0.03805965185165405
vt 0.36469876766204834 0.03805965185165405
vt 0.4267800450325012 0.03805965185165405
vt 0.5 0.03806030750274658
vt 0.5732225179672241 0.03806030750274658
vt 0.6352987289428711 0.038060903549194336
vt 0.6767774820327759 0.03806030750274658
vt 0.6913444995880127 0.03806030750274658
vt 0.1733618974685669 0.14644664525985718
vt 0.14644759893417358 0.14644664525985718
vt 0.25000256299972534 0.14644664525985718
vt 0.3647013008594513 0.14644664525985718
vt 0.5 0.14644664525985718
vt 0.6352987885475159 0.14644664525985718
vt 0.7500025629997253 0.14644664525985718
vt 0.8266406655311584 0.14644664525985718
vt 0.8535524606704712 0.14644664525985718
vt 0.07322508096694946 0.3086584210395813
vt 0.03806060552597046 0.3086584210395813
vt 0.1733618974685669 0.3086584210395813
vt 0.3232225775718689 0.3086584210395813
vt 0.5000000596046448 0.3086596727371216
vt 0.6767800450325012 0.3086584210395813
vt 0.8266432285308838 0.3086584210395813
vt 0.9267774820327759 0.3086584210395813
vt 0.9619393944740295 0.30865776538848877
vt 0.03806060552597046 0.5000009536743164
vt 0.0 0.5000009536743164
vt 0.14644759893417358 0.5000009536743164
vt 0.3086581230163574 0.5000009536743164
vt 0.5000000596046448 0.5000009536743164
vt 0.6913444995880127 0.5000003278255463
vt 0.8535524606704712 0.5000003278255463
vt 0.9619419574737549 0.5000003278255463
vt 1.0 0.5000003278255463
vt 0.07322508096694946 0.6913422346115112
vt 0.03806060552597046 0.6913422346115112
vt 0.1733618974685669 0.6913422346115112
vt 0.3232225775718689 0.6913422346115112
vt 0.5000000596046448 0.6913428604602814
vt 0.6767800450325012 0.6913428604602814
vt 0.8266432285308838 0.6913422346115112
vt 0.9267774820327759 0.6913422346115112
vt 0.9619393944740295 0.6913422346115112
vt 0.1733618974685669 0.8535540103912354
vt 0.14644503593444824 0.8535540103912354
vt 0.25000256299972534 0.8535540103912354
vt 0.3647013008594513 0.8535540103912354
vt 0.5 0.8535540103912354
vt 0.6352987885475159 0.8535540103912354
vt 0.7500025629997253 0.8535540103912354
vt 0.8266432285308838 0.8535540103912354
vt 0.8535524606704712 0.8535540103912354
vt 0.32322508096694946 0.961940348148346
vt 0.3086581230163574 0.961940348148346
vt 0.3647012710571289 0.961940348148346
vt 0.4267800450325012 0.961940348148346
vt 0.5 0.961940348148346
vt 0.5732225179672241 0.961940348148346
vt 0.6352987289428711 0.961940348148346
vt 0.6767774820327759 0.961940348148346
vt 0.6913444995880127 0.961940348148346
vt 0.5 1.0000002980232239

g colour
s 1
usemtl colour
f 3/3/3 2/2/2 1/1/1 
f 4/4/4 3/3/3 1/1/1 
f 5/5/5 4/4/4 1/1/1 
f 6/6/6 5/5/5 1/1/1 
f 7/7/7 6/6/6 1/1/1 
f 8/8/8 7/7/7 1/1/1 
f 9/9/9 8/8/8 1/1/1 
f 10/10/10 9/9/9 1/1/1 
f 3/3/3 11/11/11 2/2/2 
f 11/11/11 12/12/12 2/2/2 
f 13/13/13 11/11/11 3/3/3 
f 4/4/4 13/13/13 3/3/3 
f 14/14/14 13/13/13 4/4/4 
f 5/5/5 14/14/14 4/4/4 
f 15/15/15 14/14/14 5/5/5 
f 6/6/6 15/15/15 5/5/5 
f 16/16/16 15/15/15 6/6/6 
f 7/7/7 16/16/16 6/6/6 
f 17/17/17 16/16/16 7/7/7 
f 8/8/8 17/17/17 7/7/7 
f 18/18/18 17/17/17 8/8/8 
f 9/9/9 18/18/18 8/8/8 
f 19/19/19 18/18/18 9/9/9 
f 10/10/10 19/19/19 9/9/9 
f 11/11/11 20/20/20 12/12/12 
f 20/20/20 21/21/21 12/12/12 
f 22/22/22 20/20/20 11/11/11 
f 13/13/13 22/22/22 11/11/11 
f 23/23/23 22/22/22 13/13/13 
f 14/14/14 23/23/23 13/13/13 
f 24/24/24 23/23/23 14/14/14 
f 15/15/15 24/24/24 14/14/14 
f 25/25/25 24/24/24 15/15/15 
f 16/16/16 25/25/25 15/15/15 
f 26/26/26 25/25/25 16/16/16 
f 17/17/17 26/26/26 16/16/16 
f 27/27/27 26/26/26 17/17/17 
f 18/18/18 27/27/27 17/17/17 
f 28/28/28 27/27/27 18/18/18 
f 19/19/19 28/28/28 18/18/18 
f 20/20/20 29/29/29 21/21/21 
f 29/29/29 30/30/30 21/21/21 
f 31/31/31 29/29/29 20/20/20 
f 22/22/22 31/31/31 20/20/20 
f 32/32/32 31/31/31 22/22/22 
f 23/23/23 32/32/32 22/22/22 
f 33/33/33 32/32/32 23/23/23 
f 24/24/24 33/33/33 23/23/23 
f 34/34/34 33/33/33 24/24/24 
f 25/25/25 34/34/34 24/24/24 
f 35/35/35 34/34/34 25/25/25 
f 26/26/26 35/35/35 25/25/25 
f 36/36/36 35/35/35 26/26/26 
f 27/27/27 36/36/36 26/26/26 
f 37/37/37 36/36/36 27/27/27 
f 28/28/28 37/37/37 27/27/27 
f 29/29/29 38/38/38 30/30/30 
f 38/38/38 39/39/39 30/30/30 
f 40/40/40 38/38/38 29/29/29 
f 31/31/31 40/40/40 29/29/29 
f 41/41/41 40/40/40 31/31/31 
f 32/32/32 41/41/41 31/31/31 
f 42/42/42 41/41/41 32/32/32 
f 33/33/33 42/42/42 32/32/32 
f 43/43/43 42/42/42 33/33/33 
f 34/34/34 43/43/43 33/33/33 
f 44/44/44 43/43/43 34/34/34 
f 35/35/35 44/44/44 34/34/34 
f 45/45/45 44/44/44 35/35/35 
f 36/36/36 45/45/45 35/35/35 
f 46/46/46 45/45/45 36/36/36 
f 37/37/37 46/46/46 36/36/36 
f 38/38/38 47/47/47 39/39/39 
f 47/47/47 48/48/48 39/39/39 
f 49/49/49 47/47/47 38/38/38 
f 40/40/40 49/49/49 38/38/38 
f 50/50/50 49/49/49 40/40/40 
f 41/41/41 50/50/50 40/40/40 
f 51/51/51 50/50/50 41/41/41 
f 42/42/42 51/51/51 41/41/41 
f 52/52/52 51/51/51 42/42/42 
f 43/43/43 52/52/52 42/42/42 
f 53/53/53 52/52/52 43/43/43 
f 44/44/44 53/53/53 43/43/43 
f 54/54/54 53/53/53 44/44/44 
f 45/45/45 54/54/54 44/44/44 
f 55/55/55 54/54/54 45/45/45 
f 46/46/46 55/55/55 45/45/45 
f 47/47/47 56/56/56 48/48/48 
f 56/56/56 57/57/57 48/48/48 
f 58/58/58 56/56/56 47/47/47 
f 49/49/49 58/58/58 47/47/47 
f 59/59/59 58/58/58 49/49/49 
f 50/50/50 59/59/59 49/49/49 
f 60/60/60 59/59/59 50/50/50 
f 51/51/51 60/60/60 50/50/50 
f 61/61/61 60/60/60 51/51/51 
f 52/52/52 61/61/61 51/51/51 
f 62/62/62 61/61/61 52/52/52 
f 53/53/53 62/62/62 52/52/52 
f 63/63/63 62/62/62 53/53/53 
f 54/54/54 63/63/63 53/53/53 
f 64/64/64 63/63/63 54/54/54 
f 55/55/55 64/64/64 54/54/54 
f 57/57/57 56/56/56 65/65/65 
f 56/56/56 58/58/58 65/65/65 
f 58/58/58 59/59/59 65/65/65 
f 59/59/59 60/60/60 65/65/65 
f 60/60/60 61/61/61 65/65/65 
f 61/61/61 62/62/62 65/65/65 
f 62/62/62 63/63/63 65/65/65 
f 63/63/63 64/64/64 65/65/65 
f 68/68/68 67/67/67 66/66/66 
f 67/67/67 69/69/69 66/66/66 
f 69/69/69 70/70/70 66/66/66 
f 70/70/70 71/71/71 66/66/66 
f 71/71/71 72/72/72 66/66/66 
f 72/72/72 73/73/73 66/66/66 
f 73/73/73 74/74/74 66/66/66 
f 74/74/74 75/75/75 66/66/66 
f 76/76/76 67/67/67 68/68/68 
f 77/77/77 76/76/76 68/68/68 
f 78/78/78 69/69/69 67/67/67 
f 76/76/76 78/78/78 67/67/67 
f 79/79/79 70/70/70 69/69/69 
f 78/78/78 79/79/79 69/69/69 
f 80/80/80 71/71/71 70/70/70 
f 79/79/79 80/80/80 70/70/70 
f 81/81/81 72/72/72 71/71/71 
f 80/80/80 81/81/81 71/71/71 
f 82/82/82 73/73/73 72/72/72 
f 81/81/81 82/82/82 72/72/72 
f 83/83/83 74/74/74 73/73/73 
f 82/82/82 83/83/83 73/73/73 
f 84/84/84 75/75/75 74/74/74 
f 83/83/83 84/84/84 74/74/74 
f 85/85/85 76/76/76 77/77/77 
f 86/86/86 85/85/85 77/77/77 
f 87/87/87 78/78/78 76/76/76 
f 85/85/85 87/87/87 76/76/76 
f 88/88/88 79/79/79 78/78/78 
f 87/87/87 88/88/88 78/78/78 
f 89/89/89 80/80/80 79/79/79 
f 88/88/88 89/89/89 79/79/79 
f 90/90/90 81/81/81 80/80/80 
f 89/89/89 90/90/90 80/80/80 
f 91/91/91 82/82/82 81/81/81 
f 90/90/90 91/91/91 81/81/81 
f 92/92/92 83/83/83 82/82/82 
f 91/91/91 92/92/92 82/82/82 
f 93/93/93 84/84/84 83/83/83 
f 92/92/92 93/93/93 83/83/83 
f 94/94/94 85/85/85 86/86/86 
f 95/95/95 94/94/94 86/86/86 
f 96/96/96 87/87/87 85/85/85 
f 94/94/94 96/96/96 85/85/85 
f 97/97/97 88/88/88 87/87/87 
f 96/96/96 97/97/97 87/87/87 
f 98/98/98 89/89/89 88/88/88 
f 97/97/97 98/98/98 88/88/88 
f 99/99/99 90/90/90 89/89/89 
f 98/98/98 99/99/99 89/89/89 
f 100/100/100 91/91/91 90/90/90 
f 99/99/99 100/100/100 90/90/90 
f 101/101/101 92/92/92 91/91/91 
f 100/100/100 101/101/101 91/91/91 
f 102/102/102 93/93/93 92/92/92 
f 101/101/101 102/102/102 92/92/92 
f 103/103/103 94/94/94 95/95/95 
f 104/104/104 103/103/103 95/95/95 
f 105/105/105 96/96/96 94/94/94 
f 103/103/103 105/105/105 94/94/94 
f 106/106/106 97/97/97 96/96/96 
f 105/105/105 106/106/106 96/96/96 
f 107/107/107 98/98/98 97/97/97 
f 106/106/106 107/107/107 97/97/97 
f 108/108/108 99/99/99 98/98/98 
f 107/107/107 108/108/108 98/98/98 
f 109/109/109 100/100/100 99/99/99 
f 108/108/108 109/109/109 99/99/99 
f 110/110/110 101/101/101 100/100/100 
f 109/109/109 110/110/110 100/100/100 
f 111/111/111 102/102/102 101/101/101 
f 110/110/110 111/111/111 101/101/101 
f 112/112/112 103/103/103 104/104/104 
f 113/113/113 112/112/112 104/104/104 
f 114/114/114 105/105/105 103/103/103 
f 112/112/112 114/114/114 103/103/103 
f 115/115/115 106/106/106 105/105/105 
f 114/114/114 115/115/115 105/105/105 
f 116/116/116 107/107/107 106/106/106 
f 115/115/115 116/116/116 106/106/106 
f 117/117/117 108/108/108 107/107/107 
f 116/116/116 117/117/117 107/107/107 
f 118/118/118 109/109/109 108/108/108 
f 117/117/117 118/118/118 108/108/108 
f 119/119/119 110/110/110 109/109/109 
f 118/118/118 119/119/119 109/109/109 
f 120/120/120 111/111/111 110/110/110 
f 119/119/119 120/120/120 110/110/110 
f 121/121/121 112/112/112 113/113/113 
f 122/122/122 121/121/121 113/113/113 
f 123/123/123 114/114/114 112/112/112 
f 121/121/121 123/123/123 112/112/112 
f 124/124/124 115/115/115 114/114/114 
f 123/123/123 124/124/124 114/114/114 
f 125/125/125 116/116/116 115/115/115 
f 124/124/124 125/125/125 115/115/115 
f 126/126/126 117/117/117 116/116/116 
f 125/125/125 126/126/126 116/116/116 
f 127/127/127 118/118/118 117/117/117 
f 126/126/126 127/127/127 117/117/117 
f 128/128/128 119/119/119 118/118/118 
f 127/127/127 128/128/128 118/118/118 
f 129/129/129 120/120/120 119/119/119 
f 128/128/128 129/129/129 119/119/119 
f 121/121/121 122/122/122 130/130/130 
f 123/123/123 121/121/121 130/130/130 
f 124/124/124 123/123/123 130/130/130 
f 125/125/125 124/124/124 130/130/130 
f 126/126/126 125/125/125 130/130/130 
f 127/127/127 126/126/126 130/130/130 
f 128/128/128 127/127/127 130/130/130 
f 129/129/129 128/128/128 130/130/130 

