v 5.8551106452941895 -9.5367431640625e-07 -1.2516975402832031e-06
v 2.86102294921875e-06 9.5367431640625e-07 -2.384185791015625e-07
v 5.568540096282959 9.5367431640625e-07 1.809327483177185
v 4.736884117126465 -9.5367431640625e-07 3.441546678543091
v 3.441547393798828 9.5367431640625e-07 4.736883640289307
v 1.8093299865722656 -9.5367431640625e-07 5.568539619445801
v -9.5367431640625e-07 -9.5367431640625e-07 5.8551106452941895
v -1.8093299865722656 9.5367431640625e-07 5.568540096282959
v -3.4415483474731445 -9.5367431640625e-07 4.736884593963623
v -4.736886024475098 9.5367431640625e-07 3.4415464401245117
v -5.568543434143066 -9.5367431640625e-07 1.8093268871307373
v -5.855111122131348 9.5367431640625e-07 -2.384185791015625e-06
v -5.568541526794434 -9.5367431640625e-07 -1.8093316555023193
v -4.736882209777832 9.5367431640625e-07 -3.441551685333252
v -3.441544532775879 -9.5367431640625e-07 -4.736886978149414
v -1.8093233108520508 9.5367431640625e-07 -5.568542003631592
v 6.67572021484375e-06 9.5367431640625e-07 -5.8551106452941895
v 1.809335708618164 -9.5367431640625e-07 -5.568540096282959
v 3.4415531158447266 9.5367431640625e-07 -4.736880779266357
v 4.736888408660889 -9.5367431640625e-07 -3.4415431022644043
v 5.568544387817383 9.5367431640625e-07 -1.8093221187591553
vn -0.0 -1.0 0.0
vn -0.0 -1.0 0.0
vn -0.0 -1.0 0.0
vn -0.0 -1.0 0.0
vn -0.0 -1.0 0.0
vn -0.0 -1.0 0.0
vn -0.0 -1.0 0.0
vn -0.0 -1.0 0.0
vn -0.0 -1.0 0.0
vn -0.0 -1.0 0.0
vn -0.0 -1.0 0.0
vn -0.0 -1.0 0.0
vn -0.0 -1.0 0.0
vn -0.0 -1.0 0.0
vn -0.0 -1.0 0.0
vn -0.0 -1.0 0.0
vn -0.0 -1.0 0.0
vn -0.0 -1.0 0.0
vn -0.0 -1.0 0.0
vn -0.0 -1.0 0.0
vn -0.0 -1.0 0.0
vt 0.58512282371521 0.7926524579524994
vt 0.535109281539917 0.7926560938358307
vt 0.5826746225357056 0.777199923992157
vt 0.5755710601806641 0.7632594704627991
vt 0.5645068883895874 0.7521955370903015
vt 0.550564169883728 0.7450916171073914
vt 0.5351074934005737 0.7426440119743347
vt 0.5196502208709717 0.745093047618866
vt 0.5057076215744019 0.7521985173225403
vt 0.4946441352367401 0.7632641196250916
vt 0.4875420033931732 0.7772061228752136
vt 0.48509564995765686 0.7926594316959381
vt 0.48754385113716125 0.8081118762493134
vt 0.49464723467826843 0.822052389383316
vt 0.5057113170623779 0.8331163823604584
vt 0.5196540355682373 0.8402204215526581
vt 0.5351108312606812 0.8426680862903595
vt 0.5505681037902832 0.8402191698551178
vt 0.5645108222961426 0.8331135809421539
vt 0.5755743980407715 0.8220478594303131
vt 0.5826765298843384 0.808105856180191

g Object07
s 1
usemtl Object07
f 3/3/3 2/2/2 1/1/1 
f 4/4/4 2/2/2 3/3/3 
f 5/5/5 2/2/2 4/4/4 
f 6/6/6 2/2/2 5/5/5 
f 7/7/7 2/2/2 6/6/6 
f 8/8/8 2/2/2 7/7/7 
f 9/9/9 2/2/2 8/8/8 
f 10/10/10 2/2/2 9/9/9 
f 11/11/11 2/2/2 10/10/10 
f 12/12/12 2/2/2 11/11/11 
f 13/13/13 2/2/2 12/12/12 
f 14/14/14 2/2/2 13/13/13 
f 15/15/15 2/2/2 14/14/14 
f 16/16/16 2/2/2 15/15/15 
f 17/17/17 2/2/2 16/16/16 
f 18/18/18 2/2/2 17/17/17 
f 19/19/19 2/2/2 18/18/18 
f 20/20/20 2/2/2 19/19/19 
f 21/21/21 2/2/2 20/20/20 
f 1/1/1 2/2/2 21/21/21 

