v 0.0028533935546875 1.5043792724609375 -0.0009638002375140786
v -0.5294265747070312 1.3897781372070312 0.21951180696487427
v -0.5732803344726562 1.3897781372070312 -0.000963692320510745
v 0.5351333618164062 1.3897781372070312 -0.2214394211769104
v 0.5789871215820312 1.3897781372070312 -0.0009637993643991649
v 0.0028533935546875 1.5043792724609375 -0.0009638002375140786
v -0.4045372009277344 1.3897781372070312 0.4064224064350128
v -0.5294265747070312 1.3897781372070312 0.21951180696487427
v 0.4102439880371094 1.3897781372070312 -0.40835005044937134
v 0.5351333618164062 1.3897781372070312 -0.2214394211769104
v 0.0028533935546875 1.5043792724609375 -0.0009638002375140786
v -0.21762466430664062 1.3897781372070312 0.5313129425048828
v -0.4045372009277344 1.3897781372070312 0.4064224064350128
v 0.22333145141601562 1.3897781372070312 -0.5332404375076294
v 0.4102439880371094 1.3897781372070312 -0.40835005044937134
v 0.0028533935546875 1.5043792724609375 -0.0009638002375140786
v 0.0028533935546875 1.3897781372070312 0.5751678347587585
v -0.21762466430664062 1.3897781372070312 0.5313129425048828
v 0.0028533935546875 1.3897781372070312 -0.5770953893661499
v 0.22333145141601562 1.3897781372070312 -0.5332404375076294
v 0.0028533935546875 1.5043792724609375 -0.0009638002375140786
v 0.22333145141601562 1.3897781372070312 0.5313129425048828
v 0.0028533935546875 1.3897781372070312 0.5751678347587585
v -0.21762466430664062 1.3897781372070312 -0.5332404375076294
v 0.0028533935546875 1.3897781372070312 -0.5770953893661499
v 0.0028533935546875 1.5043792724609375 -0.0009638002375140786
v 0.4102439880371094 1.3897781372070312 0.40642231702804565
v 0.22333145141601562 1.3897781372070312 0.5313129425048828
v -0.4045372009277344 1.3897781372070312 -0.4083499610424042
v -0.21762466430664062 1.3897781372070312 -0.5332404375076294
v 0.0028533935546875 1.5043792724609375 -0.0009638002375140786
v 0.5351333618164062 1.3897781372070312 0.2195117026567459
v 0.4102439880371094 1.3897781372070312 0.40642231702804565
v -0.5294265747070312 1.3897781372070312 -0.22143931686878204
v -0.4045372009277344 1.3897781372070312 -0.4083499610424042
v 0.0028533935546875 1.5043792724609375 -0.0009638002375140786
v 0.5789871215820312 1.3897781372070312 -0.0009637993643991649
v 0.5351333618164062 1.3897781372070312 0.2195117026567459
v -0.5732803344726562 1.3897781372070312 -0.000963692320510745
v -0.5294265747070312 1.3897781372070312 -0.22143931686878204
v -0.5732803344726562 1.3897781372070312 -0.000963692320510745
v -0.5294265747070312 1.3897781372070312 0.21951180696487427
v -0.9806709289550781 1.063425064086914 0.40642237663269043
v -1.0617027282714844 1.0634269714355469 -0.0009636831237003207
v -0.5294265747070312 1.3897781372070312 0.21951180696487427
v -0.4045372009277344 1.3897781372070312 0.4064224064350128
v -0.7499008178710938 1.063425064086914 0.7517895698547363
v -0.9806709289550781 1.063425064086914 0.40642237663269043
v -0.4045372009277344 1.3897781372070312 0.4064224064350128
v -0.21762466430664062 1.3897781372070312 0.5313129425048828
v -0.4045372009277344 1.063425064086914 0.982555627822876
v -0.7499008178710938 1.063425064086914 0.7517895698547363
v -0.21762466430664062 1.3897781372070312 0.5313129425048828
v 0.0028533935546875 1.3897781372070312 0.5751678347587585
v 0.0028533935546875 1.0634269714355469 1.0635906457901
v -0.4045372009277344 1.063425064086914 0.982555627822876
v 0.0028533935546875 1.3897781372070312 0.5751678347587585
v 0.22333145141601562 1.3897781372070312 0.5313129425048828
v 0.4102439880371094 1.0634269714355469 0.9825555682182312
v 0.0028533935546875 1.0634269714355469 1.0635906457901
v 0.22333145141601562 1.3897781372070312 0.5313129425048828
v 0.4102439880371094 1.3897781372070312 0.40642231702804565
v 0.7556076049804688 1.0634269714355469 0.7517894506454468
v 0.4102439880371094 1.0634269714355469 0.9825555682182312
v 0.4102439880371094 1.3897781372070312 0.40642231702804565
v 0.5351333618164062 1.3897781372070312 0.2195117026567459
v 0.9863662719726562 1.0634269714355469 0.4064221978187561
v 0.7556076049804688 1.0634269714355469 0.7517894506454468
v 0.5351333618164062 1.3897781372070312 0.2195117026567459
v 0.5789871215820312 1.3897781372070312 -0.0009637993643991649
v 1.0674095153808594 1.0634269714355469 -0.0009638809715397656
v 0.9863662719726562 1.0634269714355469 0.4064221978187561
v -1.0617027282714844 1.0634269714355469 -0.0009636831237003207
v -0.9806709289550781 1.063425064086914 0.40642237663269043
v -1.2821807861328125 0.5750026702880859 0.531312882900238
v -1.3880538940429688 0.5750026702880859 -0.0009636268950998783
v -0.9806709289550781 1.063425064086914 0.40642237663269043
v -0.7499008178710938 1.063425064086914 0.7517895698547363
v -0.9806709289550781 0.5750026702880859 0.9825555682182312
v -1.2821807861328125 0.5750026702880859 0.531312882900238
v -0.7499008178710938 1.063425064086914 0.7517895698547363
v -0.4045372009277344 1.063425064086914 0.982555627822876
v -0.5294265747070312 0.5750026702880859 1.284067153930664
v -0.9806709289550781 0.5750026702880859 0.9825555682182312
v -0.4045372009277344 1.063425064086914 0.982555627822876
v 0.0028533935546875 1.0634269714355469 1.0635906457901
v 0.0028533935546875 0.5750045776367188 1.3899439573287964
v -0.5294265747070312 0.5750026702880859 1.284067153930664
v 0.0028533935546875 1.0634269714355469 1.0635906457901
v 0.4102439880371094 1.0634269714355469 0.9825555682182312
v 0.5351333618164062 0.5750045776367188 1.284067153930664
v 0.0028533935546875 0.5750045776367188 1.3899439573287964
v 0.4102439880371094 1.0634269714355469 0.9825555682182312
v 0.7556076049804688 1.0634269714355469 0.7517894506454468
v 0.9863662719726562 0.5750045776367188 0.9825553894042969
v 0.5351333618164062 0.5750045776367188 1.284067153930664
v 0.7556076049804688 1.0634269714355469 0.7517894506454468
v 0.9863662719726562 1.0634269714355469 0.4064221978187561
v 1.2878875732421875 0.5750045776367188 0.5313126444816589
v 0.9863662719726562 0.5750045776367188 0.9825553894042969
v 0.9863662719726562 1.0634269714355469 0.4064221978187561
v 1.0674095153808594 1.0634269714355469 -0.0009638809715397656
v 1.3937568664550781 0.5750045776367188 -0.000963885395321995
v 1.2878875732421875 0.5750045776367188 0.5313126444816589
v -1.3880538940429688 0.5750026702880859 -0.0009636268950998783
v -1.2821807861328125 0.5750026702880859 0.531312882900238
v -1.3880538940429688 -0.001129150390625 0.5751675963401794
v -1.5026588439941406 -0.001129150390625 -0.0009636698523536325
v -1.2821807861328125 0.5750026702880859 0.531312882900238
v -0.9806709289550781 0.5750026702880859 0.9825555682182312
v -1.0617027282714844 -0.001129150390625 1.0635899305343628
v -1.3880538940429688 -0.001129150390625 0.5751675963401794
v -0.9806709289550781 0.5750026702880859 0.9825555682182312
v -0.5294265747070312 0.5750026702880859 1.284067153930664
v -0.5732879638671875 -0.001129150390625 1.389944076538086
v -1.0617027282714844 -0.001129150390625 1.0635899305343628
v -0.5294265747070312 0.5750026702880859 1.284067153930664
v 0.0028533935546875 0.5750045776367188 1.3899439573287964
v 0.0028533935546875 -0.001129150390625 1.504543423652649
v -0.5732879638671875 -0.001129150390625 1.389944076538086
v 0.0028533935546875 0.5750045776367188 1.3899439573287964
v 0.5351333618164062 0.5750045776367188 1.284067153930664
v 0.5789871215820312 -0.001129150390625 1.3899439573287964
v 0.0028533935546875 -0.001129150390625 1.504543423652649
v 0.5351333618164062 0.5750045776367188 1.284067153930664
v 0.9863662719726562 0.5750045776367188 0.9825553894042969
v 1.0674095153808594 -0.001129150390625 1.0635896921157837
v 0.5789871215820312 -0.001129150390625 1.3899439573287964
v 0.9863662719726562 0.5750045776367188 0.9825553894042969
v 1.2878875732421875 0.5750045776367188 0.5313126444816589
v 1.3937568664550781 -0.001129150390625 0.5751673579216003
v 1.0674095153808594 -0.001129150390625 1.0635896921157837
v 1.2878875732421875 0.5750045776367188 0.5313126444816589
v 1.3937568664550781 0.5750045776367188 -0.000963885395321995
v 1.5083656311035156 -0.001129150390625 -0.0009639496565796435
v 1.3937568664550781 -0.001129150390625 0.5751673579216003
v -1.5026588439941406 -0.001129150390625 -0.0009636698523536325
v -1.3880538940429688 -0.001129150390625 0.5751675963401794
v -1.2821807861328125 -0.5772628784179688 0.5313126444816589
v -1.3880538940429688 -0.5772628784179688 -0.0009636715403757989
v -1.3880538940429688 -0.001129150390625 0.5751675963401794
v -1.0617027282714844 -0.001129150390625 1.0635899305343628
v -0.9806709289550781 -0.5772628784179688 0.9825553297996521
v -1.2821807861328125 -0.5772628784179688 0.5313126444816589
v -1.0617027282714844 -0.001129150390625 1.0635899305343628
v -0.5732879638671875 -0.001129150390625 1.389944076538086
v -0.5294265747070312 -0.5772628784179688 1.284067153930664
v -0.9806709289550781 -0.5772628784179688 0.9825553297996521
v -0.5732879638671875 -0.001129150390625 1.389944076538086
v 0.0028533935546875 -0.001129150390625 1.504543423652649
v 0.0028533935546875 -0.5772628784179688 1.3899438381195068
v -0.5294265747070312 -0.5772628784179688 1.284067153930664
v 0.0028533935546875 -0.001129150390625 1.504543423652649
v 0.5789871215820312 -0.001129150390625 1.3899439573287964
v 0.5351333618164062 -0.5772628784179688 1.284067153930664
v 0.0028533935546875 -0.5772628784179688 1.3899438381195068
v 0.5789871215820312 -0.001129150390625 1.3899439573287964
v 1.0674095153808594 -0.001129150390625 1.0635896921157837
v 0.9863662719726562 -0.5772628784179688 0.9825551509857178
v 0.5351333618164062 -0.5772628784179688 1.284067153930664
v 1.0674095153808594 -0.001129150390625 1.0635896921157837
v 1.3937568664550781 -0.001129150390625 0.5751673579216003
v 1.2878875732421875 -0.5772609710693359 0.5313124060630798
v 0.9863662719726562 -0.5772628784179688 0.9825551509857178
v 1.3937568664550781 -0.5772609710693359 -0.0009639300405979156
v 1.0674095153808594 -1.065683364868164 -0.0009638737537898123
v 0.9863662719726562 -1.065683364868164 0.4064212739467621
v 1.3937568664550781 -0.001129150390625 0.5751673579216003
v 1.5083656311035156 -0.001129150390625 -0.0009639496565796435
v 1.3937568664550781 -0.5772609710693359 -0.0009639300405979156
v 1.2878875732421875 -0.5772609710693359 0.5313124060630798
v -1.3880538940429688 -0.5772628784179688 -0.0009636715403757989
v -1.2821807861328125 -0.5772628784179688 0.5313126444816589
v -0.9806709289550781 -1.0656852722167969 0.4064214527606964
v -1.0617027282714844 -1.0656852722167969 -0.0009636759059503675
v -1.2821807861328125 -0.5772628784179688 0.5313126444816589
v -0.9806709289550781 -0.5772628784179688 0.9825553297996521
v -0.7499008178710938 -1.0656852722167969 0.7517885565757751
v -0.9806709289550781 -1.0656852722167969 0.4064214527606964
v -0.9806709289550781 -0.5772628784179688 0.9825553297996521
v -0.5294265747070312 -0.5772628784179688 1.284067153930664
v -0.4045372009277344 -1.0656852722167969 0.9825546145439148
v -0.7499008178710938 -1.0656852722167969 0.7517885565757751
v -0.5294265747070312 -0.5772628784179688 1.284067153930664
v 0.0028533935546875 -0.5772628784179688 1.3899438381195068
v 0.0028533935546875 -1.0656852722167969 1.0635898113250732
v -0.4045372009277344 -1.0656852722167969 0.9825546145439148
v 0.0028533935546875 -0.5772628784179688 1.3899438381195068
v 0.5351333618164062 -0.5772628784179688 1.284067153930664
v 0.4102439880371094 -1.0656852722167969 0.98255455493927
v 0.0028533935546875 -1.0656852722167969 1.0635898113250732
v 0.5351333618164062 -0.5772628784179688 1.284067153930664
v 0.9863662719726562 -0.5772628784179688 0.9825551509857178
v 0.7556076049804688 -1.0656852722167969 0.7517884373664856
v 0.4102439880371094 -1.0656852722167969 0.98255455493927
v 0.9863662719726562 -0.5772628784179688 0.9825551509857178
v 1.2878875732421875 -0.5772609710693359 0.5313124060630798
v 0.9863662719726562 -1.065683364868164 0.4064212739467621
v 0.7556076049804688 -1.0656852722167969 0.7517884373664856
v -1.0617027282714844 -1.0656852722167969 -0.0009636759059503675
v -0.9806709289550781 -1.0656852722167969 0.4064214527606964
v -0.5294265747070312 -1.392038345336914 0.21951012313365936
v -0.5732879638671875 -1.392038345336914 -0.0009637575130909681
v -0.9806709289550781 -1.0656852722167969 0.4064214527606964
v -0.7499008178710938 -1.0656852722167969 0.7517885565757751
v -0.4045372009277344 -1.392038345336914 0.4064212739467621
v -0.5294265747070312 -1.392038345336914 0.21951012313365936
v -0.7499008178710938 -1.0656852722167969 0.7517885565757751
v -0.4045372009277344 -1.0656852722167969 0.9825546145439148
v -0.21762466430664062 -1.392038345336914 0.5313117504119873
v -0.4045372009277344 -1.392038345336914 0.4064212739467621
v -0.4045372009277344 -1.0656852722167969 0.9825546145439148
v 0.0028533935546875 -1.0656852722167969 1.0635898113250732
v 0.0028533935546875 -1.392038345336914 0.5751683712005615
v -0.21762466430664062 -1.392038345336914 0.5313117504119873
v 0.0028533935546875 -1.0656852722167969 1.0635898113250732
v 0.4102439880371094 -1.0656852722167969 0.98255455493927
v 0.22333145141601562 -1.392038345336914 0.5313117504119873
v 0.0028533935546875 -1.392038345336914 0.5751683712005615
v 0.4102439880371094 -1.0656852722167969 0.98255455493927
v 0.7556076049804688 -1.0656852722167969 0.7517884373664856
v 0.4102439880371094 -1.392038345336914 0.4064211845397949
v 0.22333145141601562 -1.392038345336914 0.5313117504119873
v 0.7556076049804688 -1.0656852722167969 0.7517884373664856
v 0.9863662719726562 -1.065683364868164 0.4064212739467621
v 0.5351333618164062 -1.392038345336914 0.219510018825531
v 0.4102439880371094 -1.392038345336914 0.4064211845397949
v 0.9863662719726562 -1.065683364868164 0.4064212739467621
v 1.0674095153808594 -1.065683364868164 -0.0009638737537898123
v 0.5789871215820312 -1.392038345336914 -0.000963864556979388
v 0.5351333618164062 -1.392038345336914 0.219510018825531
v 0.0028533935546875 -1.5066375732421875 -0.0009638191550038755
v -0.5732879638671875 -1.392038345336914 -0.0009637575130909681
v -0.5294265747070312 -1.392038345336914 0.21951012313365936
v 0.5789871215820312 -1.392038345336914 -0.000963864556979388
v 0.5351333618164062 -1.392038345336914 -0.2214377522468567
v 0.0028533935546875 -1.5066375732421875 -0.0009638191550038755
v -0.5294265747070312 -1.392038345336914 0.21951012313365936
v -0.4045372009277344 -1.392038345336914 0.4064212739467621
v 0.5351333618164062 -1.392038345336914 -0.2214377522468567
v 0.4102439880371094 -1.392038345336914 -0.408348947763443
v 0.0028533935546875 -1.5066375732421875 -0.0009638191550038755
v -0.4045372009277344 -1.392038345336914 0.4064212739467621
v -0.21762466430664062 -1.392038345336914 0.5313117504119873
v 0.4102439880371094 -1.392038345336914 -0.408348947763443
v 0.22333145141601562 -1.392038345336914 -0.5332394242286682
v 0.0028533935546875 -1.5066375732421875 -0.0009638191550038755
v -0.21762466430664062 -1.392038345336914 0.5313117504119873
v 0.0028533935546875 -1.392038345336914 0.5751683712005615
v 0.22333145141601562 -1.392038345336914 -0.5332394242286682
v 0.0028533935546875 -1.392038345336914 -0.5770960450172424
v 0.0028533935546875 -1.5066375732421875 -0.0009638191550038755
v 0.0028533935546875 -1.392038345336914 0.5751683712005615
v 0.22333145141601562 -1.392038345336914 0.5313117504119873
v 0.0028533935546875 -1.392038345336914 -0.5770960450172424
v -0.21762466430664062 -1.392038345336914 -0.5332394242286682
v 0.0028533935546875 -1.5066375732421875 -0.0009638191550038755
v 0.22333145141601562 -1.392038345336914 0.5313117504119873
v 0.4102439880371094 -1.392038345336914 0.4064211845397949
v -0.21762466430664062 -1.392038345336914 -0.5332394242286682
v -0.4045372009277344 -1.392038345336914 -0.40834885835647583
v 0.0028533935546875 -1.5066375732421875 -0.0009638191550038755
v 0.4102439880371094 -1.392038345336914 0.4064211845397949
v 0.5351333618164062 -1.392038345336914 0.219510018825531
v -0.4045372009277344 -1.392038345336914 -0.40834885835647583
v -0.5294265747070312 -1.392038345336914 -0.22143764793872833
v 0.0028533935546875 -1.5066375732421875 -0.0009638191550038755
v 0.5351333618164062 -1.392038345336914 0.219510018825531
v 0.5789871215820312 -1.392038345336914 -0.000963864556979388
v -0.5294265747070312 -1.392038345336914 -0.22143764793872833
v -0.5732879638671875 -1.392038345336914 -0.0009637575130909681
v -0.5732803344726562 1.3897781372070312 -0.000963692320510745
v -1.0617027282714844 1.0634269714355469 -0.0009636831237003207
v -0.9806709289550781 1.063425064086914 -0.40834975242614746
v -0.5294265747070312 1.3897781372070312 -0.22143931686878204
v -0.5294265747070312 1.3897781372070312 -0.22143931686878204
v -0.9806709289550781 1.063425064086914 -0.40834975242614746
v -0.7499008178710938 1.063425064086914 -0.7537171840667725
v -0.4045372009277344 1.3897781372070312 -0.4083499610424042
v -0.4045372009277344 1.3897781372070312 -0.4083499610424042
v -0.7499008178710938 1.063425064086914 -0.7537171840667725
v -0.4045372009277344 1.063425064086914 -0.9844833016395569
v -0.21762466430664062 1.3897781372070312 -0.5332404375076294
v -0.21762466430664062 1.3897781372070312 -0.5332404375076294
v -0.4045372009277344 1.063425064086914 -0.9844833016395569
v 0.0028533935546875 1.0634269714355469 -1.0655182600021362
v 0.0028533935546875 1.3897781372070312 -0.5770953893661499
v 0.0028533935546875 1.3897781372070312 -0.5770953893661499
v 0.0028533935546875 1.0634269714355469 -1.0655182600021362
v 0.4102439880371094 1.0634269714355469 -0.9844833612442017
v 0.22333145141601562 1.3897781372070312 -0.5332404375076294
v 0.22333145141601562 1.3897781372070312 -0.5332404375076294
v 0.4102439880371094 1.0634269714355469 -0.9844833612442017
v 0.7556076049804688 1.0634269714355469 -0.753717303276062
v 0.4102439880371094 1.3897781372070312 -0.40835005044937134
v 0.4102439880371094 1.3897781372070312 -0.40835005044937134
v 0.7556076049804688 1.0634269714355469 -0.753717303276062
v 0.9863662719726562 1.0634269714355469 -0.4083499312400818
v 0.5351333618164062 1.3897781372070312 -0.2214394211769104
v 0.5351333618164062 1.3897781372070312 -0.2214394211769104
v 0.9863662719726562 1.0634269714355469 -0.4083499312400818
v 1.0674095153808594 1.0634269714355469 -0.0009638809715397656
v 0.5789871215820312 1.3897781372070312 -0.0009637993643991649
v -1.0617027282714844 1.0634269714355469 -0.0009636831237003207
v -1.3880538940429688 0.5750026702880859 -0.0009636268950998783
v -1.2821807861328125 0.5750026702880859 -0.5332400798797607
v -0.9806709289550781 1.063425064086914 -0.40834975242614746
v -0.9806709289550781 1.063425064086914 -0.40834975242614746
v -1.2821807861328125 0.5750026702880859 -0.5332400798797607
v -0.9806709289550781 0.5750026702880859 -0.984483003616333
v -0.7499008178710938 1.063425064086914 -0.7537171840667725
v -0.7499008178710938 1.063425064086914 -0.7537171840667725
v -0.9806709289550781 0.5750026702880859 -0.984483003616333
v -0.5294265747070312 0.5750026702880859 -1.2859950065612793
v -0.4045372009277344 1.063425064086914 -0.9844833016395569
v -0.4045372009277344 1.063425064086914 -0.9844833016395569
v -0.5294265747070312 0.5750026702880859 -1.2859950065612793
v 0.0028533935546875 0.5750045776367188 -1.391871690750122
v 0.0028533935546875 1.0634269714355469 -1.0655182600021362
v 0.0028533935546875 1.0634269714355469 -1.0655182600021362
v 0.0028533935546875 0.5750045776367188 -1.391871690750122
v 0.5351333618164062 0.5750045776367188 -1.2859950065612793
v 0.4102439880371094 1.0634269714355469 -0.9844833612442017
v 0.4102439880371094 1.0634269714355469 -0.9844833612442017
v 0.5351333618164062 0.5750045776367188 -1.2859950065612793
v 0.9863662719726562 0.5750045776367188 -0.9844831824302673
v 0.7556076049804688 1.0634269714355469 -0.753717303276062
v 0.7556076049804688 1.0634269714355469 -0.753717303276062
v 0.9863662719726562 0.5750045776367188 -0.9844831824302673
v 1.2878875732421875 0.5750045776367188 -0.5332403182983398
v 0.9863662719726562 1.0634269714355469 -0.4083499312400818
v 0.9863662719726562 1.0634269714355469 -0.4083499312400818
v 1.2878875732421875 0.5750045776367188 -0.5332403182983398
v 1.3937568664550781 0.5750045776367188 -0.000963885395321995
v 1.0674095153808594 1.0634269714355469 -0.0009638809715397656
v -1.3880538940429688 0.5750026702880859 -0.0009636268950998783
v -1.5026588439941406 -0.001129150390625 -0.0009636698523536325
v -1.3880538940429688 -0.001129150390625 -0.577095091342926
v -1.2821807861328125 0.5750026702880859 -0.5332400798797607
v -1.2821807861328125 0.5750026702880859 -0.5332400798797607
v -1.3880538940429688 -0.001129150390625 -0.577095091342926
v -1.0617027282714844 -0.001129150390625 -1.0655174255371094
v -0.9806709289550781 0.5750026702880859 -0.984483003616333
v -0.9806709289550781 0.5750026702880859 -0.984483003616333
v -1.0617027282714844 -0.001129150390625 -1.0655174255371094
v -0.5732879638671875 -0.001129150390625 -1.3918715715408325
v -0.5294265747070312 0.5750026702880859 -1.2859950065612793
v -0.5294265747070312 0.5750026702880859 -1.2859950065612793
v -0.5732879638671875 -0.001129150390625 -1.3918715715408325
v 0.0028533935546875 -0.001129150390625 -1.506471037864685
v 0.0028533935546875 0.5750045776367188 -1.391871690750122
v 0.0028533935546875 0.5750045776367188 -1.391871690750122
v 0.0028533935546875 -0.001129150390625 -1.506471037864685
v 0.5789871215820312 -0.001129150390625 -1.391871690750122
v 0.5351333618164062 0.5750045776367188 -1.2859950065612793
v 0.5351333618164062 0.5750045776367188 -1.2859950065612793
v 0.5789871215820312 -0.001129150390625 -1.391871690750122
v 1.0674095153808594 -0.001129150390625 -1.0655176639556885
v 0.9863662719726562 0.5750045776367188 -0.9844831824302673
v 0.9863662719726562 0.5750045776367188 -0.9844831824302673
v 1.0674095153808594 -0.001129150390625 -1.0655176639556885
v 1.3937568664550781 -0.001129150390625 -0.5770953297615051
v 1.2878875732421875 0.5750045776367188 -0.5332403182983398
v 1.2878875732421875 0.5750045776367188 -0.5332403182983398
v 1.3937568664550781 -0.001129150390625 -0.5770953297615051
v 1.5083656311035156 -0.001129150390625 -0.0009639496565796435
v 1.3937568664550781 0.5750045776367188 -0.000963885395321995
v -1.5026588439941406 -0.001129150390625 -0.0009636698523536325
v -1.3880538940429688 -0.5772628784179688 -0.0009636715403757989
v -1.2821807861328125 -0.5772628784179688 -0.5332398414611816
v -1.3880538940429688 -0.001129150390625 -0.577095091342926
v -1.3880538940429688 -0.001129150390625 -0.577095091342926
v -1.2821807861328125 -0.5772628784179688 -0.5332398414611816
v -0.9806709289550781 -0.5772628784179688 -0.9844827055931091
v -1.0617027282714844 -0.001129150390625 -1.0655174255371094
v -1.0617027282714844 -0.001129150390625 -1.0655174255371094
v -0.9806709289550781 -0.5772628784179688 -0.9844827055931091
v -0.5294265747070312 -0.5772628784179688 -1.2859946489334106
v -0.5732879638671875 -0.001129150390625 -1.3918715715408325
v -0.5732879638671875 -0.001129150390625 -1.3918715715408325
v -0.5294265747070312 -0.5772628784179688 -1.2859946489334106
v 0.0028533935546875 -0.5772628784179688 -1.3918713331222534
v 0.0028533935546875 -0.001129150390625 -1.506471037864685
v 0.0028533935546875 -0.001129150390625 -1.506471037864685
v 0.0028533935546875 -0.5772628784179688 -1.3918713331222534
v 0.5351333618164062 -0.5772628784179688 -1.2859946489334106
v 0.5789871215820312 -0.001129150390625 -1.391871690750122
v 0.5789871215820312 -0.001129150390625 -1.391871690750122
v 0.5351333618164062 -0.5772628784179688 -1.2859946489334106
v 0.9863662719726562 -0.5772628784179688 -0.9844828844070435
v 1.0674095153808594 -0.001129150390625 -1.0655176639556885
v 1.0674095153808594 -0.001129150390625 -1.0655176639556885
v 0.9863662719726562 -0.5772628784179688 -0.9844828844070435
v 1.2878875732421875 -0.5772609710693359 -0.5332400798797607
v 1.3937568664550781 -0.001129150390625 -0.5770953297615051
v 0.9863662719726562 -1.065683364868164 -0.408348947763443
v 1.0674095153808594 -1.065683364868164 -0.0009638737537898123
v 1.3937568664550781 -0.5772609710693359 -0.0009639300405979156
v 1.3937568664550781 -0.001129150390625 -0.5770953297615051
v 1.2878875732421875 -0.5772609710693359 -0.5332400798797607
v 1.3937568664550781 -0.5772609710693359 -0.0009639300405979156
v 1.5083656311035156 -0.001129150390625 -0.0009639496565796435
v -1.3880538940429688 -0.5772628784179688 -0.0009636715403757989
v -1.0617027282714844 -1.0656852722167969 -0.0009636759059503675
v -0.9806709289550781 -1.0656852722167969 -0.40834876894950867
v -1.2821807861328125 -0.5772628784179688 -0.5332398414611816
v -1.2821807861328125 -0.5772628784179688 -0.5332398414611816
v -0.9806709289550781 -1.0656852722167969 -0.40834876894950867
v -0.7499008178710938 -1.0656852722167969 -0.7537160515785217
v -0.9806709289550781 -0.5772628784179688 -0.9844827055931091
v -0.9806709289550781 -0.5772628784179688 -0.9844827055931091
v -0.7499008178710938 -1.0656852722167969 -0.7537160515785217
v -0.4045372009277344 -1.0656852722167969 -0.9844822287559509
v -0.5294265747070312 -0.5772628784179688 -1.2859946489334106
v -0.5294265747070312 -0.5772628784179688 -1.2859946489334106
v -0.4045372009277344 -1.0656852722167969 -0.9844822287559509
v 0.0028533935546875 -1.0656852722167969 -1.0655171871185303
v 0.0028533935546875 -0.5772628784179688 -1.3918713331222534
v 0.0028533935546875 -0.5772628784179688 -1.3918713331222534
v 0.0028533935546875 -1.0656852722167969 -1.0655171871185303
v 0.4102439880371094 -1.0656852722167969 -0.9844822883605957
v 0.5351333618164062 -0.5772628784179688 -1.2859946489334106
v 0.5351333618164062 -0.5772628784179688 -1.2859946489334106
v 0.4102439880371094 -1.0656852722167969 -0.9844822883605957
v 0.7556076049804688 -1.0656852722167969 -0.7537161707878113
v 0.9863662719726562 -0.5772628784179688 -0.9844828844070435
v 0.9863662719726562 -0.5772628784179688 -0.9844828844070435
v 0.7556076049804688 -1.0656852722167969 -0.7537161707878113
v 0.9863662719726562 -1.065683364868164 -0.408348947763443
v 1.2878875732421875 -0.5772609710693359 -0.5332400798797607
v -1.0617027282714844 -1.0656852722167969 -0.0009636759059503675
v -0.5732879638671875 -1.392038345336914 -0.0009637575130909681
v -0.5294265747070312 -1.392038345336914 -0.22143764793872833
v -0.9806709289550781 -1.0656852722167969 -0.40834876894950867
v -0.9806709289550781 -1.0656852722167969 -0.40834876894950867
v -0.5294265747070312 -1.392038345336914 -0.22143764793872833
v -0.4045372009277344 -1.392038345336914 -0.40834885835647583
v -0.7499008178710938 -1.0656852722167969 -0.7537160515785217
v -0.7499008178710938 -1.0656852722167969 -0.7537160515785217
v -0.4045372009277344 -1.392038345336914 -0.40834885835647583
v -0.21762466430664062 -1.392038345336914 -0.5332394242286682
v -0.4045372009277344 -1.0656852722167969 -0.9844822287559509
v -0.4045372009277344 -1.0656852722167969 -0.9844822287559509
v -0.21762466430664062 -1.392038345336914 -0.5332394242286682
v 0.0028533935546875 -1.392038345336914 -0.5770960450172424
v 0.0028533935546875 -1.0656852722167969 -1.0655171871185303
v 0.0028533935546875 -1.0656852722167969 -1.0655171871185303
v 0.0028533935546875 -1.392038345336914 -0.5770960450172424
v 0.22333145141601562 -1.392038345336914 -0.5332394242286682
v 0.4102439880371094 -1.0656852722167969 -0.9844822883605957
v 0.4102439880371094 -1.0656852722167969 -0.9844822883605957
v 0.22333145141601562 -1.392038345336914 -0.5332394242286682
v 0.4102439880371094 -1.392038345336914 -0.408348947763443
v 0.7556076049804688 -1.0656852722167969 -0.7537161707878113
v 0.7556076049804688 -1.0656852722167969 -0.7537161707878113
v 0.4102439880371094 -1.392038345336914 -0.408348947763443
v 0.5351333618164062 -1.392038345336914 -0.2214377522468567
v 0.9863662719726562 -1.065683364868164 -0.408348947763443
v 0.9863662719726562 -1.065683364868164 -0.408348947763443
v 0.5351333618164062 -1.392038345336914 -0.2214377522468567
v 0.5789871215820312 -1.392038345336914 -0.000963864556979388
v 1.0674095153808594 -1.065683364868164 -0.0009638737537898123
vn -0.0 1.0 0.0
vn -0.37240925431251526 0.9151590466499329 0.15425702929496765
vn -0.4030916094779968 0.9151596426963806 0.0
vn 0.3724115788936615 0.9151580929756165 -0.15425725281238556
vn 0.40309298038482666 0.9151590466499329 0.0
vn -0.0 1.0 0.0
vn -0.28503015637397766 0.915158748626709 0.28503042459487915
vn -0.37240925431251526 0.9151590466499329 0.15425702929496765
vn 0.2850315272808075 0.9151589274406433 -0.2850281894207001
vn 0.3724115788936615 0.9151580929756165 -0.15425725281238556
vn -0.0 1.0 0.0
vn -0.15425746142864227 0.9151589274406433 0.3724093735218048
vn -0.28503015637397766 0.915158748626709 0.28503042459487915
vn 0.15425622463226318 0.9151594638824463 -0.37240859866142273
vn 0.2850315272808075 0.9151589274406433 -0.2850281894207001
vn -0.0 1.0 0.0
vn -0.0 0.9151595234870911 0.4030919373035431
vn -0.15425746142864227 0.9151589274406433 0.3724093735218048
vn -0.0 0.9151595234870911 -0.4030919373035431
vn 0.15425622463226318 0.9151594638824463 -0.37240859866142273
vn -0.0 1.0 0.0
vn 0.15425638854503632 0.9151594042778015 0.3724086582660675
vn -0.0 0.9151595234870911 0.4030919373035431
vn -0.15425743162631989 0.9151589274406433 -0.3724093437194824
vn -0.0 0.9151595234870911 -0.4030919373035431
vn -0.0 1.0 0.0
vn 0.28503161668777466 0.9151589274406433 0.2850281894207001
vn 0.15425638854503632 0.9151594042778015 0.3724086582660675
vn -0.28503021597862244 0.915158748626709 -0.2850303649902344
vn -0.15425743162631989 0.9151589274406433 -0.3724093437194824
vn -0.0 1.0 0.0
vn 0.3724115490913391 0.9151580929756165 0.15425726771354675
vn 0.28503161668777466 0.9151589274406433 0.2850281894207001
vn -0.37240928411483765 0.9151590466499329 -0.15425698459148407
vn -0.28503021597862244 0.915158748626709 -0.2850303649902344
vn -0.0 1.0 0.0
vn 0.40309298038482666 0.9151590466499329 0.0
vn 0.3724115490913391 0.9151580929756165 0.15425726771354675
vn -0.4030916094779968 0.9151596426963806 0.0
vn -0.37240928411483765 0.9151590466499329 -0.15425698459148407
vn -0.4030916094779968 0.9151596426963806 0.0
vn -0.37240925431251526 0.9151590466499329 0.15425702929496765
vn -0.6641390919685364 0.6951562166213989 0.2750948369503021
vn -0.7188584804534912 0.6951565146446228 0.0
vn -0.37240925431251526 0.9151590466499329 0.15425702929496765
vn -0.28503015637397766 0.915158748626709 0.28503042459487915
vn -0.5083085894584656 0.6951570510864258 0.5083098411560059
vn -0.6641390919685364 0.6951562166213989 0.2750948369503021
vn -0.28503015637397766 0.915158748626709 0.28503042459487915
vn -0.15425746142864227 0.9151589274406433 0.3724093735218048
vn -0.27509644627571106 0.6951568126678467 0.6641376614570618
vn -0.5083085894584656 0.6951570510864258 0.5083098411560059
vn -0.15425746142864227 0.9151589274406433 0.3724093735218048
vn -0.0 0.9151595234870911 0.4030919373035431
vn -0.0 0.6951577663421631 0.7188572883605957
vn -0.27509644627571106 0.6951568126678467 0.6641376614570618
vn -0.0 0.9151595234870911 0.4030919373035431
vn 0.15425638854503632 0.9151594042778015 0.3724086582660675
vn 0.27509698271751404 0.6951570510864258 0.6641373038291931
vn -0.0 0.6951577663421631 0.7188572883605957
vn 0.15425638854503632 0.9151594042778015 0.3724086582660675
vn 0.28503161668777466 0.9151589274406433 0.2850281894207001
vn 0.5083126425743103 0.6951557397842407 0.5083078742027283
vn 0.27509698271751404 0.6951570510864258 0.6641373038291931
vn 0.28503161668777466 0.9151589274406433 0.2850281894207001
vn 0.3724115490913391 0.9151580929756165 0.15425726771354675
vn 0.6641370058059692 0.6951576471328735 0.27509626746177673
vn 0.5083126425743103 0.6951557397842407 0.5083078742027283
vn 0.3724115490913391 0.9151580929756165 0.15425726771354675
vn 0.40309298038482666 0.9151590466499329 0.0
vn 0.7188587188720703 0.6951562166213989 0.0
vn 0.6641370058059692 0.6951576471328735 0.27509626746177673
vn -0.7188584804534912 0.6951565146446228 0.0
vn -0.6641390919685364 0.6951562166213989 0.2750948369503021
vn -0.8566962480545044 0.37436580657958984 0.3548545837402344
vn -0.927280843257904 0.37436643242836 0.0
vn -0.6641390919685364 0.6951562166213989 0.2750948369503021
vn -0.5083085894584656 0.6951570510864258 0.5083098411560059
vn -0.6556878089904785 0.37436676025390625 0.6556850671768188
vn -0.8566962480545044 0.37436580657958984 0.3548545837402344
vn -0.5083085894584656 0.6951570510864258 0.5083098411560059
vn -0.27509644627571106 0.6951568126678467 0.6641376614570618
vn -0.35485532879829407 0.3743678033351898 0.8566951155662537
vn -0.6556878089904785 0.37436676025390625 0.6556850671768188
vn -0.27509644627571106 0.6951568126678467 0.6641376614570618
vn -0.0 0.6951577663421631 0.7188572883605957
vn -0.0 0.37436726689338684 0.9272804856300354
vn -0.35485532879829407 0.3743678033351898 0.8566951155662537
vn -0.0 0.6951577663421631 0.7188572883605957
vn 0.27509698271751404 0.6951570510864258 0.6641373038291931
vn 0.35485780239105225 0.37436673045158386 0.8566945195198059
vn -0.0 0.37436726689338684 0.9272804856300354
vn 0.27509698271751404 0.6951570510864258 0.6641373038291931
vn 0.5083126425743103 0.6951557397842407 0.5083078742027283
vn 0.6556867361068726 0.37436753511428833 0.6556856632232666
vn 0.35485780239105225 0.37436673045158386 0.8566945195198059
vn 0.5083126425743103 0.6951557397842407 0.5083078742027283
vn 0.6641370058059692 0.6951576471328735 0.27509626746177673
vn 0.856694757938385 0.3743675649166107 0.35485634207725525
vn 0.6556867361068726 0.37436753511428833 0.6556856632232666
vn 0.6641370058059692 0.6951576471328735 0.27509626746177673
vn 0.7188587188720703 0.6951562166213989 0.0
vn 0.9272797107696533 0.374369353055954 0.0
vn 0.856694757938385 0.3743675649166107 0.35485634207725525
vn -0.927280843257904 0.37436643242836 0.0
vn -0.8566962480545044 0.37436580657958984 0.3548545837402344
vn -0.9238795638084412 0.0 0.3826833963394165
vn -1.0 0.0 0.0
vn -0.8566962480545044 0.37436580657958984 0.3548545837402344
vn -0.6556878089904785 0.37436676025390625 0.6556850671768188
vn -0.707108736038208 0.0 0.7071048021316528
vn -0.9238795638084412 0.0 0.3826833963394165
vn -0.6556878089904785 0.37436676025390625 0.6556850671768188
vn -0.35485532879829407 0.3743678033351898 0.8566951155662537
vn -0.3826853632926941 0.0 0.9238787293434143
vn -0.707108736038208 0.0 0.7071048021316528
vn -0.35485532879829407 0.3743678033351898 0.8566951155662537
vn -0.0 0.37436726689338684 0.9272804856300354
vn -0.0 0.0 1.0
vn -0.3826853632926941 0.0 0.9238787293434143
vn -0.0 0.37436726689338684 0.9272804856300354
vn 0.35485780239105225 0.37436673045158386 0.8566945195198059
vn 0.3826855421066284 0.0 0.9238786697387695
vn -0.0 0.0 1.0
vn 0.35485780239105225 0.37436673045158386 0.8566945195198059
vn 0.6556867361068726 0.37436753511428833 0.6556856632232666
vn 0.7071087956428528 0.0 0.7071047425270081
vn 0.3826855421066284 0.0 0.9238786697387695
vn 0.6556867361068726 0.37436753511428833 0.6556856632232666
vn 0.856694757938385 0.3743675649166107 0.35485634207725525
vn 0.9238784313201904 0.0 0.3826860785484314
vn 0.7071087956428528 0.0 0.7071047425270081
vn 0.856694757938385 0.3743675649166107 0.35485634207725525
vn 0.9272797107696533 0.374369353055954 0.0
vn 1.0 0.0 0.0
vn 0.9238784313201904 0.0 0.3826860785484314
vn -1.0 0.0 0.0
vn -0.9238795638084412 0.0 0.3826833963394165
vn -0.8566963076591492 -0.374365895986557 0.35485440492630005
vn -0.927280843257904 -0.37436652183532715 0.0
vn -0.9238795638084412 0.0 0.3826833963394165
vn -0.707108736038208 0.0 0.7071048021316528
vn -0.6556879281997681 -0.37436696887016296 0.6556850075721741
vn -0.8566963076591492 -0.374365895986557 0.35485440492630005
vn -0.707108736038208 0.0 0.7071048021316528
vn -0.3826853632926941 0.0 0.9238787293434143
vn -0.3548547625541687 -0.3743683397769928 0.8566950559616089
vn -0.6556879281997681 -0.37436696887016296 0.6556850075721741
vn -0.3826853632926941 0.0 0.9238787293434143
vn -0.0 0.0 1.0
vn -0.0 -0.37436753511428833 0.9272804260253906
vn -0.3548547625541687 -0.3743683397769928 0.8566950559616089
vn -0.0 0.0 1.0
vn 0.3826855421066284 0.0 0.9238786697387695
vn 0.35485774278640747 -0.37436726689338684 0.8566942811012268
vn -0.0 -0.37436753511428833 0.9272804260253906
vn 0.3826855421066284 0.0 0.9238786697387695
vn 0.7071087956428528 0.0 0.7071047425270081
vn 0.6556870341300964 -0.3743683099746704 0.6556850671768188
vn 0.35485774278640747 -0.37436726689338684 0.8566942811012268
vn 0.7071087956428528 0.0 0.7071047425270081
vn 0.9238784313201904 0.0 0.3826860785484314
vn 0.8566948771476746 -0.37436774373054504 0.35485586524009705
vn 0.6556870341300964 -0.3743683099746704 0.6556850671768188
vn 0.927279531955719 -0.37436971068382263 0.0
vn 0.718860387802124 -0.6951545476913452 0.0
vn 0.6641388535499573 -0.6951560378074646 0.2750958502292633
vn 0.9238784313201904 0.0 0.3826860785484314
vn 1.0 0.0 0.0
vn 0.927279531955719 -0.37436971068382263 0.0
vn 0.8566948771476746 -0.37436774373054504 0.35485586524009705
vn -0.927280843257904 -0.37436652183532715 0.0
vn -0.8566963076591492 -0.374365895986557 0.35485440492630005
vn -0.6641391515731812 -0.6951558589935303 0.2750955820083618
vn -0.7188596725463867 -0.6951552033424377 0.0
vn -0.8566963076591492 -0.374365895986557 0.35485440492630005
vn -0.6556879281997681 -0.37436696887016296 0.6556850075721741
vn -0.508308470249176 -0.695157527923584 0.508309543132782
vn -0.6641391515731812 -0.6951558589935303 0.2750955820083618
vn -0.6556879281997681 -0.37436696887016296 0.6556850075721741
vn -0.3548547625541687 -0.3743683397769928 0.8566950559616089
vn -0.275095671415329 -0.6951572299003601 0.6641376614570618
vn -0.508308470249176 -0.695157527923584 0.508309543132782
vn -0.3548547625541687 -0.3743683397769928 0.8566950559616089
vn -0.0 -0.37436753511428833 0.9272804260253906
vn -0.0 -0.6951571106910706 0.7188578248023987
vn -0.275095671415329 -0.6951572299003601 0.6641376614570618
vn -0.0 -0.37436753511428833 0.9272804260253906
vn 0.35485774278640747 -0.37436726689338684 0.8566942811012268
vn 0.2750975489616394 -0.695156455039978 0.664137601852417
vn -0.0 -0.6951571106910706 0.7188578248023987
vn 0.35485774278640747 -0.37436726689338684 0.8566942811012268
vn 0.6556870341300964 -0.3743683099746704 0.6556850671768188
vn 0.5083138346672058 -0.6951552629470825 0.5083072185516357
vn 0.2750975489616394 -0.695156455039978 0.664137601852417
vn 0.6556870341300964 -0.3743683099746704 0.6556850671768188
vn 0.8566948771476746 -0.37436774373054504 0.35485586524009705
vn 0.6641388535499573 -0.6951560378074646 0.2750958502292633
vn 0.5083138346672058 -0.6951552629470825 0.5083072185516357
vn -0.7188596725463867 -0.6951552033424377 0.0
vn -0.6641391515731812 -0.6951558589935303 0.2750955820083618
vn -0.37240660190582275 -0.9151598215103149 0.15425890684127808
vn -0.40309497714042664 -0.9151581525802612 0.0
vn -0.6641391515731812 -0.6951558589935303 0.2750955820083618
vn -0.508308470249176 -0.695157527923584 0.508309543132782
vn -0.2850293815135956 -0.9151592254638672 0.28502944111824036
vn -0.37240660190582275 -0.9151598215103149 0.15425890684127808
vn -0.508308470249176 -0.695157527923584 0.508309543132782
vn -0.275095671415329 -0.6951572299003601 0.6641376614570618
vn -0.15425710380077362 -0.9151594042778015 0.37240830063819885
vn -0.2850293815135956 -0.9151592254638672 0.28502944111824036
vn -0.275095671415329 -0.6951572299003601 0.6641376614570618
vn -0.0 -0.6951571106910706 0.7188578248023987
vn -0.0 -0.9151591658592224 0.4030926525592804
vn -0.15425710380077362 -0.9151594042778015 0.37240830063819885
vn -0.0 -0.6951571106910706 0.7188578248023987
vn 0.2750975489616394 -0.695156455039978 0.664137601852417
vn 0.1542571485042572 -0.9151594042778015 0.37240830063819885
vn -0.0 -0.9151591658592224 0.4030926525592804
vn 0.2750975489616394 -0.695156455039978 0.664137601852417
vn 0.5083138346672058 -0.6951552629470825 0.5083072185516357
vn 0.2850324809551239 -0.9151588082313538 0.28502780199050903
vn 0.1542571485042572 -0.9151594042778015 0.37240830063819885
vn 0.5083138346672058 -0.6951552629470825 0.5083072185516357
vn 0.6641388535499573 -0.6951560378074646 0.2750958502292633
vn 0.3724128305912018 -0.9151576161384583 0.15425698459148407
vn 0.2850324809551239 -0.9151588082313538 0.28502780199050903
vn 0.6641388535499573 -0.6951560378074646 0.2750958502292633
vn 0.718860387802124 -0.6951545476913452 0.0
vn 0.40309450030326843 -0.9151583909988403 0.0
vn 0.3724128305912018 -0.9151576161384583 0.15425698459148407
vn -0.0 -1.0 0.0
vn -0.40309497714042664 -0.9151581525802612 0.0
vn -0.37240660190582275 -0.9151598215103149 0.15425890684127808
vn 0.40309450030326843 -0.9151583909988403 0.0
vn 0.37241291999816895 -0.9151576161384583 -0.15425698459148407
vn -0.0 -1.0 0.0
vn -0.37240660190582275 -0.9151598215103149 0.15425890684127808
vn -0.2850293815135956 -0.9151592254638672 0.28502944111824036
vn 0.37241291999816895 -0.9151576161384583 -0.15425698459148407
vn 0.2850325107574463 -0.915158748626709 -0.2850278615951538
vn -0.0 -1.0 0.0
vn -0.2850293815135956 -0.9151592254638672 0.28502944111824036
vn -0.15425710380077362 -0.9151594042778015 0.37240830063819885
vn 0.2850325107574463 -0.915158748626709 -0.2850278615951538
vn 0.15425701439380646 -0.9151594042778015 -0.37240836024284363
vn -0.0 -1.0 0.0
vn -0.15425710380077362 -0.9151594042778015 0.37240830063819885
vn -0.0 -0.9151591658592224 0.4030926525592804
vn 0.15425701439380646 -0.9151594042778015 -0.37240836024284363
vn -0.0 -0.9151591658592224 -0.40309274196624756
vn -0.0 -1.0 0.0
vn -0.0 -0.9151591658592224 0.4030926525592804
vn 0.1542571485042572 -0.9151594042778015 0.37240830063819885
vn -0.0 -0.9151591658592224 -0.40309274196624756
vn -0.15425710380077362 -0.9151594042778015 -0.37240833044052124
vn -0.0 -1.0 0.0
vn 0.1542571485042572 -0.9151594042778015 0.37240830063819885
vn 0.2850324809551239 -0.9151588082313538 0.28502780199050903
vn -0.15425710380077362 -0.9151594042778015 -0.37240833044052124
vn -0.28502947092056274 -0.9151592254638672 -0.28502941131591797
vn -0.0 -1.0 0.0
vn 0.2850324809551239 -0.9151588082313538 0.28502780199050903
vn 0.3724128305912018 -0.9151576161384583 0.15425698459148407
vn -0.28502947092056274 -0.9151592254638672 -0.28502941131591797
vn -0.37240666151046753 -0.9151598215103149 -0.1542588621377945
vn -0.0 -1.0 0.0
vn 0.3724128305912018 -0.9151576161384583 0.15425698459148407
vn 0.40309450030326843 -0.9151583909988403 0.0
vn -0.37240666151046753 -0.9151598215103149 -0.1542588621377945
vn -0.40309497714042664 -0.9151581525802612 0.0
vn -0.4030916094779968 0.9151596426963806 0.0
vn -0.7188584804534912 0.6951565146446228 0.0
vn -0.6641391515731812 0.6951561570167542 -0.27509477734565735
vn -0.37240928411483765 0.9151590466499329 -0.15425698459148407
vn -0.37240928411483765 0.9151590466499329 -0.15425698459148407
vn -0.6641391515731812 0.6951561570167542 -0.27509477734565735
vn -0.5083087086677551 0.6951570510864258 -0.5083097815513611
vn -0.28503021597862244 0.915158748626709 -0.2850303649902344
vn -0.28503021597862244 0.915158748626709 -0.2850303649902344
vn -0.5083087086677551 0.6951570510864258 -0.5083097815513611
vn -0.27509650588035583 0.6951569318771362 -0.6641376614570618
vn -0.15425743162631989 0.9151589274406433 -0.3724093437194824
vn -0.15425743162631989 0.9151589274406433 -0.3724093437194824
vn -0.27509650588035583 0.6951569318771362 -0.6641376614570618
vn -0.0 0.6951578259468079 -0.7188571691513062
vn -0.0 0.9151595234870911 -0.4030919373035431
vn -0.0 0.9151595234870911 -0.4030919373035431
vn -0.0 0.6951578259468079 -0.7188571691513062
vn 0.2750967741012573 0.6951570510864258 -0.6641372442245483
vn 0.15425622463226318 0.9151594638824463 -0.37240859866142273
vn 0.15425622463226318 0.9151594638824463 -0.37240859866142273
vn 0.2750967741012573 0.6951570510864258 -0.6641372442245483
vn 0.5083126425743103 0.6951557397842407 -0.5083078742027283
vn 0.2850315272808075 0.9151589274406433 -0.2850281894207001
vn 0.2850315272808075 0.9151589274406433 -0.2850281894207001
vn 0.5083126425743103 0.6951557397842407 -0.5083078742027283
vn 0.6641370058059692 0.6951576471328735 -0.27509623765945435
vn 0.3724115788936615 0.9151580929756165 -0.15425725281238556
vn 0.3724115788936615 0.9151580929756165 -0.15425725281238556
vn 0.6641370058059692 0.6951576471328735 -0.27509623765945435
vn 0.7188587188720703 0.6951562166213989 0.0
vn 0.40309298038482666 0.9151590466499329 0.0
vn -0.7188584804534912 0.6951565146446228 0.0
vn -0.927280843257904 0.37436643242836 0.0
vn -0.8566963076591492 0.37436580657958984 -0.35485440492630005
vn -0.6641391515731812 0.6951561570167542 -0.27509477734565735
vn -0.6641391515731812 0.6951561570167542 -0.27509477734565735
vn -0.8566963076591492 0.37436580657958984 -0.35485440492630005
vn -0.6556881070137024 0.3743667006492615 -0.6556848883628845
vn -0.5083087086677551 0.6951570510864258 -0.5083097815513611
vn -0.5083087086677551 0.6951570510864258 -0.5083097815513611
vn -0.6556881070137024 0.3743667006492615 -0.6556848883628845
vn -0.3548555076122284 0.3743676543235779 -0.8566951155662537
vn -0.27509650588035583 0.6951569318771362 -0.6641376614570618
vn -0.27509650588035583 0.6951569318771362 -0.6641376614570618
vn -0.3548555076122284 0.3743676543235779 -0.8566951155662537
vn -0.0 0.3743671774864197 -0.9272805452346802
vn -0.0 0.6951578259468079 -0.7188571691513062
vn -0.0 0.6951578259468079 -0.7188571691513062
vn -0.0 0.3743671774864197 -0.9272805452346802
vn 0.3548576235771179 0.37436673045158386 -0.8566945791244507
vn 0.2750967741012573 0.6951570510864258 -0.6641372442245483
vn 0.2750967741012573 0.6951570510864258 -0.6641372442245483
vn 0.3548576235771179 0.37436673045158386 -0.8566945791244507
vn 0.6556867361068726 0.3743675947189331 -0.6556856632232666
vn 0.5083126425743103 0.6951557397842407 -0.5083078742027283
vn 0.5083126425743103 0.6951557397842407 -0.5083078742027283
vn 0.6556867361068726 0.3743675947189331 -0.6556856632232666
vn 0.8566948175430298 0.3743676245212555 -0.3548562824726105
vn 0.6641370058059692 0.6951576471328735 -0.27509623765945435
vn 0.6641370058059692 0.6951576471328735 -0.27509623765945435
vn 0.8566948175430298 0.3743676245212555 -0.3548562824726105
vn 0.9272797107696533 0.374369353055954 0.0
vn 0.7188587188720703 0.6951562166213989 0.0
vn -0.927280843257904 0.37436643242836 0.0
vn -1.0 0.0 0.0
vn -0.9238795638084412 0.0 -0.3826833665370941
vn -0.8566963076591492 0.37436580657958984 -0.35485440492630005
vn -0.8566963076591492 0.37436580657958984 -0.35485440492630005
vn -0.9238795638084412 0.0 -0.3826833665370941
vn -0.7071089148521423 0.0 -0.7071046829223633
vn -0.6556881070137024 0.3743667006492615 -0.6556848883628845
vn -0.6556881070137024 0.3743667006492615 -0.6556848883628845
vn -0.7071089148521423 0.0 -0.7071046829223633
vn -0.38268551230430603 0.0 -0.9238786697387695
vn -0.3548555076122284 0.3743676543235779 -0.8566951155662537
vn -0.3548555076122284 0.3743676543235779 -0.8566951155662537
vn -0.38268551230430603 0.0 -0.9238786697387695
vn -0.0 0.0 -1.0
vn -0.0 0.3743671774864197 -0.9272805452346802
vn -0.0 0.3743671774864197 -0.9272805452346802
vn -0.0 0.0 -1.0
vn 0.3826853632926941 0.0 -0.9238787293434143
vn 0.3548576235771179 0.37436673045158386 -0.8566945791244507
vn 0.3548576235771179 0.37436673045158386 -0.8566945791244507
vn 0.3826853632926941 0.0 -0.9238787293434143
vn 0.707108736038208 0.0 -0.7071048617362976
vn 0.6556867361068726 0.3743675947189331 -0.6556856632232666
vn 0.6556867361068726 0.3743675947189331 -0.6556856632232666
vn 0.707108736038208 0.0 -0.7071048617362976
vn 0.9238784313201904 0.0 -0.3826861083507538
vn 0.8566948175430298 0.3743676245212555 -0.3548562824726105
vn 0.8566948175430298 0.3743676245212555 -0.3548562824726105
vn 0.9238784313201904 0.0 -0.3826861083507538
vn 1.0 0.0 0.0
vn 0.9272797107696533 0.374369353055954 0.0
vn -1.0 0.0 0.0
vn -0.927280843257904 -0.37436652183532715 0.0
vn -0.8566963076591492 -0.37436598539352417 -0.3548543155193329
vn -0.9238795638084412 0.0 -0.3826833665370941
vn -0.9238795638084412 0.0 -0.3826833665370941
vn -0.8566963076591492 -0.37436598539352417 -0.3548543155193329
vn -0.6556879281997681 -0.37436696887016296 -0.6556848883628845
vn -0.7071089148521423 0.0 -0.7071046829223633
vn -0.7071089148521423 0.0 -0.7071046829223633
vn -0.6556879281997681 -0.37436696887016296 -0.6556848883628845
vn -0.3548547923564911 -0.3743683397769928 -0.8566950559616089
vn -0.38268551230430603 0.0 -0.9238786697387695
vn -0.38268551230430603 0.0 -0.9238786697387695
vn -0.3548547923564911 -0.3743683397769928 -0.8566950559616089
vn -0.0 -0.3743675947189331 -0.9272804260253906
vn -0.0 0.0 -1.0
vn -0.0 0.0 -1.0
vn -0.0 -0.3743675947189331 -0.9272804260253906
vn 0.35485750436782837 -0.3743674159049988 -0.8566943407058716
vn 0.3826853632926941 0.0 -0.9238787293434143
vn 0.3826853632926941 0.0 -0.9238787293434143
vn 0.35485750436782837 -0.3743674159049988 -0.8566943407058716
vn 0.6556869149208069 -0.3743683993816376 -0.6556850671768188
vn 0.707108736038208 0.0 -0.7071048617362976
vn 0.707108736038208 0.0 -0.7071048617362976
vn 0.6556869149208069 -0.3743683993816376 -0.6556850671768188
vn 0.8566948771476746 -0.37436777353286743 -0.35485583543777466
vn 0.9238784313201904 0.0 -0.3826861083507538
vn 0.6641388535499573 -0.6951559782028198 -0.27509579062461853
vn 0.718860387802124 -0.6951545476913452 0.0
vn 0.927279531955719 -0.37436971068382263 0.0
vn 0.9238784313201904 0.0 -0.3826861083507538
vn 0.8566948771476746 -0.37436777353286743 -0.35485583543777466
vn 0.927279531955719 -0.37436971068382263 0.0
vn 1.0 0.0 0.0
vn -0.927280843257904 -0.37436652183532715 0.0
vn -0.7188596725463867 -0.6951552033424377 0.0
vn -0.6641392707824707 -0.6951557993888855 -0.27509552240371704
vn -0.8566963076591492 -0.37436598539352417 -0.3548543155193329
vn -0.8566963076591492 -0.37436598539352417 -0.3548543155193329
vn -0.6641392707824707 -0.6951557993888855 -0.27509552240371704
vn -0.5083085894584656 -0.6951574087142944 -0.508309543132782
vn -0.6556879281997681 -0.37436696887016296 -0.6556848883628845
vn -0.6556879281997681 -0.37436696887016296 -0.6556848883628845
vn -0.5083085894584656 -0.6951574087142944 -0.508309543132782
vn -0.275095671415329 -0.6951571106910706 -0.6641377210617065
vn -0.3548547923564911 -0.3743683397769928 -0.8566950559616089
vn -0.3548547923564911 -0.3743683397769928 -0.8566950559616089
vn -0.275095671415329 -0.6951571106910706 -0.6641377210617065
vn -0.0 -0.6951570510864258 -0.7188578844070435
vn -0.0 -0.3743675947189331 -0.9272804260253906
vn -0.0 -0.3743675947189331 -0.9272804260253906
vn -0.0 -0.6951570510864258 -0.7188578844070435
vn 0.2750973701477051 -0.6951563358306885 -0.6641378402709961
vn 0.35485750436782837 -0.3743674159049988 -0.8566943407058716
vn 0.35485750436782837 -0.3743674159049988 -0.8566943407058716
vn 0.2750973701477051 -0.6951563358306885 -0.6641378402709961
vn 0.5083138942718506 -0.6951552033424377 -0.5083072781562805
vn 0.6556869149208069 -0.3743683993816376 -0.6556850671768188
vn 0.6556869149208069 -0.3743683993816376 -0.6556850671768188
vn 0.5083138942718506 -0.6951552033424377 -0.5083072781562805
vn 0.6641388535499573 -0.6951559782028198 -0.27509579062461853
vn 0.8566948771476746 -0.37436777353286743 -0.35485583543777466
vn -0.7188596725463867 -0.6951552033424377 0.0
vn -0.40309497714042664 -0.9151581525802612 0.0
vn -0.37240666151046753 -0.9151598215103149 -0.1542588621377945
vn -0.6641392707824707 -0.6951557993888855 -0.27509552240371704
vn -0.6641392707824707 -0.6951557993888855 -0.27509552240371704
vn -0.37240666151046753 -0.9151598215103149 -0.1542588621377945
vn -0.28502947092056274 -0.9151592254638672 -0.28502941131591797
vn -0.5083085894584656 -0.6951574087142944 -0.508309543132782
vn -0.5083085894584656 -0.6951574087142944 -0.508309543132782
vn -0.28502947092056274 -0.9151592254638672 -0.28502941131591797
vn -0.15425710380077362 -0.9151594042778015 -0.37240833044052124
vn -0.275095671415329 -0.6951571106910706 -0.6641377210617065
vn -0.275095671415329 -0.6951571106910706 -0.6641377210617065
vn -0.15425710380077362 -0.9151594042778015 -0.37240833044052124
vn -0.0 -0.9151591658592224 -0.40309274196624756
vn -0.0 -0.6951570510864258 -0.7188578844070435
vn -0.0 -0.6951570510864258 -0.7188578844070435
vn -0.0 -0.9151591658592224 -0.40309274196624756
vn 0.15425701439380646 -0.9151594042778015 -0.37240836024284363
vn 0.2750973701477051 -0.6951563358306885 -0.6641378402709961
vn 0.2750973701477051 -0.6951563358306885 -0.6641378402709961
vn 0.15425701439380646 -0.9151594042778015 -0.37240836024284363
vn 0.2850325107574463 -0.915158748626709 -0.2850278615951538
vn 0.5083138942718506 -0.6951552033424377 -0.5083072781562805
vn 0.5083138942718506 -0.6951552033424377 -0.5083072781562805
vn 0.2850325107574463 -0.915158748626709 -0.2850278615951538
vn 0.37241291999816895 -0.9151576161384583 -0.15425698459148407
vn 0.6641388535499573 -0.6951559782028198 -0.27509579062461853
vn 0.6641388535499573 -0.6951559782028198 -0.27509579062461853
vn 0.37241291999816895 -0.9151576161384583 -0.15425698459148407
vn 0.40309450030326843 -0.9151583909988403 0.0
vn 0.718860387802124 -0.6951545476913452 0.0
vt 0.5 0.5000000298023224
vt 0.3086581230163574 0.5000000894069672
vt 0.3232225179672241 0.42677736282348633
vt 0.6913444995880127 0.5
vt 0.6767774820327759 0.5732226967811584
vt 0.5 0.5000000298023224
vt 0.3232225179672241 0.42677736282348633
vt 0.36469870805740356 0.36470186710357666
vt 0.6767774820327759 0.5732226967811584
vt 0.6352987885475159 0.6352982521057129
vt 0.5 0.5000000298023224
vt 0.36469870805740356 0.36470186710357666
vt 0.42677998542785645 0.3232240080833435
vt 0.6352987885475159 0.6352982521057129
vt 0.5732225775718689 0.6767760515213013
vt 0.5 0.5000000298023224
vt 0.42677998542785645 0.3232240080833435
vt 0.4999999701976776 0.30865901708602905
vt 0.5732225775718689 0.6767760515213013
vt 0.5000000596046448 0.6913410723209381
vt 0.5 0.5000000298023224
vt 0.4999999701976776 0.30865901708602905
vt 0.5732225179672241 0.3232240080833435
vt 0.5000000596046448 0.6913410723209381
vt 0.4267800450325012 0.676776111125946
vt 0.5 0.5000000298023224
vt 0.5732225179672241 0.3232240080833435
vt 0.6352987289428711 0.3647017478942871
vt 0.4267800450325012 0.676776111125946
vt 0.36469876766204834 0.6352983117103577
vt 0.5 0.5000000298023224
vt 0.6352987289428711 0.3647017478942871
vt 0.6767774820327759 0.4267772436141968
vt 0.36469876766204834 0.6352983117103577
vt 0.3232225775718689 0.573222815990448
vt 0.5 0.5000000298023224
vt 0.6767774820327759 0.4267772436141968
vt 0.6913444995880127 0.5
vt 0.3232225775718689 0.573222815990448
vt 0.3086581230163574 0.5000000894069672
vt 0.3086581230163574 0.5000000894069672
vt 0.14644759893417358 0.5000001192092896
vt 0.1733618974685669 0.36470192670822144
vt 0.3232225179672241 0.42677736282348633
vt 0.3232225179672241 0.42677736282348633
vt 0.1733618974685669 0.36470192670822144
vt 0.25000250339508057 0.25000059604644775
vt 0.36469870805740356 0.36470186710357666
vt 0.36469870805740356 0.36470186710357666
vt 0.25000250339508057 0.25000059604644775
vt 0.36470121145248413 0.17336022853851318
vt 0.42677998542785645 0.3232240080833435
vt 0.42677998542785645 0.3232240080833435
vt 0.36470121145248413 0.17336022853851318
vt 0.4999999403953552 0.14644724130630493
vt 0.4999999701976776 0.30865901708602905
vt 0.4999999701976776 0.30865901708602905
vt 0.4999999403953552 0.14644724130630493
vt 0.6352987289428711 0.1733601689338684
vt 0.5732225179672241 0.3232240080833435
vt 0.5732225179672241 0.3232240080833435
vt 0.6352987289428711 0.1733601689338684
vt 0.7500025033950806 0.2500004768371582
vt 0.6352987289428711 0.3647017478942871
vt 0.6352987289428711 0.3647017478942871
vt 0.7500025033950806 0.2500004768371582
vt 0.8266406655311584 0.3647017478942871
vt 0.6767774820327759 0.4267772436141968
vt 0.6767774820327759 0.4267772436141968
vt 0.8266406655311584 0.3647017478942871
vt 0.8535524606704712 0.4999999403953552
vt 0.6913444995880127 0.5
vt 0.14644759893417358 0.5000001192092896
vt 0.03806060552597046 0.5000001192092896
vt 0.07322502136230469 0.32322412729263306
vt 0.1733618974685669 0.36470192670822144
vt 0.1733618974685669 0.36470192670822144
vt 0.07322502136230469 0.32322412729263306
vt 0.17336183786392212 0.17336034774780273
vt 0.25000250339508057 0.25000059604644775
vt 0.25000250339508057 0.25000059604644775
vt 0.17336183786392212 0.17336034774780273
vt 0.32322245836257935 0.07322418689727783
vt 0.36470121145248413 0.17336022853851318
vt 0.36470121145248413 0.17336022853851318
vt 0.32322245836257935 0.07322418689727783
vt 0.4999999403953552 0.038060903549194336
vt 0.4999999403953552 0.14644724130630493
vt 0.4999999403953552 0.14644724130630493
vt 0.4999999403953552 0.038060903549194336
vt 0.6767799854278564 0.07322406768798828
vt 0.6352987289428711 0.1733601689338684
vt 0.6352987289428711 0.1733601689338684
vt 0.6767799854278564 0.07322406768798828
vt 0.826643168926239 0.17336022853851318
vt 0.7500025033950806 0.2500004768371582
vt 0.7500025033950806 0.2500004768371582
vt 0.826643168926239 0.17336022853851318
vt 0.9267774820327759 0.32322394847869873
vt 0.8266406655311584 0.3647017478942871
vt 0.8266406655311584 0.3647017478942871
vt 0.9267774820327759 0.32322394847869873
vt 0.9619393944740295 0.49999988079071045
vt 0.8535524606704712 0.4999999403953552
vt 0.03806060552597046 0.5000001192092896
vt 0.0 0.5000000894069672
vt 0.03806060552597046 0.30865931510925293
vt 0.07322502136230469 0.32322412729263306
vt 0.07322502136230469 0.32322412729263306
vt 0.03806060552597046 0.30865931510925293
vt 0.1464475393295288 0.1464473009109497
vt 0.17336183786392212 0.17336034774780273
vt 0.17336183786392212 0.17336034774780273
vt 0.1464475393295288 0.1464473009109497
vt 0.30865800380706787 0.03806096315383911
vt 0.32322245836257935 0.07322418689727783
vt 0.32322245836257935 0.07322418689727783
vt 0.30865800380706787 0.03806096315383911
vt 0.4999999403953552 0.0
vt 0.4999999403953552 0.038060903549194336
vt 0.4999999403953552 0.038060903549194336
vt 0.4999999403953552 0.0
vt 0.6913443803787231 0.03806084394454956
vt 0.6767799854278564 0.07322406768798828
vt 0.6767799854278564 0.07322406768798828
vt 0.6913443803787231 0.03806084394454956
vt 0.8535524010658264 0.14644718170166016
vt 0.826643168926239 0.17336022853851318
vt 0.826643168926239 0.17336022853851318
vt 0.8535524010658264 0.14644718170166016
vt 0.9619418978691101 0.30865907669067383
vt 0.9267774820327759 0.32322394847869873
vt 0.9267774820327759 0.32322394847869873
vt 0.9619418978691101 0.30865907669067383
vt 1.0 0.4999998211860657
vt 0.9619393944740295 0.49999988079071045
vt 0.0 0.5000000894069672
vt 0.03806060552597046 0.5000000596046448
vt 0.07322502136230469 0.32322418689727783
vt 0.03806060552597046 0.30865931510925293
vt 0.03806060552597046 0.30865931510925293
vt 0.07322502136230469 0.32322418689727783
vt 0.17336183786392212 0.1733604073524475
vt 0.1464475393295288 0.1464473009109497
vt 0.1464475393295288 0.1464473009109497
vt 0.17336183786392212 0.1733604073524475
vt 0.32322245836257935 0.07322424650192261
vt 0.30865800380706787 0.03806096315383911
vt 0.30865800380706787 0.03806096315383911
vt 0.32322245836257935 0.07322424650192261
vt 0.4999999403953552 0.03806096315383911
vt 0.4999999403953552 0.0
vt 0.4999999403953552 0.0
vt 0.4999999403953552 0.03806096315383911
vt 0.6767799854278564 0.07322418689727783
vt 0.6913443803787231 0.03806084394454956
vt 0.6913443803787231 0.03806084394454956
vt 0.6767799854278564 0.07322418689727783
vt 0.826643168926239 0.17336022853851318
vt 0.8535524010658264 0.14644718170166016
vt 0.8535524010658264 0.14644718170166016
vt 0.826643168926239 0.17336022853851318
vt 0.9267774820327759 0.32322394847869873
vt 0.9619418978691101 0.30865907669067383
vt 0.826643168926239 0.3647017478942871
vt 0.8535524606704712 0.4999998211860657
vt 0.9619393944740295 0.4999998211860657
vt 0.9619418978691101 0.30865907669067383
vt 0.9267774820327759 0.32322394847869873
vt 0.9619393944740295 0.4999998211860657
vt 1.0 0.4999998211860657
vt 0.03806060552597046 0.5000000596046448
vt 0.14644503593444824 0.5
vt 0.1733618974685669 0.36470192670822144
vt 0.07322502136230469 0.32322418689727783
vt 0.07322502136230469 0.32322418689727783
vt 0.1733618974685669 0.36470192670822144
vt 0.25000250339508057 0.2500010132789612
vt 0.17336183786392212 0.1733604073524475
vt 0.17336183786392212 0.1733604073524475
vt 0.25000250339508057 0.2500010132789612
vt 0.36470121145248413 0.17336034774780273
vt 0.32322245836257935 0.07322424650192261
vt 0.32322245836257935 0.07322424650192261
vt 0.36470121145248413 0.17336034774780273
vt 0.4999999403953552 0.1464475393295288
vt 0.4999999403953552 0.03806096315383911
vt 0.4999999403953552 0.03806096315383911
vt 0.4999999403953552 0.1464475393295288
vt 0.6352987289428711 0.17336022853851318
vt 0.6767799854278564 0.07322418689727783
vt 0.6767799854278564 0.07322418689727783
vt 0.6352987289428711 0.17336022853851318
vt 0.7500025033950806 0.2500009536743164
vt 0.826643168926239 0.17336022853851318
vt 0.826643168926239 0.17336022853851318
vt 0.7500025033950806 0.2500009536743164
vt 0.826643168926239 0.3647017478942871
vt 0.9267774820327759 0.32322394847869873
vt 0.14644503593444824 0.5
vt 0.3086581230163574 0.4999999403953552
vt 0.32322508096694946 0.42677736282348633
vt 0.1733618974685669 0.36470192670822144
vt 0.1733618974685669 0.36470192670822144
vt 0.32322508096694946 0.42677736282348633
vt 0.3647012710571289 0.36470186710357666
vt 0.25000250339508057 0.2500010132789612
vt 0.25000250339508057 0.2500010132789612
vt 0.3647012710571289 0.36470186710357666
vt 0.42677998542785645 0.3232240080833435
vt 0.36470121145248413 0.17336034774780273
vt 0.36470121145248413 0.17336034774780273
vt 0.42677998542785645 0.3232240080833435
vt 0.4999999701976776 0.3086588382720947
vt 0.4999999403953552 0.1464475393295288
vt 0.4999999403953552 0.1464475393295288
vt 0.4999999701976776 0.3086588382720947
vt 0.5732225179672241 0.3232240080833435
vt 0.6352987289428711 0.17336022853851318
vt 0.6352987289428711 0.17336022853851318
vt 0.5732225179672241 0.3232240080833435
vt 0.6352987289428711 0.3647017478942871
vt 0.7500025033950806 0.2500009536743164
vt 0.7500025033950806 0.2500009536743164
vt 0.6352987289428711 0.3647017478942871
vt 0.6767774820327759 0.42677730321884155
vt 0.826643168926239 0.3647017478942871
vt 0.826643168926239 0.3647017478942871
vt 0.6767774820327759 0.42677730321884155
vt 0.6913444995880127 0.4999998211860657
vt 0.8535524606704712 0.4999998211860657
vt 0.5 0.49999988079071045
vt 0.32322508096694946 0.42677736282348633
vt 0.3086581230163574 0.4999999403953552
vt 0.6767774820327759 0.5732223689556122
vt 0.6913444995880127 0.4999998211860657
vt 0.5 0.49999988079071045
vt 0.3647012710571289 0.36470186710357666
vt 0.32322508096694946 0.42677736282348633
vt 0.6352987885475159 0.6352978944778442
vt 0.6767774820327759 0.5732223689556122
vt 0.5 0.49999988079071045
vt 0.42677998542785645 0.3232240080833435
vt 0.3647012710571289 0.36470186710357666
vt 0.5732225775718689 0.6767757534980774
vt 0.6352987885475159 0.6352978944778442
vt 0.5 0.49999988079071045
vt 0.4999999701976776 0.3086588382720947
vt 0.42677998542785645 0.3232240080833435
vt 0.5000000596046448 0.6913409233093262
vt 0.5732225775718689 0.6767757534980774
vt 0.5 0.49999988079071045
vt 0.5732225179672241 0.3232240080833435
vt 0.4999999701976776 0.3086588382720947
vt 0.4267800450325012 0.6767757534980774
vt 0.5000000596046448 0.6913409233093262
vt 0.5 0.49999988079071045
vt 0.6352987289428711 0.3647017478942871
vt 0.5732225179672241 0.3232240080833435
vt 0.3647013306617737 0.635297954082489
vt 0.4267800450325012 0.6767757534980774
vt 0.5 0.49999988079071045
vt 0.6767774820327759 0.42677730321884155
vt 0.6352987289428711 0.3647017478942871
vt 0.32322508096694946 0.5732224583625793
vt 0.3647013306617737 0.635297954082489
vt 0.5 0.49999988079071045
vt 0.6913444995880127 0.4999998211860657
vt 0.6767774820327759 0.42677730321884155
vt 0.3086581230163574 0.4999999403953552
vt 0.32322508096694946 0.5732224583625793
vt 0.3086581230163574 0.5000000894069672
vt 0.3232225775718689 0.573222815990448
vt 0.17336195707321167 0.6352983117103577
vt 0.14644759893417358 0.5000001192092896
vt 0.3232225775718689 0.573222815990448
vt 0.36469876766204834 0.6352983117103577
vt 0.2500026226043701 0.7499995231628418
vt 0.17336195707321167 0.6352983117103577
vt 0.36469876766204834 0.6352983117103577
vt 0.4267800450325012 0.676776111125946
vt 0.3647013306617737 0.8266398310661316
vt 0.2500026226043701 0.7499995231628418
vt 0.4267800450325012 0.676776111125946
vt 0.5000000596046448 0.6913410723209381
vt 0.5000000596046448 0.8535528182983398
vt 0.3647013306617737 0.8266398310661316
vt 0.5000000596046448 0.6913410723209381
vt 0.5732225775718689 0.6767760515213013
vt 0.6352988481521606 0.8266397416591644
vt 0.5000000596046448 0.8535528182983398
vt 0.5732225775718689 0.6767760515213013
vt 0.6352987885475159 0.6352982521057129
vt 0.7500026226043701 0.7499994039535522
vt 0.6352988481521606 0.8266397416591644
vt 0.6352987885475159 0.6352982521057129
vt 0.6767774820327759 0.5732226967811584
vt 0.8266407251358032 0.6352981328964233
vt 0.7500026226043701 0.7499994039535522
vt 0.6767774820327759 0.5732226967811584
vt 0.6913444995880127 0.5
vt 0.8535524606704712 0.4999999403953552
vt 0.8266407251358032 0.6352981328964233
vt 0.14644759893417358 0.5000001192092896
vt 0.17336195707321167 0.6352983117103577
vt 0.07322508096694946 0.676776111125946
vt 0.03806060552597046 0.5000001192092896
vt 0.17336195707321167 0.6352983117103577
vt 0.2500026226043701 0.7499995231628418
vt 0.17336195707321167 0.826639860868454
vt 0.07322508096694946 0.676776111125946
vt 0.2500026226043701 0.7499995231628418
vt 0.3647013306617737 0.8266398310661316
vt 0.32322263717651367 0.9267758131027222
vt 0.17336195707321167 0.826639860868454
vt 0.3647013306617737 0.8266398310661316
vt 0.5000000596046448 0.8535528182983398
vt 0.5000001192092896 0.9619390368461609
vt 0.32322263717651367 0.9267758131027222
vt 0.5000000596046448 0.8535528182983398
vt 0.6352988481521606 0.8266397416591644
vt 0.676780104637146 0.926775723695755
vt 0.5000001192092896 0.9619390368461609
vt 0.6352988481521606 0.8266397416591644
vt 0.7500026226043701 0.7499994039535522
vt 0.8266432881355286 0.8266396820545197
vt 0.676780104637146 0.926775723695755
vt 0.7500026226043701 0.7499994039535522
vt 0.8266407251358032 0.6352981328964233
vt 0.9267775416374207 0.6767758727073669
vt 0.8266432881355286 0.8266396820545197
vt 0.8266407251358032 0.6352981328964233
vt 0.8535524606704712 0.4999999403953552
vt 0.9619393944740295 0.49999988079071045
vt 0.9267775416374207 0.6767758727073669
vt 0.03806060552597046 0.5000001192092896
vt 0.07322508096694946 0.676776111125946
vt 0.038060665130615234 0.6913408041000366
vt 0.0 0.5000000894069672
vt 0.07322508096694946 0.676776111125946
vt 0.17336195707321167 0.826639860868454
vt 0.14644765853881836 0.8535527884960175
vt 0.038060665130615234 0.6913408041000366
vt 0.17336195707321167 0.826639860868454
vt 0.32322263717651367 0.9267758131027222
vt 0.3086581826210022 0.9619390666484833
vt 0.14644765853881836 0.8535527884960175
vt 0.32322263717651367 0.9267758131027222
vt 0.5000001192092896 0.9619390368461609
vt 0.5000001192092896 1.0
vt 0.3086581826210022 0.9619390666484833
vt 0.5000001192092896 0.9619390368461609
vt 0.676780104637146 0.926775723695755
vt 0.6913445591926575 0.9619389772415161
vt 0.5000001192092896 1.0
vt 0.676780104637146 0.926775723695755
vt 0.8266432881355286 0.8266396820545197
vt 0.853552520275116 0.8535526096820831
vt 0.6913445591926575 0.9619389772415161
vt 0.8266432881355286 0.8266396820545197
vt 0.9267775416374207 0.6767758727073669
vt 0.9619419574737549 0.6913405656814575
vt 0.853552520275116 0.8535526096820831
vt 0.9267775416374207 0.6767758727073669
vt 0.9619393944740295 0.49999988079071045
vt 1.0 0.4999998211860657
vt 0.9619419574737549 0.6913405656814575
vt 0.0 0.5000000894069672
vt 0.038060665130615234 0.6913408041000366
vt 0.07322508096694946 0.6767759323120117
vt 0.03806060552597046 0.5000000596046448
vt 0.038060665130615234 0.6913408041000366
vt 0.14644765853881836 0.8535527884960175
vt 0.17336195707321167 0.826639711856842
vt 0.07322508096694946 0.6767759323120117
vt 0.14644765853881836 0.8535527884960175
vt 0.3086581826210022 0.9619390666484833
vt 0.32322263717651367 0.9267757534980774
vt 0.17336195707321167 0.826639711856842
vt 0.3086581826210022 0.9619390666484833
vt 0.5000001192092896 1.0
vt 0.5000001192092896 0.9619389772415161
vt 0.32322263717651367 0.9267757534980774
vt 0.5000001192092896 1.0
vt 0.6913445591926575 0.9619389772415161
vt 0.676780104637146 0.9267756640911102
vt 0.5000001192092896 0.9619389772415161
vt 0.6913445591926575 0.9619389772415161
vt 0.853552520275116 0.8535526096820831
vt 0.8266432881355286 0.8266395330429077
vt 0.676780104637146 0.9267756640911102
vt 0.853552520275116 0.8535526096820831
vt 0.9619419574737549 0.6913405656814575
vt 0.9267775416374207 0.676775723695755
vt 0.8266432881355286 0.8266395330429077
vt 0.9619393944740295 0.4999998211860657
vt 0.8535524606704712 0.4999998211860657
vt 0.8266432285308838 0.6352978944778442
vt 0.9619419574737549 0.6913405656814575
vt 1.0 0.4999998211860657
vt 0.9619393944740295 0.4999998211860657
vt 0.9267775416374207 0.676775723695755
vt 0.03806060552597046 0.5000000596046448
vt 0.07322508096694946 0.6767759323120117
vt 0.17336195707321167 0.6352980732917786
vt 0.14644503593444824 0.5
vt 0.07322508096694946 0.6767759323120117
vt 0.17336195707321167 0.826639711856842
vt 0.2500026226043701 0.749998927116394
vt 0.17336195707321167 0.6352980732917786
vt 0.17336195707321167 0.826639711856842
vt 0.32322263717651367 0.9267757534980774
vt 0.3647013306617737 0.8266395926475525
vt 0.2500026226043701 0.749998927116394
vt 0.32322263717651367 0.9267757534980774
vt 0.5000001192092896 0.9619389772415161
vt 0.5000000596046448 0.8535524308681488
vt 0.3647013306617737 0.8266395926475525
vt 0.5000001192092896 0.9619389772415161
vt 0.676780104637146 0.9267756640911102
vt 0.6352988481521606 0.8266395032405853
vt 0.5000000596046448 0.8535524308681488
vt 0.676780104637146 0.9267756640911102
vt 0.8266432881355286 0.8266395330429077
vt 0.7500026226043701 0.7499988079071045
vt 0.6352988481521606 0.8266395032405853
vt 0.8266432881355286 0.8266395330429077
vt 0.9267775416374207 0.676775723695755
vt 0.8266432285308838 0.6352978944778442
vt 0.7500026226043701 0.7499988079071045
vt 0.14644503593444824 0.5
vt 0.17336195707321167 0.6352980732917786
vt 0.32322508096694946 0.5732224583625793
vt 0.3086581230163574 0.4999999403953552
vt 0.17336195707321167 0.6352980732917786
vt 0.2500026226043701 0.749998927116394
vt 0.3647013306617737 0.635297954082489
vt 0.32322508096694946 0.5732224583625793
vt 0.2500026226043701 0.749998927116394
vt 0.3647013306617737 0.8266395926475525
vt 0.4267800450325012 0.6767757534980774
vt 0.3647013306617737 0.635297954082489
vt 0.3647013306617737 0.8266395926475525
vt 0.5000000596046448 0.8535524308681488
vt 0.5000000596046448 0.6913409233093262
vt 0.4267800450325012 0.6767757534980774
vt 0.5000000596046448 0.8535524308681488
vt 0.6352988481521606 0.8266395032405853
vt 0.5732225775718689 0.6767757534980774
vt 0.5000000596046448 0.6913409233093262
vt 0.6352988481521606 0.8266395032405853
vt 0.7500026226043701 0.7499988079071045
vt 0.6352987885475159 0.6352978944778442
vt 0.5732225775718689 0.6767757534980774
vt 0.7500026226043701 0.7499988079071045
vt 0.8266432285308838 0.6352978944778442
vt 0.6767774820327759 0.5732223689556122
vt 0.6352987885475159 0.6352978944778442
vt 0.8266432285308838 0.6352978944778442
vt 0.8535524606704712 0.4999998211860657
vt 0.6913444995880127 0.4999998211860657
vt 0.6767774820327759 0.5732223689556122

g silver
s 1
usemtl silver
f 3/3/3 2/2/2 1/1/1 
f 5/5/5 4/4/4 1/1/1 
f 8/8/8 7/7/7 6/6/6 
f 10/10/10 9/9/9 6/6/6 
f 13/13/13 12/12/12 11/11/11 
f 15/15/15 14/14/14 11/11/11 
f 18/18/18 17/17/17 16/16/16 
f 20/20/20 19/19/19 16/16/16 
f 23/23/23 22/22/22 21/21/21 
f 25/25/25 24/24/24 21/21/21 
f 28/28/28 27/27/27 26/26/26 
f 30/30/30 29/29/29 26/26/26 
f 33/33/33 32/32/32 31/31/31 
f 35/35/35 34/34/34 31/31/31 
f 38/38/38 37/37/37 36/36/36 
f 40/40/40 39/39/39 36/36/36 
f 43/43/43 42/42/42 41/41/41 
f 44/44/44 43/43/43 41/41/41 
f 47/47/47 46/46/46 45/45/45 
f 48/48/48 47/47/47 45/45/45 
f 51/51/51 50/50/50 49/49/49 
f 52/52/52 51/51/51 49/49/49 
f 55/55/55 54/54/54 53/53/53 
f 56/56/56 55/55/55 53/53/53 
f 59/59/59 58/58/58 57/57/57 
f 60/60/60 59/59/59 57/57/57 
f 63/63/63 62/62/62 61/61/61 
f 64/64/64 63/63/63 61/61/61 
f 67/67/67 66/66/66 65/65/65 
f 68/68/68 67/67/67 65/65/65 
f 71/71/71 70/70/70 69/69/69 
f 72/72/72 71/71/71 69/69/69 
f 75/75/75 74/74/74 73/73/73 
f 76/76/76 75/75/75 73/73/73 
f 79/79/79 78/78/78 77/77/77 
f 80/80/80 79/79/79 77/77/77 
f 83/83/83 82/82/82 81/81/81 
f 84/84/84 83/83/83 81/81/81 
f 87/87/87 86/86/86 85/85/85 
f 88/88/88 87/87/87 85/85/85 
f 91/91/91 90/90/90 89/89/89 
f 92/92/92 91/91/91 89/89/89 
f 95/95/95 94/94/94 93/93/93 
f 96/96/96 95/95/95 93/93/93 
f 99/99/99 98/98/98 97/97/97 
f 100/100/100 99/99/99 97/97/97 
f 103/103/103 102/102/102 101/101/101 
f 104/104/104 103/103/103 101/101/101 
f 107/107/107 106/106/106 105/105/105 
f 108/108/108 107/107/107 105/105/105 
f 111/111/111 110/110/110 109/109/109 
f 112/112/112 111/111/111 109/109/109 
f 115/115/115 114/114/114 113/113/113 
f 116/116/116 115/115/115 113/113/113 
f 119/119/119 118/118/118 117/117/117 
f 120/120/120 119/119/119 117/117/117 
f 123/123/123 122/122/122 121/121/121 
f 124/124/124 123/123/123 121/121/121 
f 127/127/127 126/126/126 125/125/125 
f 128/128/128 127/127/127 125/125/125 
f 131/131/131 130/130/130 129/129/129 
f 132/132/132 131/131/131 129/129/129 
f 135/135/135 134/134/134 133/133/133 
f 136/136/136 135/135/135 133/133/133 
f 139/139/139 138/138/138 137/137/137 
f 140/140/140 139/139/139 137/137/137 
f 143/143/143 142/142/142 141/141/141 
f 144/144/144 143/143/143 141/141/141 
f 147/147/147 146/146/146 145/145/145 
f 148/148/148 147/147/147 145/145/145 
f 151/151/151 150/150/150 149/149/149 
f 152/152/152 151/151/151 149/149/149 
f 155/155/155 154/154/154 153/153/153 
f 156/156/156 155/155/155 153/153/153 
f 159/159/159 158/158/158 157/157/157 
f 160/160/160 159/159/159 157/157/157 
f 163/163/163 162/162/162 161/161/161 
f 164/164/164 163/163/163 161/161/161 
f 166/166/166 165/165/165 163/163/163 
f 167/167/167 166/166/166 163/163/163 
f 170/170/170 169/169/169 168/168/168 
f 171/171/171 170/170/170 168/168/168 
f 174/174/174 173/173/173 172/172/172 
f 175/175/175 174/174/174 172/172/172 
f 178/178/178 177/177/177 176/176/176 
f 179/179/179 178/178/178 176/176/176 
f 182/182/182 181/181/181 180/180/180 
f 183/183/183 182/182/182 180/180/180 
f 186/186/186 185/185/185 184/184/184 
f 187/187/187 186/186/186 184/184/184 
f 190/190/190 189/189/189 188/188/188 
f 191/191/191 190/190/190 188/188/188 
f 194/194/194 193/193/193 192/192/192 
f 195/195/195 194/194/194 192/192/192 
f 198/198/198 197/197/197 196/196/196 
f 199/199/199 198/198/198 196/196/196 
f 202/202/202 201/201/201 200/200/200 
f 203/203/203 202/202/202 200/200/200 
f 206/206/206 205/205/205 204/204/204 
f 207/207/207 206/206/206 204/204/204 
f 210/210/210 209/209/209 208/208/208 
f 211/211/211 210/210/210 208/208/208 
f 214/214/214 213/213/213 212/212/212 
f 215/215/215 214/214/214 212/212/212 
f 218/218/218 217/217/217 216/216/216 
f 219/219/219 218/218/218 216/216/216 
f 222/222/222 221/221/221 220/220/220 
f 223/223/223 222/222/222 220/220/220 
f 226/226/226 225/225/225 224/224/224 
f 227/227/227 226/226/226 224/224/224 
f 230/230/230 229/229/229 228/228/228 
f 231/231/231 230/230/230 228/228/228 
f 234/234/234 233/233/233 232/232/232 
f 236/236/236 235/235/235 232/232/232 
f 239/239/239 238/238/238 237/237/237 
f 241/241/241 240/240/240 237/237/237 
f 244/244/244 243/243/243 242/242/242 
f 246/246/246 245/245/245 242/242/242 
f 249/249/249 248/248/248 247/247/247 
f 251/251/251 250/250/250 247/247/247 
f 254/254/254 253/253/253 252/252/252 
f 256/256/256 255/255/255 252/252/252 
f 259/259/259 258/258/258 257/257/257 
f 261/261/261 260/260/260 257/257/257 
f 264/264/264 263/263/263 262/262/262 
f 266/266/266 265/265/265 262/262/262 
f 269/269/269 268/268/268 267/267/267 
f 271/271/271 270/270/270 267/267/267 
f 274/274/274 273/273/273 272/272/272 
f 275/275/275 274/274/274 272/272/272 
f 278/278/278 277/277/277 276/276/276 
f 279/279/279 278/278/278 276/276/276 
f 282/282/282 281/281/281 280/280/280 
f 283/283/283 282/282/282 280/280/280 
f 286/286/286 285/285/285 284/284/284 
f 287/287/287 286/286/286 284/284/284 
f 290/290/290 289/289/289 288/288/288 
f 291/291/291 290/290/290 288/288/288 
f 294/294/294 293/293/293 292/292/292 
f 295/295/295 294/294/294 292/292/292 
f 298/298/298 297/297/297 296/296/296 
f 299/299/299 298/298/298 296/296/296 
f 302/302/302 301/301/301 300/300/300 
f 303/303/303 302/302/302 300/300/300 
f 306/306/306 305/305/305 304/304/304 
f 307/307/307 306/306/306 304/304/304 
f 310/310/310 309/309/309 308/308/308 
f 311/311/311 310/310/310 308/308/308 
f 314/314/314 313/313/313 312/312/312 
f 315/315/315 314/314/314 312/312/312 
f 318/318/318 317/317/317 316/316/316 
f 319/319/319 318/318/318 316/316/316 
f 322/322/322 321/321/321 320/320/320 
f 323/323/323 322/322/322 320/320/320 
f 326/326/326 325/325/325 324/324/324 
f 327/327/327 326/326/326 324/324/324 
f 330/330/330 329/329/329 328/328/328 
f 331/331/331 330/330/330 328/328/328 
f 334/334/334 333/333/333 332/332/332 
f 335/335/335 334/334/334 332/332/332 
f 338/338/338 337/337/337 336/336/336 
f 339/339/339 338/338/338 336/336/336 
f 342/342/342 341/341/341 340/340/340 
f 343/343/343 342/342/342 340/340/340 
f 346/346/346 345/345/345 344/344/344 
f 347/347/347 346/346/346 344/344/344 
f 350/350/350 349/349/349 348/348/348 
f 351/351/351 350/350/350 348/348/348 
f 354/354/354 353/353/353 352/352/352 
f 355/355/355 354/354/354 352/352/352 
f 358/358/358 357/357/357 356/356/356 
f 359/359/359 358/358/358 356/356/356 
f 362/362/362 361/361/361 360/360/360 
f 363/363/363 362/362/362 360/360/360 
f 366/366/366 365/365/365 364/364/364 
f 367/367/367 366/366/366 364/364/364 
f 370/370/370 369/369/369 368/368/368 
f 371/371/371 370/370/370 368/368/368 
f 374/374/374 373/373/373 372/372/372 
f 375/375/375 374/374/374 372/372/372 
f 378/378/378 377/377/377 376/376/376 
f 379/379/379 378/378/378 376/376/376 
f 382/382/382 381/381/381 380/380/380 
f 383/383/383 382/382/382 380/380/380 
f 386/386/386 385/385/385 384/384/384 
f 387/387/387 386/386/386 384/384/384 
f 390/390/390 389/389/389 388/388/388 
f 391/391/391 390/390/390 388/388/388 
f 394/394/394 393/393/393 392/392/392 
f 395/395/395 394/394/394 392/392/392 
f 397/397/397 396/396/396 394/394/394 
f 398/398/398 397/397/397 394/394/394 
f 401/401/401 400/400/400 399/399/399 
f 402/402/402 401/401/401 399/399/399 
f 405/405/405 404/404/404 403/403/403 
f 406/406/406 405/405/405 403/403/403 
f 409/409/409 408/408/408 407/407/407 
f 410/410/410 409/409/409 407/407/407 
f 413/413/413 412/412/412 411/411/411 
f 414/414/414 413/413/413 411/411/411 
f 417/417/417 416/416/416 415/415/415 
f 418/418/418 417/417/417 415/415/415 
f 421/421/421 420/420/420 419/419/419 
f 422/422/422 421/421/421 419/419/419 
f 425/425/425 424/424/424 423/423/423 
f 426/426/426 425/425/425 423/423/423 
f 429/429/429 428/428/428 427/427/427 
f 430/430/430 429/429/429 427/427/427 
f 433/433/433 432/432/432 431/431/431 
f 434/434/434 433/433/433 431/431/431 
f 437/437/437 436/436/436 435/435/435 
f 438/438/438 437/437/437 435/435/435 
f 441/441/441 440/440/440 439/439/439 
f 442/442/442 441/441/441 439/439/439 
f 445/445/445 444/444/444 443/443/443 
f 446/446/446 445/445/445 443/443/443 
f 449/449/449 448/448/448 447/447/447 
f 450/450/450 449/449/449 447/447/447 
f 453/453/453 452/452/452 451/451/451 
f 454/454/454 453/453/453 451/451/451 
f 457/457/457 456/456/456 455/455/455 
f 458/458/458 457/457/457 455/455/455 
f 461/461/461 460/460/460 459/459/459 
f 462/462/462 461/461/461 459/459/459 

