[
	{
		"ID": 1,
		"Name": "步兵训练场",
		"SoldierType": [
			2
		],
		"LevelToUnlock": 0
	},
	{
		"ID": 2,
		"Name": "枪兵训练场",
		"SoldierType": [
			1
		],
		"LevelToUnlock": 41
	},
	{
		"ID": 3,
		"Name": "骑兵训练场",
		"SoldierType": [
			3
		],
		"LevelToUnlock": 81
	},
	{
		"ID": 4,
		"Name": "飞兵水兵训练场",
		"SoldierType": [
			4,
			5
		],
		"LevelToUnlock": 61
	},
	{
		"ID": 5,
		"Name": "弓兵刺客训练场",
		"SoldierType": [
			6,
			11
		],
		"LevelToUnlock": 21
	},
	{
		"ID": 6,
		"Name": "僧侣魔物训练场",
		"SoldierType": [
			7,
			8,
			9
		],
		"LevelToUnlock": 101
	}
]