[
	{
		"ID": 0,
		"PropertyModifyType": "PropertyModifyType_None",
		"Name": "无",
		"IsAddType": false,
		"IsDynamic": false,
		"PropertyType": "PropertyType_None"
	},
	{
		"ID": 1,
		"PropertyModifyType": "PropertyModifyType_Hero1_HPAdd",
		"Name": "生命",
		"IsAddType": true,
		"IsDynamic": false,
		"PropertyType": "PropertyType_None"
	},
	{
		"ID": 2,
		"PropertyModifyType": "PropertyModifyType_Hero1_ATAdd",
		"Name": "攻击",
		"IsAddType": true,
		"IsDynamic": false,
		"PropertyType": "PropertyType_None"
	},
	{
		"ID": 3,
		"PropertyModifyType": "PropertyModifyType_Hero1_DFAdd",
		"Name": "防御",
		"IsAddType": true,
		"IsDynamic": false,
		"PropertyType": "PropertyType_None"
	},
	{
		"ID": 4,
		"PropertyModifyType": "PropertyModifyType_Hero1_MagicAdd",
		"Name": "智力",
		"IsAddType": true,
		"IsDynamic": false,
		"PropertyType": "PropertyType_None"
	},
	{
		"ID": 5,
		"PropertyModifyType": "PropertyModifyType_Hero1_MagicDFAdd",
		"Name": "魔防",
		"IsAddType": true,
		"IsDynamic": false,
		"PropertyType": "PropertyType_None"
	},
	{
		"ID": 6,
		"PropertyModifyType": "PropertyModifyType_Hero1_DEXAdd",
		"Name": "技巧",
		"IsAddType": true,
		"IsDynamic": false,
		"PropertyType": "PropertyType_None"
	},
	{
		"ID": 7,
		"PropertyModifyType": "PropertyModifyType_Hero1_HPCmdAdd",
		"Name": "生命指挥",
		"IsAddType": true,
		"IsDynamic": false,
		"PropertyType": "PropertyType_None"
	},
	{
		"ID": 8,
		"PropertyModifyType": "PropertyModifyType_Hero1_ATCmdAdd",
		"Name": "攻击指挥",
		"IsAddType": true,
		"IsDynamic": false,
		"PropertyType": "PropertyType_None"
	},
	{
		"ID": 9,
		"PropertyModifyType": "PropertyModifyType_Hero1_DFCmdAdd",
		"Name": "防御指挥",
		"IsAddType": true,
		"IsDynamic": false,
		"PropertyType": "PropertyType_None"
	},
	{
		"ID": 10,
		"PropertyModifyType": "PropertyModifyType_Hero1_MagicDFCmdAdd",
		"Name": "魔防指挥",
		"IsAddType": true,
		"IsDynamic": false,
		"PropertyType": "PropertyType_None"
	},
	{
		"ID": 11,
		"PropertyModifyType": "PropertyModifyType_Hero1_BFMovePointAdd",
		"Name": "移动力",
		"IsAddType": true,
		"IsDynamic": false,
		"PropertyType": "PropertyType_None"
	},
	{
		"ID": 12,
		"PropertyModifyType": "PropertyModifyType_Hero1_BFAttackDistanceAdd",
		"Name": "普攻射程",
		"IsAddType": true,
		"IsDynamic": false,
		"PropertyType": "PropertyType_None"
	},
	{
		"ID": 13,
		"PropertyModifyType": "PropertyModifyType_Hero1_CriticalDamageAdd",
		"Name": "暴伤",
		"IsAddType": false,
		"IsDynamic": false,
		"PropertyType": "PropertyType_None"
	},
	{
		"ID": 14,
		"PropertyModifyType": "PropertyModifyType_Hero1_CriticalRateAdd",
		"Name": "暴击",
		"IsAddType": false,
		"IsDynamic": false,
		"PropertyType": "PropertyType_None"
	},
	{
		"ID": 15,
		"PropertyModifyType": "PropertyModifyType_Hero1_HPMul",
		"Name": "生命",
		"IsAddType": false,
		"IsDynamic": false,
		"PropertyType": "PropertyType_None"
	},
	{
		"ID": 16,
		"PropertyModifyType": "PropertyModifyType_Hero1_ATMul",
		"Name": "攻击",
		"IsAddType": false,
		"IsDynamic": false,
		"PropertyType": "PropertyType_None"
	},
	{
		"ID": 17,
		"PropertyModifyType": "PropertyModifyType_Hero1_DFMul",
		"Name": "防御",
		"IsAddType": false,
		"IsDynamic": false,
		"PropertyType": "PropertyType_None"
	},
	{
		"ID": 18,
		"PropertyModifyType": "PropertyModifyType_Hero1_MagicMul",
		"Name": "智力",
		"IsAddType": false,
		"IsDynamic": false,
		"PropertyType": "PropertyType_None"
	},
	{
		"ID": 19,
		"PropertyModifyType": "PropertyModifyType_Hero1_MagicDFMul",
		"Name": "魔防",
		"IsAddType": false,
		"IsDynamic": false,
		"PropertyType": "PropertyType_None"
	},
	{
		"ID": 20,
		"PropertyModifyType": "PropertyModifyType_Hero1_DEXMul",
		"Name": "技巧",
		"IsAddType": false,
		"IsDynamic": false,
		"PropertyType": "PropertyType_None"
	},
	{
		"ID": 21,
		"PropertyModifyType": "PropertyModifyType_Hero2_HPAdd",
		"Name": "生命",
		"IsAddType": true,
		"IsDynamic": true,
		"PropertyType": "PropertyType_None"
	},
	{
		"ID": 22,
		"PropertyModifyType": "PropertyModifyType_Hero2_ATAdd",
		"Name": "攻击",
		"IsAddType": true,
		"IsDynamic": true,
		"PropertyType": "PropertyType_None"
	},
	{
		"ID": 23,
		"PropertyModifyType": "PropertyModifyType_Hero2_DFAdd",
		"Name": "防御",
		"IsAddType": true,
		"IsDynamic": true,
		"PropertyType": "PropertyType_None"
	},
	{
		"ID": 24,
		"PropertyModifyType": "PropertyModifyType_Hero2_MagicAdd",
		"Name": "智力",
		"IsAddType": true,
		"IsDynamic": true,
		"PropertyType": "PropertyType_None"
	},
	{
		"ID": 25,
		"PropertyModifyType": "PropertyModifyType_Hero2_MagicDFAdd",
		"Name": "魔防",
		"IsAddType": true,
		"IsDynamic": true,
		"PropertyType": "PropertyType_None"
	},
	{
		"ID": 26,
		"PropertyModifyType": "PropertyModifyType_Hero2_DEXAdd",
		"Name": "技巧",
		"IsAddType": true,
		"IsDynamic": true,
		"PropertyType": "PropertyType_None"
	},
	{
		"ID": 27,
		"PropertyModifyType": "PropertyModifyType_Hero2_HPCmdAdd",
		"Name": "生命指挥",
		"IsAddType": true,
		"IsDynamic": true,
		"PropertyType": "PropertyType_None"
	},
	{
		"ID": 28,
		"PropertyModifyType": "PropertyModifyType_Hero2_ATCmdAdd",
		"Name": "攻击指挥",
		"IsAddType": true,
		"IsDynamic": true,
		"PropertyType": "PropertyType_None"
	},
	{
		"ID": 29,
		"PropertyModifyType": "PropertyModifyType_Hero2_DFCmdAdd",
		"Name": "防御指挥",
		"IsAddType": true,
		"IsDynamic": true,
		"PropertyType": "PropertyType_None"
	},
	{
		"ID": 30,
		"PropertyModifyType": "PropertyModifyType_Hero2_MagicDFCmdAdd",
		"Name": "魔防指挥",
		"IsAddType": true,
		"IsDynamic": true,
		"PropertyType": "PropertyType_None"
	},
	{
		"ID": 31,
		"PropertyModifyType": "PropertyModifyType_Hero2_BFMovePointAdd",
		"Name": "移动力",
		"IsAddType": true,
		"IsDynamic": true,
		"PropertyType": "PropertyType_None"
	},
	{
		"ID": 32,
		"PropertyModifyType": "PropertyModifyType_Hero2_BFAttackDistanceAdd",
		"Name": "普攻射程",
		"IsAddType": true,
		"IsDynamic": true,
		"PropertyType": "PropertyType_None"
	},
	{
		"ID": 33,
		"PropertyModifyType": "PropertyModifyType_Hero2_MagicDistanceAdd",
		"Name": "魔法技能射程",
		"IsAddType": true,
		"IsDynamic": true,
		"PropertyType": "PropertyType_None"
	},
	{
		"ID": 34,
		"PropertyModifyType": "PropertyModifyType_Hero2_PsyDistanceAdd",
		"Name": "物理技能射程",
		"IsAddType": true,
		"IsDynamic": true,
		"PropertyType": "PropertyType_None"
	},
	{
		"ID": 35,
		"PropertyModifyType": "PropertyModifyType_Hero2_CriticalDamageAdd",
		"Name": "暴伤",
		"IsAddType": false,
		"IsDynamic": true,
		"PropertyType": "PropertyType_None"
	},
	{
		"ID": 36,
		"PropertyModifyType": "PropertyModifyType_Hero2_CriticalRateAdd",
		"Name": "暴击率",
		"IsAddType": false,
		"IsDynamic": true,
		"PropertyType": "PropertyType_None"
	},
	{
		"ID": 37,
		"PropertyModifyType": "PropertyModifyType_Hero2_RageEndTurnAdd",
		"Name": "怒气值加值-完成行动",
		"IsAddType": true,
		"IsDynamic": true,
		"PropertyType": "PropertyType_None"
	},
	{
		"ID": 38,
		"PropertyModifyType": "PropertyModifyType_Hero2_RageBeAttackAdd",
		"Name": "怒气值加值-被攻击",
		"IsAddType": true,
		"IsDynamic": true,
		"PropertyType": "PropertyType_None"
	},
	{
		"ID": 39,
		"PropertyModifyType": "PropertyModifyType_Hero2_RageKillAdd",
		"Name": "怒气值加值-击杀",
		"IsAddType": true,
		"IsDynamic": true,
		"PropertyType": "PropertyType_None"
	},
	{
		"ID": 40,
		"PropertyModifyType": "PropertyModifyType_Hero2_HPMul",
		"Name": "生命",
		"IsAddType": false,
		"IsDynamic": true,
		"PropertyType": "PropertyType_None"
	},
	{
		"ID": 41,
		"PropertyModifyType": "PropertyModifyType_Hero2_ATMul",
		"Name": "攻击",
		"IsAddType": false,
		"IsDynamic": true,
		"PropertyType": "PropertyType_None"
	},
	{
		"ID": 42,
		"PropertyModifyType": "PropertyModifyType_Hero2_DFMul",
		"Name": "防御",
		"IsAddType": false,
		"IsDynamic": true,
		"PropertyType": "PropertyType_None"
	},
	{
		"ID": 43,
		"PropertyModifyType": "PropertyModifyType_Hero2_MagicMul",
		"Name": "智力",
		"IsAddType": false,
		"IsDynamic": true,
		"PropertyType": "PropertyType_None"
	},
	{
		"ID": 44,
		"PropertyModifyType": "PropertyModifyType_Hero2_MagicDFMul",
		"Name": "魔防",
		"IsAddType": false,
		"IsDynamic": true,
		"PropertyType": "PropertyType_None"
	},
	{
		"ID": 45,
		"PropertyModifyType": "PropertyModifyType_Hero2_DEXMul",
		"Name": "技巧",
		"IsAddType": false,
		"IsDynamic": true,
		"PropertyType": "PropertyType_None"
	},
	{
		"ID": 46,
		"PropertyModifyType": "PropertyModifyType_Hero2_PsyDmgMul",
		"Name": "物理伤害",
		"IsAddType": false,
		"IsDynamic": true,
		"PropertyType": "PropertyType_None"
	},
	{
		"ID": 47,
		"PropertyModifyType": "PropertyModifyType_Hero2_PsyDmgRecvMul",
		"Name": "遭受物理伤害",
		"IsAddType": false,
		"IsDynamic": true,
		"PropertyType": "PropertyType_None"
	},
	{
		"ID": 48,
		"PropertyModifyType": "PropertyModifyType_Hero2_SuperPsyDmgRecvMul",
		"Name": "绝对遭受物理伤害",
		"IsAddType": false,
		"IsDynamic": true,
		"PropertyType": "PropertyType_None"
	},
	{
		"ID": 49,
		"PropertyModifyType": "PropertyModifyType_Hero2_HealMul",
		"Name": "治疗",
		"IsAddType": false,
		"IsDynamic": true,
		"PropertyType": "PropertyType_None"
	},
	{
		"ID": 50,
		"PropertyModifyType": "PropertyModifyType_Hero2_HealRecvMul",
		"Name": "遭受治疗",
		"IsAddType": false,
		"IsDynamic": true,
		"PropertyType": "PropertyType_None"
	},
	{
		"ID": 51,
		"PropertyModifyType": "PropertyModifyType_Hero2_MagicDmgMul",
		"Name": "魔法伤害",
		"IsAddType": false,
		"IsDynamic": true,
		"PropertyType": "PropertyType_None"
	},
	{
		"ID": 52,
		"PropertyModifyType": "PropertyModifyType_Hero2_MagicDmgRecvMul",
		"Name": "遭受魔法伤害",
		"IsAddType": false,
		"IsDynamic": true,
		"PropertyType": "PropertyType_None"
	},
	{
		"ID": 53,
		"PropertyModifyType": "PropertyModifyType_Hero2_SuperMagicDmgRecvMul",
		"Name": "绝对遭受魔法伤害",
		"IsAddType": false,
		"IsDynamic": true,
		"PropertyType": "PropertyType_None"
	},
	{
		"ID": 54,
		"PropertyModifyType": "PropertyModifyType_Hero2_IgnoreDFMul",
		"Name": "无视防御修正",
		"IsAddType": false,
		"IsDynamic": true,
		"PropertyType": "PropertyType_None"
	},
	{
		"ID": 55,
		"PropertyModifyType": "PropertyModifyType_Hero2_SkillDmgMul",
		"Name": "英雄主动技能伤害修正",
		"IsAddType": false,
		"IsDynamic": true,
		"PropertyType": "PropertyType_None"
	},
	{
		"ID": 56,
		"PropertyModifyType": "PropertyModifyType_Hero2_BFSkillDmgMul",
		"Name": "英雄战场技能伤害修正",
		"IsAddType": false,
		"IsDynamic": true,
		"PropertyType": "PropertyType_None"
	},
	{
		"ID": 57,
		"PropertyModifyType": "PropertyModifyType_Soldier1_HPAdd",
		"Name": "生命加值",
		"IsAddType": true,
		"IsDynamic": false,
		"PropertyType": "PropertyType_None"
	},
	{
		"ID": 58,
		"PropertyModifyType": "PropertyModifyType_Soldier1_ATAdd",
		"Name": "攻击加值",
		"IsAddType": true,
		"IsDynamic": false,
		"PropertyType": "PropertyType_None"
	},
	{
		"ID": 59,
		"PropertyModifyType": "PropertyModifyType_Soldier1_DFAdd",
		"Name": "防御加值",
		"IsAddType": true,
		"IsDynamic": false,
		"PropertyType": "PropertyType_None"
	},
	{
		"ID": 60,
		"PropertyModifyType": "PropertyModifyType_Soldier1_MagicDFAdd",
		"Name": "魔防加值",
		"IsAddType": true,
		"IsDynamic": false,
		"PropertyType": "PropertyType_None"
	},
	{
		"ID": 61,
		"PropertyModifyType": "PropertyModifyType_Soldier1_BFMovePointAdd",
		"Name": "移动力加值",
		"IsAddType": true,
		"IsDynamic": false,
		"PropertyType": "PropertyType_None"
	},
	{
		"ID": 62,
		"PropertyModifyType": "PropertyModifyType_Soldier1_BFAttackDistanceAdd",
		"Name": "普攻射程加值",
		"IsAddType": true,
		"IsDynamic": false,
		"PropertyType": "PropertyType_None"
	},
	{
		"ID": 63,
		"PropertyModifyType": "PropertyModifyType_Soldier1_CriticalDamageAdd",
		"Name": "暴击伤害加值",
		"IsAddType": false,
		"IsDynamic": false,
		"PropertyType": "PropertyType_None"
	},
	{
		"ID": 64,
		"PropertyModifyType": "PropertyModifyType_Soldier1_CriticalRateAdd",
		"Name": "暴击率加值",
		"IsAddType": false,
		"IsDynamic": false,
		"PropertyType": "PropertyType_None"
	},
	{
		"ID": 65,
		"PropertyModifyType": "PropertyModifyType_Soldier1_HPMul",
		"Name": "生命百分比",
		"IsAddType": false,
		"IsDynamic": false,
		"PropertyType": "PropertyType_None"
	},
	{
		"ID": 66,
		"PropertyModifyType": "PropertyModifyType_Soldier1_ATMul",
		"Name": "攻击百分比",
		"IsAddType": false,
		"IsDynamic": false,
		"PropertyType": "PropertyType_None"
	},
	{
		"ID": 67,
		"PropertyModifyType": "PropertyModifyType_Soldier1_DFMul",
		"Name": "防御百分比",
		"IsAddType": false,
		"IsDynamic": false,
		"PropertyType": "PropertyType_None"
	},
	{
		"ID": 68,
		"PropertyModifyType": "PropertyModifyType_Soldier1_MagicDFMul",
		"Name": "魔防百分比",
		"IsAddType": false,
		"IsDynamic": false,
		"PropertyType": "PropertyType_None"
	},
	{
		"ID": 69,
		"PropertyModifyType": "PropertyModifyType_Soldier2_HPAdd",
		"Name": "生命加值",
		"IsAddType": true,
		"IsDynamic": true,
		"PropertyType": "PropertyType_None"
	},
	{
		"ID": 70,
		"PropertyModifyType": "PropertyModifyType_Soldier2_ATAdd",
		"Name": "攻击加值",
		"IsAddType": true,
		"IsDynamic": true,
		"PropertyType": "PropertyType_None"
	},
	{
		"ID": 71,
		"PropertyModifyType": "PropertyModifyType_Soldier2_DFAdd",
		"Name": "防御加值",
		"IsAddType": true,
		"IsDynamic": true,
		"PropertyType": "PropertyType_None"
	},
	{
		"ID": 72,
		"PropertyModifyType": "PropertyModifyType_Soldier2_MagicDFAdd",
		"Name": "魔防加值",
		"IsAddType": true,
		"IsDynamic": true,
		"PropertyType": "PropertyType_None"
	},
	{
		"ID": 73,
		"PropertyModifyType": "PropertyModifyType_Soldier2_BFMovePointAdd",
		"Name": "移动力加值",
		"IsAddType": true,
		"IsDynamic": true,
		"PropertyType": "PropertyType_None"
	},
	{
		"ID": 74,
		"PropertyModifyType": "PropertyModifyType_Soldier2_BFAttackDistanceAdd",
		"Name": "普攻射程加值",
		"IsAddType": true,
		"IsDynamic": true,
		"PropertyType": "PropertyType_None"
	},
	{
		"ID": 75,
		"PropertyModifyType": "PropertyModifyType_Soldier2_CriticalDamageAdd",
		"Name": "暴击伤害加值",
		"IsAddType": false,
		"IsDynamic": true,
		"PropertyType": "PropertyType_None"
	},
	{
		"ID": 76,
		"PropertyModifyType": "PropertyModifyType_Soldier2_CriticalRateAdd",
		"Name": "暴击率加值",
		"IsAddType": false,
		"IsDynamic": true,
		"PropertyType": "PropertyType_None"
	},
	{
		"ID": 77,
		"PropertyModifyType": "PropertyModifyType_Soldier2_HPMul",
		"Name": "生命百分比",
		"IsAddType": false,
		"IsDynamic": true,
		"PropertyType": "PropertyType_None"
	},
	{
		"ID": 78,
		"PropertyModifyType": "PropertyModifyType_Soldier2_ATMul",
		"Name": "攻击百分比",
		"IsAddType": false,
		"IsDynamic": true,
		"PropertyType": "PropertyType_None"
	},
	{
		"ID": 79,
		"PropertyModifyType": "PropertyModifyType_Soldier2_DFMul",
		"Name": "防御百分比",
		"IsAddType": false,
		"IsDynamic": true,
		"PropertyType": "PropertyType_None"
	},
	{
		"ID": 80,
		"PropertyModifyType": "PropertyModifyType_Soldier2_MagicDFMul",
		"Name": "魔防百分比",
		"IsAddType": false,
		"IsDynamic": true,
		"PropertyType": "PropertyType_None"
	},
	{
		"ID": 81,
		"PropertyModifyType": "PropertyModifyType_Soldier2_PsyDmgMul",
		"Name": "物理伤害百分比",
		"IsAddType": false,
		"IsDynamic": true,
		"PropertyType": "PropertyType_None"
	},
	{
		"ID": 82,
		"PropertyModifyType": "PropertyModifyType_Soldier2_PsyDmgRecvMul",
		"Name": "遭受物理伤害百分比",
		"IsAddType": false,
		"IsDynamic": true,
		"PropertyType": "PropertyType_None"
	},
	{
		"ID": 83,
		"PropertyModifyType": "PropertyModifyType_Soldier2_SuperPsyDmgRecvMul",
		"Name": "绝对遭受物理伤害",
		"IsAddType": false,
		"IsDynamic": true,
		"PropertyType": "PropertyType_None"
	},
	{
		"ID": 84,
		"PropertyModifyType": "PropertyModifyType_Soldier2_MagicDmgRecvMul",
		"Name": "遭受魔法伤害百分比",
		"IsAddType": false,
		"IsDynamic": true,
		"PropertyType": "PropertyType_None"
	},
	{
		"ID": 85,
		"PropertyModifyType": "PropertyModifyType_Soldier2_SuperMagicDmgRecvMul",
		"Name": "绝对遭受魔法伤害",
		"IsAddType": false,
		"IsDynamic": true,
		"PropertyType": "PropertyType_None"
	},
	{
		"ID": 86,
		"PropertyModifyType": "PropertyModifyType_Soldier2_IgnoreDFMul",
		"Name": "无视防御修正百分比",
		"IsAddType": false,
		"IsDynamic": true,
		"PropertyType": "PropertyType_None"
	},
	{
		"ID": 87,
		"PropertyModifyType": "PropertyModifyType_Hero3_HPAdd",
		"Name": "生命",
		"IsAddType": true,
		"IsDynamic": false,
		"PropertyType": "PropertyType_None"
	},
	{
		"ID": 88,
		"PropertyModifyType": "PropertyModifyType_Hero3_ATAdd",
		"Name": "攻击",
		"IsAddType": true,
		"IsDynamic": false,
		"PropertyType": "PropertyType_None"
	},
	{
		"ID": 89,
		"PropertyModifyType": "PropertyModifyType_Hero3_DFAdd",
		"Name": "防御",
		"IsAddType": true,
		"IsDynamic": false,
		"PropertyType": "PropertyType_None"
	},
	{
		"ID": 90,
		"PropertyModifyType": "PropertyModifyType_Hero3_MagicAdd",
		"Name": "智力",
		"IsAddType": true,
		"IsDynamic": false,
		"PropertyType": "PropertyType_None"
	},
	{
		"ID": 91,
		"PropertyModifyType": "PropertyModifyType_Hero3_MagicDFAdd",
		"Name": "魔防",
		"IsAddType": true,
		"IsDynamic": false,
		"PropertyType": "PropertyType_None"
	},
	{
		"ID": 92,
		"PropertyModifyType": "PropertyModifyType_Hero3_DEXAdd",
		"Name": "技巧",
		"IsAddType": true,
		"IsDynamic": false,
		"PropertyType": "PropertyType_None"
	},
	{
		"ID": 93,
		"PropertyModifyType": "PropertyModifyType_Hero3_HPCmdAdd",
		"Name": "生命指挥",
		"IsAddType": true,
		"IsDynamic": false,
		"PropertyType": "PropertyType_None"
	},
	{
		"ID": 94,
		"PropertyModifyType": "PropertyModifyType_Hero3_ATCmdAdd",
		"Name": "攻击指挥",
		"IsAddType": true,
		"IsDynamic": false,
		"PropertyType": "PropertyType_None"
	},
	{
		"ID": 95,
		"PropertyModifyType": "PropertyModifyType_Hero3_DFCmdAdd",
		"Name": "防御指挥",
		"IsAddType": true,
		"IsDynamic": false,
		"PropertyType": "PropertyType_None"
	},
	{
		"ID": 96,
		"PropertyModifyType": "PropertyModifyType_Hero3_MagicDFCmdAdd",
		"Name": "魔防指挥",
		"IsAddType": true,
		"IsDynamic": false,
		"PropertyType": "PropertyType_None"
	},
	{
		"ID": 97,
		"PropertyModifyType": "PropertyModifyType_Hero3_CriticalDamageAdd",
		"Name": "暴伤",
		"IsAddType": false,
		"IsDynamic": false,
		"PropertyType": "PropertyType_None"
	},
	{
		"ID": 98,
		"PropertyModifyType": "PropertyModifyType_Hero3_CriticalRateAdd",
		"Name": "暴击",
		"IsAddType": false,
		"IsDynamic": false,
		"PropertyType": "PropertyType_None"
	},
	{
		"ID": 99,
		"PropertyModifyType": "PropertyModifyType_Hero3_HPMul",
		"Name": "生命",
		"IsAddType": false,
		"IsDynamic": false,
		"PropertyType": "PropertyType_None"
	},
	{
		"ID": 100,
		"PropertyModifyType": "PropertyModifyType_Hero3_ATMul",
		"Name": "攻击",
		"IsAddType": false,
		"IsDynamic": false,
		"PropertyType": "PropertyType_None"
	},
	{
		"ID": 101,
		"PropertyModifyType": "PropertyModifyType_Hero3_DFMul",
		"Name": "防御",
		"IsAddType": false,
		"IsDynamic": false,
		"PropertyType": "PropertyType_None"
	},
	{
		"ID": 102,
		"PropertyModifyType": "PropertyModifyType_Hero3_MagicMul",
		"Name": "智力",
		"IsAddType": false,
		"IsDynamic": false,
		"PropertyType": "PropertyType_None"
	},
	{
		"ID": 103,
		"PropertyModifyType": "PropertyModifyType_Hero3_MagicDFMul",
		"Name": "魔防",
		"IsAddType": false,
		"IsDynamic": false,
		"PropertyType": "PropertyType_None"
	},
	{
		"ID": 104,
		"PropertyModifyType": "PropertyModifyType_Hero3_DEXMul",
		"Name": "技巧",
		"IsAddType": false,
		"IsDynamic": false,
		"PropertyType": "PropertyType_None"
	},
	{
		"ID": 105,
		"PropertyModifyType": "PropertyModifyType_Hero2_RangeDmgRecvMul",
		"Name": "遭受远程伤害百分比",
		"IsAddType": false,
		"IsDynamic": true,
		"PropertyType": "PropertyType_None"
	},
	{
		"ID": 106,
		"PropertyModifyType": "PropertyModifyType_Soldier2_RangeDmgRecvMul",
		"Name": "遭受远程伤害百分比",
		"IsAddType": false,
		"IsDynamic": true,
		"PropertyType": "PropertyType_None"
	},
	{
		"ID": 107,
		"PropertyModifyType": "PropertyModifyType_Hero2_RecvCriticalRateAdd",
		"Name": "遭受暴击率",
		"IsAddType": false,
		"IsDynamic": true,
		"PropertyType": "PropertyType_None"
	},
	{
		"ID": 108,
		"PropertyModifyType": "PropertyModifyType_Soldier2_RecvCriticalRateAdd",
		"Name": "遭受暴击率",
		"IsAddType": false,
		"IsDynamic": true,
		"PropertyType": "PropertyType_None"
	},
	{
		"ID": 109,
		"PropertyModifyType": "PropertyModifyType_Soldier2_MagicDmgMul",
		"Name": "魔法伤害",
		"IsAddType": false,
		"IsDynamic": true,
		"PropertyType": "PropertyType_None"
	},
	{
		"ID": 110,
		"PropertyModifyType": "PropertyModifyType_Hero2_TrueDmgMul",
		"Name": "固定伤害修正",
		"IsAddType": false,
		"IsDynamic": true,
		"PropertyType": "PropertyType_None"
	},
	{
		"ID": 111,
		"PropertyModifyType": "PropertyModifyType_Hero2_RecvTrueDmgMul",
		"Name": "遭受固定伤害修正",
		"IsAddType": false,
		"IsDynamic": true,
		"PropertyType": "PropertyType_None"
	},
	{
		"ID": 112,
		"PropertyModifyType": "PropertyModifyType_Hero2_RecvBFSkillDmgMul",
		"Name": "遭受范围伤害修正",
		"IsAddType": false,
		"IsDynamic": true,
		"PropertyType": "PropertyType_None"
	},
	{
		"ID": 113,
		"PropertyModifyType": "PropertyModifyType_Soldier2_RecvBFSkillDmgMul",
		"Name": "遭受范围伤害修正",
		"IsAddType": false,
		"IsDynamic": true,
		"PropertyType": "PropertyType_None"
	},
	{
		"ID": 114,
		"PropertyModifyType": "PropertyModifyType_Hero2_MagicBFSkillRangeAdd",
		"Name": "魔法范围技能范围修正",
		"IsAddType": true,
		"IsDynamic": true,
		"PropertyType": "PropertyType_None"
	},
	{
		"ID": 115,
		"PropertyModifyType": "PropertyModifyType_Hero2_PsyBFSkillRangeAdd",
		"Name": "物理范围技能范围修正",
		"IsAddType": true,
		"IsDynamic": true,
		"PropertyType": "PropertyType_None"
	},
	{
		"ID": 116,
		"PropertyModifyType": "PropertyModifyType_Hero2_SupportDistanceAdd",
		"Name": "英雄Buff加值_支援技能射程",
		"IsAddType": true,
		"IsDynamic": true,
		"PropertyType": "PropertyType_None"
	},
	{
		"ID": 117,
		"PropertyModifyType": "PropertyModifyType_Hero2_RecvCriticalDmgAdd",
		"Name": "英雄Buff加值_遭受暴击伤害",
		"IsAddType": false,
		"IsDynamic": true,
		"PropertyType": "PropertyType_None"
	},
	{
		"ID": 118,
		"PropertyModifyType": "PropertyModifyType_Soldier2_RecvCriticalDmgAdd",
		"Name": "小兵Buff加值_遭受暴击伤害",
		"IsAddType": false,
		"IsDynamic": true,
		"PropertyType": "PropertyType_None"
	},
	{
		"ID": 119,
		"PropertyModifyType": "PropertyModifyType_HeroPVP_HPAdd",
		"Name": "生命",
		"IsAddType": true,
		"IsDynamic": true,
		"PropertyType": "PropertyType_None"
	},
	{
		"ID": 120,
		"PropertyModifyType": "PropertyModifyType_HeroPVP_ATAdd",
		"Name": "攻击",
		"IsAddType": true,
		"IsDynamic": true,
		"PropertyType": "PropertyType_None"
	},
	{
		"ID": 121,
		"PropertyModifyType": "PropertyModifyType_HeroPVP_DFAdd",
		"Name": "防御",
		"IsAddType": true,
		"IsDynamic": true,
		"PropertyType": "PropertyType_None"
	},
	{
		"ID": 122,
		"PropertyModifyType": "PropertyModifyType_HeroPVP_MagicAdd",
		"Name": "智力",
		"IsAddType": true,
		"IsDynamic": true,
		"PropertyType": "PropertyType_None"
	},
	{
		"ID": 123,
		"PropertyModifyType": "PropertyModifyType_HeroPVP_MagicDFAdd",
		"Name": "魔防",
		"IsAddType": true,
		"IsDynamic": true,
		"PropertyType": "PropertyType_None"
	},
	{
		"ID": 124,
		"PropertyModifyType": "PropertyModifyType_HeroPVP_DEXAdd",
		"Name": "技巧",
		"IsAddType": true,
		"IsDynamic": true,
		"PropertyType": "PropertyType_None"
	},
	{
		"ID": 125,
		"PropertyModifyType": "PropertyModifyType_HeroPVP_CriticalDamageAdd",
		"Name": "暴伤",
		"IsAddType": false,
		"IsDynamic": true,
		"PropertyType": "PropertyType_None"
	},
	{
		"ID": 126,
		"PropertyModifyType": "PropertyModifyType_HeroPVP_CriticalRateAdd",
		"Name": "暴击",
		"IsAddType": false,
		"IsDynamic": true,
		"PropertyType": "PropertyType_None"
	},
	{
		"ID": 127,
		"PropertyModifyType": "PropertyModifyType_HeroPVP_RecvCriticalRateAdd",
		"Name": "遭受暴击",
		"IsAddType": false,
		"IsDynamic": true,
		"PropertyType": "PropertyType_None"
	},
	{
		"ID": 128,
		"PropertyModifyType": "PropertyModifyType_HeroPVP_RecvCriticalDmgAdd",
		"Name": "遭受暴伤",
		"IsAddType": false,
		"IsDynamic": true,
		"PropertyType": "PropertyType_None"
	},
	{
		"ID": 129,
		"PropertyModifyType": "PropertyModifyType_Soldier2_HealRecvMul",
		"Name": "遭受治疗",
		"IsAddType": false,
		"IsDynamic": true,
		"PropertyType": "PropertyType_None"
	},
	{
		"ID": 130,
		"PropertyModifyType": "PropertyModifyType_Hero2_AllMul",
		"Name": "包含Hero2_ATMul,Hero2_DFMul,Hero2_MagicMul,Hero2_MagicDFMul,Hero2_DEXMul",
		"IsAddType": false,
		"IsDynamic": true,
		"PropertyType": "PropertyType_None"
	},
	{
		"ID": 131,
		"PropertyModifyType": "PropertyModifyType_Soldier2_AllMul",
		"Name": "包含Soldier2_ATMul,Soldier2_DFMul,Soldier2_MagicDFMul",
		"IsAddType": false,
		"IsDynamic": true,
		"PropertyType": "PropertyType_None"
	},
	{
		"ID": 132,
		"PropertyModifyType": "PropertyModifyType_Hero2_HealDistanceAdd",
		"Name": "英雄Buff加值_治疗技能射程",
		"IsAddType": true,
		"IsDynamic": true,
		"PropertyType": "PropertyType_None"
	}
]