[
	{
		"ID": 1,
		"Name": "女武神Lv.55",
		"TeamName": "Lv.55",
		"PreLevel": 0,
		"TicketCost": 0,
		"EnergySuccess": 20,
		"EnergyFail": 4,
		"TeamEnergyCost": 20,
		"MonsterLevel": 55,
		"BattleID": 820,
		"PlayerExp": 20,
		"HeroExp": 150,
		"Gold": 2280,
		"DropID": 4201,
		"TeamDropID": 0,
		"OperationalActivityDropID": 10027,
		"DayBonusDropID": 0,
		"DisplayRewardCount": 2,
		"Strategy": ""
	},
	{
		"ID": 2,
		"Name": "女武神Lv.60",
		"TeamName": "Lv.60",
		"PreLevel": 1,
		"TicketCost": 0,
		"EnergySuccess": 20,
		"EnergyFail": 4,
		"TeamEnergyCost": 20,
		"MonsterLevel": 60,
		"BattleID": 821,
		"PlayerExp": 20,
		"HeroExp": 160,
		"Gold": 2564,
		"DropID": 4202,
		"TeamDropID": 0,
		"OperationalActivityDropID": 10027,
		"DayBonusDropID": 0,
		"DisplayRewardCount": 2,
		"Strategy": ""
	},
	{
		"ID": 3,
		"Name": "女武神Lv.65",
		"TeamName": "Lv.65",
		"PreLevel": 2,
		"TicketCost": 0,
		"EnergySuccess": 20,
		"EnergyFail": 4,
		"TeamEnergyCost": 20,
		"MonsterLevel": 65,
		"BattleID": 822,
		"PlayerExp": 20,
		"HeroExp": 160,
		"Gold": 2564,
		"DropID": 4203,
		"TeamDropID": 0,
		"OperationalActivityDropID": 10027,
		"DayBonusDropID": 0,
		"DisplayRewardCount": 3,
		"Strategy": ""
	},
	{
		"ID": 4,
		"Name": "女武神Lv.70",
		"TeamName": "Lv.70",
		"PreLevel": 3,
		"TicketCost": 0,
		"EnergySuccess": 20,
		"EnergyFail": 4,
		"TeamEnergyCost": 20,
		"MonsterLevel": 70,
		"BattleID": 823,
		"PlayerExp": 20,
		"HeroExp": 160,
		"Gold": 2564,
		"DropID": 4204,
		"TeamDropID": 0,
		"OperationalActivityDropID": 10027,
		"DayBonusDropID": 0,
		"DisplayRewardCount": 4,
		"Strategy": ""
	},
	{
		"ID": 11,
		"Name": "白龙Lv.55",
		"TeamName": "Lv.55",
		"PreLevel": 0,
		"TicketCost": 0,
		"EnergySuccess": 20,
		"EnergyFail": 4,
		"TeamEnergyCost": 20,
		"MonsterLevel": 55,
		"BattleID": 830,
		"PlayerExp": 20,
		"HeroExp": 150,
		"Gold": 2280,
		"DropID": 4205,
		"TeamDropID": 0,
		"OperationalActivityDropID": 10027,
		"DayBonusDropID": 0,
		"DisplayRewardCount": 2,
		"Strategy": ""
	},
	{
		"ID": 12,
		"Name": "白龙Lv.60",
		"TeamName": "Lv.60",
		"PreLevel": 11,
		"TicketCost": 0,
		"EnergySuccess": 20,
		"EnergyFail": 4,
		"TeamEnergyCost": 20,
		"MonsterLevel": 60,
		"BattleID": 831,
		"PlayerExp": 20,
		"HeroExp": 160,
		"Gold": 2564,
		"DropID": 4206,
		"TeamDropID": 0,
		"OperationalActivityDropID": 10027,
		"DayBonusDropID": 0,
		"DisplayRewardCount": 2,
		"Strategy": ""
	},
	{
		"ID": 13,
		"Name": "白龙Lv.65",
		"TeamName": "Lv.65",
		"PreLevel": 12,
		"TicketCost": 0,
		"EnergySuccess": 20,
		"EnergyFail": 4,
		"TeamEnergyCost": 20,
		"MonsterLevel": 65,
		"BattleID": 832,
		"PlayerExp": 20,
		"HeroExp": 160,
		"Gold": 2564,
		"DropID": 4207,
		"TeamDropID": 0,
		"OperationalActivityDropID": 10027,
		"DayBonusDropID": 0,
		"DisplayRewardCount": 3,
		"Strategy": ""
	},
	{
		"ID": 14,
		"Name": "白龙Lv.70",
		"TeamName": "Lv.70",
		"PreLevel": 13,
		"TicketCost": 0,
		"EnergySuccess": 20,
		"EnergyFail": 4,
		"TeamEnergyCost": 20,
		"MonsterLevel": 70,
		"BattleID": 833,
		"PlayerExp": 20,
		"HeroExp": 160,
		"Gold": 2564,
		"DropID": 4208,
		"TeamDropID": 0,
		"OperationalActivityDropID": 10027,
		"DayBonusDropID": 0,
		"DisplayRewardCount": 4,
		"Strategy": ""
	},
	{
		"ID": 21,
		"Name": "斯库拉Lv.55",
		"TeamName": "Lv.55",
		"PreLevel": 0,
		"TicketCost": 0,
		"EnergySuccess": 20,
		"EnergyFail": 4,
		"TeamEnergyCost": 20,
		"MonsterLevel": 55,
		"BattleID": 800,
		"PlayerExp": 20,
		"HeroExp": 150,
		"Gold": 2280,
		"DropID": 4209,
		"TeamDropID": 0,
		"OperationalActivityDropID": 10027,
		"DayBonusDropID": 0,
		"DisplayRewardCount": 2,
		"Strategy": ""
	},
	{
		"ID": 22,
		"Name": "斯库拉Lv.60",
		"TeamName": "Lv.60",
		"PreLevel": 21,
		"TicketCost": 0,
		"EnergySuccess": 20,
		"EnergyFail": 4,
		"TeamEnergyCost": 20,
		"MonsterLevel": 60,
		"BattleID": 801,
		"PlayerExp": 20,
		"HeroExp": 160,
		"Gold": 2564,
		"DropID": 4210,
		"TeamDropID": 0,
		"OperationalActivityDropID": 10027,
		"DayBonusDropID": 0,
		"DisplayRewardCount": 2,
		"Strategy": ""
	},
	{
		"ID": 23,
		"Name": "斯库拉Lv.65",
		"TeamName": "Lv.65",
		"PreLevel": 22,
		"TicketCost": 0,
		"EnergySuccess": 20,
		"EnergyFail": 4,
		"TeamEnergyCost": 20,
		"MonsterLevel": 65,
		"BattleID": 802,
		"PlayerExp": 20,
		"HeroExp": 160,
		"Gold": 2564,
		"DropID": 4211,
		"TeamDropID": 0,
		"OperationalActivityDropID": 10027,
		"DayBonusDropID": 0,
		"DisplayRewardCount": 3,
		"Strategy": ""
	},
	{
		"ID": 24,
		"Name": "斯库拉Lv.70",
		"TeamName": "Lv.70",
		"PreLevel": 23,
		"TicketCost": 0,
		"EnergySuccess": 20,
		"EnergyFail": 4,
		"TeamEnergyCost": 20,
		"MonsterLevel": 70,
		"BattleID": 803,
		"PlayerExp": 20,
		"HeroExp": 160,
		"Gold": 2564,
		"DropID": 4212,
		"TeamDropID": 0,
		"OperationalActivityDropID": 10027,
		"DayBonusDropID": 0,
		"DisplayRewardCount": 4,
		"Strategy": ""
	},
	{
		"ID": 31,
		"Name": "凤凰Lv.55",
		"TeamName": "Lv.55",
		"PreLevel": 0,
		"TicketCost": 0,
		"EnergySuccess": 20,
		"EnergyFail": 4,
		"TeamEnergyCost": 20,
		"MonsterLevel": 55,
		"BattleID": 810,
		"PlayerExp": 20,
		"HeroExp": 150,
		"Gold": 2280,
		"DropID": 4213,
		"TeamDropID": 0,
		"OperationalActivityDropID": 10027,
		"DayBonusDropID": 0,
		"DisplayRewardCount": 2,
		"Strategy": ""
	},
	{
		"ID": 32,
		"Name": "凤凰Lv.60",
		"TeamName": "Lv.60",
		"PreLevel": 31,
		"TicketCost": 0,
		"EnergySuccess": 20,
		"EnergyFail": 4,
		"TeamEnergyCost": 20,
		"MonsterLevel": 60,
		"BattleID": 811,
		"PlayerExp": 20,
		"HeroExp": 160,
		"Gold": 2564,
		"DropID": 4214,
		"TeamDropID": 0,
		"OperationalActivityDropID": 10027,
		"DayBonusDropID": 0,
		"DisplayRewardCount": 2,
		"Strategy": ""
	},
	{
		"ID": 33,
		"Name": "凤凰Lv.65",
		"TeamName": "Lv.65",
		"PreLevel": 32,
		"TicketCost": 0,
		"EnergySuccess": 20,
		"EnergyFail": 4,
		"TeamEnergyCost": 20,
		"MonsterLevel": 65,
		"BattleID": 812,
		"PlayerExp": 20,
		"HeroExp": 160,
		"Gold": 2564,
		"DropID": 4215,
		"TeamDropID": 0,
		"OperationalActivityDropID": 10027,
		"DayBonusDropID": 0,
		"DisplayRewardCount": 3,
		"Strategy": ""
	},
	{
		"ID": 34,
		"Name": "凤凰Lv.70",
		"TeamName": "Lv.70",
		"PreLevel": 33,
		"TicketCost": 0,
		"EnergySuccess": 20,
		"EnergyFail": 4,
		"TeamEnergyCost": 20,
		"MonsterLevel": 70,
		"BattleID": 813,
		"PlayerExp": 20,
		"HeroExp": 160,
		"Gold": 2564,
		"DropID": 4216,
		"TeamDropID": 0,
		"OperationalActivityDropID": 10027,
		"DayBonusDropID": 0,
		"DisplayRewardCount": 4,
		"Strategy": ""
	}
]