[
	{
		"ID": 8,
		"Title": "亲爱的{NAME}：",
		"Content": "{BEGINTIME}，那份名为「心」的羁绊开始萌芽……我想你已经忘记了吧？那一天与你眼神的邂逅，那一天开始的我……只为你而战。\n\n　{BATTLETIME}，你知道这个数字的意义吗？那是我们一起并肩走上战场的次数，我会时常回味每一场战斗，把你坚毅的侧颜在我的脑海之中反复临摹……\n\n　可你什么时候才会来向我告白呢？我已经厌倦了单恋和等待，就让{ENDTIME}这一天成为我们的纪念日吧！",
		"Signature": "爱你的、拉娜"
	},
	{
		"ID": 14,
		"Title": "写给{NAME}：",
		"Content": "{BEGINTIME}，我们的「心」这一天撞车了，所谓的羁绊就是这样让人捉摸不透呢……雪莉很少有能记住的日子哦，只因为你对我来说——是特别的存在呢！\n\n　不知道你有没有仔细数过吖，我们已经一起经过了{BATTLETIME}场热血的战斗了呢！每一次与你一起任性的狂奔，都是雪莉所钟爱的冒险！\n\n　在{ENDTIME}这一天，我终于下定决心要向你表白啦！{NAME}，成为我的专属骑士吧、立刻开始一场只属于我们两个人的冒险好么？",
		"Signature": "大勇者·雪莉"
	},
	{
		"ID": 26,
		"Title": "致{NAME}：",
		"Content": "{BEGINTIME}，露娜的心与{NAME}的心相遇了，在您的面前……露娜再也无法保持理性。\n\n　{BATTLETIME}场战斗里，身为军师的我与您共同奋战。也希望在今后的每一场战争中，助您刻下胜利的威名。\n\n　远在{ENDTIME}这一天之前，我们好像早就跨过了军师与统帅的界限……就让露娜本人，成为您最终的战利品吧。",
		"Signature": "你的、露娜"
	},
	{
		"ID": 29,
		"Title": "亲爱的{NAME}：",
		"Content": "初见的日子、已经被少女遗忘了，但{BEGINTIME}我会永远记着，因为那一天…您教会了我「心之羁绊」的含义。\n\n　原本胆小的少女，也与{NAME}在一起共同经历了{BATTLETIME}场惊心动魄的战斗。没给您添麻烦吧？我可是拼尽全力了！请一定不要嫌弃我吖！\n\n　{ENDTIME}，我们的心连接在了一起。我想让{NAME}知道我的心意，于是默默向女神许愿……今后的每一天，蒂亚莉丝、都能有幸陪伴在您的左右。",
		"Signature": "蒂亚莉丝上"
	},
	{
		"ID": 5,
		"Title": "送给{NAME}：",
		"Content": "感谢命运让我们相会，初见的那一天…您注意到我了么？\n\n　从{BEGINTIME}到{ENDTIME}…名为「心之羁绊」的情感，是克丽丝从{NAME}那里收到的、最最美好的礼物。\n\n　{BATTLETIME}场战斗与{NAME}共同度过，谢谢您愿意带上弱小的我！今后也会好好努力，支援任务什么的、都交给克丽丝吧！",
		"Signature": "你的，克丽丝"
	},
	{
		"ID": 15,
		"Title": "致{NAME}：",
		"Content": "{BEGINTIME}，跨越了无数的时间与空间，莉亚娜在这一天与命中注定的指挥官大人结下心灵的羁绊。\n\n　{BATTLETIME}场生死与共的战斗……如果我的治愈之力能帮到大人一丝一毫，莉亚娜都会感到无上的光荣。\n\n　在与您共度的日子里，莉亚娜也看到了{NAME}在拯救世界的道路上所承受的苦恼与伤痛。所以…在今天，在这{ENDTIME}，我要告诉您：莉亚娜会用接下来的一生、治愈您的心！",
		"Signature": "莉亚娜敬上"
	},
	{
		"ID": 51,
		"Title": "献给{NAME}：",
		"Content": "{BEGINTIME}那一天，在星空的见证下，你我在此世相遇。我们的双眼交汇，眸光迸溅出奇迹之火。两颗孤独的星，在奇妙的引力之下螺旋前进，在{ENDTIME}这一天……终于合为「心」的奇点。\n\n　{BATTLETIME}场战斗相伴在{NAME}身边……我不喜欢战争，但你却成为了我战斗的意义。\n\n　人们啊……永远只能做自己力所能及的事情，而我、选择与你相恋。",
		"Signature": "雪露法妮尔"
	},
	{
		"ID": 28,
		"Title": "嗨，{NAME}：",
		"Content": "{BEGINTIME}，是我们第一次见面的日子吗？泽瑞达不太明白「纪念日」的意思呢，但这个日子……一定一定很重要！\n\n　泽瑞达最喜欢的、就是和{NAME}一起出去玩了！{BATTLETIME}次出击作战，泽瑞达估计这就是你们所指的「约会」吧！怎么样，好玩吧？\n\n　虽然{NAME}有那么多的朋友与伙伴，泽瑞达却一点都不羡慕呢！因为泽瑞达只要有{NAME}一个人就足够了……泽瑞达、只属于你。",
		"Signature": "泽瑞达"
	},
	{
		"ID": 33,
		"Title": "亲爱的{NAME}：",
		"Content": "第一次的见面，彼此都还记得吧？那是在{BEGINTIME}，{NAME}成为了芙蕾雅的领袖。\n\n　在{BATTLETIME}场战斗里，我常常凝望着你的背影，想靠那战争风暴间隙中的匆匆一瞥，试图丈量我们心灵之间的距离……直到{ENDTIME}这一日，我终于得到了答案。\n\n　我曾想化为一面坚盾，保护我所深爱的一切；我也想蜷缩成一只小猫，安睡在骑士的胸口。而我最终决定径直走向你的心，与你一起……在温柔中盛放。",
		"Signature": "守护你的芙蕾雅"
	},
	{
		"ID": 52,
		"Title": "写给，{NAME}：",
		"Content": "{BEGINTIME}，这一天就是我们初次相遇的日子啦，{NAME}要牢牢谨记哦！\n　{BATTLETIME}场战斗，是安洁丽娜最爱的战斗时光。直到现在我才明白，我爱的是你在战场上帅气的侧颜和为我摇旗助威的呐喊。\n　忐忑地等着{ENDTIME}这一天的到来，这个少女喜欢着你的模样……不知您是否中意呢？\n　心之约定的时刻悄然而至，我要很自豪地向全世界说出来——从今以后，请让安洁丽娜陪伴{NAME}大人永远冒险下去吧！",
		"Signature": "你的、安洁丽娜"
	},
	{
		"ID": 11,
		"Title": "致{NAME}：",
		"Content": "{BEGINTIME}，{NAME}你还记得我们初次相遇的场景吗？那天……在我的记忆中满世界都是粉红色的。\n　在{BATTLETIME}场战斗里，我们并肩作战，我期待着你对我说话，期待着你对我微笑，仿佛你的言语带着一种神奇的魔力，总会让我感到一种莫名的满足。这样的娜姆……是不是有些太没有骨气了？不准你因为这个不喜欢我哦！\n　终于让娜姆迎来{ENDTIME}这一天了呢，那么……{NAME}！请成为我的专属勇士吧！",
		"Signature": "娜姆敬上"
	},
	{
		"ID": 18,
		"Title": "献给{NAME}：",
		"Content": "姐姐我无论如何也没有想到，自己会栽在你{NAME}这样一个小家伙手里面！\n　{BEGINTIME}这一天所发生的所有事情，就好像是上天所安排好的，有时候我就在想，这个世界很大很大，大到我们这么晚才能够相遇。世界又很小很小，小到在{BATTLETIME}场战斗里，我一抬头就看到你的笑颜。\n　只要有相遇，那么一切都不算太晚……不过我伊梅尔达可不是一个容易满足的人呢！{ENDTIME}的到来并不意味着终点，今后啊，你只可以选择爱我，或者更爱我。\n　所以，小家伙你就永远地陪在我身边吧，好吗？",
		"Signature": "伊梅尔达"
	},
	{
		"ID": 30,
		"Title": "献给{NAME}：",
		"Content": "从相遇的第一天起，我就感受到了你身上特殊的魔力。从{BEGINTIME}到{ENDTIME}，这份爱的波动在我心中始终未曾停歇……\n     爱的魔力，一点一滴……也在战场上慢慢积累着，和{NAME}经过了{BATTLETIME}次的战斗，我相信现在是让一切绽放的时刻了……我觉得这会是个让所有人都为之惊艳的大魔术！\n     这段日子是我最幸福的时光，你精心准备的每一件礼物莉法妮都很喜欢，而作为回报……我想要用名为「爱」的魔法，让你、我，让这一切永远都不再分离！",
		"Signature": "你的、莉法妮"
	},
	{
		"ID": 56,
		"Title": "献给{NAME}：",
		"Content": "记得是从那一天{BEGINTIME}开始，我便开始对你产生无可救药的依赖。到今天，{ENDTIME}，这份心情也有增无减。\n     总是被坏人抓走的我，也在你的帮助下变得坚强起来。和{NAME}一起的， {BATTLETIME}次的战斗。每一次都是我们共同成长的甜蜜印记。\n     谢谢你的心意，那份像哥哥一般的守护就是蕾伽尔最喜欢的礼物！但任性的我，已经不能为兄妹般的感情而满足了……\n     感谢和你在一起的时光，让我有勇气说出「爱」。",
		"Signature": "蕾伽尔"
	},
	{
		"ID": 54,
		"Title": "献给{NAME}：",
		"Content": "魔与人本不应该相遇，但我……接受了与你邂逅的浪漫命运。从{BEGINTIME}到{ENDTIME}，这些日子中，{BATTLETIME}场战斗与{NAME}共同度过。我本是为了无情的战斗而生，而你的存在、为我的战斗提供了更多的……名为「爱」的意义……\n      原谅我还没有学会如何表达自己的感激，但我的心里早已有你。\n      我想……即使流着不同的血，妮丝蒂尔我也想永远和{NAME}在一起。",
		"Signature": "妮丝蒂尔"
	},
	{
		"ID": 39,
		"Title": "我忠诚的仆从{NAME}：",
		"Content": "{BEGINTIME}，一个渺小、愚蠢且自大的混蛋出现在我弗拉基亚的面前，让我跟随他一起进行生死与共的战斗，开什么玩笑！我可是伟大的弗拉基亚，怎么会为卑微的人类而战！？\n　可……我还是不由自主地去做了，{BATTLETIME}场赌上性命、生死与共的战斗，我跟随在他身旁，骂他仆从、蠢货、混蛋，以此来掩盖他看我时我内心的慌乱。虽然不想承认，但……{NAME}，你就是那个蠢货、混蛋！\n　今天，{ENDTIME}，我要向世界宣布：你得到了伟大的弗拉基亚的倾慕，你将要用接下来的一生服侍在我左右，没有假期，不准反驳！",
		"Signature": "伟大的弗拉基亚"
	},
	{
		"ID": 31,
		"Title": "献给{NAME}：",
		"Content": "{BEGINTIME}那天，在女神的见证下，{NAME}出现在我的面前，向我伸出手，那一刻我看到您背后闪耀的圣光，我知道，那将是我穷尽一生追随的方向。\n　在{BATTLETIME}场与死亡擦肩而过的战斗中，我看到您脸上的伤痕越来越多，身上的疲惫越来越重，但您眼中对和平渴望的光芒却越来越亮。\n　在这里，在今天，在{ENDTIME}，我想大声告诉您：索菲亚不仅想抹去您脸上的伤痕，也想抹去您心上的疲累，让您永远像我们初见那天一样！",
		"Signature": "您的索菲亚"
	},
	{
		"ID": 20,
		"Title": "致{NAME}：",
		"Content": "我一直是孤独的一个人，不被魔族接受，也被人类驱赶，所以我总在说肮脏的人类，可恶的魔族，但……{BEGINTIME}这天，当我第一次见到{NAME}时，我第一次觉得，人类也并不是全都那么肮脏，至少……你就很干净。\n　我们一起经历了{BATTLETIME}场战斗，在硝烟和鲜血之中，我突然觉得，我好像……已经很久没有觉得孤单了。\n　我不敢想象如果哪天你不在了，我再次被孤独吞没会是什么样子，所以今天，{ENDTIME}我想告诉{NAME}：我喜欢你！不要让我再变成一个人了！",
		"Signature": "索尼娅"
	},
	{
		"ID": 49,
		"Title": "致{NAME}：",
		"Content": "{BEGINTIME}我们相遇了，真没想到，居然可以在{ENDTIME}这一天和您走到如此亲密的地步……您可别误会了！我可不是那种容易攻略的女人！这都要怪您布局谋略时认真模样，太让人着迷了……\n　{BATTLETIME}次与您出征，每一场战斗的酣畅都让我产生想要更多的冲动……不知不觉间，我的心也成为了您攻下的领地。\n　原来，我也会有败北的一天吗？可被您打败的感觉莫名让人兴奋呢……",
		"Signature": "法娜"
	},
	{
		"ID": 43,
		"Title": "致{NAME}：",
		"Content": "{BEGINTIME}是安娜生命中最重要的日子，就在这一天我遇见了您，是您让我明白……原来爱一个人是这样的感受！\n　真是太幸运了，{BATTLETIME}场战斗我都能陪伴您的身边，如果安娜再强一点的话，能陪伴您的日子也许能更久一点吧！\n　仰望月亮是星星发光的方式，在今天，{ENDTIME}，我终于有机会向您说出一直想说的话：{NAME}，谢谢您成为安娜的月亮！",
		"Signature": "安娜"
	},
	{
		"ID": 22,
		"Title": "写给{NAME}：",
		"Content": "其实有些难以启齿……{BEGINTIME}那天，当{NAME}出现在我面前，透过你那双澄澈透明的眼睛我才记起来，抛开光明、信仰以及漫长的时光，我还是个普通人，一个渴望爱情的普通女人。\n　我以导师的身份陪伴了你{BATTLETIME}场直面死亡的战斗，看着你从稚嫩到成熟，从迷茫到坚定，从略显胆怯到愈发勇毅，但你的眼睛却依然那么清澈。而我……对你的感觉也依然像初见时那天一般。\n　所以{NAME}，今天，{ENDTIME}，我要告诉你：光明是一片无趣的纯白，是你的出现给我的生命添加了一抹幸福的色彩。谢谢你长久以来的陪伴，以后，也请多多关照……",
		"Signature": "杰西卡"
	},
	{
		"ID": 61,
		"Title": "献给{NAME}：",
		"Content": "{BEGINTIME}那天，随着{NAME}出现在我的面前，漫山的月苋草散发着迷人的微光欢呼庆祝，那是一种我从未有过的奇妙的感觉。\n　在{BATTLETIME}场直面死亡的战斗中，你教会了我什么是喜悦、什么是悲伤、什么是感动。但我始终不知道那天那让我目眩神迷的感觉到底是什么，只是在那之后，我有了秘密，而那秘密里的一切都是关于你。\n　今天，当你再次出现在我面前的时候，我似乎明白了那种感觉叫做心动，叫做喜欢。所以在现在，在{ENDTIME}，我想告诉{NAME}：如果有机会的话，我想去伊雷斯看看璀璨的星空……和你一起。",
		"Signature": "拉姆达"
	},
	{
		"ID": 35,
		"Title": "献给{NAME}：",
		"Content": "{BEGINTIME}那天，安杰丽卡居然为与您目光相对，而错过了实验的最佳时机！嘛~您的身上一定蕴藏着某种超级能量吧！不然，作为超级魔法师的我，怎么可能被就此蛊惑呢……\n　{BATTLETIME}场战斗，我都在认真研究您的一举一动……可为什么会这样呢？我被您吸引的时间，居然随着研究的深入越来越长了！\n　嘛~或许{NAME}大人真的是我永远无法参透的存在了。在今天，{ENDTIME}，我要向您坦白：您之前送我的礼物，都被我变成了研究您的实验材料……不过，温柔大度的您一定会原谅我的，对吧？",
		"Signature": "安杰丽卡"
	},
	{
		"ID": 47,
		"Title": "献给{NAME}：",
		"Content": "{BEGINTIME}，我第一次为您发出「爱的声援」。您回头鼓励的目光，给了我从未体会过的温暖。从那一刻起，我开始思考该如何回报您的恩情。\n　没能拥有细腻的双手，也无法传递温柔的眼神。一直站在您身后不懂表达的蕾蒂西亚，能够回报您的，也只剩下{BATTLETIME}场战斗中默默的助攻了。\n　该表达的心意早已在驰骋战场的技艺中表明，{ENDTIME}，我只想告诉{NAME}大人，您回头的目光，将是蕾蒂西亚一生追逐的方向！",
		"Signature": "蕾蒂西亚"
	},
	{
		"ID": 58,
		"Title": "献给{NAME}：",
		"Content": "{BEGINTIME}，是我们初次相见的日子，不知为何就萌生了希望保护您的意愿。在那时起便已经做好一直陪在您身边的准备，那一天下定的决心，直至今天也从未改变。\n　{BATTLETIME}次并肩作战，使我们更加默契，我们所共同经历的每一场战斗，都是我对您的表白，今后的我也会化身为剑与盾，继续守护您的安全。\n　一直以来，我努力让自己变得强大，让自己能够追上{NAME}您的步伐，成为您最为优秀的助力！也正因为您一直以来的陪伴，让我感到无比的安心，但又不知该如何报答。\n　忐忑的我终于在今天下定决心向您说出一个大胆的请求，从今以后，您的心……请交给我守护吧！",
		"Signature": "期盼答复的、塞蕾娜"
	},
	{
		"ID": 66,
		"Title": "献给{NAME}：",
		"Content": "原本以为{BEGINTIME}只是我生命中无数平凡日子中的一天，但直到{NAME}你的出现，就像太阳驱散乌云，成为了我生命中的光。\n　从相遇的那一天开始，我们共同经历了{BATTLETIME}场战斗，但我觉得……这个数字根本无法表达我对你的心意，毕竟因为有你的存在……我才能够忘记在战场和生活中遇到的挫折与打击，这份陪伴，恐怕克拉蕾特一辈子也偿还不起，对吧？\n　哎呀，如此看来我应该是一辈子也没办法与你分开啦！哈哈哈哈，所以，{NAME}！你跟我一起重建卡尔萨斯吧，……本公主才不接受拒绝呢！因为我要和你永远永远……在一起！",
		"Signature": "爱你的、克拉蕾特"
	},
	{
		"ID": 88,
		"Title": "献给{NAME}：",
		"Content": "漫长的生命总会带来特别的惊喜，在光之女神的护佑下，我与你在{BEGINTIME}这一天相遇了。\n　您战斗的胜利，是我奋斗的不竭动力，{BATTLETIME}次战斗，使你与我之间默契渐深，而也正因如此，一颗名叫「守护」的种子在我心底慢慢发了芽。虽然妖精的一生中可能会遇到很多个人类，但与你在一起的时光让我十分难忘，所以请不要担心，时间……并不是我们的敌人！无论跨过多少时光，多少星河，无论你是否还需要我，我都会一如既往的陪伴在你身旁，就像……现在一样！\n　人们常说，当月亮躲进云团之时，害羞的星星也会闭上眼睛。我有些担心，如果我现在对{NAME}表白的话……你会因为害羞而拒绝吗？可你知道的，我并不是一个擅长言谈的人，所以……请不要拒绝我的心意，给我一个守护你的机会，好吗？",
		"Signature": "「翡翠之门」团长、艾拉斯卓参上"
	},
	{
		"ID": 89,
		"Title": "献给{NAME}：",
		"Content": "在漫长的时光里，我从未预想到也会有充满希望的光辉降临在自己的身上……\n　直到{BEGINTIME}这一天的到来，我听见了兰古利萨鸣响之音……很难相信，因为{NAME}大人的出现，身为圣剑精灵的我……竟然也迎来了心灵颤抖的时刻。\n　{BATTLETIME}次战斗，我都会默默为您祝福，祈祷您能获得最后的胜利……虽然有时我也会担心当您触摸到冰冷的剑身之时，会感到失望……但在尤利娅心中，与您一起守护和平的时光，是我所有经历中最幸福的时刻……\n　所以、{NAME}大人……请您不要放下手中的兰古利萨，让我继续为您吟唱祈祷的歌吧！并且请您坚信，无论在多么落寞或困顿的时刻，尤利娅一定会……坚定地陪伴在您左右！",
		"Signature": "至死不渝的、尤利娅"
	},
	{
		"ID": 87,
		"Title": "献给{NAME}：",
		"Content": "不知道该以什么样的身份，在这个没有我的记忆的世界里活着。直到{NAME}大人在{BEGINTIME}向我伸出了手。从那一天开始，贝蒂就将您视作是自己生存在这个世界上的唯一意义。\n　为了您的梦想而努力战斗，向着您的目标奋力前行……就这样，我们之间的羁绊之花在{BATTLETIME}场战斗中渐渐绽放。呐，指挥官，您一定是知道的吧！在战场上用默契的眼神彼此领会，是贝蒂最幸福的时刻！\n　据说月亮只有在极黑之中才能展现皎洁的华彩。所以，就让贝蒂成为您的世界，成为您月之荣光的成就者，成为您至死都无法斩断的黑暗吧！",
		"Signature": "您的小可爱、贝蒂"
	},
	{
		"ID": 92,
		"Title": "献给{NAME}：",
		"Content": "我原以为，经历了不知道几生几世的我，早就忘了那种「冲动」的感觉。我也没有想过，在光与暗的纷争间，还有这样真挚的情绪存在。\n　直到{BEGINTIME}那天，在时间与空间的夹缝中遇到了{NAME}。整个世界就像春风拂过那样，一瞬间明亮起来。\n　真的好开心呢，能以这样青春的形态与{NAME}经历{BATTLETIME}次战斗。不过嘛，少女的心可是需要呵护的哦！所以，俘获本女神的家伙，无论今后去往什么地方……都要一定一定记得带上我哦！最最最~最喜欢你啦！",
		"Signature": "永远15岁的，杰西卡"
	},
	{
		"ID": 91,
		"Title": "献给{NAME}：",
		"Content": "一直把迷茫、恐惧和脆弱隐藏在父亲大人所遗留的巨大铠甲之下。是您为我分担了铠甲的重量，告诉我世上除了已逝的父母，还有您可以作为漫长人生的同行者……\n　{BEGINTIME}与您相遇后，我们共同经历的{BATTLETIME}场战役都让我更加坚定跟随您的信念。只可惜，艾米莉亚太过弱小的力量，无法给您带来更多的美好期许。或许作为骑士，我还远远不够格吧！\n　为了成为您的完美骑士，艾米莉亚一定会努力长大。当艾米莉亚真正长大的时候……{NAME}大人，可以请您陪我共饮一杯名为「成熟」的美酒吗？",
		"Signature": "艾米莉亚"
	},
	{
		"ID": 93,
		"Title": "献给{NAME}：",
		"Content": "回顾我这满目疮痍的一生，遇到过很多难忘的人，也经历过很多无法言说的痛苦。其实……漫长的岁月使我抛弃了希望，直到{BEGINTIME}这一天的到来，{NAME}您的出现，使身为和平使者的我再次燃起了对生的幻想。\n{BATTLETIME}次战斗对于我来说，这是十分值得珍惜的时光。曾经的我认为漫长的生命对于任何人来说，绝不是祝福，更像是一种无声的惩罚与诅咒，但如今的我认为……或许只有这样，我才能永远的守护您吧。\n所以请{NAME}您相信……往后余生无论遇到什么样的磨难，我一定会陪伴在您左右。",
		"Signature": "谜之骑士、敬上"
	}
]