[
	{
		"ID": 1,
		"Name": "签到",
		"OpenTrigger": [
			"UserGuideTrigger_WorldUIGetReady"
		],
		"OpenCondition": "UserGuideCondition_TodayIsSignedEqual",
		"OCParam": "FALSE",
		"FirstStepID": 32010,
		"CompleteTrigger": "UserGuideTrigger_",
		"CTParam": "",
		"OpenCondition2": "UserGuideCondition_",
		"OCParam2": ""
	},
	{
		"ID": 49,
		"Name": "活动公告",
		"OpenTrigger": [
			"UserGuideTrigger_WorldUIGetReady"
		],
		"OpenCondition": "UserGuideCondition_NeverOpenedActivityNoticeAndPlayerLevelReachN",
		"OCParam": "15",
		"FirstStepID": 39010,
		"CompleteTrigger": "UserGuideTrigger_",
		"CTParam": "",
		"OpenCondition2": "UserGuideCondition_",
		"OCParam2": ""
	},
	{
		"ID": 2,
		"Name": "地图移动教学",
		"OpenTrigger": [
			"UserGuideTrigger_WorldUIGetReady",
			"UserGuideTrigger_HideObject"
		],
		"OTParam": [
			"",
			"SignUIPrefab\\RewardList\\FrameImage\\TitleImage"
		],
		"OpenCondition": "UserGuideCondition_StoryNFinished",
		"OCParam": "1",
		"FirstStepID": 4000,
		"CompleteTrigger": "UserGuideTrigger_FinishGuideStepN",
		"CTParam": "4020",
		"OpenCondition2": "UserGuideCondition_",
		"OCParam2": ""
	},
	{
		"ID": 3,
		"Name": "圣魔券抽卡：世界UI入口",
		"OpenTrigger": [
			"UserGuideTrigger_WorldUIGetReady"
		],
		"OpenCondition": "UserGuideCondition_GuideNFinished",
		"OCParam": "5",
		"FirstStepID": 5060,
		"CompleteTrigger": "UserGuideTrigger_FinishGuideStepN",
		"CTParam": "5033",
		"OpenCondition2": "UserGuideCondition_",
		"OCParam2": ""
	},
	{
		"ID": 4,
		"Name": "圣魔券抽卡：免费券抽卡结束后的入口",
		"OpenTrigger": [
			"UserGuideTrigger_ShowObject"
		],
		"OTParam": [
			"SelectCardUIPrefab\\MainUI\\SummonPanel\\Margin\\RightToggleGroup\\CardPoolsScrollView\\Viewport\\CardPools\\TicketSummonToggle"
		],
		"OpenCondition": "UserGuideCondition_GuideNFinished",
		"OCParam": "5",
		"FirstStepID": 5031,
		"CompleteTrigger": "UserGuideTrigger_FinishGuideStepN",
		"CTParam": "5033",
		"OpenCondition2": "UserGuideCondition_",
		"OCParam2": ""
	},
	{
		"ID": 5,
		"Name": "免费券抽卡",
		"OpenTrigger": [
			"UserGuideTrigger_WorldUIGetReady"
		],
		"OpenCondition": "UserGuideCondition_StoryNFinished",
		"OCParam": "2",
		"FirstStepID": 5001,
		"CompleteTrigger": "UserGuideTrigger_FinishGuideStepN",
		"CTParam": "5020",
		"OpenCondition2": "UserGuideCondition_",
		"OCParam2": ""
	},
	{
		"ID": 7,
		"Name": "时空裂缝功能开启及新手教学",
		"OpenTrigger": [
			"UserGuideTrigger_WorldUIGetReady"
		],
		"OpenCondition": "UserGuideCondition_StoryNFinished",
		"OCParam": "4",
		"FirstStepID": 6000,
		"CompleteTrigger": "UserGuideTrigger_FinishGuideStepN",
		"CTParam": "6050",
		"OpenCondition2": "UserGuideCondition_",
		"OCParam2": ""
	},
	{
		"ID": 9,
		"Name": "时空裂缝切换难度",
		"OpenTrigger": [
			"UserGuideTrigger_ShowObject"
		],
		"OTParam": [
			"RiftLevelUIPrefab"
		],
		"OpenCondition": "UserGuideCondition_RiftChapterNUnlockable",
		"OCParam": "11",
		"FirstStepID": 19010,
		"CompleteTrigger": "UserGuideTrigger_FinishGuideStepN",
		"CTParam": "19020",
		"OpenCondition2": "UserGuideCondition_",
		"OCParam2": ""
	},
	{
		"ID": 10,
		"Name": "职业进阶功能开启及新手教学",
		"OpenTrigger": [
			"UserGuideTrigger_ShowObject"
		],
		"OTParam": [
			"RiftLevelUIPrefab"
		],
		"OpenCondition": "UserGuideCondition_RiftLevelNPassed",
		"OCParam": "101",
		"FirstStepID": 7000,
		"CompleteTrigger": "UserGuideTrigger_FinishGuideStepN",
		"CTParam": "7050",
		"OpenCondition2": "UserGuideCondition_",
		"OCParam2": ""
	},
	{
		"ID": 11,
		"Name": "职业进阶功能开启及新手教学：世界UI入口",
		"OpenTrigger": [
			"UserGuideTrigger_WorldUIGetReady"
		],
		"OpenCondition": "UserGuideCondition_RiftLevelNPassed",
		"OCParam": "101",
		"FirstStepID": 7020,
		"CompleteTrigger": "UserGuideTrigger_FinishGuideStepN",
		"CTParam": "7050",
		"OpenCondition2": "UserGuideCondition_GuideNUnfinished",
		"OCParam2": "10"
	},
	{
		"ID": 12,
		"Name": "英雄转职的新手教学：世界UI入口",
		"OpenTrigger": [
			"UserGuideTrigger_WorldUIGetReady"
		],
		"OpenCondition": "UserGuideCondition_GuideNFinished",
		"OCParam": "10",
		"FirstStepID": 7200,
		"CompleteTrigger": "UserGuideTrigger_FinishGuideStepN",
		"CTParam": "7100",
		"OpenCondition2": "UserGuideCondition_",
		"OCParam2": ""
	},
	{
		"ID": 13,
		"Name": "英雄转职的新手教学",
		"OpenTrigger": [
			"UserGuideTrigger_ShowObject",
			"UserGuideTrigger_HideObject",
			"UserGuideTrigger_HideObject"
		],
		"OTParam": [
			"HeroDetailUIPrefab",
			"HeroDetailJobUIPrefab\\JobEffectGroup\\MasterRewardGroup",
			"HeroDetailJobUIPrefab\\LearnedPanel"
		],
		"OpenCondition": "UserGuideCondition_GuideNFinished",
		"OCParam": "10",
		"FirstStepID": 7055,
		"CompleteTrigger": "UserGuideTrigger_FinishGuideStepN",
		"CTParam": "7100",
		"OpenCondition2": "UserGuideCondition_",
		"OCParam2": ""
	},
	{
		"ID": 15,
		"Name": "兄贵健身房功能开启及新手引导",
		"OpenTrigger": [
			"UserGuideTrigger_WorldUIGetReady"
		],
		"OpenCondition": "UserGuideCondition_GuideNFinished",
		"OCParam": "45",
		"FirstStepID": 8000,
		"CompleteTrigger": "UserGuideTrigger_FinishGuideStepN",
		"CTParam": "8040",
		"OpenCondition2": "UserGuideCondition_",
		"OCParam2": ""
	},
	{
		"ID": 17,
		"Name": "随机事件功能开启及新手教学",
		"OpenTrigger": [
			"UserGuideTrigger_WorldUIGetReady"
		],
		"OpenCondition": "UserGuideCondition_StoryNFinished",
		"OCParam": "10",
		"FirstStepID": 9000,
		"CompleteTrigger": "UserGuideTrigger_FinishGuideStepN",
		"CTParam": "9020",
		"OpenCondition2": "UserGuideCondition_",
		"OCParam2": ""
	},
	{
		"ID": 19,
		"Name": "竞技场功能开启及新手引导",
		"OpenTrigger": [
			"UserGuideTrigger_WorldUIGetReady"
		],
		"OpenCondition": "UserGuideCondition_StoryNFinished",
		"OCParam": "5",
		"FirstStepID": 10000,
		"CompleteTrigger": "UserGuideTrigger_FinishGuideStepN",
		"CTParam": "10010",
		"OpenCondition2": "UserGuideCondition_",
		"OCParam2": ""
	},
	{
		"ID": 21,
		"Name": "女神试炼功能开启及新手引导",
		"OpenTrigger": [
			"UserGuideTrigger_WorldUIGetReady"
		],
		"OpenCondition": "UserGuideCondition_StoryNFinished",
		"OCParam": "12",
		"FirstStepID": 11000,
		"CompleteTrigger": "UserGuideTrigger_FinishGuideStepN",
		"CTParam": "11030",
		"OpenCondition2": "UserGuideCondition_",
		"OCParam2": ""
	},
	{
		"ID": 23,
		"Name": "战斗新手引导：序章",
		"OpenTrigger": [
			"UserGuideTrigger_SelectBattleHeroN"
		],
		"OTParam": [
			"1500"
		],
		"OpenCondition": "UserGuideCondition_IsRunningBattleN",
		"OCParam": "100",
		"FirstStepID": 10,
		"CompleteTrigger": "UserGuideTrigger_FinishGuideStepN",
		"CTParam": "240",
		"OpenCondition2": "UserGuideCondition_",
		"OCParam2": ""
	},
	{
		"ID": 24,
		"Name": "战斗新手引导：第一章",
		"OpenTrigger": [
			"UserGuideTrigger_SelectBattleHeroN"
		],
		"OTParam": [
			"4"
		],
		"OpenCondition": "UserGuideCondition_IsRunningBattleN",
		"OCParam": "101",
		"FirstStepID": 1000,
		"CompleteTrigger": "UserGuideTrigger_FinishGuideStepN",
		"CTParam": "1060",
		"EnforceHeros": [
			4,
			3,
			1
		],
		"OpenCondition2": "UserGuideCondition_",
		"OCParam2": ""
	},
	{
		"ID": 25,
		"Name": "战斗新手引导：兵种克制",
		"OpenTrigger": [
			"UserGuideTrigger_SelectBattleHeroN"
		],
		"OTParam": [
			"1"
		],
		"OpenCondition": "UserGuideCondition_IsRunningBattleN",
		"OCParam": "102",
		"FirstStepID": 2000,
		"CompleteTrigger": "UserGuideTrigger_FinishGuideStepN",
		"CTParam": "2030",
		"EnforceHeros": [
			1,
			3,
			4
		],
		"OpenCondition2": "UserGuideCondition_",
		"OCParam2": ""
	},
	{
		"ID": 26,
		"Name": "战斗新手引导：拖拽英雄上场",
		"OpenTrigger": [
			"UserGuideTrigger_ShowObject"
		],
		"OTParam": [
			"BattleCommonUIPrefab"
		],
		"OpenCondition": "UserGuideCondition_IsRunningBattleN",
		"OCParam": "250",
		"FirstStepID": 3000,
		"CompleteTrigger": "UserGuideTrigger_FinishGuideStepN",
		"CTParam": "3020",
		"EnforceHeros": [
			1,
			3,
			4,
			24,
			999
		],
		"OpenCondition2": "UserGuideCondition_",
		"OCParam2": ""
	},
	{
		"ID": 27,
		"Name": "战斗新手引导：护卫技能",
		"OpenTrigger": [
			"UserGuideTrigger_SelectBattleHeroN"
		],
		"OTParam": [
			"4"
		],
		"OpenCondition": "UserGuideCondition_IsRunningBattleN",
		"OCParam": "103",
		"FirstStepID": 20000,
		"CompleteTrigger": "UserGuideTrigger_FinishGuideStepN",
		"CTParam": "20080",
		"EnforceHeros": [
			4,
			1,
			3
		],
		"OpenCondition2": "UserGuideCondition_",
		"OCParam2": ""
	},
	{
		"ID": 28,
		"Name": "战斗新手引导：杰西卡远程技能",
		"OpenTrigger": [
			"UserGuideTrigger_SelectBattleHeroN"
		],
		"OTParam": [
			"22"
		],
		"OpenCondition": "UserGuideCondition_IsRunningBattleN",
		"OCParam": "254",
		"FirstStepID": 21000,
		"CompleteTrigger": "UserGuideTrigger_FinishGuideStepN",
		"CTParam": "21050",
		"EnforceHeros": [
			22
		],
		"OpenCondition2": "UserGuideCondition_",
		"OCParam2": ""
	},
	{
		"ID": 29,
		"Name": "战斗新手引导：准备阶段更换兵种",
		"OpenTrigger": [
			"UserGuideTrigger_ShowObject"
		],
		"OTParam": [
			"BattleCommonUIPrefab"
		],
		"OpenCondition": "UserGuideCondition_IsRunningBattleN",
		"OCParam": "272",
		"FirstStepID": 22000,
		"CompleteTrigger": "UserGuideTrigger_FinishGuideStepN",
		"CTParam": "22050",
		"EnforceHeros": [
			1
		],
		"OpenCondition2": "UserGuideCondition_",
		"OCParam2": ""
	},
	{
		"ID": 36,
		"Name": "英雄升星",
		"OpenTrigger": [
			"UserGuideTrigger_WorldUIGetReady"
		],
		"OpenCondition": "UserGuideCondition_IsWayPointNArrived",
		"OCParam": "16",
		"FirstStepID": 12010,
		"CompleteTrigger": "UserGuideTrigger_FinishGuideStepN",
		"CTParam": "12030",
		"OpenCondition2": "UserGuideCondition_",
		"OCParam2": ""
	},
	{
		"ID": 31,
		"Name": "更改头像",
		"OpenTrigger": [
			"UserGuideTrigger_WorldUIGetReady"
		],
		"OpenCondition": "UserGuideCondition_IsWayPointNArrived",
		"OCParam": "11",
		"FirstStepID": 13010,
		"CompleteTrigger": "UserGuideTrigger_FinishGuideStepN",
		"CTParam": "13040",
		"OpenCondition2": "UserGuideCondition_",
		"OCParam2": ""
	},
	{
		"ID": 32,
		"Name": "英雄碎片召唤",
		"OpenTrigger": [
			"UserGuideTrigger_WorldUIGetReady"
		],
		"OpenCondition": "UserGuideCondition_IsHeroNComposable",
		"OCParam": "22",
		"FirstStepID": 14010,
		"CompleteTrigger": "UserGuideTrigger_FinishGuideStepN",
		"CTParam": "14040",
		"OpenCondition2": "UserGuideCondition_",
		"OCParam2": ""
	},
	{
		"ID": 33,
		"Name": "支线任务",
		"OpenTrigger": [
			"UserGuideTrigger_WorldUIGetReady"
		],
		"OpenCondition": "UserGuideCondition_IsWayPointNArrived",
		"OCParam": "3",
		"FirstStepID": 15010,
		"CompleteTrigger": "UserGuideTrigger_FinishGuideStepN",
		"CTParam": "15020",
		"OpenCondition2": "UserGuideCondition_",
		"OCParam2": ""
	},
	{
		"ID": 34,
		"Name": "Boss战",
		"OpenTrigger": [
			"UserGuideTrigger_WorldUIGetReady"
		],
		"OpenCondition": "UserGuideCondition_IsWayPointNArrived",
		"OCParam": "55",
		"FirstStepID": 16010,
		"CompleteTrigger": "UserGuideTrigger_FinishGuideStepN",
		"CTParam": "16020",
		"OpenCondition2": "UserGuideCondition_",
		"OCParam2": ""
	},
	{
		"ID": 35,
		"Name": "使用经验药",
		"OpenTrigger": [
			"UserGuideTrigger_WorldUIGetReady"
		],
		"OpenCondition": "UserGuideCondition_IsWayPointNArrived",
		"OCParam": "6",
		"FirstStepID": 17010,
		"CompleteTrigger": "UserGuideTrigger_FinishGuideStepN",
		"CTParam": "17050",
		"OpenCondition2": "UserGuideCondition_",
		"OCParam2": ""
	},
	{
		"ID": 37,
		"Name": "装备",
		"OpenTrigger": [
			"UserGuideTrigger_WorldUIGetReady"
		],
		"OpenCondition": "UserGuideCondition_StoryNFinished",
		"OCParam": "3",
		"FirstStepID": 18010,
		"CompleteTrigger": "UserGuideTrigger_FinishGuideStepN",
		"CTParam": "18120",
		"OpenCondition2": "UserGuideCondition_",
		"OCParam2": ""
	},
	{
		"ID": 38,
		"Name": "藏宝",
		"OpenTrigger": [
			"UserGuideTrigger_WorldUIGetReady"
		],
		"OpenCondition": "UserGuideCondition_StoryNFinished",
		"OCParam": "13",
		"FirstStepID": 30010,
		"CompleteTrigger": "UserGuideTrigger_FinishGuideStepN",
		"CTParam": "30050",
		"OpenCondition2": "UserGuideCondition_",
		"OCParam2": ""
	},
	{
		"ID": 39,
		"Name": "英雄训练",
		"OpenTrigger": [
			"UserGuideTrigger_WorldUIGetReady"
		],
		"OpenCondition": "UserGuideCondition_StoryNFinished",
		"OCParam": "8",
		"FirstStepID": 31010,
		"CompleteTrigger": "UserGuideTrigger_FinishGuideStepN",
		"CTParam": "31050",
		"OpenCondition2": "UserGuideCondition_",
		"OCParam2": ""
	},
	{
		"ID": 40,
		"Name": "羁绊赠送礼物",
		"OpenTrigger": [
			"UserGuideTrigger_WorldUIGetReady"
		],
		"OpenCondition": "UserGuideCondition_StoryNFinished",
		"OCParam": "14",
		"FirstStepID": 33010,
		"CompleteTrigger": "UserGuideTrigger_FinishGuideStepN",
		"CTParam": "33092",
		"OpenCondition2": "UserGuideCondition_",
		"OCParam2": ""
	},
	{
		"ID": 41,
		"Name": "羁绊之地",
		"OpenTrigger": [
			"UserGuideTrigger_WorldUIGetReady"
		],
		"OpenCondition": "UserGuideCondition_GuideNFinished",
		"OCParam": "40",
		"FirstStepID": 34030,
		"CompleteTrigger": "UserGuideTrigger_FinishGuideStepN",
		"CTParam": "34050",
		"OpenCondition2": "UserGuideCondition_",
		"OCParam2": ""
	},
	{
		"ID": 42,
		"Name": "协力战",
		"OpenTrigger": [
			"UserGuideTrigger_WorldUIGetReady"
		],
		"OpenCondition": "UserGuideCondition_StoryNFinished",
		"OCParam": "16",
		"FirstStepID": 35010,
		"CompleteTrigger": "UserGuideTrigger_FinishGuideStepN",
		"CTParam": "35060",
		"OpenCondition2": "UserGuideCondition_",
		"OCParam2": ""
	},
	{
		"ID": 43,
		"Name": "炼金",
		"OpenTrigger": [
			"UserGuideTrigger_WorldUIGetReady"
		],
		"OpenCondition": "UserGuideCondition_StoryNFinished",
		"OCParam": "15",
		"FirstStepID": 36010,
		"CompleteTrigger": "UserGuideTrigger_FinishGuideStepN",
		"CTParam": "36056",
		"OpenCondition2": "UserGuideCondition_",
		"OCParam2": ""
	},
	{
		"ID": 44,
		"Name": "附魔",
		"OpenTrigger": [
			"UserGuideTrigger_FinishGuideStepN",
			"UserGuideTrigger_ShowObject"
		],
		"OTParam": [
			"36070",
			"BagListUIPrefab"
		],
		"OpenCondition": "UserGuideCondition_GuideNFinished",
		"OCParam": "43",
		"FirstStepID": 37010,
		"CompleteTrigger": "UserGuideTrigger_FinishGuideStepN",
		"CTParam": "37040",
		"OpenCondition2": "UserGuideCondition_",
		"OCParam2": ""
	},
	{
		"ID": 45,
		"Name": "练兵场",
		"OpenTrigger": [
			"UserGuideTrigger_WorldUIGetReady"
		],
		"OpenCondition": "UserGuideCondition_StoryNFinished",
		"OCParam": "7",
		"FirstStepID": 38010,
		"CompleteTrigger": "UserGuideTrigger_FinishGuideStepN",
		"CTParam": "38070",
		"OpenCondition2": "UserGuideCondition_",
		"OCParam2": ""
	},
	{
		"ID": 46,
		"Name": "战斗新手引导：自动跳过战斗104的准备阶段",
		"OpenTrigger": [
			"UserGuideTrigger_SelectBattleHeroN"
		],
		"OTParam": [
			"9999"
		],
		"OpenCondition": "UserGuideCondition_IsRunningBattleN",
		"OCParam": "104",
		"FirstStepID": 0,
		"CompleteTrigger": "UserGuideTrigger_FinishUserGuideN",
		"CTParam": "26",
		"OpenCondition2": "UserGuideCondition_",
		"OCParam2": ""
	},
	{
		"ID": 47,
		"Name": "战斗新手引导：自动跳过战斗270的准备阶段",
		"OpenTrigger": [
			"UserGuideTrigger_SelectBattleHeroN"
		],
		"OTParam": [
			"9999"
		],
		"OpenCondition": "UserGuideCondition_IsRunningBattleN",
		"OCParam": "270",
		"FirstStepID": 0,
		"CompleteTrigger": "UserGuideTrigger_FinishUserGuideN",
		"CTParam": "46",
		"OpenCondition2": "UserGuideCondition_",
		"OCParam2": ""
	},
	{
		"ID": 48,
		"Name": "附魔：世界UI入口",
		"OpenTrigger": [
			"UserGuideTrigger_WorldUIGetReady"
		],
		"OpenCondition": "UserGuideCondition_GuideNFinished",
		"OCParam": "43",
		"FirstStepID": 37000,
		"CompleteTrigger": "UserGuideTrigger_FinishGuideStepN",
		"CTParam": "37040",
		"OpenCondition2": "UserGuideCondition_",
		"OCParam2": ""
	},
	{
		"ID": 50,
		"Name": "实时竞技场功能开启及新手引导",
		"OpenTrigger": [
			"UserGuideTrigger_WorldUIGetReady"
		],
		"OpenCondition": "UserGuideCondition_PlayerLevelReachN",
		"OCParam": "28",
		"FirstStepID": 40000,
		"CompleteTrigger": "UserGuideTrigger_FinishGuideStepN",
		"CTParam": "40010",
		"OpenCondition2": "UserGuideCondition_",
		"OCParam2": ""
	},
	{
		"ID": 51,
		"Name": "原谅的时钟购买成功后引导",
		"OpenTrigger": [
			"UserGuideTrigger_BuyGiftStoreGoodsN"
		],
		"OTParam": [
			"3"
		],
		"OpenCondition": "UserGuideCondition_",
		"OCParam": "",
		"FirstStepID": 41000,
		"CompleteTrigger": "UserGuideTrigger_FinishGuideStepN",
		"CTParam": "41010",
		"OpenCondition2": "UserGuideCondition_",
		"OCParam2": ""
	},
	{
		"ID": 52,
		"Name": "超时空试炼",
		"OpenTrigger": [
			"UserGuideTrigger_WorldUIGetReady"
		],
		"OpenCondition": "UserGuideCondition_PlayerLevelReachN",
		"OCParam": "30",
		"FirstStepID": 42000,
		"CompleteTrigger": "UserGuideTrigger_FinishGuideStepN",
		"CTParam": "42040",
		"OpenCondition2": "UserGuideCondition_",
		"OCParam2": ""
	},
	{
		"ID": 53,
		"Name": "永恒的神殿",
		"OpenTrigger": [
			"UserGuideTrigger_WorldUIGetReady"
		],
		"OpenCondition": "UserGuideCondition_PlayerLevelReachN",
		"OCParam": "55",
		"FirstStepID": 43000,
		"CompleteTrigger": "UserGuideTrigger_FinishGuideStepN",
		"CTParam": "43030",
		"OpenCondition2": "UserGuideCondition_",
		"OCParam2": ""
	},
	{
		"ID": 54,
		"Name": "巅峰竞技场功能开启",
		"OpenTrigger": [
			"UserGuideTrigger_WorldUIGetReady"
		],
		"OpenCondition": "UserGuideCondition_PlayerLevelReachN",
		"OCParam": "70",
		"FirstStepID": 44000,
		"CompleteTrigger": "UserGuideTrigger_FinishGuideStepN",
		"CTParam": "44020",
		"OpenCondition2": "UserGuideCondition_",
		"OCParam2": ""
	},
	{
		"ID": 55,
		"Name": "巅峰竞技场界面引导",
		"OpenTrigger": [
			"UserGuideTrigger_ShowObject"
		],
		"OTParam": [
			"ArenaTopUIPrefab\\Detail\\Panels\\TitleImage"
		],
		"OpenCondition": "UserGuideCondition_",
		"OCParam": "",
		"FirstStepID": 45000,
		"CompleteTrigger": "UserGuideTrigger_FinishGuideStepN",
		"CTParam": "45010",
		"OpenCondition2": "UserGuideCondition_",
		"OCParam2": ""
	},
	{
		"ID": 56,
		"Name": "巅峰竞技场队伍编成界面引导",
		"OpenTrigger": [
			"UserGuideTrigger_ShowObject"
		],
		"OTParam": [
			"ArenaTopTeamCompiledUIPrefab\\TopBgImage\\Title"
		],
		"OpenCondition": "UserGuideCondition_",
		"OCParam": "",
		"FirstStepID": 46000,
		"CompleteTrigger": "UserGuideTrigger_FinishGuideStepN",
		"CTParam": "46000",
		"OpenCondition2": "UserGuideCondition_",
		"OCParam2": ""
	},
	{
		"ID": 57,
		"Name": "巅峰竞技场战斗内引导",
		"OpenTrigger": [
			"UserGuideTrigger_ShowObject"
		],
		"OTParam": [
			"PeakArenaBattlePrepareUIPrefab\\BanHeroMarginPanel\\LeftGroup\\IntoBattleGroup\\MyText"
		],
		"OpenCondition": "UserGuideCondition_",
		"OCParam": "",
		"FirstStepID": 47000,
		"CompleteTrigger": "UserGuideTrigger_FinishGuideStepN",
		"CTParam": "47000",
		"OpenCondition2": "UserGuideCondition_",
		"OCParam2": ""
	},
	{
		"ID": 58,
		"Name": "秘境扫荡引导",
		"OpenTrigger": [
			"UserGuideTrigger_ShowObject"
		],
		"OTParam": [
			"SecretBlessingSmall"
		],
		"OpenCondition": "UserGuideCondition_",
		"OCParam": "",
		"FirstStepID": 48000,
		"CompleteTrigger": "UserGuideTrigger_FinishGuideStepN",
		"CTParam": "48010",
		"OpenCondition2": "UserGuideCondition_",
		"OCParam2": ""
	},
	{
		"ID": 59,
		"Name": "远古的呼唤：功能引导",
		"OpenTrigger": [
			"UserGuideTrigger_WorldUIGetReady"
		],
		"OpenCondition": "UserGuideCondition_PlayerLevelReachN",
		"OCParam": "60",
		"FirstStepID": 49000,
		"CompleteTrigger": "UserGuideTrigger_FinishGuideStepN",
		"CTParam": "49060",
		"OpenCondition2": "UserGuideCondition_",
		"OCParam2": ""
	},
	{
		"ID": 60,
		"Name": "远古的呼唤：单boss排行榜",
		"OpenTrigger": [
			"UserGuideTrigger_ShowObject"
		],
		"OTParam": [
			"AncientCallRankListUIPrefab\\Detail\\SingleBossScrollView"
		],
		"OpenCondition": "UserGuideCondition_GuideNFinishedAndMNotFinished",
		"OCParam": "59,60",
		"FirstStepID": 50000,
		"CompleteTrigger": "UserGuideTrigger_FinishGuideStepN",
		"CTParam": "50000",
		"OpenCondition2": "UserGuideCondition_",
		"OCParam2": ""
	},
	{
		"ID": 61,
		"Name": "远古的呼唤：总排行榜",
		"OpenTrigger": [
			"UserGuideTrigger_ShowObject"
		],
		"OTParam": [
			"AncientCallRankListUIPrefab\\Detail\\TotalScrollView"
		],
		"OpenCondition": "UserGuideCondition_GuideNFinishedAndMNotFinished",
		"OCParam": "59,61",
		"FirstStepID": 51000,
		"CompleteTrigger": "UserGuideTrigger_FinishGuideStepN",
		"CTParam": "51000",
		"OpenCondition2": "UserGuideCondition_",
		"OCParam2": ""
	},
	{
		"ID": 62,
		"Name": "远古的呼唤：战斗内引导",
		"OpenTrigger": [
			"UserGuideTrigger_ShowObject"
		],
		"OTParam": [
			"BattleCommonUIPrefab"
		],
		"OpenCondition": "UserGuideCondition_IsRunningAncientBattle",
		"OCParam": "",
		"FirstStepID": 52000,
		"CompleteTrigger": "UserGuideTrigger_FinishGuideStepN",
		"CTParam": "52000",
		"OpenCondition2": "UserGuideCondition_",
		"OCParam2": ""
	},
	{
		"ID": 63,
		"Name": "世界地图切换：功能引导",
		"OpenTrigger": [
			"UserGuideTrigger_WorldUIGetReady"
		],
		"OpenCondition": "UserGuideCondition_StoryNFinished",
		"OCParam": "62",
		"FirstStepID": 53000,
		"CompleteTrigger": "UserGuideTrigger_FinishGuideStepN",
		"CTParam": "53000",
		"OpenCondition2": "UserGuideCondition_",
		"OCParam2": ""
	},
	{
		"ID": 64,
		"Name": "时狭之钟：功能引导",
		"OpenTrigger": [
			"UserGuideTrigger_EndUIState"
		],
		"OTParam": [
			"NameCardUIPrefab,Show"
		],
		"OpenCondition": "UserGuideCondition_PlayerLevelReachN",
		"OCParam": "999",
		"FirstStepID": 54000,
		"CompleteTrigger": "UserGuideTrigger_FinishGuideStepN",
		"CTParam": "54010",
		"OpenCondition2": "UserGuideCondition_",
		"OCParam2": ""
	},
	{
		"ID": 65,
		"Name": "觉醒功能引导",
		"OpenTrigger": [
			"UserGuideTrigger_EndUIState",
			"UserGuideTrigger_EndUIState",
			"UserGuideTrigger_EndUIState",
			"UserGuideTrigger_EndUIState",
			"UserGuideTrigger_EndUIState",
			"UserGuideTrigger_EndUIState",
			"UserGuideTrigger_EndUIState"
		],
		"OTParam": [
			"HeroDetailUILayer_LayerRoot\\HeroDetailUIPrefab,ToLeft",
			"HeroDetailAddExpUILayer_LayerRoot\\HeroDetailAddExpUIPrefab,Close",
			"HeroDetailInfoUILayer_LayerRoot\\HeroDetailInfoUIPrefab,Alpha",
			"HeroDetailJobUILayer_LayerRoot\\HeroDetailJobUIPrefab\\InfoPanel,Alpha",
			"HeroDetailSoldierUILayer_LayerRoot\\HeroDetailSoldierUIPrefab,Alpha",
			"HeroDetailEquipmentUILayer_LayerRoot\\HeroDetailEquipmentUIPrefab,Alpha",
			"HeroDetailAwakenUILayer_LayerRoot\\HeroDetailAwakenUIPrefab\\InfoPanel,Alpha"
		],
		"OpenCondition": "UserGuideCondition_CurShowHeroLevelGreaterThan",
		"OCParam": "69",
		"FirstStepID": 55000,
		"CompleteTrigger": "UserGuideTrigger_FinishGuideStepN",
		"CTParam": "55030",
		"OpenCondition2": "UserGuideCondition_",
		"OCParam2": ""
	},
	{
		"ID": 66,
		"Name": "封印战域：功能引导",
		"OpenTrigger": [
			"UserGuideTrigger_EndUIState"
		],
		"OTParam": [
			"SealBattlefieldUIPrefab,Show"
		],
		"OpenCondition": "UserGuideCondition_",
		"OCParam": "",
		"FirstStepID": 56000,
		"CompleteTrigger": "UserGuideTrigger_FinishGuideStepN",
		"CTParam": "56010",
		"OpenCondition2": "UserGuideCondition_",
		"OCParam2": ""
	},
	{
		"ID": 67,
		"Name": "推进战新手关卡",
		"OpenTrigger": [
			"UserGuideTrigger_HideObject"
		],
		"OTParam": [
			"BattleTurnUIPrefab\\TurnStart"
		],
		"OpenCondition": "UserGuideCondition_IsRunningRushBattleN",
		"OCParam": "1",
		"FirstStepID": 57000,
		"CompleteTrigger": "UserGuideTrigger_",
		"CTParam": "",
		"OpenCondition2": "UserGuideCondition_IsTheTurn",
		"OCParam2": "0,1"
	},
	{
		"ID": 68,
		"Name": "推进战功能启用",
		"OpenTrigger": [
			"UserGuideTrigger_EndUIState"
		],
		"OTParam": [
			"RushBattleUIPrefab,Show"
		],
		"OpenCondition": "UserGuideCondition_",
		"OCParam": "",
		"FirstStepID": 58000,
		"CompleteTrigger": "UserGuideTrigger_FinishGuideStepN",
		"CTParam": "58010",
		"OpenCondition2": "UserGuideCondition_",
		"OCParam2": ""
	},
	{
		"ID": 69,
		"Name": "推进战队伍编成",
		"OpenTrigger": [
			"UserGuideTrigger_EndUIState"
		],
		"OTParam": [
			"RushBattleUIPrefab,Show"
		],
		"OpenCondition": "UserGuideCondition_GuideNFinished",
		"OCParam": "68",
		"FirstStepID": 59000,
		"CompleteTrigger": "UserGuideTrigger_FinishGuideStepN",
		"CTParam": "59020",
		"OpenCondition2": "UserGuideCondition_",
		"OCParam2": ""
	},
	{
		"ID": 70,
		"Name": "推进战新手关卡-2",
		"OpenTrigger": [
			"UserGuideTrigger_HideObject"
		],
		"OTParam": [
			"BattleTurnUIPrefab\\TurnStart"
		],
		"OpenCondition": "UserGuideCondition_IsRunningRushBattleN",
		"OCParam": "1",
		"FirstStepID": 57200,
		"CompleteTrigger": "UserGuideTrigger_",
		"CTParam": "",
		"OpenCondition2": "UserGuideCondition_IsTheTurn",
		"OCParam2": "0,2"
	},
	{
		"ID": 101,
		"Name": "时空裂缝第1章是否打开过",
		"OpenTrigger": [
			"UserGuideTrigger_ShowObject"
		],
		"OTParam": [
			"RiftLevelUIPrefab\\ChapterBG\\RiftPanel01UIPrefab(Clone)\\Levels\\01\\RiftLevelButton(Clone)\\FrameImage"
		],
		"OpenCondition": "UserGuideCondition_RiftChapterNUnlockable",
		"OCParam": "-1",
		"FirstStepID": 60001,
		"CompleteTrigger": "UserGuideTrigger_FinishGuideStepN",
		"CTParam": "60001",
		"OpenCondition2": "UserGuideCondition_",
		"OCParam2": ""
	},
	{
		"ID": 102,
		"Name": "时空裂缝第2章是否打开过",
		"OpenTrigger": [
			"UserGuideTrigger_ShowObject"
		],
		"OTParam": [
			"RiftLevelUIPrefab\\ChapterBG\\RiftPanel02UIPrefab(Clone)\\Levels\\01\\RiftLevelButton(Clone)\\FrameImage"
		],
		"OpenCondition": "UserGuideCondition_RiftChapterNUnlockable",
		"OCParam": "-1",
		"FirstStepID": 60002,
		"CompleteTrigger": "UserGuideTrigger_FinishGuideStepN",
		"CTParam": "60002",
		"OpenCondition2": "UserGuideCondition_",
		"OCParam2": ""
	},
	{
		"ID": 103,
		"Name": "时空裂缝第3章是否打开过",
		"OpenTrigger": [
			"UserGuideTrigger_ShowObject"
		],
		"OTParam": [
			"RiftLevelUIPrefab\\ChapterBG\\RiftPanel03UIPrefab(Clone)\\Levels\\01\\RiftLevelButton(Clone)\\FrameImage"
		],
		"OpenCondition": "UserGuideCondition_RiftChapterNUnlockable",
		"OCParam": "-1",
		"FirstStepID": 60003,
		"CompleteTrigger": "UserGuideTrigger_FinishGuideStepN",
		"CTParam": "60003",
		"OpenCondition2": "UserGuideCondition_",
		"OCParam2": ""
	},
	{
		"ID": 104,
		"Name": "时空裂缝第4章是否打开过",
		"OpenTrigger": [
			"UserGuideTrigger_ShowObject"
		],
		"OTParam": [
			"RiftLevelUIPrefab\\ChapterBG\\RiftPanel04UIPrefab(Clone)\\Levels\\01\\RiftLevelButton(Clone)\\FrameImage"
		],
		"OpenCondition": "UserGuideCondition_RiftChapterNUnlockable",
		"OCParam": "-1",
		"FirstStepID": 60004,
		"CompleteTrigger": "UserGuideTrigger_FinishGuideStepN",
		"CTParam": "60004",
		"OpenCondition2": "UserGuideCondition_",
		"OCParam2": ""
	},
	{
		"ID": 105,
		"Name": "时空裂缝第5章是否打开过",
		"OpenTrigger": [
			"UserGuideTrigger_ShowObject"
		],
		"OTParam": [
			"RiftLevelUIPrefab\\ChapterBG\\RiftPanel05UIPrefab(Clone)\\Levels\\01\\RiftLevelButton(Clone)\\FrameImage"
		],
		"OpenCondition": "UserGuideCondition_RiftChapterNUnlockable",
		"OCParam": "-1",
		"FirstStepID": 60005,
		"CompleteTrigger": "UserGuideTrigger_FinishGuideStepN",
		"CTParam": "60005",
		"OpenCondition2": "UserGuideCondition_",
		"OCParam2": ""
	},
	{
		"ID": 106,
		"Name": "时空裂缝第6章是否打开过",
		"OpenTrigger": [
			"UserGuideTrigger_ShowObject"
		],
		"OTParam": [
			"RiftLevelUIPrefab\\ChapterBG\\RiftPanel06UIPrefab(Clone)\\Levels\\01\\RiftLevelButton(Clone)\\FrameImage"
		],
		"OpenCondition": "UserGuideCondition_RiftChapterNUnlockable",
		"OCParam": "-1",
		"FirstStepID": 60006,
		"CompleteTrigger": "UserGuideTrigger_FinishGuideStepN",
		"CTParam": "60006",
		"OpenCondition2": "UserGuideCondition_",
		"OCParam2": ""
	},
	{
		"ID": 107,
		"Name": "时空裂缝第7章是否打开过",
		"OpenTrigger": [
			"UserGuideTrigger_ShowObject"
		],
		"OTParam": [
			"RiftLevelUIPrefab\\ChapterBG\\RiftPanel07UIPrefab(Clone)\\Levels\\01\\RiftLevelButton(Clone)\\FrameImage"
		],
		"OpenCondition": "UserGuideCondition_RiftChapterNUnlockable",
		"OCParam": "-1",
		"FirstStepID": 60007,
		"CompleteTrigger": "UserGuideTrigger_FinishGuideStepN",
		"CTParam": "60007",
		"OpenCondition2": "UserGuideCondition_",
		"OCParam2": ""
	},
	{
		"ID": 108,
		"Name": "时空裂缝第8章是否打开过",
		"OpenTrigger": [
			"UserGuideTrigger_ShowObject"
		],
		"OTParam": [
			"RiftLevelUIPrefab\\ChapterBG\\RiftPanel08UIPrefab(Clone)\\Levels\\01\\RiftLevelButton(Clone)\\FrameImage"
		],
		"OpenCondition": "UserGuideCondition_RiftChapterNUnlockable",
		"OCParam": "-1",
		"FirstStepID": 60008,
		"CompleteTrigger": "UserGuideTrigger_FinishGuideStepN",
		"CTParam": "60008",
		"OpenCondition2": "UserGuideCondition_",
		"OCParam2": ""
	},
	{
		"ID": 109,
		"Name": "时空裂缝第9章是否打开过",
		"OpenTrigger": [
			"UserGuideTrigger_ShowObject"
		],
		"OTParam": [
			"RiftLevelUIPrefab\\ChapterBG\\RiftPanel09UIPrefab(Clone)\\Levels\\01\\RiftLevelButton(Clone)\\FrameImage"
		],
		"OpenCondition": "UserGuideCondition_RiftChapterNUnlockable",
		"OCParam": "-1",
		"FirstStepID": 60009,
		"CompleteTrigger": "UserGuideTrigger_FinishGuideStepN",
		"CTParam": "60009",
		"OpenCondition2": "UserGuideCondition_",
		"OCParam2": ""
	},
	{
		"ID": 110,
		"Name": "时空裂缝第10章是否打开过",
		"OpenTrigger": [
			"UserGuideTrigger_ShowObject"
		],
		"OTParam": [
			"RiftLevelUIPrefab\\ChapterBG\\RiftPanel10UIPrefab(Clone)\\Levels\\01\\RiftLevelButton(Clone)\\FrameImage"
		],
		"OpenCondition": "UserGuideCondition_RiftChapterNUnlockable",
		"OCParam": "-1",
		"FirstStepID": 60010,
		"CompleteTrigger": "UserGuideTrigger_FinishGuideStepN",
		"CTParam": "60010",
		"OpenCondition2": "UserGuideCondition_",
		"OCParam2": ""
	},
	{
		"ID": 111,
		"Name": "时空裂缝第11章是否打开过",
		"OpenTrigger": [
			"UserGuideTrigger_ShowObject"
		],
		"OTParam": [
			"RiftLevelUIPrefab\\ChapterBG\\RiftPanel11UIPrefab(Clone)\\Levels\\01\\RiftLevelButton(Clone)\\FrameImage"
		],
		"OpenCondition": "UserGuideCondition_RiftChapterNUnlockable",
		"OCParam": "-1",
		"FirstStepID": 60011,
		"CompleteTrigger": "UserGuideTrigger_FinishGuideStepN",
		"CTParam": "60011",
		"OpenCondition2": "UserGuideCondition_",
		"OCParam2": ""
	},
	{
		"ID": 112,
		"Name": "时空裂缝第12章是否打开过",
		"OpenTrigger": [
			"UserGuideTrigger_ShowObject"
		],
		"OTParam": [
			"RiftLevelUIPrefab\\ChapterBG\\RiftPanel12UIPrefab(Clone)\\Levels\\01\\RiftLevelButton(Clone)\\FrameImage"
		],
		"OpenCondition": "UserGuideCondition_RiftChapterNUnlockable",
		"OCParam": "-1",
		"FirstStepID": 60012,
		"CompleteTrigger": "UserGuideTrigger_FinishGuideStepN",
		"CTParam": "60012",
		"OpenCondition2": "UserGuideCondition_",
		"OCParam2": ""
	},
	{
		"ID": 113,
		"Name": "时空裂缝第13章是否打开过",
		"OpenTrigger": [
			"UserGuideTrigger_ShowObject"
		],
		"OTParam": [
			"RiftLevelUIPrefab\\ChapterBG\\RiftPanel13UIPrefab(Clone)\\Levels\\01\\RiftLevelButton(Clone)\\FrameImage"
		],
		"OpenCondition": "UserGuideCondition_RiftChapterNUnlockable",
		"OCParam": "-1",
		"FirstStepID": 60013,
		"CompleteTrigger": "UserGuideTrigger_FinishGuideStepN",
		"CTParam": "60013",
		"OpenCondition2": "UserGuideCondition_",
		"OCParam2": ""
	},
	{
		"ID": 114,
		"Name": "时空裂缝第14章是否打开过",
		"OpenTrigger": [
			"UserGuideTrigger_ShowObject"
		],
		"OTParam": [
			"RiftLevelUIPrefab\\ChapterBG\\RiftPanel14UIPrefab(Clone)\\Levels\\01\\RiftLevelButton(Clone)\\FrameImage"
		],
		"OpenCondition": "UserGuideCondition_RiftChapterNUnlockable",
		"OCParam": "-1",
		"FirstStepID": 60014,
		"CompleteTrigger": "UserGuideTrigger_FinishGuideStepN",
		"CTParam": "60014",
		"OpenCondition2": "UserGuideCondition_",
		"OCParam2": ""
	},
	{
		"ID": 115,
		"Name": "时空裂缝第15章是否打开过",
		"OpenTrigger": [
			"UserGuideTrigger_ShowObject"
		],
		"OTParam": [
			"RiftLevelUIPrefab\\ChapterBG\\RiftPanel15UIPrefab(Clone)\\Levels\\01\\RiftLevelButton(Clone)\\FrameImage"
		],
		"OpenCondition": "UserGuideCondition_RiftChapterNUnlockable",
		"OCParam": "-1",
		"FirstStepID": 60015,
		"CompleteTrigger": "UserGuideTrigger_FinishGuideStepN",
		"CTParam": "60015",
		"OpenCondition2": "UserGuideCondition_",
		"OCParam2": ""
	},
	{
		"ID": 116,
		"Name": "时空裂缝第16章是否打开过",
		"OpenTrigger": [
			"UserGuideTrigger_ShowObject"
		],
		"OTParam": [
			"RiftLevelUIPrefab\\ChapterBG\\RiftPanel16UIPrefab(Clone)\\Levels\\01\\RiftLevelButton(Clone)\\FrameImage"
		],
		"OpenCondition": "UserGuideCondition_RiftChapterNUnlockable",
		"OCParam": "-1",
		"FirstStepID": 60016,
		"CompleteTrigger": "UserGuideTrigger_FinishGuideStepN",
		"CTParam": "60016",
		"OpenCondition2": "UserGuideCondition_",
		"OCParam2": ""
	},
	{
		"ID": 117,
		"Name": "时空裂缝第17章是否打开过",
		"OpenTrigger": [
			"UserGuideTrigger_ShowObject"
		],
		"OTParam": [
			"RiftLevelUIPrefab\\ChapterBG\\RiftPanel17UIPrefab(Clone)\\Levels\\01\\RiftLevelButton(Clone)\\FrameImage"
		],
		"OpenCondition": "UserGuideCondition_RiftChapterNUnlockable",
		"OCParam": "-1",
		"FirstStepID": 60017,
		"CompleteTrigger": "UserGuideTrigger_FinishGuideStepN",
		"CTParam": "60017",
		"OpenCondition2": "UserGuideCondition_",
		"OCParam2": ""
	},
	{
		"ID": 118,
		"Name": "时空裂缝第18章是否打开过",
		"OpenTrigger": [
			"UserGuideTrigger_ShowObject"
		],
		"OTParam": [
			"RiftLevelUIPrefab\\ChapterBG\\RiftPanel18UIPrefab(Clone)\\Levels\\01\\RiftLevelButton(Clone)\\FrameImage"
		],
		"OpenCondition": "UserGuideCondition_RiftChapterNUnlockable",
		"OCParam": "-1",
		"FirstStepID": 60018,
		"CompleteTrigger": "UserGuideTrigger_FinishGuideStepN",
		"CTParam": "60018",
		"OpenCondition2": "UserGuideCondition_",
		"OCParam2": ""
	},
	{
		"ID": 119,
		"Name": "时空裂缝第19章是否打开过",
		"OpenTrigger": [
			"UserGuideTrigger_ShowObject"
		],
		"OTParam": [
			"RiftLevelUIPrefab\\ChapterBG\\RiftPanel19UIPrefab(Clone)\\Levels\\01\\RiftLevelButton(Clone)\\FrameImage"
		],
		"OpenCondition": "UserGuideCondition_RiftChapterNUnlockable",
		"OCParam": "-1",
		"FirstStepID": 60019,
		"CompleteTrigger": "UserGuideTrigger_FinishGuideStepN",
		"CTParam": "60019",
		"OpenCondition2": "UserGuideCondition_",
		"OCParam2": ""
	},
	{
		"ID": 120,
		"Name": "时空裂缝第20章是否打开过",
		"OpenTrigger": [
			"UserGuideTrigger_ShowObject"
		],
		"OTParam": [
			"RiftLevelUIPrefab\\ChapterBG\\RiftPanel20UIPrefab(Clone)\\Levels\\01\\RiftLevelButton(Clone)\\FrameImage"
		],
		"OpenCondition": "UserGuideCondition_RiftChapterNUnlockable",
		"OCParam": "-1",
		"FirstStepID": 60020,
		"CompleteTrigger": "UserGuideTrigger_FinishGuideStepN",
		"CTParam": "60020",
		"OpenCondition2": "UserGuideCondition_",
		"OCParam2": ""
	},
	{
		"ID": 121,
		"Name": "时空裂缝第21章是否打开过",
		"OpenTrigger": [
			"UserGuideTrigger_ShowObject"
		],
		"OTParam": [
			"RiftLevelUIPrefab\\ChapterBG\\RiftPanel21UIPrefab(Clone)\\Levels\\01\\RiftLevelButton(Clone)\\FrameImage"
		],
		"OpenCondition": "UserGuideCondition_RiftChapterNUnlockable",
		"OCParam": "-1",
		"FirstStepID": 60021,
		"CompleteTrigger": "UserGuideTrigger_FinishGuideStepN",
		"CTParam": "60021",
		"OpenCondition2": "UserGuideCondition_",
		"OCParam2": ""
	},
	{
		"ID": 122,
		"Name": "时空裂缝第22章是否打开过",
		"OpenTrigger": [
			"UserGuideTrigger_ShowObject"
		],
		"OTParam": [
			"RiftLevelUIPrefab\\ChapterBG\\RiftPanel22UIPrefab(Clone)\\Levels\\01\\RiftLevelButton(Clone)\\FrameImage"
		],
		"OpenCondition": "UserGuideCondition_RiftChapterNUnlockable",
		"OCParam": "-1",
		"FirstStepID": 60022,
		"CompleteTrigger": "UserGuideTrigger_FinishGuideStepN",
		"CTParam": "60022",
		"OpenCondition2": "UserGuideCondition_",
		"OCParam2": ""
	},
	{
		"ID": 123,
		"Name": "时空裂缝第23章是否打开过",
		"OpenTrigger": [
			"UserGuideTrigger_ShowObject"
		],
		"OTParam": [
			"RiftLevelUIPrefab\\ChapterBG\\RiftPanel23UIPrefab(Clone)\\Levels\\01\\RiftLevelButton(Clone)\\FrameImage"
		],
		"OpenCondition": "UserGuideCondition_RiftChapterNUnlockable",
		"OCParam": "-1",
		"FirstStepID": 60023,
		"CompleteTrigger": "UserGuideTrigger_FinishGuideStepN",
		"CTParam": "60023",
		"OpenCondition2": "UserGuideCondition_",
		"OCParam2": ""
	},
	{
		"ID": 124,
		"Name": "时空裂缝第24章是否打开过",
		"OpenTrigger": [
			"UserGuideTrigger_ShowObject"
		],
		"OTParam": [
			"RiftLevelUIPrefab\\ChapterBG\\RiftPanel24UIPrefab(Clone)\\Levels\\01\\RiftLevelButton(Clone)\\FrameImage"
		],
		"OpenCondition": "UserGuideCondition_RiftChapterNUnlockable",
		"OCParam": "-1",
		"FirstStepID": 60024,
		"CompleteTrigger": "UserGuideTrigger_FinishGuideStepN",
		"CTParam": "60024",
		"OpenCondition2": "UserGuideCondition_",
		"OCParam2": ""
	},
	{
		"ID": 125,
		"Name": "时空裂缝第25章是否打开过",
		"OpenTrigger": [
			"UserGuideTrigger_ShowObject"
		],
		"OTParam": [
			"RiftLevelUIPrefab\\ChapterBG\\RiftPanel25UIPrefab(Clone)\\Levels\\01\\RiftLevelButton(Clone)\\FrameImage"
		],
		"OpenCondition": "UserGuideCondition_RiftChapterNUnlockable",
		"OCParam": "-1",
		"FirstStepID": 60025,
		"CompleteTrigger": "UserGuideTrigger_FinishGuideStepN",
		"CTParam": "60025",
		"OpenCondition2": "UserGuideCondition_",
		"OCParam2": ""
	},
	{
		"ID": 126,
		"Name": "时空裂缝第26章是否打开过",
		"OpenTrigger": [
			"UserGuideTrigger_ShowObject"
		],
		"OTParam": [
			"RiftLevelUIPrefab\\ChapterBG\\RiftPanel26UIPrefab(Clone)\\Levels\\01\\RiftLevelButton(Clone)\\FrameImage"
		],
		"OpenCondition": "UserGuideCondition_RiftChapterNUnlockable",
		"OCParam": "-1",
		"FirstStepID": 60026,
		"CompleteTrigger": "UserGuideTrigger_FinishGuideStepN",
		"CTParam": "60026",
		"OpenCondition2": "UserGuideCondition_",
		"OCParam2": ""
	},
	{
		"ID": 127,
		"Name": "时空裂缝第27章是否打开过",
		"OpenTrigger": [
			"UserGuideTrigger_ShowObject"
		],
		"OTParam": [
			"RiftLevelUIPrefab\\ChapterBG\\RiftPanel27UIPrefab(Clone)\\Levels\\01\\RiftLevelButton(Clone)\\FrameImage"
		],
		"OpenCondition": "UserGuideCondition_RiftChapterNUnlockable",
		"OCParam": "-1",
		"FirstStepID": 60027,
		"CompleteTrigger": "UserGuideTrigger_FinishGuideStepN",
		"CTParam": "60027",
		"OpenCondition2": "UserGuideCondition_",
		"OCParam2": ""
	},
	{
		"ID": 128,
		"Name": "时空裂缝第28章是否打开过",
		"OpenTrigger": [
			"UserGuideTrigger_ShowObject"
		],
		"OTParam": [
			"RiftLevelUIPrefab\\ChapterBG\\RiftPanel28UIPrefab(Clone)\\Levels\\01\\RiftLevelButton(Clone)\\FrameImage"
		],
		"OpenCondition": "UserGuideCondition_RiftChapterNUnlockable",
		"OCParam": "-1",
		"FirstStepID": 60028,
		"CompleteTrigger": "UserGuideTrigger_FinishGuideStepN",
		"CTParam": "60028",
		"OpenCondition2": "UserGuideCondition_",
		"OCParam2": ""
	},
	{
		"ID": 129,
		"Name": "时空裂缝第29章是否打开过",
		"OpenTrigger": [
			"UserGuideTrigger_ShowObject"
		],
		"OTParam": [
			"RiftLevelUIPrefab\\ChapterBG\\RiftPanel29UIPrefab(Clone)\\Levels\\01\\RiftLevelButton(Clone)\\FrameImage"
		],
		"OpenCondition": "UserGuideCondition_RiftChapterNUnlockable",
		"OCParam": "-1",
		"FirstStepID": 60029,
		"CompleteTrigger": "UserGuideTrigger_FinishGuideStepN",
		"CTParam": "60029",
		"OpenCondition2": "UserGuideCondition_",
		"OCParam2": ""
	},
	{
		"ID": 130,
		"Name": "时空裂缝第30章是否打开过",
		"OpenTrigger": [
			"UserGuideTrigger_ShowObject"
		],
		"OTParam": [
			"RiftLevelUIPrefab\\ChapterBG\\RiftPanel30UIPrefab(Clone)\\Levels\\01\\RiftLevelButton(Clone)\\FrameImage"
		],
		"OpenCondition": "UserGuideCondition_RiftChapterNUnlockable",
		"OCParam": "-1",
		"FirstStepID": 60030,
		"CompleteTrigger": "UserGuideTrigger_FinishGuideStepN",
		"CTParam": "60030",
		"OpenCondition2": "UserGuideCondition_",
		"OCParam2": ""
	}
]