[
	{
		"ID": 1,
		"GroupId": 1,
		"Score": 90000,
		"Name": "阶段47",
		"RewardList": [
			{
				"GoodsType": "GoodsType_Crystal",
				"Id": 0,
				"Count": 50
			}
		],
		"RewardDisplayCount": 3
	},
	{
		"ID": 2,
		"GroupId": 1,
		"Score": 85000,
		"Name": "阶段46",
		"RewardList": [
			{
				"GoodsType": "GoodsType_Gold",
				"Id": 0,
				"Count": 650000
			}
		],
		"RewardDisplayCount": 3
	},
	{
		"ID": 3,
		"GroupId": 1,
		"Score": 81000,
		"Name": "阶段45",
		"RewardList": [
			{
				"GoodsType": "GoodsType_Item",
				"Id": 1074,
				"Count": 50
			}
		],
		"RewardDisplayCount": 3
	},
	{
		"ID": 4,
		"GroupId": 1,
		"Score": 77000,
		"Name": "阶段44",
		"RewardList": [
			{
				"GoodsType": "GoodsType_Item",
				"Id": 4026,
				"Count": 1
			}
		],
		"RewardDisplayCount": 3
	},
	{
		"ID": 5,
		"GroupId": 1,
		"Score": 73000,
		"Name": "阶段43",
		"RewardList": [
			{
				"GoodsType": "GoodsType_BrillianceMithralStone",
				"Id": 0,
				"Count": 100
			}
		],
		"RewardDisplayCount": 3
	},
	{
		"ID": 6,
		"GroupId": 1,
		"Score": 69000,
		"Name": "阶段42",
		"RewardList": [
			{
				"GoodsType": "GoodsType_Item",
				"Id": 3203,
				"Count": 8
			}
		],
		"RewardDisplayCount": 3
	},
	{
		"ID": 7,
		"GroupId": 1,
		"Score": 65500,
		"Name": "阶段41",
		"RewardList": [
			{
				"GoodsType": "GoodsType_Crystal",
				"Id": 0,
				"Count": 40
			}
		],
		"RewardDisplayCount": 3
	},
	{
		"ID": 8,
		"GroupId": 1,
		"Score": 62000,
		"Name": "阶段40",
		"RewardList": [
			{
				"GoodsType": "GoodsType_Item",
				"Id": 4001,
				"Count": 1
			}
		],
		"RewardDisplayCount": 3
	},
	{
		"ID": 9,
		"GroupId": 1,
		"Score": 58500,
		"Name": "阶段39",
		"RewardList": [
			{
				"GoodsType": "GoodsType_Gold",
				"Id": 0,
				"Count": 500000
			}
		],
		"RewardDisplayCount": 3
	},
	{
		"ID": 10,
		"GroupId": 1,
		"Score": 55000,
		"Name": "阶段38",
		"RewardList": [
			{
				"GoodsType": "GoodsType_Item",
				"Id": 4013,
				"Count": 1
			}
		],
		"RewardDisplayCount": 3
	},
	{
		"ID": 11,
		"GroupId": 1,
		"Score": 51500,
		"Name": "阶段37",
		"RewardList": [
			{
				"GoodsType": "GoodsType_Item",
				"Id": 1074,
				"Count": 40
			}
		],
		"RewardDisplayCount": 3
	},
	{
		"ID": 12,
		"GroupId": 1,
		"Score": 48000,
		"Name": "阶段36",
		"RewardList": [
			{
				"GoodsType": "GoodsType_Item",
				"Id": 3009,
				"Count": 1
			}
		],
		"RewardDisplayCount": 3
	},
	{
		"ID": 13,
		"GroupId": 1,
		"Score": 45000,
		"Name": "阶段35",
		"RewardList": [
			{
				"GoodsType": "GoodsType_BrillianceMithralStone",
				"Id": 0,
				"Count": 100
			}
		],
		"RewardDisplayCount": 3
	},
	{
		"ID": 14,
		"GroupId": 1,
		"Score": 42000,
		"Name": "阶段34",
		"RewardList": [
			{
				"GoodsType": "GoodsType_Item",
				"Id": 4012,
				"Count": 1
			}
		],
		"RewardDisplayCount": 3
	},
	{
		"ID": 15,
		"GroupId": 1,
		"Score": 39000,
		"Name": "阶段33",
		"RewardList": [
			{
				"GoodsType": "GoodsType_Item",
				"Id": 3203,
				"Count": 5
			}
		],
		"RewardDisplayCount": 3
	},
	{
		"ID": 16,
		"GroupId": 1,
		"Score": 36000,
		"Name": "阶段32",
		"RewardList": [
			{
				"GoodsType": "GoodsType_Item",
				"Id": 4026,
				"Count": 1
			}
		],
		"RewardDisplayCount": 3
	},
	{
		"ID": 17,
		"GroupId": 1,
		"Score": 33000,
		"Name": "阶段31",
		"RewardList": [
			{
				"GoodsType": "GoodsType_SkinTicket",
				"Id": 0,
				"Count": 50
			}
		],
		"RewardDisplayCount": 3
	},
	{
		"ID": 18,
		"GroupId": 1,
		"Score": 30000,
		"Name": "阶段30",
		"RewardList": [
			{
				"GoodsType": "GoodsType_Gold",
				"Id": 0,
				"Count": 350000
			}
		],
		"RewardDisplayCount": 3
	},
	{
		"ID": 19,
		"GroupId": 1,
		"Score": 27000,
		"Name": "阶段29",
		"RewardList": [
			{
				"GoodsType": "GoodsType_Crystal",
				"Id": 0,
				"Count": 30
			}
		],
		"RewardDisplayCount": 3
	},
	{
		"ID": 20,
		"GroupId": 1,
		"Score": 24500,
		"Name": "阶段28",
		"RewardList": [
			{
				"GoodsType": "GoodsType_Item",
				"Id": 6012,
				"Count": 6
			},
			{
				"GoodsType": "GoodsType_Item",
				"Id": 6015,
				"Count": 6
			},
			{
				"GoodsType": "GoodsType_Item",
				"Id": 6018,
				"Count": 6
			}
		],
		"RewardDisplayCount": 3
	},
	{
		"ID": 21,
		"GroupId": 1,
		"Score": 22000,
		"Name": "阶段27",
		"RewardList": [
			{
				"GoodsType": "GoodsType_Item",
				"Id": 4001,
				"Count": 1
			}
		],
		"RewardDisplayCount": 3
	},
	{
		"ID": 22,
		"GroupId": 1,
		"Score": 19500,
		"Name": "阶段26",
		"RewardList": [
			{
				"GoodsType": "GoodsType_Item",
				"Id": 1074,
				"Count": 30
			}
		],
		"RewardDisplayCount": 3
	},
	{
		"ID": 23,
		"GroupId": 1,
		"Score": 17000,
		"Name": "阶段25",
		"RewardList": [
			{
				"GoodsType": "GoodsType_Crystal",
				"Id": 0,
				"Count": 30
			}
		],
		"RewardDisplayCount": 3
	},
	{
		"ID": 24,
		"GroupId": 1,
		"Score": 15000,
		"Name": "阶段24",
		"RewardList": [
			{
				"GoodsType": "GoodsType_Item",
				"Id": 6003,
				"Count": 6
			},
			{
				"GoodsType": "GoodsType_Item",
				"Id": 6006,
				"Count": 6
			},
			{
				"GoodsType": "GoodsType_Item",
				"Id": 6009,
				"Count": 6
			}
		],
		"RewardDisplayCount": 3
	},
	{
		"ID": 25,
		"GroupId": 1,
		"Score": 13000,
		"Name": "阶段23",
		"RewardList": [
			{
				"GoodsType": "GoodsType_Equipment",
				"Id": 304,
				"Count": 2
			}
		],
		"RewardDisplayCount": 3
	},
	{
		"ID": 26,
		"GroupId": 1,
		"Score": 11500,
		"Name": "阶段22",
		"RewardList": [
			{
				"GoodsType": "GoodsType_Item",
				"Id": 3202,
				"Count": 8
			}
		],
		"RewardDisplayCount": 3
	},
	{
		"ID": 27,
		"GroupId": 1,
		"Score": 10000,
		"Name": "阶段21",
		"RewardList": [
			{
				"GoodsType": "GoodsType_Item",
				"Id": 1074,
				"Count": 20
			}
		],
		"RewardDisplayCount": 3
	},
	{
		"ID": 28,
		"GroupId": 1,
		"Score": 9000,
		"Name": "阶段20",
		"RewardList": [
			{
				"GoodsType": "GoodsType_Gold",
				"Id": 0,
				"Count": 250000
			}
		],
		"RewardDisplayCount": 3
	},
	{
		"ID": 29,
		"GroupId": 1,
		"Score": 8000,
		"Name": "阶段19",
		"RewardList": [
			{
				"GoodsType": "GoodsType_Item",
				"Id": 4001,
				"Count": 1
			}
		],
		"RewardDisplayCount": 3
	},
	{
		"ID": 30,
		"GroupId": 1,
		"Score": 7000,
		"Name": "阶段18",
		"RewardList": [
			{
				"GoodsType": "GoodsType_Item",
				"Id": 4012,
				"Count": 1
			}
		],
		"RewardDisplayCount": 3
	},
	{
		"ID": 31,
		"GroupId": 1,
		"Score": 6000,
		"Name": "阶段17",
		"RewardList": [
			{
				"GoodsType": "GoodsType_Item",
				"Id": 1074,
				"Count": 20
			}
		],
		"RewardDisplayCount": 3
	},
	{
		"ID": 32,
		"GroupId": 1,
		"Score": 5500,
		"Name": "阶段16",
		"RewardList": [
			{
				"GoodsType": "GoodsType_Crystal",
				"Id": 0,
				"Count": 20
			}
		],
		"RewardDisplayCount": 3
	},
	{
		"ID": 33,
		"GroupId": 1,
		"Score": 5000,
		"Name": "阶段15",
		"RewardList": [
			{
				"GoodsType": "GoodsType_Item",
				"Id": 6011,
				"Count": 8
			},
			{
				"GoodsType": "GoodsType_Item",
				"Id": 6014,
				"Count": 8
			},
			{
				"GoodsType": "GoodsType_Item",
				"Id": 6017,
				"Count": 8
			}
		],
		"RewardDisplayCount": 3
	},
	{
		"ID": 34,
		"GroupId": 1,
		"Score": 4500,
		"Name": "阶段14",
		"RewardList": [
			{
				"GoodsType": "GoodsType_Equipment",
				"Id": 303,
				"Count": 5
			}
		],
		"RewardDisplayCount": 3
	},
	{
		"ID": 35,
		"GroupId": 1,
		"Score": 4000,
		"Name": "阶段13",
		"RewardList": [
			{
				"GoodsType": "GoodsType_Item",
				"Id": 1074,
				"Count": 20
			}
		],
		"RewardDisplayCount": 3
	},
	{
		"ID": 36,
		"GroupId": 1,
		"Score": 3500,
		"Name": "阶段12",
		"RewardList": [
			{
				"GoodsType": "GoodsType_Item",
				"Id": 3201,
				"Count": 12
			}
		],
		"RewardDisplayCount": 3
	},
	{
		"ID": 37,
		"GroupId": 1,
		"Score": 3000,
		"Name": "阶段11",
		"RewardList": [
			{
				"GoodsType": "GoodsType_Gold",
				"Id": 0,
				"Count": 150000
			}
		],
		"RewardDisplayCount": 3
	},
	{
		"ID": 38,
		"GroupId": 1,
		"Score": 2500,
		"Name": "阶段10",
		"RewardList": [
			{
				"GoodsType": "GoodsType_Item",
				"Id": 4001,
				"Count": 1
			}
		],
		"RewardDisplayCount": 3
	},
	{
		"ID": 39,
		"GroupId": 1,
		"Score": 2000,
		"Name": "阶段9",
		"RewardList": [
			{
				"GoodsType": "GoodsType_Item",
				"Id": 1074,
				"Count": 20
			}
		],
		"RewardDisplayCount": 3
	},
	{
		"ID": 40,
		"GroupId": 1,
		"Score": 1500,
		"Name": "阶段8",
		"RewardList": [
			{
				"GoodsType": "GoodsType_Crystal",
				"Id": 0,
				"Count": 10
			}
		],
		"RewardDisplayCount": 3
	},
	{
		"ID": 41,
		"GroupId": 1,
		"Score": 1000,
		"Name": "阶段7",
		"RewardList": [
			{
				"GoodsType": "GoodsType_Item",
				"Id": 6002,
				"Count": 8
			},
			{
				"GoodsType": "GoodsType_Item",
				"Id": 6005,
				"Count": 8
			},
			{
				"GoodsType": "GoodsType_Item",
				"Id": 6008,
				"Count": 8
			}
		],
		"RewardDisplayCount": 3
	},
	{
		"ID": 42,
		"GroupId": 1,
		"Score": 700,
		"Name": "阶段6",
		"RewardList": [
			{
				"GoodsType": "GoodsType_Item",
				"Id": 3503,
				"Count": 1
			}
		],
		"RewardDisplayCount": 3
	},
	{
		"ID": 43,
		"GroupId": 1,
		"Score": 500,
		"Name": "阶段5",
		"RewardList": [
			{
				"GoodsType": "GoodsType_Item",
				"Id": 1074,
				"Count": 10
			}
		],
		"RewardDisplayCount": 3
	},
	{
		"ID": 44,
		"GroupId": 1,
		"Score": 400,
		"Name": "阶段4",
		"RewardList": [
			{
				"GoodsType": "GoodsType_Item",
				"Id": 3201,
				"Count": 8
			}
		],
		"RewardDisplayCount": 3
	},
	{
		"ID": 45,
		"GroupId": 1,
		"Score": 300,
		"Name": "阶段3",
		"RewardList": [
			{
				"GoodsType": "GoodsType_Item",
				"Id": 4001,
				"Count": 1
			}
		],
		"RewardDisplayCount": 3
	},
	{
		"ID": 46,
		"GroupId": 1,
		"Score": 200,
		"Name": "阶段2",
		"RewardList": [
			{
				"GoodsType": "GoodsType_Gold",
				"Id": 0,
				"Count": 100000
			}
		],
		"RewardDisplayCount": 3
	},
	{
		"ID": 47,
		"GroupId": 1,
		"Score": 100,
		"Name": "阶段1",
		"RewardList": [
			{
				"GoodsType": "GoodsType_Crystal",
				"Id": 0,
				"Count": 10
			}
		],
		"RewardDisplayCount": 3
	},
	{
		"ID": 48,
		"GroupId": 2,
		"Score": 90000,
		"Name": "阶段47",
		"RewardList": [
			{
				"GoodsType": "GoodsType_Crystal",
				"Id": 0,
				"Count": 50
			}
		],
		"RewardDisplayCount": 3
	},
	{
		"ID": 49,
		"GroupId": 2,
		"Score": 85000,
		"Name": "阶段46",
		"RewardList": [
			{
				"GoodsType": "GoodsType_Gold",
				"Id": 0,
				"Count": 500000
			}
		],
		"RewardDisplayCount": 3
	},
	{
		"ID": 50,
		"GroupId": 2,
		"Score": 81000,
		"Name": "阶段45",
		"RewardList": [
			{
				"GoodsType": "GoodsType_Item",
				"Id": 3246,
				"Count": 3
			}
		],
		"RewardDisplayCount": 3
	},
	{
		"ID": 51,
		"GroupId": 2,
		"Score": 77000,
		"Name": "阶段44",
		"RewardList": [
			{
				"GoodsType": "GoodsType_Item",
				"Id": 4021,
				"Count": 1
			}
		],
		"RewardDisplayCount": 3
	},
	{
		"ID": 52,
		"GroupId": 2,
		"Score": 73000,
		"Name": "阶段43",
		"RewardList": [
			{
				"GoodsType": "GoodsType_BrillianceMithralStone",
				"Id": 0,
				"Count": 100
			}
		],
		"RewardDisplayCount": 3
	},
	{
		"ID": 53,
		"GroupId": 2,
		"Score": 69000,
		"Name": "阶段42",
		"RewardList": [
			{
				"GoodsType": "GoodsType_Item",
				"Id": 3203,
				"Count": 8
			}
		],
		"RewardDisplayCount": 3
	},
	{
		"ID": 54,
		"GroupId": 2,
		"Score": 65500,
		"Name": "阶段41",
		"RewardList": [
			{
				"GoodsType": "GoodsType_Crystal",
				"Id": 0,
				"Count": 40
			}
		],
		"RewardDisplayCount": 3
	},
	{
		"ID": 55,
		"GroupId": 2,
		"Score": 62000,
		"Name": "阶段40",
		"RewardList": [
			{
				"GoodsType": "GoodsType_Item",
				"Id": 4001,
				"Count": 1
			}
		],
		"RewardDisplayCount": 3
	},
	{
		"ID": 56,
		"GroupId": 2,
		"Score": 58500,
		"Name": "阶段39",
		"RewardList": [
			{
				"GoodsType": "GoodsType_Gold",
				"Id": 0,
				"Count": 400000
			}
		],
		"RewardDisplayCount": 3
	},
	{
		"ID": 57,
		"GroupId": 2,
		"Score": 55000,
		"Name": "阶段38",
		"RewardList": [
			{
				"GoodsType": "GoodsType_Item",
				"Id": 4013,
				"Count": 1
			}
		],
		"RewardDisplayCount": 3
	},
	{
		"ID": 58,
		"GroupId": 2,
		"Score": 51500,
		"Name": "阶段37",
		"RewardList": [
			{
				"GoodsType": "GoodsType_Item",
				"Id": 4529,
				"Count": 3
			}
		],
		"RewardDisplayCount": 3
	},
	{
		"ID": 59,
		"GroupId": 2,
		"Score": 48000,
		"Name": "阶段36",
		"RewardList": [
			{
				"GoodsType": "GoodsType_Item",
				"Id": 3009,
				"Count": 1
			}
		],
		"RewardDisplayCount": 3
	},
	{
		"ID": 60,
		"GroupId": 2,
		"Score": 45000,
		"Name": "阶段35",
		"RewardList": [
			{
				"GoodsType": "GoodsType_BrillianceMithralStone",
				"Id": 0,
				"Count": 100
			}
		],
		"RewardDisplayCount": 3
	},
	{
		"ID": 61,
		"GroupId": 2,
		"Score": 42000,
		"Name": "阶段34",
		"RewardList": [
			{
				"GoodsType": "GoodsType_Item",
				"Id": 4528,
				"Count": 3
			}
		],
		"RewardDisplayCount": 3
	},
	{
		"ID": 62,
		"GroupId": 2,
		"Score": 39000,
		"Name": "阶段33",
		"RewardList": [
			{
				"GoodsType": "GoodsType_Item",
				"Id": 3246,
				"Count": 2
			}
		],
		"RewardDisplayCount": 3
	},
	{
		"ID": 63,
		"GroupId": 2,
		"Score": 36000,
		"Name": "阶段32",
		"RewardList": [
			{
				"GoodsType": "GoodsType_Item",
				"Id": 4023,
				"Count": 1
			}
		],
		"RewardDisplayCount": 3
	},
	{
		"ID": 64,
		"GroupId": 2,
		"Score": 33000,
		"Name": "阶段31",
		"RewardList": [
			{
				"GoodsType": "GoodsType_HeroSkin",
				"Id": 403,
				"Count": 1
			}
		],
		"RewardDisplayCount": 3
	},
	{
		"ID": 65,
		"GroupId": 2,
		"Score": 30000,
		"Name": "阶段30",
		"RewardList": [
			{
				"GoodsType": "GoodsType_Gold",
				"Id": 0,
				"Count": 300000
			}
		],
		"RewardDisplayCount": 3
	},
	{
		"ID": 66,
		"GroupId": 2,
		"Score": 27000,
		"Name": "阶段29",
		"RewardList": [
			{
				"GoodsType": "GoodsType_Crystal",
				"Id": 0,
				"Count": 30
			}
		],
		"RewardDisplayCount": 3
	},
	{
		"ID": 67,
		"GroupId": 2,
		"Score": 24500,
		"Name": "阶段28",
		"RewardList": [
			{
				"GoodsType": "GoodsType_Item",
				"Id": 4528,
				"Count": 2
			}
		],
		"RewardDisplayCount": 3
	},
	{
		"ID": 68,
		"GroupId": 2,
		"Score": 22000,
		"Name": "阶段27",
		"RewardList": [
			{
				"GoodsType": "GoodsType_Item",
				"Id": 4001,
				"Count": 1
			}
		],
		"RewardDisplayCount": 3
	},
	{
		"ID": 69,
		"GroupId": 2,
		"Score": 19500,
		"Name": "阶段26",
		"RewardList": [
			{
				"GoodsType": "GoodsType_Item",
				"Id": 3203,
				"Count": 5
			}
		],
		"RewardDisplayCount": 3
	},
	{
		"ID": 70,
		"GroupId": 2,
		"Score": 17000,
		"Name": "阶段25",
		"RewardList": [
			{
				"GoodsType": "GoodsType_Crystal",
				"Id": 0,
				"Count": 30
			}
		],
		"RewardDisplayCount": 3
	},
	{
		"ID": 71,
		"GroupId": 2,
		"Score": 15000,
		"Name": "阶段24",
		"RewardList": [
			{
				"GoodsType": "GoodsType_Item",
				"Id": 4529,
				"Count": 2
			}
		],
		"RewardDisplayCount": 3
	},
	{
		"ID": 72,
		"GroupId": 2,
		"Score": 13000,
		"Name": "阶段23",
		"RewardList": [
			{
				"GoodsType": "GoodsType_Equipment",
				"Id": 304,
				"Count": 2
			}
		],
		"RewardDisplayCount": 3
	},
	{
		"ID": 73,
		"GroupId": 2,
		"Score": 11500,
		"Name": "阶段22",
		"RewardList": [
			{
				"GoodsType": "GoodsType_Crystal",
				"Id": 0,
				"Count": 20
			}
		],
		"RewardDisplayCount": 3
	},
	{
		"ID": 74,
		"GroupId": 2,
		"Score": 10000,
		"Name": "阶段21",
		"RewardList": [
			{
				"GoodsType": "GoodsType_Item",
				"Id": 4528,
				"Count": 1
			}
		],
		"RewardDisplayCount": 3
	},
	{
		"ID": 75,
		"GroupId": 2,
		"Score": 9000,
		"Name": "阶段20",
		"RewardList": [
			{
				"GoodsType": "GoodsType_Gold",
				"Id": 0,
				"Count": 200000
			}
		],
		"RewardDisplayCount": 3
	},
	{
		"ID": 76,
		"GroupId": 2,
		"Score": 8000,
		"Name": "阶段19",
		"RewardList": [
			{
				"GoodsType": "GoodsType_Item",
				"Id": 4001,
				"Count": 1
			}
		],
		"RewardDisplayCount": 3
	},
	{
		"ID": 77,
		"GroupId": 2,
		"Score": 7000,
		"Name": "阶段18",
		"RewardList": [
			{
				"GoodsType": "GoodsType_Item",
				"Id": 4022,
				"Count": 1
			}
		],
		"RewardDisplayCount": 3
	},
	{
		"ID": 78,
		"GroupId": 2,
		"Score": 6000,
		"Name": "阶段17",
		"RewardList": [
			{
				"GoodsType": "GoodsType_Item",
				"Id": 3202,
				"Count": 8
			}
		],
		"RewardDisplayCount": 3
	},
	{
		"ID": 79,
		"GroupId": 2,
		"Score": 5500,
		"Name": "阶段16",
		"RewardList": [
			{
				"GoodsType": "GoodsType_Crystal",
				"Id": 0,
				"Count": 20
			}
		],
		"RewardDisplayCount": 3
	},
	{
		"ID": 80,
		"GroupId": 2,
		"Score": 5000,
		"Name": "阶段15",
		"RewardList": [
			{
				"GoodsType": "GoodsType_Item",
				"Id": 4012,
				"Count": 1
			}
		],
		"RewardDisplayCount": 3
	},
	{
		"ID": 81,
		"GroupId": 2,
		"Score": 4500,
		"Name": "阶段14",
		"RewardList": [
			{
				"GoodsType": "GoodsType_Item",
				"Id": 6012,
				"Count": 6
			},
			{
				"GoodsType": "GoodsType_Item",
				"Id": 6015,
				"Count": 6
			},
			{
				"GoodsType": "GoodsType_Item",
				"Id": 6018,
				"Count": 6
			}
		],
		"RewardDisplayCount": 3
	},
	{
		"ID": 82,
		"GroupId": 2,
		"Score": 4000,
		"Name": "阶段13",
		"RewardList": [
			{
				"GoodsType": "GoodsType_Gold",
				"Id": 0,
				"Count": 150000
			}
		],
		"RewardDisplayCount": 3
	},
	{
		"ID": 83,
		"GroupId": 2,
		"Score": 3500,
		"Name": "阶段12",
		"RewardList": [
			{
				"GoodsType": "GoodsType_Item",
				"Id": 3201,
				"Count": 12
			}
		],
		"RewardDisplayCount": 3
	},
	{
		"ID": 84,
		"GroupId": 2,
		"Score": 3000,
		"Name": "阶段11",
		"RewardList": [
			{
				"GoodsType": "GoodsType_Equipment",
				"Id": 303,
				"Count": 5
			}
		],
		"RewardDisplayCount": 3
	},
	{
		"ID": 85,
		"GroupId": 2,
		"Score": 2500,
		"Name": "阶段10",
		"RewardList": [
			{
				"GoodsType": "GoodsType_Item",
				"Id": 4001,
				"Count": 1
			}
		],
		"RewardDisplayCount": 3
	},
	{
		"ID": 86,
		"GroupId": 2,
		"Score": 2000,
		"Name": "阶段9",
		"RewardList": [
			{
				"GoodsType": "GoodsType_Crystal",
				"Id": 0,
				"Count": 20
			}
		],
		"RewardDisplayCount": 3
	},
	{
		"ID": 87,
		"GroupId": 2,
		"Score": 1500,
		"Name": "阶段8",
		"RewardList": [
			{
				"GoodsType": "GoodsType_Gold",
				"Id": 0,
				"Count": 150000
			}
		],
		"RewardDisplayCount": 3
	},
	{
		"ID": 88,
		"GroupId": 2,
		"Score": 1000,
		"Name": "阶段7",
		"RewardList": [
			{
				"GoodsType": "GoodsType_Item",
				"Id": 6003,
				"Count": 6
			},
			{
				"GoodsType": "GoodsType_Item",
				"Id": 6006,
				"Count": 6
			},
			{
				"GoodsType": "GoodsType_Item",
				"Id": 6009,
				"Count": 6
			}
		],
		"RewardDisplayCount": 3
	},
	{
		"ID": 89,
		"GroupId": 2,
		"Score": 700,
		"Name": "阶段6",
		"RewardList": [
			{
				"GoodsType": "GoodsType_Item",
				"Id": 3503,
				"Count": 1
			}
		],
		"RewardDisplayCount": 3
	},
	{
		"ID": 90,
		"GroupId": 2,
		"Score": 500,
		"Name": "阶段5",
		"RewardList": [
			{
				"GoodsType": "GoodsType_Crystal",
				"Id": 0,
				"Count": 10
			}
		],
		"RewardDisplayCount": 3
	},
	{
		"ID": 91,
		"GroupId": 2,
		"Score": 400,
		"Name": "阶段4",
		"RewardList": [
			{
				"GoodsType": "GoodsType_Item",
				"Id": 3201,
				"Count": 8
			}
		],
		"RewardDisplayCount": 3
	},
	{
		"ID": 92,
		"GroupId": 2,
		"Score": 300,
		"Name": "阶段3",
		"RewardList": [
			{
				"GoodsType": "GoodsType_Item",
				"Id": 4001,
				"Count": 1
			}
		],
		"RewardDisplayCount": 3
	},
	{
		"ID": 93,
		"GroupId": 2,
		"Score": 200,
		"Name": "阶段2",
		"RewardList": [
			{
				"GoodsType": "GoodsType_Gold",
				"Id": 0,
				"Count": 100000
			}
		],
		"RewardDisplayCount": 3
	},
	{
		"ID": 94,
		"GroupId": 2,
		"Score": 100,
		"Name": "阶段1",
		"RewardList": [
			{
				"GoodsType": "GoodsType_Crystal",
				"Id": 0,
				"Count": 10
			}
		],
		"RewardDisplayCount": 3
	},
	{
		"ID": 95,
		"GroupId": 3,
		"Score": 90000,
		"Name": "阶段47",
		"RewardList": [
			{
				"GoodsType": "GoodsType_Crystal",
				"Id": 0,
				"Count": 50
			}
		],
		"RewardDisplayCount": 3
	},
	{
		"ID": 96,
		"GroupId": 3,
		"Score": 85000,
		"Name": "阶段46",
		"RewardList": [
			{
				"GoodsType": "GoodsType_Gold",
				"Id": 0,
				"Count": 650000
			}
		],
		"RewardDisplayCount": 3
	},
	{
		"ID": 97,
		"GroupId": 3,
		"Score": 81000,
		"Name": "阶段45",
		"RewardList": [
			{
				"GoodsType": "GoodsType_Item",
				"Id": 7056,
				"Count": 1
			}
		],
		"RewardDisplayCount": 3
	},
	{
		"ID": 98,
		"GroupId": 3,
		"Score": 77000,
		"Name": "阶段44",
		"RewardList": [
			{
				"GoodsType": "GoodsType_Item",
				"Id": 4021,
				"Count": 1
			}
		],
		"RewardDisplayCount": 3
	},
	{
		"ID": 99,
		"GroupId": 3,
		"Score": 73000,
		"Name": "阶段43",
		"RewardList": [
			{
				"GoodsType": "GoodsType_BrillianceMithralStone",
				"Id": 0,
				"Count": 100
			}
		],
		"RewardDisplayCount": 3
	},
	{
		"ID": 100,
		"GroupId": 3,
		"Score": 69000,
		"Name": "阶段42",
		"RewardList": [
			{
				"GoodsType": "GoodsType_Item",
				"Id": 3203,
				"Count": 10
			}
		],
		"RewardDisplayCount": 3
	},
	{
		"ID": 101,
		"GroupId": 3,
		"Score": 65500,
		"Name": "阶段41",
		"RewardList": [
			{
				"GoodsType": "GoodsType_Crystal",
				"Id": 0,
				"Count": 40
			}
		],
		"RewardDisplayCount": 3
	},
	{
		"ID": 102,
		"GroupId": 3,
		"Score": 62000,
		"Name": "阶段40",
		"RewardList": [
			{
				"GoodsType": "GoodsType_Item",
				"Id": 4516,
				"Count": 3
			}
		],
		"RewardDisplayCount": 3
	},
	{
		"ID": 103,
		"GroupId": 3,
		"Score": 58500,
		"Name": "阶段39",
		"RewardList": [
			{
				"GoodsType": "GoodsType_Gold",
				"Id": 0,
				"Count": 550000
			}
		],
		"RewardDisplayCount": 3
	},
	{
		"ID": 104,
		"GroupId": 3,
		"Score": 55000,
		"Name": "阶段38",
		"RewardList": [
			{
				"GoodsType": "GoodsType_Item",
				"Id": 4013,
				"Count": 1
			}
		],
		"RewardDisplayCount": 3
	},
	{
		"ID": 105,
		"GroupId": 3,
		"Score": 51500,
		"Name": "阶段37",
		"RewardList": [
			{
				"GoodsType": "GoodsType_BrillianceMithralStone",
				"Id": 0,
				"Count": 100
			}
		],
		"RewardDisplayCount": 3
	},
	{
		"ID": 106,
		"GroupId": 3,
		"Score": 48000,
		"Name": "阶段36",
		"RewardList": [
			{
				"GoodsType": "GoodsType_Item",
				"Id": 3009,
				"Count": 1
			}
		],
		"RewardDisplayCount": 3
	},
	{
		"ID": 107,
		"GroupId": 3,
		"Score": 45000,
		"Name": "阶段35",
		"RewardList": [
			{
				"GoodsType": "GoodsType_Item",
				"Id": 7056,
				"Count": 1
			}
		],
		"RewardDisplayCount": 3
	},
	{
		"ID": 108,
		"GroupId": 3,
		"Score": 42000,
		"Name": "阶段34",
		"RewardList": [
			{
				"GoodsType": "GoodsType_Item",
				"Id": 4525,
				"Count": 3
			}
		],
		"RewardDisplayCount": 3
	},
	{
		"ID": 109,
		"GroupId": 3,
		"Score": 39000,
		"Name": "阶段33",
		"RewardList": [
			{
				"GoodsType": "GoodsType_Item",
				"Id": 3203,
				"Count": 8
			}
		],
		"RewardDisplayCount": 3
	},
	{
		"ID": 110,
		"GroupId": 3,
		"Score": 36000,
		"Name": "阶段32",
		"RewardList": [
			{
				"GoodsType": "GoodsType_Item",
				"Id": 4023,
				"Count": 1
			}
		],
		"RewardDisplayCount": 3
	},
	{
		"ID": 111,
		"GroupId": 3,
		"Score": 33000,
		"Name": "阶段31",
		"RewardList": [
			{
				"GoodsType": "GoodsType_Item",
				"Id": 4515,
				"Count": 3
			}
		],
		"RewardDisplayCount": 3
	},
	{
		"ID": 112,
		"GroupId": 3,
		"Score": 30000,
		"Name": "阶段30",
		"RewardList": [
			{
				"GoodsType": "GoodsType_Gold",
				"Id": 0,
				"Count": 450000
			}
		],
		"RewardDisplayCount": 3
	},
	{
		"ID": 113,
		"GroupId": 3,
		"Score": 27000,
		"Name": "阶段29",
		"RewardList": [
			{
				"GoodsType": "GoodsType_Crystal",
				"Id": 0,
				"Count": 30
			}
		],
		"RewardDisplayCount": 3
	},
	{
		"ID": 114,
		"GroupId": 3,
		"Score": 24500,
		"Name": "阶段28",
		"RewardList": [
			{
				"GoodsType": "GoodsType_BrillianceMithralStone",
				"Id": 0,
				"Count": 100
			}
		],
		"RewardDisplayCount": 3
	},
	{
		"ID": 115,
		"GroupId": 3,
		"Score": 22000,
		"Name": "阶段27",
		"RewardList": [
			{
				"GoodsType": "GoodsType_Item",
				"Id": 4001,
				"Count": 1
			}
		],
		"RewardDisplayCount": 3
	},
	{
		"ID": 116,
		"GroupId": 3,
		"Score": 19500,
		"Name": "阶段26",
		"RewardList": [
			{
				"GoodsType": "GoodsType_Item",
				"Id": 6046,
				"Count": 10
			},
			{
				"GoodsType": "GoodsType_Item",
				"Id": 6047,
				"Count": 10
			},
			{
				"GoodsType": "GoodsType_Item",
				"Id": 6048,
				"Count": 10
			}
		],
		"RewardDisplayCount": 3
	},
	{
		"ID": 117,
		"GroupId": 3,
		"Score": 17000,
		"Name": "阶段25",
		"RewardList": [
			{
				"GoodsType": "GoodsType_Item",
				"Id": 4517,
				"Count": 3
			}
		],
		"RewardDisplayCount": 3
	},
	{
		"ID": 118,
		"GroupId": 3,
		"Score": 15000,
		"Name": "阶段24",
		"RewardList": [
			{
				"GoodsType": "GoodsType_Item",
				"Id": 7056,
				"Count": 1
			}
		],
		"RewardDisplayCount": 3
	},
	{
		"ID": 119,
		"GroupId": 3,
		"Score": 13000,
		"Name": "阶段23",
		"RewardList": [
			{
				"GoodsType": "GoodsType_Item",
				"Id": 3203,
				"Count": 8
			}
		],
		"RewardDisplayCount": 3
	},
	{
		"ID": 120,
		"GroupId": 3,
		"Score": 11500,
		"Name": "阶段22",
		"RewardList": [
			{
				"GoodsType": "GoodsType_Crystal",
				"Id": 0,
				"Count": 30
			}
		],
		"RewardDisplayCount": 3
	},
	{
		"ID": 121,
		"GroupId": 3,
		"Score": 10000,
		"Name": "阶段21",
		"RewardList": [
			{
				"GoodsType": "GoodsType_Item",
				"Id": 4516,
				"Count": 3
			}
		],
		"RewardDisplayCount": 3
	},
	{
		"ID": 122,
		"GroupId": 3,
		"Score": 9000,
		"Name": "阶段20",
		"RewardList": [
			{
				"GoodsType": "GoodsType_Gold",
				"Id": 0,
				"Count": 350000
			}
		],
		"RewardDisplayCount": 3
	},
	{
		"ID": 123,
		"GroupId": 3,
		"Score": 8000,
		"Name": "阶段19",
		"RewardList": [
			{
				"GoodsType": "GoodsType_Item",
				"Id": 4515,
				"Count": 3
			}
		],
		"RewardDisplayCount": 3
	},
	{
		"ID": 124,
		"GroupId": 3,
		"Score": 7000,
		"Name": "阶段18",
		"RewardList": [
			{
				"GoodsType": "GoodsType_Item",
				"Id": 4022,
				"Count": 1
			}
		],
		"RewardDisplayCount": 3
	},
	{
		"ID": 125,
		"GroupId": 3,
		"Score": 6000,
		"Name": "阶段17",
		"RewardList": [
			{
				"GoodsType": "GoodsType_Item",
				"Id": 6043,
				"Count": 10
			},
			{
				"GoodsType": "GoodsType_Item",
				"Id": 6044,
				"Count": 10
			},
			{
				"GoodsType": "GoodsType_Item",
				"Id": 6045,
				"Count": 10
			}
		],
		"RewardDisplayCount": 3
	},
	{
		"ID": 126,
		"GroupId": 3,
		"Score": 5500,
		"Name": "阶段16",
		"RewardList": [
			{
				"GoodsType": "GoodsType_Equipment",
				"Id": 304,
				"Count": 3
			}
		],
		"RewardDisplayCount": 3
	},
	{
		"ID": 127,
		"GroupId": 3,
		"Score": 5000,
		"Name": "阶段15",
		"RewardList": [
			{
				"GoodsType": "GoodsType_Item",
				"Id": 4001,
				"Count": 1
			}
		],
		"RewardDisplayCount": 3
	},
	{
		"ID": 128,
		"GroupId": 3,
		"Score": 4500,
		"Name": "阶段14",
		"RewardList": [
			{
				"GoodsType": "GoodsType_Item",
				"Id": 4012,
				"Count": 1
			}
		],
		"RewardDisplayCount": 3
	},
	{
		"ID": 129,
		"GroupId": 3,
		"Score": 4000,
		"Name": "阶段13",
		"RewardList": [
			{
				"GoodsType": "GoodsType_Item",
				"Id": 3203,
				"Count": 8
			}
		],
		"RewardDisplayCount": 3
	},
	{
		"ID": 130,
		"GroupId": 3,
		"Score": 3500,
		"Name": "阶段12",
		"RewardList": [
			{
				"GoodsType": "GoodsType_Item",
				"Id": 6012,
				"Count": 10
			},
			{
				"GoodsType": "GoodsType_Item",
				"Id": 6015,
				"Count": 10
			},
			{
				"GoodsType": "GoodsType_Item",
				"Id": 6018,
				"Count": 10
			}
		],
		"RewardDisplayCount": 3
	},
	{
		"ID": 131,
		"GroupId": 3,
		"Score": 3000,
		"Name": "阶段11",
		"RewardList": [
			{
				"GoodsType": "GoodsType_Gold",
				"Id": 0,
				"Count": 250000
			}
		],
		"RewardDisplayCount": 3
	},
	{
		"ID": 132,
		"GroupId": 3,
		"Score": 2500,
		"Name": "阶段10",
		"RewardList": [
			{
				"GoodsType": "GoodsType_Item",
				"Id": 3202,
				"Count": 8
			}
		],
		"RewardDisplayCount": 3
	},
	{
		"ID": 133,
		"GroupId": 3,
		"Score": 2000,
		"Name": "阶段9",
		"RewardList": [
			{
				"GoodsType": "GoodsType_Crystal",
				"Id": 0,
				"Count": 20
			}
		],
		"RewardDisplayCount": 3
	},
	{
		"ID": 134,
		"GroupId": 3,
		"Score": 1500,
		"Name": "阶段8",
		"RewardList": [
			{
				"GoodsType": "GoodsType_Item",
				"Id": 3201,
				"Count": 12
			}
		],
		"RewardDisplayCount": 3
	},
	{
		"ID": 135,
		"GroupId": 3,
		"Score": 1000,
		"Name": "阶段7",
		"RewardList": [
			{
				"GoodsType": "GoodsType_Item",
				"Id": 6003,
				"Count": 10
			},
			{
				"GoodsType": "GoodsType_Item",
				"Id": 6006,
				"Count": 10
			},
			{
				"GoodsType": "GoodsType_Item",
				"Id": 6009,
				"Count": 10
			}
		],
		"RewardDisplayCount": 3
	},
	{
		"ID": 136,
		"GroupId": 3,
		"Score": 700,
		"Name": "阶段6",
		"RewardList": [
			{
				"GoodsType": "GoodsType_Gold",
				"Id": 0,
				"Count": 150000
			}
		],
		"RewardDisplayCount": 3
	},
	{
		"ID": 137,
		"GroupId": 3,
		"Score": 500,
		"Name": "阶段5",
		"RewardList": [
			{
				"GoodsType": "GoodsType_Crystal",
				"Id": 0,
				"Count": 20
			}
		],
		"RewardDisplayCount": 3
	},
	{
		"ID": 138,
		"GroupId": 3,
		"Score": 400,
		"Name": "阶段4",
		"RewardList": [
			{
				"GoodsType": "GoodsType_Item",
				"Id": 3503,
				"Count": 1
			}
		],
		"RewardDisplayCount": 3
	},
	{
		"ID": 139,
		"GroupId": 3,
		"Score": 300,
		"Name": "阶段3",
		"RewardList": [
			{
				"GoodsType": "GoodsType_Item",
				"Id": 4001,
				"Count": 1
			}
		],
		"RewardDisplayCount": 3
	},
	{
		"ID": 140,
		"GroupId": 3,
		"Score": 200,
		"Name": "阶段2",
		"RewardList": [
			{
				"GoodsType": "GoodsType_Gold",
				"Id": 0,
				"Count": 100000
			}
		],
		"RewardDisplayCount": 3
	},
	{
		"ID": 141,
		"GroupId": 3,
		"Score": 100,
		"Name": "阶段1",
		"RewardList": [
			{
				"GoodsType": "GoodsType_Crystal",
				"Id": 0,
				"Count": 10
			}
		],
		"RewardDisplayCount": 3
	},
	{
		"ID": 142,
		"GroupId": 4,
		"Score": 90000,
		"Name": "阶段47",
		"RewardList": [
			{
				"GoodsType": "GoodsType_Crystal",
				"Id": 0,
				"Count": 50
			}
		],
		"RewardDisplayCount": 3
	},
	{
		"ID": 143,
		"GroupId": 4,
		"Score": 85000,
		"Name": "阶段46",
		"RewardList": [
			{
				"GoodsType": "GoodsType_Gold",
				"Id": 0,
				"Count": 650000
			}
		],
		"RewardDisplayCount": 3
	},
	{
		"ID": 144,
		"GroupId": 4,
		"Score": 81000,
		"Name": "阶段45",
		"RewardList": [
			{
				"GoodsType": "GoodsType_Item",
				"Id": 1077,
				"Count": 50
			}
		],
		"RewardDisplayCount": 3
	},
	{
		"ID": 145,
		"GroupId": 4,
		"Score": 77000,
		"Name": "阶段44",
		"RewardList": [
			{
				"GoodsType": "GoodsType_Item",
				"Id": 3246,
				"Count": 4
			}
		],
		"RewardDisplayCount": 3
	},
	{
		"ID": 146,
		"GroupId": 4,
		"Score": 73000,
		"Name": "阶段43",
		"RewardList": [
			{
				"GoodsType": "GoodsType_Item",
				"Id": 4021,
				"Count": 1
			}
		],
		"RewardDisplayCount": 3
	},
	{
		"ID": 147,
		"GroupId": 4,
		"Score": 69000,
		"Name": "阶段42",
		"RewardList": [
			{
				"GoodsType": "GoodsType_Item",
				"Id": 3203,
				"Count": 10
			}
		],
		"RewardDisplayCount": 3
	},
	{
		"ID": 148,
		"GroupId": 4,
		"Score": 65500,
		"Name": "阶段41",
		"RewardList": [
			{
				"GoodsType": "GoodsType_BrillianceMithralStone",
				"Id": 0,
				"Count": 100
			}
		],
		"RewardDisplayCount": 3
	},
	{
		"ID": 149,
		"GroupId": 4,
		"Score": 62000,
		"Name": "阶段40",
		"RewardList": [
			{
				"GoodsType": "GoodsType_Item",
				"Id": 4529,
				"Count": 4
			}
		],
		"RewardDisplayCount": 3
	},
	{
		"ID": 150,
		"GroupId": 4,
		"Score": 58500,
		"Name": "阶段39",
		"RewardList": [
			{
				"GoodsType": "GoodsType_Gold",
				"Id": 0,
				"Count": 550000
			}
		],
		"RewardDisplayCount": 3
	},
	{
		"ID": 151,
		"GroupId": 4,
		"Score": 55000,
		"Name": "阶段38",
		"RewardList": [
			{
				"GoodsType": "GoodsType_Item",
				"Id": 4013,
				"Count": 1
			}
		],
		"RewardDisplayCount": 3
	},
	{
		"ID": 152,
		"GroupId": 4,
		"Score": 51500,
		"Name": "阶段37",
		"RewardList": [
			{
				"GoodsType": "GoodsType_Crystal",
				"Id": 0,
				"Count": 40
			}
		],
		"RewardDisplayCount": 3
	},
	{
		"ID": 153,
		"GroupId": 4,
		"Score": 48000,
		"Name": "阶段36",
		"RewardList": [
			{
				"GoodsType": "GoodsType_Item",
				"Id": 3009,
				"Count": 1
			}
		],
		"RewardDisplayCount": 3
	},
	{
		"ID": 154,
		"GroupId": 4,
		"Score": 45000,
		"Name": "阶段35",
		"RewardList": [
			{
				"GoodsType": "GoodsType_BrillianceMithralStone",
				"Id": 0,
				"Count": 100
			}
		],
		"RewardDisplayCount": 3
	},
	{
		"ID": 155,
		"GroupId": 4,
		"Score": 42000,
		"Name": "阶段34",
		"RewardList": [
			{
				"GoodsType": "GoodsType_Item",
				"Id": 4528,
				"Count": 4
			}
		],
		"RewardDisplayCount": 3
	},
	{
		"ID": 156,
		"GroupId": 4,
		"Score": 39000,
		"Name": "阶段33",
		"RewardList": [
			{
				"GoodsType": "GoodsType_Item",
				"Id": 3246,
				"Count": 3
			}
		],
		"RewardDisplayCount": 3
	},
	{
		"ID": 157,
		"GroupId": 4,
		"Score": 36000,
		"Name": "阶段32",
		"RewardList": [
			{
				"GoodsType": "GoodsType_Item",
				"Id": 4023,
				"Count": 1
			}
		],
		"RewardDisplayCount": 3
	},
	{
		"ID": 158,
		"GroupId": 4,
		"Score": 33000,
		"Name": "阶段31",
		"RewardList": [
			{
				"GoodsType": "GoodsType_Item",
				"Id": 1078,
				"Count": 50
			}
		],
		"RewardDisplayCount": 3
	},
	{
		"ID": 159,
		"GroupId": 4,
		"Score": 30000,
		"Name": "阶段30",
		"RewardList": [
			{
				"GoodsType": "GoodsType_Gold",
				"Id": 0,
				"Count": 450000
			}
		],
		"RewardDisplayCount": 3
	},
	{
		"ID": 160,
		"GroupId": 4,
		"Score": 27000,
		"Name": "阶段29",
		"RewardList": [
			{
				"GoodsType": "GoodsType_Item",
				"Id": 3246,
				"Count": 3
			}
		],
		"RewardDisplayCount": 3
	},
	{
		"ID": 161,
		"GroupId": 4,
		"Score": 24500,
		"Name": "阶段28",
		"RewardList": [
			{
				"GoodsType": "GoodsType_Item",
				"Id": 4528,
				"Count": 3
			}
		],
		"RewardDisplayCount": 3
	},
	{
		"ID": 162,
		"GroupId": 4,
		"Score": 22000,
		"Name": "阶段27",
		"RewardList": [
			{
				"GoodsType": "GoodsType_Item",
				"Id": 4001,
				"Count": 1
			}
		],
		"RewardDisplayCount": 3
	},
	{
		"ID": 163,
		"GroupId": 4,
		"Score": 19500,
		"Name": "阶段26",
		"RewardList": [
			{
				"GoodsType": "GoodsType_Item",
				"Id": 1077,
				"Count": 30
			}
		],
		"RewardDisplayCount": 3
	},
	{
		"ID": 164,
		"GroupId": 4,
		"Score": 17000,
		"Name": "阶段25",
		"RewardList": [
			{
				"GoodsType": "GoodsType_Item",
				"Id": 6046,
				"Count": 10
			},
			{
				"GoodsType": "GoodsType_Item",
				"Id": 6047,
				"Count": 10
			},
			{
				"GoodsType": "GoodsType_Item",
				"Id": 6048,
				"Count": 10
			}
		],
		"RewardDisplayCount": 3
	},
	{
		"ID": 165,
		"GroupId": 4,
		"Score": 15000,
		"Name": "阶段24",
		"RewardList": [
			{
				"GoodsType": "GoodsType_Item",
				"Id": 4529,
				"Count": 4
			}
		],
		"RewardDisplayCount": 3
	},
	{
		"ID": 166,
		"GroupId": 4,
		"Score": 13000,
		"Name": "阶段23",
		"RewardList": [
			{
				"GoodsType": "GoodsType_Item",
				"Id": 3203,
				"Count": 5
			}
		],
		"RewardDisplayCount": 3
	},
	{
		"ID": 167,
		"GroupId": 4,
		"Score": 11500,
		"Name": "阶段22",
		"RewardList": [
			{
				"GoodsType": "GoodsType_Crystal",
				"Id": 0,
				"Count": 30
			}
		],
		"RewardDisplayCount": 3
	},
	{
		"ID": 168,
		"GroupId": 4,
		"Score": 10000,
		"Name": "阶段21",
		"RewardList": [
			{
				"GoodsType": "GoodsType_Item",
				"Id": 1078,
				"Count": 40
			}
		],
		"RewardDisplayCount": 3
	},
	{
		"ID": 169,
		"GroupId": 4,
		"Score": 9000,
		"Name": "阶段20",
		"RewardList": [
			{
				"GoodsType": "GoodsType_Gold",
				"Id": 0,
				"Count": 350000
			}
		],
		"RewardDisplayCount": 3
	},
	{
		"ID": 170,
		"GroupId": 4,
		"Score": 8000,
		"Name": "阶段19",
		"RewardList": [
			{
				"GoodsType": "GoodsType_Item",
				"Id": 4528,
				"Count": 3
			}
		],
		"RewardDisplayCount": 3
	},
	{
		"ID": 171,
		"GroupId": 4,
		"Score": 7000,
		"Name": "阶段18",
		"RewardList": [
			{
				"GoodsType": "GoodsType_Item",
				"Id": 4022,
				"Count": 1
			}
		],
		"RewardDisplayCount": 3
	},
	{
		"ID": 172,
		"GroupId": 4,
		"Score": 6000,
		"Name": "阶段17",
		"RewardList": [
			{
				"GoodsType": "GoodsType_Item",
				"Id": 6043,
				"Count": 10
			},
			{
				"GoodsType": "GoodsType_Item",
				"Id": 6044,
				"Count": 10
			},
			{
				"GoodsType": "GoodsType_Item",
				"Id": 6045,
				"Count": 10
			}
		],
		"RewardDisplayCount": 3
	},
	{
		"ID": 173,
		"GroupId": 4,
		"Score": 5500,
		"Name": "阶段16",
		"RewardList": [
			{
				"GoodsType": "GoodsType_Equipment",
				"Id": 304,
				"Count": 3
			}
		],
		"RewardDisplayCount": 3
	},
	{
		"ID": 174,
		"GroupId": 4,
		"Score": 5000,
		"Name": "阶段15",
		"RewardList": [
			{
				"GoodsType": "GoodsType_Item",
				"Id": 4001,
				"Count": 1
			}
		],
		"RewardDisplayCount": 3
	},
	{
		"ID": 175,
		"GroupId": 4,
		"Score": 4500,
		"Name": "阶段14",
		"RewardList": [
			{
				"GoodsType": "GoodsType_Item",
				"Id": 4012,
				"Count": 1
			}
		],
		"RewardDisplayCount": 3
	},
	{
		"ID": 176,
		"GroupId": 4,
		"Score": 4000,
		"Name": "阶段13",
		"RewardList": [
			{
				"GoodsType": "GoodsType_Item",
				"Id": 1078,
				"Count": 30
			}
		],
		"RewardDisplayCount": 3
	},
	{
		"ID": 177,
		"GroupId": 4,
		"Score": 3500,
		"Name": "阶段12",
		"RewardList": [
			{
				"GoodsType": "GoodsType_Item",
				"Id": 6012,
				"Count": 10
			},
			{
				"GoodsType": "GoodsType_Item",
				"Id": 6015,
				"Count": 10
			},
			{
				"GoodsType": "GoodsType_Item",
				"Id": 6018,
				"Count": 10
			}
		],
		"RewardDisplayCount": 3
	},
	{
		"ID": 178,
		"GroupId": 4,
		"Score": 3000,
		"Name": "阶段11",
		"RewardList": [
			{
				"GoodsType": "GoodsType_Gold",
				"Id": 0,
				"Count": 250000
			}
		],
		"RewardDisplayCount": 3
	},
	{
		"ID": 179,
		"GroupId": 4,
		"Score": 2500,
		"Name": "阶段10",
		"RewardList": [
			{
				"GoodsType": "GoodsType_Item",
				"Id": 3202,
				"Count": 8
			}
		],
		"RewardDisplayCount": 3
	},
	{
		"ID": 180,
		"GroupId": 4,
		"Score": 2000,
		"Name": "阶段9",
		"RewardList": [
			{
				"GoodsType": "GoodsType_Item",
				"Id": 1077,
				"Count": 30
			}
		],
		"RewardDisplayCount": 3
	},
	{
		"ID": 181,
		"GroupId": 4,
		"Score": 1500,
		"Name": "阶段8",
		"RewardList": [
			{
				"GoodsType": "GoodsType_Item",
				"Id": 3201,
				"Count": 12
			}
		],
		"RewardDisplayCount": 3
	},
	{
		"ID": 182,
		"GroupId": 4,
		"Score": 1000,
		"Name": "阶段7",
		"RewardList": [
			{
				"GoodsType": "GoodsType_Item",
				"Id": 6003,
				"Count": 10
			},
			{
				"GoodsType": "GoodsType_Item",
				"Id": 6006,
				"Count": 10
			},
			{
				"GoodsType": "GoodsType_Item",
				"Id": 6009,
				"Count": 10
			}
		],
		"RewardDisplayCount": 3
	},
	{
		"ID": 183,
		"GroupId": 4,
		"Score": 700,
		"Name": "阶段6",
		"RewardList": [
			{
				"GoodsType": "GoodsType_Crystal",
				"Id": 0,
				"Count": 20
			}
		],
		"RewardDisplayCount": 3
	},
	{
		"ID": 184,
		"GroupId": 4,
		"Score": 500,
		"Name": "阶段5",
		"RewardList": [
			{
				"GoodsType": "GoodsType_Item",
				"Id": 1078,
				"Count": 30
			}
		],
		"RewardDisplayCount": 3
	},
	{
		"ID": 185,
		"GroupId": 4,
		"Score": 400,
		"Name": "阶段4",
		"RewardList": [
			{
				"GoodsType": "GoodsType_Item",
				"Id": 3503,
				"Count": 1
			}
		],
		"RewardDisplayCount": 3
	},
	{
		"ID": 186,
		"GroupId": 4,
		"Score": 300,
		"Name": "阶段3",
		"RewardList": [
			{
				"GoodsType": "GoodsType_Item",
				"Id": 4001,
				"Count": 1
			}
		],
		"RewardDisplayCount": 3
	},
	{
		"ID": 187,
		"GroupId": 4,
		"Score": 200,
		"Name": "阶段2",
		"RewardList": [
			{
				"GoodsType": "GoodsType_Gold",
				"Id": 0,
				"Count": 150000
			}
		],
		"RewardDisplayCount": 3
	},
	{
		"ID": 188,
		"GroupId": 4,
		"Score": 100,
		"Name": "阶段1",
		"RewardList": [
			{
				"GoodsType": "GoodsType_Crystal",
				"Id": 0,
				"Count": 10
			}
		],
		"RewardDisplayCount": 3
	}
]