[
	{
		"ID": 1,
		"Name": "多瓦鲁村",
		"FuncType": "WaypointFuncType_Scenario",
		"FuncTypeParam1": 0,
		"WaypointsID": [
			2,
			63
		],
		"StyleType": "WaypointStyleType_Village",
		"Model": "Waypoint_ABS/Icon-Village_Prefab.prefab",
		"Background": "",
		"StateList": [
			{
				"ScenarioId": 11,
				"StateName": "Fire"
			},
			{
				"ScenarioId": 12,
				"StateName": "Broken"
			}
		]
	},
	{
		"ID": 2,
		"Name": "路点2",
		"FuncType": "WaypointFuncType_Event",
		"FuncTypeParam1": 100,
		"WaypointsID": [
			1,
			3,
			31
		],
		"StyleType": "WaypointStyleType_Forest",
		"Model": "Waypoint_ABS/Icon-ThePlace_Prefab.prefab",
		"Background": ""
	},
	{
		"ID": 3,
		"Name": "路点3",
		"FuncType": "WaypointFuncType_Event",
		"FuncTypeParam1": 101,
		"WaypointsID": [
			2,
			4,
			54
		],
		"StyleType": "WaypointStyleType_Mountain",
		"Model": "Waypoint_ABS/Icon-ThePlace_Prefab.prefab",
		"Background": ""
	},
	{
		"ID": 4,
		"Name": "路点4",
		"FuncType": "WaypointFuncType_Event",
		"FuncTypeParam1": 102,
		"WaypointsID": [
			3,
			5,
			6
		],
		"StyleType": "WaypointStyleType_Forest",
		"Model": "Waypoint_ABS/Icon-ThePlace_Prefab.prefab",
		"Background": ""
	},
	{
		"ID": 5,
		"Name": "卡尔萨斯森林",
		"FuncType": "WaypointFuncType_Scenario",
		"FuncTypeParam1": 0,
		"WaypointsID": [
			4
		],
		"StyleType": "WaypointStyleType_Forest",
		"Model": "Waypoint_ABS/Icon_KarthusForest_Prefab.prefab",
		"Background": ""
	},
	{
		"ID": 6,
		"Name": "路点6",
		"FuncType": "WaypointFuncType_Event",
		"FuncTypeParam1": 104,
		"WaypointsID": [
			4,
			7,
			55
		],
		"StyleType": "WaypointStyleType_Forest",
		"Model": "Waypoint_ABS/Icon-ThePlace_Prefab.prefab",
		"Background": ""
	},
	{
		"ID": 7,
		"Name": "路点7",
		"FuncType": "WaypointFuncType_Event",
		"FuncTypeParam1": 103,
		"WaypointsID": [
			6,
			8
		],
		"StyleType": "WaypointStyleType_Mountain",
		"Model": "Waypoint_ABS/Icon-ThePlace_Prefab.prefab",
		"Background": ""
	},
	{
		"ID": 8,
		"Name": "路点8",
		"FuncType": "WaypointFuncType_Event",
		"FuncTypeParam1": 105,
		"WaypointsID": [
			7,
			9
		],
		"StyleType": "WaypointStyleType_Mountain",
		"Model": "Waypoint_ABS/Icon-ThePlace_Prefab.prefab",
		"Background": ""
	},
	{
		"ID": 9,
		"Name": "米斯鲁镇",
		"FuncType": "WaypointFuncType_Scenario",
		"FuncTypeParam1": 0,
		"WaypointsID": [
			8,
			10
		],
		"StyleType": "WaypointStyleType_Village",
		"Model": "Waypoint_ABS/Icon-Town_Prefab.prefab",
		"Background": ""
	},
	{
		"ID": 10,
		"Name": "路点11",
		"FuncType": "WaypointFuncType_Event",
		"FuncTypeParam1": 106,
		"WaypointsID": [
			9,
			11,
			57
		],
		"StyleType": "WaypointStyleType_Mountain",
		"Model": "Waypoint_ABS/Icon-ThePlace_Prefab.prefab",
		"Background": ""
	},
	{
		"ID": 11,
		"Name": "路点12",
		"FuncType": "WaypointFuncType_Event",
		"FuncTypeParam1": 107,
		"WaypointsID": [
			10,
			12
		],
		"StyleType": "WaypointStyleType_Mountain",
		"Model": "Waypoint_ABS/Icon-ThePlace_Prefab.prefab",
		"Background": ""
	},
	{
		"ID": 12,
		"Name": "隐居小屋",
		"FuncType": "WaypointFuncType_Scenario",
		"FuncTypeParam1": 0,
		"WaypointsID": [
			11,
			13
		],
		"StyleType": "WaypointStyleType_Village",
		"Model": "Waypoint_ABS/Icon-PrivateHouse_Prefab.prefab",
		"Background": ""
	},
	{
		"ID": 13,
		"Name": "路点13",
		"FuncType": "WaypointFuncType_Event",
		"FuncTypeParam1": 108,
		"WaypointsID": [
			12,
			14,
			58
		],
		"StyleType": "WaypointStyleType_Forest",
		"Model": "Waypoint_ABS/Icon-ThePlace_Prefab.prefab",
		"Background": ""
	},
	{
		"ID": 14,
		"Name": "路点14",
		"FuncType": "WaypointFuncType_Event",
		"FuncTypeParam1": 109,
		"WaypointsID": [
			13,
			15,
			32
		],
		"StyleType": "WaypointStyleType_Forest",
		"Model": "Waypoint_ABS/Icon-ThePlace_Prefab.prefab",
		"Background": ""
	},
	{
		"ID": 15,
		"Name": "路点15",
		"FuncType": "WaypointFuncType_Event",
		"FuncTypeParam1": 110,
		"WaypointsID": [
			14,
			16,
			18
		],
		"StyleType": "WaypointStyleType_Mountain",
		"Model": "Waypoint_ABS/Icon-ThePlace_Prefab.prefab",
		"Background": ""
	},
	{
		"ID": 16,
		"Name": "路点16",
		"FuncType": "WaypointFuncType_Event",
		"FuncTypeParam1": 111,
		"WaypointsID": [
			15,
			17,
			18
		],
		"StyleType": "WaypointStyleType_Forest",
		"Model": "Waypoint_ABS/Icon-ThePlace_Prefab.prefab",
		"Background": ""
	},
	{
		"ID": 17,
		"Name": "提斯雷奥浮空城",
		"FuncType": "WaypointFuncType_Scenario",
		"FuncTypeParam1": 0,
		"WaypointsID": [
			16,
			22,
			27,
			59
		],
		"StyleType": "WaypointStyleType_Village",
		"Model": "Waypoint_ABS/Icon-SkyCity_Prefab.prefab",
		"Background": "",
		"StateList": [
			{
				"ScenarioId": 14,
				"StateName": "fLY"
			}
		]
	},
	{
		"ID": 18,
		"Name": "路点18",
		"FuncType": "WaypointFuncType_Event",
		"FuncTypeParam1": 112,
		"WaypointsID": [
			15,
			16,
			19
		],
		"StyleType": "WaypointStyleType_Forest",
		"Model": "Waypoint_ABS/Icon-ThePlace_Prefab.prefab",
		"Background": ""
	},
	{
		"ID": 19,
		"Name": "路点19",
		"FuncType": "WaypointFuncType_Event",
		"FuncTypeParam1": 113,
		"WaypointsID": [
			18,
			20
		],
		"StyleType": "WaypointStyleType_Forest",
		"Model": "Waypoint_ABS/Icon-ThePlace_Prefab.prefab",
		"Background": ""
	},
	{
		"ID": 20,
		"Name": "路点20",
		"FuncType": "WaypointFuncType_Event",
		"FuncTypeParam1": 114,
		"WaypointsID": [
			19,
			21,
			60
		],
		"StyleType": "WaypointStyleType_Mountain",
		"Model": "Waypoint_ABS/Icon-ThePlace_Prefab.prefab",
		"Background": ""
	},
	{
		"ID": 21,
		"Name": "罗卡山谷",
		"FuncType": "WaypointFuncType_Scenario",
		"FuncTypeParam1": 0,
		"WaypointsID": [
			20
		],
		"StyleType": "WaypointStyleType_Village",
		"Model": "Waypoint_ABS/Icon-AnikiPalace_Prefab.prefab",
		"Background": ""
	},
	{
		"ID": 22,
		"Name": "路点22",
		"FuncType": "WaypointFuncType_Event",
		"FuncTypeParam1": 115,
		"WaypointsID": [
			17,
			23
		],
		"StyleType": "WaypointStyleType_Forest",
		"Model": "Waypoint_ABS/Icon-ThePlace_Prefab.prefab",
		"Background": ""
	},
	{
		"ID": 23,
		"Name": "路点23",
		"FuncType": "WaypointFuncType_Event",
		"FuncTypeParam1": 116,
		"WaypointsID": [
			22,
			24
		],
		"StyleType": "WaypointStyleType_ActivityEvent",
		"Model": "Waypoint_ABS/Icon-ThePlace_Prefab.prefab",
		"Background": ""
	},
	{
		"ID": 24,
		"Name": "岩风谷",
		"FuncType": "WaypointFuncType_Scenario",
		"FuncTypeParam1": 0,
		"WaypointsID": [
			23,
			25
		],
		"StyleType": "WaypointStyleType_Mountain",
		"Model": "Waypoint_ABS/Icon-WindValley_Prefab.prefab",
		"Background": ""
	},
	{
		"ID": 25,
		"Name": "路点25",
		"FuncType": "WaypointFuncType_Event",
		"FuncTypeParam1": 117,
		"WaypointsID": [
			24,
			26,
			79
		],
		"StyleType": "WaypointStyleType_Forest",
		"Model": "Waypoint_ABS/Icon-ThePlace_Prefab.prefab",
		"Background": ""
	},
	{
		"ID": 26,
		"Name": "交叉路口",
		"FuncType": "WaypointFuncType_Scenario",
		"FuncTypeParam1": 0,
		"WaypointsID": [
			25,
			27,
			28
		],
		"StyleType": "WaypointStyleType_Forest",
		"Model": "Waypoint_ABS/Icon-Guideboard_Prefab.prefab",
		"Background": ""
	},
	{
		"ID": 27,
		"Name": "路点27",
		"FuncType": "WaypointFuncType_Event",
		"FuncTypeParam1": 118,
		"WaypointsID": [
			26,
			17
		],
		"StyleType": "WaypointStyleType_Mountain",
		"Model": "Waypoint_ABS/Icon-ThePlace_Prefab.prefab",
		"Background": ""
	},
	{
		"ID": 28,
		"Name": "路点28",
		"FuncType": "WaypointFuncType_Event",
		"FuncTypeParam1": 119,
		"WaypointsID": [
			26,
			29
		],
		"StyleType": "WaypointStyleType_Mountain",
		"Model": "Waypoint_ABS/Icon-ThePlace_Prefab.prefab",
		"Background": ""
	},
	{
		"ID": 29,
		"Name": "路点29",
		"FuncType": "WaypointFuncType_Event",
		"FuncTypeParam1": 120,
		"WaypointsID": [
			28,
			30,
			125
		],
		"StyleType": "WaypointStyleType_Forest",
		"Model": "Waypoint_ABS/Icon-ThePlace_Prefab.prefab",
		"Background": ""
	},
	{
		"ID": 30,
		"Name": "路点30",
		"FuncType": "WaypointFuncType_Event",
		"FuncTypeParam1": 121,
		"WaypointsID": [
			29,
			31,
			43
		],
		"StyleType": "WaypointStyleType_Forest",
		"Model": "Waypoint_ABS/Icon-ThePlace_Prefab.prefab",
		"Background": ""
	},
	{
		"ID": 31,
		"Name": "路点31",
		"FuncType": "WaypointFuncType_Event",
		"FuncTypeParam1": 122,
		"WaypointsID": [
			30,
			2
		],
		"StyleType": "WaypointStyleType_Forest",
		"Model": "Waypoint_ABS/Icon-ThePlace_Prefab.prefab",
		"Background": ""
	},
	{
		"ID": 32,
		"Name": "路点32",
		"FuncType": "WaypointFuncType_Event",
		"FuncTypeParam1": 123,
		"WaypointsID": [
			14,
			33
		],
		"StyleType": "WaypointStyleType_Forest",
		"Model": "Waypoint_ABS/Icon-ThePlace_Prefab.prefab",
		"Background": ""
	},
	{
		"ID": 33,
		"Name": "路点33",
		"FuncType": "WaypointFuncType_Event",
		"FuncTypeParam1": 124,
		"WaypointsID": [
			32,
			34,
			36
		],
		"StyleType": "WaypointStyleType_Forest",
		"Model": "Waypoint_ABS/Icon-ThePlace_Prefab.prefab",
		"Background": ""
	},
	{
		"ID": 34,
		"Name": "路点34",
		"FuncType": "WaypointFuncType_Event",
		"FuncTypeParam1": 125,
		"WaypointsID": [
			33,
			35,
			66
		],
		"StyleType": "WaypointStyleType_Forest",
		"Model": "Waypoint_ABS/Icon-ThePlace_Prefab.prefab",
		"Background": ""
	},
	{
		"ID": 35,
		"Name": "卡曼斯城",
		"FuncType": "WaypointFuncType_Scenario",
		"FuncTypeParam1": 0,
		"WaypointsID": [
			34
		],
		"StyleType": "WaypointStyleType_Village",
		"Model": "Waypoint_ABS/Icon-StockadeVillage_Prefab.prefab",
		"Background": "",
		"StateList": [
			{
				"ScenarioId": 16,
				"StateName": "Fire"
			},
			{
				"ScenarioId": 35,
				"StateName": "Standby"
			},
			{
				"ScenarioId": 50,
				"StateName": "Light"
			}
		]
	},
	{
		"ID": 36,
		"Name": "路点36",
		"FuncType": "WaypointFuncType_Event",
		"FuncTypeParam1": 126,
		"WaypointsID": [
			33,
			37
		],
		"StyleType": "WaypointStyleType_Mountain",
		"Model": "Waypoint_ABS/Icon-ThePlace_Prefab.prefab",
		"Background": ""
	},
	{
		"ID": 37,
		"Name": "路点37",
		"FuncType": "WaypointFuncType_Event",
		"FuncTypeParam1": 127,
		"WaypointsID": [
			36,
			38,
			70
		],
		"StyleType": "WaypointStyleType_Mountain",
		"Model": "Waypoint_ABS/Icon-ThePlace_Prefab.prefab",
		"Background": ""
	},
	{
		"ID": 38,
		"Name": "路点38",
		"FuncType": "WaypointFuncType_Event",
		"FuncTypeParam1": 128,
		"WaypointsID": [
			37,
			39
		],
		"StyleType": "WaypointStyleType_Mountain",
		"Model": "Waypoint_ABS/Icon-ThePlace_Prefab.prefab",
		"Background": ""
	},
	{
		"ID": 39,
		"Name": "雪原营地",
		"FuncType": "WaypointFuncType_Scenario",
		"FuncTypeParam1": 0,
		"WaypointsID": [
			38,
			40
		],
		"StyleType": "WaypointStyleType_Forest",
		"Model": "Waypoint_ABS/Icon-KampoSnowfieldCampsite_Prefab.prefab",
		"Background": ""
	},
	{
		"ID": 40,
		"Name": "路点40",
		"FuncType": "WaypointFuncType_Event",
		"FuncTypeParam1": 129,
		"WaypointsID": [
			39,
			41
		],
		"StyleType": "WaypointStyleType_Mountain",
		"Model": "Waypoint_ABS/Icon-ThePlace_Prefab.prefab",
		"Background": ""
	},
	{
		"ID": 41,
		"Name": "路点41",
		"FuncType": "WaypointFuncType_Event",
		"FuncTypeParam1": 130,
		"WaypointsID": [
			40,
			42
		],
		"StyleType": "WaypointStyleType_ActivityEvent",
		"Model": "Waypoint_ABS/Icon-ThePlace_Prefab.prefab",
		"Background": ""
	},
	{
		"ID": 42,
		"Name": "路点42",
		"FuncType": "WaypointFuncType_Event",
		"FuncTypeParam1": 131,
		"WaypointsID": [
			41,
			44,
			62
		],
		"StyleType": "WaypointStyleType_Mountain",
		"Model": "Waypoint_ABS/Icon-ThePlace_Prefab.prefab",
		"Background": ""
	},
	{
		"ID": 43,
		"Name": "暗影洞窟",
		"FuncType": "WaypointFuncType_Scenario",
		"FuncTypeParam1": 0,
		"WaypointsID": [
			30
		],
		"StyleType": "WaypointStyleType_Mountain",
		"Model": "Waypoint_ABS/Icon-KampoCaveIces_Prefab.prefab",
		"Background": ""
	},
	{
		"ID": 44,
		"Name": "路点44",
		"FuncType": "WaypointFuncType_Event",
		"FuncTypeParam1": 132,
		"WaypointsID": [
			42,
			45,
			72
		],
		"StyleType": "WaypointStyleType_Mountain",
		"Model": "Waypoint_ABS/Icon-ThePlace_Prefab.prefab",
		"Background": ""
	},
	{
		"ID": 45,
		"Name": "路点45",
		"FuncType": "WaypointFuncType_Event",
		"FuncTypeParam1": 133,
		"WaypointsID": [
			44,
			46
		],
		"StyleType": "WaypointStyleType_Forest",
		"Model": "Waypoint_ABS/Icon-ThePlace_Prefab.prefab",
		"Background": ""
	},
	{
		"ID": 46,
		"Name": "英斯卡诺要塞",
		"FuncType": "WaypointFuncType_Scenario",
		"FuncTypeParam1": 0,
		"WaypointsID": [
			45,
			47
		],
		"StyleType": "WaypointStyleType_Village",
		"Model": "Waypoint_ABS/Icon-IscanoFort.prefab",
		"Background": "",
		"StateList": [
			{
				"ScenarioId": 18,
				"StateName": "Fire"
			},
			{
				"ScenarioId": 35,
				"StateName": "Standby"
			},
			{
				"ScenarioId": 51,
				"StateName": "Light"
			}
		]
	},
	{
		"ID": 47,
		"Name": "路点47",
		"FuncType": "WaypointFuncType_Event",
		"FuncTypeParam1": 134,
		"WaypointsID": [
			46,
			48
		],
		"StyleType": "WaypointStyleType_Mountain",
		"Model": "Waypoint_ABS/Icon-ThePlace_Prefab.prefab",
		"Background": ""
	},
	{
		"ID": 48,
		"Name": "路点48",
		"FuncType": "WaypointFuncType_Event",
		"FuncTypeParam1": 135,
		"WaypointsID": [
			47,
			49,
			73
		],
		"StyleType": "WaypointStyleType_Mountain",
		"Model": "Waypoint_ABS/Icon-ThePlace_Prefab.prefab",
		"Background": ""
	},
	{
		"ID": 49,
		"Name": "罗泽蒙特岗哨",
		"FuncType": "WaypointFuncType_Scenario",
		"FuncTypeParam1": 0,
		"WaypointsID": [
			48,
			50,
			101
		],
		"StyleType": "WaypointStyleType_Forest",
		"Model": "Waypoint_ABS/Icon-Sentry_Prefab.prefab",
		"Background": ""
	},
	{
		"ID": 50,
		"Name": "路点50",
		"FuncType": "WaypointFuncType_Event",
		"FuncTypeParam1": 136,
		"WaypointsID": [
			49,
			51
		],
		"StyleType": "WaypointStyleType_None",
		"Model": "Waypoint_ABS/Icon-ThePlace_Prefab.prefab",
		"Background": ""
	},
	{
		"ID": 51,
		"Name": "路点51",
		"FuncType": "WaypointFuncType_Event",
		"FuncTypeParam1": 137,
		"WaypointsID": [
			50,
			52,
			77
		],
		"StyleType": "WaypointStyleType_ActivityEvent",
		"Model": "Waypoint_ABS/Icon-ThePlace_Prefab.prefab",
		"Background": ""
	},
	{
		"ID": 52,
		"Name": "路点52",
		"FuncType": "WaypointFuncType_Event",
		"FuncTypeParam1": 138,
		"WaypointsID": [
			51,
			81,
			53
		],
		"StyleType": "WaypointStyleType_None",
		"Model": "Waypoint_ABS/Icon-ThePlace_Prefab.prefab",
		"Background": ""
	},
	{
		"ID": 53,
		"Name": "沼泽浮岛",
		"FuncType": "WaypointFuncType_Scenario",
		"FuncTypeParam1": 0,
		"WaypointsID": [
			52
		],
		"StyleType": "WaypointStyleType_Mountain",
		"Model": "Waypoint_ABS/Icon_BogLand_Prefab.prefab",
		"Background": ""
	},
	{
		"ID": 54,
		"Name": "路点54",
		"FuncType": "WaypointFuncType_Event",
		"FuncTypeParam1": 139,
		"WaypointsID": [
			3
		],
		"StyleType": "WaypointStyleType_Mountain",
		"Model": "Waypoint_ABS/Icon-ThePlace_Prefab.prefab",
		"Background": ""
	},
	{
		"ID": 55,
		"Name": "路点55",
		"FuncType": "WaypointFuncType_Event",
		"FuncTypeParam1": 140,
		"WaypointsID": [
			6,
			56
		],
		"StyleType": "WaypointStyleType_Forest",
		"Model": "Waypoint_ABS/Icon-ThePlace_Prefab.prefab",
		"Background": ""
	},
	{
		"ID": 56,
		"Name": "路点56",
		"FuncType": "WaypointFuncType_Event",
		"FuncTypeParam1": 141,
		"WaypointsID": [
			55
		],
		"StyleType": "WaypointStyleType_Forest",
		"Model": "Waypoint_ABS/Icon-ThePlace_Prefab.prefab",
		"Background": ""
	},
	{
		"ID": 57,
		"Name": "路点57",
		"FuncType": "WaypointFuncType_Event",
		"FuncTypeParam1": 142,
		"WaypointsID": [
			10
		],
		"StyleType": "WaypointStyleType_Mountain",
		"Model": "Waypoint_ABS/Icon-ThePlace_Prefab.prefab",
		"Background": ""
	},
	{
		"ID": 58,
		"Name": "路点58",
		"FuncType": "WaypointFuncType_Event",
		"FuncTypeParam1": 143,
		"WaypointsID": [
			13,
			78
		],
		"StyleType": "WaypointStyleType_Mountain",
		"Model": "Waypoint_ABS/Icon-ThePlace_Prefab.prefab",
		"Background": ""
	},
	{
		"ID": 59,
		"Name": "路点59",
		"FuncType": "WaypointFuncType_Event",
		"FuncTypeParam1": 144,
		"WaypointsID": [
			17
		],
		"StyleType": "WaypointStyleType_Forest",
		"Model": "Waypoint_ABS/Icon-ThePlace_Prefab.prefab",
		"Background": ""
	},
	{
		"ID": 60,
		"Name": "路点60",
		"FuncType": "WaypointFuncType_Event",
		"FuncTypeParam1": 145,
		"WaypointsID": [
			20,
			61
		],
		"StyleType": "WaypointStyleType_Mountain",
		"Model": "Waypoint_ABS/Icon-ThePlace_Prefab.prefab",
		"Background": ""
	},
	{
		"ID": 61,
		"Name": "路点61",
		"FuncType": "WaypointFuncType_Event",
		"FuncTypeParam1": 146,
		"WaypointsID": [
			60
		],
		"StyleType": "WaypointStyleType_Mountain",
		"Model": "Waypoint_ABS/Icon-ThePlace_Prefab.prefab",
		"Background": ""
	},
	{
		"ID": 62,
		"Name": "路点62",
		"FuncType": "WaypointFuncType_Event",
		"FuncTypeParam1": 147,
		"WaypointsID": [
			42
		],
		"StyleType": "WaypointStyleType_Mountain",
		"Model": "Waypoint_ABS/Icon-ThePlace_Prefab.prefab",
		"Background": ""
	},
	{
		"ID": 63,
		"Name": "路点63",
		"FuncType": "WaypointFuncType_Event",
		"FuncTypeParam1": 148,
		"WaypointsID": [
			1,
			64
		],
		"StyleType": "WaypointStyleType_Forest",
		"Model": "Waypoint_ABS/Icon-ThePlace_Prefab.prefab",
		"Background": ""
	},
	{
		"ID": 64,
		"Name": "路点64",
		"FuncType": "WaypointFuncType_Event",
		"FuncTypeParam1": 149,
		"WaypointsID": [
			63,
			65
		],
		"StyleType": "WaypointStyleType_Forest",
		"Model": "Waypoint_ABS/Icon-ThePlace_Prefab.prefab",
		"Background": ""
	},
	{
		"ID": 65,
		"Name": "路点65",
		"FuncType": "WaypointFuncType_Event",
		"FuncTypeParam1": 150,
		"WaypointsID": [
			64
		],
		"StyleType": "WaypointStyleType_Mountain",
		"Model": "Waypoint_ABS/Icon-ThePlace_Prefab.prefab",
		"Background": ""
	},
	{
		"ID": 66,
		"Name": "路点66",
		"FuncType": "WaypointFuncType_Event",
		"FuncTypeParam1": 151,
		"WaypointsID": [
			34,
			67
		],
		"StyleType": "WaypointStyleType_Mountain",
		"Model": "Waypoint_ABS/Icon-ThePlace_Prefab.prefab",
		"Background": ""
	},
	{
		"ID": 67,
		"Name": "路点67",
		"FuncType": "WaypointFuncType_Event",
		"FuncTypeParam1": 152,
		"WaypointsID": [
			66,
			68
		],
		"StyleType": "WaypointStyleType_Forest",
		"Model": "Waypoint_ABS/Icon-ThePlace_Prefab.prefab",
		"Background": ""
	},
	{
		"ID": 68,
		"Name": "路点68",
		"FuncType": "WaypointFuncType_Event",
		"FuncTypeParam1": 153,
		"WaypointsID": [
			67,
			69
		],
		"StyleType": "WaypointStyleType_Mountain",
		"Model": "Waypoint_ABS/Icon-ThePlace_Prefab.prefab",
		"Background": ""
	},
	{
		"ID": 69,
		"Name": "路点69",
		"FuncType": "WaypointFuncType_Event",
		"FuncTypeParam1": 154,
		"WaypointsID": [
			68
		],
		"StyleType": "WaypointStyleType_Mountain",
		"Model": "Waypoint_ABS/Icon-ThePlace_Prefab.prefab",
		"Background": ""
	},
	{
		"ID": 70,
		"Name": "路点70",
		"FuncType": "WaypointFuncType_Event",
		"FuncTypeParam1": 155,
		"WaypointsID": [
			37,
			71
		],
		"StyleType": "WaypointStyleType_Mountain",
		"Model": "Waypoint_ABS/Icon-ThePlace_Prefab.prefab",
		"Background": ""
	},
	{
		"ID": 71,
		"Name": "路点71",
		"FuncType": "WaypointFuncType_Event",
		"FuncTypeParam1": 156,
		"WaypointsID": [
			70
		],
		"StyleType": "WaypointStyleType_Forest",
		"Model": "Waypoint_ABS/Icon-ThePlace_Prefab.prefab",
		"Background": ""
	},
	{
		"ID": 72,
		"Name": "路点72",
		"FuncType": "WaypointFuncType_Event",
		"FuncTypeParam1": 157,
		"WaypointsID": [
			44
		],
		"StyleType": "WaypointStyleType_Mountain",
		"Model": "Waypoint_ABS/Icon-ThePlace_Prefab.prefab",
		"Background": ""
	},
	{
		"ID": 73,
		"Name": "路点73",
		"FuncType": "WaypointFuncType_Event",
		"FuncTypeParam1": 158,
		"WaypointsID": [
			48,
			74
		],
		"StyleType": "WaypointStyleType_Mountain",
		"Model": "Waypoint_ABS/Icon-ThePlace_Prefab.prefab",
		"Background": ""
	},
	{
		"ID": 74,
		"Name": "路点74",
		"FuncType": "WaypointFuncType_Event",
		"FuncTypeParam1": 159,
		"WaypointsID": [
			73,
			75,
			76
		],
		"StyleType": "WaypointStyleType_Mountain",
		"Model": "Waypoint_ABS/Icon-ThePlace_Prefab.prefab",
		"Background": ""
	},
	{
		"ID": 75,
		"Name": "路点75",
		"FuncType": "WaypointFuncType_Event",
		"FuncTypeParam1": 160,
		"WaypointsID": [
			74
		],
		"StyleType": "WaypointStyleType_Forest",
		"Model": "Waypoint_ABS/Icon-ThePlace_Prefab.prefab",
		"Background": ""
	},
	{
		"ID": 76,
		"Name": "路点76",
		"FuncType": "WaypointFuncType_Event",
		"FuncTypeParam1": 161,
		"WaypointsID": [
			74
		],
		"StyleType": "WaypointStyleType_Forest",
		"Model": "Waypoint_ABS/Icon-ThePlace_Prefab.prefab",
		"Background": ""
	},
	{
		"ID": 77,
		"Name": "路点77",
		"FuncType": "WaypointFuncType_Event",
		"FuncTypeParam1": 162,
		"WaypointsID": [
			51
		],
		"StyleType": "WaypointStyleType_Mountain",
		"Model": "Waypoint_ABS/Icon-ThePlace_Prefab.prefab",
		"Background": ""
	},
	{
		"ID": 78,
		"Name": "路点78",
		"FuncType": "WaypointFuncType_Event",
		"FuncTypeParam1": 163,
		"WaypointsID": [
			58
		],
		"StyleType": "WaypointStyleType_Mountain",
		"Model": "Waypoint_ABS/Icon-ThePlace_Prefab.prefab",
		"Background": ""
	},
	{
		"ID": 79,
		"Name": "路点79",
		"FuncType": "WaypointFuncType_Event",
		"FuncTypeParam1": 164,
		"WaypointsID": [
			25,
			80
		],
		"StyleType": "WaypointStyleType_Forest",
		"Model": "Waypoint_ABS/Icon-ThePlace_Prefab.prefab",
		"Background": ""
	},
	{
		"ID": 80,
		"Name": "路点80",
		"FuncType": "WaypointFuncType_Event",
		"FuncTypeParam1": 165,
		"WaypointsID": [
			79
		],
		"StyleType": "WaypointStyleType_Mountain",
		"Model": "Waypoint_ABS/Icon-ThePlace_Prefab.prefab",
		"Background": ""
	},
	{
		"ID": 81,
		"Name": "路点81",
		"FuncType": "WaypointFuncType_Event",
		"FuncTypeParam1": 166,
		"WaypointsID": [
			52
		],
		"StyleType": "WaypointStyleType_Mountain",
		"Model": "Waypoint_ABS/Icon-ThePlace_Prefab.prefab",
		"Background": ""
	},
	{
		"ID": 82,
		"Name": "诺森卢瓦尔城",
		"FuncType": "WaypointFuncType_Scenario",
		"FuncTypeParam1": 0,
		"WaypointsID": [
			104,
			105,
			108
		],
		"StyleType": "WaypointStyleType_Mountain",
		"Model": "Waypoint_ABS/Icon_Nossen_Prefab.prefab",
		"Background": ""
	},
	{
		"ID": 83,
		"Name": "艾斯德鲁遗迹",
		"FuncType": "WaypointFuncType_Scenario",
		"FuncTypeParam1": 0,
		"WaypointsID": [
			110,
			119,
			111
		],
		"StyleType": "WaypointStyleType_Forest",
		"Model": "Waypoint_ABS/Icon_TheTempleRuins_Prefab.prefab",
		"Background": ""
	},
	{
		"ID": 84,
		"Name": "伊利斯城",
		"FuncType": "WaypointFuncType_Scenario",
		"FuncTypeParam1": 0,
		"WaypointsID": [
			113,
			120
		],
		"StyleType": "WaypointStyleType_Village",
		"Model": "Waypoint_ABS/Icon_Isbash_Prefab.prefab",
		"Background": ""
	},
	{
		"ID": 85,
		"Name": "双桥岗哨",
		"FuncType": "WaypointFuncType_Scenario",
		"FuncTypeParam1": 0,
		"WaypointsID": [
			120,
			122
		],
		"StyleType": "WaypointStyleType_Mountain",
		"Model": "Waypoint_ABS/Icon_TwinBridges_Prefab.prefab",
		"Background": ""
	},
	{
		"ID": 86,
		"Name": "翡翠之门",
		"FuncType": "WaypointFuncType_Scenario",
		"FuncTypeParam1": 0,
		"WaypointsID": [
			123,
			124
		],
		"StyleType": "WaypointStyleType_Mountain",
		"Model": "Waypoint_ABS/Icon_TheDoorOfJade_Prefab.prefab",
		"Background": ""
	},
	{
		"ID": 87,
		"Name": "黎姆利亚港",
		"FuncType": "WaypointFuncType_Scenario",
		"FuncTypeParam1": 0,
		"WaypointsID": [
			160,
			161
		],
		"StyleType": "WaypointStyleType_Forest",
		"Model": "Waypoint_ABS/Icon_Limuliyagang_Prefab.prefab",
		"Background": ""
	},
	{
		"ID": 88,
		"Name": "巴尔迪亚要塞",
		"FuncType": "WaypointFuncType_Scenario",
		"FuncTypeParam1": 0,
		"WaypointsID": [
			162,
			170,
			165,
			174
		],
		"StyleType": "WaypointStyleType_Mountain",
		"Model": "Waypoint_ABS/Icon_Baerdiyaosai_Prefab.prefab",
		"Background": ""
	},
	{
		"ID": 89,
		"Name": "希柏里尔城",
		"FuncType": "WaypointFuncType_Scenario",
		"FuncTypeParam1": 0,
		"WaypointsID": [
			168
		],
		"StyleType": "WaypointStyleType_Mountain",
		"Model": "Waypoint_ABS/Icon_Hyperborea_Prefab.prefab",
		"Background": "",
		"StateList": [
			{
				"ScenarioId": 35,
				"StateName": "Standby"
			},
			{
				"ScenarioId": 54,
				"StateName": "Light"
			}
		]
	},
	{
		"ID": 90,
		"Name": "克莱瑞恩岗哨",
		"FuncType": "WaypointFuncType_Scenario",
		"FuncTypeParam1": 0,
		"WaypointsID": [
			175,
			178,
			179
		],
		"StyleType": "WaypointStyleType_Forest",
		"Model": "Waypoint_ABS/Icon_KelaireienSentry_Prefab.prefab",
		"Background": ""
	},
	{
		"ID": 91,
		"Name": "古帝国废墟",
		"FuncType": "WaypointFuncType_Scenario",
		"FuncTypeParam1": 0,
		"WaypointsID": [
			178,
			182
		],
		"StyleType": "WaypointStyleType_Mountain",
		"Model": "Waypoint_ABS/Icon_EmpireRuins_Prefab.prefab",
		"Background": ""
	},
	{
		"ID": 92,
		"Name": "希柏里尔大教堂",
		"FuncType": "WaypointFuncType_Scenario",
		"FuncTypeParam1": 0,
		"WaypointsID": [
			184
		],
		"StyleType": "WaypointStyleType_Forest",
		"Model": "Waypoint_ABS/Icon_SadChurch_Prefab.prefab",
		"Background": ""
	},
	{
		"ID": 93,
		"Name": "新月港",
		"FuncType": "WaypointFuncType_Scenario",
		"FuncTypeParam1": 0,
		"WaypointsID": [
			192,
			193,
			198
		],
		"StyleType": "WaypointStyleType_Forest",
		"Model": "Waypoint_ABS/Icon_MoonHarbor_Prefab.prefab",
		"Background": ""
	},
	{
		"ID": 94,
		"Name": "兰德镇",
		"FuncType": "WaypointFuncType_Scenario",
		"FuncTypeParam1": 0,
		"WaypointsID": [
			194
		],
		"StyleType": "WaypointStyleType_Forest",
		"Model": "Waypoint_ABS/Icon_MiraPort_Prefab.prefab",
		"Background": ""
	},
	{
		"ID": 95,
		"Name": "阿卡姆要塞",
		"FuncType": "WaypointFuncType_Scenario",
		"FuncTypeParam1": 0,
		"WaypointsID": [
			199
		],
		"StyleType": "WaypointStyleType_Forest",
		"Model": "Waypoint_ABS/Icon_AkamuFort_Prefab.prefab",
		"Background": ""
	},
	{
		"ID": 96,
		"Name": "临时空港",
		"FuncType": "WaypointFuncType_Scenario",
		"FuncTypeParam1": 0,
		"WaypointsID": [
			204,
			207,
			205
		],
		"StyleType": "WaypointStyleType_Forest",
		"Model": "Waypoint_ABS/Icon_TemporaryAirport_Prefab.prefab",
		"Background": ""
	},
	{
		"ID": 97,
		"Name": "迪利斯海峡",
		"FuncType": "WaypointFuncType_Scenario",
		"FuncTypeParam1": 0,
		"WaypointsID": [
			208,
			209,
			211
		],
		"StyleType": "WaypointStyleType_Forest",
		"Model": "Waypoint_ABS/Icon_DslStrait_Prefab.prefab",
		"Background": ""
	},
	{
		"ID": 98,
		"Name": "魔爪要塞",
		"FuncType": "WaypointFuncType_Scenario",
		"FuncTypeParam1": 0,
		"WaypointsID": [
			212,
			217
		],
		"StyleType": "WaypointStyleType_Forest",
		"Model": "Waypoint_ABS/Icon_DevilFortress_Prefab.prefab",
		"Background": ""
	},
	{
		"ID": 99,
		"Name": "封印的殿堂",
		"FuncType": "WaypointFuncType_Scenario",
		"FuncTypeParam1": 0,
		"WaypointsID": [
			218,
			219
		],
		"StyleType": "WaypointStyleType_Forest",
		"Model": "Waypoint_ABS/Icon_ClosedPalace_Prefab.prefab",
		"Background": ""
	},
	{
		"ID": 101,
		"Name": "路点101",
		"FuncType": "WaypointFuncType_Event",
		"FuncTypeParam1": 167,
		"WaypointsID": [
			49,
			102
		],
		"StyleType": "WaypointStyleType_Mountain",
		"Model": "Waypoint_ABS/Icon-ThePlace_Prefab.prefab",
		"Background": ""
	},
	{
		"ID": 102,
		"Name": "路点102",
		"FuncType": "WaypointFuncType_Event",
		"FuncTypeParam1": 168,
		"WaypointsID": [
			101,
			103,
			104
		],
		"StyleType": "WaypointStyleType_Forest",
		"Model": "Waypoint_ABS/Icon-ThePlace_Prefab.prefab",
		"Background": ""
	},
	{
		"ID": 103,
		"Name": "路点103",
		"FuncType": "WaypointFuncType_Event",
		"FuncTypeParam1": 169,
		"WaypointsID": [
			102
		],
		"StyleType": "WaypointStyleType_Mountain",
		"Model": "Waypoint_ABS/Icon-ThePlace_Prefab.prefab",
		"Background": ""
	},
	{
		"ID": 104,
		"Name": "路点104",
		"FuncType": "WaypointFuncType_Event",
		"FuncTypeParam1": 170,
		"WaypointsID": [
			102,
			82
		],
		"StyleType": "WaypointStyleType_Forest",
		"Model": "Waypoint_ABS/Icon-ThePlace_Prefab.prefab",
		"Background": ""
	},
	{
		"ID": 105,
		"Name": "路点105",
		"FuncType": "WaypointFuncType_Event",
		"FuncTypeParam1": 171,
		"WaypointsID": [
			82,
			106
		],
		"StyleType": "WaypointStyleType_Forest",
		"Model": "Waypoint_ABS/Icon-ThePlace_Prefab.prefab",
		"Background": ""
	},
	{
		"ID": 106,
		"Name": "路点106",
		"FuncType": "WaypointFuncType_Event",
		"FuncTypeParam1": 172,
		"WaypointsID": [
			105,
			107
		],
		"StyleType": "WaypointStyleType_Mountain",
		"Model": "Waypoint_ABS/Icon-ThePlace_Prefab.prefab",
		"Background": ""
	},
	{
		"ID": 107,
		"Name": "路点107",
		"FuncType": "WaypointFuncType_Event",
		"FuncTypeParam1": 173,
		"WaypointsID": [
			106
		],
		"StyleType": "WaypointStyleType_Mountain",
		"Model": "Waypoint_ABS/Icon-ThePlace_Prefab.prefab",
		"Background": ""
	},
	{
		"ID": 108,
		"Name": "路点108",
		"FuncType": "WaypointFuncType_Event",
		"FuncTypeParam1": 174,
		"WaypointsID": [
			82,
			109
		],
		"StyleType": "WaypointStyleType_Forest",
		"Model": "Waypoint_ABS/Icon-ThePlace_Prefab.prefab",
		"Background": ""
	},
	{
		"ID": 109,
		"Name": "路点109",
		"FuncType": "WaypointFuncType_Event",
		"FuncTypeParam1": 175,
		"WaypointsID": [
			108,
			121,
			110
		],
		"StyleType": "WaypointStyleType_Forest",
		"Model": "Waypoint_ABS/Icon-ThePlace_Prefab.prefab",
		"Background": ""
	},
	{
		"ID": 110,
		"Name": "路点110",
		"FuncType": "WaypointFuncType_Event",
		"FuncTypeParam1": 176,
		"WaypointsID": [
			109,
			83
		],
		"StyleType": "WaypointStyleType_Cave",
		"Model": "Waypoint_ABS/Icon-ThePlace_Prefab.prefab",
		"Background": ""
	},
	{
		"ID": 111,
		"Name": "路点111",
		"FuncType": "WaypointFuncType_Event",
		"FuncTypeParam1": 179,
		"WaypointsID": [
			83,
			112
		],
		"StyleType": "WaypointStyleType_Cave",
		"Model": "Waypoint_ABS/Icon-ThePlace_Prefab.prefab",
		"Background": ""
	},
	{
		"ID": 112,
		"Name": "路点112",
		"FuncType": "WaypointFuncType_Event",
		"FuncTypeParam1": 180,
		"WaypointsID": [
			111,
			113,
			114,
			126
		],
		"StyleType": "WaypointStyleType_Cave",
		"Model": "Waypoint_ABS/Icon-ThePlace_Prefab.prefab",
		"Background": ""
	},
	{
		"ID": 113,
		"Name": "路点113",
		"FuncType": "WaypointFuncType_Event",
		"FuncTypeParam1": 186,
		"WaypointsID": [
			112,
			84
		],
		"StyleType": "WaypointStyleType_ActivityEvent",
		"Model": "Waypoint_ABS/Icon-ThePlace_Prefab.prefab",
		"Background": ""
	},
	{
		"ID": 114,
		"Name": "路点114",
		"FuncType": "WaypointFuncType_Event",
		"FuncTypeParam1": 181,
		"WaypointsID": [
			112,
			116
		],
		"StyleType": "WaypointStyleType_Forest",
		"Model": "Waypoint_ABS/Icon-ThePlace_Prefab.prefab",
		"Background": ""
	},
	{
		"ID": 115,
		"Name": "路点115",
		"FuncType": "WaypointFuncType_Event",
		"FuncTypeParam1": 182,
		"WaypointsID": [
			116
		],
		"StyleType": "WaypointStyleType_Mountain",
		"Model": "Waypoint_ABS/Icon-ThePlace_Prefab.prefab",
		"Background": ""
	},
	{
		"ID": 116,
		"Name": "路点116",
		"FuncType": "WaypointFuncType_Event",
		"FuncTypeParam1": 183,
		"WaypointsID": [
			114,
			115,
			117
		],
		"StyleType": "WaypointStyleType_Mountain",
		"Model": "Waypoint_ABS/Icon-ThePlace_Prefab.prefab",
		"Background": ""
	},
	{
		"ID": 117,
		"Name": "路点117",
		"FuncType": "WaypointFuncType_Event",
		"FuncTypeParam1": 184,
		"WaypointsID": [
			116,
			118
		],
		"StyleType": "WaypointStyleType_Forest",
		"Model": "Waypoint_ABS/Icon-ThePlace_Prefab.prefab",
		"Background": ""
	},
	{
		"ID": 118,
		"Name": "路点118",
		"FuncType": "WaypointFuncType_Event",
		"FuncTypeParam1": 185,
		"WaypointsID": [
			117
		],
		"StyleType": "WaypointStyleType_Mountain",
		"Model": "Waypoint_ABS/Icon-ThePlace_Prefab.prefab",
		"Background": ""
	},
	{
		"ID": 119,
		"Name": "路点119",
		"FuncType": "WaypointFuncType_Event",
		"FuncTypeParam1": 178,
		"WaypointsID": [
			83
		],
		"StyleType": "WaypointStyleType_Cave",
		"Model": "Waypoint_ABS/Icon-ThePlace_Prefab.prefab",
		"Background": ""
	},
	{
		"ID": 120,
		"Name": "路点120",
		"FuncType": "WaypointFuncType_Event",
		"FuncTypeParam1": 187,
		"WaypointsID": [
			84,
			85,
			137
		],
		"StyleType": "WaypointStyleType_Mountain",
		"Model": "Waypoint_ABS/Icon-ThePlace_Prefab.prefab",
		"Background": ""
	},
	{
		"ID": 121,
		"Name": "路点121",
		"FuncType": "WaypointFuncType_Event",
		"FuncTypeParam1": 177,
		"WaypointsID": [
			109
		],
		"StyleType": "WaypointStyleType_Forest",
		"Model": "Waypoint_ABS/Icon-ThePlace_Prefab.prefab",
		"Background": ""
	},
	{
		"ID": 122,
		"Name": "路点122",
		"FuncType": "WaypointFuncType_Event",
		"FuncTypeParam1": 188,
		"WaypointsID": [
			85,
			123
		],
		"StyleType": "WaypointStyleType_Mountain",
		"Model": "Waypoint_ABS/Icon-ThePlace_Prefab.prefab",
		"Background": ""
	},
	{
		"ID": 123,
		"Name": "路点123",
		"FuncType": "WaypointFuncType_Event",
		"FuncTypeParam1": 189,
		"WaypointsID": [
			122,
			86
		],
		"StyleType": "WaypointStyleType_Mountain",
		"Model": "Waypoint_ABS/Icon-ThePlace_Prefab.prefab",
		"Background": ""
	},
	{
		"ID": 124,
		"Name": "路点124",
		"FuncType": "WaypointFuncType_Event",
		"FuncTypeParam1": 190,
		"WaypointsID": [
			86,
			125
		],
		"StyleType": "WaypointStyleType_Forest",
		"Model": "Waypoint_ABS/Icon-ThePlace_Prefab.prefab",
		"Background": ""
	},
	{
		"ID": 125,
		"Name": "路点125",
		"FuncType": "WaypointFuncType_Event",
		"FuncTypeParam1": 191,
		"WaypointsID": [
			124,
			29
		],
		"StyleType": "WaypointStyleType_Forest",
		"Model": "Waypoint_ABS/Icon-ThePlace_Prefab.prefab",
		"Background": ""
	},
	{
		"ID": 126,
		"Name": "路点126",
		"FuncType": "WaypointFuncType_Event",
		"FuncTypeParam1": 192,
		"WaypointsID": [
			112,
			127
		],
		"StyleType": "WaypointStyleType_Cave",
		"Model": "Waypoint_ABS/Icon-ThePlace_Prefab.prefab",
		"Background": ""
	},
	{
		"ID": 127,
		"Name": "路点127",
		"FuncType": "WaypointFuncType_Event",
		"FuncTypeParam1": 193,
		"WaypointsID": [
			126,
			130,
			128,
			132
		],
		"StyleType": "WaypointStyleType_Cave",
		"Model": "Waypoint_ABS/Icon-ThePlace_Prefab.prefab",
		"Background": ""
	},
	{
		"ID": 128,
		"Name": "路点128",
		"FuncType": "WaypointFuncType_Event",
		"FuncTypeParam1": 196,
		"WaypointsID": [
			127,
			129
		],
		"StyleType": "WaypointStyleType_Cave",
		"Model": "Waypoint_ABS/Icon-ThePlace_Prefab.prefab",
		"Background": ""
	},
	{
		"ID": 129,
		"Name": "路点129",
		"FuncType": "WaypointFuncType_Event",
		"FuncTypeParam1": 197,
		"WaypointsID": [
			128
		],
		"StyleType": "WaypointStyleType_Cave",
		"Model": "Waypoint_ABS/Icon-ThePlace_Prefab.prefab",
		"Background": ""
	},
	{
		"ID": 130,
		"Name": "路点130",
		"FuncType": "WaypointFuncType_Event",
		"FuncTypeParam1": 194,
		"WaypointsID": [
			127,
			131
		],
		"StyleType": "WaypointStyleType_Cave",
		"Model": "Waypoint_ABS/Icon-ThePlace_Prefab.prefab",
		"Background": ""
	},
	{
		"ID": 131,
		"Name": "路点131",
		"FuncType": "WaypointFuncType_Event",
		"FuncTypeParam1": 195,
		"WaypointsID": [
			130
		],
		"StyleType": "WaypointStyleType_Cave",
		"Model": "Waypoint_ABS/Icon-ThePlace_Prefab.prefab",
		"Background": ""
	},
	{
		"ID": 132,
		"Name": "路点132",
		"FuncType": "WaypointFuncType_Event",
		"FuncTypeParam1": 198,
		"WaypointsID": [
			127,
			133
		],
		"StyleType": "WaypointStyleType_ActivityEvent",
		"Model": "Waypoint_ABS/Icon-ThePlace_Prefab.prefab",
		"Background": ""
	},
	{
		"ID": 133,
		"Name": "路点133",
		"FuncType": "WaypointFuncType_Event",
		"FuncTypeParam1": 199,
		"WaypointsID": [
			132,
			134
		],
		"StyleType": "WaypointStyleType_Cave",
		"Model": "Waypoint_ABS/Icon-ThePlace_Prefab.prefab",
		"Background": ""
	},
	{
		"ID": 134,
		"Name": "海兰德姆要塞",
		"FuncType": "WaypointFuncType_Scenario",
		"FuncTypeParam1": 0,
		"WaypointsID": [
			133,
			135
		],
		"StyleType": "WaypointStyleType_Mountain",
		"Model": "Waypoint_ABS/Icon_HimladFort_Prefab.prefab",
		"Background": "",
		"StateList": [
			{
				"ScenarioId": 27,
				"StateName": "Broken"
			},
			{
				"ScenarioId": 35,
				"StateName": "Standby"
			},
			{
				"ScenarioId": 52,
				"StateName": "Light"
			}
		]
	},
	{
		"ID": 135,
		"Name": "路点135",
		"FuncType": "WaypointFuncType_Event",
		"FuncTypeParam1": 200,
		"WaypointsID": [
			134,
			136
		],
		"StyleType": "WaypointStyleType_Mountain",
		"Model": "Waypoint_ABS/Icon-ThePlace_Prefab.prefab",
		"Background": ""
	},
	{
		"ID": 136,
		"Name": "路点136",
		"FuncType": "WaypointFuncType_Event",
		"FuncTypeParam1": 201,
		"WaypointsID": [
			135
		],
		"StyleType": "WaypointStyleType_Mountain",
		"Model": "Waypoint_ABS/Icon-ThePlace_Prefab.prefab",
		"Background": ""
	},
	{
		"ID": 137,
		"Name": "路点137",
		"FuncType": "WaypointFuncType_Event",
		"FuncTypeParam1": 202,
		"WaypointsID": [
			120,
			138
		],
		"StyleType": "WaypointStyleType_Mountain",
		"Model": "Waypoint_ABS/Icon-ThePlace_Prefab.prefab",
		"Background": ""
	},
	{
		"ID": 138,
		"Name": "路点138",
		"FuncType": "WaypointFuncType_Event",
		"FuncTypeParam1": 203,
		"WaypointsID": [
			137,
			140,
			139
		],
		"StyleType": "WaypointStyleType_Forest",
		"Model": "Waypoint_ABS/Icon-ThePlace_Prefab.prefab",
		"Background": ""
	},
	{
		"ID": 139,
		"Name": "米拉港",
		"FuncType": "WaypointFuncType_Scenario",
		"FuncTypeParam1": 0,
		"WaypointsID": [
			138,
			143
		],
		"StyleType": "WaypointStyleType_Village",
		"Model": "Waypoint_ABS/Icon_MiraPort_Prefab.prefab",
		"Background": ""
	},
	{
		"ID": 140,
		"Name": "路点140",
		"FuncType": "WaypointFuncType_Event",
		"FuncTypeParam1": 204,
		"WaypointsID": [
			138,
			141
		],
		"StyleType": "WaypointStyleType_Forest",
		"Model": "Waypoint_ABS/Icon-ThePlace_Prefab.prefab",
		"Background": ""
	},
	{
		"ID": 141,
		"Name": "路点141",
		"FuncType": "WaypointFuncType_Event",
		"FuncTypeParam1": 205,
		"WaypointsID": [
			140,
			142
		],
		"StyleType": "WaypointStyleType_Forest",
		"Model": "Waypoint_ABS/Icon-ThePlace_Prefab.prefab",
		"Background": ""
	},
	{
		"ID": 142,
		"Name": "路点142",
		"FuncType": "WaypointFuncType_Event",
		"FuncTypeParam1": 206,
		"WaypointsID": [
			141
		],
		"StyleType": "WaypointStyleType_Mountain",
		"Model": "Waypoint_ABS/Icon-ThePlace_Prefab.prefab",
		"Background": ""
	},
	{
		"ID": 143,
		"Name": "路点143",
		"FuncType": "WaypointFuncType_Event",
		"FuncTypeParam1": 207,
		"WaypointsID": [
			139,
			144
		],
		"StyleType": "WaypointStyleType_None",
		"Model": "Waypoint_ABS/Icon-ThePlace_Prefab.prefab",
		"Background": ""
	},
	{
		"ID": 144,
		"Name": "路点144",
		"FuncType": "WaypointFuncType_Event",
		"FuncTypeParam1": 208,
		"WaypointsID": [
			143,
			145
		],
		"StyleType": "WaypointStyleType_None",
		"Model": "Waypoint_ABS/Icon-ThePlace_Prefab.prefab",
		"Background": ""
	},
	{
		"ID": 145,
		"Name": "帝国舰船",
		"FuncType": "WaypointFuncType_Scenario",
		"FuncTypeParam1": 0,
		"WaypointsID": [
			144,
			146,
			150
		],
		"StyleType": "WaypointStyleType_None",
		"Model": "Waypoint_ABS/Icon_Warship_Prefab.prefab",
		"Background": ""
	},
	{
		"ID": 146,
		"Name": "路点146",
		"FuncType": "WaypointFuncType_Event",
		"FuncTypeParam1": 209,
		"WaypointsID": [
			145,
			147
		],
		"StyleType": "WaypointStyleType_None",
		"Model": "Waypoint_ABS/Icon-ThePlace_Prefab.prefab",
		"Background": ""
	},
	{
		"ID": 147,
		"Name": "路点147",
		"FuncType": "WaypointFuncType_Event",
		"FuncTypeParam1": 210,
		"WaypointsID": [
			146,
			148
		],
		"StyleType": "WaypointStyleType_Forest",
		"Model": "Waypoint_ABS/Icon-ThePlace_Prefab.prefab",
		"Background": ""
	},
	{
		"ID": 148,
		"Name": "路点148",
		"FuncType": "WaypointFuncType_Event",
		"FuncTypeParam1": 211,
		"WaypointsID": [
			147,
			149
		],
		"StyleType": "WaypointStyleType_Forest",
		"Model": "Waypoint_ABS/Icon-ThePlace_Prefab.prefab",
		"Background": ""
	},
	{
		"ID": 149,
		"Name": "路点149",
		"FuncType": "WaypointFuncType_Event",
		"FuncTypeParam1": 212,
		"WaypointsID": [
			148
		],
		"StyleType": "WaypointStyleType_Mountain",
		"Model": "Waypoint_ABS/Icon-ThePlace_Prefab.prefab",
		"Background": ""
	},
	{
		"ID": 150,
		"Name": "路点150",
		"FuncType": "WaypointFuncType_Event",
		"FuncTypeParam1": 213,
		"WaypointsID": [
			145,
			151
		],
		"StyleType": "WaypointStyleType_Forest",
		"Model": "Waypoint_ABS/Icon-ThePlace_Prefab.prefab",
		"Background": ""
	},
	{
		"ID": 151,
		"Name": "路点151",
		"FuncType": "WaypointFuncType_Event",
		"FuncTypeParam1": 214,
		"WaypointsID": [
			150,
			152
		],
		"StyleType": "WaypointStyleType_Forest",
		"Model": "Waypoint_ABS/Icon-ThePlace_Prefab.prefab",
		"Background": ""
	},
	{
		"ID": 152,
		"Name": "湖中神殿",
		"FuncType": "WaypointFuncType_Scenario",
		"FuncTypeParam1": 0,
		"WaypointsID": [
			151,
			153
		],
		"StyleType": "WaypointStyleType_Forest",
		"Model": "Waypoint_ABS/Icon_Huzhongshendian_Prefab.prefab",
		"Background": ""
	},
	{
		"ID": 153,
		"Name": "路点153",
		"FuncType": "WaypointFuncType_Event",
		"FuncTypeParam1": 215,
		"WaypointsID": [
			152,
			154,
			159
		],
		"StyleType": "WaypointStyleType_None",
		"Model": "Waypoint_ABS/Icon-ThePlace_Prefab.prefab",
		"Background": ""
	},
	{
		"ID": 154,
		"Name": "路点154",
		"FuncType": "WaypointFuncType_Event",
		"FuncTypeParam1": 216,
		"WaypointsID": [
			153,
			155,
			157
		],
		"StyleType": "WaypointStyleType_Forest",
		"Model": "Waypoint_ABS/Icon-ThePlace_Prefab.prefab",
		"Background": ""
	},
	{
		"ID": 155,
		"Name": "路点155",
		"FuncType": "WaypointFuncType_Event",
		"FuncTypeParam1": 217,
		"WaypointsID": [
			154,
			156
		],
		"StyleType": "WaypointStyleType_None",
		"Model": "Waypoint_ABS/Icon-ThePlace_Prefab.prefab",
		"Background": ""
	},
	{
		"ID": 156,
		"Name": "血色湖面",
		"FuncType": "WaypointFuncType_Scenario",
		"FuncTypeParam1": 0,
		"WaypointsID": [
			155
		],
		"StyleType": "WaypointStyleType_None",
		"Model": "Waypoint_ABS/Icon_Xuesehumian_Prefab.prefab",
		"Background": "",
		"StateList": [
			{
				"ScenarioId": 32,
				"StateName": "Broken"
			},
			{
				"ScenarioId": 35,
				"StateName": "Standby"
			},
			{
				"ScenarioId": 53,
				"StateName": "Light"
			}
		]
	},
	{
		"ID": 157,
		"Name": "路点157",
		"FuncType": "WaypointFuncType_Event",
		"FuncTypeParam1": 218,
		"WaypointsID": [
			154,
			158
		],
		"StyleType": "WaypointStyleType_None",
		"Model": "Waypoint_ABS/Icon-ThePlace_Prefab.prefab",
		"Background": ""
	},
	{
		"ID": 158,
		"Name": "路点158",
		"FuncType": "WaypointFuncType_Event",
		"FuncTypeParam1": 219,
		"WaypointsID": [
			157
		],
		"StyleType": "WaypointStyleType_Village",
		"Model": "Waypoint_ABS/Icon-ThePlace_Prefab.prefab",
		"Background": ""
	},
	{
		"ID": 159,
		"Name": "路点159",
		"FuncType": "WaypointFuncType_Event",
		"FuncTypeParam1": 220,
		"WaypointsID": [
			153,
			160
		],
		"StyleType": "WaypointStyleType_None",
		"Model": "Waypoint_ABS/Icon-ThePlace_Prefab.prefab",
		"Background": ""
	},
	{
		"ID": 160,
		"Name": "路点160",
		"FuncType": "WaypointFuncType_Event",
		"FuncTypeParam1": 221,
		"WaypointsID": [
			159,
			87
		],
		"StyleType": "WaypointStyleType_None",
		"Model": "Waypoint_ABS/Icon-ThePlace_Prefab.prefab",
		"Background": ""
	},
	{
		"ID": 161,
		"Name": "路点161",
		"FuncType": "WaypointFuncType_Event",
		"FuncTypeParam1": 222,
		"WaypointsID": [
			87,
			162
		],
		"StyleType": "WaypointStyleType_ActivityEvent",
		"Model": "Waypoint_ABS/Icon-ThePlace_Prefab.prefab",
		"Background": ""
	},
	{
		"ID": 162,
		"Name": "路点162",
		"FuncType": "WaypointFuncType_Event",
		"FuncTypeParam1": 223,
		"WaypointsID": [
			161,
			88,
			163
		],
		"StyleType": "WaypointStyleType_Forest",
		"Model": "Waypoint_ABS/Icon-ThePlace_Prefab.prefab",
		"Background": ""
	},
	{
		"ID": 163,
		"Name": "路点163",
		"FuncType": "WaypointFuncType_Event",
		"FuncTypeParam1": 224,
		"WaypointsID": [
			162,
			164
		],
		"StyleType": "WaypointStyleType_Forest",
		"Model": "Waypoint_ABS/Icon-ThePlace_Prefab.prefab",
		"Background": ""
	},
	{
		"ID": 164,
		"Name": "路点164",
		"FuncType": "WaypointFuncType_Event",
		"FuncTypeParam1": 225,
		"WaypointsID": [
			163
		],
		"StyleType": "WaypointStyleType_Cave",
		"Model": "Waypoint_ABS/Icon-ThePlace_Prefab.prefab",
		"Background": ""
	},
	{
		"ID": 165,
		"Name": "路点165",
		"FuncType": "WaypointFuncType_Event",
		"FuncTypeParam1": 226,
		"WaypointsID": [
			88,
			166
		],
		"StyleType": "WaypointStyleType_Village",
		"Model": "Waypoint_ABS/Icon-ThePlace_Prefab.prefab",
		"Background": ""
	},
	{
		"ID": 166,
		"Name": "路点166",
		"FuncType": "WaypointFuncType_Event",
		"FuncTypeParam1": 227,
		"WaypointsID": [
			165,
			167,
			168
		],
		"StyleType": "WaypointStyleType_ActivityEvent",
		"Model": "Waypoint_ABS/Icon-ThePlace_Prefab.prefab",
		"Background": ""
	},
	{
		"ID": 167,
		"Name": "路点167",
		"FuncType": "WaypointFuncType_Event",
		"FuncTypeParam1": 228,
		"WaypointsID": [
			166,
			169
		],
		"StyleType": "WaypointStyleType_Mountain",
		"Model": "Waypoint_ABS/Icon-ThePlace_Prefab.prefab",
		"Background": ""
	},
	{
		"ID": 168,
		"Name": "路点168",
		"FuncType": "WaypointFuncType_Event",
		"FuncTypeParam1": 229,
		"WaypointsID": [
			166,
			89
		],
		"StyleType": "WaypointStyleType_ActivityEvent",
		"Model": "Waypoint_ABS/Icon-ThePlace_Prefab.prefab",
		"Background": ""
	},
	{
		"ID": 169,
		"Name": "路点169",
		"FuncType": "WaypointFuncType_Event",
		"FuncTypeParam1": 230,
		"WaypointsID": [
			167
		],
		"StyleType": "WaypointStyleType_Village",
		"Model": "Waypoint_ABS/Icon-ThePlace_Prefab.prefab",
		"Background": ""
	},
	{
		"ID": 170,
		"Name": "路点170",
		"FuncType": "WaypointFuncType_Event",
		"FuncTypeParam1": 231,
		"WaypointsID": [
			88,
			171
		],
		"StyleType": "WaypointStyleType_Forest",
		"Model": "Waypoint_ABS/Icon-ThePlace_Prefab.prefab",
		"Background": ""
	},
	{
		"ID": 171,
		"Name": "路点171",
		"FuncType": "WaypointFuncType_Event",
		"FuncTypeParam1": 232,
		"WaypointsID": [
			170,
			172,
			173
		],
		"StyleType": "WaypointStyleType_Mountain",
		"Model": "Waypoint_ABS/Icon-ThePlace_Prefab.prefab",
		"Background": ""
	},
	{
		"ID": 172,
		"Name": "路点172",
		"FuncType": "WaypointFuncType_Event",
		"FuncTypeParam1": 233,
		"WaypointsID": [
			171
		],
		"StyleType": "WaypointStyleType_Cave",
		"Model": "Waypoint_ABS/Icon-ThePlace_Prefab.prefab",
		"Background": ""
	},
	{
		"ID": 173,
		"Name": "路点173",
		"FuncType": "WaypointFuncType_Event",
		"FuncTypeParam1": 234,
		"WaypointsID": [
			171
		],
		"StyleType": "WaypointStyleType_Village",
		"Model": "Waypoint_ABS/Icon-ThePlace_Prefab.prefab",
		"Background": ""
	},
	{
		"ID": 174,
		"Name": "路点174",
		"FuncType": "WaypointFuncType_Event",
		"FuncTypeParam1": 235,
		"WaypointsID": [
			88,
			175
		],
		"StyleType": "WaypointStyleType_Forest",
		"Model": "Waypoint_ABS/Icon-ThePlace_Prefab.prefab",
		"Background": ""
	},
	{
		"ID": 175,
		"Name": "路点175",
		"FuncType": "WaypointFuncType_Event",
		"FuncTypeParam1": 236,
		"WaypointsID": [
			174,
			176,
			90
		],
		"StyleType": "WaypointStyleType_Forest",
		"Model": "Waypoint_ABS/Icon-ThePlace_Prefab.prefab",
		"Background": ""
	},
	{
		"ID": 176,
		"Name": "路点176",
		"FuncType": "WaypointFuncType_Event",
		"FuncTypeParam1": 237,
		"WaypointsID": [
			175,
			177,
			191
		],
		"StyleType": "WaypointStyleType_Village",
		"Model": "Waypoint_ABS/Icon-ThePlace_Prefab.prefab",
		"Background": ""
	},
	{
		"ID": 177,
		"Name": "路点177",
		"FuncType": "WaypointFuncType_Event",
		"FuncTypeParam1": 238,
		"WaypointsID": [
			176
		],
		"StyleType": "WaypointStyleType_Mountain",
		"Model": "Waypoint_ABS/Icon-ThePlace_Prefab.prefab",
		"Background": ""
	},
	{
		"ID": 178,
		"Name": "路点178",
		"FuncType": "WaypointFuncType_Event",
		"FuncTypeParam1": 239,
		"WaypointsID": [
			90,
			181,
			91
		],
		"StyleType": "WaypointStyleType_Forest",
		"Model": "Waypoint_ABS/Icon-ThePlace_Prefab.prefab",
		"Background": ""
	},
	{
		"ID": 179,
		"Name": "路点179",
		"FuncType": "WaypointFuncType_Event",
		"FuncTypeParam1": 240,
		"WaypointsID": [
			90,
			180
		],
		"StyleType": "WaypointStyleType_Forest",
		"Model": "Waypoint_ABS/Icon-ThePlace_Prefab.prefab",
		"Background": ""
	},
	{
		"ID": 180,
		"Name": "路点180",
		"FuncType": "WaypointFuncType_Event",
		"FuncTypeParam1": 241,
		"WaypointsID": [
			179
		],
		"StyleType": "WaypointStyleType_Village",
		"Model": "Waypoint_ABS/Icon-ThePlace_Prefab.prefab",
		"Background": ""
	},
	{
		"ID": 181,
		"Name": "路点181",
		"FuncType": "WaypointFuncType_Event",
		"FuncTypeParam1": 242,
		"WaypointsID": [
			178
		],
		"StyleType": "WaypointStyleType_Mountain",
		"Model": "Waypoint_ABS/Icon-ThePlace_Prefab.prefab",
		"Background": ""
	},
	{
		"ID": 182,
		"Name": "路点182",
		"FuncType": "WaypointFuncType_Event",
		"FuncTypeParam1": 243,
		"WaypointsID": [
			91,
			185,
			187,
			183
		],
		"StyleType": "WaypointStyleType_Forest",
		"Model": "Waypoint_ABS/Icon-ThePlace_Prefab.prefab",
		"Background": ""
	},
	{
		"ID": 183,
		"Name": "路点183",
		"FuncType": "WaypointFuncType_Event",
		"FuncTypeParam1": 244,
		"WaypointsID": [
			182,
			184
		],
		"StyleType": "WaypointStyleType_None",
		"Model": "Waypoint_ABS/Icon-ThePlace_Prefab.prefab",
		"Background": ""
	},
	{
		"ID": 184,
		"Name": "路点184",
		"FuncType": "WaypointFuncType_Event",
		"FuncTypeParam1": 245,
		"WaypointsID": [
			183,
			92
		],
		"StyleType": "WaypointStyleType_None",
		"Model": "Waypoint_ABS/Icon-ThePlace_Prefab.prefab",
		"Background": ""
	},
	{
		"ID": 185,
		"Name": "路点185",
		"FuncType": "WaypointFuncType_Event",
		"FuncTypeParam1": 246,
		"WaypointsID": [
			182,
			186
		],
		"StyleType": "WaypointStyleType_Mountain",
		"Model": "Waypoint_ABS/Icon-ThePlace_Prefab.prefab",
		"Background": ""
	},
	{
		"ID": 186,
		"Name": "路点186",
		"FuncType": "WaypointFuncType_Event",
		"FuncTypeParam1": 247,
		"WaypointsID": [
			185
		],
		"StyleType": "WaypointStyleType_Forest",
		"Model": "Waypoint_ABS/Icon-ThePlace_Prefab.prefab",
		"Background": ""
	},
	{
		"ID": 187,
		"Name": "路点187",
		"FuncType": "WaypointFuncType_Event",
		"FuncTypeParam1": 248,
		"WaypointsID": [
			182,
			188
		],
		"StyleType": "WaypointStyleType_Forest",
		"Model": "Waypoint_ABS/Icon-ThePlace_Prefab.prefab",
		"Background": ""
	},
	{
		"ID": 188,
		"Name": "路点188",
		"FuncType": "WaypointFuncType_Event",
		"FuncTypeParam1": 249,
		"WaypointsID": [
			187,
			189
		],
		"StyleType": "WaypointStyleType_Mountain",
		"Model": "Waypoint_ABS/Icon-ThePlace_Prefab.prefab",
		"Background": ""
	},
	{
		"ID": 189,
		"Name": "路点189",
		"FuncType": "WaypointFuncType_Event",
		"FuncTypeParam1": 250,
		"WaypointsID": [
			188,
			190
		],
		"StyleType": "WaypointStyleType_None",
		"Model": "Waypoint_ABS/Icon-ThePlace_Prefab.prefab",
		"Background": ""
	},
	{
		"ID": 190,
		"Name": "路点190",
		"FuncType": "WaypointFuncType_Event",
		"FuncTypeParam1": 251,
		"WaypointsID": [
			189
		],
		"StyleType": "WaypointStyleType_None",
		"Model": "Waypoint_ABS/Icon-ThePlace_Prefab.prefab",
		"Background": ""
	},
	{
		"ID": 191,
		"Name": "路点191",
		"FuncType": "WaypointFuncType_Event",
		"FuncTypeParam1": 252,
		"WaypointsID": [
			176,
			192
		],
		"StyleType": "WaypointStyleType_Mountain",
		"Model": "Waypoint_ABS/Icon-ThePlace_Prefab.prefab",
		"Background": ""
	},
	{
		"ID": 192,
		"Name": "路点192",
		"FuncType": "WaypointFuncType_Event",
		"FuncTypeParam1": 253,
		"WaypointsID": [
			191,
			93
		],
		"StyleType": "WaypointStyleType_Mountain",
		"Model": "Waypoint_ABS/Icon-ThePlace_Prefab.prefab",
		"Background": ""
	},
	{
		"ID": 193,
		"Name": "路点193",
		"FuncType": "WaypointFuncType_Event",
		"FuncTypeParam1": 254,
		"WaypointsID": [
			93,
			194,
			195
		],
		"StyleType": "WaypointStyleType_Forest",
		"Model": "Waypoint_ABS/Icon-ThePlace_Prefab.prefab",
		"Background": ""
	},
	{
		"ID": 194,
		"Name": "路点194",
		"FuncType": "WaypointFuncType_Event",
		"FuncTypeParam1": 255,
		"WaypointsID": [
			193,
			195,
			94,
			203
		],
		"StyleType": "WaypointStyleType_Forest",
		"Model": "Waypoint_ABS/Icon-ThePlace_Prefab.prefab",
		"Background": ""
	},
	{
		"ID": 195,
		"Name": "路点195",
		"FuncType": "WaypointFuncType_Event",
		"FuncTypeParam1": 256,
		"WaypointsID": [
			193,
			194,
			196
		],
		"StyleType": "WaypointStyleType_Mountain",
		"Model": "Waypoint_ABS/Icon-ThePlace_Prefab.prefab",
		"Background": ""
	},
	{
		"ID": 196,
		"Name": "路点196",
		"FuncType": "WaypointFuncType_Event",
		"FuncTypeParam1": 257,
		"WaypointsID": [
			195,
			197,
			201
		],
		"StyleType": "WaypointStyleType_Forest",
		"Model": "Waypoint_ABS/Icon-ThePlace_Prefab.prefab",
		"Background": ""
	},
	{
		"ID": 197,
		"Name": "路点197",
		"FuncType": "WaypointFuncType_Event",
		"FuncTypeParam1": 258,
		"WaypointsID": [
			196
		],
		"StyleType": "WaypointStyleType_Forest",
		"Model": "Waypoint_ABS/Icon-ThePlace_Prefab.prefab",
		"Background": ""
	},
	{
		"ID": 198,
		"Name": "路点198",
		"FuncType": "WaypointFuncType_Event",
		"FuncTypeParam1": 259,
		"WaypointsID": [
			93,
			199
		],
		"StyleType": "WaypointStyleType_Mountain",
		"Model": "Waypoint_ABS/Icon-ThePlace_Prefab.prefab",
		"Background": ""
	},
	{
		"ID": 199,
		"Name": "路点199",
		"FuncType": "WaypointFuncType_Event",
		"FuncTypeParam1": 260,
		"WaypointsID": [
			198,
			200,
			95
		],
		"StyleType": "WaypointStyleType_Forest",
		"Model": "Waypoint_ABS/Icon-ThePlace_Prefab.prefab",
		"Background": ""
	},
	{
		"ID": 200,
		"Name": "路点200",
		"FuncType": "WaypointFuncType_Event",
		"FuncTypeParam1": 261,
		"WaypointsID": [
			199
		],
		"StyleType": "WaypointStyleType_Mountain",
		"Model": "Waypoint_ABS/Icon-ThePlace_Prefab.prefab",
		"Background": ""
	},
	{
		"ID": 201,
		"Name": "路点201",
		"FuncType": "WaypointFuncType_Event",
		"FuncTypeParam1": 262,
		"WaypointsID": [
			196,
			202
		],
		"StyleType": "WaypointStyleType_Forest",
		"Model": "Waypoint_ABS/Icon-ThePlace_Prefab.prefab",
		"Background": ""
	},
	{
		"ID": 202,
		"Name": "路点202",
		"FuncType": "WaypointFuncType_Event",
		"FuncTypeParam1": 263,
		"WaypointsID": [
			201
		],
		"StyleType": "WaypointStyleType_Forest",
		"Model": "Waypoint_ABS/Icon-ThePlace_Prefab.prefab",
		"Background": ""
	},
	{
		"ID": 203,
		"Name": "路点203",
		"FuncType": "WaypointFuncType_Event",
		"FuncTypeParam1": 264,
		"WaypointsID": [
			194,
			204
		],
		"StyleType": "WaypointStyleType_Forest",
		"Model": "Waypoint_ABS/Icon-ThePlace_Prefab.prefab",
		"Background": ""
	},
	{
		"ID": 204,
		"Name": "路点204",
		"FuncType": "WaypointFuncType_Event",
		"FuncTypeParam1": 265,
		"WaypointsID": [
			203,
			96
		],
		"StyleType": "WaypointStyleType_Forest",
		"Model": "Waypoint_ABS/Icon-ThePlace_Prefab.prefab",
		"Background": ""
	},
	{
		"ID": 205,
		"Name": "路点205",
		"FuncType": "WaypointFuncType_Event",
		"FuncTypeParam1": 266,
		"WaypointsID": [
			96,
			206
		],
		"StyleType": "WaypointStyleType_None",
		"Model": "Waypoint_ABS/Icon-ThePlace_Prefab.prefab",
		"Background": ""
	},
	{
		"ID": 206,
		"Name": "路点206",
		"FuncType": "WaypointFuncType_Event",
		"FuncTypeParam1": 267,
		"WaypointsID": [
			205
		],
		"StyleType": "WaypointStyleType_None",
		"Model": "Waypoint_ABS/Icon-ThePlace_Prefab.prefab",
		"Background": ""
	},
	{
		"ID": 207,
		"Name": "路点207",
		"FuncType": "WaypointFuncType_Event",
		"FuncTypeParam1": 268,
		"WaypointsID": [
			96,
			208
		],
		"StyleType": "WaypointStyleType_None",
		"Model": "Waypoint_ABS/Icon-ThePlace_Prefab.prefab",
		"Background": ""
	},
	{
		"ID": 208,
		"Name": "路点208",
		"FuncType": "WaypointFuncType_Event",
		"FuncTypeParam1": 269,
		"WaypointsID": [
			207,
			97
		],
		"StyleType": "WaypointStyleType_None",
		"Model": "Waypoint_ABS/Icon-ThePlace_Prefab.prefab",
		"Background": ""
	},
	{
		"ID": 209,
		"Name": "路点209",
		"FuncType": "WaypointFuncType_Event",
		"FuncTypeParam1": 270,
		"WaypointsID": [
			97,
			210
		],
		"StyleType": "WaypointStyleType_None",
		"Model": "Waypoint_ABS/Icon-ThePlace_Prefab.prefab",
		"Background": ""
	},
	{
		"ID": 210,
		"Name": "路点210",
		"FuncType": "WaypointFuncType_Event",
		"FuncTypeParam1": 271,
		"WaypointsID": [
			209
		],
		"StyleType": "WaypointStyleType_None",
		"Model": "Waypoint_ABS/Icon-ThePlace_Prefab.prefab",
		"Background": ""
	},
	{
		"ID": 211,
		"Name": "路点211",
		"FuncType": "WaypointFuncType_Event",
		"FuncTypeParam1": 272,
		"WaypointsID": [
			97,
			212
		],
		"StyleType": "WaypointStyleType_None",
		"Model": "Waypoint_ABS/Icon-ThePlace_Prefab.prefab",
		"Background": ""
	},
	{
		"ID": 212,
		"Name": "路点212",
		"FuncType": "WaypointFuncType_Event",
		"FuncTypeParam1": 273,
		"WaypointsID": [
			211,
			98
		],
		"StyleType": "WaypointStyleType_None",
		"Model": "Waypoint_ABS/Icon-ThePlace_Prefab.prefab",
		"Background": ""
	},
	{
		"ID": 213,
		"Name": "路点213",
		"FuncType": "WaypointFuncType_Event",
		"FuncTypeParam1": 274,
		"WaypointsID": [
			217,
			214
		],
		"StyleType": "WaypointStyleType_Mountain",
		"Model": "Waypoint_ABS/Icon-ThePlace_Prefab.prefab",
		"Background": ""
	},
	{
		"ID": 214,
		"Name": "路点214",
		"FuncType": "WaypointFuncType_Event",
		"FuncTypeParam1": 275,
		"WaypointsID": [
			213
		],
		"StyleType": "WaypointStyleType_Mountain",
		"Model": "Waypoint_ABS/Icon-ThePlace_Prefab.prefab",
		"Background": ""
	},
	{
		"ID": 215,
		"Name": "路点215",
		"FuncType": "WaypointFuncType_Event",
		"FuncTypeParam1": 276,
		"WaypointsID": [
			217,
			216
		],
		"StyleType": "WaypointStyleType_None",
		"Model": "Waypoint_ABS/Icon-ThePlace_Prefab.prefab",
		"Background": ""
	},
	{
		"ID": 216,
		"Name": "路点216",
		"FuncType": "WaypointFuncType_Event",
		"FuncTypeParam1": 277,
		"WaypointsID": [
			215
		],
		"StyleType": "WaypointStyleType_None",
		"Model": "Waypoint_ABS/Icon-ThePlace_Prefab.prefab",
		"Background": ""
	},
	{
		"ID": 217,
		"Name": "路点217",
		"FuncType": "WaypointFuncType_Event",
		"FuncTypeParam1": 278,
		"WaypointsID": [
			98,
			213,
			215,
			218
		],
		"StyleType": "WaypointStyleType_Village",
		"Model": "Waypoint_ABS/Icon-ThePlace_Prefab.prefab",
		"Background": ""
	},
	{
		"ID": 218,
		"Name": "路点218",
		"FuncType": "WaypointFuncType_Event",
		"FuncTypeParam1": 279,
		"WaypointsID": [
			217,
			99
		],
		"StyleType": "WaypointStyleType_Mountain",
		"Model": "Waypoint_ABS/Icon-ThePlace_Prefab.prefab",
		"Background": ""
	},
	{
		"ID": 219,
		"Name": "路点219",
		"FuncType": "WaypointFuncType_Event",
		"FuncTypeParam1": 280,
		"WaypointsID": [
			99,
			221,
			222
		],
		"StyleType": "WaypointStyleType_Mountain",
		"Model": "Waypoint_ABS/Icon-ThePlace_Prefab.prefab",
		"Background": ""
	},
	{
		"ID": 220,
		"Name": "路点220",
		"FuncType": "WaypointFuncType_Event",
		"FuncTypeParam1": 281,
		"WaypointsID": [
			221
		],
		"StyleType": "WaypointStyleType_Village",
		"Model": "Waypoint_ABS/Icon-ThePlace_Prefab.prefab",
		"Background": ""
	},
	{
		"ID": 221,
		"Name": "路点221",
		"FuncType": "WaypointFuncType_Event",
		"FuncTypeParam1": 282,
		"WaypointsID": [
			220,
			219
		],
		"StyleType": "WaypointStyleType_Mountain",
		"Model": "Waypoint_ABS/Icon-ThePlace_Prefab.prefab",
		"Background": ""
	},
	{
		"ID": 222,
		"Name": "路点222",
		"FuncType": "WaypointFuncType_Event",
		"FuncTypeParam1": 283,
		"WaypointsID": [
			219,
			223
		],
		"StyleType": "WaypointStyleType_Mountain",
		"Model": "Waypoint_ABS/Icon-ThePlace_Prefab.prefab",
		"Background": ""
	},
	{
		"ID": 223,
		"Name": "魔城大门",
		"FuncType": "WaypointFuncType_Scenario",
		"FuncTypeParam1": 0,
		"WaypointsID": [
			222,
			224
		],
		"StyleType": "WaypointStyleType_Forest",
		"Model": "Waypoint_ABS/Icon_DemoGate_Prefab.prefab",
		"Background": ""
	},
	{
		"ID": 224,
		"Name": "路点224",
		"FuncType": "WaypointFuncType_Event",
		"FuncTypeParam1": 284,
		"WaypointsID": [
			223,
			225,
			226
		],
		"StyleType": "WaypointStyleType_Mountain",
		"Model": "Waypoint_ABS/Icon-ThePlace_Prefab.prefab",
		"Background": ""
	},
	{
		"ID": 225,
		"Name": "路点225",
		"FuncType": "WaypointFuncType_Event",
		"FuncTypeParam1": 285,
		"WaypointsID": [
			224,
			227
		],
		"StyleType": "WaypointStyleType_Village",
		"Model": "Waypoint_ABS/Icon-ThePlace_Prefab.prefab",
		"Background": ""
	},
	{
		"ID": 226,
		"Name": "路点226",
		"FuncType": "WaypointFuncType_Event",
		"FuncTypeParam1": 286,
		"WaypointsID": [
			224,
			228
		],
		"StyleType": "WaypointStyleType_Mountain",
		"Model": "Waypoint_ABS/Icon-ThePlace_Prefab.prefab",
		"Background": ""
	},
	{
		"ID": 227,
		"Name": "路点227",
		"FuncType": "WaypointFuncType_Event",
		"FuncTypeParam1": 287,
		"WaypointsID": [
			225
		],
		"StyleType": "WaypointStyleType_Mountain",
		"Model": "Waypoint_ABS/Icon-ThePlace_Prefab.prefab",
		"Background": ""
	},
	{
		"ID": 228,
		"Name": "法鲁赞利亚城",
		"FuncType": "WaypointFuncType_Scenario",
		"FuncTypeParam1": 0,
		"WaypointsID": [
			226
		],
		"StyleType": "WaypointStyleType_Forest",
		"Model": "Waypoint_ABS/Icon_DarkCastle_Prefab.prefab",
		"Background": ""
	},
	{
		"ID": 301,
		"Name": "飞空艇",
		"FuncType": "WaypointFuncType_Scenario",
		"FuncTypeParam1": 0,
		"WaypointsID": [
			501
		],
		"StyleType": "WaypointStyleType_None",
		"Model": "Waypoint2_ABS/Icon_2_1_DslStrait_Prefab.prefab",
		"Background": ""
	},
	{
		"ID": 302,
		"Name": "岛之世界树",
		"FuncType": "WaypointFuncType_Scenario",
		"FuncTypeParam1": 0,
		"WaypointsID": [
			502,
			507,
			505
		],
		"StyleType": "WaypointStyleType_Forest",
		"Model": "Waypoint2_ABS/Icon_2_2_WorldTree_Prefab.prefab",
		"Background": ""
	},
	{
		"ID": 303,
		"Name": "陨星落点",
		"FuncType": "WaypointFuncType_Scenario",
		"FuncTypeParam1": 0,
		"WaypointsID": [
			508,
			511
		],
		"StyleType": "WaypointStyleType_Mountain",
		"Model": "Waypoint2_ABS/Icon_2_3_FallenSpaceship_Prefab.prefab",
		"Background": ""
	},
	{
		"ID": 304,
		"Name": "海岛密林",
		"FuncType": "WaypointFuncType_Scenario",
		"FuncTypeParam1": 0,
		"WaypointsID": [
			513,
			515,
			517
		],
		"StyleType": "WaypointStyleType_Forest",
		"Model": "Waypoint2_ABS/Icon_2_4_IslandForest_Prefab.prefab",
		"Background": ""
	},
	{
		"ID": 305,
		"Name": "天然海港",
		"FuncType": "WaypointFuncType_Scenario",
		"FuncTypeParam1": 0,
		"WaypointsID": [
			518,
			519,
			521
		],
		"StyleType": "WaypointStyleType_Forest",
		"Model": "Waypoint2_ABS/Icon_2_5_NaturalSeaport_Prefab.prefab",
		"Background": ""
	},
	{
		"ID": 306,
		"Name": "迪佛里村",
		"FuncType": "WaypointFuncType_Scenario",
		"FuncTypeParam1": 0,
		"WaypointsID": [
			525,
			526,
			530,
			545
		],
		"StyleType": "WaypointStyleType_Village",
		"Model": "Waypoint2_ABS/Icon_2_6_Village_Prefab.prefab",
		"Background": ""
	},
	{
		"ID": 307,
		"Name": "双子世界树",
		"FuncType": "WaypointFuncType_Scenario",
		"FuncTypeParam1": 0,
		"WaypointsID": [
			531,
			532,
			536
		],
		"StyleType": "WaypointStyleType_Mountain",
		"Model": "Waypoint2_ABS/Icon_2_7_TwinsWorldTree_Prefab.prefab",
		"Background": ""
	},
	{
		"ID": 308,
		"Name": "王城大道",
		"FuncType": "WaypointFuncType_Scenario",
		"FuncTypeParam1": 0,
		"WaypointsID": [
			537,
			538,
			540
		],
		"StyleType": "WaypointStyleType_Forest",
		"Model": "Waypoint2_ABS/Icon_2_8_Avenue_Prefab.prefab",
		"Background": ""
	},
	{
		"ID": 309,
		"Name": "卡昆西斯城",
		"FuncType": "WaypointFuncType_Scenario",
		"FuncTypeParam1": 0,
		"WaypointsID": [
			541,
			542
		],
		"StyleType": "WaypointStyleType_Village",
		"Model": "Waypoint2_ABS/Icon_2_9_Palace_Prefab.prefab",
		"Background": ""
	},
	{
		"ID": 310,
		"Name": "边境哨所",
		"FuncType": "WaypointFuncType_Scenario",
		"FuncTypeParam1": 0,
		"WaypointsID": [
			550,
			551
		],
		"StyleType": "WaypointStyleType_Mountain",
		"Model": "Waypoint2_ABS/Icon_2_10_BorderPost_Prefab.prefab",
		"Background": ""
	},
	{
		"ID": 311,
		"Name": "古代天候中枢",
		"FuncType": "WaypointFuncType_Scenario",
		"FuncTypeParam1": 0,
		"WaypointsID": [
			552,
			553,
			557
		],
		"StyleType": "WaypointStyleType_Mountain",
		"Model": "Waypoint2_ABS/Icon_3_11_ClimateHub_Prefab.prefab",
		"Background": ""
	},
	{
		"ID": 312,
		"Name": "晶化世界树",
		"FuncType": "WaypointFuncType_Scenario",
		"FuncTypeParam1": 0,
		"WaypointsID": [
			558,
			559,
			563
		],
		"StyleType": "WaypointStyleType_Forest",
		"Model": "Waypoint2_ABS/Icon_3_13_CrystalWorldTree_Prefab.prefab",
		"Background": ""
	},
	{
		"ID": 313,
		"Name": "水晶荒漠",
		"FuncType": "WaypointFuncType_Scenario",
		"FuncTypeParam1": 0,
		"WaypointsID": [
			564,
			565
		],
		"StyleType": "WaypointStyleType_Mountain",
		"Model": "Waypoint2_ABS/Icon_3_12_CrystalWilderness_Prefab.prefab",
		"Background": ""
	},
	{
		"ID": 314,
		"Name": "北疆魔城",
		"FuncType": "WaypointFuncType_Scenario",
		"FuncTypeParam1": 0,
		"WaypointsID": [
			568,
			569
		],
		"StyleType": "WaypointStyleType_Mountain",
		"Model": "Waypoint2_ABS/Icon_3_14_NorthRuins_Prefab.prefab",
		"Background": ""
	},
	{
		"ID": 315,
		"Name": "霜之世界树",
		"FuncType": "WaypointFuncType_Scenario",
		"FuncTypeParam1": 0,
		"WaypointsID": [
			572,
			573
		],
		"StyleType": "WaypointStyleType_Forest",
		"Model": "Waypoint2_ABS/Icon_3_15_FrostWorldTree_Prefab.prefab",
		"Background": ""
	},
	{
		"ID": 501,
		"Name": "路点501",
		"FuncType": "WaypointFuncType_Event",
		"FuncTypeParam1": 288,
		"WaypointsID": [
			301,
			502,
			503
		],
		"StyleType": "WaypointStyleType_None",
		"Model": "Waypoint_ABS/Icon-ThePlace_Prefab.prefab",
		"Background": ""
	},
	{
		"ID": 502,
		"Name": "路点502",
		"FuncType": "WaypointFuncType_Event",
		"FuncTypeParam1": 289,
		"WaypointsID": [
			302,
			501
		],
		"StyleType": "WaypointStyleType_None",
		"Model": "Waypoint_ABS/Icon-ThePlace_Prefab.prefab",
		"Background": ""
	},
	{
		"ID": 503,
		"Name": "路点503",
		"FuncType": "WaypointFuncType_Event",
		"FuncTypeParam1": 290,
		"WaypointsID": [
			501,
			504
		],
		"StyleType": "WaypointStyleType_None",
		"Model": "Waypoint_ABS/Icon-ThePlace_Prefab.prefab",
		"Background": ""
	},
	{
		"ID": 504,
		"Name": "路点504",
		"FuncType": "WaypointFuncType_Event",
		"FuncTypeParam1": 291,
		"WaypointsID": [
			503
		],
		"StyleType": "WaypointStyleType_None",
		"Model": "Waypoint_ABS/Icon-ThePlace_Prefab.prefab",
		"Background": ""
	},
	{
		"ID": 505,
		"Name": "路点505",
		"FuncType": "WaypointFuncType_Event",
		"FuncTypeParam1": 292,
		"WaypointsID": [
			302,
			506
		],
		"StyleType": "WaypointStyleType_Forest",
		"Model": "Waypoint_ABS/Icon-ThePlace_Prefab.prefab",
		"Background": ""
	},
	{
		"ID": 506,
		"Name": "失物之岛",
		"FuncType": "WaypointFuncType_Scenario",
		"FuncTypeParam1": 0,
		"WaypointsID": [
			505
		],
		"StyleType": "WaypointStyleType_Forest",
		"Model": "Waypoint2_ABS/Icon_FragmentStory_New_Prefab.prefab",
		"Background": "",
		"StateList": [
			{
				"ScenarioId": 1001,
				"StateName": "Broken"
			}
		]
	},
	{
		"ID": 507,
		"Name": "路点507",
		"FuncType": "WaypointFuncType_Event",
		"FuncTypeParam1": 293,
		"WaypointsID": [
			302,
			508
		],
		"StyleType": "WaypointStyleType_Forest",
		"Model": "Waypoint_ABS/Icon-ThePlace_Prefab.prefab",
		"Background": ""
	},
	{
		"ID": 508,
		"Name": "路点508",
		"FuncType": "WaypointFuncType_Event",
		"FuncTypeParam1": 294,
		"WaypointsID": [
			303,
			507,
			509
		],
		"StyleType": "WaypointStyleType_Mountain",
		"Model": "Waypoint_ABS/Icon-ThePlace_Prefab.prefab",
		"Background": ""
	},
	{
		"ID": 509,
		"Name": "路点509",
		"FuncType": "WaypointFuncType_Event",
		"FuncTypeParam1": 295,
		"WaypointsID": [
			508,
			510
		],
		"StyleType": "WaypointStyleType_Forest",
		"Model": "Waypoint_ABS/Icon-ThePlace_Prefab.prefab",
		"Background": ""
	},
	{
		"ID": 510,
		"Name": "路点510",
		"FuncType": "WaypointFuncType_Event",
		"FuncTypeParam1": 296,
		"WaypointsID": [
			509
		],
		"StyleType": "WaypointStyleType_Forest",
		"Model": "Waypoint_ABS/Icon-ThePlace_Prefab.prefab",
		"Background": ""
	},
	{
		"ID": 511,
		"Name": "路点511",
		"FuncType": "WaypointFuncType_Event",
		"FuncTypeParam1": 297,
		"WaypointsID": [
			303,
			512,
			514
		],
		"StyleType": "WaypointStyleType_Mountain",
		"Model": "Waypoint_ABS/Icon-ThePlace_Prefab.prefab",
		"Background": ""
	},
	{
		"ID": 512,
		"Name": "路点512",
		"FuncType": "WaypointFuncType_Event",
		"FuncTypeParam1": 298,
		"WaypointsID": [
			511,
			513
		],
		"StyleType": "WaypointStyleType_Mountain",
		"Model": "Waypoint_ABS/Icon-ThePlace_Prefab.prefab",
		"Background": ""
	},
	{
		"ID": 513,
		"Name": "路点513",
		"FuncType": "WaypointFuncType_Event",
		"FuncTypeParam1": 299,
		"WaypointsID": [
			304,
			512
		],
		"StyleType": "WaypointStyleType_Forest",
		"Model": "Waypoint_ABS/Icon-ThePlace_Prefab.prefab",
		"Background": ""
	},
	{
		"ID": 514,
		"Name": "路点514",
		"FuncType": "WaypointFuncType_Event",
		"FuncTypeParam1": 300,
		"WaypointsID": [
			511
		],
		"StyleType": "WaypointStyleType_Forest",
		"Model": "Waypoint_ABS/Icon-ThePlace_Prefab.prefab",
		"Background": ""
	},
	{
		"ID": 515,
		"Name": "路点515",
		"FuncType": "WaypointFuncType_Event",
		"FuncTypeParam1": 301,
		"WaypointsID": [
			304,
			516
		],
		"StyleType": "WaypointStyleType_Mountain",
		"Model": "Waypoint_ABS/Icon-ThePlace_Prefab.prefab",
		"Background": ""
	},
	{
		"ID": 516,
		"Name": "追忆之岛",
		"FuncType": "WaypointFuncType_Scenario",
		"FuncTypeParam1": 0,
		"WaypointsID": [
			515
		],
		"StyleType": "WaypointStyleType_Forest",
		"Model": "Waypoint2_ABS/Icon_FragmentStory_New_Prefab.prefab",
		"Background": "",
		"StateList": [
			{
				"ScenarioId": 1002,
				"StateName": "Broken"
			}
		]
	},
	{
		"ID": 517,
		"Name": "路点517",
		"FuncType": "WaypointFuncType_Event",
		"FuncTypeParam1": 302,
		"WaypointsID": [
			304,
			518
		],
		"StyleType": "WaypointStyleType_Forest",
		"Model": "Waypoint_ABS/Icon-ThePlace_Prefab.prefab",
		"Background": ""
	},
	{
		"ID": 518,
		"Name": "路点518",
		"FuncType": "WaypointFuncType_Event",
		"FuncTypeParam1": 303,
		"WaypointsID": [
			305,
			517
		],
		"StyleType": "WaypointStyleType_Forest",
		"Model": "Waypoint_ABS/Icon-ThePlace_Prefab.prefab",
		"Background": ""
	},
	{
		"ID": 519,
		"Name": "路点519",
		"FuncType": "WaypointFuncType_Event",
		"FuncTypeParam1": 304,
		"WaypointsID": [
			305,
			520,
			524
		],
		"StyleType": "WaypointStyleType_Forest",
		"Model": "Waypoint_ABS/Icon-ThePlace_Prefab.prefab",
		"Background": ""
	},
	{
		"ID": 520,
		"Name": "路点520",
		"FuncType": "WaypointFuncType_Event",
		"FuncTypeParam1": 305,
		"WaypointsID": [
			519
		],
		"StyleType": "WaypointStyleType_None",
		"Model": "Waypoint_ABS/Icon-ThePlace_Prefab.prefab",
		"Background": ""
	},
	{
		"ID": 521,
		"Name": "路点521",
		"FuncType": "WaypointFuncType_Event",
		"FuncTypeParam1": 306,
		"WaypointsID": [
			305,
			522
		],
		"StyleType": "WaypointStyleType_None",
		"Model": "Waypoint_ABS/Icon-ThePlace_Prefab.prefab",
		"Background": ""
	},
	{
		"ID": 522,
		"Name": "断刃之岛",
		"FuncType": "WaypointFuncType_Scenario",
		"FuncTypeParam1": 0,
		"WaypointsID": [
			521,
			523
		],
		"StyleType": "WaypointStyleType_Forest",
		"Model": "Waypoint2_ABS/Icon_FragmentStory_New_Prefab.prefab",
		"Background": "",
		"StateList": [
			{
				"ScenarioId": 1003,
				"StateName": "Light"
			}
		]
	},
	{
		"ID": 523,
		"Name": "路点523",
		"FuncType": "WaypointFuncType_Event",
		"FuncTypeParam1": 307,
		"WaypointsID": [
			522
		],
		"StyleType": "WaypointStyleType_Forest",
		"Model": "Waypoint_ABS/Icon-ThePlace_Prefab.prefab",
		"Background": ""
	},
	{
		"ID": 524,
		"Name": "路点524",
		"FuncType": "WaypointFuncType_Event",
		"FuncTypeParam1": 308,
		"WaypointsID": [
			519,
			525
		],
		"StyleType": "WaypointStyleType_Forest",
		"Model": "Waypoint_ABS/Icon-ThePlace_Prefab.prefab",
		"Background": ""
	},
	{
		"ID": 525,
		"Name": "路点525",
		"FuncType": "WaypointFuncType_Event",
		"FuncTypeParam1": 309,
		"WaypointsID": [
			306,
			524
		],
		"StyleType": "WaypointStyleType_Mountain",
		"Model": "Waypoint_ABS/Icon-ThePlace_Prefab.prefab",
		"Background": ""
	},
	{
		"ID": 526,
		"Name": "路点526",
		"FuncType": "WaypointFuncType_Event",
		"FuncTypeParam1": 310,
		"WaypointsID": [
			306,
			527,
			529
		],
		"StyleType": "WaypointStyleType_Mountain",
		"Model": "Waypoint_ABS/Icon-ThePlace_Prefab.prefab",
		"Background": ""
	},
	{
		"ID": 527,
		"Name": "路点527",
		"FuncType": "WaypointFuncType_Event",
		"FuncTypeParam1": 311,
		"WaypointsID": [
			526,
			528
		],
		"StyleType": "WaypointStyleType_Forest",
		"Model": "Waypoint_ABS/Icon-ThePlace_Prefab.prefab",
		"Background": ""
	},
	{
		"ID": 528,
		"Name": "路点528",
		"FuncType": "WaypointFuncType_Event",
		"FuncTypeParam1": 312,
		"WaypointsID": [
			527
		],
		"StyleType": "WaypointStyleType_None",
		"Model": "Waypoint_ABS/Icon-ThePlace_Prefab.prefab",
		"Background": ""
	},
	{
		"ID": 529,
		"Name": "阴影峡口",
		"FuncType": "WaypointFuncType_Scenario",
		"FuncTypeParam1": 0,
		"WaypointsID": [
			526
		],
		"StyleType": "WaypointStyleType_Village",
		"Model": "Waypoint2_ABS/Icon_FragmentStory_New_Prefab.prefab",
		"Background": "",
		"StateList": [
			{
				"ScenarioId": 1004,
				"StateName": "Light"
			}
		]
	},
	{
		"ID": 530,
		"Name": "路点530",
		"FuncType": "WaypointFuncType_Event",
		"FuncTypeParam1": 313,
		"WaypointsID": [
			306,
			531
		],
		"StyleType": "WaypointStyleType_Mountain",
		"Model": "Waypoint_ABS/Icon-ThePlace_Prefab.prefab",
		"Background": ""
	},
	{
		"ID": 531,
		"Name": "路点531",
		"FuncType": "WaypointFuncType_Event",
		"FuncTypeParam1": 314,
		"WaypointsID": [
			307,
			530
		],
		"StyleType": "WaypointStyleType_Mountain",
		"Model": "Waypoint_ABS/Icon-ThePlace_Prefab.prefab",
		"Background": ""
	},
	{
		"ID": 532,
		"Name": "路点532",
		"FuncType": "WaypointFuncType_Event",
		"FuncTypeParam1": 315,
		"WaypointsID": [
			307,
			533,
			534
		],
		"StyleType": "WaypointStyleType_Forest",
		"Model": "Waypoint_ABS/Icon-ThePlace_Prefab.prefab",
		"Background": ""
	},
	{
		"ID": 533,
		"Name": "路点533",
		"FuncType": "WaypointFuncType_Event",
		"FuncTypeParam1": 316,
		"WaypointsID": [
			532
		],
		"StyleType": "WaypointStyleType_Forest",
		"Model": "Waypoint_ABS/Icon-ThePlace_Prefab.prefab",
		"Background": ""
	},
	{
		"ID": 534,
		"Name": "路点534",
		"FuncType": "WaypointFuncType_Event",
		"FuncTypeParam1": 317,
		"WaypointsID": [
			532,
			535
		],
		"StyleType": "WaypointStyleType_Forest",
		"Model": "Waypoint_ABS/Icon-ThePlace_Prefab.prefab",
		"Background": ""
	},
	{
		"ID": 535,
		"Name": "荣光丘陵",
		"FuncType": "WaypointFuncType_Scenario",
		"FuncTypeParam1": 0,
		"WaypointsID": [
			534
		],
		"StyleType": "WaypointStyleType_Forest",
		"Model": "Waypoint2_ABS/Icon_FragmentStory_New_Prefab.prefab",
		"Background": "",
		"StateList": [
			{
				"ScenarioId": 1005,
				"StateName": "Broken"
			}
		]
	},
	{
		"ID": 536,
		"Name": "路点536",
		"FuncType": "WaypointFuncType_Event",
		"FuncTypeParam1": 318,
		"WaypointsID": [
			307,
			537
		],
		"StyleType": "WaypointStyleType_Forest",
		"Model": "Waypoint_ABS/Icon-ThePlace_Prefab.prefab",
		"Background": ""
	},
	{
		"ID": 537,
		"Name": "路点537",
		"FuncType": "WaypointFuncType_Event",
		"FuncTypeParam1": 319,
		"WaypointsID": [
			308,
			536
		],
		"StyleType": "WaypointStyleType_Village",
		"Model": "Waypoint_ABS/Icon-ThePlace_Prefab.prefab",
		"Background": ""
	},
	{
		"ID": 538,
		"Name": "路点538",
		"FuncType": "WaypointFuncType_Event",
		"FuncTypeParam1": 320,
		"WaypointsID": [
			308,
			539
		],
		"StyleType": "WaypointStyleType_Mountain",
		"Model": "Waypoint_ABS/Icon-ThePlace_Prefab.prefab",
		"Background": ""
	},
	{
		"ID": 539,
		"Name": "路点539",
		"FuncType": "WaypointFuncType_Event",
		"FuncTypeParam1": 321,
		"WaypointsID": [
			538
		],
		"StyleType": "WaypointStyleType_Village",
		"Model": "Waypoint_ABS/Icon-ThePlace_Prefab.prefab",
		"Background": ""
	},
	{
		"ID": 540,
		"Name": "路点540",
		"FuncType": "WaypointFuncType_Event",
		"FuncTypeParam1": 322,
		"WaypointsID": [
			308,
			541
		],
		"StyleType": "WaypointStyleType_Mountain",
		"Model": "Waypoint_ABS/Icon-ThePlace_Prefab.prefab",
		"Background": ""
	},
	{
		"ID": 541,
		"Name": "路点541",
		"FuncType": "WaypointFuncType_Event",
		"FuncTypeParam1": 323,
		"WaypointsID": [
			309,
			540,
			543
		],
		"StyleType": "WaypointStyleType_Village",
		"Model": "Waypoint_ABS/Icon-ThePlace_Prefab.prefab",
		"Background": ""
	},
	{
		"ID": 542,
		"Name": "昔日沙岭",
		"FuncType": "WaypointFuncType_Scenario",
		"FuncTypeParam1": 0,
		"WaypointsID": [
			309
		],
		"StyleType": "WaypointStyleType_Village",
		"Model": "Waypoint2_ABS/Icon_FragmentStory_New_Prefab.prefab",
		"Background": "",
		"StateList": [
			{
				"ScenarioId": 1006,
				"StateName": "Standby"
			}
		]
	},
	{
		"ID": 543,
		"Name": "路点543",
		"FuncType": "WaypointFuncType_Event",
		"FuncTypeParam1": 324,
		"WaypointsID": [
			541,
			544
		],
		"StyleType": "WaypointStyleType_Forest",
		"Model": "Waypoint_ABS/Icon-ThePlace_Prefab.prefab",
		"Background": ""
	},
	{
		"ID": 544,
		"Name": "路点544",
		"FuncType": "WaypointFuncType_Event",
		"FuncTypeParam1": 325,
		"WaypointsID": [
			543
		],
		"StyleType": "WaypointStyleType_Mountain",
		"Model": "Waypoint_ABS/Icon-ThePlace_Prefab.prefab",
		"Background": ""
	},
	{
		"ID": 545,
		"Name": "路点545",
		"FuncType": "WaypointFuncType_Event",
		"FuncTypeParam1": 326,
		"WaypointsID": [
			306,
			546
		],
		"StyleType": "WaypointStyleType_Mountain",
		"Model": "Waypoint_ABS/Icon-ThePlace_Prefab.prefab",
		"Background": ""
	},
	{
		"ID": 546,
		"Name": "路点546",
		"FuncType": "WaypointFuncType_Event",
		"FuncTypeParam1": 327,
		"WaypointsID": [
			545,
			547
		],
		"StyleType": "WaypointStyleType_Mountain",
		"Model": "Waypoint_ABS/Icon-ThePlace_Prefab.prefab",
		"Background": ""
	},
	{
		"ID": 547,
		"Name": "路点547",
		"FuncType": "WaypointFuncType_Event",
		"FuncTypeParam1": 328,
		"WaypointsID": [
			546,
			548,
			550
		],
		"StyleType": "WaypointStyleType_Village",
		"Model": "Waypoint_ABS/Icon-ThePlace_Prefab.prefab",
		"Background": ""
	},
	{
		"ID": 548,
		"Name": "路点548",
		"FuncType": "WaypointFuncType_Event",
		"FuncTypeParam1": 329,
		"WaypointsID": [
			547,
			549
		],
		"StyleType": "WaypointStyleType_Forest",
		"Model": "Waypoint_ABS/Icon-ThePlace_Prefab.prefab",
		"Background": ""
	},
	{
		"ID": 549,
		"Name": "路点549",
		"FuncType": "WaypointFuncType_Event",
		"FuncTypeParam1": 330,
		"WaypointsID": [
			548
		],
		"StyleType": "WaypointStyleType_Forest",
		"Model": "Waypoint_ABS/Icon-ThePlace_Prefab.prefab",
		"Background": ""
	},
	{
		"ID": 550,
		"Name": "路点550",
		"FuncType": "WaypointFuncType_Event",
		"FuncTypeParam1": 331,
		"WaypointsID": [
			310,
			547
		],
		"StyleType": "WaypointStyleType_Mountain",
		"Model": "Waypoint_ABS/Icon-ThePlace_Prefab.prefab",
		"Background": ""
	},
	{
		"ID": 551,
		"Name": "路点551",
		"FuncType": "WaypointFuncType_Event",
		"FuncTypeParam1": 332,
		"WaypointsID": [
			310,
			552
		],
		"StyleType": "WaypointStyleType_Mountain",
		"Model": "Waypoint_ABS/Icon-ThePlace_Prefab.prefab",
		"Background": ""
	},
	{
		"ID": 552,
		"Name": "路点552",
		"FuncType": "WaypointFuncType_Event",
		"FuncTypeParam1": 333,
		"WaypointsID": [
			311,
			551
		],
		"StyleType": "WaypointStyleType_Mountain",
		"Model": "Waypoint_ABS/Icon-ThePlace_Prefab.prefab",
		"Background": ""
	},
	{
		"ID": 553,
		"Name": "路点553",
		"FuncType": "WaypointFuncType_Event",
		"FuncTypeParam1": 334,
		"WaypointsID": [
			311,
			554
		],
		"StyleType": "WaypointStyleType_Mountain",
		"Model": "Waypoint_ABS/Icon-ThePlace_Prefab.prefab",
		"Background": ""
	},
	{
		"ID": 554,
		"Name": "路点554",
		"FuncType": "WaypointFuncType_Event",
		"FuncTypeParam1": 335,
		"WaypointsID": [
			553,
			555,
			556
		],
		"StyleType": "WaypointStyleType_Mountain",
		"Model": "Waypoint_ABS/Icon-ThePlace_Prefab.prefab",
		"Background": ""
	},
	{
		"ID": 555,
		"Name": "枉死之魂",
		"FuncType": "WaypointFuncType_Event",
		"FuncTypeParam1": 336,
		"WaypointsID": [
			554
		],
		"StyleType": "WaypointStyleType_Village",
		"Model": "Waypoint_ABS/Icon-ThePlace_Prefab.prefab",
		"Background": ""
	},
	{
		"ID": 556,
		"Name": "迷雾之丘",
		"FuncType": "WaypointFuncType_Scenario",
		"FuncTypeParam1": 0,
		"WaypointsID": [
			554
		],
		"StyleType": "WaypointStyleType_Mountain",
		"Model": "Waypoint2_ABS/Icon_FragmentStory_New_Prefab.prefab",
		"Background": "",
		"StateList": [
			{
				"ScenarioId": 1007,
				"StateName": "Standby"
			}
		]
	},
	{
		"ID": 557,
		"Name": "路点557",
		"FuncType": "WaypointFuncType_Event",
		"FuncTypeParam1": 337,
		"WaypointsID": [
			311,
			558
		],
		"StyleType": "WaypointStyleType_Mountain",
		"Model": "Waypoint_ABS/Icon-ThePlace_Prefab.prefab",
		"Background": ""
	},
	{
		"ID": 558,
		"Name": "路点558",
		"FuncType": "WaypointFuncType_Event",
		"FuncTypeParam1": 338,
		"WaypointsID": [
			557,
			312
		],
		"StyleType": "WaypointStyleType_Mountain",
		"Model": "Waypoint_ABS/Icon-ThePlace_Prefab.prefab",
		"Background": ""
	},
	{
		"ID": 559,
		"Name": "路点559",
		"FuncType": "WaypointFuncType_Event",
		"FuncTypeParam1": 339,
		"WaypointsID": [
			312,
			560
		],
		"StyleType": "WaypointStyleType_Mountain",
		"Model": "Waypoint_ABS/Icon-ThePlace_Prefab.prefab",
		"Background": ""
	},
	{
		"ID": 560,
		"Name": "路点560",
		"FuncType": "WaypointFuncType_Event",
		"FuncTypeParam1": 340,
		"WaypointsID": [
			559,
			561,
			562
		],
		"StyleType": "WaypointStyleType_Mountain",
		"Model": "Waypoint_ABS/Icon-ThePlace_Prefab.prefab",
		"Background": ""
	},
	{
		"ID": 561,
		"Name": "路点561",
		"FuncType": "WaypointFuncType_Event",
		"FuncTypeParam1": 341,
		"WaypointsID": [
			560
		],
		"StyleType": "WaypointStyleType_Mountain",
		"Model": "Waypoint_ABS/Icon-ThePlace_Prefab.prefab",
		"Background": ""
	},
	{
		"ID": 562,
		"Name": "悠远之岸",
		"FuncType": "WaypointFuncType_Scenario",
		"FuncTypeParam1": 0,
		"WaypointsID": [
			560
		],
		"StyleType": "WaypointStyleType_Mountain",
		"Model": "Waypoint2_ABS/Icon_FragmentStory_New_Prefab.prefab",
		"Background": "",
		"StateList": [
			{
				"ScenarioId": 1008,
				"StateName": "Broken"
			}
		]
	},
	{
		"ID": 563,
		"Name": "路点563",
		"FuncType": "WaypointFuncType_Event",
		"FuncTypeParam1": 342,
		"WaypointsID": [
			312,
			564
		],
		"StyleType": "WaypointStyleType_Mountain",
		"Model": "Waypoint_ABS/Icon-ThePlace_Prefab.prefab",
		"Background": ""
	},
	{
		"ID": 564,
		"Name": "路点564",
		"FuncType": "WaypointFuncType_Event",
		"FuncTypeParam1": 343,
		"WaypointsID": [
			563,
			313
		],
		"StyleType": "WaypointStyleType_Mountain",
		"Model": "Waypoint_ABS/Icon-ThePlace_Prefab.prefab",
		"Background": ""
	},
	{
		"ID": 565,
		"Name": "路点565",
		"FuncType": "WaypointFuncType_Event",
		"FuncTypeParam1": 344,
		"WaypointsID": [
			313,
			566,
			568
		],
		"StyleType": "WaypointStyleType_Forest",
		"Model": "Waypoint_ABS/Icon-ThePlace_Prefab.prefab",
		"Background": ""
	},
	{
		"ID": 566,
		"Name": "路点566",
		"FuncType": "WaypointFuncType_Event",
		"FuncTypeParam1": 345,
		"WaypointsID": [
			565,
			567
		],
		"StyleType": "WaypointStyleType_Forest",
		"Model": "Waypoint_ABS/Icon-ThePlace_Prefab.prefab",
		"Background": ""
	},
	{
		"ID": 567,
		"Name": "路点567",
		"FuncType": "WaypointFuncType_Event",
		"FuncTypeParam1": 346,
		"WaypointsID": [
			566
		],
		"StyleType": "WaypointStyleType_Forest",
		"Model": "Waypoint_ABS/Icon-ThePlace_Prefab.prefab",
		"Background": ""
	},
	{
		"ID": 568,
		"Name": "路点568",
		"FuncType": "WaypointFuncType_Event",
		"FuncTypeParam1": 347,
		"WaypointsID": [
			565,
			314
		],
		"StyleType": "WaypointStyleType_Forest",
		"Model": "Waypoint_ABS/Icon-ThePlace_Prefab.prefab",
		"Background": ""
	},
	{
		"ID": 569,
		"Name": "路点569",
		"FuncType": "WaypointFuncType_Event",
		"FuncTypeParam1": 348,
		"WaypointsID": [
			314,
			572,
			570
		],
		"StyleType": "WaypointStyleType_Forest",
		"Model": "Waypoint_ABS/Icon-ThePlace_Prefab.prefab",
		"Background": ""
	},
	{
		"ID": 570,
		"Name": "路点570",
		"FuncType": "WaypointFuncType_Event",
		"FuncTypeParam1": 349,
		"WaypointsID": [
			569,
			571
		],
		"StyleType": "WaypointStyleType_Mountain",
		"Model": "Waypoint_ABS/Icon-ThePlace_Prefab.prefab",
		"Background": ""
	},
	{
		"ID": 571,
		"Name": "路点571",
		"FuncType": "WaypointFuncType_Event",
		"FuncTypeParam1": 350,
		"WaypointsID": [
			570
		],
		"StyleType": "WaypointStyleType_Village",
		"Model": "Waypoint_ABS/Icon-ThePlace_Prefab.prefab",
		"Background": ""
	},
	{
		"ID": 572,
		"Name": "路点572",
		"FuncType": "WaypointFuncType_Event",
		"FuncTypeParam1": 351,
		"WaypointsID": [
			569,
			315
		],
		"StyleType": "WaypointStyleType_Mountain",
		"Model": "Waypoint_ABS/Icon-ThePlace_Prefab.prefab",
		"Background": ""
	},
	{
		"ID": 573,
		"Name": "融霜之岭",
		"FuncType": "WaypointFuncType_Scenario",
		"FuncTypeParam1": 0,
		"WaypointsID": [
			315
		],
		"StyleType": "WaypointStyleType_Mountain",
		"Model": "Waypoint2_ABS/Icon_FragmentStory_New_Prefab.prefab",
		"Background": "",
		"StateList": [
			{
				"ScenarioId": 1009,
				"StateName": "Light"
			}
		]
	}
]