[
	{
		"ID": 1,
		"Desc": "描述1",
		"EquipmentDataList": [
			{
				"EquipmentId": 1,
				"EquipmentLv": 1
			},
			{
				"EquipmentId": 2,
				"EquipmentLv": 2
			}
		]
	},
	{
		"ID": 2,
		"Desc": "描述2",
		"EquipmentDataList": [
			{
				"EquipmentId": 1,
				"EquipmentLv": 1
			},
			{
				"EquipmentId": 2,
				"EquipmentLv": 2
			}
		]
	}
]