[
	{
		"ID": 1,
		"Results": [
			{
				"ResultType": "HeroInteractionResultType_Norml",
				"Weight": 3300,
				"FavourabilityExp": 20
			},
			{
				"ResultType": "HeroInteractionResultType_SmallUp",
				"Weight": 3300,
				"FavourabilityExp": 30
			},
			{
				"ResultType": "HeroInteractionResultType_BigUp",
				"Weight": 3300,
				"FavourabilityExp": 50
			}
		],
		"NormalResultPerformance": 111,
		"SmallUpResultPerformance": 111,
		"BigUpResultPerformance": 111
	},
	{
		"ID": 3,
		"Results": [
			{
				"ResultType": "HeroInteractionResultType_Norml",
				"Weight": 3300,
				"FavourabilityExp": 20
			},
			{
				"ResultType": "HeroInteractionResultType_SmallUp",
				"Weight": 3300,
				"FavourabilityExp": 30
			},
			{
				"ResultType": "HeroInteractionResultType_BigUp",
				"Weight": 3300,
				"FavourabilityExp": 50
			}
		],
		"NormalResultPerformance": 311,
		"SmallUpResultPerformance": 311,
		"BigUpResultPerformance": 311
	},
	{
		"ID": 4,
		"Results": [
			{
				"ResultType": "HeroInteractionResultType_Norml",
				"Weight": 3300,
				"FavourabilityExp": 20
			},
			{
				"ResultType": "HeroInteractionResultType_SmallUp",
				"Weight": 3300,
				"FavourabilityExp": 30
			},
			{
				"ResultType": "HeroInteractionResultType_BigUp",
				"Weight": 3300,
				"FavourabilityExp": 50
			}
		],
		"NormalResultPerformance": 411,
		"SmallUpResultPerformance": 411,
		"BigUpResultPerformance": 411
	},
	{
		"ID": 5,
		"Results": [
			{
				"ResultType": "HeroInteractionResultType_Norml",
				"Weight": 3300,
				"FavourabilityExp": 20
			},
			{
				"ResultType": "HeroInteractionResultType_SmallUp",
				"Weight": 3300,
				"FavourabilityExp": 30
			},
			{
				"ResultType": "HeroInteractionResultType_BigUp",
				"Weight": 3300,
				"FavourabilityExp": 50
			}
		],
		"NormalResultPerformance": 511,
		"SmallUpResultPerformance": 511,
		"BigUpResultPerformance": 511
	},
	{
		"ID": 6,
		"Results": [
			{
				"ResultType": "HeroInteractionResultType_Norml",
				"Weight": 3300,
				"FavourabilityExp": 20
			},
			{
				"ResultType": "HeroInteractionResultType_SmallUp",
				"Weight": 3300,
				"FavourabilityExp": 30
			},
			{
				"ResultType": "HeroInteractionResultType_BigUp",
				"Weight": 3300,
				"FavourabilityExp": 50
			}
		],
		"NormalResultPerformance": 611,
		"SmallUpResultPerformance": 611,
		"BigUpResultPerformance": 611
	},
	{
		"ID": 7,
		"Results": [
			{
				"ResultType": "HeroInteractionResultType_Norml",
				"Weight": 3300,
				"FavourabilityExp": 20
			},
			{
				"ResultType": "HeroInteractionResultType_SmallUp",
				"Weight": 3300,
				"FavourabilityExp": 30
			},
			{
				"ResultType": "HeroInteractionResultType_BigUp",
				"Weight": 3300,
				"FavourabilityExp": 50
			}
		],
		"NormalResultPerformance": 711,
		"SmallUpResultPerformance": 711,
		"BigUpResultPerformance": 711
	},
	{
		"ID": 8,
		"Results": [
			{
				"ResultType": "HeroInteractionResultType_Norml",
				"Weight": 3300,
				"FavourabilityExp": 20
			},
			{
				"ResultType": "HeroInteractionResultType_SmallUp",
				"Weight": 3300,
				"FavourabilityExp": 30
			},
			{
				"ResultType": "HeroInteractionResultType_BigUp",
				"Weight": 3300,
				"FavourabilityExp": 50
			}
		],
		"NormalResultPerformance": 811,
		"SmallUpResultPerformance": 811,
		"BigUpResultPerformance": 811
	},
	{
		"ID": 9,
		"Results": [
			{
				"ResultType": "HeroInteractionResultType_Norml",
				"Weight": 3300,
				"FavourabilityExp": 20
			},
			{
				"ResultType": "HeroInteractionResultType_SmallUp",
				"Weight": 3300,
				"FavourabilityExp": 30
			},
			{
				"ResultType": "HeroInteractionResultType_BigUp",
				"Weight": 3300,
				"FavourabilityExp": 50
			}
		],
		"NormalResultPerformance": 911,
		"SmallUpResultPerformance": 911,
		"BigUpResultPerformance": 911
	},
	{
		"ID": 10,
		"Results": [
			{
				"ResultType": "HeroInteractionResultType_Norml",
				"Weight": 3300,
				"FavourabilityExp": 20
			},
			{
				"ResultType": "HeroInteractionResultType_SmallUp",
				"Weight": 3300,
				"FavourabilityExp": 30
			},
			{
				"ResultType": "HeroInteractionResultType_BigUp",
				"Weight": 3300,
				"FavourabilityExp": 50
			}
		],
		"NormalResultPerformance": 1011,
		"SmallUpResultPerformance": 1011,
		"BigUpResultPerformance": 1011
	},
	{
		"ID": 11,
		"Results": [
			{
				"ResultType": "HeroInteractionResultType_Norml",
				"Weight": 3300,
				"FavourabilityExp": 20
			},
			{
				"ResultType": "HeroInteractionResultType_SmallUp",
				"Weight": 3300,
				"FavourabilityExp": 30
			},
			{
				"ResultType": "HeroInteractionResultType_BigUp",
				"Weight": 3300,
				"FavourabilityExp": 50
			}
		],
		"NormalResultPerformance": 1111,
		"SmallUpResultPerformance": 1111,
		"BigUpResultPerformance": 1111
	},
	{
		"ID": 12,
		"Results": [
			{
				"ResultType": "HeroInteractionResultType_Norml",
				"Weight": 3300,
				"FavourabilityExp": 20
			},
			{
				"ResultType": "HeroInteractionResultType_SmallUp",
				"Weight": 3300,
				"FavourabilityExp": 30
			},
			{
				"ResultType": "HeroInteractionResultType_BigUp",
				"Weight": 3300,
				"FavourabilityExp": 50
			}
		],
		"NormalResultPerformance": 1211,
		"SmallUpResultPerformance": 1211,
		"BigUpResultPerformance": 1211
	},
	{
		"ID": 13,
		"Results": [
			{
				"ResultType": "HeroInteractionResultType_Norml",
				"Weight": 3300,
				"FavourabilityExp": 20
			},
			{
				"ResultType": "HeroInteractionResultType_SmallUp",
				"Weight": 3300,
				"FavourabilityExp": 30
			},
			{
				"ResultType": "HeroInteractionResultType_BigUp",
				"Weight": 3300,
				"FavourabilityExp": 50
			}
		],
		"NormalResultPerformance": 1311,
		"SmallUpResultPerformance": 1311,
		"BigUpResultPerformance": 1311
	},
	{
		"ID": 14,
		"Results": [
			{
				"ResultType": "HeroInteractionResultType_Norml",
				"Weight": 3300,
				"FavourabilityExp": 20
			},
			{
				"ResultType": "HeroInteractionResultType_SmallUp",
				"Weight": 3300,
				"FavourabilityExp": 30
			},
			{
				"ResultType": "HeroInteractionResultType_BigUp",
				"Weight": 3300,
				"FavourabilityExp": 50
			}
		],
		"NormalResultPerformance": 1411,
		"SmallUpResultPerformance": 1411,
		"BigUpResultPerformance": 1411
	},
	{
		"ID": 15,
		"Results": [
			{
				"ResultType": "HeroInteractionResultType_Norml",
				"Weight": 3300,
				"FavourabilityExp": 20
			},
			{
				"ResultType": "HeroInteractionResultType_SmallUp",
				"Weight": 3300,
				"FavourabilityExp": 30
			},
			{
				"ResultType": "HeroInteractionResultType_BigUp",
				"Weight": 3300,
				"FavourabilityExp": 50
			}
		],
		"NormalResultPerformance": 1511,
		"SmallUpResultPerformance": 1511,
		"BigUpResultPerformance": 1511
	},
	{
		"ID": 16,
		"Results": [
			{
				"ResultType": "HeroInteractionResultType_Norml",
				"Weight": 3300,
				"FavourabilityExp": 20
			},
			{
				"ResultType": "HeroInteractionResultType_SmallUp",
				"Weight": 3300,
				"FavourabilityExp": 30
			},
			{
				"ResultType": "HeroInteractionResultType_BigUp",
				"Weight": 3300,
				"FavourabilityExp": 50
			}
		],
		"NormalResultPerformance": 1611,
		"SmallUpResultPerformance": 1611,
		"BigUpResultPerformance": 1611
	},
	{
		"ID": 17,
		"Results": [
			{
				"ResultType": "HeroInteractionResultType_Norml",
				"Weight": 3300,
				"FavourabilityExp": 20
			},
			{
				"ResultType": "HeroInteractionResultType_SmallUp",
				"Weight": 3300,
				"FavourabilityExp": 30
			},
			{
				"ResultType": "HeroInteractionResultType_BigUp",
				"Weight": 3300,
				"FavourabilityExp": 50
			}
		],
		"NormalResultPerformance": 1711,
		"SmallUpResultPerformance": 1711,
		"BigUpResultPerformance": 1711
	},
	{
		"ID": 18,
		"Results": [
			{
				"ResultType": "HeroInteractionResultType_Norml",
				"Weight": 3300,
				"FavourabilityExp": 20
			},
			{
				"ResultType": "HeroInteractionResultType_SmallUp",
				"Weight": 3300,
				"FavourabilityExp": 30
			},
			{
				"ResultType": "HeroInteractionResultType_BigUp",
				"Weight": 3300,
				"FavourabilityExp": 50
			}
		],
		"NormalResultPerformance": 1811,
		"SmallUpResultPerformance": 1811,
		"BigUpResultPerformance": 1811
	},
	{
		"ID": 19,
		"Results": [
			{
				"ResultType": "HeroInteractionResultType_Norml",
				"Weight": 3300,
				"FavourabilityExp": 20
			},
			{
				"ResultType": "HeroInteractionResultType_SmallUp",
				"Weight": 3300,
				"FavourabilityExp": 30
			},
			{
				"ResultType": "HeroInteractionResultType_BigUp",
				"Weight": 3300,
				"FavourabilityExp": 50
			}
		],
		"NormalResultPerformance": 1911,
		"SmallUpResultPerformance": 1911,
		"BigUpResultPerformance": 1911
	},
	{
		"ID": 20,
		"Results": [
			{
				"ResultType": "HeroInteractionResultType_Norml",
				"Weight": 3300,
				"FavourabilityExp": 20
			},
			{
				"ResultType": "HeroInteractionResultType_SmallUp",
				"Weight": 3300,
				"FavourabilityExp": 30
			},
			{
				"ResultType": "HeroInteractionResultType_BigUp",
				"Weight": 3300,
				"FavourabilityExp": 50
			}
		],
		"NormalResultPerformance": 2011,
		"SmallUpResultPerformance": 2011,
		"BigUpResultPerformance": 2011
	},
	{
		"ID": 21,
		"Results": [
			{
				"ResultType": "HeroInteractionResultType_Norml",
				"Weight": 3300,
				"FavourabilityExp": 20
			},
			{
				"ResultType": "HeroInteractionResultType_SmallUp",
				"Weight": 3300,
				"FavourabilityExp": 30
			},
			{
				"ResultType": "HeroInteractionResultType_BigUp",
				"Weight": 3300,
				"FavourabilityExp": 50
			}
		],
		"NormalResultPerformance": 2111,
		"SmallUpResultPerformance": 2111,
		"BigUpResultPerformance": 2111
	},
	{
		"ID": 22,
		"Results": [
			{
				"ResultType": "HeroInteractionResultType_Norml",
				"Weight": 3300,
				"FavourabilityExp": 20
			},
			{
				"ResultType": "HeroInteractionResultType_SmallUp",
				"Weight": 3300,
				"FavourabilityExp": 30
			},
			{
				"ResultType": "HeroInteractionResultType_BigUp",
				"Weight": 3300,
				"FavourabilityExp": 50
			}
		],
		"NormalResultPerformance": 2211,
		"SmallUpResultPerformance": 2211,
		"BigUpResultPerformance": 2211
	},
	{
		"ID": 23,
		"Results": [
			{
				"ResultType": "HeroInteractionResultType_Norml",
				"Weight": 3300,
				"FavourabilityExp": 20
			},
			{
				"ResultType": "HeroInteractionResultType_SmallUp",
				"Weight": 3300,
				"FavourabilityExp": 30
			},
			{
				"ResultType": "HeroInteractionResultType_BigUp",
				"Weight": 3300,
				"FavourabilityExp": 50
			}
		],
		"NormalResultPerformance": 2311,
		"SmallUpResultPerformance": 2311,
		"BigUpResultPerformance": 2311
	},
	{
		"ID": 24,
		"Results": [
			{
				"ResultType": "HeroInteractionResultType_Norml",
				"Weight": 3300,
				"FavourabilityExp": 20
			},
			{
				"ResultType": "HeroInteractionResultType_SmallUp",
				"Weight": 3300,
				"FavourabilityExp": 30
			},
			{
				"ResultType": "HeroInteractionResultType_BigUp",
				"Weight": 3300,
				"FavourabilityExp": 50
			}
		],
		"NormalResultPerformance": 2411,
		"SmallUpResultPerformance": 2411,
		"BigUpResultPerformance": 2411
	},
	{
		"ID": 25,
		"Results": [
			{
				"ResultType": "HeroInteractionResultType_Norml",
				"Weight": 3300,
				"FavourabilityExp": 20
			},
			{
				"ResultType": "HeroInteractionResultType_SmallUp",
				"Weight": 3300,
				"FavourabilityExp": 30
			},
			{
				"ResultType": "HeroInteractionResultType_BigUp",
				"Weight": 3300,
				"FavourabilityExp": 50
			}
		],
		"NormalResultPerformance": 2511,
		"SmallUpResultPerformance": 2511,
		"BigUpResultPerformance": 2511
	},
	{
		"ID": 26,
		"Results": [
			{
				"ResultType": "HeroInteractionResultType_Norml",
				"Weight": 3300,
				"FavourabilityExp": 20
			},
			{
				"ResultType": "HeroInteractionResultType_SmallUp",
				"Weight": 3300,
				"FavourabilityExp": 30
			},
			{
				"ResultType": "HeroInteractionResultType_BigUp",
				"Weight": 3300,
				"FavourabilityExp": 50
			}
		],
		"NormalResultPerformance": 2611,
		"SmallUpResultPerformance": 2611,
		"BigUpResultPerformance": 2611
	},
	{
		"ID": 27,
		"Results": [
			{
				"ResultType": "HeroInteractionResultType_Norml",
				"Weight": 3300,
				"FavourabilityExp": 20
			},
			{
				"ResultType": "HeroInteractionResultType_SmallUp",
				"Weight": 3300,
				"FavourabilityExp": 30
			},
			{
				"ResultType": "HeroInteractionResultType_BigUp",
				"Weight": 3300,
				"FavourabilityExp": 50
			}
		],
		"NormalResultPerformance": 2711,
		"SmallUpResultPerformance": 2711,
		"BigUpResultPerformance": 2711
	},
	{
		"ID": 28,
		"Results": [
			{
				"ResultType": "HeroInteractionResultType_Norml",
				"Weight": 3300,
				"FavourabilityExp": 20
			},
			{
				"ResultType": "HeroInteractionResultType_SmallUp",
				"Weight": 3300,
				"FavourabilityExp": 30
			},
			{
				"ResultType": "HeroInteractionResultType_BigUp",
				"Weight": 3300,
				"FavourabilityExp": 50
			}
		],
		"NormalResultPerformance": 2811,
		"SmallUpResultPerformance": 2811,
		"BigUpResultPerformance": 2811
	},
	{
		"ID": 29,
		"Results": [
			{
				"ResultType": "HeroInteractionResultType_Norml",
				"Weight": 3300,
				"FavourabilityExp": 20
			},
			{
				"ResultType": "HeroInteractionResultType_SmallUp",
				"Weight": 3300,
				"FavourabilityExp": 30
			},
			{
				"ResultType": "HeroInteractionResultType_BigUp",
				"Weight": 3300,
				"FavourabilityExp": 50
			}
		],
		"NormalResultPerformance": 2911,
		"SmallUpResultPerformance": 2911,
		"BigUpResultPerformance": 2911
	},
	{
		"ID": 30,
		"Results": [
			{
				"ResultType": "HeroInteractionResultType_Norml",
				"Weight": 3300,
				"FavourabilityExp": 20
			},
			{
				"ResultType": "HeroInteractionResultType_SmallUp",
				"Weight": 3300,
				"FavourabilityExp": 30
			},
			{
				"ResultType": "HeroInteractionResultType_BigUp",
				"Weight": 3300,
				"FavourabilityExp": 50
			}
		],
		"NormalResultPerformance": 3011,
		"SmallUpResultPerformance": 3011,
		"BigUpResultPerformance": 3011
	},
	{
		"ID": 31,
		"Results": [
			{
				"ResultType": "HeroInteractionResultType_Norml",
				"Weight": 3300,
				"FavourabilityExp": 20
			},
			{
				"ResultType": "HeroInteractionResultType_SmallUp",
				"Weight": 3300,
				"FavourabilityExp": 30
			},
			{
				"ResultType": "HeroInteractionResultType_BigUp",
				"Weight": 3300,
				"FavourabilityExp": 50
			}
		],
		"NormalResultPerformance": 3111,
		"SmallUpResultPerformance": 3111,
		"BigUpResultPerformance": 3111
	},
	{
		"ID": 32,
		"Results": [
			{
				"ResultType": "HeroInteractionResultType_Norml",
				"Weight": 3300,
				"FavourabilityExp": 20
			},
			{
				"ResultType": "HeroInteractionResultType_SmallUp",
				"Weight": 3300,
				"FavourabilityExp": 30
			},
			{
				"ResultType": "HeroInteractionResultType_BigUp",
				"Weight": 3300,
				"FavourabilityExp": 50
			}
		],
		"NormalResultPerformance": 3211,
		"SmallUpResultPerformance": 3211,
		"BigUpResultPerformance": 3211
	},
	{
		"ID": 33,
		"Results": [
			{
				"ResultType": "HeroInteractionResultType_Norml",
				"Weight": 3300,
				"FavourabilityExp": 20
			},
			{
				"ResultType": "HeroInteractionResultType_SmallUp",
				"Weight": 3300,
				"FavourabilityExp": 30
			},
			{
				"ResultType": "HeroInteractionResultType_BigUp",
				"Weight": 3300,
				"FavourabilityExp": 50
			}
		],
		"NormalResultPerformance": 3311,
		"SmallUpResultPerformance": 3311,
		"BigUpResultPerformance": 3311
	},
	{
		"ID": 34,
		"Results": [
			{
				"ResultType": "HeroInteractionResultType_Norml",
				"Weight": 3300,
				"FavourabilityExp": 20
			},
			{
				"ResultType": "HeroInteractionResultType_SmallUp",
				"Weight": 3300,
				"FavourabilityExp": 30
			},
			{
				"ResultType": "HeroInteractionResultType_BigUp",
				"Weight": 3300,
				"FavourabilityExp": 50
			}
		],
		"NormalResultPerformance": 3411,
		"SmallUpResultPerformance": 3411,
		"BigUpResultPerformance": 3411
	},
	{
		"ID": 35,
		"Results": [
			{
				"ResultType": "HeroInteractionResultType_Norml",
				"Weight": 3300,
				"FavourabilityExp": 20
			},
			{
				"ResultType": "HeroInteractionResultType_SmallUp",
				"Weight": 3300,
				"FavourabilityExp": 30
			},
			{
				"ResultType": "HeroInteractionResultType_BigUp",
				"Weight": 3300,
				"FavourabilityExp": 50
			}
		],
		"NormalResultPerformance": 3511,
		"SmallUpResultPerformance": 3511,
		"BigUpResultPerformance": 3511
	},
	{
		"ID": 36,
		"Results": [
			{
				"ResultType": "HeroInteractionResultType_Norml",
				"Weight": 3300,
				"FavourabilityExp": 20
			},
			{
				"ResultType": "HeroInteractionResultType_SmallUp",
				"Weight": 3300,
				"FavourabilityExp": 30
			},
			{
				"ResultType": "HeroInteractionResultType_BigUp",
				"Weight": 3300,
				"FavourabilityExp": 50
			}
		],
		"NormalResultPerformance": 3611,
		"SmallUpResultPerformance": 3611,
		"BigUpResultPerformance": 3611
	},
	{
		"ID": 37,
		"Results": [
			{
				"ResultType": "HeroInteractionResultType_Norml",
				"Weight": 3300,
				"FavourabilityExp": 20
			},
			{
				"ResultType": "HeroInteractionResultType_SmallUp",
				"Weight": 3300,
				"FavourabilityExp": 30
			},
			{
				"ResultType": "HeroInteractionResultType_BigUp",
				"Weight": 3300,
				"FavourabilityExp": 50
			}
		],
		"NormalResultPerformance": 3711,
		"SmallUpResultPerformance": 3711,
		"BigUpResultPerformance": 3711
	},
	{
		"ID": 38,
		"Results": [
			{
				"ResultType": "HeroInteractionResultType_Norml",
				"Weight": 3300,
				"FavourabilityExp": 20
			},
			{
				"ResultType": "HeroInteractionResultType_SmallUp",
				"Weight": 3300,
				"FavourabilityExp": 30
			},
			{
				"ResultType": "HeroInteractionResultType_BigUp",
				"Weight": 3300,
				"FavourabilityExp": 50
			}
		],
		"NormalResultPerformance": 3811,
		"SmallUpResultPerformance": 3811,
		"BigUpResultPerformance": 3811
	},
	{
		"ID": 39,
		"Results": [
			{
				"ResultType": "HeroInteractionResultType_Norml",
				"Weight": 3300,
				"FavourabilityExp": 20
			},
			{
				"ResultType": "HeroInteractionResultType_SmallUp",
				"Weight": 3300,
				"FavourabilityExp": 30
			},
			{
				"ResultType": "HeroInteractionResultType_BigUp",
				"Weight": 3300,
				"FavourabilityExp": 50
			}
		],
		"NormalResultPerformance": 3911,
		"SmallUpResultPerformance": 3911,
		"BigUpResultPerformance": 3911
	},
	{
		"ID": 40,
		"Results": [
			{
				"ResultType": "HeroInteractionResultType_Norml",
				"Weight": 3300,
				"FavourabilityExp": 20
			},
			{
				"ResultType": "HeroInteractionResultType_SmallUp",
				"Weight": 3300,
				"FavourabilityExp": 30
			},
			{
				"ResultType": "HeroInteractionResultType_BigUp",
				"Weight": 3300,
				"FavourabilityExp": 50
			}
		],
		"NormalResultPerformance": 4011,
		"SmallUpResultPerformance": 4011,
		"BigUpResultPerformance": 4011
	},
	{
		"ID": 41,
		"Results": [
			{
				"ResultType": "HeroInteractionResultType_Norml",
				"Weight": 3300,
				"FavourabilityExp": 20
			},
			{
				"ResultType": "HeroInteractionResultType_SmallUp",
				"Weight": 3300,
				"FavourabilityExp": 30
			},
			{
				"ResultType": "HeroInteractionResultType_BigUp",
				"Weight": 3300,
				"FavourabilityExp": 50
			}
		],
		"NormalResultPerformance": 4111,
		"SmallUpResultPerformance": 4111,
		"BigUpResultPerformance": 4111
	},
	{
		"ID": 42,
		"Results": [
			{
				"ResultType": "HeroInteractionResultType_Norml",
				"Weight": 3300,
				"FavourabilityExp": 20
			},
			{
				"ResultType": "HeroInteractionResultType_SmallUp",
				"Weight": 3300,
				"FavourabilityExp": 30
			},
			{
				"ResultType": "HeroInteractionResultType_BigUp",
				"Weight": 3300,
				"FavourabilityExp": 50
			}
		],
		"NormalResultPerformance": 4211,
		"SmallUpResultPerformance": 4211,
		"BigUpResultPerformance": 4211
	},
	{
		"ID": 43,
		"Results": [
			{
				"ResultType": "HeroInteractionResultType_Norml",
				"Weight": 3300,
				"FavourabilityExp": 20
			},
			{
				"ResultType": "HeroInteractionResultType_SmallUp",
				"Weight": 3300,
				"FavourabilityExp": 30
			},
			{
				"ResultType": "HeroInteractionResultType_BigUp",
				"Weight": 3300,
				"FavourabilityExp": 50
			}
		],
		"NormalResultPerformance": 4311,
		"SmallUpResultPerformance": 4311,
		"BigUpResultPerformance": 4311
	},
	{
		"ID": 44,
		"Results": [
			{
				"ResultType": "HeroInteractionResultType_Norml",
				"Weight": 3300,
				"FavourabilityExp": 20
			},
			{
				"ResultType": "HeroInteractionResultType_SmallUp",
				"Weight": 3300,
				"FavourabilityExp": 30
			},
			{
				"ResultType": "HeroInteractionResultType_BigUp",
				"Weight": 3300,
				"FavourabilityExp": 50
			}
		],
		"NormalResultPerformance": 4411,
		"SmallUpResultPerformance": 4411,
		"BigUpResultPerformance": 4411
	},
	{
		"ID": 45,
		"Results": [
			{
				"ResultType": "HeroInteractionResultType_Norml",
				"Weight": 3300,
				"FavourabilityExp": 20
			},
			{
				"ResultType": "HeroInteractionResultType_SmallUp",
				"Weight": 3300,
				"FavourabilityExp": 30
			},
			{
				"ResultType": "HeroInteractionResultType_BigUp",
				"Weight": 3300,
				"FavourabilityExp": 50
			}
		],
		"NormalResultPerformance": 4511,
		"SmallUpResultPerformance": 4511,
		"BigUpResultPerformance": 4511
	},
	{
		"ID": 46,
		"Results": [
			{
				"ResultType": "HeroInteractionResultType_Norml",
				"Weight": 3300,
				"FavourabilityExp": 20
			},
			{
				"ResultType": "HeroInteractionResultType_SmallUp",
				"Weight": 3300,
				"FavourabilityExp": 30
			},
			{
				"ResultType": "HeroInteractionResultType_BigUp",
				"Weight": 3300,
				"FavourabilityExp": 50
			}
		],
		"NormalResultPerformance": 4611,
		"SmallUpResultPerformance": 4611,
		"BigUpResultPerformance": 4611
	},
	{
		"ID": 47,
		"Results": [
			{
				"ResultType": "HeroInteractionResultType_Norml",
				"Weight": 3300,
				"FavourabilityExp": 20
			},
			{
				"ResultType": "HeroInteractionResultType_SmallUp",
				"Weight": 3300,
				"FavourabilityExp": 30
			},
			{
				"ResultType": "HeroInteractionResultType_BigUp",
				"Weight": 3300,
				"FavourabilityExp": 50
			}
		],
		"NormalResultPerformance": 4711,
		"SmallUpResultPerformance": 4711,
		"BigUpResultPerformance": 4711
	},
	{
		"ID": 48,
		"Results": [
			{
				"ResultType": "HeroInteractionResultType_Norml",
				"Weight": 3300,
				"FavourabilityExp": 20
			},
			{
				"ResultType": "HeroInteractionResultType_SmallUp",
				"Weight": 3300,
				"FavourabilityExp": 30
			},
			{
				"ResultType": "HeroInteractionResultType_BigUp",
				"Weight": 3300,
				"FavourabilityExp": 50
			}
		],
		"NormalResultPerformance": 4811,
		"SmallUpResultPerformance": 4811,
		"BigUpResultPerformance": 4811
	},
	{
		"ID": 49,
		"Results": [
			{
				"ResultType": "HeroInteractionResultType_Norml",
				"Weight": 3300,
				"FavourabilityExp": 20
			},
			{
				"ResultType": "HeroInteractionResultType_SmallUp",
				"Weight": 3300,
				"FavourabilityExp": 30
			},
			{
				"ResultType": "HeroInteractionResultType_BigUp",
				"Weight": 3300,
				"FavourabilityExp": 50
			}
		],
		"NormalResultPerformance": 4911,
		"SmallUpResultPerformance": 4911,
		"BigUpResultPerformance": 4911
	},
	{
		"ID": 51,
		"Results": [
			{
				"ResultType": "HeroInteractionResultType_Norml",
				"Weight": 3300,
				"FavourabilityExp": 20
			},
			{
				"ResultType": "HeroInteractionResultType_SmallUp",
				"Weight": 3300,
				"FavourabilityExp": 30
			},
			{
				"ResultType": "HeroInteractionResultType_BigUp",
				"Weight": 3300,
				"FavourabilityExp": 50
			}
		],
		"NormalResultPerformance": 5111,
		"SmallUpResultPerformance": 5111,
		"BigUpResultPerformance": 5111
	},
	{
		"ID": 52,
		"Results": [
			{
				"ResultType": "HeroInteractionResultType_Norml",
				"Weight": 3300,
				"FavourabilityExp": 20
			},
			{
				"ResultType": "HeroInteractionResultType_SmallUp",
				"Weight": 3300,
				"FavourabilityExp": 30
			},
			{
				"ResultType": "HeroInteractionResultType_BigUp",
				"Weight": 3300,
				"FavourabilityExp": 50
			}
		],
		"NormalResultPerformance": 5211,
		"SmallUpResultPerformance": 5211,
		"BigUpResultPerformance": 5211
	},
	{
		"ID": 53,
		"Results": [
			{
				"ResultType": "HeroInteractionResultType_Norml",
				"Weight": 3300,
				"FavourabilityExp": 20
			},
			{
				"ResultType": "HeroInteractionResultType_SmallUp",
				"Weight": 3300,
				"FavourabilityExp": 30
			},
			{
				"ResultType": "HeroInteractionResultType_BigUp",
				"Weight": 3300,
				"FavourabilityExp": 50
			}
		],
		"NormalResultPerformance": 5311,
		"SmallUpResultPerformance": 5311,
		"BigUpResultPerformance": 5311
	},
	{
		"ID": 54,
		"Results": [
			{
				"ResultType": "HeroInteractionResultType_Norml",
				"Weight": 3300,
				"FavourabilityExp": 20
			},
			{
				"ResultType": "HeroInteractionResultType_SmallUp",
				"Weight": 3300,
				"FavourabilityExp": 30
			},
			{
				"ResultType": "HeroInteractionResultType_BigUp",
				"Weight": 3300,
				"FavourabilityExp": 50
			}
		],
		"NormalResultPerformance": 5411,
		"SmallUpResultPerformance": 5411,
		"BigUpResultPerformance": 5411
	},
	{
		"ID": 55,
		"Results": [
			{
				"ResultType": "HeroInteractionResultType_Norml",
				"Weight": 3300,
				"FavourabilityExp": 20
			},
			{
				"ResultType": "HeroInteractionResultType_SmallUp",
				"Weight": 3300,
				"FavourabilityExp": 30
			},
			{
				"ResultType": "HeroInteractionResultType_BigUp",
				"Weight": 3300,
				"FavourabilityExp": 50
			}
		],
		"NormalResultPerformance": 5511,
		"SmallUpResultPerformance": 5511,
		"BigUpResultPerformance": 5511
	},
	{
		"ID": 56,
		"Results": [
			{
				"ResultType": "HeroInteractionResultType_Norml",
				"Weight": 3300,
				"FavourabilityExp": 20
			},
			{
				"ResultType": "HeroInteractionResultType_SmallUp",
				"Weight": 3300,
				"FavourabilityExp": 30
			},
			{
				"ResultType": "HeroInteractionResultType_BigUp",
				"Weight": 3300,
				"FavourabilityExp": 50
			}
		],
		"NormalResultPerformance": 5611,
		"SmallUpResultPerformance": 5611,
		"BigUpResultPerformance": 5611
	},
	{
		"ID": 57,
		"Results": [
			{
				"ResultType": "HeroInteractionResultType_Norml",
				"Weight": 3300,
				"FavourabilityExp": 20
			},
			{
				"ResultType": "HeroInteractionResultType_SmallUp",
				"Weight": 3300,
				"FavourabilityExp": 30
			},
			{
				"ResultType": "HeroInteractionResultType_BigUp",
				"Weight": 3300,
				"FavourabilityExp": 50
			}
		],
		"NormalResultPerformance": 5711,
		"SmallUpResultPerformance": 5711,
		"BigUpResultPerformance": 5711
	},
	{
		"ID": 58,
		"Results": [
			{
				"ResultType": "HeroInteractionResultType_Norml",
				"Weight": 3300,
				"FavourabilityExp": 20
			},
			{
				"ResultType": "HeroInteractionResultType_SmallUp",
				"Weight": 3300,
				"FavourabilityExp": 30
			},
			{
				"ResultType": "HeroInteractionResultType_BigUp",
				"Weight": 3300,
				"FavourabilityExp": 50
			}
		],
		"NormalResultPerformance": 5811,
		"SmallUpResultPerformance": 5811,
		"BigUpResultPerformance": 5811
	},
	{
		"ID": 59,
		"Results": [
			{
				"ResultType": "HeroInteractionResultType_Norml",
				"Weight": 3300,
				"FavourabilityExp": 20
			},
			{
				"ResultType": "HeroInteractionResultType_SmallUp",
				"Weight": 3300,
				"FavourabilityExp": 30
			},
			{
				"ResultType": "HeroInteractionResultType_BigUp",
				"Weight": 3300,
				"FavourabilityExp": 50
			}
		],
		"NormalResultPerformance": 5911,
		"SmallUpResultPerformance": 5911,
		"BigUpResultPerformance": 5911
	},
	{
		"ID": 60,
		"Results": [
			{
				"ResultType": "HeroInteractionResultType_Norml",
				"Weight": 3300,
				"FavourabilityExp": 20
			},
			{
				"ResultType": "HeroInteractionResultType_SmallUp",
				"Weight": 3300,
				"FavourabilityExp": 30
			},
			{
				"ResultType": "HeroInteractionResultType_BigUp",
				"Weight": 3300,
				"FavourabilityExp": 50
			}
		],
		"NormalResultPerformance": 6011,
		"SmallUpResultPerformance": 6011,
		"BigUpResultPerformance": 6011
	},
	{
		"ID": 61,
		"Results": [
			{
				"ResultType": "HeroInteractionResultType_Norml",
				"Weight": 3300,
				"FavourabilityExp": 20
			},
			{
				"ResultType": "HeroInteractionResultType_SmallUp",
				"Weight": 3300,
				"FavourabilityExp": 30
			},
			{
				"ResultType": "HeroInteractionResultType_BigUp",
				"Weight": 3300,
				"FavourabilityExp": 50
			}
		],
		"NormalResultPerformance": 6111,
		"SmallUpResultPerformance": 6111,
		"BigUpResultPerformance": 6111
	},
	{
		"ID": 62,
		"Results": [
			{
				"ResultType": "HeroInteractionResultType_Norml",
				"Weight": 3300,
				"FavourabilityExp": 20
			},
			{
				"ResultType": "HeroInteractionResultType_SmallUp",
				"Weight": 3300,
				"FavourabilityExp": 30
			},
			{
				"ResultType": "HeroInteractionResultType_BigUp",
				"Weight": 3300,
				"FavourabilityExp": 50
			}
		],
		"NormalResultPerformance": 6211,
		"SmallUpResultPerformance": 6211,
		"BigUpResultPerformance": 6211
	},
	{
		"ID": 63,
		"Results": [
			{
				"ResultType": "HeroInteractionResultType_Norml",
				"Weight": 3300,
				"FavourabilityExp": 20
			},
			{
				"ResultType": "HeroInteractionResultType_SmallUp",
				"Weight": 3300,
				"FavourabilityExp": 30
			},
			{
				"ResultType": "HeroInteractionResultType_BigUp",
				"Weight": 3300,
				"FavourabilityExp": 50
			}
		],
		"NormalResultPerformance": 6311,
		"SmallUpResultPerformance": 6311,
		"BigUpResultPerformance": 6311
	},
	{
		"ID": 64,
		"Results": [
			{
				"ResultType": "HeroInteractionResultType_Norml",
				"Weight": 3300,
				"FavourabilityExp": 20
			},
			{
				"ResultType": "HeroInteractionResultType_SmallUp",
				"Weight": 3300,
				"FavourabilityExp": 30
			},
			{
				"ResultType": "HeroInteractionResultType_BigUp",
				"Weight": 3300,
				"FavourabilityExp": 50
			}
		],
		"NormalResultPerformance": 6411,
		"SmallUpResultPerformance": 6411,
		"BigUpResultPerformance": 6411
	},
	{
		"ID": 65,
		"Results": [
			{
				"ResultType": "HeroInteractionResultType_Norml",
				"Weight": 3300,
				"FavourabilityExp": 20
			},
			{
				"ResultType": "HeroInteractionResultType_SmallUp",
				"Weight": 3300,
				"FavourabilityExp": 30
			},
			{
				"ResultType": "HeroInteractionResultType_BigUp",
				"Weight": 3300,
				"FavourabilityExp": 50
			}
		],
		"NormalResultPerformance": 6511,
		"SmallUpResultPerformance": 6511,
		"BigUpResultPerformance": 6511
	},
	{
		"ID": 66,
		"Results": [
			{
				"ResultType": "HeroInteractionResultType_Norml",
				"Weight": 3300,
				"FavourabilityExp": 20
			},
			{
				"ResultType": "HeroInteractionResultType_SmallUp",
				"Weight": 3300,
				"FavourabilityExp": 30
			},
			{
				"ResultType": "HeroInteractionResultType_BigUp",
				"Weight": 3300,
				"FavourabilityExp": 50
			}
		],
		"NormalResultPerformance": 6611,
		"SmallUpResultPerformance": 6611,
		"BigUpResultPerformance": 6611
	},
	{
		"ID": 67,
		"Results": [
			{
				"ResultType": "HeroInteractionResultType_Norml",
				"Weight": 3300,
				"FavourabilityExp": 20
			},
			{
				"ResultType": "HeroInteractionResultType_SmallUp",
				"Weight": 3300,
				"FavourabilityExp": 30
			},
			{
				"ResultType": "HeroInteractionResultType_BigUp",
				"Weight": 3300,
				"FavourabilityExp": 50
			}
		],
		"NormalResultPerformance": 6711,
		"SmallUpResultPerformance": 6711,
		"BigUpResultPerformance": 6711
	},
	{
		"ID": 69,
		"Results": [
			{
				"ResultType": "HeroInteractionResultType_Norml",
				"Weight": 3300,
				"FavourabilityExp": 20
			},
			{
				"ResultType": "HeroInteractionResultType_SmallUp",
				"Weight": 3300,
				"FavourabilityExp": 30
			},
			{
				"ResultType": "HeroInteractionResultType_BigUp",
				"Weight": 3300,
				"FavourabilityExp": 50
			}
		],
		"NormalResultPerformance": 6911,
		"SmallUpResultPerformance": 6911,
		"BigUpResultPerformance": 6911
	},
	{
		"ID": 70,
		"Results": [
			{
				"ResultType": "HeroInteractionResultType_Norml",
				"Weight": 3300,
				"FavourabilityExp": 20
			},
			{
				"ResultType": "HeroInteractionResultType_SmallUp",
				"Weight": 3300,
				"FavourabilityExp": 30
			},
			{
				"ResultType": "HeroInteractionResultType_BigUp",
				"Weight": 3300,
				"FavourabilityExp": 50
			}
		],
		"NormalResultPerformance": 7011,
		"SmallUpResultPerformance": 7011,
		"BigUpResultPerformance": 7011
	},
	{
		"ID": 71,
		"Results": [
			{
				"ResultType": "HeroInteractionResultType_Norml",
				"Weight": 3300,
				"FavourabilityExp": 20
			},
			{
				"ResultType": "HeroInteractionResultType_SmallUp",
				"Weight": 3300,
				"FavourabilityExp": 30
			},
			{
				"ResultType": "HeroInteractionResultType_BigUp",
				"Weight": 3300,
				"FavourabilityExp": 50
			}
		],
		"NormalResultPerformance": 7111,
		"SmallUpResultPerformance": 7111,
		"BigUpResultPerformance": 7111
	},
	{
		"ID": 72,
		"Results": [
			{
				"ResultType": "HeroInteractionResultType_Norml",
				"Weight": 3300,
				"FavourabilityExp": 20
			},
			{
				"ResultType": "HeroInteractionResultType_SmallUp",
				"Weight": 3300,
				"FavourabilityExp": 30
			},
			{
				"ResultType": "HeroInteractionResultType_BigUp",
				"Weight": 3300,
				"FavourabilityExp": 50
			}
		],
		"NormalResultPerformance": 7211,
		"SmallUpResultPerformance": 7211,
		"BigUpResultPerformance": 7211
	},
	{
		"ID": 73,
		"Results": [
			{
				"ResultType": "HeroInteractionResultType_Norml",
				"Weight": 3300,
				"FavourabilityExp": 20
			},
			{
				"ResultType": "HeroInteractionResultType_SmallUp",
				"Weight": 3300,
				"FavourabilityExp": 30
			},
			{
				"ResultType": "HeroInteractionResultType_BigUp",
				"Weight": 3300,
				"FavourabilityExp": 50
			}
		],
		"NormalResultPerformance": 7311,
		"SmallUpResultPerformance": 7311,
		"BigUpResultPerformance": 7311
	},
	{
		"ID": 74,
		"Results": [
			{
				"ResultType": "HeroInteractionResultType_Norml",
				"Weight": 3300,
				"FavourabilityExp": 20
			},
			{
				"ResultType": "HeroInteractionResultType_SmallUp",
				"Weight": 3300,
				"FavourabilityExp": 30
			},
			{
				"ResultType": "HeroInteractionResultType_BigUp",
				"Weight": 3300,
				"FavourabilityExp": 50
			}
		],
		"NormalResultPerformance": 7411,
		"SmallUpResultPerformance": 7411,
		"BigUpResultPerformance": 7411
	},
	{
		"ID": 75,
		"Results": [
			{
				"ResultType": "HeroInteractionResultType_Norml",
				"Weight": 3300,
				"FavourabilityExp": 20
			},
			{
				"ResultType": "HeroInteractionResultType_SmallUp",
				"Weight": 3300,
				"FavourabilityExp": 30
			},
			{
				"ResultType": "HeroInteractionResultType_BigUp",
				"Weight": 3300,
				"FavourabilityExp": 50
			}
		],
		"NormalResultPerformance": 7511,
		"SmallUpResultPerformance": 7511,
		"BigUpResultPerformance": 7511
	},
	{
		"ID": 76,
		"Results": [
			{
				"ResultType": "HeroInteractionResultType_Norml",
				"Weight": 3300,
				"FavourabilityExp": 20
			},
			{
				"ResultType": "HeroInteractionResultType_SmallUp",
				"Weight": 3300,
				"FavourabilityExp": 30
			},
			{
				"ResultType": "HeroInteractionResultType_BigUp",
				"Weight": 3300,
				"FavourabilityExp": 50
			}
		],
		"NormalResultPerformance": 7611,
		"SmallUpResultPerformance": 7611,
		"BigUpResultPerformance": 7611
	},
	{
		"ID": 77,
		"Results": [
			{
				"ResultType": "HeroInteractionResultType_Norml",
				"Weight": 3300,
				"FavourabilityExp": 20
			},
			{
				"ResultType": "HeroInteractionResultType_SmallUp",
				"Weight": 3300,
				"FavourabilityExp": 30
			},
			{
				"ResultType": "HeroInteractionResultType_BigUp",
				"Weight": 3300,
				"FavourabilityExp": 50
			}
		],
		"NormalResultPerformance": 7711,
		"SmallUpResultPerformance": 7711,
		"BigUpResultPerformance": 7711
	},
	{
		"ID": 78,
		"Results": [
			{
				"ResultType": "HeroInteractionResultType_Norml",
				"Weight": 3300,
				"FavourabilityExp": 20
			},
			{
				"ResultType": "HeroInteractionResultType_SmallUp",
				"Weight": 3300,
				"FavourabilityExp": 30
			},
			{
				"ResultType": "HeroInteractionResultType_BigUp",
				"Weight": 3300,
				"FavourabilityExp": 50
			}
		],
		"NormalResultPerformance": 7811,
		"SmallUpResultPerformance": 7811,
		"BigUpResultPerformance": 7811
	},
	{
		"ID": 79,
		"Results": [
			{
				"ResultType": "HeroInteractionResultType_Norml",
				"Weight": 3300,
				"FavourabilityExp": 20
			},
			{
				"ResultType": "HeroInteractionResultType_SmallUp",
				"Weight": 3300,
				"FavourabilityExp": 30
			},
			{
				"ResultType": "HeroInteractionResultType_BigUp",
				"Weight": 3300,
				"FavourabilityExp": 50
			}
		],
		"NormalResultPerformance": 7911,
		"SmallUpResultPerformance": 7911,
		"BigUpResultPerformance": 7911
	},
	{
		"ID": 80,
		"Results": [
			{
				"ResultType": "HeroInteractionResultType_Norml",
				"Weight": 3300,
				"FavourabilityExp": 20
			},
			{
				"ResultType": "HeroInteractionResultType_SmallUp",
				"Weight": 3300,
				"FavourabilityExp": 30
			},
			{
				"ResultType": "HeroInteractionResultType_BigUp",
				"Weight": 3300,
				"FavourabilityExp": 50
			}
		],
		"NormalResultPerformance": 8011,
		"SmallUpResultPerformance": 8011,
		"BigUpResultPerformance": 8011
	},
	{
		"ID": 81,
		"Results": [
			{
				"ResultType": "HeroInteractionResultType_Norml",
				"Weight": 3300,
				"FavourabilityExp": 20
			},
			{
				"ResultType": "HeroInteractionResultType_SmallUp",
				"Weight": 3300,
				"FavourabilityExp": 30
			},
			{
				"ResultType": "HeroInteractionResultType_BigUp",
				"Weight": 3300,
				"FavourabilityExp": 50
			}
		],
		"NormalResultPerformance": 8111,
		"SmallUpResultPerformance": 8111,
		"BigUpResultPerformance": 8111
	},
	{
		"ID": 82,
		"Results": [
			{
				"ResultType": "HeroInteractionResultType_Norml",
				"Weight": 3300,
				"FavourabilityExp": 20
			},
			{
				"ResultType": "HeroInteractionResultType_SmallUp",
				"Weight": 3300,
				"FavourabilityExp": 30
			},
			{
				"ResultType": "HeroInteractionResultType_BigUp",
				"Weight": 3300,
				"FavourabilityExp": 50
			}
		],
		"NormalResultPerformance": 8211,
		"SmallUpResultPerformance": 8211,
		"BigUpResultPerformance": 8211
	},
	{
		"ID": 83,
		"Results": [
			{
				"ResultType": "HeroInteractionResultType_Norml",
				"Weight": 3300,
				"FavourabilityExp": 20
			},
			{
				"ResultType": "HeroInteractionResultType_SmallUp",
				"Weight": 3300,
				"FavourabilityExp": 30
			},
			{
				"ResultType": "HeroInteractionResultType_BigUp",
				"Weight": 3300,
				"FavourabilityExp": 50
			}
		],
		"NormalResultPerformance": 8311,
		"SmallUpResultPerformance": 8311,
		"BigUpResultPerformance": 8311
	},
	{
		"ID": 84,
		"Results": [
			{
				"ResultType": "HeroInteractionResultType_Norml",
				"Weight": 3300,
				"FavourabilityExp": 20
			},
			{
				"ResultType": "HeroInteractionResultType_SmallUp",
				"Weight": 3300,
				"FavourabilityExp": 30
			},
			{
				"ResultType": "HeroInteractionResultType_BigUp",
				"Weight": 3300,
				"FavourabilityExp": 50
			}
		],
		"NormalResultPerformance": 8411,
		"SmallUpResultPerformance": 8411,
		"BigUpResultPerformance": 8411
	},
	{
		"ID": 85,
		"Results": [
			{
				"ResultType": "HeroInteractionResultType_Norml",
				"Weight": 3300,
				"FavourabilityExp": 20
			},
			{
				"ResultType": "HeroInteractionResultType_SmallUp",
				"Weight": 3300,
				"FavourabilityExp": 30
			},
			{
				"ResultType": "HeroInteractionResultType_BigUp",
				"Weight": 3300,
				"FavourabilityExp": 50
			}
		],
		"NormalResultPerformance": 8511,
		"SmallUpResultPerformance": 8511,
		"BigUpResultPerformance": 8511
	},
	{
		"ID": 86,
		"Results": [
			{
				"ResultType": "HeroInteractionResultType_Norml",
				"Weight": 3300,
				"FavourabilityExp": 20
			},
			{
				"ResultType": "HeroInteractionResultType_SmallUp",
				"Weight": 3300,
				"FavourabilityExp": 30
			},
			{
				"ResultType": "HeroInteractionResultType_BigUp",
				"Weight": 3300,
				"FavourabilityExp": 50
			}
		],
		"NormalResultPerformance": 8611,
		"SmallUpResultPerformance": 8611,
		"BigUpResultPerformance": 8611
	},
	{
		"ID": 87,
		"Results": [
			{
				"ResultType": "HeroInteractionResultType_Norml",
				"Weight": 3300,
				"FavourabilityExp": 20
			},
			{
				"ResultType": "HeroInteractionResultType_SmallUp",
				"Weight": 3300,
				"FavourabilityExp": 30
			},
			{
				"ResultType": "HeroInteractionResultType_BigUp",
				"Weight": 3300,
				"FavourabilityExp": 50
			}
		],
		"NormalResultPerformance": 8711,
		"SmallUpResultPerformance": 8711,
		"BigUpResultPerformance": 8711
	},
	{
		"ID": 88,
		"Results": [
			{
				"ResultType": "HeroInteractionResultType_Norml",
				"Weight": 3300,
				"FavourabilityExp": 20
			},
			{
				"ResultType": "HeroInteractionResultType_SmallUp",
				"Weight": 3300,
				"FavourabilityExp": 30
			},
			{
				"ResultType": "HeroInteractionResultType_BigUp",
				"Weight": 3300,
				"FavourabilityExp": 50
			}
		],
		"NormalResultPerformance": 8811,
		"SmallUpResultPerformance": 8811,
		"BigUpResultPerformance": 8811
	},
	{
		"ID": 89,
		"Results": [
			{
				"ResultType": "HeroInteractionResultType_Norml",
				"Weight": 3300,
				"FavourabilityExp": 20
			},
			{
				"ResultType": "HeroInteractionResultType_SmallUp",
				"Weight": 3300,
				"FavourabilityExp": 30
			},
			{
				"ResultType": "HeroInteractionResultType_BigUp",
				"Weight": 3300,
				"FavourabilityExp": 50
			}
		],
		"NormalResultPerformance": 8911,
		"SmallUpResultPerformance": 8911,
		"BigUpResultPerformance": 8911
	},
	{
		"ID": 90,
		"Results": [
			{
				"ResultType": "HeroInteractionResultType_Norml",
				"Weight": 3300,
				"FavourabilityExp": 20
			},
			{
				"ResultType": "HeroInteractionResultType_SmallUp",
				"Weight": 3300,
				"FavourabilityExp": 30
			},
			{
				"ResultType": "HeroInteractionResultType_BigUp",
				"Weight": 3300,
				"FavourabilityExp": 50
			}
		],
		"NormalResultPerformance": 9011,
		"SmallUpResultPerformance": 9011,
		"BigUpResultPerformance": 9011
	},
	{
		"ID": 91,
		"Results": [
			{
				"ResultType": "HeroInteractionResultType_Norml",
				"Weight": 3300,
				"FavourabilityExp": 20
			},
			{
				"ResultType": "HeroInteractionResultType_SmallUp",
				"Weight": 3300,
				"FavourabilityExp": 30
			},
			{
				"ResultType": "HeroInteractionResultType_BigUp",
				"Weight": 3300,
				"FavourabilityExp": 50
			}
		],
		"NormalResultPerformance": 9111,
		"SmallUpResultPerformance": 9111,
		"BigUpResultPerformance": 9111
	},
	{
		"ID": 92,
		"Results": [
			{
				"ResultType": "HeroInteractionResultType_Norml",
				"Weight": 3300,
				"FavourabilityExp": 20
			},
			{
				"ResultType": "HeroInteractionResultType_SmallUp",
				"Weight": 3300,
				"FavourabilityExp": 30
			},
			{
				"ResultType": "HeroInteractionResultType_BigUp",
				"Weight": 3300,
				"FavourabilityExp": 50
			}
		],
		"NormalResultPerformance": 9211,
		"SmallUpResultPerformance": 9211,
		"BigUpResultPerformance": 9211
	},
	{
		"ID": 93,
		"Results": [
			{
				"ResultType": "HeroInteractionResultType_Norml",
				"Weight": 3300,
				"FavourabilityExp": 20
			},
			{
				"ResultType": "HeroInteractionResultType_SmallUp",
				"Weight": 3300,
				"FavourabilityExp": 30
			},
			{
				"ResultType": "HeroInteractionResultType_BigUp",
				"Weight": 3300,
				"FavourabilityExp": 50
			}
		],
		"NormalResultPerformance": 9311,
		"SmallUpResultPerformance": 9311,
		"BigUpResultPerformance": 9311
	},
	{
		"ID": 94,
		"Results": [
			{
				"ResultType": "HeroInteractionResultType_Norml",
				"Weight": 3300,
				"FavourabilityExp": 20
			},
			{
				"ResultType": "HeroInteractionResultType_SmallUp",
				"Weight": 3300,
				"FavourabilityExp": 30
			},
			{
				"ResultType": "HeroInteractionResultType_BigUp",
				"Weight": 3300,
				"FavourabilityExp": 50
			}
		],
		"NormalResultPerformance": 9411,
		"SmallUpResultPerformance": 9411,
		"BigUpResultPerformance": 9411
	},
	{
		"ID": 95,
		"Results": [
			{
				"ResultType": "HeroInteractionResultType_Norml",
				"Weight": 3300,
				"FavourabilityExp": 20
			},
			{
				"ResultType": "HeroInteractionResultType_SmallUp",
				"Weight": 3300,
				"FavourabilityExp": 30
			},
			{
				"ResultType": "HeroInteractionResultType_BigUp",
				"Weight": 3300,
				"FavourabilityExp": 50
			}
		],
		"NormalResultPerformance": 9511,
		"SmallUpResultPerformance": 9511,
		"BigUpResultPerformance": 9511
	},
	{
		"ID": 97,
		"Results": [
			{
				"ResultType": "HeroInteractionResultType_Norml",
				"Weight": 3300,
				"FavourabilityExp": 20
			},
			{
				"ResultType": "HeroInteractionResultType_SmallUp",
				"Weight": 3300,
				"FavourabilityExp": 30
			},
			{
				"ResultType": "HeroInteractionResultType_BigUp",
				"Weight": 3300,
				"FavourabilityExp": 50
			}
		],
		"NormalResultPerformance": 9711,
		"SmallUpResultPerformance": 9711,
		"BigUpResultPerformance": 9711
	},
	{
		"ID": 103,
		"Results": [
			{
				"ResultType": "HeroInteractionResultType_Norml",
				"Weight": 3300,
				"FavourabilityExp": 20
			},
			{
				"ResultType": "HeroInteractionResultType_SmallUp",
				"Weight": 3300,
				"FavourabilityExp": 30
			},
			{
				"ResultType": "HeroInteractionResultType_BigUp",
				"Weight": 3300,
				"FavourabilityExp": 50
			}
		],
		"NormalResultPerformance": 10311,
		"SmallUpResultPerformance": 10311,
		"BigUpResultPerformance": 10311
	},
	{
		"ID": 110,
		"Results": [
			{
				"ResultType": "HeroInteractionResultType_Norml",
				"Weight": 3300,
				"FavourabilityExp": 20
			},
			{
				"ResultType": "HeroInteractionResultType_SmallUp",
				"Weight": 3300,
				"FavourabilityExp": 30
			},
			{
				"ResultType": "HeroInteractionResultType_BigUp",
				"Weight": 3300,
				"FavourabilityExp": 50
			}
		],
		"NormalResultPerformance": 11011,
		"SmallUpResultPerformance": 11011,
		"BigUpResultPerformance": 11011
	},
	{
		"ID": 111,
		"Results": [
			{
				"ResultType": "HeroInteractionResultType_Norml",
				"Weight": 3300,
				"FavourabilityExp": 20
			},
			{
				"ResultType": "HeroInteractionResultType_SmallUp",
				"Weight": 3300,
				"FavourabilityExp": 30
			},
			{
				"ResultType": "HeroInteractionResultType_BigUp",
				"Weight": 3300,
				"FavourabilityExp": 50
			}
		],
		"NormalResultPerformance": 11111,
		"SmallUpResultPerformance": 11111,
		"BigUpResultPerformance": 11111
	},
	{
		"ID": 2084,
		"Results": [
			{
				"ResultType": "HeroInteractionResultType_Norml",
				"Weight": 3300,
				"FavourabilityExp": 20
			},
			{
				"ResultType": "HeroInteractionResultType_SmallUp",
				"Weight": 3300,
				"FavourabilityExp": 30
			},
			{
				"ResultType": "HeroInteractionResultType_BigUp",
				"Weight": 3300,
				"FavourabilityExp": 50
			}
		],
		"NormalResultPerformance": 208411,
		"SmallUpResultPerformance": 208411,
		"BigUpResultPerformance": 208411
	}
]