[
	{
		"ID": 1,
		"Group": [
			1,
			2,
			3,
			4
		],
		"TabImage": "UI/Activity1_ABS/Picture_Notice_1507.png"
	},
	{
		"ID": 2,
		"Group": [
			5,
			6,
			7,
			8
		],
		"TabImage": "UI/Activity1_ABS/Picture_Notice_1507.png"
	}
]