[
	{
		"ID": 1
	},
	{
		"ID": 2
	},
	{
		"ID": 3
	},
	{
		"ID": 4
	},
	{
		"ID": 5
	},
	{
		"ID": 6
	},
	{
		"ID": 7
	},
	{
		"ID": 8
	},
	{
		"ID": 9
	},
	{
		"ID": 10
	},
	{
		"ID": 11
	},
	{
		"ID": 12
	},
	{
		"ID": 13
	},
	{
		"ID": 14
	},
	{
		"ID": 15
	},
	{
		"ID": 16
	},
	{
		"ID": 101
	},
	{
		"ID": 102
	},
	{
		"ID": 103
	},
	{
		"ID": 104
	},
	{
		"ID": 105
	},
	{
		"ID": 106
	},
	{
		"ID": 107
	},
	{
		"ID": 108
	},
	{
		"ID": 109
	},
	{
		"ID": 110
	},
	{
		"ID": 111
	},
	{
		"ID": 112
	},
	{
		"ID": 113
	},
	{
		"ID": 114
	},
	{
		"ID": 115
	},
	{
		"ID": 116
	},
	{
		"ID": 117
	},
	{
		"ID": 118
	},
	{
		"ID": 119
	},
	{
		"ID": 120
	},
	{
		"ID": 121
	},
	{
		"ID": 122
	},
	{
		"ID": 123
	},
	{
		"ID": 124
	},
	{
		"ID": 125
	},
	{
		"ID": 126
	},
	{
		"ID": 127
	},
	{
		"ID": 128
	},
	{
		"ID": 129
	},
	{
		"ID": 130
	},
	{
		"ID": 131
	},
	{
		"ID": 132
	},
	{
		"ID": 133
	},
	{
		"ID": 134
	},
	{
		"ID": 135
	},
	{
		"ID": 136
	},
	{
		"ID": 137
	},
	{
		"ID": 138
	},
	{
		"ID": 139
	},
	{
		"ID": 140
	},
	{
		"ID": 141
	},
	{
		"ID": 142
	},
	{
		"ID": 143
	},
	{
		"ID": 144
	},
	{
		"ID": 145
	},
	{
		"ID": 146
	},
	{
		"ID": 147
	},
	{
		"ID": 148
	},
	{
		"ID": 149
	},
	{
		"ID": 150
	},
	{
		"ID": 151
	},
	{
		"ID": 152
	},
	{
		"ID": 153
	},
	{
		"ID": 154
	},
	{
		"ID": 155
	},
	{
		"ID": 156
	},
	{
		"ID": 157
	},
	{
		"ID": 158
	},
	{
		"ID": 159
	},
	{
		"ID": 160
	},
	{
		"ID": 161
	},
	{
		"ID": 162
	},
	{
		"ID": 163
	},
	{
		"ID": 164
	},
	{
		"ID": 165
	},
	{
		"ID": 166
	},
	{
		"ID": 167
	},
	{
		"ID": 168
	},
	{
		"ID": 169
	},
	{
		"ID": 170
	},
	{
		"ID": 171
	},
	{
		"ID": 172
	}
]