[
	{
		"ID": 1,
		"Name": "礼物夺还战Lv35-A",
		"TeamName": "Lv35A",
		"DaysBeforeActivate": 0,
		"PlayerLevelRequired": 30,
		"MonsterLevel": 35,
		"BattleID": 6621,
		"PlayerExp": 10,
		"HeroExp": 55,
		"GoldReward": 638,
		"EnergyCostSuccess": 10,
		"EnergyCostFail": 2,
		"EnergyCostTeam": 8,
		"FirstClearDrop": [
			{
				"GoodsType": "GoodsType_Crystal",
				"Id": 0,
				"Count": 10
			},
			{
				"GoodsType": "GoodsType_Item",
				"Id": 3508,
				"Count": 3
			}
		],
		"RandomDrop": 10001,
		"TeamDrop": 0,
		"DropDisplayCount": 2,
		"Score": 0,
		"Strategy": ""
	},
	{
		"ID": 2,
		"Name": "礼物夺还战Lv35-B",
		"TeamName": "Lv35B",
		"DaysBeforeActivate": 0,
		"PlayerLevelRequired": 30,
		"MonsterLevel": 35,
		"BattleID": 6624,
		"PlayerExp": 10,
		"HeroExp": 55,
		"GoldReward": 638,
		"EnergyCostSuccess": 10,
		"EnergyCostFail": 2,
		"EnergyCostTeam": 8,
		"FirstClearDrop": [
			{
				"GoodsType": "GoodsType_Crystal",
				"Id": 0,
				"Count": 10
			},
			{
				"GoodsType": "GoodsType_Item",
				"Id": 3506,
				"Count": 3
			}
		],
		"RandomDrop": 10002,
		"TeamDrop": 0,
		"DropDisplayCount": 2,
		"Score": 0,
		"Strategy": ""
	},
	{
		"ID": 3,
		"Name": "礼物夺还战Lv35-C",
		"TeamName": "Lv35C",
		"DaysBeforeActivate": 0,
		"PlayerLevelRequired": 30,
		"MonsterLevel": 35,
		"BattleID": 6627,
		"PlayerExp": 10,
		"HeroExp": 55,
		"GoldReward": 638,
		"EnergyCostSuccess": 10,
		"EnergyCostFail": 2,
		"EnergyCostTeam": 8,
		"FirstClearDrop": [
			{
				"GoodsType": "GoodsType_Crystal",
				"Id": 0,
				"Count": 10
			},
			{
				"GoodsType": "GoodsType_Item",
				"Id": 3507,
				"Count": 3
			}
		],
		"RandomDrop": 10003,
		"TeamDrop": 0,
		"DropDisplayCount": 2,
		"Score": 0,
		"Strategy": ""
	},
	{
		"ID": 4,
		"Name": "礼物夺还战Lv35-D",
		"TeamName": "Lv35D",
		"DaysBeforeActivate": 0,
		"PlayerLevelRequired": 30,
		"MonsterLevel": 35,
		"BattleID": 6630,
		"PlayerExp": 10,
		"HeroExp": 55,
		"GoldReward": 638,
		"EnergyCostSuccess": 10,
		"EnergyCostFail": 2,
		"EnergyCostTeam": 8,
		"FirstClearDrop": [
			{
				"GoodsType": "GoodsType_Crystal",
				"Id": 0,
				"Count": 10
			},
			{
				"GoodsType": "GoodsType_Item",
				"Id": 3505,
				"Count": 3
			}
		],
		"RandomDrop": 10004,
		"TeamDrop": 0,
		"DropDisplayCount": 2,
		"Score": 0,
		"Strategy": ""
	},
	{
		"ID": 5,
		"Name": "礼物夺还战Lv45-A",
		"TeamName": "Lv45A",
		"DaysBeforeActivate": 1,
		"PlayerLevelRequired": 40,
		"MonsterLevel": 45,
		"BattleID": 6622,
		"PlayerExp": 10,
		"HeroExp": 65,
		"GoldReward": 875,
		"EnergyCostSuccess": 10,
		"EnergyCostFail": 2,
		"EnergyCostTeam": 8,
		"FirstClearDrop": [
			{
				"GoodsType": "GoodsType_Crystal",
				"Id": 0,
				"Count": 10
			},
			{
				"GoodsType": "GoodsType_Item",
				"Id": 3507,
				"Count": 6
			}
		],
		"RandomDrop": 10005,
		"TeamDrop": 0,
		"DropDisplayCount": 2,
		"Score": 0,
		"Strategy": ""
	},
	{
		"ID": 6,
		"Name": "礼物夺还战Lv45-B",
		"TeamName": "Lv45B",
		"DaysBeforeActivate": 1,
		"PlayerLevelRequired": 40,
		"MonsterLevel": 45,
		"BattleID": 6625,
		"PlayerExp": 10,
		"HeroExp": 65,
		"GoldReward": 875,
		"EnergyCostSuccess": 10,
		"EnergyCostFail": 2,
		"EnergyCostTeam": 8,
		"FirstClearDrop": [
			{
				"GoodsType": "GoodsType_Crystal",
				"Id": 0,
				"Count": 10
			},
			{
				"GoodsType": "GoodsType_Item",
				"Id": 3505,
				"Count": 6
			}
		],
		"RandomDrop": 10006,
		"TeamDrop": 0,
		"DropDisplayCount": 2,
		"Score": 0,
		"Strategy": ""
	},
	{
		"ID": 7,
		"Name": "礼物夺还战Lv45-C",
		"TeamName": "Lv45C",
		"DaysBeforeActivate": 1,
		"PlayerLevelRequired": 40,
		"MonsterLevel": 45,
		"BattleID": 6628,
		"PlayerExp": 10,
		"HeroExp": 65,
		"GoldReward": 875,
		"EnergyCostSuccess": 10,
		"EnergyCostFail": 2,
		"EnergyCostTeam": 8,
		"FirstClearDrop": [
			{
				"GoodsType": "GoodsType_Crystal",
				"Id": 0,
				"Count": 10
			},
			{
				"GoodsType": "GoodsType_Item",
				"Id": 3508,
				"Count": 6
			}
		],
		"RandomDrop": 10007,
		"TeamDrop": 0,
		"DropDisplayCount": 2,
		"Score": 0,
		"Strategy": ""
	},
	{
		"ID": 8,
		"Name": "礼物夺还战Lv45-D",
		"TeamName": "Lv45D",
		"DaysBeforeActivate": 1,
		"PlayerLevelRequired": 40,
		"MonsterLevel": 45,
		"BattleID": 6631,
		"PlayerExp": 10,
		"HeroExp": 65,
		"GoldReward": 875,
		"EnergyCostSuccess": 10,
		"EnergyCostFail": 2,
		"EnergyCostTeam": 8,
		"FirstClearDrop": [
			{
				"GoodsType": "GoodsType_Crystal",
				"Id": 0,
				"Count": 10
			},
			{
				"GoodsType": "GoodsType_Item",
				"Id": 3506,
				"Count": 6
			}
		],
		"RandomDrop": 10008,
		"TeamDrop": 0,
		"DropDisplayCount": 2,
		"Score": 0,
		"Strategy": ""
	},
	{
		"ID": 9,
		"Name": "礼物夺还战Lv55-A",
		"TeamName": "Lv55A",
		"DaysBeforeActivate": 2,
		"PlayerLevelRequired": 50,
		"MonsterLevel": 55,
		"BattleID": 6623,
		"PlayerExp": 10,
		"HeroExp": 75,
		"GoldReward": 1140,
		"EnergyCostSuccess": 10,
		"EnergyCostFail": 2,
		"EnergyCostTeam": 8,
		"FirstClearDrop": [
			{
				"GoodsType": "GoodsType_Crystal",
				"Id": 0,
				"Count": 10
			},
			{
				"GoodsType": "GoodsType_Item",
				"Id": 3507,
				"Count": 9
			}
		],
		"RandomDrop": 10009,
		"TeamDrop": 0,
		"DropDisplayCount": 2,
		"Score": 0,
		"Strategy": ""
	},
	{
		"ID": 10,
		"Name": "礼物夺还战Lv55-B",
		"TeamName": "Lv55B",
		"DaysBeforeActivate": 2,
		"PlayerLevelRequired": 50,
		"MonsterLevel": 55,
		"BattleID": 6626,
		"PlayerExp": 10,
		"HeroExp": 75,
		"GoldReward": 1140,
		"EnergyCostSuccess": 10,
		"EnergyCostFail": 2,
		"EnergyCostTeam": 8,
		"FirstClearDrop": [
			{
				"GoodsType": "GoodsType_Crystal",
				"Id": 0,
				"Count": 10
			},
			{
				"GoodsType": "GoodsType_Item",
				"Id": 3505,
				"Count": 9
			}
		],
		"RandomDrop": 10010,
		"TeamDrop": 0,
		"DropDisplayCount": 2,
		"Score": 0,
		"Strategy": ""
	},
	{
		"ID": 11,
		"Name": "礼物夺还战Lv55-C",
		"TeamName": "Lv55C",
		"DaysBeforeActivate": 2,
		"PlayerLevelRequired": 50,
		"MonsterLevel": 55,
		"BattleID": 6629,
		"PlayerExp": 10,
		"HeroExp": 75,
		"GoldReward": 1140,
		"EnergyCostSuccess": 10,
		"EnergyCostFail": 2,
		"EnergyCostTeam": 8,
		"FirstClearDrop": [
			{
				"GoodsType": "GoodsType_Crystal",
				"Id": 0,
				"Count": 10
			},
			{
				"GoodsType": "GoodsType_Item",
				"Id": 3506,
				"Count": 9
			}
		],
		"RandomDrop": 10011,
		"TeamDrop": 0,
		"DropDisplayCount": 2,
		"Score": 0,
		"Strategy": ""
	},
	{
		"ID": 12,
		"Name": "礼物夺还战Lv55-D",
		"TeamName": "Lv55D",
		"DaysBeforeActivate": 2,
		"PlayerLevelRequired": 50,
		"MonsterLevel": 55,
		"BattleID": 6632,
		"PlayerExp": 10,
		"HeroExp": 75,
		"GoldReward": 1140,
		"EnergyCostSuccess": 10,
		"EnergyCostFail": 2,
		"EnergyCostTeam": 8,
		"FirstClearDrop": [
			{
				"GoodsType": "GoodsType_Crystal",
				"Id": 0,
				"Count": 10
			},
			{
				"GoodsType": "GoodsType_Item",
				"Id": 3508,
				"Count": 9
			}
		],
		"RandomDrop": 10012,
		"TeamDrop": 0,
		"DropDisplayCount": 2,
		"Score": 0,
		"Strategy": ""
	},
	{
		"ID": 13,
		"Name": "礼物夺还战Lv55-E",
		"TeamName": "Lv55E",
		"DaysBeforeActivate": 3,
		"PlayerLevelRequired": 50,
		"MonsterLevel": 55,
		"BattleID": 6633,
		"PlayerExp": 10,
		"HeroExp": 75,
		"GoldReward": 1140,
		"EnergyCostSuccess": 10,
		"EnergyCostFail": 2,
		"EnergyCostTeam": 8,
		"FirstClearDrop": [
			{
				"GoodsType": "GoodsType_Crystal",
				"Id": 0,
				"Count": 10
			},
			{
				"GoodsType": "GoodsType_Item",
				"Id": 3506,
				"Count": 8
			},
			{
				"GoodsType": "GoodsType_Item",
				"Id": 3507,
				"Count": 8
			}
		],
		"RandomDrop": 10013,
		"TeamDrop": 0,
		"DropDisplayCount": 3,
		"Score": 0,
		"Strategy": ""
	},
	{
		"ID": 14,
		"Name": "礼物夺还战Lv55-F",
		"TeamName": "Lv55F",
		"DaysBeforeActivate": 3,
		"PlayerLevelRequired": 50,
		"MonsterLevel": 55,
		"BattleID": 6634,
		"PlayerExp": 10,
		"HeroExp": 75,
		"GoldReward": 1140,
		"EnergyCostSuccess": 10,
		"EnergyCostFail": 2,
		"EnergyCostTeam": 8,
		"FirstClearDrop": [
			{
				"GoodsType": "GoodsType_Crystal",
				"Id": 0,
				"Count": 10
			},
			{
				"GoodsType": "GoodsType_Item",
				"Id": 3505,
				"Count": 8
			},
			{
				"GoodsType": "GoodsType_Item",
				"Id": 3506,
				"Count": 8
			}
		],
		"RandomDrop": 10014,
		"TeamDrop": 0,
		"DropDisplayCount": 3,
		"Score": 0,
		"Strategy": ""
	},
	{
		"ID": 15,
		"Name": "礼物夺还战Lv55-G",
		"TeamName": "Lv55G",
		"DaysBeforeActivate": 3,
		"PlayerLevelRequired": 50,
		"MonsterLevel": 55,
		"BattleID": 6635,
		"PlayerExp": 10,
		"HeroExp": 75,
		"GoldReward": 1140,
		"EnergyCostSuccess": 10,
		"EnergyCostFail": 2,
		"EnergyCostTeam": 8,
		"FirstClearDrop": [
			{
				"GoodsType": "GoodsType_Crystal",
				"Id": 0,
				"Count": 10
			},
			{
				"GoodsType": "GoodsType_Item",
				"Id": 3507,
				"Count": 8
			},
			{
				"GoodsType": "GoodsType_Item",
				"Id": 3508,
				"Count": 8
			}
		],
		"RandomDrop": 10015,
		"TeamDrop": 0,
		"DropDisplayCount": 3,
		"Score": 0,
		"Strategy": ""
	},
	{
		"ID": 16,
		"Name": "礼物夺还战Lv55-H",
		"TeamName": "Lv55H",
		"DaysBeforeActivate": 3,
		"PlayerLevelRequired": 50,
		"MonsterLevel": 55,
		"BattleID": 6636,
		"PlayerExp": 10,
		"HeroExp": 75,
		"GoldReward": 1140,
		"EnergyCostSuccess": 10,
		"EnergyCostFail": 2,
		"EnergyCostTeam": 8,
		"FirstClearDrop": [
			{
				"GoodsType": "GoodsType_Crystal",
				"Id": 0,
				"Count": 10
			},
			{
				"GoodsType": "GoodsType_Item",
				"Id": 3508,
				"Count": 8
			},
			{
				"GoodsType": "GoodsType_Item",
				"Id": 3505,
				"Count": 8
			}
		],
		"RandomDrop": 10016,
		"TeamDrop": 0,
		"DropDisplayCount": 3,
		"Score": 0,
		"Strategy": ""
	},
	{
		"ID": 101,
		"Name": "游击士任务L35-A",
		"TeamName": "Lv35A",
		"DaysBeforeActivate": 0,
		"PlayerLevelRequired": 30,
		"MonsterLevel": 35,
		"BattleID": 6831,
		"PlayerExp": 10,
		"HeroExp": 55,
		"GoldReward": 638,
		"EnergyCostSuccess": 10,
		"EnergyCostFail": 2,
		"EnergyCostTeam": 8,
		"RandomDrop": 0,
		"TeamDrop": 0,
		"DropDisplayCount": 1,
		"Score": 150,
		"Strategy": ""
	},
	{
		"ID": 102,
		"Name": "游击士任务L35-B",
		"TeamName": "Lv35B",
		"DaysBeforeActivate": 1,
		"PlayerLevelRequired": 30,
		"MonsterLevel": 35,
		"BattleID": 6834,
		"PlayerExp": 10,
		"HeroExp": 55,
		"GoldReward": 638,
		"EnergyCostSuccess": 10,
		"EnergyCostFail": 2,
		"EnergyCostTeam": 8,
		"RandomDrop": 0,
		"TeamDrop": 0,
		"DropDisplayCount": 1,
		"Score": 150,
		"Strategy": ""
	},
	{
		"ID": 103,
		"Name": "游击士任务L35-C",
		"TeamName": "Lv35C",
		"DaysBeforeActivate": 0,
		"PlayerLevelRequired": 30,
		"MonsterLevel": 35,
		"BattleID": 6837,
		"PlayerExp": 10,
		"HeroExp": 55,
		"GoldReward": 638,
		"EnergyCostSuccess": 10,
		"EnergyCostFail": 2,
		"EnergyCostTeam": 8,
		"RandomDrop": 0,
		"TeamDrop": 0,
		"DropDisplayCount": 1,
		"Score": 150,
		"Strategy": ""
	},
	{
		"ID": 104,
		"Name": "游击士任务L45-A",
		"TeamName": "Lv45A",
		"DaysBeforeActivate": 1,
		"PlayerLevelRequired": 40,
		"MonsterLevel": 45,
		"BattleID": 6832,
		"PlayerExp": 10,
		"HeroExp": 65,
		"GoldReward": 875,
		"EnergyCostSuccess": 10,
		"EnergyCostFail": 2,
		"EnergyCostTeam": 8,
		"RandomDrop": 0,
		"TeamDrop": 0,
		"DropDisplayCount": 1,
		"Score": 300,
		"Strategy": ""
	},
	{
		"ID": 105,
		"Name": "游击士任务L45-B",
		"TeamName": "Lv45B",
		"DaysBeforeActivate": 1,
		"PlayerLevelRequired": 40,
		"MonsterLevel": 45,
		"BattleID": 6835,
		"PlayerExp": 10,
		"HeroExp": 65,
		"GoldReward": 875,
		"EnergyCostSuccess": 10,
		"EnergyCostFail": 2,
		"EnergyCostTeam": 8,
		"RandomDrop": 0,
		"TeamDrop": 0,
		"DropDisplayCount": 1,
		"Score": 300,
		"Strategy": ""
	},
	{
		"ID": 106,
		"Name": "游击士任务L45-C",
		"TeamName": "Lv45C",
		"DaysBeforeActivate": 1,
		"PlayerLevelRequired": 40,
		"MonsterLevel": 45,
		"BattleID": 6838,
		"PlayerExp": 10,
		"HeroExp": 65,
		"GoldReward": 875,
		"EnergyCostSuccess": 10,
		"EnergyCostFail": 2,
		"EnergyCostTeam": 8,
		"RandomDrop": 0,
		"TeamDrop": 0,
		"DropDisplayCount": 1,
		"Score": 300,
		"Strategy": ""
	},
	{
		"ID": 107,
		"Name": "游击士任务L55-A",
		"TeamName": "Lv55A",
		"DaysBeforeActivate": 2,
		"PlayerLevelRequired": 50,
		"MonsterLevel": 55,
		"BattleID": 6833,
		"PlayerExp": 10,
		"HeroExp": 75,
		"GoldReward": 1140,
		"EnergyCostSuccess": 10,
		"EnergyCostFail": 2,
		"EnergyCostTeam": 8,
		"RandomDrop": 0,
		"TeamDrop": 0,
		"DropDisplayCount": 1,
		"Score": 450,
		"Strategy": ""
	},
	{
		"ID": 108,
		"Name": "游击士任务L55-B",
		"TeamName": "Lv55B",
		"DaysBeforeActivate": 2,
		"PlayerLevelRequired": 50,
		"MonsterLevel": 55,
		"BattleID": 6836,
		"PlayerExp": 10,
		"HeroExp": 75,
		"GoldReward": 1140,
		"EnergyCostSuccess": 10,
		"EnergyCostFail": 2,
		"EnergyCostTeam": 8,
		"RandomDrop": 0,
		"TeamDrop": 0,
		"DropDisplayCount": 1,
		"Score": 450,
		"Strategy": ""
	},
	{
		"ID": 109,
		"Name": "游击士任务L55-C",
		"TeamName": "Lv55C",
		"DaysBeforeActivate": 3,
		"PlayerLevelRequired": 50,
		"MonsterLevel": 55,
		"BattleID": 6839,
		"PlayerExp": 10,
		"HeroExp": 75,
		"GoldReward": 1140,
		"EnergyCostSuccess": 10,
		"EnergyCostFail": 2,
		"EnergyCostTeam": 8,
		"RandomDrop": 0,
		"TeamDrop": 0,
		"DropDisplayCount": 1,
		"Score": 450,
		"Strategy": ""
	},
	{
		"ID": 201,
		"Name": "浮空城任务L35-A",
		"TeamName": "Lv35A",
		"DaysBeforeActivate": 0,
		"PlayerLevelRequired": 30,
		"MonsterLevel": 35,
		"BattleID": 50037,
		"PlayerExp": 10,
		"HeroExp": 55,
		"GoldReward": 638,
		"EnergyCostSuccess": 10,
		"EnergyCostFail": 2,
		"EnergyCostTeam": 8,
		"FirstClearDrop": [
			{
				"GoodsType": "GoodsType_Crystal",
				"Id": 0,
				"Count": 10
			},
			{
				"GoodsType": "GoodsType_Item",
				"Id": 3511,
				"Count": 3
			}
		],
		"RandomDrop": 10017,
		"TeamDrop": 0,
		"DropDisplayCount": 2,
		"Score": 0,
		"Strategy": ""
	},
	{
		"ID": 202,
		"Name": "浮空城任务L35-B",
		"TeamName": "Lv35B",
		"DaysBeforeActivate": 1,
		"PlayerLevelRequired": 30,
		"MonsterLevel": 35,
		"BattleID": 50034,
		"PlayerExp": 10,
		"HeroExp": 55,
		"GoldReward": 638,
		"EnergyCostSuccess": 10,
		"EnergyCostFail": 2,
		"EnergyCostTeam": 8,
		"FirstClearDrop": [
			{
				"GoodsType": "GoodsType_Crystal",
				"Id": 0,
				"Count": 10
			},
			{
				"GoodsType": "GoodsType_Item",
				"Id": 3512,
				"Count": 3
			}
		],
		"RandomDrop": 10018,
		"TeamDrop": 0,
		"DropDisplayCount": 2,
		"Score": 0,
		"Strategy": ""
	},
	{
		"ID": 203,
		"Name": "浮空城任务L35-C",
		"TeamName": "Lv35C",
		"DaysBeforeActivate": 0,
		"PlayerLevelRequired": 30,
		"MonsterLevel": 35,
		"BattleID": 50031,
		"PlayerExp": 10,
		"HeroExp": 55,
		"GoldReward": 638,
		"EnergyCostSuccess": 10,
		"EnergyCostFail": 2,
		"EnergyCostTeam": 8,
		"FirstClearDrop": [
			{
				"GoodsType": "GoodsType_Crystal",
				"Id": 0,
				"Count": 10
			},
			{
				"GoodsType": "GoodsType_Item",
				"Id": 3513,
				"Count": 3
			}
		],
		"RandomDrop": 10019,
		"TeamDrop": 0,
		"DropDisplayCount": 2,
		"Score": 0,
		"Strategy": ""
	},
	{
		"ID": 204,
		"Name": "浮空城任务L45-A",
		"TeamName": "Lv45A",
		"DaysBeforeActivate": 1,
		"PlayerLevelRequired": 40,
		"MonsterLevel": 45,
		"BattleID": 50038,
		"PlayerExp": 10,
		"HeroExp": 65,
		"GoldReward": 875,
		"EnergyCostSuccess": 10,
		"EnergyCostFail": 2,
		"EnergyCostTeam": 8,
		"FirstClearDrop": [
			{
				"GoodsType": "GoodsType_Crystal",
				"Id": 0,
				"Count": 10
			},
			{
				"GoodsType": "GoodsType_Item",
				"Id": 3511,
				"Count": 6
			}
		],
		"RandomDrop": 10020,
		"TeamDrop": 0,
		"DropDisplayCount": 2,
		"Score": 0,
		"Strategy": ""
	},
	{
		"ID": 205,
		"Name": "浮空城任务L45-B",
		"TeamName": "Lv45B",
		"DaysBeforeActivate": 1,
		"PlayerLevelRequired": 40,
		"MonsterLevel": 45,
		"BattleID": 50035,
		"PlayerExp": 10,
		"HeroExp": 65,
		"GoldReward": 875,
		"EnergyCostSuccess": 10,
		"EnergyCostFail": 2,
		"EnergyCostTeam": 8,
		"FirstClearDrop": [
			{
				"GoodsType": "GoodsType_Crystal",
				"Id": 0,
				"Count": 10
			},
			{
				"GoodsType": "GoodsType_Item",
				"Id": 3512,
				"Count": 6
			}
		],
		"RandomDrop": 10021,
		"TeamDrop": 0,
		"DropDisplayCount": 2,
		"Score": 0,
		"Strategy": ""
	},
	{
		"ID": 206,
		"Name": "浮空城任务L45-C",
		"TeamName": "Lv45C",
		"DaysBeforeActivate": 2,
		"PlayerLevelRequired": 40,
		"MonsterLevel": 45,
		"BattleID": 50032,
		"PlayerExp": 10,
		"HeroExp": 65,
		"GoldReward": 875,
		"EnergyCostSuccess": 10,
		"EnergyCostFail": 2,
		"EnergyCostTeam": 8,
		"FirstClearDrop": [
			{
				"GoodsType": "GoodsType_Crystal",
				"Id": 0,
				"Count": 10
			},
			{
				"GoodsType": "GoodsType_Item",
				"Id": 3513,
				"Count": 6
			}
		],
		"RandomDrop": 10022,
		"TeamDrop": 0,
		"DropDisplayCount": 2,
		"Score": 0,
		"Strategy": ""
	},
	{
		"ID": 207,
		"Name": "浮空城任务L55-A",
		"TeamName": "Lv55A",
		"DaysBeforeActivate": 2,
		"PlayerLevelRequired": 50,
		"MonsterLevel": 55,
		"BattleID": 50039,
		"PlayerExp": 10,
		"HeroExp": 75,
		"GoldReward": 1140,
		"EnergyCostSuccess": 10,
		"EnergyCostFail": 2,
		"EnergyCostTeam": 8,
		"FirstClearDrop": [
			{
				"GoodsType": "GoodsType_Crystal",
				"Id": 0,
				"Count": 10
			},
			{
				"GoodsType": "GoodsType_Item",
				"Id": 3511,
				"Count": 9
			}
		],
		"RandomDrop": 10023,
		"TeamDrop": 0,
		"DropDisplayCount": 2,
		"Score": 0,
		"Strategy": ""
	},
	{
		"ID": 208,
		"Name": "浮空城任务L55-B",
		"TeamName": "Lv55B",
		"DaysBeforeActivate": 3,
		"PlayerLevelRequired": 50,
		"MonsterLevel": 55,
		"BattleID": 50036,
		"PlayerExp": 10,
		"HeroExp": 75,
		"GoldReward": 1140,
		"EnergyCostSuccess": 10,
		"EnergyCostFail": 2,
		"EnergyCostTeam": 8,
		"FirstClearDrop": [
			{
				"GoodsType": "GoodsType_Crystal",
				"Id": 0,
				"Count": 10
			},
			{
				"GoodsType": "GoodsType_Item",
				"Id": 3512,
				"Count": 9
			}
		],
		"RandomDrop": 10024,
		"TeamDrop": 0,
		"DropDisplayCount": 2,
		"Score": 0,
		"Strategy": ""
	},
	{
		"ID": 209,
		"Name": "浮空城任务L55-C",
		"TeamName": "Lv55C",
		"DaysBeforeActivate": 2,
		"PlayerLevelRequired": 50,
		"MonsterLevel": 55,
		"BattleID": 50033,
		"PlayerExp": 10,
		"HeroExp": 75,
		"GoldReward": 1140,
		"EnergyCostSuccess": 10,
		"EnergyCostFail": 2,
		"EnergyCostTeam": 8,
		"FirstClearDrop": [
			{
				"GoodsType": "GoodsType_Crystal",
				"Id": 0,
				"Count": 10
			},
			{
				"GoodsType": "GoodsType_Item",
				"Id": 3513,
				"Count": 9
			}
		],
		"RandomDrop": 10025,
		"TeamDrop": 0,
		"DropDisplayCount": 2,
		"Score": 0,
		"Strategy": ""
	},
	{
		"ID": 301,
		"Name": "霸者线任务L35-A",
		"TeamName": "Lv35A",
		"DaysBeforeActivate": 0,
		"PlayerLevelRequired": 30,
		"MonsterLevel": 35,
		"BattleID": 50231,
		"PlayerExp": 10,
		"HeroExp": 55,
		"GoldReward": 638,
		"EnergyCostSuccess": 10,
		"EnergyCostFail": 2,
		"EnergyCostTeam": 8,
		"FirstClearDrop": [
			{
				"GoodsType": "GoodsType_Crystal",
				"Id": 0,
				"Count": 10
			},
			{
				"GoodsType": "GoodsType_Item",
				"Id": 3523,
				"Count": 3
			}
		],
		"RandomDrop": 10033,
		"TeamDrop": 0,
		"DropDisplayCount": 2,
		"Score": 0,
		"Strategy": ""
	},
	{
		"ID": 302,
		"Name": "霸者线任务L35-B",
		"TeamName": "Lv35B",
		"DaysBeforeActivate": 1,
		"PlayerLevelRequired": 30,
		"MonsterLevel": 35,
		"BattleID": 50234,
		"PlayerExp": 10,
		"HeroExp": 55,
		"GoldReward": 638,
		"EnergyCostSuccess": 10,
		"EnergyCostFail": 2,
		"EnergyCostTeam": 8,
		"FirstClearDrop": [
			{
				"GoodsType": "GoodsType_Crystal",
				"Id": 0,
				"Count": 10
			},
			{
				"GoodsType": "GoodsType_Item",
				"Id": 3525,
				"Count": 3
			}
		],
		"RandomDrop": 10034,
		"TeamDrop": 0,
		"DropDisplayCount": 2,
		"Score": 0,
		"Strategy": ""
	},
	{
		"ID": 303,
		"Name": "霸者线任务L35-C",
		"TeamName": "Lv35C",
		"DaysBeforeActivate": 2,
		"PlayerLevelRequired": 30,
		"MonsterLevel": 35,
		"BattleID": 50241,
		"PlayerExp": 10,
		"HeroExp": 55,
		"GoldReward": 638,
		"EnergyCostSuccess": 10,
		"EnergyCostFail": 2,
		"EnergyCostTeam": 8,
		"FirstClearDrop": [
			{
				"GoodsType": "GoodsType_Crystal",
				"Id": 0,
				"Count": 10
			},
			{
				"GoodsType": "GoodsType_Item",
				"Id": 3524,
				"Count": 1
			}
		],
		"RandomDrop": 10035,
		"TeamDrop": 0,
		"DropDisplayCount": 2,
		"Score": 0,
		"Strategy": ""
	},
	{
		"ID": 304,
		"Name": "霸者线任务L45-A",
		"TeamName": "Lv45A",
		"DaysBeforeActivate": 3,
		"PlayerLevelRequired": 40,
		"MonsterLevel": 45,
		"BattleID": 50232,
		"PlayerExp": 10,
		"HeroExp": 65,
		"GoldReward": 875,
		"EnergyCostSuccess": 10,
		"EnergyCostFail": 2,
		"EnergyCostTeam": 8,
		"FirstClearDrop": [
			{
				"GoodsType": "GoodsType_Crystal",
				"Id": 0,
				"Count": 10
			},
			{
				"GoodsType": "GoodsType_Item",
				"Id": 3523,
				"Count": 6
			}
		],
		"RandomDrop": 10036,
		"TeamDrop": 0,
		"DropDisplayCount": 2,
		"Score": 0,
		"Strategy": ""
	},
	{
		"ID": 305,
		"Name": "霸者线任务L45-B",
		"TeamName": "Lv45B",
		"DaysBeforeActivate": 4,
		"PlayerLevelRequired": 40,
		"MonsterLevel": 45,
		"BattleID": 50235,
		"PlayerExp": 10,
		"HeroExp": 65,
		"GoldReward": 875,
		"EnergyCostSuccess": 10,
		"EnergyCostFail": 2,
		"EnergyCostTeam": 8,
		"FirstClearDrop": [
			{
				"GoodsType": "GoodsType_Crystal",
				"Id": 0,
				"Count": 10
			},
			{
				"GoodsType": "GoodsType_Item",
				"Id": 3525,
				"Count": 6
			}
		],
		"RandomDrop": 10037,
		"TeamDrop": 0,
		"DropDisplayCount": 2,
		"Score": 0,
		"Strategy": ""
	},
	{
		"ID": 306,
		"Name": "霸者线任务L45-C",
		"TeamName": "Lv45C",
		"DaysBeforeActivate": 5,
		"PlayerLevelRequired": 40,
		"MonsterLevel": 45,
		"BattleID": 50242,
		"PlayerExp": 10,
		"HeroExp": 65,
		"GoldReward": 875,
		"EnergyCostSuccess": 10,
		"EnergyCostFail": 2,
		"EnergyCostTeam": 8,
		"FirstClearDrop": [
			{
				"GoodsType": "GoodsType_Crystal",
				"Id": 0,
				"Count": 10
			},
			{
				"GoodsType": "GoodsType_Item",
				"Id": 3524,
				"Count": 2
			}
		],
		"RandomDrop": 10038,
		"TeamDrop": 0,
		"DropDisplayCount": 2,
		"Score": 0,
		"Strategy": ""
	},
	{
		"ID": 307,
		"Name": "霸者线任务L55-A",
		"TeamName": "Lv55A",
		"DaysBeforeActivate": 6,
		"PlayerLevelRequired": 50,
		"MonsterLevel": 55,
		"BattleID": 50233,
		"PlayerExp": 10,
		"HeroExp": 75,
		"GoldReward": 1140,
		"EnergyCostSuccess": 10,
		"EnergyCostFail": 2,
		"EnergyCostTeam": 8,
		"FirstClearDrop": [
			{
				"GoodsType": "GoodsType_Crystal",
				"Id": 0,
				"Count": 10
			},
			{
				"GoodsType": "GoodsType_Item",
				"Id": 3523,
				"Count": 9
			}
		],
		"RandomDrop": 10039,
		"TeamDrop": 0,
		"DropDisplayCount": 2,
		"Score": 0,
		"Strategy": ""
	},
	{
		"ID": 308,
		"Name": "霸者线任务L55-B",
		"TeamName": "Lv55B",
		"DaysBeforeActivate": 7,
		"PlayerLevelRequired": 50,
		"MonsterLevel": 55,
		"BattleID": 50236,
		"PlayerExp": 10,
		"HeroExp": 75,
		"GoldReward": 1140,
		"EnergyCostSuccess": 10,
		"EnergyCostFail": 2,
		"EnergyCostTeam": 8,
		"FirstClearDrop": [
			{
				"GoodsType": "GoodsType_Crystal",
				"Id": 0,
				"Count": 10
			},
			{
				"GoodsType": "GoodsType_Item",
				"Id": 3525,
				"Count": 9
			}
		],
		"RandomDrop": 10040,
		"TeamDrop": 0,
		"DropDisplayCount": 2,
		"Score": 0,
		"Strategy": ""
	},
	{
		"ID": 309,
		"Name": "霸者线任务L55-C",
		"TeamName": "Lv55C",
		"DaysBeforeActivate": 8,
		"PlayerLevelRequired": 50,
		"MonsterLevel": 55,
		"BattleID": 50243,
		"PlayerExp": 10,
		"HeroExp": 75,
		"GoldReward": 1140,
		"EnergyCostSuccess": 10,
		"EnergyCostFail": 2,
		"EnergyCostTeam": 8,
		"FirstClearDrop": [
			{
				"GoodsType": "GoodsType_Crystal",
				"Id": 0,
				"Count": 10
			},
			{
				"GoodsType": "GoodsType_Item",
				"Id": 3524,
				"Count": 3
			}
		],
		"RandomDrop": 10041,
		"TeamDrop": 0,
		"DropDisplayCount": 2,
		"Score": 0,
		"Strategy": ""
	},
	{
		"ID": 401,
		"Name": "训练任务L35-A",
		"TeamName": "Lv35A",
		"DaysBeforeActivate": 0,
		"PlayerLevelRequired": 30,
		"MonsterLevel": 35,
		"BattleID": 50334,
		"PlayerExp": 10,
		"HeroExp": 55,
		"GoldReward": 638,
		"EnergyCostSuccess": 10,
		"EnergyCostFail": 2,
		"EnergyCostTeam": 8,
		"FirstClearDrop": [
			{
				"GoodsType": "GoodsType_Crystal",
				"Id": 0,
				"Count": 10
			},
			{
				"GoodsType": "GoodsType_Item",
				"Id": 3527,
				"Count": 3
			}
		],
		"RandomDrop": 10042,
		"TeamDrop": 0,
		"DropDisplayCount": 2,
		"Score": 0,
		"Strategy": ""
	},
	{
		"ID": 402,
		"Name": "训练任务L35-B",
		"TeamName": "Lv35B",
		"DaysBeforeActivate": 0,
		"PlayerLevelRequired": 30,
		"MonsterLevel": 35,
		"BattleID": 50331,
		"PlayerExp": 10,
		"HeroExp": 55,
		"GoldReward": 638,
		"EnergyCostSuccess": 10,
		"EnergyCostFail": 2,
		"EnergyCostTeam": 8,
		"FirstClearDrop": [
			{
				"GoodsType": "GoodsType_Crystal",
				"Id": 0,
				"Count": 10
			},
			{
				"GoodsType": "GoodsType_Item",
				"Id": 3528,
				"Count": 3
			}
		],
		"RandomDrop": 10043,
		"TeamDrop": 0,
		"DropDisplayCount": 2,
		"Score": 0,
		"Strategy": ""
	},
	{
		"ID": 403,
		"Name": "训练任务L35-C",
		"TeamName": "Lv35C",
		"DaysBeforeActivate": 0,
		"PlayerLevelRequired": 30,
		"MonsterLevel": 35,
		"BattleID": 50337,
		"PlayerExp": 10,
		"HeroExp": 55,
		"GoldReward": 638,
		"EnergyCostSuccess": 10,
		"EnergyCostFail": 2,
		"EnergyCostTeam": 8,
		"FirstClearDrop": [
			{
				"GoodsType": "GoodsType_Crystal",
				"Id": 0,
				"Count": 10
			},
			{
				"GoodsType": "GoodsType_Item",
				"Id": 3529,
				"Count": 3
			}
		],
		"RandomDrop": 10044,
		"TeamDrop": 0,
		"DropDisplayCount": 2,
		"Score": 0,
		"Strategy": ""
	},
	{
		"ID": 404,
		"Name": "训练任务L35-D",
		"TeamName": "Lv35D",
		"DaysBeforeActivate": 0,
		"PlayerLevelRequired": 30,
		"MonsterLevel": 35,
		"BattleID": 50340,
		"PlayerExp": 10,
		"HeroExp": 55,
		"GoldReward": 638,
		"EnergyCostSuccess": 10,
		"EnergyCostFail": 2,
		"EnergyCostTeam": 8,
		"FirstClearDrop": [
			{
				"GoodsType": "GoodsType_Crystal",
				"Id": 0,
				"Count": 10
			},
			{
				"GoodsType": "GoodsType_Item",
				"Id": 3530,
				"Count": 3
			}
		],
		"RandomDrop": 10045,
		"TeamDrop": 0,
		"DropDisplayCount": 2,
		"Score": 0,
		"Strategy": ""
	},
	{
		"ID": 405,
		"Name": "训练任务L45-A",
		"TeamName": "Lv45A",
		"DaysBeforeActivate": 2,
		"PlayerLevelRequired": 40,
		"MonsterLevel": 45,
		"BattleID": 50335,
		"PlayerExp": 10,
		"HeroExp": 65,
		"GoldReward": 875,
		"EnergyCostSuccess": 10,
		"EnergyCostFail": 2,
		"EnergyCostTeam": 8,
		"FirstClearDrop": [
			{
				"GoodsType": "GoodsType_Crystal",
				"Id": 0,
				"Count": 10
			},
			{
				"GoodsType": "GoodsType_Item",
				"Id": 3527,
				"Count": 6
			}
		],
		"RandomDrop": 10046,
		"TeamDrop": 0,
		"DropDisplayCount": 2,
		"Score": 0,
		"Strategy": ""
	},
	{
		"ID": 406,
		"Name": "训练任务L45-B",
		"TeamName": "Lv45B",
		"DaysBeforeActivate": 2,
		"PlayerLevelRequired": 40,
		"MonsterLevel": 45,
		"BattleID": 50332,
		"PlayerExp": 10,
		"HeroExp": 65,
		"GoldReward": 875,
		"EnergyCostSuccess": 10,
		"EnergyCostFail": 2,
		"EnergyCostTeam": 8,
		"FirstClearDrop": [
			{
				"GoodsType": "GoodsType_Crystal",
				"Id": 0,
				"Count": 10
			},
			{
				"GoodsType": "GoodsType_Item",
				"Id": 3528,
				"Count": 6
			}
		],
		"RandomDrop": 10047,
		"TeamDrop": 0,
		"DropDisplayCount": 2,
		"Score": 0,
		"Strategy": ""
	},
	{
		"ID": 407,
		"Name": "训练任务L45-C",
		"TeamName": "Lv45C",
		"DaysBeforeActivate": 2,
		"PlayerLevelRequired": 40,
		"MonsterLevel": 45,
		"BattleID": 50338,
		"PlayerExp": 10,
		"HeroExp": 65,
		"GoldReward": 875,
		"EnergyCostSuccess": 10,
		"EnergyCostFail": 2,
		"EnergyCostTeam": 8,
		"FirstClearDrop": [
			{
				"GoodsType": "GoodsType_Crystal",
				"Id": 0,
				"Count": 10
			},
			{
				"GoodsType": "GoodsType_Item",
				"Id": 3529,
				"Count": 6
			}
		],
		"RandomDrop": 10048,
		"TeamDrop": 0,
		"DropDisplayCount": 2,
		"Score": 0,
		"Strategy": ""
	},
	{
		"ID": 408,
		"Name": "训练任务L45-D",
		"TeamName": "Lv45D",
		"DaysBeforeActivate": 2,
		"PlayerLevelRequired": 40,
		"MonsterLevel": 45,
		"BattleID": 50341,
		"PlayerExp": 10,
		"HeroExp": 65,
		"GoldReward": 875,
		"EnergyCostSuccess": 10,
		"EnergyCostFail": 2,
		"EnergyCostTeam": 8,
		"FirstClearDrop": [
			{
				"GoodsType": "GoodsType_Crystal",
				"Id": 0,
				"Count": 10
			},
			{
				"GoodsType": "GoodsType_Item",
				"Id": 3530,
				"Count": 6
			}
		],
		"RandomDrop": 10049,
		"TeamDrop": 0,
		"DropDisplayCount": 2,
		"Score": 0,
		"Strategy": ""
	},
	{
		"ID": 409,
		"Name": "训练任务L55-A",
		"TeamName": "Lv55A",
		"DaysBeforeActivate": 4,
		"PlayerLevelRequired": 50,
		"MonsterLevel": 55,
		"BattleID": 50336,
		"PlayerExp": 10,
		"HeroExp": 75,
		"GoldReward": 1140,
		"EnergyCostSuccess": 10,
		"EnergyCostFail": 2,
		"EnergyCostTeam": 8,
		"FirstClearDrop": [
			{
				"GoodsType": "GoodsType_Crystal",
				"Id": 0,
				"Count": 10
			},
			{
				"GoodsType": "GoodsType_Item",
				"Id": 3527,
				"Count": 9
			}
		],
		"RandomDrop": 10050,
		"TeamDrop": 0,
		"DropDisplayCount": 2,
		"Score": 0,
		"Strategy": ""
	},
	{
		"ID": 410,
		"Name": "训练任务L55-B",
		"TeamName": "Lv55B",
		"DaysBeforeActivate": 4,
		"PlayerLevelRequired": 50,
		"MonsterLevel": 55,
		"BattleID": 50333,
		"PlayerExp": 10,
		"HeroExp": 75,
		"GoldReward": 1140,
		"EnergyCostSuccess": 10,
		"EnergyCostFail": 2,
		"EnergyCostTeam": 8,
		"FirstClearDrop": [
			{
				"GoodsType": "GoodsType_Crystal",
				"Id": 0,
				"Count": 10
			},
			{
				"GoodsType": "GoodsType_Item",
				"Id": 3528,
				"Count": 9
			}
		],
		"RandomDrop": 10051,
		"TeamDrop": 0,
		"DropDisplayCount": 2,
		"Score": 0,
		"Strategy": ""
	},
	{
		"ID": 411,
		"Name": "训练任务L55-C",
		"TeamName": "Lv55C",
		"DaysBeforeActivate": 4,
		"PlayerLevelRequired": 50,
		"MonsterLevel": 55,
		"BattleID": 50339,
		"PlayerExp": 10,
		"HeroExp": 75,
		"GoldReward": 1140,
		"EnergyCostSuccess": 10,
		"EnergyCostFail": 2,
		"EnergyCostTeam": 8,
		"FirstClearDrop": [
			{
				"GoodsType": "GoodsType_Crystal",
				"Id": 0,
				"Count": 10
			},
			{
				"GoodsType": "GoodsType_Item",
				"Id": 3529,
				"Count": 9
			}
		],
		"RandomDrop": 10052,
		"TeamDrop": 0,
		"DropDisplayCount": 2,
		"Score": 0,
		"Strategy": ""
	},
	{
		"ID": 412,
		"Name": "训练任务L55-D",
		"TeamName": "Lv55D",
		"DaysBeforeActivate": 4,
		"PlayerLevelRequired": 50,
		"MonsterLevel": 55,
		"BattleID": 50342,
		"PlayerExp": 10,
		"HeroExp": 75,
		"GoldReward": 1140,
		"EnergyCostSuccess": 10,
		"EnergyCostFail": 2,
		"EnergyCostTeam": 8,
		"FirstClearDrop": [
			{
				"GoodsType": "GoodsType_Crystal",
				"Id": 0,
				"Count": 10
			},
			{
				"GoodsType": "GoodsType_Item",
				"Id": 3530,
				"Count": 9
			}
		],
		"RandomDrop": 10053,
		"TeamDrop": 0,
		"DropDisplayCount": 2,
		"Score": 0,
		"Strategy": ""
	},
	{
		"ID": 413,
		"Name": "训练任务L55-E",
		"TeamName": "Lv55E",
		"DaysBeforeActivate": 6,
		"PlayerLevelRequired": 50,
		"MonsterLevel": 55,
		"BattleID": 50343,
		"PlayerExp": 10,
		"HeroExp": 75,
		"GoldReward": 1140,
		"EnergyCostSuccess": 10,
		"EnergyCostFail": 2,
		"EnergyCostTeam": 8,
		"FirstClearDrop": [
			{
				"GoodsType": "GoodsType_Crystal",
				"Id": 0,
				"Count": 10
			},
			{
				"GoodsType": "GoodsType_Item",
				"Id": 3527,
				"Count": 8
			},
			{
				"GoodsType": "GoodsType_Item",
				"Id": 3528,
				"Count": 8
			}
		],
		"RandomDrop": 10054,
		"TeamDrop": 0,
		"DropDisplayCount": 3,
		"Score": 0,
		"Strategy": ""
	},
	{
		"ID": 414,
		"Name": "训练任务L55-F",
		"TeamName": "Lv55F",
		"DaysBeforeActivate": 6,
		"PlayerLevelRequired": 50,
		"MonsterLevel": 55,
		"BattleID": 50344,
		"PlayerExp": 10,
		"HeroExp": 75,
		"GoldReward": 1140,
		"EnergyCostSuccess": 10,
		"EnergyCostFail": 2,
		"EnergyCostTeam": 8,
		"FirstClearDrop": [
			{
				"GoodsType": "GoodsType_Crystal",
				"Id": 0,
				"Count": 10
			},
			{
				"GoodsType": "GoodsType_Item",
				"Id": 3529,
				"Count": 8
			},
			{
				"GoodsType": "GoodsType_Item",
				"Id": 3530,
				"Count": 8
			}
		],
		"RandomDrop": 10055,
		"TeamDrop": 0,
		"DropDisplayCount": 3,
		"Score": 0,
		"Strategy": ""
	},
	{
		"ID": 415,
		"Name": "训练任务L55-G",
		"TeamName": "Lv55G",
		"DaysBeforeActivate": 6,
		"PlayerLevelRequired": 50,
		"MonsterLevel": 55,
		"BattleID": 50345,
		"PlayerExp": 10,
		"HeroExp": 75,
		"GoldReward": 1140,
		"EnergyCostSuccess": 10,
		"EnergyCostFail": 2,
		"EnergyCostTeam": 8,
		"FirstClearDrop": [
			{
				"GoodsType": "GoodsType_Crystal",
				"Id": 0,
				"Count": 10
			},
			{
				"GoodsType": "GoodsType_Item",
				"Id": 3528,
				"Count": 8
			},
			{
				"GoodsType": "GoodsType_Item",
				"Id": 3529,
				"Count": 8
			}
		],
		"RandomDrop": 10056,
		"TeamDrop": 0,
		"DropDisplayCount": 3,
		"Score": 0,
		"Strategy": ""
	},
	{
		"ID": 416,
		"Name": "训练任务L55-H",
		"TeamName": "Lv55H",
		"DaysBeforeActivate": 6,
		"PlayerLevelRequired": 50,
		"MonsterLevel": 55,
		"BattleID": 50346,
		"PlayerExp": 10,
		"HeroExp": 75,
		"GoldReward": 1140,
		"EnergyCostSuccess": 10,
		"EnergyCostFail": 2,
		"EnergyCostTeam": 8,
		"FirstClearDrop": [
			{
				"GoodsType": "GoodsType_Crystal",
				"Id": 0,
				"Count": 10
			},
			{
				"GoodsType": "GoodsType_Item",
				"Id": 3530,
				"Count": 8
			},
			{
				"GoodsType": "GoodsType_Item",
				"Id": 3527,
				"Count": 8
			}
		],
		"RandomDrop": 10057,
		"TeamDrop": 0,
		"DropDisplayCount": 3,
		"Score": 0,
		"Strategy": ""
	},
	{
		"ID": 501,
		"Name": "音乐会任务L35-A",
		"TeamName": "Lv35A",
		"DaysBeforeActivate": 0,
		"PlayerLevelRequired": 30,
		"MonsterLevel": 35,
		"BattleID": 50431,
		"PlayerExp": 10,
		"HeroExp": 55,
		"GoldReward": 638,
		"EnergyCostSuccess": 10,
		"EnergyCostFail": 2,
		"EnergyCostTeam": 8,
		"RandomDrop": 0,
		"TeamDrop": 0,
		"DropDisplayCount": 1,
		"Score": 100,
		"Strategy": ""
	},
	{
		"ID": 502,
		"Name": "音乐会任务L35-B",
		"TeamName": "Lv35B",
		"DaysBeforeActivate": 1,
		"PlayerLevelRequired": 30,
		"MonsterLevel": 35,
		"BattleID": 50434,
		"PlayerExp": 10,
		"HeroExp": 55,
		"GoldReward": 638,
		"EnergyCostSuccess": 10,
		"EnergyCostFail": 2,
		"EnergyCostTeam": 8,
		"RandomDrop": 0,
		"TeamDrop": 0,
		"DropDisplayCount": 1,
		"Score": 100,
		"Strategy": ""
	},
	{
		"ID": 503,
		"Name": "音乐会任务L35-C",
		"TeamName": "Lv35C",
		"DaysBeforeActivate": 2,
		"PlayerLevelRequired": 30,
		"MonsterLevel": 35,
		"BattleID": 50437,
		"PlayerExp": 10,
		"HeroExp": 55,
		"GoldReward": 638,
		"EnergyCostSuccess": 10,
		"EnergyCostFail": 2,
		"EnergyCostTeam": 8,
		"RandomDrop": 0,
		"TeamDrop": 0,
		"DropDisplayCount": 1,
		"Score": 100,
		"Strategy": ""
	},
	{
		"ID": 504,
		"Name": "音乐会任务L45-A",
		"TeamName": "Lv45A",
		"DaysBeforeActivate": 3,
		"PlayerLevelRequired": 40,
		"MonsterLevel": 45,
		"BattleID": 50432,
		"PlayerExp": 10,
		"HeroExp": 65,
		"GoldReward": 875,
		"EnergyCostSuccess": 10,
		"EnergyCostFail": 2,
		"EnergyCostTeam": 8,
		"RandomDrop": 0,
		"TeamDrop": 0,
		"DropDisplayCount": 1,
		"Score": 200,
		"Strategy": ""
	},
	{
		"ID": 505,
		"Name": "音乐会任务L45-B",
		"TeamName": "Lv45B",
		"DaysBeforeActivate": 4,
		"PlayerLevelRequired": 40,
		"MonsterLevel": 45,
		"BattleID": 50435,
		"PlayerExp": 10,
		"HeroExp": 65,
		"GoldReward": 875,
		"EnergyCostSuccess": 10,
		"EnergyCostFail": 2,
		"EnergyCostTeam": 8,
		"RandomDrop": 0,
		"TeamDrop": 0,
		"DropDisplayCount": 1,
		"Score": 200,
		"Strategy": ""
	},
	{
		"ID": 506,
		"Name": "音乐会任务L45-C",
		"TeamName": "Lv45C",
		"DaysBeforeActivate": 5,
		"PlayerLevelRequired": 40,
		"MonsterLevel": 45,
		"BattleID": 50438,
		"PlayerExp": 10,
		"HeroExp": 65,
		"GoldReward": 875,
		"EnergyCostSuccess": 10,
		"EnergyCostFail": 2,
		"EnergyCostTeam": 8,
		"RandomDrop": 0,
		"TeamDrop": 0,
		"DropDisplayCount": 1,
		"Score": 200,
		"Strategy": ""
	},
	{
		"ID": 507,
		"Name": "音乐会任务L55-A",
		"TeamName": "Lv55A",
		"DaysBeforeActivate": 6,
		"PlayerLevelRequired": 50,
		"MonsterLevel": 55,
		"BattleID": 50433,
		"PlayerExp": 10,
		"HeroExp": 75,
		"GoldReward": 1140,
		"EnergyCostSuccess": 10,
		"EnergyCostFail": 2,
		"EnergyCostTeam": 8,
		"RandomDrop": 0,
		"TeamDrop": 0,
		"DropDisplayCount": 1,
		"Score": 300,
		"Strategy": ""
	},
	{
		"ID": 508,
		"Name": "音乐会任务L55-B",
		"TeamName": "Lv55B",
		"DaysBeforeActivate": 7,
		"PlayerLevelRequired": 50,
		"MonsterLevel": 55,
		"BattleID": 50436,
		"PlayerExp": 10,
		"HeroExp": 75,
		"GoldReward": 1140,
		"EnergyCostSuccess": 10,
		"EnergyCostFail": 2,
		"EnergyCostTeam": 8,
		"RandomDrop": 0,
		"TeamDrop": 0,
		"DropDisplayCount": 1,
		"Score": 300,
		"Strategy": ""
	},
	{
		"ID": 509,
		"Name": "音乐会任务L55-C",
		"TeamName": "Lv55C",
		"DaysBeforeActivate": 8,
		"PlayerLevelRequired": 50,
		"MonsterLevel": 55,
		"BattleID": 50439,
		"PlayerExp": 10,
		"HeroExp": 75,
		"GoldReward": 1140,
		"EnergyCostSuccess": 10,
		"EnergyCostFail": 2,
		"EnergyCostTeam": 8,
		"RandomDrop": 0,
		"TeamDrop": 0,
		"DropDisplayCount": 1,
		"Score": 300,
		"Strategy": ""
	},
	{
		"ID": 601,
		"Name": "花火祭任务L35-A",
		"TeamName": "Lv35A",
		"DaysBeforeActivate": 0,
		"PlayerLevelRequired": 30,
		"MonsterLevel": 35,
		"BattleID": 50531,
		"PlayerExp": 10,
		"HeroExp": 55,
		"GoldReward": 638,
		"EnergyCostSuccess": 10,
		"EnergyCostFail": 2,
		"EnergyCostTeam": 8,
		"FirstClearDrop": [
			{
				"GoodsType": "GoodsType_Crystal",
				"Id": 0,
				"Count": 10
			},
			{
				"GoodsType": "GoodsType_Item",
				"Id": 3532,
				"Count": 3
			}
		],
		"RandomDrop": 10058,
		"TeamDrop": 0,
		"DropDisplayCount": 2,
		"Score": 0,
		"Strategy": ""
	},
	{
		"ID": 602,
		"Name": "花火祭任务L35-B",
		"TeamName": "Lv35B",
		"DaysBeforeActivate": 1,
		"PlayerLevelRequired": 30,
		"MonsterLevel": 35,
		"BattleID": 50534,
		"PlayerExp": 10,
		"HeroExp": 55,
		"GoldReward": 638,
		"EnergyCostSuccess": 10,
		"EnergyCostFail": 2,
		"EnergyCostTeam": 8,
		"FirstClearDrop": [
			{
				"GoodsType": "GoodsType_Crystal",
				"Id": 0,
				"Count": 10
			},
			{
				"GoodsType": "GoodsType_Item",
				"Id": 3533,
				"Count": 3
			}
		],
		"RandomDrop": 10059,
		"TeamDrop": 0,
		"DropDisplayCount": 2,
		"Score": 0,
		"Strategy": ""
	},
	{
		"ID": 603,
		"Name": "花火祭任务L35-C",
		"TeamName": "Lv35C",
		"DaysBeforeActivate": 2,
		"PlayerLevelRequired": 30,
		"MonsterLevel": 35,
		"BattleID": 50537,
		"PlayerExp": 10,
		"HeroExp": 55,
		"GoldReward": 638,
		"EnergyCostSuccess": 10,
		"EnergyCostFail": 2,
		"EnergyCostTeam": 8,
		"FirstClearDrop": [
			{
				"GoodsType": "GoodsType_Crystal",
				"Id": 0,
				"Count": 10
			},
			{
				"GoodsType": "GoodsType_Item",
				"Id": 3534,
				"Count": 3
			}
		],
		"RandomDrop": 10060,
		"TeamDrop": 0,
		"DropDisplayCount": 2,
		"Score": 0,
		"Strategy": ""
	},
	{
		"ID": 604,
		"Name": "花火祭任务L45-A",
		"TeamName": "Lv45A",
		"DaysBeforeActivate": 3,
		"PlayerLevelRequired": 40,
		"MonsterLevel": 45,
		"BattleID": 50532,
		"PlayerExp": 10,
		"HeroExp": 65,
		"GoldReward": 875,
		"EnergyCostSuccess": 10,
		"EnergyCostFail": 2,
		"EnergyCostTeam": 8,
		"FirstClearDrop": [
			{
				"GoodsType": "GoodsType_Crystal",
				"Id": 0,
				"Count": 10
			},
			{
				"GoodsType": "GoodsType_Item",
				"Id": 3532,
				"Count": 6
			}
		],
		"RandomDrop": 10061,
		"TeamDrop": 0,
		"DropDisplayCount": 2,
		"Score": 0,
		"Strategy": ""
	},
	{
		"ID": 605,
		"Name": "花火祭任务L45-B",
		"TeamName": "Lv45B",
		"DaysBeforeActivate": 4,
		"PlayerLevelRequired": 40,
		"MonsterLevel": 45,
		"BattleID": 50535,
		"PlayerExp": 10,
		"HeroExp": 65,
		"GoldReward": 875,
		"EnergyCostSuccess": 10,
		"EnergyCostFail": 2,
		"EnergyCostTeam": 8,
		"FirstClearDrop": [
			{
				"GoodsType": "GoodsType_Crystal",
				"Id": 0,
				"Count": 10
			},
			{
				"GoodsType": "GoodsType_Item",
				"Id": 3533,
				"Count": 6
			}
		],
		"RandomDrop": 10062,
		"TeamDrop": 0,
		"DropDisplayCount": 2,
		"Score": 0,
		"Strategy": ""
	},
	{
		"ID": 606,
		"Name": "花火祭任务L45-C",
		"TeamName": "Lv45C",
		"DaysBeforeActivate": 5,
		"PlayerLevelRequired": 40,
		"MonsterLevel": 45,
		"BattleID": 50538,
		"PlayerExp": 10,
		"HeroExp": 65,
		"GoldReward": 875,
		"EnergyCostSuccess": 10,
		"EnergyCostFail": 2,
		"EnergyCostTeam": 8,
		"FirstClearDrop": [
			{
				"GoodsType": "GoodsType_Crystal",
				"Id": 0,
				"Count": 10
			},
			{
				"GoodsType": "GoodsType_Item",
				"Id": 3534,
				"Count": 6
			}
		],
		"RandomDrop": 10063,
		"TeamDrop": 0,
		"DropDisplayCount": 2,
		"Score": 0,
		"Strategy": ""
	},
	{
		"ID": 607,
		"Name": "花火祭任务L55-A",
		"TeamName": "Lv55A",
		"DaysBeforeActivate": 6,
		"PlayerLevelRequired": 50,
		"MonsterLevel": 55,
		"BattleID": 50533,
		"PlayerExp": 10,
		"HeroExp": 75,
		"GoldReward": 1140,
		"EnergyCostSuccess": 10,
		"EnergyCostFail": 2,
		"EnergyCostTeam": 8,
		"FirstClearDrop": [
			{
				"GoodsType": "GoodsType_Crystal",
				"Id": 0,
				"Count": 10
			},
			{
				"GoodsType": "GoodsType_Item",
				"Id": 3532,
				"Count": 9
			}
		],
		"RandomDrop": 10064,
		"TeamDrop": 0,
		"DropDisplayCount": 2,
		"Score": 0,
		"Strategy": ""
	},
	{
		"ID": 608,
		"Name": "花火祭任务L55-B",
		"TeamName": "Lv55B",
		"DaysBeforeActivate": 7,
		"PlayerLevelRequired": 50,
		"MonsterLevel": 55,
		"BattleID": 50536,
		"PlayerExp": 10,
		"HeroExp": 75,
		"GoldReward": 1140,
		"EnergyCostSuccess": 10,
		"EnergyCostFail": 2,
		"EnergyCostTeam": 8,
		"FirstClearDrop": [
			{
				"GoodsType": "GoodsType_Crystal",
				"Id": 0,
				"Count": 10
			},
			{
				"GoodsType": "GoodsType_Item",
				"Id": 3533,
				"Count": 9
			}
		],
		"RandomDrop": 10065,
		"TeamDrop": 0,
		"DropDisplayCount": 2,
		"Score": 0,
		"Strategy": ""
	},
	{
		"ID": 609,
		"Name": "花火祭任务L55-C",
		"TeamName": "Lv55C",
		"DaysBeforeActivate": 8,
		"PlayerLevelRequired": 50,
		"MonsterLevel": 55,
		"BattleID": 50539,
		"PlayerExp": 10,
		"HeroExp": 75,
		"GoldReward": 1140,
		"EnergyCostSuccess": 10,
		"EnergyCostFail": 2,
		"EnergyCostTeam": 8,
		"FirstClearDrop": [
			{
				"GoodsType": "GoodsType_Crystal",
				"Id": 0,
				"Count": 10
			},
			{
				"GoodsType": "GoodsType_Item",
				"Id": 3534,
				"Count": 9
			}
		],
		"RandomDrop": 10066,
		"TeamDrop": 0,
		"DropDisplayCount": 2,
		"Score": 0,
		"Strategy": ""
	},
	{
		"ID": 701,
		"Name": "暴走任务L35-A",
		"TeamName": "Lv35A",
		"DaysBeforeActivate": 0,
		"PlayerLevelRequired": 30,
		"MonsterLevel": 35,
		"BattleID": 50731,
		"PlayerExp": 10,
		"HeroExp": 55,
		"GoldReward": 638,
		"EnergyCostSuccess": 10,
		"EnergyCostFail": 2,
		"EnergyCostTeam": 8,
		"FirstClearDrop": [
			{
				"GoodsType": "GoodsType_Crystal",
				"Id": 0,
				"Count": 10
			},
			{
				"GoodsType": "GoodsType_Item",
				"Id": 3536,
				"Count": 3
			}
		],
		"RandomDrop": 10067,
		"TeamDrop": 0,
		"DropDisplayCount": 2,
		"Score": 0,
		"Strategy": ""
	},
	{
		"ID": 702,
		"Name": "暴走任务L35-B",
		"TeamName": "Lv35B",
		"DaysBeforeActivate": 0,
		"PlayerLevelRequired": 30,
		"MonsterLevel": 35,
		"BattleID": 50734,
		"PlayerExp": 10,
		"HeroExp": 55,
		"GoldReward": 638,
		"EnergyCostSuccess": 10,
		"EnergyCostFail": 2,
		"EnergyCostTeam": 8,
		"FirstClearDrop": [
			{
				"GoodsType": "GoodsType_Crystal",
				"Id": 0,
				"Count": 10
			},
			{
				"GoodsType": "GoodsType_Item",
				"Id": 3538,
				"Count": 3
			}
		],
		"RandomDrop": 10068,
		"TeamDrop": 0,
		"DropDisplayCount": 2,
		"Score": 0,
		"Strategy": ""
	},
	{
		"ID": 703,
		"Name": "暴走任务L35-C",
		"TeamName": "Lv35C",
		"DaysBeforeActivate": 0,
		"PlayerLevelRequired": 30,
		"MonsterLevel": 35,
		"BattleID": 50737,
		"PlayerExp": 10,
		"HeroExp": 55,
		"GoldReward": 638,
		"EnergyCostSuccess": 10,
		"EnergyCostFail": 2,
		"EnergyCostTeam": 8,
		"FirstClearDrop": [
			{
				"GoodsType": "GoodsType_Crystal",
				"Id": 0,
				"Count": 10
			},
			{
				"GoodsType": "GoodsType_Item",
				"Id": 3537,
				"Count": 3
			}
		],
		"RandomDrop": 10069,
		"TeamDrop": 0,
		"DropDisplayCount": 2,
		"Score": 0,
		"Strategy": ""
	},
	{
		"ID": 704,
		"Name": "暴走任务L35-D",
		"TeamName": "Lv35D",
		"DaysBeforeActivate": 0,
		"PlayerLevelRequired": 30,
		"MonsterLevel": 35,
		"BattleID": 50740,
		"PlayerExp": 10,
		"HeroExp": 55,
		"GoldReward": 638,
		"EnergyCostSuccess": 10,
		"EnergyCostFail": 2,
		"EnergyCostTeam": 8,
		"FirstClearDrop": [
			{
				"GoodsType": "GoodsType_Crystal",
				"Id": 0,
				"Count": 10
			},
			{
				"GoodsType": "GoodsType_Item",
				"Id": 3535,
				"Count": 3
			}
		],
		"RandomDrop": 10070,
		"TeamDrop": 0,
		"DropDisplayCount": 2,
		"Score": 0,
		"Strategy": ""
	},
	{
		"ID": 705,
		"Name": "暴走任务L45-A",
		"TeamName": "Lv45A",
		"DaysBeforeActivate": 2,
		"PlayerLevelRequired": 40,
		"MonsterLevel": 45,
		"BattleID": 50732,
		"PlayerExp": 10,
		"HeroExp": 65,
		"GoldReward": 875,
		"EnergyCostSuccess": 10,
		"EnergyCostFail": 2,
		"EnergyCostTeam": 8,
		"FirstClearDrop": [
			{
				"GoodsType": "GoodsType_Crystal",
				"Id": 0,
				"Count": 10
			},
			{
				"GoodsType": "GoodsType_Item",
				"Id": 3536,
				"Count": 6
			}
		],
		"RandomDrop": 10071,
		"TeamDrop": 0,
		"DropDisplayCount": 2,
		"Score": 0,
		"Strategy": ""
	},
	{
		"ID": 706,
		"Name": "暴走任务L45-B",
		"TeamName": "Lv45B",
		"DaysBeforeActivate": 2,
		"PlayerLevelRequired": 40,
		"MonsterLevel": 45,
		"BattleID": 50735,
		"PlayerExp": 10,
		"HeroExp": 65,
		"GoldReward": 875,
		"EnergyCostSuccess": 10,
		"EnergyCostFail": 2,
		"EnergyCostTeam": 8,
		"FirstClearDrop": [
			{
				"GoodsType": "GoodsType_Crystal",
				"Id": 0,
				"Count": 10
			},
			{
				"GoodsType": "GoodsType_Item",
				"Id": 3538,
				"Count": 6
			}
		],
		"RandomDrop": 10072,
		"TeamDrop": 0,
		"DropDisplayCount": 2,
		"Score": 0,
		"Strategy": ""
	},
	{
		"ID": 707,
		"Name": "暴走任务L45-C",
		"TeamName": "Lv45C",
		"DaysBeforeActivate": 2,
		"PlayerLevelRequired": 40,
		"MonsterLevel": 45,
		"BattleID": 50738,
		"PlayerExp": 10,
		"HeroExp": 65,
		"GoldReward": 875,
		"EnergyCostSuccess": 10,
		"EnergyCostFail": 2,
		"EnergyCostTeam": 8,
		"FirstClearDrop": [
			{
				"GoodsType": "GoodsType_Crystal",
				"Id": 0,
				"Count": 10
			},
			{
				"GoodsType": "GoodsType_Item",
				"Id": 3537,
				"Count": 6
			}
		],
		"RandomDrop": 10073,
		"TeamDrop": 0,
		"DropDisplayCount": 2,
		"Score": 0,
		"Strategy": ""
	},
	{
		"ID": 708,
		"Name": "暴走任务L45-D",
		"TeamName": "Lv45D",
		"DaysBeforeActivate": 2,
		"PlayerLevelRequired": 40,
		"MonsterLevel": 45,
		"BattleID": 50741,
		"PlayerExp": 10,
		"HeroExp": 65,
		"GoldReward": 875,
		"EnergyCostSuccess": 10,
		"EnergyCostFail": 2,
		"EnergyCostTeam": 8,
		"FirstClearDrop": [
			{
				"GoodsType": "GoodsType_Crystal",
				"Id": 0,
				"Count": 10
			},
			{
				"GoodsType": "GoodsType_Item",
				"Id": 3535,
				"Count": 6
			}
		],
		"RandomDrop": 10074,
		"TeamDrop": 0,
		"DropDisplayCount": 2,
		"Score": 0,
		"Strategy": ""
	},
	{
		"ID": 709,
		"Name": "暴走任务L55-A",
		"TeamName": "Lv55A",
		"DaysBeforeActivate": 4,
		"PlayerLevelRequired": 50,
		"MonsterLevel": 55,
		"BattleID": 50733,
		"PlayerExp": 10,
		"HeroExp": 75,
		"GoldReward": 1140,
		"EnergyCostSuccess": 10,
		"EnergyCostFail": 2,
		"EnergyCostTeam": 8,
		"FirstClearDrop": [
			{
				"GoodsType": "GoodsType_Crystal",
				"Id": 0,
				"Count": 10
			},
			{
				"GoodsType": "GoodsType_Item",
				"Id": 3536,
				"Count": 9
			}
		],
		"RandomDrop": 10075,
		"TeamDrop": 0,
		"DropDisplayCount": 2,
		"Score": 0,
		"Strategy": ""
	},
	{
		"ID": 710,
		"Name": "暴走任务L55-B",
		"TeamName": "Lv55B",
		"DaysBeforeActivate": 4,
		"PlayerLevelRequired": 50,
		"MonsterLevel": 55,
		"BattleID": 50736,
		"PlayerExp": 10,
		"HeroExp": 75,
		"GoldReward": 1140,
		"EnergyCostSuccess": 10,
		"EnergyCostFail": 2,
		"EnergyCostTeam": 8,
		"FirstClearDrop": [
			{
				"GoodsType": "GoodsType_Crystal",
				"Id": 0,
				"Count": 10
			},
			{
				"GoodsType": "GoodsType_Item",
				"Id": 3538,
				"Count": 9
			}
		],
		"RandomDrop": 10076,
		"TeamDrop": 0,
		"DropDisplayCount": 2,
		"Score": 0,
		"Strategy": ""
	},
	{
		"ID": 711,
		"Name": "暴走任务L55-C",
		"TeamName": "Lv55C",
		"DaysBeforeActivate": 4,
		"PlayerLevelRequired": 50,
		"MonsterLevel": 55,
		"BattleID": 50739,
		"PlayerExp": 10,
		"HeroExp": 75,
		"GoldReward": 1140,
		"EnergyCostSuccess": 10,
		"EnergyCostFail": 2,
		"EnergyCostTeam": 8,
		"FirstClearDrop": [
			{
				"GoodsType": "GoodsType_Crystal",
				"Id": 0,
				"Count": 10
			},
			{
				"GoodsType": "GoodsType_Item",
				"Id": 3537,
				"Count": 9
			}
		],
		"RandomDrop": 10077,
		"TeamDrop": 0,
		"DropDisplayCount": 2,
		"Score": 0,
		"Strategy": ""
	},
	{
		"ID": 712,
		"Name": "暴走任务L55-D",
		"TeamName": "Lv55D",
		"DaysBeforeActivate": 4,
		"PlayerLevelRequired": 50,
		"MonsterLevel": 55,
		"BattleID": 50742,
		"PlayerExp": 10,
		"HeroExp": 75,
		"GoldReward": 1140,
		"EnergyCostSuccess": 10,
		"EnergyCostFail": 2,
		"EnergyCostTeam": 8,
		"FirstClearDrop": [
			{
				"GoodsType": "GoodsType_Crystal",
				"Id": 0,
				"Count": 10
			},
			{
				"GoodsType": "GoodsType_Item",
				"Id": 3535,
				"Count": 9
			}
		],
		"RandomDrop": 10078,
		"TeamDrop": 0,
		"DropDisplayCount": 2,
		"Score": 0,
		"Strategy": ""
	},
	{
		"ID": 713,
		"Name": "暴走任务L55-E",
		"TeamName": "Lv55E",
		"DaysBeforeActivate": 6,
		"PlayerLevelRequired": 50,
		"MonsterLevel": 55,
		"BattleID": 50743,
		"PlayerExp": 10,
		"HeroExp": 75,
		"GoldReward": 1140,
		"EnergyCostSuccess": 10,
		"EnergyCostFail": 2,
		"EnergyCostTeam": 8,
		"FirstClearDrop": [
			{
				"GoodsType": "GoodsType_Crystal",
				"Id": 0,
				"Count": 10
			},
			{
				"GoodsType": "GoodsType_Item",
				"Id": 3536,
				"Count": 8
			},
			{
				"GoodsType": "GoodsType_Item",
				"Id": 3538,
				"Count": 8
			}
		],
		"RandomDrop": 10079,
		"TeamDrop": 0,
		"DropDisplayCount": 3,
		"Score": 0,
		"Strategy": ""
	},
	{
		"ID": 714,
		"Name": "暴走任务L55-F",
		"TeamName": "Lv55F",
		"DaysBeforeActivate": 6,
		"PlayerLevelRequired": 50,
		"MonsterLevel": 55,
		"BattleID": 50744,
		"PlayerExp": 10,
		"HeroExp": 75,
		"GoldReward": 1140,
		"EnergyCostSuccess": 10,
		"EnergyCostFail": 2,
		"EnergyCostTeam": 8,
		"FirstClearDrop": [
			{
				"GoodsType": "GoodsType_Crystal",
				"Id": 0,
				"Count": 10
			},
			{
				"GoodsType": "GoodsType_Item",
				"Id": 3537,
				"Count": 8
			},
			{
				"GoodsType": "GoodsType_Item",
				"Id": 3535,
				"Count": 8
			}
		],
		"RandomDrop": 10080,
		"TeamDrop": 0,
		"DropDisplayCount": 3,
		"Score": 0,
		"Strategy": ""
	},
	{
		"ID": 715,
		"Name": "暴走任务L55-G",
		"TeamName": "Lv55G",
		"DaysBeforeActivate": 6,
		"PlayerLevelRequired": 50,
		"MonsterLevel": 55,
		"BattleID": 50745,
		"PlayerExp": 10,
		"HeroExp": 75,
		"GoldReward": 1140,
		"EnergyCostSuccess": 10,
		"EnergyCostFail": 2,
		"EnergyCostTeam": 8,
		"FirstClearDrop": [
			{
				"GoodsType": "GoodsType_Crystal",
				"Id": 0,
				"Count": 10
			},
			{
				"GoodsType": "GoodsType_Item",
				"Id": 3538,
				"Count": 8
			},
			{
				"GoodsType": "GoodsType_Item",
				"Id": 3537,
				"Count": 8
			}
		],
		"RandomDrop": 10081,
		"TeamDrop": 0,
		"DropDisplayCount": 3,
		"Score": 0,
		"Strategy": ""
	},
	{
		"ID": 716,
		"Name": "暴走任务L55-H",
		"TeamName": "Lv55H",
		"DaysBeforeActivate": 6,
		"PlayerLevelRequired": 50,
		"MonsterLevel": 55,
		"BattleID": 50746,
		"PlayerExp": 10,
		"HeroExp": 75,
		"GoldReward": 1140,
		"EnergyCostSuccess": 10,
		"EnergyCostFail": 2,
		"EnergyCostTeam": 8,
		"FirstClearDrop": [
			{
				"GoodsType": "GoodsType_Crystal",
				"Id": 0,
				"Count": 10
			},
			{
				"GoodsType": "GoodsType_Item",
				"Id": 3535,
				"Count": 8
			},
			{
				"GoodsType": "GoodsType_Item",
				"Id": 3536,
				"Count": 8
			}
		],
		"RandomDrop": 10082,
		"TeamDrop": 0,
		"DropDisplayCount": 3,
		"Score": 0,
		"Strategy": ""
	},
	{
		"ID": 801,
		"Name": "少女任务L35-A",
		"TeamName": "Lv35A",
		"DaysBeforeActivate": 0,
		"PlayerLevelRequired": 30,
		"MonsterLevel": 35,
		"BattleID": 50831,
		"PlayerExp": 10,
		"HeroExp": 55,
		"GoldReward": 638,
		"EnergyCostSuccess": 10,
		"EnergyCostFail": 2,
		"EnergyCostTeam": 8,
		"RandomDrop": 0,
		"TeamDrop": 0,
		"DropDisplayCount": 1,
		"Score": 100,
		"Strategy": ""
	},
	{
		"ID": 802,
		"Name": "少女任务L35-B",
		"TeamName": "Lv35B",
		"DaysBeforeActivate": 1,
		"PlayerLevelRequired": 30,
		"MonsterLevel": 35,
		"BattleID": 50834,
		"PlayerExp": 10,
		"HeroExp": 55,
		"GoldReward": 638,
		"EnergyCostSuccess": 10,
		"EnergyCostFail": 2,
		"EnergyCostTeam": 8,
		"RandomDrop": 0,
		"TeamDrop": 0,
		"DropDisplayCount": 1,
		"Score": 100,
		"Strategy": ""
	},
	{
		"ID": 803,
		"Name": "少女任务L35-C",
		"TeamName": "Lv35C",
		"DaysBeforeActivate": 2,
		"PlayerLevelRequired": 30,
		"MonsterLevel": 35,
		"BattleID": 50837,
		"PlayerExp": 10,
		"HeroExp": 55,
		"GoldReward": 638,
		"EnergyCostSuccess": 10,
		"EnergyCostFail": 2,
		"EnergyCostTeam": 8,
		"RandomDrop": 0,
		"TeamDrop": 0,
		"DropDisplayCount": 1,
		"Score": 100,
		"Strategy": ""
	},
	{
		"ID": 804,
		"Name": "少女任务L45-A",
		"TeamName": "Lv45A",
		"DaysBeforeActivate": 3,
		"PlayerLevelRequired": 40,
		"MonsterLevel": 45,
		"BattleID": 50832,
		"PlayerExp": 10,
		"HeroExp": 65,
		"GoldReward": 875,
		"EnergyCostSuccess": 10,
		"EnergyCostFail": 2,
		"EnergyCostTeam": 8,
		"RandomDrop": 0,
		"TeamDrop": 0,
		"DropDisplayCount": 1,
		"Score": 200,
		"Strategy": ""
	},
	{
		"ID": 805,
		"Name": "少女任务L45-B",
		"TeamName": "Lv45B",
		"DaysBeforeActivate": 4,
		"PlayerLevelRequired": 40,
		"MonsterLevel": 45,
		"BattleID": 50835,
		"PlayerExp": 10,
		"HeroExp": 65,
		"GoldReward": 875,
		"EnergyCostSuccess": 10,
		"EnergyCostFail": 2,
		"EnergyCostTeam": 8,
		"RandomDrop": 0,
		"TeamDrop": 0,
		"DropDisplayCount": 1,
		"Score": 200,
		"Strategy": ""
	},
	{
		"ID": 806,
		"Name": "少女任务L45-C",
		"TeamName": "Lv45C",
		"DaysBeforeActivate": 5,
		"PlayerLevelRequired": 40,
		"MonsterLevel": 45,
		"BattleID": 50838,
		"PlayerExp": 10,
		"HeroExp": 65,
		"GoldReward": 875,
		"EnergyCostSuccess": 10,
		"EnergyCostFail": 2,
		"EnergyCostTeam": 8,
		"RandomDrop": 0,
		"TeamDrop": 0,
		"DropDisplayCount": 1,
		"Score": 200,
		"Strategy": ""
	},
	{
		"ID": 807,
		"Name": "少女任务L55-A",
		"TeamName": "Lv55A",
		"DaysBeforeActivate": 6,
		"PlayerLevelRequired": 50,
		"MonsterLevel": 55,
		"BattleID": 50833,
		"PlayerExp": 10,
		"HeroExp": 75,
		"GoldReward": 1140,
		"EnergyCostSuccess": 10,
		"EnergyCostFail": 2,
		"EnergyCostTeam": 8,
		"RandomDrop": 0,
		"TeamDrop": 0,
		"DropDisplayCount": 1,
		"Score": 300,
		"Strategy": ""
	},
	{
		"ID": 808,
		"Name": "少女任务L55-B",
		"TeamName": "Lv55B",
		"DaysBeforeActivate": 7,
		"PlayerLevelRequired": 50,
		"MonsterLevel": 55,
		"BattleID": 50836,
		"PlayerExp": 10,
		"HeroExp": 75,
		"GoldReward": 1140,
		"EnergyCostSuccess": 10,
		"EnergyCostFail": 2,
		"EnergyCostTeam": 8,
		"RandomDrop": 0,
		"TeamDrop": 0,
		"DropDisplayCount": 1,
		"Score": 300,
		"Strategy": ""
	},
	{
		"ID": 809,
		"Name": "少女任务L55-C",
		"TeamName": "Lv55C",
		"DaysBeforeActivate": 8,
		"PlayerLevelRequired": 50,
		"MonsterLevel": 55,
		"BattleID": 50839,
		"PlayerExp": 10,
		"HeroExp": 75,
		"GoldReward": 1140,
		"EnergyCostSuccess": 10,
		"EnergyCostFail": 2,
		"EnergyCostTeam": 8,
		"RandomDrop": 0,
		"TeamDrop": 0,
		"DropDisplayCount": 1,
		"Score": 300,
		"Strategy": ""
	},
	{
		"ID": 901,
		"Name": "万灵任务L35-A",
		"TeamName": "Lv35A",
		"DaysBeforeActivate": 0,
		"PlayerLevelRequired": 30,
		"MonsterLevel": 35,
		"BattleID": 51031,
		"PlayerExp": 10,
		"HeroExp": 55,
		"GoldReward": 638,
		"EnergyCostSuccess": 10,
		"EnergyCostFail": 2,
		"EnergyCostTeam": 8,
		"FirstClearDrop": [
			{
				"GoodsType": "GoodsType_Crystal",
				"Id": 0,
				"Count": 10
			},
			{
				"GoodsType": "GoodsType_Item",
				"Id": 3539,
				"Count": 3
			}
		],
		"RandomDrop": 10083,
		"TeamDrop": 0,
		"DropDisplayCount": 2,
		"Score": 0,
		"Strategy": ""
	},
	{
		"ID": 902,
		"Name": "万灵任务L35-B",
		"TeamName": "Lv35B",
		"DaysBeforeActivate": 1,
		"PlayerLevelRequired": 30,
		"MonsterLevel": 35,
		"BattleID": 51034,
		"PlayerExp": 10,
		"HeroExp": 55,
		"GoldReward": 638,
		"EnergyCostSuccess": 10,
		"EnergyCostFail": 2,
		"EnergyCostTeam": 8,
		"FirstClearDrop": [
			{
				"GoodsType": "GoodsType_Crystal",
				"Id": 0,
				"Count": 10
			},
			{
				"GoodsType": "GoodsType_Item",
				"Id": 3540,
				"Count": 3
			}
		],
		"RandomDrop": 10084,
		"TeamDrop": 0,
		"DropDisplayCount": 2,
		"Score": 0,
		"Strategy": ""
	},
	{
		"ID": 903,
		"Name": "万灵任务L35-C",
		"TeamName": "Lv35C",
		"DaysBeforeActivate": 2,
		"PlayerLevelRequired": 30,
		"MonsterLevel": 35,
		"BattleID": 51037,
		"PlayerExp": 10,
		"HeroExp": 55,
		"GoldReward": 638,
		"EnergyCostSuccess": 10,
		"EnergyCostFail": 2,
		"EnergyCostTeam": 8,
		"FirstClearDrop": [
			{
				"GoodsType": "GoodsType_Crystal",
				"Id": 0,
				"Count": 10
			},
			{
				"GoodsType": "GoodsType_Item",
				"Id": 3541,
				"Count": 3
			}
		],
		"RandomDrop": 10085,
		"TeamDrop": 0,
		"DropDisplayCount": 2,
		"Score": 0,
		"Strategy": ""
	},
	{
		"ID": 904,
		"Name": "万灵任务L45-A",
		"TeamName": "Lv45A",
		"DaysBeforeActivate": 3,
		"PlayerLevelRequired": 40,
		"MonsterLevel": 45,
		"BattleID": 51032,
		"PlayerExp": 10,
		"HeroExp": 65,
		"GoldReward": 875,
		"EnergyCostSuccess": 10,
		"EnergyCostFail": 2,
		"EnergyCostTeam": 8,
		"FirstClearDrop": [
			{
				"GoodsType": "GoodsType_Crystal",
				"Id": 0,
				"Count": 10
			},
			{
				"GoodsType": "GoodsType_Item",
				"Id": 3539,
				"Count": 6
			}
		],
		"RandomDrop": 10086,
		"TeamDrop": 0,
		"DropDisplayCount": 2,
		"Score": 0,
		"Strategy": ""
	},
	{
		"ID": 905,
		"Name": "万灵任务L45-B",
		"TeamName": "Lv45B",
		"DaysBeforeActivate": 4,
		"PlayerLevelRequired": 40,
		"MonsterLevel": 45,
		"BattleID": 51035,
		"PlayerExp": 10,
		"HeroExp": 65,
		"GoldReward": 875,
		"EnergyCostSuccess": 10,
		"EnergyCostFail": 2,
		"EnergyCostTeam": 8,
		"FirstClearDrop": [
			{
				"GoodsType": "GoodsType_Crystal",
				"Id": 0,
				"Count": 10
			},
			{
				"GoodsType": "GoodsType_Item",
				"Id": 3540,
				"Count": 6
			}
		],
		"RandomDrop": 10087,
		"TeamDrop": 0,
		"DropDisplayCount": 2,
		"Score": 0,
		"Strategy": ""
	},
	{
		"ID": 906,
		"Name": "万灵任务L45-C",
		"TeamName": "Lv45C",
		"DaysBeforeActivate": 5,
		"PlayerLevelRequired": 40,
		"MonsterLevel": 45,
		"BattleID": 51038,
		"PlayerExp": 10,
		"HeroExp": 65,
		"GoldReward": 875,
		"EnergyCostSuccess": 10,
		"EnergyCostFail": 2,
		"EnergyCostTeam": 8,
		"FirstClearDrop": [
			{
				"GoodsType": "GoodsType_Crystal",
				"Id": 0,
				"Count": 10
			},
			{
				"GoodsType": "GoodsType_Item",
				"Id": 3541,
				"Count": 6
			}
		],
		"RandomDrop": 10088,
		"TeamDrop": 0,
		"DropDisplayCount": 2,
		"Score": 0,
		"Strategy": ""
	},
	{
		"ID": 907,
		"Name": "万灵任务L55-A",
		"TeamName": "Lv55A",
		"DaysBeforeActivate": 6,
		"PlayerLevelRequired": 50,
		"MonsterLevel": 55,
		"BattleID": 51033,
		"PlayerExp": 10,
		"HeroExp": 75,
		"GoldReward": 1140,
		"EnergyCostSuccess": 10,
		"EnergyCostFail": 2,
		"EnergyCostTeam": 8,
		"FirstClearDrop": [
			{
				"GoodsType": "GoodsType_Crystal",
				"Id": 0,
				"Count": 10
			},
			{
				"GoodsType": "GoodsType_Item",
				"Id": 3539,
				"Count": 9
			}
		],
		"RandomDrop": 10089,
		"TeamDrop": 0,
		"DropDisplayCount": 2,
		"Score": 0,
		"Strategy": ""
	},
	{
		"ID": 908,
		"Name": "万灵任务L55-B",
		"TeamName": "Lv55B",
		"DaysBeforeActivate": 7,
		"PlayerLevelRequired": 50,
		"MonsterLevel": 55,
		"BattleID": 51036,
		"PlayerExp": 10,
		"HeroExp": 75,
		"GoldReward": 1140,
		"EnergyCostSuccess": 10,
		"EnergyCostFail": 2,
		"EnergyCostTeam": 8,
		"FirstClearDrop": [
			{
				"GoodsType": "GoodsType_Crystal",
				"Id": 0,
				"Count": 10
			},
			{
				"GoodsType": "GoodsType_Item",
				"Id": 3540,
				"Count": 9
			}
		],
		"RandomDrop": 10090,
		"TeamDrop": 0,
		"DropDisplayCount": 2,
		"Score": 0,
		"Strategy": ""
	},
	{
		"ID": 909,
		"Name": "万灵任务L55-C",
		"TeamName": "Lv55C",
		"DaysBeforeActivate": 8,
		"PlayerLevelRequired": 50,
		"MonsterLevel": 55,
		"BattleID": 51039,
		"PlayerExp": 10,
		"HeroExp": 75,
		"GoldReward": 1140,
		"EnergyCostSuccess": 10,
		"EnergyCostFail": 2,
		"EnergyCostTeam": 8,
		"FirstClearDrop": [
			{
				"GoodsType": "GoodsType_Crystal",
				"Id": 0,
				"Count": 10
			},
			{
				"GoodsType": "GoodsType_Item",
				"Id": 3541,
				"Count": 9
			}
		],
		"RandomDrop": 10091,
		"TeamDrop": 0,
		"DropDisplayCount": 2,
		"Score": 0,
		"Strategy": ""
	},
	{
		"ID": 1001,
		"Name": "罗德斯岛任务L35-A",
		"TeamName": "Lv35A",
		"DaysBeforeActivate": 0,
		"PlayerLevelRequired": 30,
		"MonsterLevel": 35,
		"BattleID": 52031,
		"PlayerExp": 10,
		"HeroExp": 55,
		"GoldReward": 638,
		"EnergyCostSuccess": 10,
		"EnergyCostFail": 2,
		"EnergyCostTeam": 8,
		"RandomDrop": 0,
		"TeamDrop": 0,
		"DropDisplayCount": 1,
		"Score": 100,
		"Strategy": ""
	},
	{
		"ID": 1002,
		"Name": "罗德斯岛任务L35-B",
		"TeamName": "Lv35B",
		"DaysBeforeActivate": 1,
		"PlayerLevelRequired": 30,
		"MonsterLevel": 35,
		"BattleID": 52034,
		"PlayerExp": 10,
		"HeroExp": 55,
		"GoldReward": 638,
		"EnergyCostSuccess": 10,
		"EnergyCostFail": 2,
		"EnergyCostTeam": 8,
		"RandomDrop": 0,
		"TeamDrop": 0,
		"DropDisplayCount": 1,
		"Score": 100,
		"Strategy": ""
	},
	{
		"ID": 1003,
		"Name": "罗德斯岛任务L35-C",
		"TeamName": "Lv35C",
		"DaysBeforeActivate": 2,
		"PlayerLevelRequired": 30,
		"MonsterLevel": 35,
		"BattleID": 52037,
		"PlayerExp": 10,
		"HeroExp": 55,
		"GoldReward": 638,
		"EnergyCostSuccess": 10,
		"EnergyCostFail": 2,
		"EnergyCostTeam": 8,
		"RandomDrop": 0,
		"TeamDrop": 0,
		"DropDisplayCount": 1,
		"Score": 100,
		"Strategy": ""
	},
	{
		"ID": 1004,
		"Name": "罗德斯岛任务L45-A",
		"TeamName": "Lv45A",
		"DaysBeforeActivate": 3,
		"PlayerLevelRequired": 40,
		"MonsterLevel": 45,
		"BattleID": 52032,
		"PlayerExp": 10,
		"HeroExp": 65,
		"GoldReward": 875,
		"EnergyCostSuccess": 10,
		"EnergyCostFail": 2,
		"EnergyCostTeam": 8,
		"RandomDrop": 0,
		"TeamDrop": 0,
		"DropDisplayCount": 1,
		"Score": 200,
		"Strategy": ""
	},
	{
		"ID": 1005,
		"Name": "罗德斯岛任务L45-B",
		"TeamName": "Lv45B",
		"DaysBeforeActivate": 4,
		"PlayerLevelRequired": 40,
		"MonsterLevel": 45,
		"BattleID": 52035,
		"PlayerExp": 10,
		"HeroExp": 65,
		"GoldReward": 875,
		"EnergyCostSuccess": 10,
		"EnergyCostFail": 2,
		"EnergyCostTeam": 8,
		"RandomDrop": 0,
		"TeamDrop": 0,
		"DropDisplayCount": 1,
		"Score": 200,
		"Strategy": ""
	},
	{
		"ID": 1006,
		"Name": "罗德斯岛任务L45-C",
		"TeamName": "Lv45C",
		"DaysBeforeActivate": 5,
		"PlayerLevelRequired": 40,
		"MonsterLevel": 45,
		"BattleID": 52038,
		"PlayerExp": 10,
		"HeroExp": 65,
		"GoldReward": 875,
		"EnergyCostSuccess": 10,
		"EnergyCostFail": 2,
		"EnergyCostTeam": 8,
		"RandomDrop": 0,
		"TeamDrop": 0,
		"DropDisplayCount": 1,
		"Score": 200,
		"Strategy": ""
	},
	{
		"ID": 1007,
		"Name": "罗德斯岛任务L55-A",
		"TeamName": "Lv55A",
		"DaysBeforeActivate": 6,
		"PlayerLevelRequired": 50,
		"MonsterLevel": 55,
		"BattleID": 52033,
		"PlayerExp": 10,
		"HeroExp": 75,
		"GoldReward": 1140,
		"EnergyCostSuccess": 10,
		"EnergyCostFail": 2,
		"EnergyCostTeam": 8,
		"RandomDrop": 0,
		"TeamDrop": 0,
		"DropDisplayCount": 1,
		"Score": 300,
		"Strategy": ""
	},
	{
		"ID": 1008,
		"Name": "罗德斯岛任务L55-B",
		"TeamName": "Lv55B",
		"DaysBeforeActivate": 7,
		"PlayerLevelRequired": 50,
		"MonsterLevel": 55,
		"BattleID": 52036,
		"PlayerExp": 10,
		"HeroExp": 75,
		"GoldReward": 1140,
		"EnergyCostSuccess": 10,
		"EnergyCostFail": 2,
		"EnergyCostTeam": 8,
		"RandomDrop": 0,
		"TeamDrop": 0,
		"DropDisplayCount": 1,
		"Score": 300,
		"Strategy": ""
	},
	{
		"ID": 1009,
		"Name": "罗德斯岛任务L55-C",
		"TeamName": "Lv55C",
		"DaysBeforeActivate": 8,
		"PlayerLevelRequired": 50,
		"MonsterLevel": 55,
		"BattleID": 52039,
		"PlayerExp": 10,
		"HeroExp": 75,
		"GoldReward": 1140,
		"EnergyCostSuccess": 10,
		"EnergyCostFail": 2,
		"EnergyCostTeam": 8,
		"RandomDrop": 0,
		"TeamDrop": 0,
		"DropDisplayCount": 1,
		"Score": 300,
		"Strategy": ""
	},
	{
		"ID": 1201,
		"Name": "新年洋食屋任务L35-A",
		"TeamName": "Lv35A",
		"DaysBeforeActivate": 0,
		"PlayerLevelRequired": 30,
		"MonsterLevel": 35,
		"BattleID": 52131,
		"PlayerExp": 10,
		"HeroExp": 55,
		"GoldReward": 638,
		"EnergyCostSuccess": 10,
		"EnergyCostFail": 2,
		"EnergyCostTeam": 8,
		"FirstClearDrop": [
			{
				"GoodsType": "GoodsType_Crystal",
				"Id": 0,
				"Count": 10
			},
			{
				"GoodsType": "GoodsType_Item",
				"Id": 3542,
				"Count": 3
			}
		],
		"RandomDrop": 10092,
		"TeamDrop": 0,
		"DropDisplayCount": 2,
		"Score": 0,
		"Strategy": ""
	},
	{
		"ID": 1202,
		"Name": "新年洋食屋任务L35-B",
		"TeamName": "Lv35B",
		"DaysBeforeActivate": 1,
		"PlayerLevelRequired": 30,
		"MonsterLevel": 35,
		"BattleID": 52134,
		"PlayerExp": 10,
		"HeroExp": 55,
		"GoldReward": 638,
		"EnergyCostSuccess": 10,
		"EnergyCostFail": 2,
		"EnergyCostTeam": 8,
		"FirstClearDrop": [
			{
				"GoodsType": "GoodsType_Crystal",
				"Id": 0,
				"Count": 10
			},
			{
				"GoodsType": "GoodsType_Item",
				"Id": 3543,
				"Count": 3
			}
		],
		"RandomDrop": 10093,
		"TeamDrop": 0,
		"DropDisplayCount": 2,
		"Score": 0,
		"Strategy": ""
	},
	{
		"ID": 1203,
		"Name": "新年洋食屋任务L35-C",
		"TeamName": "Lv35C",
		"DaysBeforeActivate": 2,
		"PlayerLevelRequired": 30,
		"MonsterLevel": 35,
		"BattleID": 52137,
		"PlayerExp": 10,
		"HeroExp": 55,
		"GoldReward": 638,
		"EnergyCostSuccess": 10,
		"EnergyCostFail": 2,
		"EnergyCostTeam": 8,
		"FirstClearDrop": [
			{
				"GoodsType": "GoodsType_Crystal",
				"Id": 0,
				"Count": 10
			},
			{
				"GoodsType": "GoodsType_Item",
				"Id": 3544,
				"Count": 3
			}
		],
		"RandomDrop": 10094,
		"TeamDrop": 0,
		"DropDisplayCount": 2,
		"Score": 0,
		"Strategy": ""
	},
	{
		"ID": 1204,
		"Name": "新年洋食屋任务L45-A",
		"TeamName": "Lv45A",
		"DaysBeforeActivate": 3,
		"PlayerLevelRequired": 40,
		"MonsterLevel": 45,
		"BattleID": 52132,
		"PlayerExp": 10,
		"HeroExp": 65,
		"GoldReward": 875,
		"EnergyCostSuccess": 10,
		"EnergyCostFail": 2,
		"EnergyCostTeam": 8,
		"FirstClearDrop": [
			{
				"GoodsType": "GoodsType_Crystal",
				"Id": 0,
				"Count": 10
			},
			{
				"GoodsType": "GoodsType_Item",
				"Id": 3542,
				"Count": 6
			}
		],
		"RandomDrop": 10095,
		"TeamDrop": 0,
		"DropDisplayCount": 2,
		"Score": 0,
		"Strategy": ""
	},
	{
		"ID": 1205,
		"Name": "新年洋食屋任务L45-B",
		"TeamName": "Lv45B",
		"DaysBeforeActivate": 4,
		"PlayerLevelRequired": 40,
		"MonsterLevel": 45,
		"BattleID": 52135,
		"PlayerExp": 10,
		"HeroExp": 65,
		"GoldReward": 875,
		"EnergyCostSuccess": 10,
		"EnergyCostFail": 2,
		"EnergyCostTeam": 8,
		"FirstClearDrop": [
			{
				"GoodsType": "GoodsType_Crystal",
				"Id": 0,
				"Count": 10
			},
			{
				"GoodsType": "GoodsType_Item",
				"Id": 3543,
				"Count": 6
			}
		],
		"RandomDrop": 10096,
		"TeamDrop": 0,
		"DropDisplayCount": 2,
		"Score": 0,
		"Strategy": ""
	},
	{
		"ID": 1206,
		"Name": "新年洋食屋任务L45-C",
		"TeamName": "Lv45C",
		"DaysBeforeActivate": 5,
		"PlayerLevelRequired": 40,
		"MonsterLevel": 45,
		"BattleID": 52138,
		"PlayerExp": 10,
		"HeroExp": 65,
		"GoldReward": 875,
		"EnergyCostSuccess": 10,
		"EnergyCostFail": 2,
		"EnergyCostTeam": 8,
		"FirstClearDrop": [
			{
				"GoodsType": "GoodsType_Crystal",
				"Id": 0,
				"Count": 10
			},
			{
				"GoodsType": "GoodsType_Item",
				"Id": 3544,
				"Count": 6
			}
		],
		"RandomDrop": 10097,
		"TeamDrop": 0,
		"DropDisplayCount": 2,
		"Score": 0,
		"Strategy": ""
	},
	{
		"ID": 1207,
		"Name": "新年洋食屋任务L55-A",
		"TeamName": "Lv55A",
		"DaysBeforeActivate": 6,
		"PlayerLevelRequired": 50,
		"MonsterLevel": 55,
		"BattleID": 52133,
		"PlayerExp": 10,
		"HeroExp": 75,
		"GoldReward": 1140,
		"EnergyCostSuccess": 10,
		"EnergyCostFail": 2,
		"EnergyCostTeam": 8,
		"FirstClearDrop": [
			{
				"GoodsType": "GoodsType_Crystal",
				"Id": 0,
				"Count": 10
			},
			{
				"GoodsType": "GoodsType_Item",
				"Id": 3542,
				"Count": 9
			}
		],
		"RandomDrop": 10098,
		"TeamDrop": 0,
		"DropDisplayCount": 2,
		"Score": 0,
		"Strategy": ""
	},
	{
		"ID": 1208,
		"Name": "新年洋食屋任务L55-B",
		"TeamName": "Lv55B",
		"DaysBeforeActivate": 7,
		"PlayerLevelRequired": 50,
		"MonsterLevel": 55,
		"BattleID": 52136,
		"PlayerExp": 10,
		"HeroExp": 75,
		"GoldReward": 1140,
		"EnergyCostSuccess": 10,
		"EnergyCostFail": 2,
		"EnergyCostTeam": 8,
		"FirstClearDrop": [
			{
				"GoodsType": "GoodsType_Crystal",
				"Id": 0,
				"Count": 10
			},
			{
				"GoodsType": "GoodsType_Item",
				"Id": 3543,
				"Count": 9
			}
		],
		"RandomDrop": 10099,
		"TeamDrop": 0,
		"DropDisplayCount": 2,
		"Score": 0,
		"Strategy": ""
	},
	{
		"ID": 1209,
		"Name": "新年洋食屋任务L55-C",
		"TeamName": "Lv55C",
		"DaysBeforeActivate": 8,
		"PlayerLevelRequired": 50,
		"MonsterLevel": 55,
		"BattleID": 52139,
		"PlayerExp": 10,
		"HeroExp": 75,
		"GoldReward": 1140,
		"EnergyCostSuccess": 10,
		"EnergyCostFail": 2,
		"EnergyCostTeam": 8,
		"FirstClearDrop": [
			{
				"GoodsType": "GoodsType_Crystal",
				"Id": 0,
				"Count": 10
			},
			{
				"GoodsType": "GoodsType_Item",
				"Id": 3544,
				"Count": 9
			}
		],
		"RandomDrop": 10100,
		"TeamDrop": 0,
		"DropDisplayCount": 2,
		"Score": 0,
		"Strategy": ""
	}
]