[
	{
		"ID": 1,
		"Items": [
			2801,
			803,
			5201,
			5101
		]
	},
	{
		"ID": 2,
		"Items": [
			5301,
			5401,
			2801,
			803
		]
	},
	{
		"ID": 3,
		"Items": [
			5501,
			5601,
			5301,
			5401
		]
	},
	{
		"ID": 4,
		"Items": [
			7001,
			1302,
			5501,
			5601
		]
	},
	{
		"ID": 5,
		"Items": [
			2502,
			1401,
			2601,
			2902,
			1502,
			603
		]
	},
	{
		"ID": 6,
		"Items": [
			7201,
			1002,
			7001,
			1302
		]
	},
	{
		"ID": 7,
		"Items": [
			902,
			1401,
			2601,
			2902,
			1502,
			603
		]
	},
	{
		"ID": 8,
		"Items": [
			6001,
			6101,
			602,
			1202,
			5201,
			5101
		]
	},
	{
		"ID": 9,
		"Items": [
			5701,
			1204,
			2801,
			803,
			5301,
			5401
		]
	},
	{
		"ID": 10,
		"Items": [
			5402,
			1401,
			2601,
			2902,
			1502,
			603
		]
	},
	{
		"ID": 11,
		"Items": [
			7901,
			8001,
			5501,
			5601,
			6001,
			6101
		]
	},
	{
		"ID": 12,
		"Items": [
			6601,
			8801,
			7901,
			8001,
			5701,
			1204
		]
	},
	{
		"ID": 13,
		"Items": [
			8901,
			6701,
			6601,
			8801,
			1202,
			602
		]
	},
	{
		"ID": 14,
		"Items": [
			8201,
			8401,
			8901,
			6701,
			6601,
			8801
		]
	},
	{
		"ID": 15,
		"Items": [
			6301,
			8701,
			5201,
			5101,
			2801,
			803
		]
	},
	{
		"ID": 16,
		"Items": [
			9201,
			9101,
			6301,
			8701,
			5301,
			5401
		]
	},
	{
		"ID": 17,
		"Items": [
			9301,
			6501,
			9201,
			9101,
			5501,
			5601
		]
	},
	{
		"ID": 18,
		"Items": [
			9401,
			6401,
			9301,
			6501,
			6001,
			6101
		]
	},
	{
		"ID": 19,
		"Items": [
			7701,
			7501,
			9401,
			6401,
			5701,
			1204
		]
	},
	{
		"ID": 20,
		"Items": [
			5901,
			1403,
			5402,
			5502,
			5302,
			2502
		]
	},
	{
		"ID": 21,
		"Items": [
			11001,
			11101,
			6601,
			8801,
			6701,
			8901
		]
	},
	{
		"ID": 22,
		"Items": [
			10301,
			9701,
			11001,
			11101,
			6301,
			8701
		]
	}
]