[
	{
		"ID": 1,
		"Text": "胡.*耀.*邦"
	},
	{
		"ID": 2,
		"Text": "胡.*耀.*邦"
	},
	{
		"ID": 3,
		"Text": "温.*家.*宝"
	},
	{
		"ID": 4,
		"Text": "瘟.*家.*宝"
	},
	{
		"ID": 5,
		"Text": "刘.*伯.*承"
	},
	{
		"ID": 6,
		"Text": "曹.*刚.*川"
	},
	{
		"ID": 7,
		"Text": "李.*长.*春"
	},
	{
		"ID": 8,
		"Text": "离.*长.*春"
	},
	{
		"ID": 9,
		"Text": "卢.*伟.*聪"
	},
	{
		"ID": 10,
		"Text": "习.*大.*大"
	},
	{
		"ID": 11,
		"Text": "毛.*泽.*东"
	},
	{
		"ID": 12,
		"Text": "刘.*延.*东"
	},
	{
		"ID": 13,
		"Text": "华.*国.*锋"
	},
	{
		"ID": 14,
		"Text": "吴.*邦.*国"
	},
	{
		"ID": 15,
		"Text": "王.*兆.*国"
	},
	{
		"ID": 16,
		"Text": "王.*兆.*国"
	},
	{
		"ID": 17,
		"Text": "吴.*帮.*国"
	},
	{
		"ID": 18,
		"Text": "无.*帮.*国"
	},
	{
		"ID": 19,
		"Text": "无.*邦.*国"
	},
	{
		"ID": 20,
		"Text": "无.*帮.*过"
	},
	{
		"ID": 21,
		"Text": "尉.*健.*行"
	},
	{
		"ID": 22,
		"Text": "曾.*庆.*红"
	},
	{
		"ID": 23,
		"Text": "彭.*德.*怀"
	},
	{
		"ID": 24,
		"Text": "李.*瑞.*环"
	},
	{
		"ID": 25,
		"Text": "罗.*荣.*桓"
	},
	{
		"ID": 26,
		"Text": "朱.*镕.*基"
	},
	{
		"ID": 27,
		"Text": "张.*德.*江"
	},
	{
		"ID": 28,
		"Text": "周.*恩.*来"
	},
	{
		"ID": 29,
		"Text": "陈.*至.*立"
	},
	{
		"ID": 30,
		"Text": "张.*高.*丽"
	},
	{
		"ID": 31,
		"Text": "贾.*庆.*林"
	},
	{
		"ID": 32,
		"Text": "假.*庆.*林"
	},
	{
		"ID": 33,
		"Text": "甲.*庆.*林"
	},
	{
		"ID": 34,
		"Text": "假.*青.*林"
	},
	{
		"ID": 35,
		"Text": "江.*泽.*民"
	},
	{
		"ID": 36,
		"Text": "华.*建.*敏"
	},
	{
		"ID": 37,
		"Text": "刁.*进.*平"
	},
	{
		"ID": 38,
		"Text": "邓.*小.*平"
	},
	{
		"ID": 39,
		"Text": "习.*近.*平"
	},
	{
		"ID": 40,
		"Text": "习.*远.*平"
	},
	{
		"ID": 41,
		"Text": "袭.*近.*平"
	},
	{
		"ID": 42,
		"Text": "刁.*进.*评"
	},
	{
		"ID": 43,
		"Text": "习.*尽.*评"
	},
	{
		"ID": 44,
		"Text": "刘.*少.*奇"
	},
	{
		"ID": 45,
		"Text": "徐.*向.*前"
	},
	{
		"ID": 46,
		"Text": "和.*锅.*枪"
	},
	{
		"ID": 47,
		"Text": "贺.*国.*强"
	},
	{
		"ID": 48,
		"Text": "李.*克.*强"
	},
	{
		"ID": 49,
		"Text": "邓.*炳.*强"
	},
	{
		"ID": 50,
		"Text": "李.*磕.*墙"
	},
	{
		"ID": 51,
		"Text": "贺.*过.*墙"
	},
	{
		"ID": 52,
		"Text": "李.*岚.*清"
	},
	{
		"ID": 53,
		"Text": "曾.*荫.*权"
	},
	{
		"ID": 54,
		"Text": "王.*乐.*泉"
	},
	{
		"ID": 55,
		"Text": "王.*乐.*泉"
	},
	{
		"ID": 56,
		"Text": "孙.*中.*山"
	},
	{
		"ID": 57,
		"Text": "刘.*云.*山"
	},
	{
		"ID": 58,
		"Text": "王.*岐.*山"
	},
	{
		"ID": 59,
		"Text": "俞.*正.*声"
	},
	{
		"ID": 60,
		"Text": "胡.*锦.*涛"
	},
	{
		"ID": 61,
		"Text": "胡.*主.*席"
	},
	{
		"ID": 62,
		"Text": "习.*主.*席"
	},
	{
		"ID": 63,
		"Text": "毛.*主.*席"
	},
	{
		"ID": 64,
		"Text": "孙.*逸.*仙"
	},
	{
		"ID": 65,
		"Text": "郭.*伯.*雄"
	},
	{
		"ID": 66,
		"Text": "陈.*独.*秀"
	},
	{
		"ID": 67,
		"Text": "唐.*家.*璇"
	},
	{
		"ID": 68,
		"Text": "曾.*培.*炎"
	},
	{
		"ID": 69,
		"Text": "何.*君.*尧"
	},
	{
		"ID": 70,
		"Text": "叶.*剑.*英"
	},
	{
		"ID": 71,
		"Text": "回.*良.*玉"
	},
	{
		"ID": 72,
		"Text": "彭.*丽.*媛"
	},
	{
		"ID": 73,
		"Text": "李.*大.*钊"
	},
	{
		"ID": 74,
		"Text": "聂.*荣.*臻"
	},
	{
		"ID": 75,
		"Text": "吴.*官.*正"
	},
	{
		"ID": 76,
		"Text": "朱.*德"
	},
	{
		"ID": 77,
		"Text": "林.*彪"
	},
	{
		"ID": 78,
		"Text": "陈.*毅"
	},
	{
		"ID": 79,
		"Text": "贺.*龙"
	},
	{
		"ID": 80,
		"Text": "孙.*文"
	},
	{
		"ID": 81,
		"Text": "陈.*云"
	},
	{
		"ID": 82,
		"Text": "李.*鹏"
	},
	{
		"ID": 83,
		"Text": "罗.*干"
	},
	{
		"ID": 84,
		"Text": "黄.*菊"
	},
	{
		"ID": 85,
		"Text": "吴.*仪"
	},
	{
		"ID": 86,
		"Text": "王.*刚"
	},
	{
		"ID": 87,
		"Text": "刘.*淇"
	}
]