[
	{
		"ID": 101,
		"ExpressionIconPath": "UI/Mood_ABS/Mood030.png",
		"Group": 1,
		"ExpressionPurposeType": "ExpressionPurposeType_Combat"
	},
	{
		"ID": 102,
		"ExpressionIconPath": "UI/Mood_ABS/Mood005.png",
		"Group": 1,
		"ExpressionPurposeType": "ExpressionPurposeType_Combat"
	},
	{
		"ID": 103,
		"ExpressionIconPath": "UI/Mood_ABS/Mood042.png",
		"Group": 1,
		"ExpressionPurposeType": "ExpressionPurposeType_Combat"
	},
	{
		"ID": 104,
		"ExpressionIconPath": "UI/Mood_ABS/Mood043.png",
		"Group": 1,
		"ExpressionPurposeType": "ExpressionPurposeType_Combat"
	},
	{
		"ID": 105,
		"ExpressionIconPath": "UI/Mood_ABS/Mood044.png",
		"Group": 1,
		"ExpressionPurposeType": "ExpressionPurposeType_Combat"
	},
	{
		"ID": 106,
		"ExpressionIconPath": "UI/Mood_ABS/Mood045.png",
		"Group": 1,
		"ExpressionPurposeType": "ExpressionPurposeType_Combat"
	},
	{
		"ID": 107,
		"ExpressionIconPath": "UI/Mood_ABS/Mood046.png",
		"Group": 1,
		"ExpressionPurposeType": "ExpressionPurposeType_Combat"
	},
	{
		"ID": 108,
		"ExpressionIconPath": "UI/Mood_ABS/Mood047.png",
		"Group": 1,
		"ExpressionPurposeType": "ExpressionPurposeType_Combat"
	},
	{
		"ID": 109,
		"ExpressionIconPath": "UI/Mood_ABS/Mood048.png",
		"Group": 1,
		"ExpressionPurposeType": "ExpressionPurposeType_Combat"
	},
	{
		"ID": 110,
		"ExpressionIconPath": "UI/Mood_ABS/Mood026.png",
		"Group": 1,
		"ExpressionPurposeType": "ExpressionPurposeType_Combat"
	},
	{
		"ID": 111,
		"ExpressionIconPath": "UI/Mood_ABS/Mood049.png",
		"Group": 1,
		"ExpressionPurposeType": "ExpressionPurposeType_Combat"
	},
	{
		"ID": 112,
		"ExpressionIconPath": "UI/Mood_ABS/Mood029.png",
		"Group": 1,
		"ExpressionPurposeType": "ExpressionPurposeType_Combat"
	},
	{
		"ID": 113,
		"ExpressionIconPath": "UI/Mood_ABS/Mood028.png",
		"Group": 1,
		"ExpressionPurposeType": "ExpressionPurposeType_Combat"
	},
	{
		"ID": 114,
		"ExpressionIconPath": "UI/Mood_ABS/Mood011.png",
		"Group": 1,
		"ExpressionPurposeType": "ExpressionPurposeType_Combat"
	},
	{
		"ID": 115,
		"ExpressionIconPath": "UI/Mood_ABS/Mood033.png",
		"Group": 1,
		"ExpressionPurposeType": "ExpressionPurposeType_Combat"
	},
	{
		"ID": 116,
		"ExpressionIconPath": "UI/Mood_ABS/Mood032.png",
		"Group": 1,
		"ExpressionPurposeType": "ExpressionPurposeType_Combat"
	},
	{
		"ID": 201,
		"ExpressionIconPath": "UI/Mood_ABS/Mood005.png",
		"Group": 1,
		"ExpressionPurposeType": "ExpressionPurposeType_Chat"
	},
	{
		"ID": 202,
		"ExpressionIconPath": "UI/Mood_ABS/Mood010.png",
		"Group": 1,
		"ExpressionPurposeType": "ExpressionPurposeType_Chat"
	},
	{
		"ID": 203,
		"ExpressionIconPath": "UI/Mood_ABS/Mood026.png",
		"Group": 1,
		"ExpressionPurposeType": "ExpressionPurposeType_Chat"
	},
	{
		"ID": 204,
		"ExpressionIconPath": "UI/Mood_ABS/Mood028.png",
		"Group": 1,
		"ExpressionPurposeType": "ExpressionPurposeType_Chat"
	},
	{
		"ID": 205,
		"ExpressionIconPath": "UI/Mood_ABS/Mood027.png",
		"Group": 1,
		"ExpressionPurposeType": "ExpressionPurposeType_Chat"
	},
	{
		"ID": 206,
		"ExpressionIconPath": "UI/Mood_ABS/Mood033.png",
		"Group": 1,
		"ExpressionPurposeType": "ExpressionPurposeType_Chat"
	},
	{
		"ID": 207,
		"ExpressionIconPath": "UI/Mood_ABS/Mood035.png",
		"Group": 1,
		"ExpressionPurposeType": "ExpressionPurposeType_Chat"
	},
	{
		"ID": 208,
		"ExpressionIconPath": "UI/Mood_ABS/Mood037.png",
		"Group": 1,
		"ExpressionPurposeType": "ExpressionPurposeType_Chat"
	},
	{
		"ID": 209,
		"ExpressionIconPath": "UI/Mood_ABS/Mood018.png",
		"Group": 1,
		"ExpressionPurposeType": "ExpressionPurposeType_Chat"
	},
	{
		"ID": 210,
		"ExpressionIconPath": "UI/Mood_ABS/Mood009.png",
		"Group": 1,
		"ExpressionPurposeType": "ExpressionPurposeType_Chat"
	},
	{
		"ID": 211,
		"ExpressionIconPath": "UI/Mood_ABS/Mood001.png",
		"Group": 1,
		"ExpressionPurposeType": "ExpressionPurposeType_Chat"
	},
	{
		"ID": 212,
		"ExpressionIconPath": "UI/Mood_ABS/Mood012.png",
		"Group": 1,
		"ExpressionPurposeType": "ExpressionPurposeType_Chat"
	},
	{
		"ID": 213,
		"ExpressionIconPath": "UI/Mood_ABS/Mood014.png",
		"Group": 1,
		"ExpressionPurposeType": "ExpressionPurposeType_Chat"
	},
	{
		"ID": 214,
		"ExpressionIconPath": "UI/Mood_ABS/Mood007.png",
		"Group": 1,
		"ExpressionPurposeType": "ExpressionPurposeType_Chat"
	},
	{
		"ID": 215,
		"ExpressionIconPath": "UI/Mood_ABS/Mood004.png",
		"Group": 1,
		"ExpressionPurposeType": "ExpressionPurposeType_Chat"
	},
	{
		"ID": 216,
		"ExpressionIconPath": "UI/Mood_ABS/Mood015.png",
		"Group": 1,
		"ExpressionPurposeType": "ExpressionPurposeType_Chat"
	},
	{
		"ID": 217,
		"ExpressionIconPath": "UI/Mood_ABS/Mood020.png",
		"Group": 1,
		"ExpressionPurposeType": "ExpressionPurposeType_Chat"
	},
	{
		"ID": 218,
		"ExpressionIconPath": "UI/Mood_ABS/Mood017.png",
		"Group": 1,
		"ExpressionPurposeType": "ExpressionPurposeType_Chat"
	},
	{
		"ID": 219,
		"ExpressionIconPath": "UI/Mood_ABS/Mood023.png",
		"Group": 1,
		"ExpressionPurposeType": "ExpressionPurposeType_Chat"
	},
	{
		"ID": 220,
		"ExpressionIconPath": "UI/Mood_ABS/Mood039.png",
		"Group": 1,
		"ExpressionPurposeType": "ExpressionPurposeType_Chat"
	},
	{
		"ID": 221,
		"ExpressionIconPath": "UI/Mood_ABS/Mood013.png",
		"Group": 1,
		"ExpressionPurposeType": "ExpressionPurposeType_Chat"
	},
	{
		"ID": 222,
		"ExpressionIconPath": "UI/Mood_ABS/Mood003.png",
		"Group": 1,
		"ExpressionPurposeType": "ExpressionPurposeType_Chat"
	},
	{
		"ID": 223,
		"ExpressionIconPath": "UI/Mood_ABS/Mood022.png",
		"Group": 1,
		"ExpressionPurposeType": "ExpressionPurposeType_Chat"
	},
	{
		"ID": 224,
		"ExpressionIconPath": "UI/Mood_ABS/Mood021.png",
		"Group": 1,
		"ExpressionPurposeType": "ExpressionPurposeType_Chat"
	},
	{
		"ID": 225,
		"ExpressionIconPath": "UI/Mood_ABS/Mood036.png",
		"Group": 1,
		"ExpressionPurposeType": "ExpressionPurposeType_Chat"
	},
	{
		"ID": 226,
		"ExpressionIconPath": "UI/Mood_ABS/Mood031.png",
		"Group": 1,
		"ExpressionPurposeType": "ExpressionPurposeType_Chat"
	},
	{
		"ID": 227,
		"ExpressionIconPath": "UI/Mood_ABS/Mood019.png",
		"Group": 1,
		"ExpressionPurposeType": "ExpressionPurposeType_Chat"
	},
	{
		"ID": 228,
		"ExpressionIconPath": "UI/Mood_ABS/Mood041.png",
		"Group": 1,
		"ExpressionPurposeType": "ExpressionPurposeType_Chat"
	},
	{
		"ID": 229,
		"ExpressionIconPath": "UI/Mood_ABS/Mood016.png",
		"Group": 1,
		"ExpressionPurposeType": "ExpressionPurposeType_Chat"
	},
	{
		"ID": 230,
		"ExpressionIconPath": "UI/Mood_ABS/Mood006.png",
		"Group": 1,
		"ExpressionPurposeType": "ExpressionPurposeType_Chat"
	},
	{
		"ID": 231,
		"ExpressionIconPath": "UI/Mood_ABS/Mood024.png",
		"Group": 1,
		"ExpressionPurposeType": "ExpressionPurposeType_Chat"
	},
	{
		"ID": 232,
		"ExpressionIconPath": "UI/Mood_ABS/Mood025.png",
		"Group": 1,
		"ExpressionPurposeType": "ExpressionPurposeType_Chat"
	},
	{
		"ID": 233,
		"ExpressionIconPath": "UI/Mood_ABS/Mood038.png",
		"Group": 1,
		"ExpressionPurposeType": "ExpressionPurposeType_Chat"
	}
]