[
	{
		"ID": 1,
		"Name": "圣剑精灵用血红火焰",
		"Desc": "",
		"Damage": 20,
		"Time": 999,
		"ReplacePriority": 900,
		"Fx": "FX/Common_ABS/CommonFX/common_burnning_6.prefab",
		"EnemyFx": ""
	},
	{
		"ID": 2,
		"Name": "火焰",
		"Desc": "",
		"Damage": 30,
		"Time": 999,
		"ReplacePriority": 900,
		"Fx": "FX/Common_ABS/CommonFX/common_burnning_6.prefab",
		"EnemyFx": ""
	},
	{
		"ID": 3,
		"Name": "火焰",
		"Desc": "",
		"Damage": 40,
		"Time": 999,
		"ReplacePriority": 900,
		"Fx": "FX/Common_ABS/CommonFX/common_burnning_6.prefab",
		"EnemyFx": ""
	},
	{
		"ID": 4,
		"Name": "开门点",
		"Desc": "",
		"Damage": 0,
		"Time": 999,
		"ReplacePriority": 900,
		"Fx": "FX/Common_ABS/CommonFX/Common_GreenMark/Common_GreenMark.prefab",
		"EnemyFx": ""
	},
	{
		"ID": 5,
		"Name": "血红色法阵预警",
		"Desc": "",
		"Damage": 0,
		"Time": 999,
		"ReplacePriority": 900,
		"Fx": "FX/Common_ABS/CommonFX/common_BloodMark.prefab",
		"EnemyFx": ""
	},
	{
		"ID": 6,
		"Name": "紫色法阵预警",
		"Desc": "",
		"Damage": 0,
		"Time": 999,
		"ReplacePriority": 900,
		"Fx": "FX/Common_ABS/CommonFX/Common_TimeRift/Common_TimeRift.prefab",
		"EnemyFx": ""
	},
	{
		"ID": 7,
		"Name": "黑雾",
		"Desc": "",
		"Damage": 0,
		"Time": 999,
		"ReplacePriority": 900,
		"Fx": "FX/Common_ABS/CommonFX/common_darkfog.prefab",
		"EnemyFx": ""
	},
	{
		"ID": 8,
		"Name": "绿格子",
		"Desc": "",
		"Damage": 0,
		"Time": 999,
		"ReplacePriority": 900,
		"Fx": "FX/Common_ABS/CommonFX/Common_GreenMark/Common_GreenMark.prefab",
		"EnemyFx": ""
	},
	{
		"ID": 9,
		"Name": "旋涡",
		"Desc": "",
		"Damage": 0,
		"Time": 999,
		"ReplacePriority": 900,
		"Fx": "FX/Common_ABS/CommonFX/Common_TimeRift/Common_TimeRift_blue.prefab",
		"EnemyFx": ""
	},
	{
		"ID": 10,
		"Name": "<size=30><color=#FFA400FF>毒雾</color></size>",
		"Desc": "会对身处其中的单位造成致命的伤害",
		"Damage": 100,
		"Time": 999,
		"ReplacePriority": 999,
		"Fx": "FX/Common_ABS/CommonFX/Common_DeadlyPoison/Common_DeadlyPoison.prefab",
		"EnemyFx": ""
	},
	{
		"ID": 11,
		"Name": "<size=30><color=#FFA400FF>火焰</color></size>",
		"Desc": "会对身处其中的单位造成最大生命50%的伤害",
		"Damage": 50,
		"Time": 999,
		"ReplacePriority": 900,
		"Fx": "FX/Common_ABS/CommonFX/common_burnning_4.prefab",
		"EnemyFx": ""
	},
	{
		"ID": 12,
		"Name": "混沌能量的黑焰",
		"Desc": "",
		"Damage": 20,
		"Time": 999,
		"ReplacePriority": 900,
		"Fx": "FX/Common_ABS/CommonFX/common_burnning_5.prefab",
		"EnemyFx": ""
	},
	{
		"ID": 13,
		"Name": "传送门",
		"Desc": "打开的传送门",
		"Damage": 0,
		"Time": 999,
		"ReplacePriority": 900,
		"Fx": "FX/Common_ABS/CommonFX/common_timerift_appear.prefab",
		"EnemyFx": ""
	},
	{
		"ID": 14,
		"Name": "传送门",
		"Desc": "关上的传送门",
		"Damage": 0,
		"Time": 999,
		"ReplacePriority": 900,
		"Fx": "FX/Common_ABS/CommonFX/common_timerift_disappear.prefab",
		"EnemyFx": ""
	},
	{
		"ID": 15,
		"Name": "补给点",
		"Desc": "可在此获取特殊弹药来补给炮手。",
		"Damage": 0,
		"Time": 999,
		"ReplacePriority": 900,
		"Fx": "FX/Common_ABS/CommonFX/Common_GreenMark/Common_GreenMark.prefab",
		"EnemyFx": ""
	},
	{
		"ID": 16,
		"Name": "弹仓",
		"Desc": "将补给弹药放置在此，可触发炮手的特殊攻击。",
		"Damage": 0,
		"Time": 999,
		"ReplacePriority": 900,
		"Fx": "FX/Common_ABS/CommonFX/Common_GreenMark/Common_GreenMark.prefab",
		"EnemyFx": ""
	},
	{
		"ID": 17,
		"Name": "破漏的船舱",
		"Desc": "甲板上出现了漏洞\n身处其中的单位将无法移动。",
		"Damage": 0,
		"Time": 999,
		"ReplacePriority": 900,
		"Fx": "FX/Common_ABS/CommonFX/Common_TimeRift/Common_TimeRift_blue.prefab",
		"EnemyFx": ""
	},
	{
		"ID": 18,
		"Name": "魔气泄露",
		"Desc": "散发出了邪魔的气息，似乎有什么东西即将到来…",
		"Damage": 0,
		"Time": 999,
		"ReplacePriority": 900,
		"Fx": "FX/Common_ABS/CommonFX/common_burnning_5.prefab",
		"EnemyFx": ""
	},
	{
		"ID": 19,
		"Name": "花朵",
		"Desc": "献上的花束，饱含思念",
		"Damage": 0,
		"Time": 999,
		"ReplacePriority": 900,
		"Fx": "BattleMap/BattleMapExploreItem_ABS/Flower/FlowerUIPrefab.prefab",
		"EnemyFx": ""
	},
	{
		"ID": 20,
		"Name": "劣质水晶能量",
		"Desc": "从水晶球里散逸出的奇怪能量",
		"Damage": 0,
		"Time": 999,
		"ReplacePriority": 900,
		"Fx": "FX/Common_ABS/CommonFX/Common_DeadlyPoison/Common_DeadlyPoison.prefab",
		"EnemyFx": ""
	},
	{
		"ID": 21,
		"Name": "黑焰",
		"Desc": "被魔女召唤出的致命能量所覆盖着",
		"Damage": 60,
		"Time": 999,
		"ReplacePriority": 900,
		"Fx": "FX/Common_ABS/CommonFX/common_burnning_5.prefab",
		"EnemyFx": ""
	},
	{
		"ID": 22,
		"Name": "封印",
		"Desc": "被封印的控制台，需要克利姆索王族的血才能解开禁制",
		"Damage": 0,
		"Time": 999,
		"ReplacePriority": 900,
		"Fx": "FX/Common_ABS/CommonFX/Common_TimeRift/Common_lightbeam.prefab",
		"EnemyFx": ""
	},
	{
		"ID": 23,
		"Name": "王族封印结界",
		"Desc": "王族封印结界",
		"Damage": 0,
		"Time": 999,
		"ReplacePriority": 900,
		"Fx": "FX/Skill_ABS/Boss_DarkDragon/Skill_DarkDragon_standby.prefab",
		"EnemyFx": ""
	},
	{
		"ID": 24,
		"Name": "真爱之石",
		"Desc": "与真爱之石相邻可以移除身上的[心碎]状态",
		"Damage": 0,
		"Time": 999,
		"ReplacePriority": 900,
		"Fx": "",
		"EnemyFx": ""
	},
	{
		"ID": 101,
		"Name": "提尔之手I（未激活）",
		"Desc": "移动力+2，主动攻击进入战斗时，自身造成的固定伤害提升600%",
		"Damage": 0,
		"Time": 999,
		"ReplacePriority": 900,
		"Fx": "FX/Skill_ABS/Boss_Fenrir/Buff_Fenrir1_1.prefab",
		"EnemyFx": ""
	},
	{
		"ID": 102,
		"Name": "宙斯之眼I（未激活）",
		"Desc": "移动力+2，造成的范围伤害提升1200%",
		"Damage": 0,
		"Time": 999,
		"ReplacePriority": 900,
		"Fx": "FX/Skill_ABS/Boss_Fenrir/Buff_Fenrir2_1.prefab",
		"EnemyFx": ""
	},
	{
		"ID": 103,
		"Name": "维达之足I（未激活）",
		"Desc": "移动力+2，魔法伤害提升40%",
		"Damage": 0,
		"Time": 999,
		"ReplacePriority": 900,
		"Fx": "FX/Skill_ABS/Boss_Fenrir/Buff_Fenrir3_1.prefab",
		"EnemyFx": ""
	},
	{
		"ID": 104,
		"Name": "索尔之力I（未激活）",
		"Desc": "移动力+2，物理伤害提升40%",
		"Damage": 0,
		"Time": 999,
		"ReplacePriority": 900,
		"Fx": "FX/Skill_ABS/Boss_Fenrir/Buff_Fenrir4_1.prefab",
		"EnemyFx": ""
	},
	{
		"ID": 105,
		"Name": "提尔之手I（可互动）",
		"Desc": "移动力+2，主动攻击进入战斗时，自身造成的固定伤害提升600%",
		"Damage": 0,
		"Time": 999,
		"ReplacePriority": 900,
		"Fx": "FX/Skill_ABS/Boss_Fenrir/Buff_Fenrir1_2.prefab",
		"EnemyFx": ""
	},
	{
		"ID": 106,
		"Name": "宙斯之眼I（可互动）",
		"Desc": "移动力+2，造成的范围伤害提升1200%",
		"Damage": 0,
		"Time": 999,
		"ReplacePriority": 900,
		"Fx": "FX/Skill_ABS/Boss_Fenrir/Buff_Fenrir2_2.prefab",
		"EnemyFx": ""
	},
	{
		"ID": 107,
		"Name": "维达之足I（可互动）",
		"Desc": "移动力+2，魔法伤害提升40%",
		"Damage": 0,
		"Time": 999,
		"ReplacePriority": 900,
		"Fx": "FX/Skill_ABS/Boss_Fenrir/Buff_Fenrir3_2.prefab",
		"EnemyFx": ""
	},
	{
		"ID": 108,
		"Name": "索尔之力I（可互动）",
		"Desc": "移动力+2，物理伤害提升40%",
		"Damage": 0,
		"Time": 999,
		"ReplacePriority": 900,
		"Fx": "FX/Skill_ABS/Boss_Fenrir/Buff_Fenrir4_2.prefab",
		"EnemyFx": ""
	},
	{
		"ID": 109,
		"Name": "提尔之手I",
		"Desc": "移动力+2，主动攻击进入战斗时，自身造成的固定伤害提升600%",
		"Damage": 0,
		"Time": 999,
		"ReplacePriority": 900,
		"Fx": "FX/Skill_ABS/Boss_Fenrir/Buff_Fenrir1_3.prefab",
		"EnemyFx": ""
	},
	{
		"ID": 110,
		"Name": "宙斯之眼I",
		"Desc": "移动力+2，造成的范围伤害提升1200%",
		"Damage": 0,
		"Time": 999,
		"ReplacePriority": 900,
		"Fx": "FX/Skill_ABS/Boss_Fenrir/Buff_Fenrir2_3.prefab",
		"EnemyFx": ""
	},
	{
		"ID": 111,
		"Name": "维达之足I",
		"Desc": "移动力+2，魔法伤害提升40%",
		"Damage": 0,
		"Time": 999,
		"ReplacePriority": 900,
		"Fx": "FX/Skill_ABS/Boss_Fenrir/Buff_Fenrir3_3.prefab",
		"EnemyFx": ""
	},
	{
		"ID": 112,
		"Name": "索尔之力I",
		"Desc": "移动力+2，物理伤害提升40%",
		"Damage": 0,
		"Time": 999,
		"ReplacePriority": 900,
		"Fx": "FX/Skill_ABS/Boss_Fenrir/Buff_Fenrir4_3.prefab",
		"EnemyFx": ""
	},
	{
		"ID": 113,
		"Name": "提尔之手II（未激活）",
		"Desc": "移动力+2，主动攻击进入战斗时，造成的固定伤害提升800%，但会引起狼灵的注意。（不可驱散）",
		"Damage": 0,
		"Time": 999,
		"ReplacePriority": 900,
		"Fx": "FX/Skill_ABS/Boss_Fenrir/Buff_Fenrir1_1_1.prefab",
		"EnemyFx": ""
	},
	{
		"ID": 114,
		"Name": "宙斯之眼II（未激活）",
		"Desc": "移动力+2，造成的范围伤害提升1500%，但会引起狼灵的注意。（不可驱散）",
		"Damage": 0,
		"Time": 999,
		"ReplacePriority": 900,
		"Fx": "FX/Skill_ABS/Boss_Fenrir/Buff_Fenrir2_1_1.prefab",
		"EnemyFx": ""
	},
	{
		"ID": 115,
		"Name": "维达之足II（未激活）",
		"Desc": "移动力+2，魔法伤害提升70%，但自身受到魔法伤害增加30%，全队受到魔法伤害增加20%。（不可驱散）",
		"Damage": 0,
		"Time": 999,
		"ReplacePriority": 900,
		"Fx": "FX/Skill_ABS/Boss_Fenrir/Buff_Fenrir3_1_1.prefab",
		"EnemyFx": ""
	},
	{
		"ID": 116,
		"Name": "索尔之力II（未激活）",
		"Desc": "移动力+2，物理伤害提升70%，自身受到物理伤害增加30%，全队受到物理伤害增加20%。（不可驱散）",
		"Damage": 0,
		"Time": 999,
		"ReplacePriority": 900,
		"Fx": "FX/Skill_ABS/Boss_Fenrir/Buff_Fenrir4_1_1.prefab",
		"EnemyFx": ""
	},
	{
		"ID": 117,
		"Name": "提尔之手II（可互动）",
		"Desc": "移动力+2，主动攻击进入战斗时，造成的固定伤害提升800%，但会引起狼灵的注意。（不可驱散）",
		"Damage": 0,
		"Time": 999,
		"ReplacePriority": 900,
		"Fx": "FX/Skill_ABS/Boss_Fenrir/Buff_Fenrir1_2_1.prefab",
		"EnemyFx": ""
	},
	{
		"ID": 118,
		"Name": "宙斯之眼II（可互动）",
		"Desc": "移动力+2，造成的范围伤害提升1500%，但会引起狼灵的注意。（不可驱散）",
		"Damage": 0,
		"Time": 999,
		"ReplacePriority": 900,
		"Fx": "FX/Skill_ABS/Boss_Fenrir/Buff_Fenrir2_2_1.prefab",
		"EnemyFx": ""
	},
	{
		"ID": 119,
		"Name": "维达之足II（可互动）",
		"Desc": "移动力+2，魔法伤害提升70%，但自身受到魔法伤害增加30%，全队受到魔法伤害增加20%。（不可驱散）",
		"Damage": 0,
		"Time": 999,
		"ReplacePriority": 900,
		"Fx": "FX/Skill_ABS/Boss_Fenrir/Buff_Fenrir3_2_1.prefab",
		"EnemyFx": ""
	},
	{
		"ID": 120,
		"Name": "索尔之力II（可互动）",
		"Desc": "移动力+2，物理伤害提升70%，自身受到物理伤害增加30%，全队受到物理伤害增加20%。（不可驱散）",
		"Damage": 0,
		"Time": 999,
		"ReplacePriority": 900,
		"Fx": "FX/Skill_ABS/Boss_Fenrir/Buff_Fenrir4_2_1.prefab",
		"EnemyFx": ""
	},
	{
		"ID": 121,
		"Name": "提尔之手II",
		"Desc": "移动力+2，主动攻击进入战斗时，造成的固定伤害提升800%，但会引起狼灵的注意。（不可驱散）",
		"Damage": 0,
		"Time": 999,
		"ReplacePriority": 900,
		"Fx": "FX/Skill_ABS/Boss_Fenrir/Buff_Fenrir1_3_1.prefab",
		"EnemyFx": ""
	},
	{
		"ID": 122,
		"Name": "宙斯之眼II",
		"Desc": "移动力+2，造成的范围伤害提升1500%，但会引起狼灵的注意。（不可驱散）",
		"Damage": 0,
		"Time": 999,
		"ReplacePriority": 900,
		"Fx": "FX/Skill_ABS/Boss_Fenrir/Buff_Fenrir2_3_1.prefab",
		"EnemyFx": ""
	},
	{
		"ID": 123,
		"Name": "维达之足II",
		"Desc": "移动力+2，魔法伤害提升70%，但自身受到魔法伤害增加30%，全队受到魔法伤害增加20%。（不可驱散）",
		"Damage": 0,
		"Time": 999,
		"ReplacePriority": 900,
		"Fx": "FX/Skill_ABS/Boss_Fenrir/Buff_Fenrir3_3_1.prefab",
		"EnemyFx": ""
	},
	{
		"ID": 124,
		"Name": "索尔之力II",
		"Desc": "移动力+2，物理伤害提升70%，自身受到物理伤害增加30%，全队受到物理伤害增加20%。（不可驱散）",
		"Damage": 0,
		"Time": 999,
		"ReplacePriority": 900,
		"Fx": "FX/Skill_ABS/Boss_Fenrir/Buff_Fenrir4_3_1.prefab",
		"EnemyFx": ""
	},
	{
		"ID": 125,
		"Name": "墓碑",
		"Desc": "墓碑",
		"Damage": 0,
		"Time": 999,
		"ReplacePriority": 900,
		"Fx": "BattleMap/BattleMapExploreItem_ABS/Tombstone/TombstoneUIPrefab.prefab",
		"EnemyFx": ""
	},
	{
		"ID": 126,
		"Name": "<size=30><color=#FFA400FF>邪王之火</color></size>",
		"Desc": "会对身处其中的单位造成极高的伤害。",
		"Damage": 75,
		"Time": 999,
		"ReplacePriority": 900,
		"Fx": "FX/Common_ABS/CommonFX/common_burnning_6.prefab",
		"EnemyFx": ""
	},
	{
		"ID": 127,
		"Name": "火焰",
		"Desc": "怨恨之炎熊熊燃烧，会对身处其中的单位造成致命的伤害",
		"Damage": 100,
		"Time": 999,
		"ReplacePriority": 900,
		"Fx": "FX/Common_ABS/CommonFX/common_burnning_4.prefab",
		"EnemyFx": ""
	},
	{
		"ID": 128,
		"Name": "涌泉",
		"Desc": "可以熄灭烈焰，但是也会因此干涸。（只能使用1次）",
		"Damage": 0,
		"Time": 999,
		"ReplacePriority": 900,
		"Fx": "FX/Common_ABS/CommonFX/Common_TimeRift/Common_TimeRift_blue.prefab",
		"EnemyFx": ""
	},
	{
		"ID": 129,
		"Name": "黑焰",
		"Desc": "只要进入就会死。（我方限定）",
		"Damage": 0,
		"Time": 999,
		"ReplacePriority": 900,
		"Fx": "FX/Common_ABS/CommonFX/common_burnning_5.prefab",
		"EnemyFx": ""
	},
	{
		"ID": 130,
		"Name": "治愈迷雾",
		"Desc": "",
		"Damage": -50,
		"Time": 999,
		"ReplacePriority": 900,
		"Fx": "FX/Common_ABS/CommonFX/Common_TimeRift/Common_TimeRift_blue.prefab",
		"EnemyFx": ""
	},
	{
		"ID": 131,
		"Name": "宝箱",
		"Desc": "",
		"Damage": 0,
		"Time": 999,
		"ReplacePriority": 900,
		"Fx": "BattleMap/BattleMapExploreItem_ABS/Chest/TreasureChestUIPrefab.prefab",
		"EnemyFx": ""
	},
	{
		"ID": 132,
		"Name": "古代法阵",
		"Desc": "看起来像是某种用于召唤的魔法阵。",
		"Damage": 0,
		"Time": 999,
		"ReplacePriority": 900,
		"Fx": "BattleMap/BattleMapExploreItem_ABS/Rune/RuneUIPrefab.prefab",
		"EnemyFx": ""
	},
	{
		"ID": 133,
		"Name": "邪神光球",
		"Desc": "",
		"Damage": 0,
		"Time": 999,
		"ReplacePriority": 900,
		"Fx": "FX/Common_ABS/CommonFX/Common_Devil/Common_Devil.prefab",
		"EnemyFx": ""
	},
	{
		"ID": 134,
		"Name": "引爆点",
		"Desc": "破坏者进入此处即会引爆所携带的炸药",
		"Damage": 0,
		"Time": 999,
		"ReplacePriority": 900,
		"Fx": "FX/Common_ABS/CommonFX/Common_GreenMark/Common_GreenMark.prefab",
		"EnemyFx": ""
	},
	{
		"ID": 135,
		"Name": "爆燃",
		"Desc": "被引爆后引发的熊熊大火",
		"Damage": 0,
		"Time": 999,
		"ReplacePriority": 900,
		"Fx": "FX/Common_ABS/CommonFX/common_burnning_4.prefab",
		"EnemyFx": ""
	},
	{
		"ID": 136,
		"Name": "<size=30><color=#FFA400FF>火焰</color></size>",
		"Desc": "会对身处其中的单位造成最大生命70%的伤害",
		"Damage": 70,
		"Time": 999,
		"ReplacePriority": 900,
		"Fx": "FX/Common_ABS/CommonFX/common_burnning_4.prefab",
		"EnemyFx": ""
	},
	{
		"ID": 137,
		"Name": "邪恶空间",
		"Desc": "邪恶的能量从此地涌出",
		"Damage": 0,
		"Time": 999,
		"ReplacePriority": 900,
		"Fx": "FX/Common_ABS/CommonFX/Common_Portal/Common_Portal.prefab",
		"EnemyFx": ""
	},
	{
		"ID": 138,
		"Name": "糖果",
		"Desc": "美味的糖果，蕴藏着奇妙的能量",
		"Damage": 0,
		"Time": 999,
		"ReplacePriority": 900,
		"Fx": "BattleMap/BattleMapExploreItem_ABS/Balloon/Balloon1UIPrefab.prefab",
		"EnemyFx": ""
	},
	{
		"ID": 139,
		"Name": "<size=30><color=#FFA400FF>毒雾</color></size>",
		"Desc": "会对身处其中的单位造成伤害",
		"Damage": 13,
		"Time": 999,
		"ReplacePriority": 900,
		"Fx": "FX/Common_ABS/CommonFX/Common_DeadlyPoison/Common_DeadlyPoison.prefab",
		"EnemyFx": ""
	},
	{
		"ID": 140,
		"Name": "撤离点",
		"Desc": "逃离小孩们的包围圈",
		"Damage": 0,
		"Time": 999,
		"ReplacePriority": 900,
		"Fx": "FX/Common_ABS/CommonFX/Common_GreenMark/Common_GreenMark.prefab",
		"EnemyFx": ""
	},
	{
		"ID": 141,
		"Name": "裂缝",
		"Desc": "( •̀ ω •́ )y，     这里有条缝。",
		"Damage": 0,
		"Time": 999,
		"ReplacePriority": 900,
		"Fx": "BattleMap/BattleMapExploreItem_ABS/Fissure/FissureUIPrefab.prefab",
		"EnemyFx": ""
	},
	{
		"ID": 142,
		"Name": "曼陀罗",
		"Desc": "( •̀ ω •́ )y，     这里有朵花。",
		"Damage": 0,
		"Time": 999,
		"ReplacePriority": 900,
		"Fx": "BattleMap/BattleMapExploreItem_ABS/Flower/FlowerUIPrefab.prefab",
		"EnemyFx": ""
	},
	{
		"ID": 143,
		"Name": "石碑",
		"Desc": "( •̀ ω •́ )y，     这里有块石碑。",
		"Damage": 0,
		"Time": 999,
		"ReplacePriority": 900,
		"Fx": "BattleMap/BattleMapExploreItem_ABS/Tablet/TabletUIPrefab.prefab",
		"EnemyFx": ""
	},
	{
		"ID": 144,
		"Name": "撤离点",
		"Desc": "救出男孩",
		"Damage": 0,
		"Time": 999,
		"ReplacePriority": 900,
		"Fx": "FX/Common_ABS/CommonFX/Common_GreenMark/Common_GreenMark.prefab",
		"EnemyFx": ""
	},
	{
		"ID": 145,
		"Name": "掉落",
		"Desc": "",
		"Damage": 0,
		"Time": 999,
		"ReplacePriority": 900,
		"Fx": "FX/Common_ABS/Weapon/ClergyHWeaponFX_Pfb.prefab",
		"EnemyFx": ""
	},
	{
		"ID": 146,
		"Name": "防御阵地",
		"Desc": "进入“防御阵地”的单位即可进入防御状态。回合结束时，未进入防御状态的单位会自行撤退。",
		"Damage": 0,
		"Time": 999,
		"ReplacePriority": 900,
		"Fx": "FX/Common_ABS/CommonFX/OnTouchMovePlaceInMan/OnTouchMovePlaceEmpty_G.prefab",
		"EnemyFx": ""
	},
	{
		"ID": 147,
		"Name": "传送门",
		"Desc": "怪物会从门里源源不断的涌出。",
		"Damage": 0,
		"Time": 999,
		"ReplacePriority": 900,
		"Fx": "FX/Common_ABS/CommonFX/Common_Portal/Common_Portal.prefab",
		"EnemyFx": ""
	},
	{
		"ID": 148,
		"Name": "终点",
		"Desc": "当3只怪物到达终点时，战斗失败。",
		"Damage": 0,
		"Time": 999,
		"ReplacePriority": 900,
		"Fx": "FX/Common_ABS/CommonFX/common_BloodMark.prefab",
		"EnemyFx": ""
	},
	{
		"ID": 149,
		"Name": "<size=30><color=#FFA400FF>邪神之火</color></size>",
		"Desc": "会对身处其中的单位造成极高的伤害。",
		"Damage": 80,
		"Time": 999,
		"ReplacePriority": 900,
		"Fx": "FX/Common_ABS/CommonFX/common_burnning_6.prefab",
		"EnemyFx": ""
	},
	{
		"ID": 150,
		"Name": "符文石碑",
		"Desc": "奇怪的石碑，似乎带有极其强大的神性克制，也许可以用它来破除神圣守护。",
		"Damage": 0,
		"Time": 999,
		"ReplacePriority": 900,
		"Fx": "BattleMap/BattleMapExploreItem_ABS/Tablet/TabletUIPrefab.prefab",
		"EnemyFx": ""
	},
	{
		"ID": 151,
		"Name": "裂缝",
		"Desc": "获取力量后，地面裂开，石碑沉入地下，只剩下一道裂缝……",
		"Damage": 0,
		"Time": 999,
		"ReplacePriority": 900,
		"Fx": "BattleMap/BattleMapExploreItem_ABS/Fissure/FissureUIPrefab.prefab",
		"EnemyFx": ""
	},
	{
		"ID": 152,
		"Name": "<size=30><color=#FFA400FF>火焰</color></size>",
		"Desc": "会对身处其中的单位造成最大生命50%的伤害",
		"Damage": 0,
		"Time": 999,
		"ReplacePriority": 900,
		"Fx": "FX/Common_ABS/CommonFX/common_burnning_4.prefab",
		"EnemyFx": ""
	},
	{
		"ID": 153,
		"Name": "羁绊之花",
		"Desc": "",
		"Damage": 0,
		"Time": 999,
		"ReplacePriority": 900,
		"Fx": "BattleMap/BattleMapExploreItem_ABS/Flower/FlowerUIPrefab.prefab",
		"EnemyFx": ""
	},
	{
		"ID": 154,
		"Name": "气球",
		"Desc": "行动结束时，去除身边1格范围内友军身上的“困意”，并回复生命最低的友军50%的最大生命。",
		"Damage": 0,
		"Time": 999,
		"ReplacePriority": 900,
		"Fx": "BattleMap/BattleMapExploreItem_ABS/Balloon/BalloonUIPrefab.prefab",
		"EnemyFx": ""
	},
	{
		"ID": 155,
		"Name": "新绿",
		"Desc": "受到的伤害减少100%，护卫2格范围内的友军，持续2回合。",
		"Damage": 0,
		"Time": 999,
		"ReplacePriority": 900,
		"Fx": "BattleMap/BattleMapExploreItem_ABS/ChristmasTree/ChristmasTreeUIPrefab.prefab",
		"EnemyFx": ""
	},
	{
		"ID": 156,
		"Name": "初芽",
		"Desc": "行动结束时，身边一圈范围内友军的移动力+1",
		"Damage": 0,
		"Time": 999,
		"ReplacePriority": 900,
		"Fx": "BattleMap/BattleMapExploreItem_ABS/Flower/FlowerUIPrefab.prefab",
		"EnemyFx": ""
	},
	{
		"ID": 157,
		"Name": "危险区域",
		"Desc": "警告！即将遭受大规模范围打击，请尽快撤离！",
		"Damage": 0,
		"Time": 999,
		"ReplacePriority": 900,
		"Fx": "FX/Common_ABS/CommonFX/Common_GreenMark/Common_RedMark.prefab",
		"EnemyFx": ""
	},
	{
		"ID": 158,
		"Name": "魔导废墟",
		"Desc": "难以行军的空间，敌军停留其上将获得“移动力<color=#DC143C>-2</color>”，持续<color=#DC143C>1</color>回合。",
		"Damage": 0,
		"Time": 2,
		"ReplacePriority": 100,
		"Fx": "FX/Skill2_ABS/Skill_Super_3/Skill_Super15_2.prefab",
		"EnemyFx": "FX/Skill2_ABS/Skill_Super_3/Skill_Super15_3.prefab"
	},
	{
		"ID": 159,
		"Name": "魔剑",
		"Desc": "魔剑",
		"Damage": 0,
		"Time": 999,
		"ReplacePriority": 900,
		"Fx": "Spine/General/Sword_Alhazard_ABS/Sword_AlhazardBreak_Prefab.prefab",
		"EnemyFx": ""
	},
	{
		"ID": 160,
		"Name": "火焰",
		"Desc": "怨恨之炎熊熊燃烧，会对身处其中的单位造成致命的伤害",
		"Damage": 100,
		"Time": 999,
		"ReplacePriority": 900,
		"Fx": "FX/Common_ABS/CommonFX/common_burnning_4.prefab",
		"EnemyFx": ""
	},
	{
		"ID": 161,
		"Name": "魔剑附近",
		"Desc": "魔剑附近",
		"Damage": 0,
		"Time": 999,
		"ReplacePriority": 900,
		"Fx": "FX/Common_ABS/CommonFX/Common_GreenMark/Common_GreenMark.prefab",
		"EnemyFx": ""
	},
	{
		"ID": 162,
		"Name": "毒烟",
		"Desc": "哥布林留下的剧毒烟雾，对身处其中的单位造成最大生命50%的伤害",
		"Damage": 0,
		"Time": 2,
		"ReplacePriority": 900,
		"Fx": "FX/Common_ABS/CommonFX/common_burnning_5.prefab",
		"EnemyFx": "FX/Common_ABS/CommonFX/common_burnning_5.prefab"
	}
]