[
	{
		"ID": 101,
		"Name": "断章故事（1）1-1·克利姆索骑士",
		"NextDialogID": 102,
		"FrameType": 0,
		"CharName": "圣剑精灵",
		"CharImageID": 89,
		"Position": 0,
		"EnterType": 1,
		"PreAnimation": "",
		"PreFacialAnimation": "",
		"IdleAnimation": "idle_Dialog_Normal",
		"IdleFacialAnimation": "idle_Dialog_Normal",
		"Voice": "",
		"Words": "接收到来自克利姆索骑士……关于赤之月「克利姆索」与碧之月「佩利亚」的记忆。"
	},
	{
		"ID": 102,
		"Name": "断章故事（1）1-1·克利姆索骑士",
		"NextDialogID": 103,
		"FrameType": 0,
		"CharName": "圣剑精灵",
		"CharImageID": 89,
		"Position": 0,
		"EnterType": 1,
		"PreAnimation": "",
		"PreFacialAnimation": "",
		"IdleAnimation": "idle_Dialog_Normal",
		"IdleFacialAnimation": "idle_Dialog_Normal",
		"Voice": "",
		"Words": "红月「克利姆索」，是古代超魔法文明种族「克利姆索尼亚」的居所。蓝月「佩利亚」，则是超越了人类最狂野想象的行星兵器。"
	},
	{
		"ID": 103,
		"Name": "断章故事（1）1-1·克利姆索骑士",
		"NextDialogID": 104,
		"FrameType": 0,
		"CharName": "圣剑精灵",
		"CharImageID": 89,
		"Position": 0,
		"EnterType": 1,
		"PreAnimation": "",
		"PreFacialAnimation": "",
		"IdleAnimation": "idle_Dialog_Normal",
		"IdleFacialAnimation": "idle_Dialog_Normal",
		"Voice": "",
		"Words": "在连圣剑兰古利萨都尚未真正诞生的岁月里，贵族阶级「克利姆索尼亚」与受其支配的劳动阶级「克利姆索兰达」爆发了战争……"
	},
	{
		"ID": 104,
		"Name": "断章故事（1）1-1·克利姆索骑士",
		"NextDialogID": 105,
		"FrameType": 0,
		"CharName": "圣剑精灵",
		"CharImageID": 89,
		"Position": 0,
		"EnterType": 1,
		"PreAnimation": "",
		"PreFacialAnimation": "",
		"IdleAnimation": "idle_Dialog_Normal",
		"IdleFacialAnimation": "idle_Dialog_Normal",
		"Voice": "",
		"Words": "淹没天空的宇宙战舰，毁灭大地的魔动巨兵，摧毁一切的战斗卫星……这场牵涉到世间一切的战争，达到了无法用语言形容的地步。"
	},
	{
		"ID": 105,
		"Name": "断章故事（1）1-1·克利姆索骑士",
		"NextDialogID": 106,
		"FrameType": 0,
		"CharName": "圣剑精灵",
		"CharImageID": 89,
		"Position": 0,
		"EnterType": 1,
		"PreAnimation": "",
		"PreFacialAnimation": "",
		"IdleAnimation": "idle_Dialog_Normal",
		"IdleFacialAnimation": "idle_Dialog_Normal",
		"Voice": "",
		"Words": "战斗最后的代价，是仅存的「克利姆索兰达」苟居在大地上，而「克利姆索尼亚」则与偏离轨道的红月一起沉睡在黑暗的宇宙中。"
	},
	{
		"ID": 106,
		"Name": "断章故事（1）1-1·克利姆索骑士",
		"NextDialogID": 107,
		"FrameType": 0,
		"CharName": "圣剑精灵",
		"CharImageID": 89,
		"Position": 0,
		"EnterType": 1,
		"PreAnimation": "",
		"PreFacialAnimation": "",
		"IdleAnimation": "idle_Dialog_Normal",
		"IdleFacialAnimation": "idle_Dialog_Normal",
		"Voice": "",
		"Words": "直到150年前的终焉战争，「克利姆索尼亚」的王子雷因法鲁斯带领着他的军队回到大地上……"
	},
	{
		"ID": 107,
		"Name": "断章故事（1）1-1·克利姆索骑士",
		"NextDialogID": 0,
		"FrameType": 0,
		"CharName": "圣剑精灵",
		"CharImageID": 89,
		"Position": 0,
		"EnterType": 1,
		"PreAnimation": "",
		"PreFacialAnimation": "",
		"IdleAnimation": "idle_Dialog_Normal",
		"IdleFacialAnimation": "idle_Dialog_Normal",
		"Voice": "",
		"Words": "开始了拯救其种族，收集世界树的能量的计划。"
	},
	{
		"ID": 201,
		"Name": "断章故事（2）1-2·王国守护者",
		"NextDialogID": 202,
		"FrameType": 0,
		"CharName": "圣剑精灵",
		"CharImageID": 89,
		"Position": 0,
		"EnterType": 1,
		"PreAnimation": "",
		"PreFacialAnimation": "",
		"IdleAnimation": "idle_Dialog_Normal",
		"IdleFacialAnimation": "idle_Dialog_Normal",
		"Voice": "",
		"Words": "接收到来自谜之骑士……关于伊雷斯的英雄「王国守护者」的记忆。"
	},
	{
		"ID": 202,
		"Name": "断章故事（2）1-2·王国守护者",
		"NextDialogID": 203,
		"FrameType": 0,
		"CharName": "圣剑精灵",
		"CharImageID": 89,
		"Position": 0,
		"EnterType": 1,
		"PreAnimation": "",
		"PreFacialAnimation": "",
		"IdleAnimation": "idle_Dialog_Normal",
		"IdleFacialAnimation": "idle_Dialog_Normal",
		"Voice": "",
		"Words": "终焉战争结束之后，在联邦元帅兰芳特的建议之下……"
	},
	{
		"ID": 203,
		"Name": "断章故事（2）1-2·王国守护者",
		"NextDialogID": 204,
		"FrameType": 0,
		"CharName": "圣剑精灵",
		"CharImageID": 89,
		"Position": 0,
		"EnterType": 1,
		"PreAnimation": "",
		"PreFacialAnimation": "",
		"IdleAnimation": "idle_Dialog_Normal",
		"IdleFacialAnimation": "idle_Dialog_Normal",
		"Voice": "",
		"Words": "给伊雷斯带来希望的英雄兰迪乌斯，以卡昆西斯王国的兵力作为基础，组建了跨越了国家与政权的军队。"
	},
	{
		"ID": 204,
		"Name": "断章故事（2）1-2·王国守护者",
		"NextDialogID": 205,
		"FrameType": 0,
		"CharName": "圣剑精灵",
		"CharImageID": 89,
		"Position": 0,
		"EnterType": 1,
		"PreAnimation": "",
		"PreFacialAnimation": "",
		"IdleAnimation": "idle_Dialog_Normal",
		"IdleFacialAnimation": "idle_Dialog_Normal",
		"Voice": "",
		"Words": "名为「王国守护者」的称号也流传至今，在圣剑兰古利萨离去的时光里守护光与希望……"
	},
	{
		"ID": 205,
		"Name": "断章故事（2）1-2·王国守护者",
		"NextDialogID": 206,
		"FrameType": 0,
		"CharName": "圣剑精灵",
		"CharImageID": 89,
		"Position": 0,
		"EnterType": 1,
		"PreAnimation": "",
		"PreFacialAnimation": "",
		"IdleAnimation": "idle_Dialog_Normal",
		"IdleFacialAnimation": "idle_Dialog_Normal",
		"Voice": "",
		"Words": "有传言说，兰迪乌斯以「王国守护者」的身份，在大陆上活跃了将近一个世纪，其传说的终点却并没有被记录下来……"
	},
	{
		"ID": 206,
		"Name": "断章故事（2）1-2·王国守护者",
		"NextDialogID": 0,
		"FrameType": 0,
		"CharName": "圣剑精灵",
		"CharImageID": 89,
		"Position": 0,
		"EnterType": 1,
		"PreAnimation": "",
		"PreFacialAnimation": "",
		"IdleAnimation": "idle_Dialog_Normal",
		"IdleFacialAnimation": "idle_Dialog_Normal",
		"Voice": "",
		"Words": "那些冒险经历都遗失在空白的历史之中，或许…在伊雷斯大陆的别处还会有相关的记忆出现吧。"
	},
	{
		"ID": 301,
		"Name": "断章故事（3）1-3·魔剑之心、破碎之刃",
		"NextDialogID": 302,
		"FrameType": 0,
		"CharName": "圣剑精灵",
		"CharImageID": 89,
		"Position": 0,
		"EnterType": 1,
		"PreAnimation": "",
		"PreFacialAnimation": "",
		"IdleAnimation": "idle_Dialog_Normal",
		"IdleFacialAnimation": "idle_Dialog_Sad",
		"Voice": "",
		"Words": "…………"
	},
	{
		"ID": 302,
		"Name": "断章故事（3）1-3·魔剑之心、破碎之刃",
		"NextDialogID": 303,
		"FrameType": 0,
		"CharName": "圣剑精灵",
		"CharImageID": 89,
		"Position": 0,
		"EnterType": 1,
		"PreAnimation": "",
		"PreFacialAnimation": "",
		"IdleAnimation": "idle_Dialog_Normal",
		"IdleFacialAnimation": "idle_Dialog_Normal",
		"Voice": "",
		"Words": "接收到来自破碎之刃……关于「圣魔剑起源」的记忆。"
	},
	{
		"ID": 303,
		"Name": "断章故事（3）1-3·魔剑之心、破碎之刃",
		"NextDialogID": 304,
		"FrameType": 0,
		"CharName": "圣剑精灵",
		"CharImageID": 89,
		"Position": 0,
		"EnterType": 1,
		"PreAnimation": "",
		"PreFacialAnimation": "",
		"IdleAnimation": "idle_Dialog_Normal",
		"IdleFacialAnimation": "idle_Dialog_Normal",
		"Voice": "",
		"Words": "源初的魔剑，名为「真·破邪之剑」。"
	},
	{
		"ID": 304,
		"Name": "断章故事（3）1-3·魔剑之心、破碎之刃",
		"NextDialogID": 305,
		"FrameType": 0,
		"CharName": "圣剑精灵",
		"CharImageID": 89,
		"Position": 0,
		"EnterType": 1,
		"PreAnimation": "",
		"PreFacialAnimation": "",
		"IdleAnimation": "idle_Dialog_Normal",
		"IdleFacialAnimation": "idle_Dialog_Normal",
		"Voice": "",
		"Words": "诞生于红月「克利姆索」，是能够在任何地方操控行星兵器「佩利亚」的钥匙……"
	},
	{
		"ID": 305,
		"Name": "断章故事（3）1-3·魔剑之心、破碎之刃",
		"NextDialogID": 306,
		"FrameType": 0,
		"CharName": "圣剑精灵",
		"CharImageID": 89,
		"Position": 0,
		"EnterType": 1,
		"PreAnimation": "",
		"PreFacialAnimation": "",
		"IdleAnimation": "idle_Dialog_Normal",
		"IdleFacialAnimation": "idle_Dialog_Normal",
		"Voice": "",
		"Words": "强盛到连魔族都能奴役的「克利姆索尼亚」一族，从混沌之王那里夺取了力量，让这把剑具有了号令魔族的尊者之力。"
	},
	{
		"ID": 306,
		"Name": "断章故事（3）1-3·魔剑之心、破碎之刃",
		"NextDialogID": 307,
		"FrameType": 0,
		"CharName": "圣剑精灵",
		"CharImageID": 89,
		"Position": 0,
		"EnterType": 1,
		"PreAnimation": "",
		"PreFacialAnimation": "",
		"IdleAnimation": "idle_Dialog_Normal",
		"IdleFacialAnimation": "idle_Dialog_Normal",
		"Voice": "",
		"Words": "也是因为这份力量的联系，混沌之王卡奥斯能够通过解放阿鲁哈萨托的仪式、降临到人世之中。"
	},
	{
		"ID": 307,
		"Name": "断章故事（3）1-3·魔剑之心、破碎之刃",
		"NextDialogID": 308,
		"FrameType": 0,
		"CharName": "圣剑精灵",
		"CharImageID": 89,
		"Position": 0,
		"EnterType": 1,
		"PreAnimation": "",
		"PreFacialAnimation": "",
		"IdleAnimation": "idle_Dialog_Normal",
		"IdleFacialAnimation": "idle_Dialog_Normal",
		"Voice": "",
		"Words": "而源初的圣剑，则是名为「破邪之剑」的未完之作。"
	},
	{
		"ID": 308,
		"Name": "断章故事（3）1-3·魔剑之心、破碎之刃",
		"NextDialogID": 309,
		"FrameType": 0,
		"CharName": "圣剑精灵",
		"CharImageID": 89,
		"Position": 0,
		"EnterType": 1,
		"PreAnimation": "",
		"PreFacialAnimation": "",
		"IdleAnimation": "idle_Dialog_Normal",
		"IdleFacialAnimation": "idle_Dialog_Normal",
		"Voice": "",
		"Words": "其作为行星兵器钥匙的能力、只有在蓝月「佩利亚」上才能使用。"
	},
	{
		"ID": 309,
		"Name": "断章故事（3）1-3·魔剑之心、破碎之刃",
		"NextDialogID": 310,
		"FrameType": 0,
		"CharName": "圣剑精灵",
		"CharImageID": 89,
		"Position": 0,
		"EnterType": 1,
		"PreAnimation": "",
		"PreFacialAnimation": "",
		"IdleAnimation": "idle_Dialog_Normal",
		"IdleFacialAnimation": "idle_Dialog_Normal",
		"Voice": "",
		"Words": "在千年前的艾尔斯里德建国之战中，拥有高贵灵魂的王「吉克哈尔特」献出了自己的生命……"
	},
	{
		"ID": 310,
		"Name": "断章故事（3）1-3·魔剑之心、破碎之刃",
		"NextDialogID": 311,
		"FrameType": 0,
		"CharName": "圣剑精灵",
		"CharImageID": 89,
		"Position": 0,
		"EnterType": 1,
		"PreAnimation": "",
		"PreFacialAnimation": "",
		"IdleAnimation": "idle_Dialog_Normal",
		"IdleFacialAnimation": "idle_Dialog_Normal",
		"Voice": "",
		"Words": "他的灵魂与「破邪之剑」融为一体，铸成了具有光与希望之力的圣剑「兰古利萨」，在光之后裔的手中代代相传……"
	},
	{
		"ID": 311,
		"Name": "断章故事（3）1-3·魔剑之心、破碎之刃",
		"NextDialogID": 312,
		"FrameType": 0,
		"CharName": "圣剑精灵",
		"CharImageID": 89,
		"Position": 0,
		"EnterType": 1,
		"PreAnimation": "",
		"PreFacialAnimation": "",
		"IdleAnimation": "idle_Dialog_Normal",
		"IdleFacialAnimation": "idle_Dialog_Normal",
		"Voice": "",
		"Words": "时光流转到距今150年前的终焉战争，作为战争的最终结果……"
	},
	{
		"ID": 312,
		"Name": "断章故事（3）1-3·魔剑之心、破碎之刃",
		"NextDialogID": 313,
		"FrameType": 0,
		"CharName": "圣剑精灵",
		"CharImageID": 89,
		"Position": 0,
		"EnterType": 1,
		"PreAnimation": "",
		"PreFacialAnimation": "",
		"IdleAnimation": "idle_Dialog_Normal",
		"IdleFacialAnimation": "idle_Dialog_Normal",
		"Voice": "",
		"Words": "圣剑兰古利萨为阻止蓝月「佩利亚」的坠落而破碎消失，而魔剑阿鲁哈萨托则被异星王子雷因法鲁斯带回红月「克利姆索」……"
	},
	{
		"ID": 313,
		"Name": "断章故事（3）1-3·魔剑之心、破碎之刃",
		"NextDialogID": 0,
		"FrameType": 0,
		"CharName": "圣剑精灵",
		"CharImageID": 89,
		"Position": 0,
		"EnterType": 1,
		"PreAnimation": "",
		"PreFacialAnimation": "",
		"IdleAnimation": "idle_Dialog_Normal",
		"IdleFacialAnimation": "idle_Dialog_Normal",
		"Voice": "",
		"Words": "我们脚下的这颗惑星，迎来了圣剑与魔剑双双缺失的空白岁月。"
	},
	{
		"ID": 401,
		"Name": "断章故事（4）2-1·挥之不散的阴影",
		"NextDialogID": 402,
		"FrameType": 0,
		"CharName": "圣剑精灵",
		"CharImageID": 89,
		"Position": 0,
		"EnterType": 1,
		"PreAnimation": "",
		"PreFacialAnimation": "",
		"IdleAnimation": "idle_Dialog_Normal",
		"IdleFacialAnimation": "idle_Dialog_Normal",
		"Voice": "",
		"Words": "接收到来源不明的记忆讯号……关于「基扎洛夫」与「邪神昆德拉希尔」的记忆。"
	},
	{
		"ID": 402,
		"Name": "断章故事（4）2-1·挥之不散的阴影",
		"NextDialogID": 403,
		"FrameType": 0,
		"CharName": "圣剑精灵",
		"CharImageID": 89,
		"Position": 0,
		"EnterType": 1,
		"PreAnimation": "",
		"PreFacialAnimation": "",
		"IdleAnimation": "idle_Dialog_Normal",
		"IdleFacialAnimation": "idle_Dialog_Normal",
		"Voice": "",
		"Words": "基扎洛夫，名为「超越者」的魔导元帅，拥有着超越时代的魔法与科学力量，将150年前的世界卷入腥风血雨之中……"
	},
	{
		"ID": 403,
		"Name": "断章故事（4）2-1·挥之不散的阴影",
		"NextDialogID": 404,
		"FrameType": 0,
		"CharName": "圣剑精灵",
		"CharImageID": 89,
		"Position": 0,
		"EnterType": 1,
		"PreAnimation": "",
		"PreFacialAnimation": "",
		"IdleAnimation": "idle_Dialog_Normal",
		"IdleFacialAnimation": "idle_Dialog_Normal",
		"Voice": "",
		"Words": "其人虽仅为一介凡人，但他对伊雷斯大陆所施加的巨大阴影，就连黑暗王子波赞鲁都自叹不如。"
	},
	{
		"ID": 404,
		"Name": "断章故事（4）2-1·挥之不散的阴影",
		"NextDialogID": 405,
		"FrameType": 0,
		"CharName": "圣剑精灵",
		"CharImageID": 89,
		"Position": 0,
		"EnterType": 1,
		"PreAnimation": "",
		"PreFacialAnimation": "",
		"IdleAnimation": "idle_Dialog_Normal",
		"IdleFacialAnimation": "idle_Dialog_Normal",
		"Voice": "",
		"Words": "当然，基扎洛夫并非是孤身一人，他曾经拥有一名「合作者」……"
	},
	{
		"ID": 405,
		"Name": "断章故事（4）2-1·挥之不散的阴影",
		"NextDialogID": 406,
		"FrameType": 0,
		"CharName": "圣剑精灵",
		"CharImageID": 89,
		"Position": 0,
		"EnterType": 1,
		"PreAnimation": "",
		"PreFacialAnimation": "",
		"IdleAnimation": "idle_Dialog_Normal",
		"IdleFacialAnimation": "idle_Dialog_Normal",
		"Voice": "",
		"Words": "在神界的战争中，被光之女神与混沌之王联手放逐到人间，失去了形体与力量的「邪神」昆德拉希尔。"
	},
	{
		"ID": 406,
		"Name": "断章故事（4）2-1·挥之不散的阴影",
		"NextDialogID": 407,
		"FrameType": 0,
		"CharName": "圣剑精灵",
		"CharImageID": 89,
		"Position": 0,
		"EnterType": 1,
		"PreAnimation": "",
		"PreFacialAnimation": "",
		"IdleAnimation": "idle_Dialog_Normal",
		"IdleFacialAnimation": "idle_Dialog_Normal",
		"Voice": "",
		"Words": "昆德拉希尔为了达成自己的邪恶目的而与基扎洛夫合作，将古代兵器、邪恶魔法、人体改造等禁忌知识一一传授给了基扎洛夫……"
	},
	{
		"ID": 407,
		"Name": "断章故事（4）2-1·挥之不散的阴影",
		"NextDialogID": 408,
		"FrameType": 0,
		"CharName": "圣剑精灵",
		"CharImageID": 89,
		"Position": 0,
		"EnterType": 1,
		"PreAnimation": "",
		"PreFacialAnimation": "",
		"IdleAnimation": "idle_Dialog_Normal",
		"IdleFacialAnimation": "idle_Dialog_Normal",
		"Voice": "",
		"Words": "只是，邪恶的联盟永远带着自我毁灭的因子……"
	},
	{
		"ID": 408,
		"Name": "断章故事（4）2-1·挥之不散的阴影",
		"NextDialogID": 409,
		"FrameType": 0,
		"CharName": "圣剑精灵",
		"CharImageID": 89,
		"Position": 0,
		"EnterType": 1,
		"PreAnimation": "",
		"PreFacialAnimation": "",
		"IdleAnimation": "idle_Dialog_Normal",
		"IdleFacialAnimation": "idle_Dialog_Normal",
		"Voice": "",
		"Words": "在基扎洛夫与兰迪乌斯一行的最终决战之前，昆德拉希尔与基扎洛夫反目成仇。"
	},
	{
		"ID": 409,
		"Name": "断章故事（4）2-1·挥之不散的阴影",
		"NextDialogID": 410,
		"FrameType": 0,
		"CharName": "圣剑精灵",
		"CharImageID": 89,
		"Position": 0,
		"EnterType": 1,
		"PreAnimation": "",
		"PreFacialAnimation": "",
		"IdleAnimation": "idle_Dialog_Normal",
		"IdleFacialAnimation": "idle_Dialog_Normal",
		"Voice": "",
		"Words": "与基扎洛夫克隆人「库鲁加」合为一体的昆德拉希尔虽然败在基扎洛夫手下，但此战也消耗了基扎洛夫的战力……"
	},
	{
		"ID": 410,
		"Name": "断章故事（4）2-1·挥之不散的阴影",
		"NextDialogID": 0,
		"FrameType": 0,
		"CharName": "圣剑精灵",
		"CharImageID": 89,
		"Position": 0,
		"EnterType": 1,
		"PreAnimation": "",
		"PreFacialAnimation": "",
		"IdleAnimation": "idle_Dialog_Normal",
		"IdleFacialAnimation": "idle_Dialog_Normal",
		"Voice": "",
		"Words": "为基扎洛夫最终的失败，埋下了历史的伏笔。"
	},
	{
		"ID": 501,
		"Name": "断章故事（5）2-2·大陆的荣光",
		"NextDialogID": 502,
		"FrameType": 0,
		"CharName": "圣剑精灵",
		"CharImageID": 89,
		"Position": 0,
		"EnterType": 1,
		"PreAnimation": "",
		"PreFacialAnimation": "",
		"IdleAnimation": "idle_Dialog_Normal",
		"IdleFacialAnimation": "idle_Dialog_Normal",
		"Voice": "",
		"Words": "接收到来自卡昆西斯双子之树……关于卡昆西斯「荣光年代」的记忆。"
	},
	{
		"ID": 502,
		"Name": "断章故事（5）2-2·大陆的荣光",
		"NextDialogID": 503,
		"FrameType": 0,
		"CharName": "圣剑精灵",
		"CharImageID": 89,
		"Position": 0,
		"EnterType": 1,
		"PreAnimation": "",
		"PreFacialAnimation": "",
		"IdleAnimation": "idle_Dialog_Normal",
		"IdleFacialAnimation": "idle_Dialog_Normal",
		"Voice": "",
		"Words": "终焉战争结束短短数年之后，在活跃于那个时代的英雄们不懈地努力之下，卡昆西斯王国迎来了发展的黄金时代。"
	},
	{
		"ID": 503,
		"Name": "断章故事（5）2-2·大陆的荣光",
		"NextDialogID": 504,
		"FrameType": 0,
		"CharName": "圣剑精灵",
		"CharImageID": 89,
		"Position": 0,
		"EnterType": 1,
		"PreAnimation": "",
		"PreFacialAnimation": "",
		"IdleAnimation": "idle_Dialog_Normal",
		"IdleFacialAnimation": "idle_Dialog_Normal",
		"Voice": "",
		"Words": "继承了女王之位的雪露法妮尔与统帅军队的安洁丽娜，成为了象征那个时代、无法忽视的倩丽风景。"
	},
	{
		"ID": 504,
		"Name": "断章故事（5）2-2·大陆的荣光",
		"NextDialogID": 505,
		"FrameType": 0,
		"CharName": "圣剑精灵",
		"CharImageID": 89,
		"Position": 0,
		"EnterType": 1,
		"PreAnimation": "",
		"PreFacialAnimation": "",
		"IdleAnimation": "idle_Dialog_Normal",
		"IdleFacialAnimation": "idle_Dialog_Normal",
		"Voice": "",
		"Words": "那段时光是如此的快乐而充满希望，足以让所有人都相信在兰古利萨缺席的岁月里，人类也一定能够牢牢握紧来之不易的幸福……"
	},
	{
		"ID": 505,
		"Name": "断章故事（5）2-2·大陆的荣光",
		"NextDialogID": 0,
		"FrameType": 0,
		"CharName": "圣剑精灵",
		"CharImageID": 89,
		"Position": 0,
		"EnterType": 1,
		"PreAnimation": "",
		"PreFacialAnimation": "",
		"IdleAnimation": "idle_Dialog_Normal",
		"IdleFacialAnimation": "idle_Dialog_Normal",
		"Voice": "",
		"Words": "至少，在那一代灿烂之人从历史中逝去之前，的确是那样……"
	},
	{
		"ID": 601,
		"Name": "断章故事（6）2-3·十年的轮回",
		"NextDialogID": 602,
		"FrameType": 0,
		"CharName": "圣剑精灵",
		"CharImageID": 89,
		"Position": 0,
		"EnterType": 1,
		"PreAnimation": "",
		"PreFacialAnimation": "",
		"IdleAnimation": "idle_Dialog_Normal",
		"IdleFacialAnimation": "idle_Dialog_Normal",
		"Voice": "",
		"Words": "接收到来自伊露希亚……关于卡昆西斯与雷根布鲁克战争起源的记忆。"
	},
	{
		"ID": 602,
		"Name": "断章故事（6）2-3·十年的轮回",
		"NextDialogID": 603,
		"FrameType": 0,
		"CharName": "圣剑精灵",
		"CharImageID": 89,
		"Position": 0,
		"EnterType": 1,
		"PreAnimation": "",
		"PreFacialAnimation": "",
		"IdleAnimation": "idle_Dialog_Normal",
		"IdleFacialAnimation": "idle_Dialog_Normal",
		"Voice": "",
		"Words": "距今十年以前，已经交恶多年的卡昆西斯与雷根布鲁克之间爆发决定性的冲突之战……"
	},
	{
		"ID": 603,
		"Name": "断章故事（6）2-3·十年的轮回",
		"NextDialogID": 604,
		"FrameType": 0,
		"CharName": "圣剑精灵",
		"CharImageID": 89,
		"Position": 0,
		"EnterType": 1,
		"PreAnimation": "",
		"PreFacialAnimation": "",
		"IdleAnimation": "idle_Dialog_Normal",
		"IdleFacialAnimation": "idle_Dialog_Normal",
		"Voice": "",
		"Words": "雷根布鲁克对卡昆西斯不宣而战，在以多种手段分散了王国的兵力之后……"
	},
	{
		"ID": 604,
		"Name": "断章故事（6）2-3·十年的轮回",
		"NextDialogID": 605,
		"FrameType": 0,
		"CharName": "圣剑精灵",
		"CharImageID": 89,
		"Position": 0,
		"EnterType": 1,
		"PreAnimation": "",
		"PreFacialAnimation": "",
		"IdleAnimation": "idle_Dialog_Normal",
		"IdleFacialAnimation": "idle_Dialog_Normal",
		"Voice": "",
		"Words": "帝国突袭了卡昆西斯王城，卡昆西斯王城付之一炬，王室成员除了年幼的王子「奥利佛」与公主「梅露帕妮」以外无一幸存……"
	},
	{
		"ID": 605,
		"Name": "断章故事（6）2-3·十年的轮回",
		"NextDialogID": 606,
		"FrameType": 0,
		"CharName": "圣剑精灵",
		"CharImageID": 89,
		"Position": 0,
		"EnterType": 1,
		"PreAnimation": "",
		"PreFacialAnimation": "",
		"IdleAnimation": "idle_Dialog_Normal",
		"IdleFacialAnimation": "idle_Dialog_Normal",
		"Voice": "",
		"Words": "除了这场战争决定了长达十年的战争对抗以外，这场源初之战的前因后果却被历史的尘沙所掩埋了……"
	},
	{
		"ID": 606,
		"Name": "断章故事（6）2-3·十年的轮回",
		"NextDialogID": 0,
		"FrameType": 0,
		"CharName": "圣剑精灵",
		"CharImageID": 89,
		"Position": 0,
		"EnterType": 1,
		"PreAnimation": "",
		"PreFacialAnimation": "",
		"IdleAnimation": "idle_Dialog_Normal",
		"IdleFacialAnimation": "idle_Dialog_Normal",
		"Voice": "",
		"Words": "或许……在伊雷斯大陆的别处,还会有相关的记忆出现吧。"
	},
	{
		"ID": 701,
		"Name": "断章故事（7）3-1·迷雾初现",
		"NextDialogID": 702,
		"FrameType": 0,
		"CharName": "圣剑精灵",
		"CharImageID": 89,
		"Position": 0,
		"EnterType": 1,
		"PreAnimation": "",
		"PreFacialAnimation": "",
		"IdleAnimation": "idle_Dialog_Normal",
		"IdleFacialAnimation": "idle_Dialog_Normal",
		"Voice": "",
		"Words": "接收到来自古代天气中枢……关于笼罩伊雷斯的「魔法迷雾」的记忆。"
	},
	{
		"ID": 702,
		"Name": "断章故事（7）3-1·迷雾初现",
		"NextDialogID": 703,
		"FrameType": 0,
		"CharName": "圣剑精灵",
		"CharImageID": 89,
		"Position": 0,
		"EnterType": 1,
		"PreAnimation": "",
		"PreFacialAnimation": "",
		"IdleAnimation": "idle_Dialog_Normal",
		"IdleFacialAnimation": "idle_Dialog_Normal",
		"Voice": "",
		"Words": "在终焉战争之末，法鲁赞利亚的魔将加艾鲁掌握了源初魔剑的真正力量——蓝月「佩利亚」的破坏光束。"
	},
	{
		"ID": 703,
		"Name": "断章故事（7）3-1·迷雾初现",
		"NextDialogID": 704,
		"FrameType": 0,
		"CharName": "圣剑精灵",
		"CharImageID": 89,
		"Position": 0,
		"EnterType": 1,
		"PreAnimation": "",
		"PreFacialAnimation": "",
		"IdleAnimation": "idle_Dialog_Normal",
		"IdleFacialAnimation": "idle_Dialog_Normal",
		"Voice": "",
		"Words": "这种攻击由世界树的魔法能量驱动，能将无可匹敌的巨大破坏光束投射到大陆的任意位置……"
	},
	{
		"ID": 704,
		"Name": "断章故事（7）3-1·迷雾初现",
		"NextDialogID": 705,
		"FrameType": 0,
		"CharName": "圣剑精灵",
		"CharImageID": 89,
		"Position": 0,
		"EnterType": 1,
		"PreAnimation": "",
		"PreFacialAnimation": "",
		"IdleAnimation": "idle_Dialog_Normal",
		"IdleFacialAnimation": "idle_Dialog_Normal",
		"Voice": "",
		"Words": "为了防御这凡人完全无法对抗的古代魔导兵器，「克利姆索兰达」反抗军的领导者维拉玖，指引众人开启了古代天候中枢的控制器。"
	},
	{
		"ID": 705,
		"Name": "断章故事（7）3-1·迷雾初现",
		"NextDialogID": 706,
		"FrameType": 0,
		"CharName": "圣剑精灵",
		"CharImageID": 89,
		"Position": 0,
		"EnterType": 1,
		"PreAnimation": "",
		"PreFacialAnimation": "",
		"IdleAnimation": "idle_Dialog_Normal",
		"IdleFacialAnimation": "idle_Dialog_Normal",
		"Voice": "",
		"Words": "天气中枢所释放出的魔法迷雾，将整个大陆密不透风地覆盖了起来，使得「佩利亚」无法锁定攻击目标……"
	},
	{
		"ID": 706,
		"Name": "断章故事（7）3-1·迷雾初现",
		"NextDialogID": 707,
		"FrameType": 0,
		"CharName": "圣剑精灵",
		"CharImageID": 89,
		"Position": 0,
		"EnterType": 1,
		"PreAnimation": "",
		"PreFacialAnimation": "",
		"IdleAnimation": "idle_Dialog_Normal",
		"IdleFacialAnimation": "idle_Dialog_Normal",
		"Voice": "",
		"Words": "在这魔法迷雾的帮助下，西格玛等人终于击败了加艾鲁。"
	},
	{
		"ID": 707,
		"Name": "断章故事（7）3-1·迷雾初现",
		"NextDialogID": 708,
		"FrameType": 0,
		"CharName": "圣剑精灵",
		"CharImageID": 89,
		"Position": 0,
		"EnterType": 1,
		"PreAnimation": "",
		"PreFacialAnimation": "",
		"IdleAnimation": "idle_Dialog_Normal",
		"IdleFacialAnimation": "idle_Dialog_Normal",
		"Voice": "",
		"Words": "但所有人都未尝料到的是，失去了圣剑的勇者们，在终焉战争之后，再也无法关闭古代天气中枢……"
	},
	{
		"ID": 708,
		"Name": "断章故事（7）3-1·迷雾初现",
		"NextDialogID": 0,
		"FrameType": 0,
		"CharName": "圣剑精灵",
		"CharImageID": 89,
		"Position": 0,
		"EnterType": 1,
		"PreAnimation": "",
		"PreFacialAnimation": "",
		"IdleAnimation": "idle_Dialog_Normal",
		"IdleFacialAnimation": "idle_Dialog_Normal",
		"Voice": "",
		"Words": "这股吞没天日的魔法迷雾，就这样……将伊雷斯大陆尘封了150年。"
	},
	{
		"ID": 801,
		"Name": "断章故事（8）3-2·水晶的心灵",
		"NextDialogID": 802,
		"FrameType": 0,
		"CharName": "圣剑精灵",
		"CharImageID": 89,
		"Position": 0,
		"EnterType": 1,
		"PreAnimation": "",
		"PreFacialAnimation": "",
		"IdleAnimation": "idle_Dialog_Normal",
		"IdleFacialAnimation": "idle_Dialog_Normal",
		"Voice": "",
		"Words": "接收到来自罗泽希尔女王……关于「水晶瘟疫」的记忆。"
	},
	{
		"ID": 802,
		"Name": "断章故事（8）3-2·水晶的心灵",
		"NextDialogID": 803,
		"FrameType": 0,
		"CharName": "圣剑精灵",
		"CharImageID": 89,
		"Position": 0,
		"EnterType": 1,
		"PreAnimation": "",
		"PreFacialAnimation": "",
		"IdleAnimation": "idle_Dialog_Normal",
		"IdleFacialAnimation": "idle_Dialog_Normal",
		"Voice": "",
		"Words": "在终焉战争结束之后的十年中，原本因战争而衰败的雷根布鲁克联邦，在兰芳特等人的努力下开始慢慢复苏。"
	},
	{
		"ID": 803,
		"Name": "断章故事（8）3-2·水晶的心灵",
		"NextDialogID": 804,
		"FrameType": 0,
		"CharName": "圣剑精灵",
		"CharImageID": 89,
		"Position": 0,
		"EnterType": 1,
		"PreAnimation": "",
		"PreFacialAnimation": "",
		"IdleAnimation": "idle_Dialog_Normal",
		"IdleFacialAnimation": "idle_Dialog_Normal",
		"Voice": "",
		"Words": "正当一切向着美好的未来发展时，新的灾难却悄然降临了……一种名为「水晶瘟疫」的疾病开始在雷根布鲁克境内蔓延。"
	},
	{
		"ID": 804,
		"Name": "断章故事（8）3-2·水晶的心灵",
		"NextDialogID": 805,
		"FrameType": 0,
		"CharName": "圣剑精灵",
		"CharImageID": 89,
		"Position": 0,
		"EnterType": 1,
		"PreAnimation": "",
		"PreFacialAnimation": "",
		"IdleAnimation": "idle_Dialog_Normal",
		"IdleFacialAnimation": "idle_Dialog_Normal",
		"Voice": "",
		"Words": "巨大的水晶，在原本是森林与草原的土地上开始生长，而沾染了这种水晶的动物与人类，也在水晶病的影响下迅速凋亡。"
	},
	{
		"ID": 805,
		"Name": "断章故事（8）3-2·水晶的心灵",
		"NextDialogID": 806,
		"FrameType": 0,
		"CharName": "圣剑精灵",
		"CharImageID": 89,
		"Position": 0,
		"EnterType": 1,
		"PreAnimation": "",
		"PreFacialAnimation": "",
		"IdleAnimation": "idle_Dialog_Normal",
		"IdleFacialAnimation": "idle_Dialog_Normal",
		"Voice": "",
		"Words": "已经成为联邦女王的罗泽希尔，随兰芳特一行展开了调查，最终发现了这种「疾病」的可怕源头……被蓝月「佩利亚」所击毁宇宙战舰。"
	},
	{
		"ID": 806,
		"Name": "断章故事（8）3-2·水晶的心灵",
		"NextDialogID": 807,
		"FrameType": 0,
		"CharName": "圣剑精灵",
		"CharImageID": 89,
		"Position": 0,
		"EnterType": 1,
		"PreAnimation": "",
		"PreFacialAnimation": "",
		"IdleAnimation": "idle_Dialog_Normal",
		"IdleFacialAnimation": "idle_Dialog_Normal",
		"Voice": "",
		"Words": "这艘原本属于雷因法鲁斯，被魔将加艾鲁所击落的战舰，其动力核心「魔动炉」在巨大的爆炸之后，将这场水晶瘟疫散布了开来……"
	},
	{
		"ID": 807,
		"Name": "断章故事（8）3-2·水晶的心灵",
		"NextDialogID": 808,
		"FrameType": 0,
		"CharName": "圣剑精灵",
		"CharImageID": 89,
		"Position": 0,
		"EnterType": 1,
		"PreAnimation": "",
		"PreFacialAnimation": "",
		"IdleAnimation": "idle_Dialog_Normal",
		"IdleFacialAnimation": "idle_Dialog_Normal",
		"Voice": "",
		"Words": "这种无法医治的「疾病」，将雷根布鲁克拖入了沉重而缓慢的死亡之中。"
	},
	{
		"ID": 808,
		"Name": "断章故事（8）3-2·水晶的心灵",
		"NextDialogID": 809,
		"FrameType": 0,
		"CharName": "圣剑精灵",
		"CharImageID": 89,
		"Position": 0,
		"EnterType": 1,
		"PreAnimation": "",
		"PreFacialAnimation": "",
		"IdleAnimation": "idle_Dialog_Normal",
		"IdleFacialAnimation": "idle_Dialog_Normal",
		"Voice": "",
		"Words": "被绝望所吞噬的人们，把心中无法发泄的怒火，施加到了那些移居地面的月之民身上……暴动与逃亡开始了。"
	},
	{
		"ID": 809,
		"Name": "断章故事（8）3-2·水晶的心灵",
		"NextDialogID": 0,
		"FrameType": 0,
		"CharName": "圣剑精灵",
		"CharImageID": 89,
		"Position": 0,
		"EnterType": 1,
		"PreAnimation": "",
		"PreFacialAnimation": "",
		"IdleAnimation": "idle_Dialog_Normal",
		"IdleFacialAnimation": "idle_Dialog_Normal",
		"Voice": "",
		"Words": "而唯一的希望，落在了如奇迹一般……能够「医治」水晶瘟疫的罗泽希尔女王肩上。"
	},
	{
		"ID": 901,
		"Name": "断章故事（9）3-3·过去与未来的相会",
		"NextDialogID": 902,
		"FrameType": 0,
		"CharName": "圣剑精灵",
		"CharImageID": 89,
		"Position": 0,
		"EnterType": 1,
		"PreAnimation": "",
		"PreFacialAnimation": "",
		"IdleAnimation": "idle_Dialog_Normal",
		"IdleFacialAnimation": "idle_Dialog_Normal",
		"Voice": "",
		"Words": "接收到来自树之贤者……关于霜之世界树的记忆。"
	},
	{
		"ID": 902,
		"Name": "断章故事（9）3-3·过去与未来的相会",
		"NextDialogID": 903,
		"FrameType": 0,
		"CharName": "圣剑精灵",
		"CharImageID": 89,
		"Position": 0,
		"EnterType": 1,
		"PreAnimation": "",
		"PreFacialAnimation": "",
		"IdleAnimation": "idle_Dialog_Normal",
		"IdleFacialAnimation": "idle_Dialog_Normal",
		"Voice": "",
		"Words": "伊雷斯大陆北方的霜之世界树，是人们已知最古老的世界树之一，也是世界树能量网络的重要节点。"
	},
	{
		"ID": 903,
		"Name": "断章故事（9）3-3·过去与未来的相会",
		"NextDialogID": 904,
		"FrameType": 0,
		"CharName": "圣剑精灵",
		"CharImageID": 89,
		"Position": 0,
		"EnterType": 1,
		"PreAnimation": "",
		"PreFacialAnimation": "",
		"IdleAnimation": "idle_Dialog_Normal",
		"IdleFacialAnimation": "idle_Dialog_Normal",
		"Voice": "",
		"Words": "在这片大陆逐渐被魔法迷雾笼罩、水晶瘟疫正在肆虐、暴乱和仇恨开始在人心之间蔓延的时候……"
	},
	{
		"ID": 904,
		"Name": "断章故事（9）3-3·过去与未来的相会",
		"NextDialogID": 905,
		"FrameType": 0,
		"CharName": "圣剑精灵",
		"CharImageID": 89,
		"Position": 0,
		"EnterType": 1,
		"PreAnimation": "",
		"PreFacialAnimation": "",
		"IdleAnimation": "idle_Dialog_Normal",
		"IdleFacialAnimation": "idle_Dialog_Normal",
		"Voice": "",
		"Words": "身为魔族的妮丝蒂尔，作为为数不多在那个时代还幸存的英雄，做出了两个让旁人无法理解的决定。"
	},
	{
		"ID": 905,
		"Name": "断章故事（9）3-3·过去与未来的相会",
		"NextDialogID": 906,
		"FrameType": 0,
		"CharName": "圣剑精灵",
		"CharImageID": 89,
		"Position": 0,
		"EnterType": 1,
		"PreAnimation": "",
		"PreFacialAnimation": "",
		"IdleAnimation": "idle_Dialog_Normal",
		"IdleFacialAnimation": "idle_Dialog_Normal",
		"Voice": "",
		"Words": "一是，将自己与兰迪乌斯的血脉后人，远送大洋彼岸的艾露萨利亚大陆……"
	},
	{
		"ID": 906,
		"Name": "断章故事（9）3-3·过去与未来的相会",
		"NextDialogID": 907,
		"FrameType": 0,
		"CharName": "圣剑精灵",
		"CharImageID": 89,
		"Position": 0,
		"EnterType": 1,
		"PreAnimation": "",
		"PreFacialAnimation": "",
		"IdleAnimation": "idle_Dialog_Normal",
		"IdleFacialAnimation": "idle_Dialog_Normal",
		"Voice": "",
		"Words": "二是，将自己的灵魂与霜之世界树融为一体……"
	},
	{
		"ID": 907,
		"Name": "断章故事（9）3-3·过去与未来的相会",
		"NextDialogID": 0,
		"FrameType": 0,
		"CharName": "圣剑精灵",
		"CharImageID": 89,
		"Position": 0,
		"EnterType": 1,
		"PreAnimation": "",
		"PreFacialAnimation": "",
		"IdleAnimation": "idle_Dialog_Normal",
		"IdleFacialAnimation": "idle_Dialog_Normal",
		"Voice": "",
		"Words": "没有人能够料到，这两个看似任性的选择，会在百年之后……彻底改变整个世界的命运。"
	}
]