[
	{
		"ID": 1,
		"Name": "竞技场1",
		"Desc": "竞技场1",
		"BattlefieldID": 301,
		"CameraX": 5,
		"CameraY": 3,
		"DefendCameraX": 6,
		"DefendCameraY": 3,
		"PrepareMusic": "BattleMusic_Prepare",
		"BattleMusic": "BattleMusic_Knights_Errant",
		"DefendBattleMusic": "BattleMusic_09_Reinforce_of_Enemy_Remake",
		"AttackNumber": 5,
		"AttackPositions": [
			{
				"X": 0,
				"Y": 2
			},
			{
				"X": 0,
				"Y": 3
			},
			{
				"X": 0,
				"Y": 4
			},
			{
				"X": 1,
				"Y": 2
			},
			{
				"X": 1,
				"Y": 3
			},
			{
				"X": 1,
				"Y": 4
			},
			{
				"X": 2,
				"Y": 2
			},
			{
				"X": 2,
				"Y": 3
			},
			{
				"X": 2,
				"Y": 4
			}
		],
		"DefendNumber": 5,
		"DefendPositions": [
			{
				"X": 9,
				"Y": 2
			},
			{
				"X": 9,
				"Y": 3
			},
			{
				"X": 9,
				"Y": 4
			},
			{
				"X": 10,
				"Y": 2
			},
			{
				"X": 10,
				"Y": 3
			},
			{
				"X": 10,
				"Y": 4
			},
			{
				"X": 11,
				"Y": 2
			},
			{
				"X": 11,
				"Y": 3
			},
			{
				"X": 11,
				"Y": 4
			}
		],
		"EventTriggersID": [
			70000,
			70001
		],
		"Image": "UI/BattleThumbnail_ABS/Arena001.png"
	},
	{
		"ID": 2,
		"Name": "竞技场2",
		"Desc": "竞技场2",
		"BattlefieldID": 302,
		"CameraX": 5,
		"CameraY": 3,
		"DefendCameraX": 6,
		"DefendCameraY": 3,
		"PrepareMusic": "BattleMusic_Prepare",
		"BattleMusic": "BattleMusic_07_No_Surrender_Remake_loop",
		"DefendBattleMusic": "BattleMusic_10_Fight_It_Out_Remake",
		"AttackNumber": 5,
		"AttackPositions": [
			{
				"X": 0,
				"Y": 2
			},
			{
				"X": 0,
				"Y": 3
			},
			{
				"X": 0,
				"Y": 4
			},
			{
				"X": 1,
				"Y": 2
			},
			{
				"X": 1,
				"Y": 3
			},
			{
				"X": 1,
				"Y": 4
			},
			{
				"X": 2,
				"Y": 2
			},
			{
				"X": 2,
				"Y": 3
			},
			{
				"X": 2,
				"Y": 4
			}
		],
		"DefendNumber": 5,
		"DefendPositions": [
			{
				"X": 9,
				"Y": 2
			},
			{
				"X": 9,
				"Y": 3
			},
			{
				"X": 9,
				"Y": 4
			},
			{
				"X": 10,
				"Y": 2
			},
			{
				"X": 10,
				"Y": 3
			},
			{
				"X": 10,
				"Y": 4
			},
			{
				"X": 11,
				"Y": 2
			},
			{
				"X": 11,
				"Y": 3
			},
			{
				"X": 11,
				"Y": 4
			}
		],
		"EventTriggersID": [
			70000,
			70001
		],
		"Image": "UI/BattleThumbnail_ABS/Arena002.png"
	},
	{
		"ID": 3,
		"Name": "竞技场3",
		"Desc": "竞技场3",
		"BattlefieldID": 303,
		"CameraX": 5,
		"CameraY": 3,
		"DefendCameraX": 6,
		"DefendCameraY": 3,
		"PrepareMusic": "BattleMusic_Prepare",
		"BattleMusic": "BattleMusic_NormalBattle",
		"DefendBattleMusic": "BattleMusic_Ⅰ_05_Remake",
		"AttackNumber": 5,
		"AttackPositions": [
			{
				"X": 0,
				"Y": 2
			},
			{
				"X": 0,
				"Y": 3
			},
			{
				"X": 0,
				"Y": 4
			},
			{
				"X": 1,
				"Y": 2
			},
			{
				"X": 1,
				"Y": 3
			},
			{
				"X": 1,
				"Y": 4
			},
			{
				"X": 2,
				"Y": 2
			},
			{
				"X": 2,
				"Y": 3
			},
			{
				"X": 2,
				"Y": 4
			}
		],
		"DefendNumber": 5,
		"DefendPositions": [
			{
				"X": 9,
				"Y": 2
			},
			{
				"X": 9,
				"Y": 3
			},
			{
				"X": 9,
				"Y": 4
			},
			{
				"X": 10,
				"Y": 2
			},
			{
				"X": 10,
				"Y": 3
			},
			{
				"X": 10,
				"Y": 4
			},
			{
				"X": 11,
				"Y": 2
			},
			{
				"X": 11,
				"Y": 3
			},
			{
				"X": 11,
				"Y": 4
			}
		],
		"EventTriggersID": [
			70000,
			70001
		],
		"Image": "UI/BattleThumbnail_ABS/Arena003.png"
	},
	{
		"ID": 4,
		"Name": "竞技场4",
		"Desc": "竞技场4",
		"BattlefieldID": 304,
		"CameraX": 5,
		"CameraY": 3,
		"DefendCameraX": 6,
		"DefendCameraY": 3,
		"PrepareMusic": "BattleMusic_Prepare",
		"BattleMusic": "BattleMusic_Ⅰ_03_Remake",
		"DefendBattleMusic": "BattleMusic_Ⅱ_06_Morgan",
		"AttackNumber": 5,
		"AttackPositions": [
			{
				"X": 0,
				"Y": 2
			},
			{
				"X": 0,
				"Y": 3
			},
			{
				"X": 0,
				"Y": 4
			},
			{
				"X": 1,
				"Y": 2
			},
			{
				"X": 1,
				"Y": 3
			},
			{
				"X": 1,
				"Y": 4
			},
			{
				"X": 2,
				"Y": 2
			},
			{
				"X": 2,
				"Y": 3
			},
			{
				"X": 2,
				"Y": 4
			}
		],
		"DefendNumber": 5,
		"DefendPositions": [
			{
				"X": 9,
				"Y": 2
			},
			{
				"X": 9,
				"Y": 3
			},
			{
				"X": 9,
				"Y": 4
			},
			{
				"X": 10,
				"Y": 2
			},
			{
				"X": 10,
				"Y": 3
			},
			{
				"X": 10,
				"Y": 4
			},
			{
				"X": 11,
				"Y": 2
			},
			{
				"X": 11,
				"Y": 3
			},
			{
				"X": 11,
				"Y": 4
			}
		],
		"EventTriggersID": [
			70000,
			70001
		],
		"Image": "UI/BattleThumbnail_ABS/Arena004.png"
	},
	{
		"ID": 5,
		"Name": "竞技场5",
		"Desc": "竞技场5",
		"BattlefieldID": 305,
		"CameraX": 5,
		"CameraY": 3,
		"DefendCameraX": 6,
		"DefendCameraY": 3,
		"PrepareMusic": "BattleMusic_Prepare",
		"BattleMusic": "BattleMusic_Ⅰ_11",
		"DefendBattleMusic": "BattleMusic_Ⅱ_02_Leon",
		"AttackNumber": 5,
		"AttackPositions": [
			{
				"X": 0,
				"Y": 2
			},
			{
				"X": 0,
				"Y": 3
			},
			{
				"X": 0,
				"Y": 4
			},
			{
				"X": 1,
				"Y": 2
			},
			{
				"X": 1,
				"Y": 3
			},
			{
				"X": 1,
				"Y": 4
			},
			{
				"X": 2,
				"Y": 2
			},
			{
				"X": 2,
				"Y": 3
			},
			{
				"X": 2,
				"Y": 4
			}
		],
		"DefendNumber": 5,
		"DefendPositions": [
			{
				"X": 9,
				"Y": 2
			},
			{
				"X": 9,
				"Y": 3
			},
			{
				"X": 9,
				"Y": 4
			},
			{
				"X": 10,
				"Y": 2
			},
			{
				"X": 10,
				"Y": 3
			},
			{
				"X": 10,
				"Y": 4
			},
			{
				"X": 11,
				"Y": 2
			},
			{
				"X": 11,
				"Y": 3
			},
			{
				"X": 11,
				"Y": 4
			}
		],
		"EventTriggersID": [
			70000,
			70001
		],
		"Image": "UI/BattleThumbnail_ABS/Arena005.png"
	},
	{
		"ID": 6,
		"Name": "竞技场6",
		"Desc": "竞技场6",
		"BattlefieldID": 306,
		"CameraX": 5,
		"CameraY": 3,
		"DefendCameraX": 6,
		"DefendCameraY": 3,
		"PrepareMusic": "BattleMusic_Prepare",
		"BattleMusic": "BattleMusic_Ⅰ_06_Remake",
		"DefendBattleMusic": "BattleMusic_Ⅱ_11_Eggbert",
		"AttackNumber": 5,
		"AttackPositions": [
			{
				"X": 0,
				"Y": 2
			},
			{
				"X": 0,
				"Y": 3
			},
			{
				"X": 0,
				"Y": 4
			},
			{
				"X": 1,
				"Y": 2
			},
			{
				"X": 1,
				"Y": 3
			},
			{
				"X": 1,
				"Y": 4
			},
			{
				"X": 2,
				"Y": 2
			},
			{
				"X": 2,
				"Y": 3
			},
			{
				"X": 2,
				"Y": 4
			}
		],
		"DefendNumber": 5,
		"DefendPositions": [
			{
				"X": 9,
				"Y": 2
			},
			{
				"X": 9,
				"Y": 3
			},
			{
				"X": 9,
				"Y": 4
			},
			{
				"X": 10,
				"Y": 2
			},
			{
				"X": 10,
				"Y": 3
			},
			{
				"X": 10,
				"Y": 4
			},
			{
				"X": 11,
				"Y": 2
			},
			{
				"X": 11,
				"Y": 3
			},
			{
				"X": 11,
				"Y": 4
			}
		],
		"EventTriggersID": [
			70000,
			70001
		],
		"Image": "UI/BattleThumbnail_ABS/Arena006.png"
	},
	{
		"ID": 7,
		"Name": "竞技场7",
		"Desc": "竞技场7",
		"BattlefieldID": 307,
		"CameraX": 5,
		"CameraY": 3,
		"DefendCameraX": 6,
		"DefendCameraY": 3,
		"PrepareMusic": "BattleMusic_Prepare",
		"BattleMusic": "BattleMusic_05_One's_Side_Remake_loop",
		"DefendBattleMusic": "BattleMusic_I_08",
		"AttackNumber": 5,
		"AttackPositions": [
			{
				"X": 0,
				"Y": 2
			},
			{
				"X": 0,
				"Y": 3
			},
			{
				"X": 0,
				"Y": 4
			},
			{
				"X": 1,
				"Y": 2
			},
			{
				"X": 1,
				"Y": 3
			},
			{
				"X": 1,
				"Y": 4
			},
			{
				"X": 2,
				"Y": 2
			},
			{
				"X": 2,
				"Y": 3
			},
			{
				"X": 2,
				"Y": 4
			}
		],
		"DefendNumber": 5,
		"DefendPositions": [
			{
				"X": 9,
				"Y": 2
			},
			{
				"X": 9,
				"Y": 3
			},
			{
				"X": 9,
				"Y": 4
			},
			{
				"X": 10,
				"Y": 2
			},
			{
				"X": 10,
				"Y": 3
			},
			{
				"X": 10,
				"Y": 4
			},
			{
				"X": 11,
				"Y": 2
			},
			{
				"X": 11,
				"Y": 3
			},
			{
				"X": 11,
				"Y": 4
			}
		],
		"EventTriggersID": [
			70000,
			70001
		],
		"Image": "UI/BattleThumbnail_ABS/Arena007.png"
	},
	{
		"ID": 8,
		"Name": "竞技场8",
		"Desc": "竞技场8",
		"BattlefieldID": 308,
		"CameraX": 5,
		"CameraY": 3,
		"DefendCameraX": 6,
		"DefendCameraY": 3,
		"PrepareMusic": "BattleMusic_Prepare",
		"BattleMusic": "BattleMusic_Knights_Errant",
		"DefendBattleMusic": "BattleMusic_Ⅱ_08_Jyaakunaru_Mono",
		"AttackNumber": 5,
		"AttackPositions": [
			{
				"X": 0,
				"Y": 2
			},
			{
				"X": 0,
				"Y": 3
			},
			{
				"X": 0,
				"Y": 4
			},
			{
				"X": 1,
				"Y": 2
			},
			{
				"X": 1,
				"Y": 3
			},
			{
				"X": 1,
				"Y": 4
			},
			{
				"X": 2,
				"Y": 2
			},
			{
				"X": 2,
				"Y": 3
			},
			{
				"X": 2,
				"Y": 4
			}
		],
		"DefendNumber": 5,
		"DefendPositions": [
			{
				"X": 9,
				"Y": 2
			},
			{
				"X": 9,
				"Y": 3
			},
			{
				"X": 9,
				"Y": 4
			},
			{
				"X": 10,
				"Y": 2
			},
			{
				"X": 10,
				"Y": 3
			},
			{
				"X": 10,
				"Y": 4
			},
			{
				"X": 11,
				"Y": 2
			},
			{
				"X": 11,
				"Y": 3
			},
			{
				"X": 11,
				"Y": 4
			}
		],
		"EventTriggersID": [
			70000,
			70001
		],
		"Image": "UI/BattleThumbnail_ABS/Arena008.png"
	},
	{
		"ID": 9,
		"Name": "竞技场9",
		"Desc": "竞技场9",
		"BattlefieldID": 309,
		"CameraX": 5,
		"CameraY": 3,
		"DefendCameraX": 6,
		"DefendCameraY": 3,
		"PrepareMusic": "BattleMusic_Prepare",
		"BattleMusic": "BattleMusic_Neo_HolyWar",
		"DefendBattleMusic": "BattleMusic_09_Reinforce_of_Enemy_Remake",
		"AttackNumber": 5,
		"AttackPositions": [
			{
				"X": 0,
				"Y": 2
			},
			{
				"X": 0,
				"Y": 3
			},
			{
				"X": 0,
				"Y": 4
			},
			{
				"X": 1,
				"Y": 2
			},
			{
				"X": 1,
				"Y": 3
			},
			{
				"X": 1,
				"Y": 4
			},
			{
				"X": 2,
				"Y": 2
			},
			{
				"X": 2,
				"Y": 3
			},
			{
				"X": 2,
				"Y": 4
			}
		],
		"DefendNumber": 5,
		"DefendPositions": [
			{
				"X": 9,
				"Y": 2
			},
			{
				"X": 9,
				"Y": 3
			},
			{
				"X": 9,
				"Y": 4
			},
			{
				"X": 10,
				"Y": 2
			},
			{
				"X": 10,
				"Y": 3
			},
			{
				"X": 10,
				"Y": 4
			},
			{
				"X": 11,
				"Y": 2
			},
			{
				"X": 11,
				"Y": 3
			},
			{
				"X": 11,
				"Y": 4
			}
		],
		"EventTriggersID": [
			70000,
			70001
		],
		"Image": "UI/BattleThumbnail_ABS/Arena009.png"
	},
	{
		"ID": 10,
		"Name": "竞技场10",
		"Desc": "竞技场10",
		"BattlefieldID": 310,
		"CameraX": 5,
		"CameraY": 3,
		"DefendCameraX": 6,
		"DefendCameraY": 3,
		"PrepareMusic": "BattleMusic_Prepare",
		"BattleMusic": "BattleMusic_Neo_HolyWar",
		"DefendBattleMusic": "BattleMusic_09_Reinforce_of_Enemy_Remake",
		"AttackNumber": 5,
		"AttackPositions": [
			{
				"X": 0,
				"Y": 2
			},
			{
				"X": 0,
				"Y": 3
			},
			{
				"X": 0,
				"Y": 4
			},
			{
				"X": 1,
				"Y": 2
			},
			{
				"X": 1,
				"Y": 3
			},
			{
				"X": 1,
				"Y": 4
			},
			{
				"X": 2,
				"Y": 2
			},
			{
				"X": 2,
				"Y": 3
			},
			{
				"X": 2,
				"Y": 4
			}
		],
		"DefendNumber": 5,
		"DefendPositions": [
			{
				"X": 9,
				"Y": 2
			},
			{
				"X": 9,
				"Y": 3
			},
			{
				"X": 9,
				"Y": 4
			},
			{
				"X": 10,
				"Y": 2
			},
			{
				"X": 10,
				"Y": 3
			},
			{
				"X": 10,
				"Y": 4
			},
			{
				"X": 11,
				"Y": 2
			},
			{
				"X": 11,
				"Y": 3
			},
			{
				"X": 11,
				"Y": 4
			}
		],
		"EventTriggersID": [
			70000,
			70001
		],
		"Image": "UI/BattleThumbnail_ABS/Arena010.png"
	}
]