[
	{
		"ID": 1,
		"Name": "Blue Mint",
		"BoostHeroIdList": [
			14,
			26,
			13,
			16,
			47,
			48
		]
	},
	{
		"ID": 2,
		"Name": "Yellow Candyman",
		"BoostHeroIdList": [
			8,
			6,
			5,
			21,
			40,
			23
		]
	},
	{
		"ID": 3,
		"Name": "Green Cocoa",
		"BoostHeroIdList": [
			52,
			53,
			33,
			34,
			44,
			24
		]
	},
	{
		"ID": 4,
		"Name": "Red Cake",
		"BoostHeroIdList": [
			51,
			12,
			11,
			17,
			22,
			43
		]
	},
	{
		"ID": 5,
		"Name": "Small Gear",
		"BoostHeroIdList": [
			26,
			56,
			69,
			1,
			22,
			30
		]
	},
	{
		"ID": 6,
		"Name": "Screw",
		"BoostHeroIdList": [
			25,
			53,
			70,
			4,
			13,
			36
		]
	},
	{
		"ID": 7,
		"Name": "Vacuum Tube",
		"BoostHeroIdList": [
			9,
			10,
			74,
			3,
			17,
			32
		]
	},
	{
		"ID": 8,
		"Name": "Alhazard's Aftermath",
		"BoostHeroIdList": [
			6,
			8,
			18,
			21,
			44,
			23
		]
	},
	{
		"ID": 9,
		"Name": "Sullen Darkfire",
		"BoostHeroIdList": [
			12,
			7,
			9,
			17,
			22,
			24
		]
	},
	{
		"ID": 10,
		"Name": "Glory of Devastation",
		"BoostHeroIdList": [
			15,
			14,
			20,
			13,
			19,
			45
		]
	},
	{
		"ID": 11,
		"Name": "Spring Sakura",
		"BoostHeroIdList": [
			79,
			26,
			27,
			4,
			16,
			47
		]
	},
	{
		"ID": 12,
		"Name": "Summer Sakura",
		"BoostHeroIdList": [
			81,
			51,
			55,
			3,
			11,
			21
		]
	},
	{
		"ID": 13,
		"Name": "Autumn Sakura",
		"BoostHeroIdList": [
			80,
			25,
			28,
			1,
			36,
			49
		]
	},
	{
		"ID": 14,
		"Name": "Winter Sakura",
		"BoostHeroIdList": [
			35,
			10,
			14,
			13,
			5,
			31
		]
	},
	{
		"ID": 15,
		"Name": "Takoyaki",
		"BoostHeroIdList": [
			33,
			27,
			52,
			54,
			1,
			34
		]
	},
	{
		"ID": 16,
		"Name": "Shaved Ice",
		"BoostHeroIdList": [
			21,
			6,
			15,
			7,
			4,
			18
		]
	},
	{
		"ID": 17,
		"Name": "Apple Candy",
		"BoostHeroIdList": [
			37,
			29,
			8,
			53,
			3,
			20
		]
	},
	{
		"ID": 18,
		"Name": "Planner's Tears",
		"BoostHeroIdList": [
			15,
			26,
			14,
			61,
			1,
			47
		]
	},
	{
		"ID": 19,
		"Name": "Programmer's Plaid Shirt",
		"BoostHeroIdList": [
			28,
			7,
			54,
			51,
			4,
			39
		]
	},
	{
		"ID": 20,
		"Name": "Artist's Tentacle",
		"BoostHeroIdList": [
			88,
			6,
			56,
			10,
			3,
			11
		]
	},
	{
		"ID": 21,
		"Name": "Producer's Garage Kit",
		"BoostHeroIdList": [
			9,
			25,
			8,
			59,
			34,
			31
		]
	},
	{
		"ID": 22,
		"Name": "Festive Pumpkin",
		"BoostHeroIdList": [
			55,
			12,
			61,
			88,
			1,
			31
		]
	},
	{
		"ID": 23,
		"Name": "Trick Candy",
		"BoostHeroIdList": [
			94,
			26,
			66,
			15,
			4,
			33
		]
	},
	{
		"ID": 24,
		"Name": "Magic Leather Hat",
		"BoostHeroIdList": [
			38,
			9,
			6,
			67,
			3,
			13
		]
	},
	{
		"ID": 25,
		"Name": "Celebration Dumpling",
		"BoostHeroIdList": [
			111,
			9,
			60,
			27,
			1,
			21
		]
	},
	{
		"ID": 26,
		"Name": "New Year's Koi",
		"BoostHeroIdList": [
			92,
			66,
			29,
			51,
			4,
			11
		]
	},
	{
		"ID": 27,
		"Name": "New Year's Fireworks",
		"BoostHeroIdList": [
			38,
			63,
			14,
			57,
			3,
			20
		]
	}
]