[
	{
		"ID": 1,
		"Name": "Top 1-10",
		"HighRank": 1,
		"LowRank": 10,
		"RankingRewardMailTemplateId": 249
	},
	{
		"ID": 2,
		"Name": "Top 11-50",
		"HighRank": 11,
		"LowRank": 50,
		"RankingRewardMailTemplateId": 250
	},
	{
		"ID": 3,
		"Name": "Top 51-100",
		"HighRank": 51,
		"LowRank": 100,
		"RankingRewardMailTemplateId": 251
	},
	{
		"ID": 4,
		"Name": "Top 101-500",
		"HighRank": 101,
		"LowRank": 500,
		"RankingRewardMailTemplateId": 252
	},
	{
		"ID": 5,
		"Name": "Top 501-1,000",
		"HighRank": 501,
		"LowRank": 1000,
		"RankingRewardMailTemplateId": 253
	},
	{
		"ID": 6,
		"Name": "Top 1,001-3,000",
		"HighRank": 1001,
		"LowRank": 3000,
		"RankingRewardMailTemplateId": 254
	},
	{
		"ID": 7,
		"Name": "Top 3,001-5,000",
		"HighRank": 3001,
		"LowRank": 5000,
		"RankingRewardMailTemplateId": 255
	},
	{
		"ID": 8,
		"Name": "Top 5,001-10,000",
		"HighRank": 5001,
		"LowRank": 10000,
		"RankingRewardMailTemplateId": 256
	}
]