[
	{
		"ID": 1,
		"IsBoss": true,
		"NoDie": true,
		"ActionLoop": 3,
		"AddDamage": true
	},
	{
		"ID": 2,
		"IsBoss": true,
		"NoDie": true,
		"ActionLoop": 3,
		"AddDamage": true
	},
	{
		"ID": 3,
		"IsBoss": true,
		"NoDie": true,
		"ActionLoop": 3,
		"AddDamage": true
	},
	{
		"ID": 4,
		"IsBoss": true,
		"NoDie": true,
		"ActionLoop": 1,
		"AddDamage": true
	},
	{
		"ID": 5,
		"IsBoss": true,
		"NoDie": true,
		"ActionLoop": 3,
		"AddDamage": true
	},
	{
		"ID": 6,
		"IsBoss": true,
		"NoDie": true,
		"ActionLoop": 3,
		"AddDamage": true
	},
	{
		"ID": 7,
		"IsBoss": true,
		"NoDie": true,
		"ActionLoop": 3,
		"AddDamage": true
	},
	{
		"ID": 8,
		"IsBoss": false,
		"NoDie": false,
		"ActionLoop": 1,
		"AddDamage": true
	},
	{
		"ID": 9,
		"IsBoss": false,
		"NoDie": false,
		"ActionLoop": 1,
		"AddDamage": true
	},
	{
		"ID": 10,
		"IsBoss": true,
		"NoDie": true,
		"ActionLoop": 3,
		"AddDamage": true
	},
	{
		"ID": 11,
		"IsBoss": true,
		"NoDie": true,
		"ActionLoop": 3,
		"AddDamage": true
	},
	{
		"ID": 12,
		"IsBoss": true,
		"NoDie": true,
		"ActionLoop": 4,
		"AddDamage": true
	},
	{
		"ID": 13,
		"IsBoss": true,
		"NoDie": true,
		"ActionLoop": 3,
		"AddDamage": true
	}
]