[
	{
		"ID": 1001,
		"Name": "Protagonist's Inheritance",
		"BattleID": 42000,
		"MonsterLevel": 70,
		"Desc": "I fight to guard the glory of Langrisser!",
		"Image": "UI/BattleThumbnail_ABS/Castle007.png"
	},
	{
		"ID": 1003,
		"Name": "Titanic Power",
		"BattleID": 42001,
		"MonsterLevel": 70,
		"Desc": "One person is a fortress in their own right!",
		"Image": "UI/BattleThumbnail_ABS/Castle007.png"
	},
	{
		"ID": 1004,
		"Name": "Firefly",
		"BattleID": 42002,
		"MonsterLevel": 70,
		"Desc": "Even the glow of a firefly can light up all of El Sallia!",
		"Image": "UI/BattleThumbnail_ABS/Castle007.png"
	},
	{
		"ID": 1005,
		"Name": "Love & Hope",
		"BattleID": 42003,
		"MonsterLevel": 70,
		"Desc": "Never lose hope!",
		"Image": "UI/BattleThumbnail_ABS/Castle007.png"
	},
	{
		"ID": 1006,
		"Name": "Dragoncall",
		"BattleID": 42004,
		"MonsterLevel": 70,
		"Desc": "This will be my final crusade!",
		"Image": "UI/BattleThumbnail_ABS/Castle007.png"
	},
	{
		"ID": 1007,
		"Name": "Emperor's Wrath",
		"BattleID": 42005,
		"MonsterLevel": 70,
		"Desc": "You and all who stand in the way of righteousness will perish under my sword!",
		"Image": "UI/BattleThumbnail_ABS/Castle007.png"
	},
	{
		"ID": 1008,
		"Name": "Maiden's Heart",
		"BattleID": 42006,
		"MonsterLevel": 70,
		"Desc": "Any enemy of Leon is an enemy of mine!",
		"Image": "UI/BattleThumbnail_ABS/Castle007.png"
	},
	{
		"ID": 1009,
		"Name": "Heart of Darkness",
		"BattleID": 42007,
		"MonsterLevel": 70,
		"Desc": "Filthy light... Fade away, forever!",
		"Image": "UI/BattleThumbnail_ABS/Castle007.png"
	},
	{
		"ID": 1010,
		"Name": "Reckoning",
		"BattleID": 42008,
		"MonsterLevel": 70,
		"Desc": "Hold justice in your heart and march on forever!",
		"Image": "UI/BattleThumbnail_ABS/Castle007.png"
	},
	{
		"ID": 1011,
		"Name": "Love's Behest",
		"BattleID": 42009,
		"MonsterLevel": 70,
		"Desc": "Lance, this is proof that I am worthy to fight by your side!",
		"Image": "UI/BattleThumbnail_ABS/Castle007.png"
	},
	{
		"ID": 1012,
		"Name": "Final Front",
		"BattleID": 42010,
		"MonsterLevel": 70,
		"Desc": "Be it the Empire or Chaos, nothing is invincible!",
		"Image": "UI/BattleThumbnail_ABS/Castle007.png"
	},
	{
		"ID": 1013,
		"Name": "Eternal Bond",
		"BattleID": 42011,
		"MonsterLevel": 70,
		"Desc": "Elwin's choice... is my final choice!",
		"Image": "UI/BattleThumbnail_ABS/Castle007.png"
	},
	{
		"ID": 1014,
		"Name": "Rampage",
		"BattleID": 42012,
		"MonsterLevel": 70,
		"Desc": "Reading is so boring... It's time for an adventure!",
		"Image": "UI/BattleThumbnail_ABS/Castle007.png"
	},
	{
		"ID": 1015,
		"Name": "Celestial Fire",
		"BattleID": 42013,
		"MonsterLevel": 70,
		"Desc": "Elwin, you've got some explaining to do!",
		"Image": "UI/BattleThumbnail_ABS/Castle007.png"
	},
	{
		"ID": 1016,
		"Name": "Born to Die",
		"BattleID": 42014,
		"MonsterLevel": 70,
		"Desc": "This disaster I have caused... I shall take responsibility for it!",
		"Image": "UI/BattleThumbnail_ABS/Castle007.png"
	},
	{
		"ID": 1017,
		"Name": "Dark Strike",
		"BattleID": 42015,
		"MonsterLevel": 70,
		"Desc": "I will shall fight the darkness with darkness!",
		"Image": "UI/BattleThumbnail_ABS/Castle007.png"
	},
	{
		"ID": 1018,
		"Name": "Subjugation",
		"BattleID": 42016,
		"MonsterLevel": 70,
		"Desc": "Glory or darkness — all shall kneel before me!",
		"Image": "UI/BattleThumbnail_ABS/Castle007.png"
	},
	{
		"ID": 1019,
		"Name": "Warden of the Seas",
		"BattleID": 42017,
		"MonsterLevel": 70,
		"Desc": "Anyone who tries to hurt Jessica will be swallowed by the waves!",
		"Image": "UI/BattleThumbnail_ABS/Castle007.png"
	},
	{
		"ID": 1020,
		"Name": "Demi-Demon",
		"BattleID": 42018,
		"MonsterLevel": 70,
		"Desc": "Feeble light — drown in the darkness!",
		"Image": "UI/BattleThumbnail_ABS/Castle007.png"
	},
	{
		"ID": 1021,
		"Name": "Flame Dragon Howl",
		"BattleID": 42019,
		"MonsterLevel": 70,
		"Desc": "The Blazing Dragon Brigade is for those who fight to their last, not deserters who turn tail and run!",
		"Image": "UI/BattleThumbnail_ABS/Castle007.png"
	},
	{
		"ID": 1022,
		"Name": "Light's Will",
		"BattleID": 42020,
		"MonsterLevel": 70,
		"Desc": "In the name of the Goddess, all who are stained with darkness will be purified!",
		"Image": "UI/BattleThumbnail_ABS/Castle007.png"
	},
	{
		"ID": 1023,
		"Name": "Blood Vessel",
		"BattleID": 42021,
		"MonsterLevel": 70,
		"Desc": "I'm sorry, my sword beckons for the one they call Rohga!",
		"Image": "UI/BattleThumbnail_ABS/Castle007.png"
	},
	{
		"ID": 1024,
		"Name": "Knight's Will",
		"BattleID": 42022,
		"MonsterLevel": 70,
		"Desc": "It is those on the battlefield who decide the outcome of war.",
		"Image": "UI/BattleThumbnail_ABS/Castle007.png"
	},
	{
		"ID": 1025,
		"Name": "Final Choice",
		"BattleID": 42023,
		"MonsterLevel": 70,
		"Desc": "For Varna, I would take on the gods themselves!",
		"Image": "UI/BattleThumbnail_ABS/Castle007.png"
	},
	{
		"ID": 1026,
		"Name": "Storm Fury",
		"BattleID": 42024,
		"MonsterLevel": 70,
		"Desc": "Wind, obey my call! Tear the enemy to shreds!",
		"Image": "UI/BattleThumbnail_ABS/Castle007.png"
	},
	{
		"ID": 1027,
		"Name": "Dawn of Light",
		"BattleID": 42025,
		"MonsterLevel": 70,
		"Desc": "For freedom, break through the darkness and usher in the dawn!",
		"Image": "UI/BattleThumbnail_ABS/Castle007.png"
	},
	{
		"ID": 1028,
		"Name": "Dark Glaze",
		"BattleID": 42026,
		"MonsterLevel": 70,
		"Desc": "Whatever Matthew needs, Zerida is here to give her all!",
		"Image": "UI/BattleThumbnail_ABS/Castle007.png"
	},
	{
		"ID": 1029,
		"Name": "Vengeance",
		"BattleID": 42027,
		"MonsterLevel": 70,
		"Desc": "For father, and for all the innocent people who died in Larcuss!",
		"Image": "UI/BattleThumbnail_ABS/Castle007.png"
	},
	{
		"ID": 1030,
		"Name": "Magic Arrow",
		"BattleID": 42028,
		"MonsterLevel": 70,
		"Desc": "Magic is a power created to eliminate pain...",
		"Image": "UI/BattleThumbnail_ABS/Castle007.png"
	},
	{
		"ID": 1031,
		"Name": "Light's Sacrifice",
		"BattleID": 42029,
		"MonsterLevel": 70,
		"Desc": "I... I would give my life for permanent peace!",
		"Image": "UI/BattleThumbnail_ABS/Castle007.png"
	},
	{
		"ID": 1032,
		"Name": "The Art of War",
		"BattleID": 42030,
		"MonsterLevel": 70,
		"Desc": "I have a lot to learn about war. Please give me your advice!",
		"Image": "UI/BattleThumbnail_ABS/Castle007.png"
	},
	{
		"ID": 1033,
		"Name": "Empress's Tenacity",
		"BattleID": 42031,
		"MonsterLevel": 70,
		"Desc": "Anyone who dares to harm Barral will die under my lance!",
		"Image": "UI/BattleThumbnail_ABS/Castle007.png"
	},
	{
		"ID": 1034,
		"Name": "Dual Wield",
		"BattleID": 42032,
		"MonsterLevel": 70,
		"Desc": "The fate of a samurai, is to live and die by the sword.",
		"Image": "UI/BattleThumbnail_ABS/Castle007.png"
	},
	{
		"ID": 1035,
		"Name": "Vengeful Heart",
		"BattleID": 42033,
		"MonsterLevel": 70,
		"Desc": "Yes... This is the path of revenge. I remember it all now.",
		"Image": "UI/BattleThumbnail_ABS/Castle007.png"
	},
	{
		"ID": 1036,
		"Name": "Cherished Embrace",
		"BattleID": 42034,
		"MonsterLevel": 70,
		"Desc": "From the mysterious kingdom of the East, I am a warrior who follows a strict code of morality. Please give me your guidance.",
		"Image": "UI/BattleThumbnail_ABS/Castle007.png"
	},
	{
		"ID": 1037,
		"Name": "Bestial Wrath",
		"BattleID": 42035,
		"MonsterLevel": 70,
		"Desc": "Welcome my wrath with open arms!",
		"Image": "UI/BattleThumbnail_ABS/Castle007.png"
	},
	{
		"ID": 1038,
		"Name": "Lover's Heart",
		"BattleID": 42036,
		"MonsterLevel": 70,
		"Desc": "No one will stop me from laying my spear before Layla!",
		"Image": "UI/BattleThumbnail_ABS/Castle007.png"
	},
	{
		"ID": 1039,
		"Name": "Sorceress",
		"BattleID": 42037,
		"MonsterLevel": 70,
		"Desc": "You want to be loved by me? In the darkness...",
		"Image": "UI/BattleThumbnail_ABS/Castle007.png"
	},
	{
		"ID": 1040,
		"Name": "Light's Edification",
		"BattleID": 42038,
		"MonsterLevel": 70,
		"Desc": "Prove to me whether the light is still within you.",
		"Image": "UI/BattleThumbnail_ABS/Castle007.png"
	},
	{
		"ID": 1041,
		"Name": "Squire",
		"BattleID": 42039,
		"MonsterLevel": 70,
		"Desc": "Though an apprentice knight, before I fall, I will not allow the enemy to advance one step!",
		"Image": "UI/BattleThumbnail_ABS/Castle007.png"
	},
	{
		"ID": 1042,
		"Name": "Fealty",
		"BattleID": 42040,
		"MonsterLevel": 70,
		"Desc": "Ensuring the safety of the princess is my duty!",
		"Image": "UI/BattleThumbnail_ABS/Castle007.png"
	},
	{
		"ID": 1043,
		"Name": "Unbending Will",
		"BattleID": 42041,
		"MonsterLevel": 70,
		"Desc": "Although I'm not as strong as my sister, don't underestimate me!",
		"Image": "UI/BattleThumbnail_ABS/Castle007.png"
	},
	{
		"ID": 1044,
		"Name": "Commanding Influence",
		"BattleID": 42042,
		"MonsterLevel": 70,
		"Desc": "I will not let Lord Leon down!",
		"Image": "UI/BattleThumbnail_ABS/Castle007.png"
	},
	{
		"ID": 1045,
		"Name": "Scholarly Responsibility",
		"BattleID": 42043,
		"MonsterLevel": 70,
		"Desc": "Your highness, it's time to study.",
		"Image": "UI/BattleThumbnail_ABS/Castle007.png"
	},
	{
		"ID": 1046,
		"Name": "Celia's Awakening",
		"BattleID": 301,
		"MonsterLevel": 70,
		"Desc": "Celia's Awakening",
		"Image": "UI/BattleThumbnail_ABS/Castle007.png"
	},
	{
		"ID": 1047,
		"Name": "Adulation",
		"BattleID": 42044,
		"MonsterLevel": 70,
		"Desc": "I must get Lance to notice me!",
		"Image": "UI/BattleThumbnail_ABS/Castle007.png"
	},
	{
		"ID": 1048,
		"Name": "Swordsman's Pride",
		"BattleID": 42045,
		"MonsterLevel": 70,
		"Desc": "When I hold my sword, I am just a swordsman, regardless of my age!",
		"Image": "UI/BattleThumbnail_ABS/Castle007.png"
	},
	{
		"ID": 1049,
		"Name": "Tailless Arrow",
		"BattleID": 42046,
		"MonsterLevel": 70,
		"Desc": "No matter what the Marshal goes through, I will always remain at his side.",
		"Image": "UI/BattleThumbnail_ABS/Castle007.png"
	},
	{
		"ID": 1050,
		"Name": "Alhazard Zerida's Awakening",
		"BattleID": 301,
		"MonsterLevel": 70,
		"Desc": "Alhazard Zerida's Awakening",
		"Image": "UI/BattleThumbnail_ABS/Castle007.png"
	},
	{
		"ID": 1051,
		"Name": "Immortal Will",
		"BattleID": 42047,
		"MonsterLevel": 70,
		"Desc": "The will of Caconsis will never die.",
		"Image": "UI/BattleThumbnail_ABS/Castle007.png"
	},
	{
		"ID": 1052,
		"Name": "Rainbow",
		"BattleID": 42048,
		"MonsterLevel": 70,
		"Desc": "Whatever my sister wants... That's what I'll do!",
		"Image": "UI/BattleThumbnail_ABS/Castle007.png"
	},
	{
		"ID": 1053,
		"Name": "Golden Aegis",
		"BattleID": 42049,
		"MonsterLevel": 70,
		"Desc": "What I firmly believe... is that no one can destroy the peace of this continent!",
		"Image": "UI/BattleThumbnail_ABS/Castle007.png"
	},
	{
		"ID": 1054,
		"Name": "Sunkiss",
		"BattleID": 42050,
		"MonsterLevel": 70,
		"Desc": "The things I've worked so hard for... No one shall ever destroy them!",
		"Image": "UI/BattleThumbnail_ABS/Castle007.png"
	},
	{
		"ID": 1055,
		"Name": "Guardian's Vow",
		"BattleID": 42051,
		"MonsterLevel": 70,
		"Desc": "I have come to terms with death... For me, there is no retreat.",
		"Image": "UI/BattleThumbnail_ABS/Castle007.png"
	},
	{
		"ID": 1056,
		"Name": "Resolute Soul",
		"BattleID": 42052,
		"MonsterLevel": 70,
		"Desc": "I will no longer be at the mercy of others! I shall not be a burden on my brother!",
		"Image": "UI/BattleThumbnail_ABS/Castle007.png"
	},
	{
		"ID": 1057,
		"Name": "Final Conflict",
		"BattleID": 42053,
		"MonsterLevel": 70,
		"Desc": "In the end, it seems I'm the only one left to fight this war...",
		"Image": "UI/BattleThumbnail_ABS/Castle007.png"
	},
	{
		"ID": 1058,
		"Name": "Fearless Spear",
		"BattleID": 42054,
		"MonsterLevel": 70,
		"Desc": "As long as I'm standing, no one will harm Admiral Wiler!",
		"Image": "UI/BattleThumbnail_ABS/Castle007.png"
	},
	{
		"ID": 1059,
		"Name": "Will of Creation",
		"BattleID": 42055,
		"MonsterLevel": 70,
		"Desc": "So willing to fall before your so-called god... You do not deserve to live in my love's new world!",
		"Image": "UI/BattleThumbnail_ABS/Castle007.png"
	},
	{
		"ID": 1060,
		"Name": "Savior",
		"BattleID": 42056,
		"MonsterLevel": 70,
		"Desc": "This is my choice, and my destiny.",
		"Image": "UI/BattleThumbnail_ABS/Castle007.png"
	},
	{
		"ID": 1061,
		"Name": "Emerald Touch",
		"BattleID": 42057,
		"MonsterLevel": 70,
		"Desc": "Pain is the only thing you have to offer, and now you shall repent.",
		"Image": "UI/BattleThumbnail_ABS/Castle007.png"
	},
	{
		"ID": 1062,
		"Name": "Pledge of Youth",
		"BattleID": 42058,
		"MonsterLevel": 70,
		"Desc": "I will fight on bravely... alone!",
		"Image": "UI/BattleThumbnail_ABS/Castle007.png"
	},
	{
		"ID": 1063,
		"Name": "Lunar Vow",
		"BattleID": 42059,
		"MonsterLevel": 70,
		"Desc": "All I have strived to do is keep my people alive.",
		"Image": "UI/BattleThumbnail_ABS/Castle007.png"
	},
	{
		"ID": 1064,
		"Name": "The Thorns of Fate",
		"BattleID": 42083,
		"MonsterLevel": 70,
		"Desc": "We must all pay the price for what we have done...",
		"Image": "UI/BattleThumbnail_ABS/Castle007.png"
	},
	{
		"ID": 1065,
		"Name": "Will of Crimzonia",
		"BattleID": 42082,
		"MonsterLevel": 70,
		"Desc": "I can see clearly! This counterattack is for every Crimzonian!",
		"Image": "UI/BattleThumbnail_ABS/Castle007.png"
	},
	{
		"ID": 1066,
		"Name": "Sky Wing",
		"BattleID": 42060,
		"MonsterLevel": 70,
		"Desc": "It's finally my turn to show what I can do!",
		"Image": "UI/BattleThumbnail_ABS/Castle007.png"
	},
	{
		"ID": 1067,
		"Name": "Insanity",
		"BattleID": 42061,
		"MonsterLevel": 70,
		"Desc": "Fight... Fight...!",
		"Image": "UI/BattleThumbnail_ABS/Castle007.png"
	},
	{
		"ID": 1068,
		"Name": "",
		"BattleID": 301,
		"MonsterLevel": 70,
		"Desc": "",
		"Image": "UI/BattleThumbnail_ABS/Castle007.png"
	},
	{
		"ID": 1069,
		"Name": "Will of the Bracers",
		"BattleID": 42062,
		"MonsterLevel": 70,
		"Desc": "For everyone behind me... I can't turn back... I will never turn back!",
		"Image": "UI/BattleThumbnail_ABS/Castle007.png"
	},
	{
		"ID": 1070,
		"Name": "Moonlight Pact",
		"BattleID": 42063,
		"MonsterLevel": 70,
		"Desc": "What keeps me going... is the bond in my heart...",
		"Image": "UI/BattleThumbnail_ABS/Castle007.png"
	},
	{
		"ID": 1071,
		"Name": "Angel of Death",
		"BattleID": 42064,
		"MonsterLevel": 70,
		"Desc": "Renne... Is a very \"useful\" person...",
		"Image": "UI/BattleThumbnail_ABS/Castle007.png"
	},
	{
		"ID": 1072,
		"Name": "Empyrean Blade",
		"BattleID": 42065,
		"MonsterLevel": 70,
		"Desc": "I am the incarnation of the Asura. No joy, no sorrow...",
		"Image": "UI/BattleThumbnail_ABS/Castle007.png"
	},
	{
		"ID": 1073,
		"Name": "Bard",
		"BattleID": 42066,
		"MonsterLevel": 70,
		"Desc": "Adventures are just a way for me to spread love around the world, so don't get in my way!",
		"Image": "UI/BattleThumbnail_ABS/Castle007.png"
	},
	{
		"ID": 1074,
		"Name": "Acting Queen",
		"BattleID": 42067,
		"MonsterLevel": 70,
		"Desc": "Everything I do is for my family and friends. Sieg, let's go!",
		"Image": "UI/BattleThumbnail_ABS/Castle007.png"
	},
	{
		"ID": 1075,
		"Name": "Elf of Light",
		"BattleID": 42086,
		"MonsterLevel": 70,
		"Desc": "Watch out! This... This is Elven magic!",
		"Image": "UI/BattleThumbnail_ABS/Castle007.png"
	},
	{
		"ID": 1076,
		"Name": "One and Only",
		"BattleID": 42087,
		"MonsterLevel": 70,
		"Desc": "Beyond the limits of time and space, a fated duel beckons!",
		"Image": "UI/BattleThumbnail_ABS/Castle007.png"
	},
	{
		"ID": 1077,
		"Name": "Sword of Freedom",
		"BattleID": 42088,
		"MonsterLevel": 70,
		"Desc": "I have nothing to do with the king of any nation or the doctrine of any religion... My sole devotion is to my faith in freedom!",
		"Image": "UI/BattleThumbnail_ABS/Castle007.png"
	},
	{
		"ID": 1078,
		"Name": "Elf of Darkness",
		"BattleID": 42089,
		"MonsterLevel": 70,
		"Desc": "Darkness is my accomplice. Together we shall dance beyond the limits of perception. Together, we shall end you.",
		"Image": "UI/BattleThumbnail_ABS/Castle007.png"
	},
	{
		"ID": 1079,
		"Name": "Wild Eagle",
		"BattleID": 42068,
		"MonsterLevel": 70,
		"Desc": "This is my new sword technique. Take a look!",
		"Image": "UI/BattleThumbnail_ABS/Castle007.png"
	},
	{
		"ID": 1080,
		"Name": "Shopaholic",
		"BattleID": 42069,
		"MonsterLevel": 70,
		"Desc": "Move it! Anyone who stops me from shopping is my sworn enemy!",
		"Image": "UI/BattleThumbnail_ABS/Castle007.png"
	},
	{
		"ID": 1081,
		"Name": "Coming of Age",
		"BattleID": 42070,
		"MonsterLevel": 70,
		"Desc": "Just you try to stand in the way of me and my man!",
		"Image": "UI/BattleThumbnail_ABS/Castle007.png"
	},
	{
		"ID": 1082,
		"Name": "Demonic Rampage",
		"BattleID": 42071,
		"MonsterLevel": 70,
		"Desc": "My demonic blood is boiling...",
		"Image": "UI/BattleThumbnail_ABS/Castle007.png"
	},
	{
		"ID": 1083,
		"Name": "Jagan+Dragon",
		"BattleID": 42072,
		"MonsterLevel": 70,
		"Desc": "Annihilation... The black flames rising from hell...",
		"Image": "UI/BattleThumbnail_ABS/Castle007.png"
	},
	{
		"ID": 1084,
		"Name": "Dance of Death",
		"BattleID": 42073,
		"MonsterLevel": 70,
		"Desc": "Rose Whip Thorn Wheel, bloom in the throes of slaughter.",
		"Image": "UI/BattleThumbnail_ABS/Castle007.png"
	},
	{
		"ID": 1085,
		"Name": "Deathmatch",
		"BattleID": 42074,
		"MonsterLevel": 70,
		"Desc": "Duel of destiny, I am ready for death's final blow.",
		"Image": "UI/BattleThumbnail_ABS/Castle007.png"
	},
	{
		"ID": 1086,
		"Name": "A Man's Duty",
		"BattleID": 42075,
		"MonsterLevel": 70,
		"Desc": "Amid the ice and snow, my wrath shall burn clear.",
		"Image": "UI/BattleThumbnail_ABS/Castle007.png"
	},
	{
		"ID": 1087,
		"Name": "Dead Language",
		"BattleID": 42076,
		"MonsterLevel": 70,
		"Desc": "Brother is gone... Everyone, now is the time...",
		"Image": "UI/BattleThumbnail_ABS/Castle007.png"
	},
	{
		"ID": 1088,
		"Name": "Fairy Kiss",
		"BattleID": 42077,
		"MonsterLevel": 70,
		"Desc": "Don't move — the arrow in my hand is ready to fly.",
		"Image": "UI/BattleThumbnail_ABS/Castle007.png"
	},
	{
		"ID": 1089,
		"Name": "Tough Choices",
		"BattleID": 42078,
		"MonsterLevel": 70,
		"Desc": "Merging with the blade is both atonement, and liberation...",
		"Image": "UI/BattleThumbnail_ABS/Castle007.png"
	},
	{
		"ID": 1091,
		"Name": "Inherited Will",
		"BattleID": 42079,
		"MonsterLevel": 70,
		"Desc": "I will be a great fighter like my father... from this moment on!",
		"Image": "UI/BattleThumbnail_ABS/Castle007.png"
	},
	{
		"ID": 1092,
		"Name": "Divine Will",
		"BattleID": 42080,
		"MonsterLevel": 70,
		"Desc": "In the name of the Goddess... Darkness begone!",
		"Image": "UI/BattleThumbnail_ABS/Castle007.png"
	},
	{
		"ID": 1093,
		"Name": "Knight's Oath",
		"BattleID": 42081,
		"MonsterLevel": 70,
		"Desc": "I will never let Crimzonia face such a terrible fate again!",
		"Image": "UI/BattleThumbnail_ABS/Castle007.png"
	},
	{
		"ID": 1094,
		"Name": "The Power of Family",
		"BattleID": 42084,
		"MonsterLevel": 70,
		"Desc": "This is my village! I should be the one to protect it!",
		"Image": "UI/BattleThumbnail_ABS/Castle007.png"
	},
	{
		"ID": 1095,
		"Name": "The Prince's Adventure",
		"BattleID": 42085,
		"MonsterLevel": 70,
		"Desc": "Hah! I'm the Future King of Caconsis! Gaze in awe!",
		"Image": "UI/BattleThumbnail_ABS/Castle007.png"
	},
	{
		"ID": 1096,
		"Name": "Heroic Awakening",
		"BattleID": 301,
		"MonsterLevel": 70,
		"Desc": "Heroic Awakening",
		"Image": "UI/BattleThumbnail_ABS/Arena003.png"
	},
	{
		"ID": 1097,
		"Name": "Trial of Caconsis",
		"BattleID": 42092,
		"MonsterLevel": 70,
		"Desc": "Come on! I'll show you how determined I am to protect Caconsis!",
		"Image": "UI/BattleThumbnail_ABS/Castle007.png"
	},
	{
		"ID": 1098,
		"Name": "Heroic Awakening",
		"BattleID": 301,
		"MonsterLevel": 70,
		"Desc": "Heroic Awakening",
		"Image": "UI/BattleThumbnail_ABS/Arena003.png"
	},
	{
		"ID": 1099,
		"Name": "Heroic Awakening",
		"BattleID": 301,
		"MonsterLevel": 70,
		"Desc": "Heroic Awakening",
		"Image": "UI/BattleThumbnail_ABS/Arena003.png"
	},
	{
		"ID": 1100,
		"Name": "Heroic Awakening",
		"BattleID": 301,
		"MonsterLevel": 70,
		"Desc": "Heroic Awakening",
		"Image": "UI/BattleThumbnail_ABS/Arena003.png"
	},
	{
		"ID": 1101,
		"Name": "Heroic Awakening",
		"BattleID": 301,
		"MonsterLevel": 70,
		"Desc": "Heroic Awakening",
		"Image": "UI/BattleThumbnail_ABS/Arena003.png"
	},
	{
		"ID": 1102,
		"Name": "Heroic Awakening",
		"BattleID": 301,
		"MonsterLevel": 70,
		"Desc": "Heroic Awakening",
		"Image": "UI/BattleThumbnail_ABS/Arena003.png"
	},
	{
		"ID": 1103,
		"Name": "Bitter Moon",
		"BattleID": 42093,
		"MonsterLevel": 70,
		"Desc": "The hatred of the generations runs deep, due to the long lifespans of the moon-dwellers.",
		"Image": "UI/BattleThumbnail_ABS/Castle007.png"
	},
	{
		"ID": 1104,
		"Name": "Heroic Awakening",
		"BattleID": 301,
		"MonsterLevel": 70,
		"Desc": "Heroic Awakening",
		"Image": "UI/BattleThumbnail_ABS/Arena003.png"
	},
	{
		"ID": 1105,
		"Name": "Heroic Awakening",
		"BattleID": 301,
		"MonsterLevel": 70,
		"Desc": "Heroic Awakening",
		"Image": "UI/BattleThumbnail_ABS/Arena003.png"
	},
	{
		"ID": 1106,
		"Name": "Heroic Awakening",
		"BattleID": 301,
		"MonsterLevel": 70,
		"Desc": "Heroic Awakening",
		"Image": "UI/BattleThumbnail_ABS/Arena003.png"
	},
	{
		"ID": 1107,
		"Name": "Heroic Awakening",
		"BattleID": 301,
		"MonsterLevel": 70,
		"Desc": "Heroic Awakening",
		"Image": "UI/BattleThumbnail_ABS/Arena003.png"
	},
	{
		"ID": 1108,
		"Name": "Heroic Awakening",
		"BattleID": 301,
		"MonsterLevel": 70,
		"Desc": "Heroic Awakening",
		"Image": "UI/BattleThumbnail_ABS/Arena003.png"
	},
	{
		"ID": 1109,
		"Name": "Heroic Awakening",
		"BattleID": 301,
		"MonsterLevel": 70,
		"Desc": "Heroic Awakening",
		"Image": "UI/BattleThumbnail_ABS/Arena003.png"
	},
	{
		"ID": 1110,
		"Name": "Star of The Vigilantes",
		"BattleID": 42090,
		"MonsterLevel": 70,
		"Desc": "Now I'm going to show you the true strength of The Vigilantes!",
		"Image": "UI/BattleThumbnail_ABS/Castle007.png"
	},
	{
		"ID": 1111,
		"Name": "Very Personal Affairs",
		"BattleID": 42091,
		"MonsterLevel": 70,
		"Desc": "Hey... That's far enough. You had better turn back now.",
		"Image": "UI/BattleThumbnail_ABS/Castle007.png"
	},
	{
		"ID": 1112,
		"Name": "Heroic Awakening",
		"BattleID": 301,
		"MonsterLevel": 70,
		"Desc": "Heroic Awakening",
		"Image": "UI/BattleThumbnail_ABS/Arena003.png"
	},
	{
		"ID": 1113,
		"Name": "Heroic Awakening",
		"BattleID": 301,
		"MonsterLevel": 70,
		"Desc": "Heroic Awakening",
		"Image": "UI/BattleThumbnail_ABS/Arena003.png"
	},
	{
		"ID": 1114,
		"Name": "Heroic Awakening",
		"BattleID": 301,
		"MonsterLevel": 70,
		"Desc": "Heroic Awakening",
		"Image": "UI/BattleThumbnail_ABS/Arena003.png"
	},
	{
		"ID": 1115,
		"Name": "Heroic Awakening",
		"BattleID": 301,
		"MonsterLevel": 70,
		"Desc": "Heroic Awakening",
		"Image": "UI/BattleThumbnail_ABS/Arena003.png"
	},
	{
		"ID": 1116,
		"Name": "Heroic Awakening",
		"BattleID": 301,
		"MonsterLevel": 70,
		"Desc": "Heroic Awakening",
		"Image": "UI/BattleThumbnail_ABS/Arena003.png"
	},
	{
		"ID": 1117,
		"Name": "Heroic Awakening",
		"BattleID": 301,
		"MonsterLevel": 70,
		"Desc": "Heroic Awakening",
		"Image": "UI/BattleThumbnail_ABS/Arena003.png"
	},
	{
		"ID": 1118,
		"Name": "Heroic Awakening",
		"BattleID": 301,
		"MonsterLevel": 70,
		"Desc": "Heroic Awakening",
		"Image": "UI/BattleThumbnail_ABS/Arena003.png"
	},
	{
		"ID": 1119,
		"Name": "Heroic Awakening",
		"BattleID": 301,
		"MonsterLevel": 70,
		"Desc": "Heroic Awakening",
		"Image": "UI/BattleThumbnail_ABS/Arena003.png"
	},
	{
		"ID": 1120,
		"Name": "Heroic Awakening",
		"BattleID": 301,
		"MonsterLevel": 70,
		"Desc": "Heroic Awakening",
		"Image": "UI/BattleThumbnail_ABS/Arena003.png"
	},
	{
		"ID": 1121,
		"Name": "Heroic Awakening",
		"BattleID": 301,
		"MonsterLevel": 70,
		"Desc": "Heroic Awakening",
		"Image": "UI/BattleThumbnail_ABS/Arena003.png"
	},
	{
		"ID": 1122,
		"Name": "Heroic Awakening",
		"BattleID": 301,
		"MonsterLevel": 70,
		"Desc": "Heroic Awakening",
		"Image": "UI/BattleThumbnail_ABS/Arena003.png"
	},
	{
		"ID": 1123,
		"Name": "Heroic Awakening",
		"BattleID": 301,
		"MonsterLevel": 70,
		"Desc": "Heroic Awakening",
		"Image": "UI/BattleThumbnail_ABS/Arena003.png"
	},
	{
		"ID": 1124,
		"Name": "Heroic Awakening",
		"BattleID": 301,
		"MonsterLevel": 70,
		"Desc": "Heroic Awakening",
		"Image": "UI/BattleThumbnail_ABS/Arena003.png"
	},
	{
		"ID": 1125,
		"Name": "Heroic Awakening",
		"BattleID": 301,
		"MonsterLevel": 70,
		"Desc": "Heroic Awakening",
		"Image": "UI/BattleThumbnail_ABS/Arena003.png"
	},
	{
		"ID": 1126,
		"Name": "Heroic Awakening",
		"BattleID": 301,
		"MonsterLevel": 70,
		"Desc": "Heroic Awakening",
		"Image": "UI/BattleThumbnail_ABS/Arena003.png"
	},
	{
		"ID": 1127,
		"Name": "Heroic Awakening",
		"BattleID": 301,
		"MonsterLevel": 70,
		"Desc": "Heroic Awakening",
		"Image": "UI/BattleThumbnail_ABS/Arena003.png"
	},
	{
		"ID": 1128,
		"Name": "Heroic Awakening",
		"BattleID": 301,
		"MonsterLevel": 70,
		"Desc": "Heroic Awakening",
		"Image": "UI/BattleThumbnail_ABS/Arena003.png"
	},
	{
		"ID": 1129,
		"Name": "Heroic Awakening",
		"BattleID": 301,
		"MonsterLevel": 70,
		"Desc": "Heroic Awakening",
		"Image": "UI/BattleThumbnail_ABS/Arena003.png"
	},
	{
		"ID": 1130,
		"Name": "Heroic Awakening",
		"BattleID": 301,
		"MonsterLevel": 70,
		"Desc": "Heroic Awakening",
		"Image": "UI/BattleThumbnail_ABS/Arena003.png"
	},
	{
		"ID": 2001,
		"Name": "Sword of Destruction",
		"BattleID": 42500,
		"MonsterLevel": 70,
		"Desc": "It's not just the sword that breaks... It is the love in my heart...",
		"Image": "UI/BattleThumbnail_ABS/Arena003.png"
	},
	{
		"ID": 2003,
		"Name": "Grenier's Ultimate Awakening",
		"BattleID": 301,
		"MonsterLevel": 70,
		"Desc": "Grenier's Ultimate Awakening",
		"Image": "UI/BattleThumbnail_ABS/Arena003.png"
	},
	{
		"ID": 2004,
		"Name": "Almeda's Ultimate Awakening",
		"BattleID": 301,
		"MonsterLevel": 70,
		"Desc": "Almeda's Ultimate Awakening",
		"Image": "UI/BattleThumbnail_ABS/Arena003.png"
	},
	{
		"ID": 2005,
		"Name": "Scattered Light",
		"BattleID": 42506,
		"MonsterLevel": 70,
		"Desc": "If possible, I'd like to heal every wound this world suffers.",
		"Image": "UI/BattleThumbnail_ABS/Arena003.png"
	},
	{
		"ID": 2006,
		"Name": "Blue Dragon Domain",
		"BattleID": 42504,
		"MonsterLevel": 70,
		"Desc": "A cyan light lit up the sky as the roar of a mighty dragon shook the whole world...",
		"Image": "UI/BattleThumbnail_ABS/Arena003.png"
	},
	{
		"ID": 2007,
		"Name": "Bernhardt's Ultimate Awakening",
		"BattleID": 301,
		"MonsterLevel": 70,
		"Desc": "Bernhardt's Ultimate Awakening",
		"Image": "UI/BattleThumbnail_ABS/Arena003.png"
	},
	{
		"ID": 2008,
		"Name": "The End of the Darkness",
		"BattleID": 42525,
		"MonsterLevel": 70,
		"Desc": "In the deepest heart of darkness, that hidden power is...",
		"Image": "UI/BattleThumbnail_ABS/Arena003.png"
	},
	{
		"ID": 2009,
		"Name": "Bozel's Ultimate Awakening",
		"BattleID": 301,
		"MonsterLevel": 70,
		"Desc": "Bozel's Ultimate Awakening",
		"Image": "UI/BattleThumbnail_ABS/Arena003.png"
	},
	{
		"ID": 2010,
		"Name": "The King's Light",
		"BattleID": 42516,
		"MonsterLevel": 70,
		"Desc": "Pure courage brings pure victory!",
		"Image": "UI/BattleThumbnail_ABS/Arena003.png"
	},
	{
		"ID": 2011,
		"Name": "Narm's Ultimate Awakening",
		"BattleID": 301,
		"MonsterLevel": 70,
		"Desc": "Narm's Ultimate Awakening",
		"Image": "UI/BattleThumbnail_ABS/Arena003.png"
	},
	{
		"ID": 2012,
		"Name": "Elwin's Ultimate Awakening",
		"BattleID": 301,
		"MonsterLevel": 70,
		"Desc": "Elwin's Ultimate Awakening",
		"Image": "UI/BattleThumbnail_ABS/Arena003.png"
	},
	{
		"ID": 2013,
		"Name": "The Magic Portal",
		"BattleID": 42519,
		"MonsterLevel": 70,
		"Desc": "As for magic and all that... I, Hein, am about to redefine it!",
		"Image": "UI/BattleThumbnail_ABS/Arena003.png"
	},
	{
		"ID": 2014,
		"Name": "An Adventure",
		"BattleID": 42505,
		"MonsterLevel": 70,
		"Desc": "It's just an adventure. It's not too dissimilar from normal life.",
		"Image": "UI/BattleThumbnail_ABS/Arena003.png"
	},
	{
		"ID": 2015,
		"Name": "Liana's Ultimate Awakening",
		"BattleID": 301,
		"MonsterLevel": 70,
		"Desc": "Liana's Ultimate Awakening",
		"Image": "UI/BattleThumbnail_ABS/Arena003.png"
	},
	{
		"ID": 2016,
		"Name": "Lance's Ultimate Awakening",
		"BattleID": 301,
		"MonsterLevel": 70,
		"Desc": "Lance's Ultimate Awakening",
		"Image": "UI/BattleThumbnail_ABS/Arena003.png"
	},
	{
		"ID": 2017,
		"Name": "Egbert's Ultimate Awakening",
		"BattleID": 301,
		"MonsterLevel": 70,
		"Desc": "Egbert's Ultimate Awakening",
		"Image": "UI/BattleThumbnail_ABS/Arena003.png"
	},
	{
		"ID": 2018,
		"Name": "Imelda's Ultimate Awakening",
		"BattleID": 301,
		"MonsterLevel": 70,
		"Desc": "Imelda's Ultimate Awakening",
		"Image": "UI/BattleThumbnail_ABS/Arena003.png"
	},
	{
		"ID": 2019,
		"Name": "Lester's Ultimate Awakening",
		"BattleID": 301,
		"MonsterLevel": 70,
		"Desc": "Lester's Ultimate Awakening",
		"Image": "UI/BattleThumbnail_ABS/Arena003.png"
	},
	{
		"ID": 2020,
		"Name": "Between Light and Dark",
		"BattleID": 42511,
		"MonsterLevel": 70,
		"Desc": "Light or darkness... I have made my choice.",
		"Image": "UI/BattleThumbnail_ABS/Arena003.png"
	},
	{
		"ID": 2021,
		"Name": "Vargas's Ultimate Awakening",
		"BattleID": 301,
		"MonsterLevel": 70,
		"Desc": "Vargas's Ultimate Awakening",
		"Image": "UI/BattleThumbnail_ABS/Arena003.png"
	},
	{
		"ID": 2022,
		"Name": "Jessica's Ultimate Awakening",
		"BattleID": 301,
		"MonsterLevel": 70,
		"Desc": "Jessica's Ultimate Awakening",
		"Image": "UI/BattleThumbnail_ABS/Arena003.png"
	},
	{
		"ID": 2023,
		"Name": "Rohga's Ultimate Awakening",
		"BattleID": 301,
		"MonsterLevel": 70,
		"Desc": "Rohga's Ultimate Awakening",
		"Image": "UI/BattleThumbnail_ABS/Arena003.png"
	},
	{
		"ID": 2024,
		"Name": "Scott's Ultimate Awakening",
		"BattleID": 301,
		"MonsterLevel": 70,
		"Desc": "Scott's Ultimate Awakening",
		"Image": "UI/BattleThumbnail_ABS/Arena003.png"
	},
	{
		"ID": 2025,
		"Name": "Altemuller's Ultimate Awakening",
		"BattleID": 301,
		"MonsterLevel": 70,
		"Desc": "Altemuller's Ultimate Awakening",
		"Image": "UI/BattleThumbnail_ABS/Arena003.png"
	},
	{
		"ID": 2026,
		"Name": "When the Wind Rises",
		"BattleID": 42501,
		"MonsterLevel": 70,
		"Desc": "When the wind rises, life also flitters away...",
		"Image": "UI/BattleThumbnail_ABS/Arena003.png"
	},
	{
		"ID": 2027,
		"Name": "Unperceived Might",
		"BattleID": 42524,
		"MonsterLevel": 70,
		"Desc": "There's nothing more terrifying than when a fool starts taking things seriously!",
		"Image": "UI/BattleThumbnail_ABS/Arena003.png"
	},
	{
		"ID": 2028,
		"Name": "Zerida's Ultimate Awakening",
		"BattleID": 301,
		"MonsterLevel": 70,
		"Desc": "Zerida's Ultimate Awakening",
		"Image": "UI/BattleThumbnail_ABS/Arena003.png"
	},
	{
		"ID": 2029,
		"Name": "Tiaris's Ultimate Awakening",
		"BattleID": 301,
		"MonsterLevel": 70,
		"Desc": "Tiaris's Ultimate Awakening",
		"Image": "UI/BattleThumbnail_ABS/Arena003.png"
	},
	{
		"ID": 2030,
		"Name": "Magic Burst",
		"BattleID": 42515,
		"MonsterLevel": 70,
		"Desc": "Ancient magic, I call thee... Make me your conduit!",
		"Image": "UI/BattleThumbnail_ABS/Arena003.png"
	},
	{
		"ID": 2031,
		"Name": "Sophia's Ultimate Awakening",
		"BattleID": 301,
		"MonsterLevel": 70,
		"Desc": "Sophia's Ultimate Awakening",
		"Image": "UI/BattleThumbnail_ABS/Arena003.png"
	},
	{
		"ID": 2032,
		"Name": "Emerick's Ultimate Awakening",
		"BattleID": 301,
		"MonsterLevel": 70,
		"Desc": "Emerick's Ultimate Awakening",
		"Image": "UI/BattleThumbnail_ABS/Arena003.png"
	},
	{
		"ID": 2033,
		"Name": "Freya's Ultimate Awakening",
		"BattleID": 301,
		"MonsterLevel": 70,
		"Desc": "Freya's Ultimate Awakening",
		"Image": "UI/BattleThumbnail_ABS/Arena003.png"
	},
	{
		"ID": 2034,
		"Name": "Kirikaze's Ultimate Awakening",
		"BattleID": 301,
		"MonsterLevel": 70,
		"Desc": "Kirikaze's Ultimate Awakening",
		"Image": "UI/BattleThumbnail_ABS/Arena003.png"
	},
	{
		"ID": 2035,
		"Name": "Angelica's Ultimate Awakening",
		"BattleID": 301,
		"MonsterLevel": 70,
		"Desc": "Angelica's Ultimate Awakening",
		"Image": "UI/BattleThumbnail_ABS/Arena003.png"
	},
	{
		"ID": 2036,
		"Name": "Silver Wolf's Ultimate Awakening",
		"BattleID": 301,
		"MonsterLevel": 70,
		"Desc": "Silver Wolf's Ultimate Awakening",
		"Image": "UI/BattleThumbnail_ABS/Arena003.png"
	},
	{
		"ID": 2037,
		"Name": "The Shape of Light",
		"BattleID": 42508,
		"MonsterLevel": 70,
		"Desc": "If light had a shape, it would look something like me!",
		"Image": "UI/BattleThumbnail_ABS/Arena003.png"
	},
	{
		"ID": 2038,
		"Name": "Endless",
		"BattleID": 42503,
		"MonsterLevel": 70,
		"Desc": "Perfect teamwork shall plunge our enemies into a perfect hell...",
		"Image": "UI/BattleThumbnail_ABS/Arena003.png"
	},
	{
		"ID": 2039,
		"Name": "Feraquea's Ultimate Awakening",
		"BattleID": 301,
		"MonsterLevel": 70,
		"Desc": "Feraquea's Ultimate Awakening",
		"Image": "UI/BattleThumbnail_ABS/Arena003.png"
	},
	{
		"ID": 2040,
		"Name": "Lewin's Ultimate Awakening",
		"BattleID": 301,
		"MonsterLevel": 70,
		"Desc": "Lewin's Ultimate Awakening",
		"Image": "UI/BattleThumbnail_ABS/Arena003.png"
	},
	{
		"ID": 2041,
		"Name": "Pierre's Ultimate Awakening",
		"BattleID": 301,
		"MonsterLevel": 70,
		"Desc": "Pierre's Ultimate Awakening",
		"Image": "UI/BattleThumbnail_ABS/Arena003.png"
	},
	{
		"ID": 2042,
		"Name": "Dios's Ultimate Awakening",
		"BattleID": 301,
		"MonsterLevel": 70,
		"Desc": "Dios's Ultimate Awakening",
		"Image": "UI/BattleThumbnail_ABS/Arena003.png"
	},
	{
		"ID": 2043,
		"Name": "Anna's Ultimate Awakening",
		"BattleID": 301,
		"MonsterLevel": 70,
		"Desc": "Anna's Ultimate Awakening",
		"Image": "UI/BattleThumbnail_ABS/Arena003.png"
	},
	{
		"ID": 2044,
		"Name": "Laird's Ultimate Awakening",
		"BattleID": 301,
		"MonsterLevel": 70,
		"Desc": "Laird's Ultimate Awakening",
		"Image": "UI/BattleThumbnail_ABS/Arena003.png"
	},
	{
		"ID": 2045,
		"Name": "Keith's Ultimate Awakening",
		"BattleID": 301,
		"MonsterLevel": 70,
		"Desc": "Keith's Ultimate Awakening",
		"Image": "UI/BattleThumbnail_ABS/Arena003.png"
	},
	{
		"ID": 2046,
		"Name": "Celia's Ultimate Awakening",
		"BattleID": 301,
		"MonsterLevel": 70,
		"Desc": "Celia's Ultimate Awakening",
		"Image": "UI/BattleThumbnail_ABS/Arena003.png"
	},
	{
		"ID": 2047,
		"Name": "Leticia's Ultimate Awakening",
		"BattleID": 301,
		"MonsterLevel": 70,
		"Desc": "Leticia's Ultimate Awakening",
		"Image": "UI/BattleThumbnail_ABS/Arena003.png"
	},
	{
		"ID": 2048,
		"Name": "Aaron's Ultimate Awakening",
		"BattleID": 301,
		"MonsterLevel": 70,
		"Desc": "Aaron's Ultimate Awakening",
		"Image": "UI/BattleThumbnail_ABS/Arena003.png"
	},
	{
		"ID": 2049,
		"Name": "Varna's Ultimate Awakening",
		"BattleID": 301,
		"MonsterLevel": 70,
		"Desc": "Varna's Ultimate Awakening",
		"Image": "UI/BattleThumbnail_ABS/Arena003.png"
	},
	{
		"ID": 2050,
		"Name": "Alhazard Zerida's Ultimate Awakening",
		"BattleID": 301,
		"MonsterLevel": 70,
		"Desc": "Alhazard Zerida's Ultimate Awakening",
		"Image": "UI/BattleThumbnail_ABS/Arena003.png"
	},
	{
		"ID": 2051,
		"Name": "Shelfaniel's Ultimate Awakening",
		"BattleID": 301,
		"MonsterLevel": 70,
		"Desc": "Shelfaniel's Ultimate Awakening",
		"Image": "UI/BattleThumbnail_ABS/Arena003.png"
	},
	{
		"ID": 2052,
		"Name": "Deep Sea Eruption",
		"BattleID": 42513,
		"MonsterLevel": 70,
		"Desc": "The ultimate power, lurking in the deep blue...",
		"Image": "UI/BattleThumbnail_ABS/Arena003.png"
	},
	{
		"ID": 2053,
		"Name": "Lanford's Ultimate Awakening",
		"BattleID": 301,
		"MonsterLevel": 70,
		"Desc": "Lanford's Ultimate Awakening",
		"Image": "UI/BattleThumbnail_ABS/Arena003.png"
	},
	{
		"ID": 2054,
		"Name": "Listell's Ultimate Awakening",
		"BattleID": 301,
		"MonsterLevel": 70,
		"Desc": "Listell's Ultimate Awakening",
		"Image": "UI/BattleThumbnail_ABS/Arena003.png"
	},
	{
		"ID": 2055,
		"Name": "Tranquility",
		"BattleID": 42512,
		"MonsterLevel": 70,
		"Desc": "To attain victory on the battlefield, one must become like a rock — immoveable and invincible.",
		"Image": "UI/BattleThumbnail_ABS/Arena003.png"
	},
	{
		"ID": 2056,
		"Name": "Chaotic Magic",
		"BattleID": 42502,
		"MonsterLevel": 70,
		"Desc": "No one can escape the omnipresent force of magic's true essence...",
		"Image": "UI/BattleThumbnail_ABS/Arena003.png"
	},
	{
		"ID": 2057,
		"Name": "The Pinnacle of Tactics",
		"BattleID": 42509,
		"MonsterLevel": 70,
		"Desc": "Only when we triumph over ourselves can we really control the battlefield...",
		"Image": "UI/BattleThumbnail_ABS/Arena003.png"
	},
	{
		"ID": 2058,
		"Name": "Serena's Ultimate Awakening",
		"BattleID": 301,
		"MonsterLevel": 70,
		"Desc": "Serena's Ultimate Awakening",
		"Image": "UI/BattleThumbnail_ABS/Arena003.png"
	},
	{
		"ID": 2059,
		"Name": "Gizarof's Ultimate Awakening",
		"BattleID": 301,
		"MonsterLevel": 70,
		"Desc": "Gizarof's Ultimate Awakening",
		"Image": "UI/BattleThumbnail_ABS/Arena003.png"
	},
	{
		"ID": 2060,
		"Name": "Sigma's Ultimate Awakening",
		"BattleID": 301,
		"MonsterLevel": 70,
		"Desc": "Sigma's Ultimate Awakening",
		"Image": "UI/BattleThumbnail_ABS/Arena003.png"
	},
	{
		"ID": 2061,
		"Name": "Lambda's Ultimate Awakening",
		"BattleID": 301,
		"MonsterLevel": 70,
		"Desc": "Lambda's Ultimate Awakening",
		"Image": "UI/BattleThumbnail_ABS/Arena003.png"
	},
	{
		"ID": 2062,
		"Name": "Alfred's Ultimate Awakening",
		"BattleID": 301,
		"MonsterLevel": 70,
		"Desc": "Alfred's Ultimate Awakening",
		"Image": "UI/BattleThumbnail_ABS/Arena003.png"
	},
	{
		"ID": 2063,
		"Name": "The Red Moon's Hope",
		"BattleID": 42517,
		"MonsterLevel": 70,
		"Desc": "Has the day finally arrived... when the Gates of Chaos open?",
		"Image": "UI/BattleThumbnail_ABS/Arena003.png"
	},
	{
		"ID": 2064,
		"Name": "Brenda's Ultimate Awakening",
		"BattleID": 301,
		"MonsterLevel": 70,
		"Desc": "Brenda's Ultimate Awakening",
		"Image": "UI/BattleThumbnail_ABS/Arena003.png"
	},
	{
		"ID": 2065,
		"Name": "Virash's Ultimate Awakening",
		"BattleID": 301,
		"MonsterLevel": 70,
		"Desc": "Virash's Ultimate Awakening",
		"Image": "UI/BattleThumbnail_ABS/Arena003.png"
	},
	{
		"ID": 2066,
		"Name": "Clarett's Ultimate Awakening",
		"BattleID": 301,
		"MonsterLevel": 70,
		"Desc": "Clarett's Ultimate Awakening",
		"Image": "UI/BattleThumbnail_ABS/Arena003.png"
	},
	{
		"ID": 2067,
		"Name": "Omega's Ultimate Awakening",
		"BattleID": 301,
		"MonsterLevel": 70,
		"Desc": "Omega's Ultimate Awakening",
		"Image": "UI/BattleThumbnail_ABS/Arena003.png"
	},
	{
		"ID": 2068,
		"Name": "Hero's Ultimate Awakening",
		"BattleID": 301,
		"MonsterLevel": 70,
		"Desc": "Hero's Ultimate Awakening",
		"Image": "UI/BattleThumbnail_ABS/Arena003.png"
	},
	{
		"ID": 2069,
		"Name": "The Final Flash of Light",
		"BattleID": 42507,
		"MonsterLevel": 70,
		"Desc": "A burst of light, brighter than the sun itself, shone forth...",
		"Image": "UI/BattleThumbnail_ABS/Arena003.png"
	},
	{
		"ID": 2070,
		"Name": "Joshua's Ultimate Awakening",
		"BattleID": 301,
		"MonsterLevel": 70,
		"Desc": "Joshua's Ultimate Awakening",
		"Image": "UI/BattleThumbnail_ABS/Arena003.png"
	},
	{
		"ID": 2071,
		"Name": "The Ultimate Annihilator",
		"BattleID": 42518,
		"MonsterLevel": 70,
		"Desc": "The annihilation Renne has prepared just for you... is about to begin...",
		"Image": "UI/BattleThumbnail_ABS/Arena003.png"
	},
	{
		"ID": 2072,
		"Name": "Leonhardt's Ultimate Awakening",
		"BattleID": 301,
		"MonsterLevel": 70,
		"Desc": "Leonhardt's Ultimate Awakening",
		"Image": "UI/BattleThumbnail_ABS/Arena003.png"
	},
	{
		"ID": 2073,
		"Name": "Olivier's Ultimate Awakening",
		"BattleID": 301,
		"MonsterLevel": 70,
		"Desc": "Olivier's Ultimate Awakening",
		"Image": "UI/BattleThumbnail_ABS/Arena003.png"
	},
	{
		"ID": 2074,
		"Name": "Klose's Ultimate Awakening",
		"BattleID": 301,
		"MonsterLevel": 70,
		"Desc": "Klose's Ultimate Awakening",
		"Image": "UI/BattleThumbnail_ABS/Arena003.png"
	},
	{
		"ID": 2075,
		"Name": "Deedlit's Ultimate Awakening",
		"BattleID": 301,
		"MonsterLevel": 70,
		"Desc": "Deedlit's Ultimate Awakening",
		"Image": "UI/BattleThumbnail_ABS/Arena003.png"
	},
	{
		"ID": 2076,
		"Name": "Ashram's Ultimate Awakening",
		"BattleID": 301,
		"MonsterLevel": 70,
		"Desc": "Ashram's Ultimate Awakening",
		"Image": "UI/BattleThumbnail_ABS/Arena003.png"
	},
	{
		"ID": 2077,
		"Name": "Parn's Ultimate Awakening",
		"BattleID": 301,
		"MonsterLevel": 70,
		"Desc": "Parn's Ultimate Awakening",
		"Image": "UI/BattleThumbnail_ABS/Arena003.png"
	},
	{
		"ID": 2078,
		"Name": "Pirotess' Ultimate Awakening",
		"BattleID": 301,
		"MonsterLevel": 70,
		"Desc": "Pirotess' Ultimate Awakening",
		"Image": "UI/BattleThumbnail_ABS/Arena003.png"
	},
	{
		"ID": 2079,
		"Name": "Sakura Shinguji's Ultimate Awakening",
		"BattleID": 301,
		"MonsterLevel": 70,
		"Desc": "Sakura Shinguji's Ultimate Awakening",
		"Image": "UI/BattleThumbnail_ABS/Arena003.png"
	},
	{
		"ID": 2080,
		"Name": "Last Dance",
		"BattleID": 42510,
		"MonsterLevel": 70,
		"Desc": "See my shining blade of light... Are you ready for your last dance?",
		"Image": "UI/BattleThumbnail_ABS/Arena003.png"
	},
	{
		"ID": 2081,
		"Name": "Iris's Ultimate Awakening",
		"BattleID": 301,
		"MonsterLevel": 70,
		"Desc": "Iris's Ultimate Awakening",
		"Image": "UI/BattleThumbnail_ABS/Arena003.png"
	},
	{
		"ID": 2082,
		"Name": "Final Fire",
		"BattleID": 42514,
		"MonsterLevel": 70,
		"Desc": "The blood of a Demon King... The ultimate power...",
		"Image": "UI/BattleThumbnail_ABS/Arena003.png"
	},
	{
		"ID": 2083,
		"Name": "Hiei's Ultimate Awakening",
		"BattleID": 301,
		"MonsterLevel": 70,
		"Desc": "Hiei's Ultimate Awakening",
		"Image": "UI/BattleThumbnail_ABS/Arena003.png"
	},
	{
		"ID": 2084,
		"Name": "A Rose Among Hellfire",
		"BattleID": 42526,
		"MonsterLevel": 70,
		"Desc": "Come and witness the feast of blood in all its glory!",
		"Image": "UI/BattleThumbnail_ABS/Arena003.png"
	},
	{
		"ID": 2085,
		"Name": "Toguro Bros's Ultimate Awakening",
		"BattleID": 301,
		"MonsterLevel": 70,
		"Desc": "Toguro Bros's Ultimate Awakening",
		"Image": "UI/BattleThumbnail_ABS/Arena003.png"
	},
	{
		"ID": 2086,
		"Name": "Kazuma Kuwabara's Ultimate Awakening",
		"BattleID": 301,
		"MonsterLevel": 70,
		"Desc": "Kazuma Kuwabara's Ultimate Awakening",
		"Image": "UI/BattleThumbnail_ABS/Arena003.png"
	},
	{
		"ID": 2087,
		"Name": "Betty's Ultimate Awakening",
		"BattleID": 301,
		"MonsterLevel": 70,
		"Desc": "Betty's Ultimate Awakening",
		"Image": "UI/BattleThumbnail_ABS/Arena003.png"
	},
	{
		"ID": 2088,
		"Name": "Alustriel's Ultimate Awakening",
		"BattleID": 301,
		"MonsterLevel": 70,
		"Desc": "Alustriel's Ultimate Awakening",
		"Image": "UI/BattleThumbnail_ABS/Arena003.png"
	},
	{
		"ID": 2089,
		"Name": "Yulia's Ultimate Awakening",
		"BattleID": 301,
		"MonsterLevel": 70,
		"Desc": "Yulia's Ultimate Awakening",
		"Image": "UI/BattleThumbnail_ABS/Arena003.png"
	},
	{
		"ID": 2091,
		"Name": "Emilia's Ultimate Awakening",
		"BattleID": 301,
		"MonsterLevel": 70,
		"Desc": "Emilia's Ultimate Awakening",
		"Image": "UI/BattleThumbnail_ABS/Arena003.png"
	},
	{
		"ID": 2092,
		"Name": "Young Jessica's Ultimate Awakening",
		"BattleID": 301,
		"MonsterLevel": 70,
		"Desc": "Young Jessica's Ultimate Awakening",
		"Image": "UI/BattleThumbnail_ABS/Arena003.png"
	},
	{
		"ID": 2093,
		"Name": "Knight of Mystery's Ultimate Awakening",
		"BattleID": 301,
		"MonsterLevel": 70,
		"Desc": "Knight of Mystery's Ultimate Awakening",
		"Image": "UI/BattleThumbnail_ABS/Arena003.png"
	},
	{
		"ID": 2094,
		"Name": "Aka's Ultimate Awakening",
		"BattleID": 301,
		"MonsterLevel": 70,
		"Desc": "Aka's Ultimate Awakening",
		"Image": "UI/BattleThumbnail_ABS/Arena003.png"
	},
	{
		"ID": 2095,
		"Name": "Oliver's Ultimate Awakening",
		"BattleID": 301,
		"MonsterLevel": 70,
		"Desc": "Oliver's Ultimate Awakening",
		"Image": "UI/BattleThumbnail_ABS/Arena003.png"
	},
	{
		"ID": 2096,
		"Name": "Hero's Ultimate Awakening",
		"BattleID": 301,
		"MonsterLevel": 70,
		"Desc": "Hero's Ultimate Awakening",
		"Image": "UI/BattleThumbnail_ABS/Arena003.png"
	},
	{
		"ID": 2097,
		"Name": "A Pious Prayer",
		"BattleID": 42522,
		"MonsterLevel": 70,
		"Desc": "I will never allow such a tragedy to ever be repeated! For Caconsis!",
		"Image": "UI/BattleThumbnail_ABS/Arena003.png"
	},
	{
		"ID": 2098,
		"Name": "Hero's Ultimate Awakening",
		"BattleID": 301,
		"MonsterLevel": 70,
		"Desc": "Hero's Ultimate Awakening",
		"Image": "UI/BattleThumbnail_ABS/Arena003.png"
	},
	{
		"ID": 2099,
		"Name": "Hero's Ultimate Awakening",
		"BattleID": 301,
		"MonsterLevel": 70,
		"Desc": "Hero's Ultimate Awakening",
		"Image": "UI/BattleThumbnail_ABS/Arena003.png"
	},
	{
		"ID": 2100,
		"Name": "Hero's Ultimate Awakening",
		"BattleID": 301,
		"MonsterLevel": 70,
		"Desc": "Hero's Ultimate Awakening",
		"Image": "UI/BattleThumbnail_ABS/Arena003.png"
	},
	{
		"ID": 2101,
		"Name": "Hero's Ultimate Awakening",
		"BattleID": 301,
		"MonsterLevel": 70,
		"Desc": "Hero's Ultimate Awakening",
		"Image": "UI/BattleThumbnail_ABS/Arena003.png"
	},
	{
		"ID": 2102,
		"Name": "Hero's Ultimate Awakening",
		"BattleID": 301,
		"MonsterLevel": 70,
		"Desc": "Hero's Ultimate Awakening",
		"Image": "UI/BattleThumbnail_ABS/Arena003.png"
	},
	{
		"ID": 2103,
		"Name": "Dark Nightmare",
		"BattleID": 42523,
		"MonsterLevel": 70,
		"Desc": "What...are you doing here? Get out of here—you're out of your element!",
		"Image": "UI/BattleThumbnail_ABS/Arena003.png"
	},
	{
		"ID": 2104,
		"Name": "Hero's Ultimate Awakening",
		"BattleID": 301,
		"MonsterLevel": 70,
		"Desc": "Hero's Ultimate Awakening",
		"Image": "UI/BattleThumbnail_ABS/Arena003.png"
	},
	{
		"ID": 2105,
		"Name": "Hero's Ultimate Awakening",
		"BattleID": 301,
		"MonsterLevel": 70,
		"Desc": "Hero's Ultimate Awakening",
		"Image": "UI/BattleThumbnail_ABS/Arena003.png"
	},
	{
		"ID": 2106,
		"Name": "Hero's Ultimate Awakening",
		"BattleID": 301,
		"MonsterLevel": 70,
		"Desc": "Hero's Ultimate Awakening",
		"Image": "UI/BattleThumbnail_ABS/Arena003.png"
	},
	{
		"ID": 2107,
		"Name": "Hero's Ultimate Awakening",
		"BattleID": 301,
		"MonsterLevel": 70,
		"Desc": "Hero's Ultimate Awakening",
		"Image": "UI/BattleThumbnail_ABS/Arena003.png"
	},
	{
		"ID": 2108,
		"Name": "Hero's Ultimate Awakening",
		"BattleID": 301,
		"MonsterLevel": 70,
		"Desc": "Hero's Ultimate Awakening",
		"Image": "UI/BattleThumbnail_ABS/Arena003.png"
	},
	{
		"ID": 2109,
		"Name": "Hero's Ultimate Awakening",
		"BattleID": 301,
		"MonsterLevel": 70,
		"Desc": "Hero's Ultimate Awakening",
		"Image": "UI/BattleThumbnail_ABS/Arena003.png"
	},
	{
		"ID": 2110,
		"Name": "Prophet of Destiny",
		"BattleID": 42520,
		"MonsterLevel": 70,
		"Desc": "Langrisser... Please help me cut through the darkness!",
		"Image": "UI/BattleThumbnail_ABS/Arena003.png"
	},
	{
		"ID": 2111,
		"Name": "The Maid's Training",
		"BattleID": 42521,
		"MonsterLevel": 70,
		"Desc": "Want to see Maiya's true strength? Hah... I don't think you can handle it.",
		"Image": "UI/BattleThumbnail_ABS/Arena003.png"
	},
	{
		"ID": 2112,
		"Name": "Hero's Ultimate Awakening",
		"BattleID": 301,
		"MonsterLevel": 70,
		"Desc": "Hero's Ultimate Awakening",
		"Image": "UI/BattleThumbnail_ABS/Arena003.png"
	},
	{
		"ID": 2113,
		"Name": "Hero's Ultimate Awakening",
		"BattleID": 301,
		"MonsterLevel": 70,
		"Desc": "Hero's Ultimate Awakening",
		"Image": "UI/BattleThumbnail_ABS/Arena003.png"
	},
	{
		"ID": 2114,
		"Name": "Hero's Ultimate Awakening",
		"BattleID": 301,
		"MonsterLevel": 70,
		"Desc": "Hero's Ultimate Awakening",
		"Image": "UI/BattleThumbnail_ABS/Arena003.png"
	},
	{
		"ID": 2115,
		"Name": "Hero's Ultimate Awakening",
		"BattleID": 301,
		"MonsterLevel": 70,
		"Desc": "Hero's Ultimate Awakening",
		"Image": "UI/BattleThumbnail_ABS/Arena003.png"
	},
	{
		"ID": 2116,
		"Name": "Hero's Ultimate Awakening",
		"BattleID": 301,
		"MonsterLevel": 70,
		"Desc": "Hero's Ultimate Awakening",
		"Image": "UI/BattleThumbnail_ABS/Arena003.png"
	},
	{
		"ID": 2117,
		"Name": "Hero's Ultimate Awakening",
		"BattleID": 301,
		"MonsterLevel": 70,
		"Desc": "Hero's Ultimate Awakening",
		"Image": "UI/BattleThumbnail_ABS/Arena003.png"
	},
	{
		"ID": 2118,
		"Name": "Hero's Ultimate Awakening",
		"BattleID": 301,
		"MonsterLevel": 70,
		"Desc": "Hero's Ultimate Awakening",
		"Image": "UI/BattleThumbnail_ABS/Arena003.png"
	},
	{
		"ID": 2119,
		"Name": "Hero's Ultimate Awakening",
		"BattleID": 301,
		"MonsterLevel": 70,
		"Desc": "Hero's Ultimate Awakening",
		"Image": "UI/BattleThumbnail_ABS/Arena003.png"
	},
	{
		"ID": 2120,
		"Name": "Hero's Ultimate Awakening",
		"BattleID": 301,
		"MonsterLevel": 70,
		"Desc": "Hero's Ultimate Awakening",
		"Image": "UI/BattleThumbnail_ABS/Arena003.png"
	},
	{
		"ID": 2121,
		"Name": "Hero's Ultimate Awakening",
		"BattleID": 301,
		"MonsterLevel": 70,
		"Desc": "Hero's Ultimate Awakening",
		"Image": "UI/BattleThumbnail_ABS/Arena003.png"
	},
	{
		"ID": 2122,
		"Name": "Hero's Ultimate Awakening",
		"BattleID": 301,
		"MonsterLevel": 70,
		"Desc": "Hero's Ultimate Awakening",
		"Image": "UI/BattleThumbnail_ABS/Arena003.png"
	},
	{
		"ID": 2123,
		"Name": "Hero's Ultimate Awakening",
		"BattleID": 301,
		"MonsterLevel": 70,
		"Desc": "Hero's Ultimate Awakening",
		"Image": "UI/BattleThumbnail_ABS/Arena003.png"
	},
	{
		"ID": 2124,
		"Name": "Hero's Ultimate Awakening",
		"BattleID": 301,
		"MonsterLevel": 70,
		"Desc": "Hero's Ultimate Awakening",
		"Image": "UI/BattleThumbnail_ABS/Arena003.png"
	},
	{
		"ID": 2125,
		"Name": "Hero's Ultimate Awakening",
		"BattleID": 301,
		"MonsterLevel": 70,
		"Desc": "Hero's Ultimate Awakening",
		"Image": "UI/BattleThumbnail_ABS/Arena003.png"
	},
	{
		"ID": 2126,
		"Name": "Hero's Ultimate Awakening",
		"BattleID": 301,
		"MonsterLevel": 70,
		"Desc": "Hero's Ultimate Awakening",
		"Image": "UI/BattleThumbnail_ABS/Arena003.png"
	},
	{
		"ID": 2127,
		"Name": "Hero's Ultimate Awakening",
		"BattleID": 301,
		"MonsterLevel": 70,
		"Desc": "Hero's Ultimate Awakening",
		"Image": "UI/BattleThumbnail_ABS/Arena003.png"
	},
	{
		"ID": 2128,
		"Name": "Hero's Ultimate Awakening",
		"BattleID": 301,
		"MonsterLevel": 70,
		"Desc": "Hero's Ultimate Awakening",
		"Image": "UI/BattleThumbnail_ABS/Arena003.png"
	},
	{
		"ID": 2129,
		"Name": "Hero's Ultimate Awakening",
		"BattleID": 301,
		"MonsterLevel": 70,
		"Desc": "Hero's Ultimate Awakening",
		"Image": "UI/BattleThumbnail_ABS/Arena003.png"
	},
	{
		"ID": 2130,
		"Name": "Hero's Ultimate Awakening",
		"BattleID": 301,
		"MonsterLevel": 70,
		"Desc": "Hero's Ultimate Awakening",
		"Image": "UI/BattleThumbnail_ABS/Arena003.png"
	}
]