[
	{
		"ID": 1,
		"Name": "抽奖测试1",
		"RafflePoolType": "RafflePoolType_Tarot",
		"GoodsType": "GoodsType_Crystal",
		"DrawItemID": 1001,
		"FreeDrawCount": 3,
		"Costs": [
			{
				"Key": 1,
				"Value": 10
			},
			{
				"Key": 3,
				"Value": 20
			},
			{
				"Key": 10,
				"Value": 50
			}
		],
		"RaffleItems": [
			{
				"RaffleID": 1,
				"RaffleLevel": 1,
				"GoodsType": "GoodsType_Item",
				"ItemID": 1001,
				"ItemCount": 1
			},
			{
				"RaffleID": 2,
				"RaffleLevel": 0,
				"GoodsType": "GoodsType_Item",
				"ItemID": 1003,
				"ItemCount": 1
			},
			{
				"RaffleID": 3,
				"RaffleLevel": 2,
				"GoodsType": "GoodsType_Item",
				"ItemID": 1007,
				"ItemCount": 1
			},
			{
				"RaffleID": 4,
				"RaffleLevel": 3,
				"GoodsType": "GoodsType_Item",
				"ItemID": 1008,
				"ItemCount": 1
			}
		],
		"TarotIDList": [
			{
				"RaffleID": 1,
				"TarotID": 1
			},
			{
				"RaffleID": 2,
				"TarotID": 1
			},
			{
				"RaffleID": 3,
				"TarotID": 1
			},
			{
				"RaffleID": 4,
				"TarotID": 1
			}
		],
		"Description": ""
	},
	{
		"ID": 2,
		"Name": "抽奖测试2",
		"RafflePoolType": "RafflePoolType_Raffle",
		"GoodsType": "GoodsType_Crystal",
		"DrawItemID": 1002,
		"FreeDrawCount": 4,
		"Costs": [
			{
				"Key": 1,
				"Value": 10
			},
			{
				"Key": 4,
				"Value": 20
			},
			{
				"Key": 20,
				"Value": 50
			}
		],
		"RaffleItems": [
			{
				"RaffleID": 1,
				"RaffleLevel": 1,
				"GoodsType": "GoodsType_Item",
				"ItemID": 1001,
				"ItemCount": 1
			},
			{
				"RaffleID": 2,
				"RaffleLevel": 0,
				"GoodsType": "GoodsType_Item",
				"ItemID": 1003,
				"ItemCount": 1
			},
			{
				"RaffleID": 3,
				"RaffleLevel": 2,
				"GoodsType": "GoodsType_Item",
				"ItemID": 1007,
				"ItemCount": 1
			},
			{
				"RaffleID": 4,
				"RaffleLevel": 3,
				"GoodsType": "GoodsType_Item",
				"ItemID": 1008,
				"ItemCount": 1
			}
		],
		"Description": ""
	},
	{
		"ID": 3,
		"Name": "抽奖测试3",
		"RafflePoolType": "RafflePoolType_Raffle",
		"GoodsType": "GoodsType_Crystal",
		"DrawItemID": 1003,
		"FreeDrawCount": 5,
		"Costs": [
			{
				"Key": 1,
				"Value": 10
			},
			{
				"Key": 5,
				"Value": 20
			},
			{
				"Key": 30,
				"Value": 50
			}
		],
		"RaffleItems": [
			{
				"RaffleID": 1,
				"RaffleLevel": 1,
				"GoodsType": "GoodsType_Item",
				"ItemID": 1001,
				"ItemCount": 1
			},
			{
				"RaffleID": 2,
				"RaffleLevel": 0,
				"GoodsType": "GoodsType_Item",
				"ItemID": 1003,
				"ItemCount": 1
			},
			{
				"RaffleID": 3,
				"RaffleLevel": 2,
				"GoodsType": "GoodsType_Item",
				"ItemID": 1007,
				"ItemCount": 1
			},
			{
				"RaffleID": 4,
				"RaffleLevel": 3,
				"GoodsType": "GoodsType_Item",
				"ItemID": 1008,
				"ItemCount": 1
			}
		],
		"Description": ""
	},
	{
		"ID": 4,
		"Name": "抽奖测试4",
		"RafflePoolType": "RafflePoolType_Raffle",
		"GoodsType": "GoodsType_Crystal",
		"DrawItemID": 0,
		"FreeDrawCount": 1,
		"Costs": [
			{
				"Key": 1,
				"Value": 10
			},
			{
				"Key": 3,
				"Value": 20
			},
			{
				"Key": 4,
				"Value": 30
			},
			{
				"Key": 5,
				"Value": 50
			},
			{
				"Key": 6,
				"Value": 80
			},
			{
				"Key": 7,
				"Value": 100
			}
		],
		"RaffleItems": [
			{
				"RaffleID": 1,
				"RaffleLevel": 0,
				"GoodsType": "GoodsType_HeroSkin",
				"ItemID": 1401,
				"ItemCount": 1
			},
			{
				"RaffleID": 2,
				"RaffleLevel": 1,
				"GoodsType": "GoodsType_Item",
				"ItemID": 3009,
				"ItemCount": 1
			},
			{
				"RaffleID": 3,
				"RaffleLevel": 2,
				"GoodsType": "GoodsType_Item",
				"ItemID": 3203,
				"ItemCount": 2
			},
			{
				"RaffleID": 4,
				"RaffleLevel": 2,
				"GoodsType": "GoodsType_Equipment",
				"ItemID": 308,
				"ItemCount": 1
			},
			{
				"RaffleID": 5,
				"RaffleLevel": 3,
				"GoodsType": "GoodsType_Item",
				"ItemID": 3103,
				"ItemCount": 5
			},
			{
				"RaffleID": 6,
				"RaffleLevel": 3,
				"GoodsType": "GoodsType_Item",
				"ItemID": 3005,
				"ItemCount": 5
			},
			{
				"RaffleID": 7,
				"RaffleLevel": 3,
				"GoodsType": "GoodsType_Equipment",
				"ItemID": 304,
				"ItemCount": 5
			}
		],
		"Description": ""
	},
	{
		"ID": 5,
		"Name": "Macho Lotto",
		"RafflePoolType": "RafflePoolType_Raffle",
		"GoodsType": "GoodsType_Crystal",
		"DrawItemID": 0,
		"FreeDrawCount": 1,
		"Costs": [
			{
				"Key": 1,
				"Value": 50
			},
			{
				"Key": 2,
				"Value": 100
			},
			{
				"Key": 3,
				"Value": 200
			},
			{
				"Key": 4,
				"Value": 300
			},
			{
				"Key": 5,
				"Value": 400
			},
			{
				"Key": 6,
				"Value": 500
			},
			{
				"Key": 7,
				"Value": 600
			},
			{
				"Key": 8,
				"Value": 800
			},
			{
				"Key": 9,
				"Value": 1000
			}
		],
		"RaffleItems": [
			{
				"RaffleID": 1,
				"RaffleLevel": 0,
				"GoodsType": "GoodsType_HeroSkin",
				"ItemID": 1401,
				"ItemCount": 1
			},
			{
				"RaffleID": 2,
				"RaffleLevel": 1,
				"GoodsType": "GoodsType_Item",
				"ItemID": 3009,
				"ItemCount": 1
			},
			{
				"RaffleID": 3,
				"RaffleLevel": 1,
				"GoodsType": "GoodsType_Item",
				"ItemID": 4017,
				"ItemCount": 1
			},
			{
				"RaffleID": 4,
				"RaffleLevel": 2,
				"GoodsType": "GoodsType_SoldierSkin",
				"ItemID": 40201,
				"ItemCount": 1
			},
			{
				"RaffleID": 5,
				"RaffleLevel": 2,
				"GoodsType": "GoodsType_Equipment",
				"ItemID": 307,
				"ItemCount": 1
			},
			{
				"RaffleID": 6,
				"RaffleLevel": 2,
				"GoodsType": "GoodsType_Item",
				"ItemID": 4001,
				"ItemCount": 3
			},
			{
				"RaffleID": 7,
				"RaffleLevel": 3,
				"GoodsType": "GoodsType_Equipment",
				"ItemID": 303,
				"ItemCount": 10
			},
			{
				"RaffleID": 8,
				"RaffleLevel": 3,
				"GoodsType": "GoodsType_Gold",
				"ItemID": 0,
				"ItemCount": 100000
			},
			{
				"RaffleID": 9,
				"RaffleLevel": 3,
				"GoodsType": "GoodsType_Item",
				"ItemID": 4000,
				"ItemCount": 5
			},
			{
				"RaffleID": 10,
				"RaffleLevel": 3,
				"GoodsType": "GoodsType_Item",
				"ItemID": 4016,
				"ItemCount": 1
			}
		],
		"Description": ""
	},
	{
		"ID": 6,
		"Name": "转动的哲学-第二期",
		"RafflePoolType": "RafflePoolType_Raffle",
		"GoodsType": "GoodsType_Crystal",
		"DrawItemID": 0,
		"FreeDrawCount": 1,
		"Costs": [
			{
				"Key": 1,
				"Value": 50
			},
			{
				"Key": 2,
				"Value": 100
			},
			{
				"Key": 3,
				"Value": 200
			},
			{
				"Key": 4,
				"Value": 300
			},
			{
				"Key": 5,
				"Value": 400
			},
			{
				"Key": 6,
				"Value": 500
			},
			{
				"Key": 7,
				"Value": 600
			},
			{
				"Key": 8,
				"Value": 800
			},
			{
				"Key": 9,
				"Value": 1000
			}
		],
		"RaffleItems": [
			{
				"RaffleID": 1,
				"RaffleLevel": 0,
				"GoodsType": "GoodsType_HeroSkin",
				"ItemID": 2601,
				"ItemCount": 1
			},
			{
				"RaffleID": 2,
				"RaffleLevel": 1,
				"GoodsType": "GoodsType_Item",
				"ItemID": 3009,
				"ItemCount": 1
			},
			{
				"RaffleID": 3,
				"RaffleLevel": 1,
				"GoodsType": "GoodsType_Item",
				"ItemID": 4017,
				"ItemCount": 1
			},
			{
				"RaffleID": 4,
				"RaffleLevel": 2,
				"GoodsType": "GoodsType_BrillianceMithralStone",
				"ItemID": 0,
				"ItemCount": 100
			},
			{
				"RaffleID": 5,
				"RaffleLevel": 2,
				"GoodsType": "GoodsType_Equipment",
				"ItemID": 307,
				"ItemCount": 1
			},
			{
				"RaffleID": 6,
				"RaffleLevel": 2,
				"GoodsType": "GoodsType_Item",
				"ItemID": 4001,
				"ItemCount": 3
			},
			{
				"RaffleID": 7,
				"RaffleLevel": 3,
				"GoodsType": "GoodsType_Equipment",
				"ItemID": 303,
				"ItemCount": 10
			},
			{
				"RaffleID": 8,
				"RaffleLevel": 3,
				"GoodsType": "GoodsType_Gold",
				"ItemID": 0,
				"ItemCount": 100000
			},
			{
				"RaffleID": 9,
				"RaffleLevel": 3,
				"GoodsType": "GoodsType_Item",
				"ItemID": 4000,
				"ItemCount": 5
			},
			{
				"RaffleID": 10,
				"RaffleLevel": 3,
				"GoodsType": "GoodsType_Item",
				"ItemID": 4016,
				"ItemCount": 1
			}
		],
		"Description": ""
	},
	{
		"ID": 7,
		"Name": "转动的哲学-第三期",
		"RafflePoolType": "RafflePoolType_Raffle",
		"GoodsType": "GoodsType_Crystal",
		"DrawItemID": 0,
		"FreeDrawCount": 1,
		"Costs": [
			{
				"Key": 1,
				"Value": 50
			},
			{
				"Key": 2,
				"Value": 100
			},
			{
				"Key": 3,
				"Value": 200
			},
			{
				"Key": 4,
				"Value": 300
			},
			{
				"Key": 5,
				"Value": 400
			},
			{
				"Key": 6,
				"Value": 500
			},
			{
				"Key": 7,
				"Value": 600
			},
			{
				"Key": 8,
				"Value": 800
			},
			{
				"Key": 9,
				"Value": 1000
			}
		],
		"RaffleItems": [
			{
				"RaffleID": 1,
				"RaffleLevel": 0,
				"GoodsType": "GoodsType_HeroSkin",
				"ItemID": 2902,
				"ItemCount": 1
			},
			{
				"RaffleID": 2,
				"RaffleLevel": 1,
				"GoodsType": "GoodsType_Item",
				"ItemID": 3009,
				"ItemCount": 1
			},
			{
				"RaffleID": 3,
				"RaffleLevel": 1,
				"GoodsType": "GoodsType_Item",
				"ItemID": 4017,
				"ItemCount": 1
			},
			{
				"RaffleID": 4,
				"RaffleLevel": 2,
				"GoodsType": "GoodsType_BrillianceMithralStone",
				"ItemID": 0,
				"ItemCount": 100
			},
			{
				"RaffleID": 5,
				"RaffleLevel": 2,
				"GoodsType": "GoodsType_Equipment",
				"ItemID": 307,
				"ItemCount": 1
			},
			{
				"RaffleID": 6,
				"RaffleLevel": 2,
				"GoodsType": "GoodsType_Item",
				"ItemID": 4001,
				"ItemCount": 3
			},
			{
				"RaffleID": 7,
				"RaffleLevel": 3,
				"GoodsType": "GoodsType_Equipment",
				"ItemID": 303,
				"ItemCount": 10
			},
			{
				"RaffleID": 8,
				"RaffleLevel": 3,
				"GoodsType": "GoodsType_Gold",
				"ItemID": 0,
				"ItemCount": 100000
			},
			{
				"RaffleID": 9,
				"RaffleLevel": 3,
				"GoodsType": "GoodsType_Item",
				"ItemID": 4000,
				"ItemCount": 5
			},
			{
				"RaffleID": 10,
				"RaffleLevel": 3,
				"GoodsType": "GoodsType_Item",
				"ItemID": 4016,
				"ItemCount": 1
			}
		],
		"Description": ""
	},
	{
		"ID": 8,
		"Name": "转动的哲学-第四期",
		"RafflePoolType": "RafflePoolType_Raffle",
		"GoodsType": "GoodsType_Crystal",
		"DrawItemID": 0,
		"FreeDrawCount": 1,
		"Costs": [
			{
				"Key": 1,
				"Value": 50
			},
			{
				"Key": 2,
				"Value": 100
			},
			{
				"Key": 3,
				"Value": 200
			},
			{
				"Key": 4,
				"Value": 300
			},
			{
				"Key": 5,
				"Value": 400
			},
			{
				"Key": 6,
				"Value": 500
			},
			{
				"Key": 7,
				"Value": 600
			},
			{
				"Key": 8,
				"Value": 800
			},
			{
				"Key": 9,
				"Value": 1000
			}
		],
		"RaffleItems": [
			{
				"RaffleID": 1,
				"RaffleLevel": 0,
				"GoodsType": "GoodsType_HeroSkin",
				"ItemID": 1502,
				"ItemCount": 1
			},
			{
				"RaffleID": 2,
				"RaffleLevel": 1,
				"GoodsType": "GoodsType_Item",
				"ItemID": 3009,
				"ItemCount": 1
			},
			{
				"RaffleID": 3,
				"RaffleLevel": 1,
				"GoodsType": "GoodsType_Item",
				"ItemID": 4017,
				"ItemCount": 1
			},
			{
				"RaffleID": 4,
				"RaffleLevel": 2,
				"GoodsType": "GoodsType_BrillianceMithralStone",
				"ItemID": 0,
				"ItemCount": 100
			},
			{
				"RaffleID": 5,
				"RaffleLevel": 2,
				"GoodsType": "GoodsType_Equipment",
				"ItemID": 307,
				"ItemCount": 1
			},
			{
				"RaffleID": 6,
				"RaffleLevel": 2,
				"GoodsType": "GoodsType_Item",
				"ItemID": 4001,
				"ItemCount": 3
			},
			{
				"RaffleID": 7,
				"RaffleLevel": 3,
				"GoodsType": "GoodsType_Equipment",
				"ItemID": 303,
				"ItemCount": 10
			},
			{
				"RaffleID": 8,
				"RaffleLevel": 3,
				"GoodsType": "GoodsType_Gold",
				"ItemID": 0,
				"ItemCount": 100000
			},
			{
				"RaffleID": 9,
				"RaffleLevel": 3,
				"GoodsType": "GoodsType_Item",
				"ItemID": 4000,
				"ItemCount": 5
			},
			{
				"RaffleID": 10,
				"RaffleLevel": 3,
				"GoodsType": "GoodsType_Item",
				"ItemID": 4016,
				"ItemCount": 1
			}
		],
		"Description": ""
	},
	{
		"ID": 9,
		"Name": "揭示的哲学-第一期",
		"RafflePoolType": "RafflePoolType_Tarot",
		"GoodsType": "GoodsType_Crystal",
		"DrawItemID": 0,
		"FreeDrawCount": 1,
		"Costs": [
			{
				"Key": 1,
				"Value": 50
			},
			{
				"Key": 2,
				"Value": 100
			},
			{
				"Key": 3,
				"Value": 200
			},
			{
				"Key": 4,
				"Value": 300
			},
			{
				"Key": 5,
				"Value": 400
			},
			{
				"Key": 6,
				"Value": 500
			},
			{
				"Key": 7,
				"Value": 600
			},
			{
				"Key": 8,
				"Value": 800
			},
			{
				"Key": 9,
				"Value": 1000
			}
		],
		"RaffleItems": [
			{
				"RaffleID": 1,
				"RaffleLevel": 0,
				"GoodsType": "GoodsType_Item",
				"ItemID": 61000,
				"ItemCount": 1
			},
			{
				"RaffleID": 2,
				"RaffleLevel": 1,
				"GoodsType": "GoodsType_Item",
				"ItemID": 3009,
				"ItemCount": 1
			},
			{
				"RaffleID": 3,
				"RaffleLevel": 1,
				"GoodsType": "GoodsType_Item",
				"ItemID": 4017,
				"ItemCount": 1
			},
			{
				"RaffleID": 4,
				"RaffleLevel": 2,
				"GoodsType": "GoodsType_SkinTicket",
				"ItemID": 0,
				"ItemCount": 40
			},
			{
				"RaffleID": 5,
				"RaffleLevel": 2,
				"GoodsType": "GoodsType_BrillianceMithralStone",
				"ItemID": 0,
				"ItemCount": 100
			},
			{
				"RaffleID": 6,
				"RaffleLevel": 2,
				"GoodsType": "GoodsType_Item",
				"ItemID": 4001,
				"ItemCount": 3
			},
			{
				"RaffleID": 7,
				"RaffleLevel": 3,
				"GoodsType": "GoodsType_Equipment",
				"ItemID": 303,
				"ItemCount": 10
			},
			{
				"RaffleID": 8,
				"RaffleLevel": 3,
				"GoodsType": "GoodsType_Gold",
				"ItemID": 0,
				"ItemCount": 300000
			},
			{
				"RaffleID": 9,
				"RaffleLevel": 3,
				"GoodsType": "GoodsType_Item",
				"ItemID": 4000,
				"ItemCount": 10
			},
			{
				"RaffleID": 10,
				"RaffleLevel": 3,
				"GoodsType": "GoodsType_Item",
				"ItemID": 4016,
				"ItemCount": 1
			}
		],
		"TarotIDList": [
			{
				"RaffleID": 1,
				"TarotID": 1
			},
			{
				"RaffleID": 2,
				"TarotID": 2
			},
			{
				"RaffleID": 3,
				"TarotID": 3
			},
			{
				"RaffleID": 4,
				"TarotID": 4
			},
			{
				"RaffleID": 5,
				"TarotID": 5
			},
			{
				"RaffleID": 6,
				"TarotID": 6
			},
			{
				"RaffleID": 7,
				"TarotID": 7
			},
			{
				"RaffleID": 8,
				"TarotID": 8
			},
			{
				"RaffleID": 9,
				"TarotID": 9
			},
			{
				"RaffleID": 10,
				"TarotID": 10
			}
		],
		"Description": ""
	},
	{
		"ID": 10,
		"Name": "揭示的哲学-第二期",
		"RafflePoolType": "RafflePoolType_Tarot",
		"GoodsType": "GoodsType_Crystal",
		"DrawItemID": 0,
		"FreeDrawCount": 1,
		"Costs": [
			{
				"Key": 1,
				"Value": 50
			},
			{
				"Key": 2,
				"Value": 100
			},
			{
				"Key": 3,
				"Value": 200
			},
			{
				"Key": 4,
				"Value": 300
			},
			{
				"Key": 5,
				"Value": 400
			},
			{
				"Key": 6,
				"Value": 500
			},
			{
				"Key": 7,
				"Value": 600
			},
			{
				"Key": 8,
				"Value": 800
			},
			{
				"Key": 9,
				"Value": 1000
			}
		],
		"RaffleItems": [
			{
				"RaffleID": 1,
				"RaffleLevel": 0,
				"GoodsType": "GoodsType_Item",
				"ItemID": 61001,
				"ItemCount": 1
			},
			{
				"RaffleID": 2,
				"RaffleLevel": 1,
				"GoodsType": "GoodsType_Item",
				"ItemID": 3009,
				"ItemCount": 1
			},
			{
				"RaffleID": 3,
				"RaffleLevel": 1,
				"GoodsType": "GoodsType_Item",
				"ItemID": 4017,
				"ItemCount": 1
			},
			{
				"RaffleID": 4,
				"RaffleLevel": 2,
				"GoodsType": "GoodsType_SkinTicket",
				"ItemID": 0,
				"ItemCount": 40
			},
			{
				"RaffleID": 5,
				"RaffleLevel": 2,
				"GoodsType": "GoodsType_BrillianceMithralStone",
				"ItemID": 0,
				"ItemCount": 100
			},
			{
				"RaffleID": 6,
				"RaffleLevel": 2,
				"GoodsType": "GoodsType_Item",
				"ItemID": 4001,
				"ItemCount": 3
			},
			{
				"RaffleID": 7,
				"RaffleLevel": 3,
				"GoodsType": "GoodsType_Equipment",
				"ItemID": 303,
				"ItemCount": 10
			},
			{
				"RaffleID": 8,
				"RaffleLevel": 3,
				"GoodsType": "GoodsType_Gold",
				"ItemID": 0,
				"ItemCount": 300000
			},
			{
				"RaffleID": 9,
				"RaffleLevel": 3,
				"GoodsType": "GoodsType_Item",
				"ItemID": 4000,
				"ItemCount": 10
			},
			{
				"RaffleID": 10,
				"RaffleLevel": 3,
				"GoodsType": "GoodsType_Item",
				"ItemID": 4016,
				"ItemCount": 1
			}
		],
		"TarotIDList": [
			{
				"RaffleID": 1,
				"TarotID": 11
			},
			{
				"RaffleID": 2,
				"TarotID": 2
			},
			{
				"RaffleID": 3,
				"TarotID": 3
			},
			{
				"RaffleID": 4,
				"TarotID": 4
			},
			{
				"RaffleID": 5,
				"TarotID": 5
			},
			{
				"RaffleID": 6,
				"TarotID": 6
			},
			{
				"RaffleID": 7,
				"TarotID": 7
			},
			{
				"RaffleID": 8,
				"TarotID": 8
			},
			{
				"RaffleID": 9,
				"TarotID": 9
			},
			{
				"RaffleID": 10,
				"TarotID": 10
			}
		],
		"Description": ""
	},
	{
		"ID": 11,
		"Name": "揭示的哲学-第三期",
		"RafflePoolType": "RafflePoolType_Tarot",
		"GoodsType": "GoodsType_Crystal",
		"DrawItemID": 0,
		"FreeDrawCount": 1,
		"Costs": [
			{
				"Key": 1,
				"Value": 50
			},
			{
				"Key": 2,
				"Value": 100
			},
			{
				"Key": 3,
				"Value": 200
			},
			{
				"Key": 4,
				"Value": 300
			},
			{
				"Key": 5,
				"Value": 400
			},
			{
				"Key": 6,
				"Value": 500
			},
			{
				"Key": 7,
				"Value": 600
			},
			{
				"Key": 8,
				"Value": 800
			},
			{
				"Key": 9,
				"Value": 1000
			}
		],
		"RaffleItems": [
			{
				"RaffleID": 1,
				"RaffleLevel": 0,
				"GoodsType": "GoodsType_Item",
				"ItemID": 61002,
				"ItemCount": 1
			},
			{
				"RaffleID": 2,
				"RaffleLevel": 1,
				"GoodsType": "GoodsType_Item",
				"ItemID": 3009,
				"ItemCount": 1
			},
			{
				"RaffleID": 3,
				"RaffleLevel": 1,
				"GoodsType": "GoodsType_Item",
				"ItemID": 4017,
				"ItemCount": 1
			},
			{
				"RaffleID": 4,
				"RaffleLevel": 2,
				"GoodsType": "GoodsType_SkinTicket",
				"ItemID": 0,
				"ItemCount": 40
			},
			{
				"RaffleID": 5,
				"RaffleLevel": 2,
				"GoodsType": "GoodsType_BrillianceMithralStone",
				"ItemID": 0,
				"ItemCount": 100
			},
			{
				"RaffleID": 6,
				"RaffleLevel": 2,
				"GoodsType": "GoodsType_Item",
				"ItemID": 4001,
				"ItemCount": 3
			},
			{
				"RaffleID": 7,
				"RaffleLevel": 3,
				"GoodsType": "GoodsType_Equipment",
				"ItemID": 303,
				"ItemCount": 10
			},
			{
				"RaffleID": 8,
				"RaffleLevel": 3,
				"GoodsType": "GoodsType_Gold",
				"ItemID": 0,
				"ItemCount": 300000
			},
			{
				"RaffleID": 9,
				"RaffleLevel": 3,
				"GoodsType": "GoodsType_Item",
				"ItemID": 4000,
				"ItemCount": 10
			},
			{
				"RaffleID": 10,
				"RaffleLevel": 3,
				"GoodsType": "GoodsType_Item",
				"ItemID": 4016,
				"ItemCount": 1
			}
		],
		"TarotIDList": [
			{
				"RaffleID": 1,
				"TarotID": 11
			},
			{
				"RaffleID": 2,
				"TarotID": 2
			},
			{
				"RaffleID": 3,
				"TarotID": 3
			},
			{
				"RaffleID": 4,
				"TarotID": 4
			},
			{
				"RaffleID": 5,
				"TarotID": 5
			},
			{
				"RaffleID": 6,
				"TarotID": 6
			},
			{
				"RaffleID": 7,
				"TarotID": 7
			},
			{
				"RaffleID": 8,
				"TarotID": 8
			},
			{
				"RaffleID": 9,
				"TarotID": 9
			},
			{
				"RaffleID": 10,
				"TarotID": 10
			}
		],
		"Description": ""
	},
	{
		"ID": 12,
		"Name": "揭示的哲学-第四期",
		"RafflePoolType": "RafflePoolType_Tarot",
		"GoodsType": "GoodsType_Crystal",
		"DrawItemID": 0,
		"FreeDrawCount": 1,
		"Costs": [
			{
				"Key": 1,
				"Value": 50
			},
			{
				"Key": 2,
				"Value": 100
			},
			{
				"Key": 3,
				"Value": 200
			},
			{
				"Key": 4,
				"Value": 300
			},
			{
				"Key": 5,
				"Value": 400
			},
			{
				"Key": 6,
				"Value": 500
			},
			{
				"Key": 7,
				"Value": 600
			},
			{
				"Key": 8,
				"Value": 800
			},
			{
				"Key": 9,
				"Value": 1000
			}
		],
		"RaffleItems": [
			{
				"RaffleID": 1,
				"RaffleLevel": 0,
				"GoodsType": "GoodsType_Item",
				"ItemID": 4523,
				"ItemCount": 1
			},
			{
				"RaffleID": 2,
				"RaffleLevel": 1,
				"GoodsType": "GoodsType_Item",
				"ItemID": 3009,
				"ItemCount": 1
			},
			{
				"RaffleID": 3,
				"RaffleLevel": 1,
				"GoodsType": "GoodsType_Item",
				"ItemID": 4017,
				"ItemCount": 1
			},
			{
				"RaffleID": 4,
				"RaffleLevel": 2,
				"GoodsType": "GoodsType_SkinTicket",
				"ItemID": 0,
				"ItemCount": 40
			},
			{
				"RaffleID": 5,
				"RaffleLevel": 2,
				"GoodsType": "GoodsType_BrillianceMithralStone",
				"ItemID": 0,
				"ItemCount": 100
			},
			{
				"RaffleID": 6,
				"RaffleLevel": 2,
				"GoodsType": "GoodsType_Item",
				"ItemID": 4001,
				"ItemCount": 3
			},
			{
				"RaffleID": 7,
				"RaffleLevel": 3,
				"GoodsType": "GoodsType_Equipment",
				"ItemID": 303,
				"ItemCount": 10
			},
			{
				"RaffleID": 8,
				"RaffleLevel": 3,
				"GoodsType": "GoodsType_Gold",
				"ItemID": 0,
				"ItemCount": 300000
			},
			{
				"RaffleID": 9,
				"RaffleLevel": 3,
				"GoodsType": "GoodsType_Item",
				"ItemID": 4000,
				"ItemCount": 10
			},
			{
				"RaffleID": 10,
				"RaffleLevel": 3,
				"GoodsType": "GoodsType_Item",
				"ItemID": 4016,
				"ItemCount": 1
			}
		],
		"TarotIDList": [
			{
				"RaffleID": 1,
				"TarotID": 11
			},
			{
				"RaffleID": 2,
				"TarotID": 2
			},
			{
				"RaffleID": 3,
				"TarotID": 3
			},
			{
				"RaffleID": 4,
				"TarotID": 4
			},
			{
				"RaffleID": 5,
				"TarotID": 5
			},
			{
				"RaffleID": 6,
				"TarotID": 6
			},
			{
				"RaffleID": 7,
				"TarotID": 7
			},
			{
				"RaffleID": 8,
				"TarotID": 8
			},
			{
				"RaffleID": 9,
				"TarotID": 9
			},
			{
				"RaffleID": 10,
				"TarotID": 10
			}
		],
		"Description": ""
	},
	{
		"ID": 13,
		"Name": "揭示的哲学-第五期",
		"RafflePoolType": "RafflePoolType_Tarot",
		"GoodsType": "GoodsType_Crystal",
		"DrawItemID": 0,
		"FreeDrawCount": 1,
		"Costs": [
			{
				"Key": 1,
				"Value": 50
			},
			{
				"Key": 2,
				"Value": 100
			},
			{
				"Key": 3,
				"Value": 200
			},
			{
				"Key": 4,
				"Value": 300
			},
			{
				"Key": 5,
				"Value": 400
			},
			{
				"Key": 6,
				"Value": 500
			},
			{
				"Key": 7,
				"Value": 600
			},
			{
				"Key": 8,
				"Value": 800
			},
			{
				"Key": 9,
				"Value": 1000
			}
		],
		"RaffleItems": [
			{
				"RaffleID": 1,
				"RaffleLevel": 0,
				"GoodsType": "GoodsType_Item",
				"ItemID": 61003,
				"ItemCount": 1
			},
			{
				"RaffleID": 2,
				"RaffleLevel": 1,
				"GoodsType": "GoodsType_Item",
				"ItemID": 3009,
				"ItemCount": 1
			},
			{
				"RaffleID": 3,
				"RaffleLevel": 1,
				"GoodsType": "GoodsType_Item",
				"ItemID": 4017,
				"ItemCount": 1
			},
			{
				"RaffleID": 4,
				"RaffleLevel": 2,
				"GoodsType": "GoodsType_SkinTicket",
				"ItemID": 0,
				"ItemCount": 40
			},
			{
				"RaffleID": 5,
				"RaffleLevel": 2,
				"GoodsType": "GoodsType_BrillianceMithralStone",
				"ItemID": 0,
				"ItemCount": 100
			},
			{
				"RaffleID": 6,
				"RaffleLevel": 2,
				"GoodsType": "GoodsType_Item",
				"ItemID": 4001,
				"ItemCount": 3
			},
			{
				"RaffleID": 7,
				"RaffleLevel": 3,
				"GoodsType": "GoodsType_Equipment",
				"ItemID": 303,
				"ItemCount": 10
			},
			{
				"RaffleID": 8,
				"RaffleLevel": 3,
				"GoodsType": "GoodsType_Gold",
				"ItemID": 0,
				"ItemCount": 300000
			},
			{
				"RaffleID": 9,
				"RaffleLevel": 3,
				"GoodsType": "GoodsType_Item",
				"ItemID": 4000,
				"ItemCount": 10
			},
			{
				"RaffleID": 10,
				"RaffleLevel": 3,
				"GoodsType": "GoodsType_Item",
				"ItemID": 4016,
				"ItemCount": 1
			}
		],
		"TarotIDList": [
			{
				"RaffleID": 1,
				"TarotID": 1
			},
			{
				"RaffleID": 2,
				"TarotID": 2
			},
			{
				"RaffleID": 3,
				"TarotID": 3
			},
			{
				"RaffleID": 4,
				"TarotID": 4
			},
			{
				"RaffleID": 5,
				"TarotID": 5
			},
			{
				"RaffleID": 6,
				"TarotID": 6
			},
			{
				"RaffleID": 7,
				"TarotID": 7
			},
			{
				"RaffleID": 8,
				"TarotID": 8
			},
			{
				"RaffleID": 9,
				"TarotID": 9
			},
			{
				"RaffleID": 10,
				"TarotID": 10
			}
		],
		"Description": ""
	},
	{
		"ID": 14,
		"Name": "转动的哲学-第五期",
		"RafflePoolType": "RafflePoolType_Raffle",
		"GoodsType": "GoodsType_Crystal",
		"DrawItemID": 0,
		"FreeDrawCount": 1,
		"Costs": [
			{
				"Key": 1,
				"Value": 50
			},
			{
				"Key": 2,
				"Value": 100
			},
			{
				"Key": 3,
				"Value": 200
			},
			{
				"Key": 4,
				"Value": 300
			},
			{
				"Key": 5,
				"Value": 400
			},
			{
				"Key": 6,
				"Value": 500
			},
			{
				"Key": 7,
				"Value": 600
			},
			{
				"Key": 8,
				"Value": 800
			},
			{
				"Key": 9,
				"Value": 1000
			}
		],
		"RaffleItems": [
			{
				"RaffleID": 1,
				"RaffleLevel": 0,
				"GoodsType": "GoodsType_Item",
				"ItemID": 61004,
				"ItemCount": 1
			},
			{
				"RaffleID": 2,
				"RaffleLevel": 1,
				"GoodsType": "GoodsType_Item",
				"ItemID": 3009,
				"ItemCount": 1
			},
			{
				"RaffleID": 3,
				"RaffleLevel": 1,
				"GoodsType": "GoodsType_Item",
				"ItemID": 4017,
				"ItemCount": 1
			},
			{
				"RaffleID": 4,
				"RaffleLevel": 2,
				"GoodsType": "GoodsType_SkinTicket",
				"ItemID": 0,
				"ItemCount": 40
			},
			{
				"RaffleID": 5,
				"RaffleLevel": 2,
				"GoodsType": "GoodsType_BrillianceMithralStone",
				"ItemID": 0,
				"ItemCount": 100
			},
			{
				"RaffleID": 6,
				"RaffleLevel": 2,
				"GoodsType": "GoodsType_Item",
				"ItemID": 4001,
				"ItemCount": 3
			},
			{
				"RaffleID": 7,
				"RaffleLevel": 3,
				"GoodsType": "GoodsType_Equipment",
				"ItemID": 303,
				"ItemCount": 10
			},
			{
				"RaffleID": 8,
				"RaffleLevel": 3,
				"GoodsType": "GoodsType_Gold",
				"ItemID": 0,
				"ItemCount": 300000
			},
			{
				"RaffleID": 9,
				"RaffleLevel": 3,
				"GoodsType": "GoodsType_Item",
				"ItemID": 4000,
				"ItemCount": 5
			},
			{
				"RaffleID": 10,
				"RaffleLevel": 3,
				"GoodsType": "GoodsType_Item",
				"ItemID": 4016,
				"ItemCount": 1
			}
		],
		"Description": ""
	},
	{
		"ID": 15,
		"Name": "揭示的哲学-第六期",
		"RafflePoolType": "RafflePoolType_Tarot",
		"GoodsType": "GoodsType_Crystal",
		"DrawItemID": 0,
		"FreeDrawCount": 1,
		"Costs": [
			{
				"Key": 1,
				"Value": 50
			},
			{
				"Key": 2,
				"Value": 100
			},
			{
				"Key": 3,
				"Value": 200
			},
			{
				"Key": 4,
				"Value": 300
			},
			{
				"Key": 5,
				"Value": 400
			},
			{
				"Key": 6,
				"Value": 500
			},
			{
				"Key": 7,
				"Value": 600
			},
			{
				"Key": 8,
				"Value": 800
			},
			{
				"Key": 9,
				"Value": 1000
			}
		],
		"RaffleItems": [
			{
				"RaffleID": 1,
				"RaffleLevel": 0,
				"GoodsType": "GoodsType_HeroSkin",
				"ItemID": 2803,
				"ItemCount": 1
			},
			{
				"RaffleID": 2,
				"RaffleLevel": 1,
				"GoodsType": "GoodsType_Item",
				"ItemID": 3009,
				"ItemCount": 1
			},
			{
				"RaffleID": 3,
				"RaffleLevel": 1,
				"GoodsType": "GoodsType_Item",
				"ItemID": 4017,
				"ItemCount": 1
			},
			{
				"RaffleID": 4,
				"RaffleLevel": 2,
				"GoodsType": "GoodsType_SkinTicket",
				"ItemID": 0,
				"ItemCount": 40
			},
			{
				"RaffleID": 5,
				"RaffleLevel": 2,
				"GoodsType": "GoodsType_BrillianceMithralStone",
				"ItemID": 0,
				"ItemCount": 100
			},
			{
				"RaffleID": 6,
				"RaffleLevel": 2,
				"GoodsType": "GoodsType_Item",
				"ItemID": 4001,
				"ItemCount": 3
			},
			{
				"RaffleID": 7,
				"RaffleLevel": 3,
				"GoodsType": "GoodsType_Equipment",
				"ItemID": 303,
				"ItemCount": 10
			},
			{
				"RaffleID": 8,
				"RaffleLevel": 3,
				"GoodsType": "GoodsType_Gold",
				"ItemID": 0,
				"ItemCount": 300000
			},
			{
				"RaffleID": 9,
				"RaffleLevel": 3,
				"GoodsType": "GoodsType_Item",
				"ItemID": 4000,
				"ItemCount": 10
			},
			{
				"RaffleID": 10,
				"RaffleLevel": 3,
				"GoodsType": "GoodsType_Item",
				"ItemID": 4016,
				"ItemCount": 1
			}
		],
		"TarotIDList": [
			{
				"RaffleID": 1,
				"TarotID": 1
			},
			{
				"RaffleID": 2,
				"TarotID": 2
			},
			{
				"RaffleID": 3,
				"TarotID": 3
			},
			{
				"RaffleID": 4,
				"TarotID": 4
			},
			{
				"RaffleID": 5,
				"TarotID": 5
			},
			{
				"RaffleID": 6,
				"TarotID": 6
			},
			{
				"RaffleID": 7,
				"TarotID": 7
			},
			{
				"RaffleID": 8,
				"TarotID": 8
			},
			{
				"RaffleID": 9,
				"TarotID": 9
			},
			{
				"RaffleID": 10,
				"TarotID": 10
			}
		],
		"Description": ""
	},
	{
		"ID": 16,
		"Name": "转动的哲学-第七期",
		"RafflePoolType": "RafflePoolType_Raffle",
		"GoodsType": "GoodsType_Crystal",
		"DrawItemID": 0,
		"FreeDrawCount": 1,
		"Costs": [
			{
				"Key": 1,
				"Value": 50
			},
			{
				"Key": 2,
				"Value": 100
			},
			{
				"Key": 3,
				"Value": 200
			},
			{
				"Key": 4,
				"Value": 300
			},
			{
				"Key": 5,
				"Value": 400
			},
			{
				"Key": 6,
				"Value": 500
			},
			{
				"Key": 7,
				"Value": 600
			},
			{
				"Key": 8,
				"Value": 800
			},
			{
				"Key": 9,
				"Value": 1000
			}
		],
		"RaffleItems": [
			{
				"RaffleID": 1,
				"RaffleLevel": 0,
				"GoodsType": "GoodsType_HeroSkin",
				"ItemID": 1403,
				"ItemCount": 1
			},
			{
				"RaffleID": 2,
				"RaffleLevel": 1,
				"GoodsType": "GoodsType_Item",
				"ItemID": 3009,
				"ItemCount": 1
			},
			{
				"RaffleID": 3,
				"RaffleLevel": 1,
				"GoodsType": "GoodsType_Item",
				"ItemID": 4017,
				"ItemCount": 1
			},
			{
				"RaffleID": 4,
				"RaffleLevel": 2,
				"GoodsType": "GoodsType_SkinTicket",
				"ItemID": 0,
				"ItemCount": 40
			},
			{
				"RaffleID": 5,
				"RaffleLevel": 2,
				"GoodsType": "GoodsType_BrillianceMithralStone",
				"ItemID": 0,
				"ItemCount": 100
			},
			{
				"RaffleID": 6,
				"RaffleLevel": 2,
				"GoodsType": "GoodsType_Item",
				"ItemID": 4001,
				"ItemCount": 3
			},
			{
				"RaffleID": 7,
				"RaffleLevel": 3,
				"GoodsType": "GoodsType_Equipment",
				"ItemID": 303,
				"ItemCount": 10
			},
			{
				"RaffleID": 8,
				"RaffleLevel": 3,
				"GoodsType": "GoodsType_Gold",
				"ItemID": 0,
				"ItemCount": 300000
			},
			{
				"RaffleID": 9,
				"RaffleLevel": 3,
				"GoodsType": "GoodsType_Item",
				"ItemID": 4000,
				"ItemCount": 5
			},
			{
				"RaffleID": 10,
				"RaffleLevel": 3,
				"GoodsType": "GoodsType_Item",
				"ItemID": 4016,
				"ItemCount": 1
			}
		],
		"Description": ""
	},
	{
		"ID": 17,
		"Name": "揭示的哲学-第七期",
		"RafflePoolType": "RafflePoolType_Tarot",
		"GoodsType": "GoodsType_Crystal",
		"DrawItemID": 0,
		"FreeDrawCount": 1,
		"Costs": [
			{
				"Key": 1,
				"Value": 50
			},
			{
				"Key": 2,
				"Value": 100
			},
			{
				"Key": 3,
				"Value": 200
			},
			{
				"Key": 4,
				"Value": 300
			},
			{
				"Key": 5,
				"Value": 400
			},
			{
				"Key": 6,
				"Value": 500
			},
			{
				"Key": 7,
				"Value": 600
			},
			{
				"Key": 8,
				"Value": 800
			},
			{
				"Key": 9,
				"Value": 1000
			}
		],
		"RaffleItems": [
			{
				"RaffleID": 1,
				"RaffleLevel": 0,
				"GoodsType": "GoodsType_HeroSkin",
				"ItemID": 5302,
				"ItemCount": 1
			},
			{
				"RaffleID": 2,
				"RaffleLevel": 1,
				"GoodsType": "GoodsType_Item",
				"ItemID": 3009,
				"ItemCount": 1
			},
			{
				"RaffleID": 3,
				"RaffleLevel": 1,
				"GoodsType": "GoodsType_Item",
				"ItemID": 4017,
				"ItemCount": 1
			},
			{
				"RaffleID": 4,
				"RaffleLevel": 2,
				"GoodsType": "GoodsType_SkinTicket",
				"ItemID": 0,
				"ItemCount": 40
			},
			{
				"RaffleID": 5,
				"RaffleLevel": 2,
				"GoodsType": "GoodsType_BrillianceMithralStone",
				"ItemID": 0,
				"ItemCount": 100
			},
			{
				"RaffleID": 6,
				"RaffleLevel": 2,
				"GoodsType": "GoodsType_Item",
				"ItemID": 4001,
				"ItemCount": 3
			},
			{
				"RaffleID": 7,
				"RaffleLevel": 3,
				"GoodsType": "GoodsType_Equipment",
				"ItemID": 303,
				"ItemCount": 10
			},
			{
				"RaffleID": 8,
				"RaffleLevel": 3,
				"GoodsType": "GoodsType_Gold",
				"ItemID": 0,
				"ItemCount": 300000
			},
			{
				"RaffleID": 9,
				"RaffleLevel": 3,
				"GoodsType": "GoodsType_Item",
				"ItemID": 4000,
				"ItemCount": 10
			},
			{
				"RaffleID": 10,
				"RaffleLevel": 3,
				"GoodsType": "GoodsType_Item",
				"ItemID": 4016,
				"ItemCount": 1
			}
		],
		"TarotIDList": [
			{
				"RaffleID": 1,
				"TarotID": 11
			},
			{
				"RaffleID": 2,
				"TarotID": 2
			},
			{
				"RaffleID": 3,
				"TarotID": 3
			},
			{
				"RaffleID": 4,
				"TarotID": 4
			},
			{
				"RaffleID": 5,
				"TarotID": 5
			},
			{
				"RaffleID": 6,
				"TarotID": 6
			},
			{
				"RaffleID": 7,
				"TarotID": 7
			},
			{
				"RaffleID": 8,
				"TarotID": 8
			},
			{
				"RaffleID": 9,
				"TarotID": 9
			},
			{
				"RaffleID": 10,
				"TarotID": 10
			}
		],
		"Description": ""
	},
	{
		"ID": 18,
		"Name": "转动的哲学-第八期",
		"RafflePoolType": "RafflePoolType_Raffle",
		"GoodsType": "GoodsType_Crystal",
		"DrawItemID": 0,
		"FreeDrawCount": 1,
		"Costs": [
			{
				"Key": 1,
				"Value": 50
			},
			{
				"Key": 2,
				"Value": 100
			},
			{
				"Key": 3,
				"Value": 200
			},
			{
				"Key": 4,
				"Value": 300
			},
			{
				"Key": 5,
				"Value": 400
			},
			{
				"Key": 6,
				"Value": 500
			},
			{
				"Key": 7,
				"Value": 600
			},
			{
				"Key": 8,
				"Value": 800
			},
			{
				"Key": 9,
				"Value": 1000
			}
		],
		"RaffleItems": [
			{
				"RaffleID": 1,
				"RaffleLevel": 0,
				"GoodsType": "GoodsType_HeroSkin",
				"ItemID": 8802,
				"ItemCount": 1
			},
			{
				"RaffleID": 2,
				"RaffleLevel": 1,
				"GoodsType": "GoodsType_Item",
				"ItemID": 3009,
				"ItemCount": 1
			},
			{
				"RaffleID": 3,
				"RaffleLevel": 1,
				"GoodsType": "GoodsType_Item",
				"ItemID": 4017,
				"ItemCount": 1
			},
			{
				"RaffleID": 4,
				"RaffleLevel": 2,
				"GoodsType": "GoodsType_SkinTicket",
				"ItemID": 0,
				"ItemCount": 40
			},
			{
				"RaffleID": 5,
				"RaffleLevel": 2,
				"GoodsType": "GoodsType_BrillianceMithralStone",
				"ItemID": 0,
				"ItemCount": 100
			},
			{
				"RaffleID": 6,
				"RaffleLevel": 2,
				"GoodsType": "GoodsType_Item",
				"ItemID": 4001,
				"ItemCount": 3
			},
			{
				"RaffleID": 7,
				"RaffleLevel": 3,
				"GoodsType": "GoodsType_Equipment",
				"ItemID": 303,
				"ItemCount": 10
			},
			{
				"RaffleID": 8,
				"RaffleLevel": 3,
				"GoodsType": "GoodsType_Gold",
				"ItemID": 0,
				"ItemCount": 300000
			},
			{
				"RaffleID": 9,
				"RaffleLevel": 3,
				"GoodsType": "GoodsType_Item",
				"ItemID": 4000,
				"ItemCount": 5
			},
			{
				"RaffleID": 10,
				"RaffleLevel": 3,
				"GoodsType": "GoodsType_Item",
				"ItemID": 4016,
				"ItemCount": 1
			}
		],
		"Description": ""
	},
	{
		"ID": 19,
		"Name": "揭示的哲学-第八期",
		"RafflePoolType": "RafflePoolType_Tarot",
		"GoodsType": "GoodsType_Crystal",
		"DrawItemID": 0,
		"FreeDrawCount": 1,
		"Costs": [
			{
				"Key": 1,
				"Value": 50
			},
			{
				"Key": 2,
				"Value": 100
			},
			{
				"Key": 3,
				"Value": 200
			},
			{
				"Key": 4,
				"Value": 300
			},
			{
				"Key": 5,
				"Value": 400
			},
			{
				"Key": 6,
				"Value": 500
			},
			{
				"Key": 7,
				"Value": 600
			},
			{
				"Key": 8,
				"Value": 800
			},
			{
				"Key": 9,
				"Value": 1000
			}
		],
		"RaffleItems": [
			{
				"RaffleID": 1,
				"RaffleLevel": 0,
				"GoodsType": "GoodsType_HeroSkin",
				"ItemID": 6102,
				"ItemCount": 1
			},
			{
				"RaffleID": 2,
				"RaffleLevel": 1,
				"GoodsType": "GoodsType_Item",
				"ItemID": 3009,
				"ItemCount": 1
			},
			{
				"RaffleID": 3,
				"RaffleLevel": 1,
				"GoodsType": "GoodsType_Item",
				"ItemID": 4017,
				"ItemCount": 1
			},
			{
				"RaffleID": 4,
				"RaffleLevel": 2,
				"GoodsType": "GoodsType_SkinTicket",
				"ItemID": 0,
				"ItemCount": 40
			},
			{
				"RaffleID": 5,
				"RaffleLevel": 2,
				"GoodsType": "GoodsType_BrillianceMithralStone",
				"ItemID": 0,
				"ItemCount": 100
			},
			{
				"RaffleID": 6,
				"RaffleLevel": 2,
				"GoodsType": "GoodsType_Item",
				"ItemID": 4001,
				"ItemCount": 3
			},
			{
				"RaffleID": 7,
				"RaffleLevel": 3,
				"GoodsType": "GoodsType_Equipment",
				"ItemID": 303,
				"ItemCount": 10
			},
			{
				"RaffleID": 8,
				"RaffleLevel": 3,
				"GoodsType": "GoodsType_Gold",
				"ItemID": 0,
				"ItemCount": 300000
			},
			{
				"RaffleID": 9,
				"RaffleLevel": 3,
				"GoodsType": "GoodsType_Item",
				"ItemID": 4000,
				"ItemCount": 10
			},
			{
				"RaffleID": 10,
				"RaffleLevel": 3,
				"GoodsType": "GoodsType_Item",
				"ItemID": 4016,
				"ItemCount": 1
			}
		],
		"TarotIDList": [
			{
				"RaffleID": 1,
				"TarotID": 1
			},
			{
				"RaffleID": 2,
				"TarotID": 2
			},
			{
				"RaffleID": 3,
				"TarotID": 3
			},
			{
				"RaffleID": 4,
				"TarotID": 4
			},
			{
				"RaffleID": 5,
				"TarotID": 5
			},
			{
				"RaffleID": 6,
				"TarotID": 6
			},
			{
				"RaffleID": 7,
				"TarotID": 7
			},
			{
				"RaffleID": 8,
				"TarotID": 8
			},
			{
				"RaffleID": 9,
				"TarotID": 9
			},
			{
				"RaffleID": 10,
				"TarotID": 10
			}
		],
		"Description": ""
	},
	{
		"ID": 20,
		"Name": "转动的哲学-第九期",
		"RafflePoolType": "RafflePoolType_Raffle",
		"GoodsType": "GoodsType_Crystal",
		"DrawItemID": 0,
		"FreeDrawCount": 1,
		"Costs": [
			{
				"Key": 1,
				"Value": 50
			},
			{
				"Key": 2,
				"Value": 100
			},
			{
				"Key": 3,
				"Value": 200
			},
			{
				"Key": 4,
				"Value": 300
			},
			{
				"Key": 5,
				"Value": 400
			},
			{
				"Key": 6,
				"Value": 500
			},
			{
				"Key": 7,
				"Value": 600
			},
			{
				"Key": 8,
				"Value": 800
			},
			{
				"Key": 9,
				"Value": 1000
			}
		],
		"RaffleItems": [
			{
				"RaffleID": 1,
				"RaffleLevel": 0,
				"GoodsType": "GoodsType_HeroSkin",
				"ItemID": 6002,
				"ItemCount": 1
			},
			{
				"RaffleID": 2,
				"RaffleLevel": 1,
				"GoodsType": "GoodsType_Item",
				"ItemID": 3009,
				"ItemCount": 1
			},
			{
				"RaffleID": 3,
				"RaffleLevel": 1,
				"GoodsType": "GoodsType_Item",
				"ItemID": 4017,
				"ItemCount": 1
			},
			{
				"RaffleID": 4,
				"RaffleLevel": 2,
				"GoodsType": "GoodsType_SkinTicket",
				"ItemID": 0,
				"ItemCount": 40
			},
			{
				"RaffleID": 5,
				"RaffleLevel": 2,
				"GoodsType": "GoodsType_BrillianceMithralStone",
				"ItemID": 0,
				"ItemCount": 100
			},
			{
				"RaffleID": 6,
				"RaffleLevel": 2,
				"GoodsType": "GoodsType_Item",
				"ItemID": 4001,
				"ItemCount": 3
			},
			{
				"RaffleID": 7,
				"RaffleLevel": 3,
				"GoodsType": "GoodsType_Equipment",
				"ItemID": 303,
				"ItemCount": 10
			},
			{
				"RaffleID": 8,
				"RaffleLevel": 3,
				"GoodsType": "GoodsType_Gold",
				"ItemID": 0,
				"ItemCount": 300000
			},
			{
				"RaffleID": 9,
				"RaffleLevel": 3,
				"GoodsType": "GoodsType_Item",
				"ItemID": 4000,
				"ItemCount": 5
			},
			{
				"RaffleID": 10,
				"RaffleLevel": 3,
				"GoodsType": "GoodsType_Item",
				"ItemID": 4016,
				"ItemCount": 1
			}
		],
		"Description": ""
	},
	{
		"ID": 21,
		"Name": "揭示的哲学-第九期",
		"RafflePoolType": "RafflePoolType_Tarot",
		"GoodsType": "GoodsType_Crystal",
		"DrawItemID": 0,
		"FreeDrawCount": 1,
		"Costs": [
			{
				"Key": 1,
				"Value": 50
			},
			{
				"Key": 2,
				"Value": 100
			},
			{
				"Key": 3,
				"Value": 200
			},
			{
				"Key": 4,
				"Value": 300
			},
			{
				"Key": 5,
				"Value": 400
			},
			{
				"Key": 6,
				"Value": 500
			},
			{
				"Key": 7,
				"Value": 600
			},
			{
				"Key": 8,
				"Value": 800
			},
			{
				"Key": 9,
				"Value": 1000
			}
		],
		"RaffleItems": [
			{
				"RaffleID": 1,
				"RaffleLevel": 0,
				"GoodsType": "GoodsType_HeroSkin",
				"ItemID": 6602,
				"ItemCount": 1
			},
			{
				"RaffleID": 2,
				"RaffleLevel": 1,
				"GoodsType": "GoodsType_Item",
				"ItemID": 3009,
				"ItemCount": 1
			},
			{
				"RaffleID": 3,
				"RaffleLevel": 1,
				"GoodsType": "GoodsType_Item",
				"ItemID": 4017,
				"ItemCount": 1
			},
			{
				"RaffleID": 4,
				"RaffleLevel": 2,
				"GoodsType": "GoodsType_SkinTicket",
				"ItemID": 0,
				"ItemCount": 40
			},
			{
				"RaffleID": 5,
				"RaffleLevel": 2,
				"GoodsType": "GoodsType_BrillianceMithralStone",
				"ItemID": 0,
				"ItemCount": 100
			},
			{
				"RaffleID": 6,
				"RaffleLevel": 2,
				"GoodsType": "GoodsType_Item",
				"ItemID": 4001,
				"ItemCount": 3
			},
			{
				"RaffleID": 7,
				"RaffleLevel": 3,
				"GoodsType": "GoodsType_Equipment",
				"ItemID": 303,
				"ItemCount": 10
			},
			{
				"RaffleID": 8,
				"RaffleLevel": 3,
				"GoodsType": "GoodsType_Gold",
				"ItemID": 0,
				"ItemCount": 300000
			},
			{
				"RaffleID": 9,
				"RaffleLevel": 3,
				"GoodsType": "GoodsType_Item",
				"ItemID": 4000,
				"ItemCount": 10
			},
			{
				"RaffleID": 10,
				"RaffleLevel": 3,
				"GoodsType": "GoodsType_Item",
				"ItemID": 4016,
				"ItemCount": 1
			}
		],
		"TarotIDList": [
			{
				"RaffleID": 1,
				"TarotID": 1
			},
			{
				"RaffleID": 2,
				"TarotID": 2
			},
			{
				"RaffleID": 3,
				"TarotID": 3
			},
			{
				"RaffleID": 4,
				"TarotID": 4
			},
			{
				"RaffleID": 5,
				"TarotID": 5
			},
			{
				"RaffleID": 6,
				"TarotID": 6
			},
			{
				"RaffleID": 7,
				"TarotID": 7
			},
			{
				"RaffleID": 8,
				"TarotID": 8
			},
			{
				"RaffleID": 9,
				"TarotID": 9
			},
			{
				"RaffleID": 10,
				"TarotID": 10
			}
		],
		"Description": ""
	},
	{
		"ID": 22,
		"Name": "转动的哲学-第十期",
		"RafflePoolType": "RafflePoolType_Raffle",
		"GoodsType": "GoodsType_Crystal",
		"DrawItemID": 0,
		"FreeDrawCount": 1,
		"Costs": [
			{
				"Key": 1,
				"Value": 50
			},
			{
				"Key": 2,
				"Value": 100
			},
			{
				"Key": 3,
				"Value": 200
			},
			{
				"Key": 4,
				"Value": 300
			},
			{
				"Key": 5,
				"Value": 400
			},
			{
				"Key": 6,
				"Value": 500
			},
			{
				"Key": 7,
				"Value": 600
			},
			{
				"Key": 8,
				"Value": 800
			},
			{
				"Key": 9,
				"Value": 1000
			}
		],
		"RaffleItems": [
			{
				"RaffleID": 1,
				"RaffleLevel": 0,
				"GoodsType": "GoodsType_Item",
				"ItemID": 4549,
				"ItemCount": 1
			},
			{
				"RaffleID": 2,
				"RaffleLevel": 1,
				"GoodsType": "GoodsType_Item",
				"ItemID": 3009,
				"ItemCount": 1
			},
			{
				"RaffleID": 3,
				"RaffleLevel": 1,
				"GoodsType": "GoodsType_Item",
				"ItemID": 4017,
				"ItemCount": 1
			},
			{
				"RaffleID": 4,
				"RaffleLevel": 2,
				"GoodsType": "GoodsType_SkinTicket",
				"ItemID": 0,
				"ItemCount": 40
			},
			{
				"RaffleID": 5,
				"RaffleLevel": 2,
				"GoodsType": "GoodsType_BrillianceMithralStone",
				"ItemID": 0,
				"ItemCount": 100
			},
			{
				"RaffleID": 6,
				"RaffleLevel": 2,
				"GoodsType": "GoodsType_Item",
				"ItemID": 4001,
				"ItemCount": 3
			},
			{
				"RaffleID": 7,
				"RaffleLevel": 3,
				"GoodsType": "GoodsType_Equipment",
				"ItemID": 303,
				"ItemCount": 10
			},
			{
				"RaffleID": 8,
				"RaffleLevel": 3,
				"GoodsType": "GoodsType_Gold",
				"ItemID": 0,
				"ItemCount": 300000
			},
			{
				"RaffleID": 9,
				"RaffleLevel": 3,
				"GoodsType": "GoodsType_Item",
				"ItemID": 4000,
				"ItemCount": 5
			},
			{
				"RaffleID": 10,
				"RaffleLevel": 3,
				"GoodsType": "GoodsType_Item",
				"ItemID": 4016,
				"ItemCount": 1
			}
		],
		"Description": ""
	},
	{
		"ID": 23,
		"Name": "揭示的哲学-第十期",
		"RafflePoolType": "RafflePoolType_Tarot",
		"GoodsType": "GoodsType_Crystal",
		"DrawItemID": 0,
		"FreeDrawCount": 1,
		"Costs": [
			{
				"Key": 1,
				"Value": 50
			},
			{
				"Key": 2,
				"Value": 100
			},
			{
				"Key": 3,
				"Value": 200
			},
			{
				"Key": 4,
				"Value": 300
			},
			{
				"Key": 5,
				"Value": 400
			},
			{
				"Key": 6,
				"Value": 500
			},
			{
				"Key": 7,
				"Value": 600
			},
			{
				"Key": 8,
				"Value": 800
			},
			{
				"Key": 9,
				"Value": 1000
			}
		],
		"RaffleItems": [
			{
				"RaffleID": 1,
				"RaffleLevel": 0,
				"GoodsType": "GoodsType_HeroSkin",
				"ItemID": 8702,
				"ItemCount": 1
			},
			{
				"RaffleID": 2,
				"RaffleLevel": 1,
				"GoodsType": "GoodsType_Item",
				"ItemID": 3009,
				"ItemCount": 1
			},
			{
				"RaffleID": 3,
				"RaffleLevel": 1,
				"GoodsType": "GoodsType_Item",
				"ItemID": 4017,
				"ItemCount": 1
			},
			{
				"RaffleID": 4,
				"RaffleLevel": 2,
				"GoodsType": "GoodsType_SkinTicket",
				"ItemID": 0,
				"ItemCount": 40
			},
			{
				"RaffleID": 5,
				"RaffleLevel": 2,
				"GoodsType": "GoodsType_BrillianceMithralStone",
				"ItemID": 0,
				"ItemCount": 100
			},
			{
				"RaffleID": 6,
				"RaffleLevel": 2,
				"GoodsType": "GoodsType_Item",
				"ItemID": 4001,
				"ItemCount": 3
			},
			{
				"RaffleID": 7,
				"RaffleLevel": 3,
				"GoodsType": "GoodsType_Equipment",
				"ItemID": 303,
				"ItemCount": 10
			},
			{
				"RaffleID": 8,
				"RaffleLevel": 3,
				"GoodsType": "GoodsType_Gold",
				"ItemID": 0,
				"ItemCount": 300000
			},
			{
				"RaffleID": 9,
				"RaffleLevel": 3,
				"GoodsType": "GoodsType_Item",
				"ItemID": 4000,
				"ItemCount": 10
			},
			{
				"RaffleID": 10,
				"RaffleLevel": 3,
				"GoodsType": "GoodsType_Item",
				"ItemID": 4016,
				"ItemCount": 1
			}
		],
		"TarotIDList": [
			{
				"RaffleID": 1,
				"TarotID": 1
			},
			{
				"RaffleID": 2,
				"TarotID": 2
			},
			{
				"RaffleID": 3,
				"TarotID": 3
			},
			{
				"RaffleID": 4,
				"TarotID": 4
			},
			{
				"RaffleID": 5,
				"TarotID": 5
			},
			{
				"RaffleID": 6,
				"TarotID": 6
			},
			{
				"RaffleID": 7,
				"TarotID": 7
			},
			{
				"RaffleID": 8,
				"TarotID": 8
			},
			{
				"RaffleID": 9,
				"TarotID": 9
			},
			{
				"RaffleID": 10,
				"TarotID": 10
			}
		],
		"Description": ""
	},
	{
		"ID": 24,
		"Name": "转动的哲学-第十一期",
		"RafflePoolType": "RafflePoolType_Raffle",
		"GoodsType": "GoodsType_Crystal",
		"DrawItemID": 0,
		"FreeDrawCount": 1,
		"Costs": [
			{
				"Key": 1,
				"Value": 50
			},
			{
				"Key": 2,
				"Value": 100
			},
			{
				"Key": 3,
				"Value": 200
			},
			{
				"Key": 4,
				"Value": 300
			},
			{
				"Key": 5,
				"Value": 400
			},
			{
				"Key": 6,
				"Value": 500
			},
			{
				"Key": 7,
				"Value": 600
			},
			{
				"Key": 8,
				"Value": 800
			},
			{
				"Key": 9,
				"Value": 1000
			}
		],
		"RaffleItems": [
			{
				"RaffleID": 1,
				"RaffleLevel": 0,
				"GoodsType": "GoodsType_HeroSkin",
				"ItemID": 5702,
				"ItemCount": 1
			},
			{
				"RaffleID": 2,
				"RaffleLevel": 1,
				"GoodsType": "GoodsType_Item",
				"ItemID": 3009,
				"ItemCount": 1
			},
			{
				"RaffleID": 3,
				"RaffleLevel": 1,
				"GoodsType": "GoodsType_Item",
				"ItemID": 4017,
				"ItemCount": 1
			},
			{
				"RaffleID": 4,
				"RaffleLevel": 2,
				"GoodsType": "GoodsType_SkinTicket",
				"ItemID": 0,
				"ItemCount": 40
			},
			{
				"RaffleID": 5,
				"RaffleLevel": 2,
				"GoodsType": "GoodsType_BrillianceMithralStone",
				"ItemID": 0,
				"ItemCount": 100
			},
			{
				"RaffleID": 6,
				"RaffleLevel": 2,
				"GoodsType": "GoodsType_Item",
				"ItemID": 4001,
				"ItemCount": 3
			},
			{
				"RaffleID": 7,
				"RaffleLevel": 3,
				"GoodsType": "GoodsType_Equipment",
				"ItemID": 303,
				"ItemCount": 10
			},
			{
				"RaffleID": 8,
				"RaffleLevel": 3,
				"GoodsType": "GoodsType_Gold",
				"ItemID": 0,
				"ItemCount": 300000
			},
			{
				"RaffleID": 9,
				"RaffleLevel": 3,
				"GoodsType": "GoodsType_Item",
				"ItemID": 4000,
				"ItemCount": 5
			},
			{
				"RaffleID": 10,
				"RaffleLevel": 3,
				"GoodsType": "GoodsType_Item",
				"ItemID": 4016,
				"ItemCount": 1
			}
		],
		"Description": ""
	}
]