[
	{
		"ID": 1,
		"Reward": [
			{
				"GoodsType": "GoodsType_JobMaterial",
				"Id": 1,
				"Count": 1
			},
			{
				"GoodsType": "GoodsType_JobMaterial",
				"Id": 2,
				"Count": 2
			},
			{
				"GoodsType": "GoodsType_JobMaterial",
				"Id": 3,
				"Count": 3
			}
		]
	},
	{
		"ID": 2,
		"Reward": [
			{
				"GoodsType": "GoodsType_Equipment",
				"Id": 304,
				"Count": 10
			}
		]
	},
	{
		"ID": 3,
		"Reward": [
			{
				"GoodsType": "GoodsType_JobMaterial",
				"Id": 1,
				"Count": 1
			},
			{
				"GoodsType": "GoodsType_JobMaterial",
				"Id": 2,
				"Count": 2
			},
			{
				"GoodsType": "GoodsType_JobMaterial",
				"Id": 3,
				"Count": 3
			}
		]
	},
	{
		"ID": 4,
		"Reward": [
			{
				"GoodsType": "GoodsType_JobMaterial",
				"Id": 1,
				"Count": 1
			},
			{
				"GoodsType": "GoodsType_JobMaterial",
				"Id": 2,
				"Count": 2
			},
			{
				"GoodsType": "GoodsType_JobMaterial",
				"Id": 3,
				"Count": 3
			}
		]
	},
	{
		"ID": 5,
		"Reward": [
			{
				"GoodsType": "GoodsType_Item",
				"Id": 3004,
				"Count": 3
			}
		]
	},
	{
		"ID": 6,
		"Reward": [
			{
				"GoodsType": "GoodsType_Item",
				"Id": 3004,
				"Count": 3
			}
		]
	},
	{
		"ID": 7,
		"Reward": [
			{
				"GoodsType": "GoodsType_JobMaterial",
				"Id": 15,
				"Count": 1
			},
			{
				"GoodsType": "GoodsType_JobMaterial",
				"Id": 16,
				"Count": 1
			}
		]
	},
	{
		"ID": 8,
		"Reward": [
			{
				"GoodsType": "GoodsType_Gold",
				"Id": 0,
				"Count": 1000
			}
		]
	},
	{
		"ID": 9,
		"Reward": [
			{
				"GoodsType": "GoodsType_Item",
				"Id": 4008,
				"Count": 20
			}
		]
	},
	{
		"ID": 10,
		"Reward": [
			{
				"GoodsType": "GoodsType_Item",
				"Id": 1011,
				"Count": 30
			},
			{
				"GoodsType": "GoodsType_Item",
				"Id": 4001,
				"Count": 5
			},
			{
				"GoodsType": "GoodsType_HeadFrame",
				"Id": 2,
				"Count": 1
			},
			{
				"GoodsType": "GoodsType_Gold",
				"Id": 0,
				"Count": 50000
			}
		]
	},
	{
		"ID": 11,
		"Reward": [
			{
				"GoodsType": "GoodsType_Crystal",
				"Id": 0,
				"Count": 300
			},
			{
				"GoodsType": "GoodsType_Item",
				"Id": 3009,
				"Count": 3
			},
			{
				"GoodsType": "GoodsType_Gold",
				"Id": 0,
				"Count": 100000
			}
		]
	},
	{
		"ID": 12,
		"Reward": [
			{
				"GoodsType": "GoodsType_SkinTicket",
				"Id": 0,
				"Count": 128
			},
			{
				"GoodsType": "GoodsType_Crystal",
				"Id": 0,
				"Count": 100
			},
			{
				"GoodsType": "GoodsType_Item",
				"Id": 4001,
				"Count": 1
			}
		]
	},
	{
		"ID": 13,
		"Reward": [
			{
				"GoodsType": "GoodsType_Crystal",
				"Id": 0,
				"Count": 150
			},
			{
				"GoodsType": "GoodsType_Gold",
				"Id": 0,
				"Count": 50000
			},
			{
				"GoodsType": "GoodsType_Item",
				"Id": 3005,
				"Count": 2
			}
		]
	},
	{
		"ID": 14,
		"Reward": [
			{
				"GoodsType": "GoodsType_Item",
				"Id": 4001,
				"Count": 2
			},
			{
				"GoodsType": "GoodsType_Item",
				"Id": 3503,
				"Count": 1
			},
			{
				"GoodsType": "GoodsType_Equipment",
				"Id": 303,
				"Count": 2
			},
			{
				"GoodsType": "GoodsType_Gold",
				"Id": 0,
				"Count": 80000
			},
			{
				"GoodsType": "GoodsType_Item",
				"Id": 7072,
				"Count": 1
			}
		]
	},
	{
		"ID": 15,
		"Reward": [
			{
				"GoodsType": "GoodsType_SkinTicket",
				"Id": 0,
				"Count": 128
			},
			{
				"GoodsType": "GoodsType_Crystal",
				"Id": 0,
				"Count": 50
			},
			{
				"GoodsType": "GoodsType_Gold",
				"Id": 0,
				"Count": 50000
			}
		]
	},
	{
		"ID": 16,
		"Reward": [
			{
				"GoodsType": "GoodsType_Item",
				"Id": 3009,
				"Count": 1
			},
			{
				"GoodsType": "GoodsType_Item",
				"Id": 3201,
				"Count": 20
			},
			{
				"GoodsType": "GoodsType_Item",
				"Id": 3202,
				"Count": 8
			},
			{
				"GoodsType": "GoodsType_Item",
				"Id": 3203,
				"Count": 2
			},
			{
				"GoodsType": "GoodsType_Item",
				"Id": 7001,
				"Count": 1
			},
			{
				"GoodsType": "GoodsType_Item",
				"Id": 7002,
				"Count": 1
			},
			{
				"GoodsType": "GoodsType_Gold",
				"Id": 0,
				"Count": 100000
			}
		]
	},
	{
		"ID": 17,
		"Reward": [
			{
				"GoodsType": "GoodsType_Item",
				"Id": 6002,
				"Count": 20
			},
			{
				"GoodsType": "GoodsType_Item",
				"Id": 6005,
				"Count": 20
			},
			{
				"GoodsType": "GoodsType_Item",
				"Id": 6008,
				"Count": 20
			},
			{
				"GoodsType": "GoodsType_Item",
				"Id": 6011,
				"Count": 20
			},
			{
				"GoodsType": "GoodsType_Item",
				"Id": 6014,
				"Count": 20
			},
			{
				"GoodsType": "GoodsType_Item",
				"Id": 6017,
				"Count": 20
			}
		]
	},
	{
		"ID": 18,
		"Reward": [
			{
				"GoodsType": "GoodsType_Item",
				"Id": 6003,
				"Count": 8
			},
			{
				"GoodsType": "GoodsType_Item",
				"Id": 6006,
				"Count": 8
			},
			{
				"GoodsType": "GoodsType_Item",
				"Id": 6009,
				"Count": 8
			},
			{
				"GoodsType": "GoodsType_Item",
				"Id": 6012,
				"Count": 8
			},
			{
				"GoodsType": "GoodsType_Item",
				"Id": 6015,
				"Count": 8
			},
			{
				"GoodsType": "GoodsType_Item",
				"Id": 6018,
				"Count": 8
			}
		]
	},
	{
		"ID": 19,
		"Reward": [
			{
				"GoodsType": "GoodsType_Item",
				"Id": 4001,
				"Count": 5
			},
			{
				"GoodsType": "GoodsType_Item",
				"Id": 7056,
				"Count": 3
			},
			{
				"GoodsType": "GoodsType_Item",
				"Id": 7005,
				"Count": 3
			},
			{
				"GoodsType": "GoodsType_Gold",
				"Id": 0,
				"Count": 500000
			}
		]
	},
	{
		"ID": 20,
		"Reward": [
			{
				"GoodsType": "GoodsType_EnchantStone",
				"Id": 3,
				"Count": 2
			},
			{
				"GoodsType": "GoodsType_EnchantStone",
				"Id": 6,
				"Count": 2
			},
			{
				"GoodsType": "GoodsType_EnchantStone",
				"Id": 9,
				"Count": 2
			},
			{
				"GoodsType": "GoodsType_EnchantStone",
				"Id": 11,
				"Count": 2
			}
		]
	},
	{
		"ID": 21,
		"Reward": [
			{
				"GoodsType": "GoodsType_EnchantStone",
				"Id": 18,
				"Count": 2
			},
			{
				"GoodsType": "GoodsType_EnchantStone",
				"Id": 26,
				"Count": 2
			}
		]
	},
	{
		"ID": 22,
		"Reward": [
			{
				"GoodsType": "GoodsType_EnchantStone",
				"Id": 30,
				"Count": 2
			},
			{
				"GoodsType": "GoodsType_EnchantStone",
				"Id": 33,
				"Count": 2
			},
			{
				"GoodsType": "GoodsType_EnchantStone",
				"Id": 34,
				"Count": 2
			},
			{
				"GoodsType": "GoodsType_EnchantStone",
				"Id": 38,
				"Count": 2
			},
			{
				"GoodsType": "GoodsType_EnchantStone",
				"Id": 36,
				"Count": 2
			}
		]
	},
	{
		"ID": 23,
		"Reward": [
			{
				"GoodsType": "GoodsType_Crystal",
				"Id": 0,
				"Count": 880
			},
			{
				"GoodsType": "GoodsType_Gold",
				"Id": 0,
				"Count": 150000
			},
			{
				"GoodsType": "GoodsType_BrillianceMithralStone",
				"Id": 0,
				"Count": 200
			}
		]
	},
	{
		"ID": 24,
		"Reward": [
			{
				"GoodsType": "GoodsType_Crystal",
				"Id": 0,
				"Count": 2400
			},
			{
				"GoodsType": "GoodsType_Item",
				"Id": 3009,
				"Count": 1
			},
			{
				"GoodsType": "GoodsType_Gold",
				"Id": 0,
				"Count": 600000
			},
			{
				"GoodsType": "GoodsType_Item",
				"Id": 3203,
				"Count": 12
			}
		]
	},
	{
		"ID": 25,
		"Reward": [
			{
				"GoodsType": "GoodsType_Crystal",
				"Id": 0,
				"Count": 2400
			},
			{
				"GoodsType": "GoodsType_Item",
				"Id": 3009,
				"Count": 1
			},
			{
				"GoodsType": "GoodsType_Gold",
				"Id": 0,
				"Count": 600000
			},
			{
				"GoodsType": "GoodsType_Item",
				"Id": 3203,
				"Count": 12
			}
		]
	},
	{
		"ID": 26,
		"Reward": [
			{
				"GoodsType": "GoodsType_Item",
				"Id": 4001,
				"Count": 1
			},
			{
				"GoodsType": "GoodsType_Item",
				"Id": 3203,
				"Count": 2
			},
			{
				"GoodsType": "GoodsType_Gold",
				"Id": 0,
				"Count": 100000
			}
		]
	},
	{
		"ID": 27,
		"Reward": [
			{
				"GoodsType": "GoodsType_Crystal",
				"Id": 0,
				"Count": 680
			},
			{
				"GoodsType": "GoodsType_Item",
				"Id": 4502,
				"Count": 10
			},
			{
				"GoodsType": "GoodsType_Gold",
				"Id": 0,
				"Count": 600000
			},
			{
				"GoodsType": "GoodsType_BrillianceMithralStone",
				"Id": 0,
				"Count": 300
			}
		]
	},
	{
		"ID": 28,
		"Reward": [
			{
				"GoodsType": "GoodsType_Crystal",
				"Id": 0,
				"Count": 300
			},
			{
				"GoodsType": "GoodsType_Item",
				"Id": 3203,
				"Count": 5
			},
			{
				"GoodsType": "GoodsType_Item",
				"Id": 4515,
				"Count": 1
			},
			{
				"GoodsType": "GoodsType_Item",
				"Id": 4516,
				"Count": 1
			},
			{
				"GoodsType": "GoodsType_Item",
				"Id": 4517,
				"Count": 1
			},
			{
				"GoodsType": "GoodsType_Item",
				"Id": 4525,
				"Count": 1
			},
			{
				"GoodsType": "GoodsType_Gold",
				"Id": 0,
				"Count": 300000
			}
		]
	},
	{
		"ID": 29,
		"Reward": [
			{
				"GoodsType": "GoodsType_Crystal",
				"Id": 0,
				"Count": 1500
			},
			{
				"GoodsType": "GoodsType_Item",
				"Id": 3009,
				"Count": 1
			},
			{
				"GoodsType": "GoodsType_Item",
				"Id": 4508,
				"Count": 2
			},
			{
				"GoodsType": "GoodsType_Item",
				"Id": 4507,
				"Count": 4
			}
		]
	},
	{
		"ID": 30,
		"Reward": [
			{
				"GoodsType": "GoodsType_BrillianceMithralStone",
				"Id": 0,
				"Count": 300
			},
			{
				"GoodsType": "GoodsType_Item",
				"Id": 3503,
				"Count": 5
			},
			{
				"GoodsType": "GoodsType_Gold",
				"Id": 0,
				"Count": 200000
			}
		]
	},
	{
		"ID": 31,
		"Reward": [
			{
				"GoodsType": "GoodsType_Item",
				"Id": 7056,
				"Count": 2
			},
			{
				"GoodsType": "GoodsType_Item",
				"Id": 7005,
				"Count": 2
			},
			{
				"GoodsType": "GoodsType_Item",
				"Id": 7018,
				"Count": 5
			},
			{
				"GoodsType": "GoodsType_Item",
				"Id": 7030,
				"Count": 5
			},
			{
				"GoodsType": "GoodsType_Item",
				"Id": 7017,
				"Count": 5
			},
			{
				"GoodsType": "GoodsType_Item",
				"Id": 7029,
				"Count": 5
			},
			{
				"GoodsType": "GoodsType_Gold",
				"Id": 0,
				"Count": 300000
			}
		]
	},
	{
		"ID": 32,
		"Reward": [
			{
				"GoodsType": "GoodsType_ChallengePoint",
				"Id": 0,
				"Count": 150
			},
			{
				"GoodsType": "GoodsType_Item",
				"Id": 4502,
				"Count": 5
			},
			{
				"GoodsType": "GoodsType_Equipment",
				"Id": 303,
				"Count": 10
			},
			{
				"GoodsType": "GoodsType_Item",
				"Id": 4512,
				"Count": 1
			},
			{
				"GoodsType": "GoodsType_Item",
				"Id": 4511,
				"Count": 2
			},
			{
				"GoodsType": "GoodsType_Item",
				"Id": 4510,
				"Count": 3
			},
			{
				"GoodsType": "GoodsType_Gold",
				"Id": 0,
				"Count": 500000
			}
		]
	},
	{
		"ID": 33,
		"Reward": [
			{
				"GoodsType": "GoodsType_Item",
				"Id": 7033,
				"Count": 1
			},
			{
				"GoodsType": "GoodsType_Item",
				"Id": 7034,
				"Count": 1
			},
			{
				"GoodsType": "GoodsType_Item",
				"Id": 7035,
				"Count": 1
			},
			{
				"GoodsType": "GoodsType_Item",
				"Id": 7036,
				"Count": 1
			}
		]
	},
	{
		"ID": 34,
		"Reward": [
			{
				"GoodsType": "GoodsType_Item",
				"Id": 7038,
				"Count": 1
			},
			{
				"GoodsType": "GoodsType_Item",
				"Id": 7039,
				"Count": 1
			},
			{
				"GoodsType": "GoodsType_Item",
				"Id": 7040,
				"Count": 1
			},
			{
				"GoodsType": "GoodsType_Item",
				"Id": 7041,
				"Count": 1
			}
		]
	},
	{
		"ID": 35,
		"Reward": [
			{
				"GoodsType": "GoodsType_Item",
				"Id": 3246,
				"Count": 2
			},
			{
				"GoodsType": "GoodsType_Item",
				"Id": 4529,
				"Count": 2
			},
			{
				"GoodsType": "GoodsType_Item",
				"Id": 4528,
				"Count": 3
			},
			{
				"GoodsType": "GoodsType_Item",
				"Id": 4515,
				"Count": 2
			},
			{
				"GoodsType": "GoodsType_Item",
				"Id": 4516,
				"Count": 2
			},
			{
				"GoodsType": "GoodsType_Item",
				"Id": 4517,
				"Count": 2
			},
			{
				"GoodsType": "GoodsType_Gold",
				"Id": 0,
				"Count": 300000
			}
		]
	},
	{
		"ID": 36,
		"Reward": [
			{
				"GoodsType": "GoodsType_Crystal",
				"Id": 0,
				"Count": 692
			},
			{
				"GoodsType": "GoodsType_SkinTicket",
				"Id": 0,
				"Count": 188
			},
			{
				"GoodsType": "GoodsType_Item",
				"Id": 4001,
				"Count": 5
			},
			{
				"GoodsType": "GoodsType_Gold",
				"Id": 0,
				"Count": 200000
			}
		]
	},
	{
		"ID": 37,
		"Reward": [
			{
				"GoodsType": "GoodsType_Item",
				"Id": 3203,
				"Count": 10
			},
			{
				"GoodsType": "GoodsType_BrillianceMithralStone",
				"Id": 0,
				"Count": 100
			},
			{
				"GoodsType": "GoodsType_Gold",
				"Id": 0,
				"Count": 200000
			}
		]
	},
	{
		"ID": 38,
		"Reward": [
			{
				"GoodsType": "GoodsType_Item",
				"Id": 3203,
				"Count": 10
			},
			{
				"GoodsType": "GoodsType_BrillianceMithralStone",
				"Id": 0,
				"Count": 100
			},
			{
				"GoodsType": "GoodsType_Gold",
				"Id": 0,
				"Count": 200000
			}
		]
	},
	{
		"ID": 39,
		"Reward": [
			{
				"GoodsType": "GoodsType_Item",
				"Id": 4001,
				"Count": 1
			},
			{
				"GoodsType": "GoodsType_Item",
				"Id": 4502,
				"Count": 10
			},
			{
				"GoodsType": "GoodsType_Gold",
				"Id": 0,
				"Count": 600000
			}
		]
	},
	{
		"ID": 40,
		"Reward": [
			{
				"GoodsType": "GoodsType_Crystal",
				"Id": 0,
				"Count": 3600
			},
			{
				"GoodsType": "GoodsType_Item",
				"Id": 3009,
				"Count": 1
			},
			{
				"GoodsType": "GoodsType_Item",
				"Id": 4502,
				"Count": 5
			},
			{
				"GoodsType": "GoodsType_Gold",
				"Id": 0,
				"Count": 600000
			},
			{
				"GoodsType": "GoodsType_BrillianceMithralStone",
				"Id": 0,
				"Count": 200
			}
		]
	},
	{
		"ID": 41,
		"Reward": [
			{
				"GoodsType": "GoodsType_Crystal",
				"Id": 0,
				"Count": 692
			},
			{
				"GoodsType": "GoodsType_SkinTicket",
				"Id": 0,
				"Count": 196
			},
			{
				"GoodsType": "GoodsType_Item",
				"Id": 4001,
				"Count": 4
			},
			{
				"GoodsType": "GoodsType_Gold",
				"Id": 0,
				"Count": 300000
			}
		]
	},
	{
		"ID": 42,
		"Reward": [
			{
				"GoodsType": "GoodsType_Crystal",
				"Id": 0,
				"Count": 100
			},
			{
				"GoodsType": "GoodsType_Item",
				"Id": 3503,
				"Count": 2
			},
			{
				"GoodsType": "GoodsType_Gold",
				"Id": 0,
				"Count": 10000
			}
		]
	},
	{
		"ID": 43,
		"Reward": [
			{
				"GoodsType": "GoodsType_Item",
				"Id": 4508,
				"Count": 1
			},
			{
				"GoodsType": "GoodsType_Item",
				"Id": 4507,
				"Count": 2
			},
			{
				"GoodsType": "GoodsType_Item",
				"Id": 4506,
				"Count": 2
			},
			{
				"GoodsType": "GoodsType_Item",
				"Id": 4505,
				"Count": 2
			},
			{
				"GoodsType": "GoodsType_Item",
				"Id": 4504,
				"Count": 2
			},
			{
				"GoodsType": "GoodsType_Gold",
				"Id": 0,
				"Count": 50000
			}
		]
	},
	{
		"ID": 44,
		"Reward": [
			{
				"GoodsType": "GoodsType_Equipment",
				"Id": 308,
				"Count": 1
			},
			{
				"GoodsType": "GoodsType_Gold",
				"Id": 0,
				"Count": 100000
			}
		]
	},
	{
		"ID": 45,
		"Reward": [
			{
				"GoodsType": "GoodsType_Item",
				"Id": 3009,
				"Count": 1
			},
			{
				"GoodsType": "GoodsType_Item",
				"Id": 3203,
				"Count": 15
			},
			{
				"GoodsType": "GoodsType_Gold",
				"Id": 0,
				"Count": 1000000
			}
		]
	},
	{
		"ID": 46,
		"Reward": [
			{
				"GoodsType": "GoodsType_Crystal",
				"Id": 0,
				"Count": 692
			},
			{
				"GoodsType": "GoodsType_SkinTicket",
				"Id": 0,
				"Count": 118
			},
			{
				"GoodsType": "GoodsType_Item",
				"Id": 4057,
				"Count": 5
			},
			{
				"GoodsType": "GoodsType_Gold",
				"Id": 0,
				"Count": 300000
			}
		]
	},
	{
		"ID": 47,
		"Reward": [
			{
				"GoodsType": "GoodsType_Item",
				"Id": 3202,
				"Count": 9
			},
			{
				"GoodsType": "GoodsType_Item",
				"Id": 3201,
				"Count": 15
			},
			{
				"GoodsType": "GoodsType_Item",
				"Id": 3200,
				"Count": 20
			}
		]
	},
	{
		"ID": 48,
		"Reward": [
			{
				"GoodsType": "GoodsType_BrillianceMithralStone",
				"Id": 0,
				"Count": 200
			},
			{
				"GoodsType": "GoodsType_Gold",
				"Id": 0,
				"Count": 200000
			},
			{
				"GoodsType": "GoodsType_Equipment",
				"Id": 304,
				"Count": 10
			}
		]
	},
	{
		"ID": 49,
		"Reward": [
			{
				"GoodsType": "GoodsType_Item",
				"Id": 4502,
				"Count": 3
			},
			{
				"GoodsType": "GoodsType_Item",
				"Id": 4534,
				"Count": 2
			},
			{
				"GoodsType": "GoodsType_Item",
				"Id": 4057,
				"Count": 2
			}
		]
	},
	{
		"ID": 50,
		"Reward": [
			{
				"GoodsType": "GoodsType_Item",
				"Id": 4508,
				"Count": 3
			},
			{
				"GoodsType": "GoodsType_Item",
				"Id": 4507,
				"Count": 3
			},
			{
				"GoodsType": "GoodsType_Item",
				"Id": 4506,
				"Count": 3
			},
			{
				"GoodsType": "GoodsType_Item",
				"Id": 3503,
				"Count": 3
			},
			{
				"GoodsType": "GoodsType_Gold",
				"Id": 0,
				"Count": 33333
			},
			{
				"GoodsType": "GoodsType_Item",
				"Id": 3133,
				"Count": 1
			},
			{
				"GoodsType": "GoodsType_Item",
				"Id": 6037,
				"Count": 1
			},
			{
				"GoodsType": "GoodsType_Item",
				"Id": 3122,
				"Count": 1
			}
		]
	},
	{
		"ID": 51,
		"Reward": [
			{
				"GoodsType": "GoodsType_Item",
				"Id": 3203,
				"Count": 5
			},
			{
				"GoodsType": "GoodsType_Item",
				"Id": 1028,
				"Count": 1
			},
			{
				"GoodsType": "GoodsType_Item",
				"Id": 3209,
				"Count": 5
			},
			{
				"GoodsType": "GoodsType_Item",
				"Id": 3210,
				"Count": 5
			}
		]
	},
	{
		"ID": 52,
		"Reward": [
			{
				"GoodsType": "GoodsType_ChallengePoint",
				"Id": 0,
				"Count": 150
			},
			{
				"GoodsType": "GoodsType_Equipment",
				"Id": 308,
				"Count": 3
			},
			{
				"GoodsType": "GoodsType_Item",
				"Id": 4512,
				"Count": 1
			},
			{
				"GoodsType": "GoodsType_Item",
				"Id": 4511,
				"Count": 2
			},
			{
				"GoodsType": "GoodsType_Item",
				"Id": 4510,
				"Count": 3
			},
			{
				"GoodsType": "GoodsType_Equipment",
				"Id": 304,
				"Count": 30
			},
			{
				"GoodsType": "GoodsType_Gold",
				"Id": 0,
				"Count": 1200000
			}
		]
	},
	{
		"ID": 53,
		"Reward": [
			{
				"GoodsType": "GoodsType_Item",
				"Id": 3009,
				"Count": 1
			},
			{
				"GoodsType": "GoodsType_Item",
				"Id": 3203,
				"Count": 88
			},
			{
				"GoodsType": "GoodsType_Item",
				"Id": 3246,
				"Count": 12
			},
			{
				"GoodsType": "GoodsType_Item",
				"Id": 4529,
				"Count": 12
			},
			{
				"GoodsType": "GoodsType_Item",
				"Id": 4528,
				"Count": 12
			},
			{
				"GoodsType": "GoodsType_Gold",
				"Id": 0,
				"Count": 1000000
			}
		]
	},
	{
		"ID": 54,
		"Reward": [
			{
				"GoodsType": "GoodsType_Item",
				"Id": 4001,
				"Count": 2
			},
			{
				"GoodsType": "GoodsType_Item",
				"Id": 3203,
				"Count": 3
			},
			{
				"GoodsType": "GoodsType_Item",
				"Id": 3503,
				"Count": 2
			},
			{
				"GoodsType": "GoodsType_Gold",
				"Id": 0,
				"Count": 100000
			}
		]
	},
	{
		"ID": 55,
		"Reward": [
			{
				"GoodsType": "GoodsType_Crystal",
				"Id": 0,
				"Count": 1772
			},
			{
				"GoodsType": "GoodsType_Item",
				"Id": 4001,
				"Count": 10
			},
			{
				"GoodsType": "GoodsType_Item",
				"Id": 4057,
				"Count": 5
			},
			{
				"GoodsType": "GoodsType_Item",
				"Id": 4026,
				"Count": 1
			}
		]
	},
	{
		"ID": 56,
		"Reward": [
			{
				"GoodsType": "GoodsType_Crystal",
				"Id": 0,
				"Count": 342
			},
			{
				"GoodsType": "GoodsType_Item",
				"Id": 7056,
				"Count": 2
			},
			{
				"GoodsType": "GoodsType_Item",
				"Id": 7005,
				"Count": 2
			},
			{
				"GoodsType": "GoodsType_Item",
				"Id": 7018,
				"Count": 7
			},
			{
				"GoodsType": "GoodsType_Item",
				"Id": 7030,
				"Count": 7
			},
			{
				"GoodsType": "GoodsType_Item",
				"Id": 7017,
				"Count": 7
			},
			{
				"GoodsType": "GoodsType_Item",
				"Id": 7029,
				"Count": 7
			},
			{
				"GoodsType": "GoodsType_Gold",
				"Id": 0,
				"Count": 300000
			}
		]
	},
	{
		"ID": 57,
		"Reward": [
			{
				"GoodsType": "GoodsType_Item",
				"Id": 4057,
				"Count": 6
			},
			{
				"GoodsType": "GoodsType_Item",
				"Id": 4502,
				"Count": 6
			},
			{
				"GoodsType": "GoodsType_Gold",
				"Id": 0,
				"Count": 1200000
			}
		]
	},
	{
		"ID": 58,
		"Reward": [
			{
				"GoodsType": "GoodsType_Item",
				"Id": 3009,
				"Count": 1
			},
			{
				"GoodsType": "GoodsType_Item",
				"Id": 3203,
				"Count": 20
			},
			{
				"GoodsType": "GoodsType_Item",
				"Id": 4502,
				"Count": 5
			},
			{
				"GoodsType": "GoodsType_Item",
				"Id": 4017,
				"Count": 1
			}
		]
	},
	{
		"ID": 59,
		"Reward": [
			{
				"GoodsType": "GoodsType_Item",
				"Id": 3203,
				"Count": 10
			},
			{
				"GoodsType": "GoodsType_Item",
				"Id": 3246,
				"Count": 4
			},
			{
				"GoodsType": "GoodsType_Item",
				"Id": 4529,
				"Count": 4
			},
			{
				"GoodsType": "GoodsType_Item",
				"Id": 4528,
				"Count": 4
			},
			{
				"GoodsType": "GoodsType_Gold",
				"Id": 0,
				"Count": 500000
			}
		]
	},
	{
		"ID": 60,
		"Reward": [
			{
				"GoodsType": "GoodsType_Item",
				"Id": 4502,
				"Count": 15
			},
			{
				"GoodsType": "GoodsType_Item",
				"Id": 4534,
				"Count": 10
			},
			{
				"GoodsType": "GoodsType_Item",
				"Id": 3246,
				"Count": 12
			},
			{
				"GoodsType": "GoodsType_Item",
				"Id": 4529,
				"Count": 12
			},
			{
				"GoodsType": "GoodsType_Item",
				"Id": 4528,
				"Count": 12
			},
			{
				"GoodsType": "GoodsType_Gold",
				"Id": 0,
				"Count": 1000000
			}
		]
	},
	{
		"ID": 61,
		"Reward": [
			{
				"GoodsType": "GoodsType_Item",
				"Id": 3253,
				"Count": 10
			},
			{
				"GoodsType": "GoodsType_Item",
				"Id": 3260,
				"Count": 5
			},
			{
				"GoodsType": "GoodsType_Item",
				"Id": 4545,
				"Count": 4
			},
			{
				"GoodsType": "GoodsType_Item",
				"Id": 4546,
				"Count": 3
			},
			{
				"GoodsType": "GoodsType_Gold",
				"Id": 0,
				"Count": 500000
			}
		]
	},
	{
		"ID": 62,
		"Reward": [
			{
				"GoodsType": "GoodsType_ChallengePoint",
				"Id": 0,
				"Count": 150
			},
			{
				"GoodsType": "GoodsType_Equipment",
				"Id": 308,
				"Count": 2
			},
			{
				"GoodsType": "GoodsType_Equipment",
				"Id": 304,
				"Count": 10
			},
			{
				"GoodsType": "GoodsType_Gold",
				"Id": 0,
				"Count": 500000
			}
		]
	},
	{
		"ID": 63,
		"Reward": [
			{
				"GoodsType": "GoodsType_Item",
				"Id": 4001,
				"Count": 5
			},
			{
				"GoodsType": "GoodsType_Gold",
				"Id": 0,
				"Count": 500000
			}
		]
	},
	{
		"ID": 64,
		"Reward": [
			{
				"GoodsType": "GoodsType_Equipment",
				"Id": 308,
				"Count": 2
			},
			{
				"GoodsType": "GoodsType_Equipment",
				"Id": 304,
				"Count": 10
			},
			{
				"GoodsType": "GoodsType_BrillianceMithralStone",
				"Id": 0,
				"Count": 200
			},
			{
				"GoodsType": "GoodsType_Item",
				"Id": 4502,
				"Count": 5
			},
			{
				"GoodsType": "GoodsType_Gold",
				"Id": 0,
				"Count": 500000
			}
		]
	},
	{
		"ID": 65,
		"Reward": [
			{
				"GoodsType": "GoodsType_Item",
				"Id": 3203,
				"Count": 20
			},
			{
				"GoodsType": "GoodsType_Crystal",
				"Id": 0,
				"Count": 300
			},
			{
				"GoodsType": "GoodsType_Gold",
				"Id": 0,
				"Count": 400000
			}
		]
	},
	{
		"ID": 66,
		"Reward": [
			{
				"GoodsType": "GoodsType_Item",
				"Id": 4001,
				"Count": 5
			},
			{
				"GoodsType": "GoodsType_Item",
				"Id": 7056,
				"Count": 5
			},
			{
				"GoodsType": "GoodsType_Item",
				"Id": 7005,
				"Count": 10
			},
			{
				"GoodsType": "GoodsType_Item",
				"Id": 3503,
				"Count": 2
			},
			{
				"GoodsType": "GoodsType_Gold",
				"Id": 0,
				"Count": 800000
			}
		]
	},
	{
		"ID": 67,
		"Reward": [
			{
				"GoodsType": "GoodsType_Item",
				"Id": 4502,
				"Count": 15
			},
			{
				"GoodsType": "GoodsType_Item",
				"Id": 4534,
				"Count": 10
			},
			{
				"GoodsType": "GoodsType_Item",
				"Id": 4057,
				"Count": 10
			},
			{
				"GoodsType": "GoodsType_BrillianceMithralStone",
				"Id": 0,
				"Count": 300
			},
			{
				"GoodsType": "GoodsType_Gold",
				"Id": 0,
				"Count": 1500000
			}
		]
	},
	{
		"ID": 68,
		"Reward": [
			{
				"GoodsType": "GoodsType_Item",
				"Id": 4001,
				"Count": 5
			},
			{
				"GoodsType": "GoodsType_Item",
				"Id": 4026,
				"Count": 1
			}
		]
	},
	{
		"ID": 69,
		"Reward": [
			{
				"GoodsType": "GoodsType_Item",
				"Id": 4001,
				"Count": 2
			},
			{
				"GoodsType": "GoodsType_Item",
				"Id": 3203,
				"Count": 3
			},
			{
				"GoodsType": "GoodsType_Item",
				"Id": 3503,
				"Count": 2
			},
			{
				"GoodsType": "GoodsType_Gold",
				"Id": 0,
				"Count": 100000
			}
		]
	},
	{
		"ID": 70,
		"Reward": [
			{
				"GoodsType": "GoodsType_Item",
				"Id": 3009,
				"Count": 1
			},
			{
				"GoodsType": "GoodsType_Item",
				"Id": 3203,
				"Count": 40
			},
			{
				"GoodsType": "GoodsType_Item",
				"Id": 3253,
				"Count": 10
			},
			{
				"GoodsType": "GoodsType_Item",
				"Id": 4502,
				"Count": 8
			},
			{
				"GoodsType": "GoodsType_Item",
				"Id": 3016,
				"Count": 2400
			},
			{
				"GoodsType": "GoodsType_Gold",
				"Id": 0,
				"Count": 1000000
			}
		]
	},
	{
		"ID": 71,
		"Reward": [
			{
				"GoodsType": "GoodsType_Item",
				"Id": 4001,
				"Count": 20
			}
		]
	},
	{
		"ID": 72,
		"Reward": [
			{
				"GoodsType": "GoodsType_Crystal",
				"Id": 0,
				"Count": 3280
			},
			{
				"GoodsType": "GoodsType_SkinTicket",
				"Id": 0,
				"Count": 98
			},
			{
				"GoodsType": "GoodsType_Gold",
				"Id": 0,
				"Count": 600000
			}
		]
	},
	{
		"ID": 60001,
		"Reward": [
			{
				"GoodsType": "GoodsType_Crystal",
				"Id": 0,
				"Count": 692
			},
			{
				"GoodsType": "GoodsType_Item",
				"Id": 4001,
				"Count": 15
			}
		]
	},
	{
		"ID": 60002,
		"Reward": [
			{
				"GoodsType": "GoodsType_Crystal",
				"Id": 0,
				"Count": 1772
			},
			{
				"GoodsType": "GoodsType_Item",
				"Id": 4021,
				"Count": 1
			},
			{
				"GoodsType": "GoodsType_Equipment",
				"Id": 304,
				"Count": 5
			},
			{
				"GoodsType": "GoodsType_Gold",
				"Id": 0,
				"Count": 200000
			}
		]
	},
	{
		"ID": 60003,
		"Reward": [
			{
				"GoodsType": "GoodsType_Crystal",
				"Id": 0,
				"Count": 342
			},
			{
				"GoodsType": "GoodsType_Item",
				"Id": 60004,
				"Count": 1
			},
			{
				"GoodsType": "GoodsType_Item",
				"Id": 60005,
				"Count": 1
			},
			{
				"GoodsType": "GoodsType_Item",
				"Id": 60006,
				"Count": 1
			},
			{
				"GoodsType": "GoodsType_Item",
				"Id": 60007,
				"Count": 1
			},
			{
				"GoodsType": "GoodsType_Gold",
				"Id": 0,
				"Count": 100000
			}
		]
	},
	{
		"ID": 60004,
		"Reward": [
			{
				"GoodsType": "GoodsType_Item",
				"Id": 6002,
				"Count": 15
			},
			{
				"GoodsType": "GoodsType_Item",
				"Id": 6005,
				"Count": 15
			},
			{
				"GoodsType": "GoodsType_Item",
				"Id": 6008,
				"Count": 15
			},
			{
				"GoodsType": "GoodsType_Item",
				"Id": 6011,
				"Count": 15
			},
			{
				"GoodsType": "GoodsType_Item",
				"Id": 6014,
				"Count": 15
			},
			{
				"GoodsType": "GoodsType_Item",
				"Id": 6017,
				"Count": 15
			}
		]
	},
	{
		"ID": 60005,
		"Reward": [
			{
				"GoodsType": "GoodsType_Item",
				"Id": 6025,
				"Count": 15
			},
			{
				"GoodsType": "GoodsType_Item",
				"Id": 6026,
				"Count": 15
			},
			{
				"GoodsType": "GoodsType_Item",
				"Id": 6027,
				"Count": 15
			},
			{
				"GoodsType": "GoodsType_Item",
				"Id": 6028,
				"Count": 15
			},
			{
				"GoodsType": "GoodsType_Item",
				"Id": 6029,
				"Count": 15
			},
			{
				"GoodsType": "GoodsType_Item",
				"Id": 6030,
				"Count": 15
			}
		]
	},
	{
		"ID": 60006,
		"Reward": [
			{
				"GoodsType": "GoodsType_Item",
				"Id": 6003,
				"Count": 10
			},
			{
				"GoodsType": "GoodsType_Item",
				"Id": 6006,
				"Count": 10
			},
			{
				"GoodsType": "GoodsType_Item",
				"Id": 6009,
				"Count": 10
			},
			{
				"GoodsType": "GoodsType_Item",
				"Id": 6012,
				"Count": 10
			},
			{
				"GoodsType": "GoodsType_Item",
				"Id": 6015,
				"Count": 10
			},
			{
				"GoodsType": "GoodsType_Item",
				"Id": 6018,
				"Count": 10
			}
		]
	},
	{
		"ID": 60007,
		"Reward": [
			{
				"GoodsType": "GoodsType_Item",
				"Id": 6031,
				"Count": 10
			},
			{
				"GoodsType": "GoodsType_Item",
				"Id": 6032,
				"Count": 10
			},
			{
				"GoodsType": "GoodsType_Item",
				"Id": 6033,
				"Count": 10
			},
			{
				"GoodsType": "GoodsType_Item",
				"Id": 6034,
				"Count": 10
			},
			{
				"GoodsType": "GoodsType_Item",
				"Id": 6035,
				"Count": 10
			},
			{
				"GoodsType": "GoodsType_Item",
				"Id": 6036,
				"Count": 10
			}
		]
	},
	{
		"ID": 60008,
		"Reward": [
			{
				"GoodsType": "GoodsType_Crystal",
				"Id": 0,
				"Count": 1772
			},
			{
				"GoodsType": "GoodsType_Item",
				"Id": 3531,
				"Count": 8
			},
			{
				"GoodsType": "GoodsType_Gold",
				"Id": 0,
				"Count": 600000
			},
			{
				"GoodsType": "GoodsType_BrillianceMithralStone",
				"Id": 0,
				"Count": 100
			}
		]
	},
	{
		"ID": 60009,
		"Reward": [
			{
				"GoodsType": "GoodsType_Crystal",
				"Id": 0,
				"Count": 692
			},
			{
				"GoodsType": "GoodsType_Item",
				"Id": 7004,
				"Count": 2
			},
			{
				"GoodsType": "GoodsType_Item",
				"Id": 7005,
				"Count": 2
			}
		]
	},
	{
		"ID": 60010,
		"Reward": [
			{
				"GoodsType": "GoodsType_Crystal",
				"Id": 0,
				"Count": 692
			},
			{
				"GoodsType": "GoodsType_Item",
				"Id": 4001,
				"Count": 15
			}
		]
	},
	{
		"ID": 60011,
		"Reward": [
			{
				"GoodsType": "GoodsType_Crystal",
				"Id": 0,
				"Count": 3600
			},
			{
				"GoodsType": "GoodsType_Item",
				"Id": 3009,
				"Count": 1
			},
			{
				"GoodsType": "GoodsType_Gold",
				"Id": 0,
				"Count": 100000
			},
			{
				"GoodsType": "GoodsType_Item",
				"Id": 4508,
				"Count": 2
			},
			{
				"GoodsType": "GoodsType_Item",
				"Id": 4507,
				"Count": 2
			},
			{
				"GoodsType": "GoodsType_Item",
				"Id": 4506,
				"Count": 2
			}
		]
	},
	{
		"ID": 60012,
		"Reward": [
			{
				"GoodsType": "GoodsType_Crystal",
				"Id": 0,
				"Count": 1772
			},
			{
				"GoodsType": "GoodsType_Item",
				"Id": 4024,
				"Count": 1
			},
			{
				"GoodsType": "GoodsType_Equipment",
				"Id": 304,
				"Count": 5
			},
			{
				"GoodsType": "GoodsType_Gold",
				"Id": 0,
				"Count": 200000
			}
		]
	},
	{
		"ID": 60013,
		"Reward": [
			{
				"GoodsType": "GoodsType_Crystal",
				"Id": 0,
				"Count": 342
			},
			{
				"GoodsType": "GoodsType_Item",
				"Id": 3203,
				"Count": 5
			},
			{
				"GoodsType": "GoodsType_Item",
				"Id": 4515,
				"Count": 1
			},
			{
				"GoodsType": "GoodsType_Item",
				"Id": 4516,
				"Count": 1
			},
			{
				"GoodsType": "GoodsType_Gold",
				"Id": 0,
				"Count": 200000
			}
		]
	},
	{
		"ID": 60014,
		"Reward": [
			{
				"GoodsType": "GoodsType_Crystal",
				"Id": 0,
				"Count": 692
			},
			{
				"GoodsType": "GoodsType_SkinTicket",
				"Id": 0,
				"Count": 98
			},
			{
				"GoodsType": "GoodsType_SoldierSkin",
				"Id": 20102,
				"Count": 1
			}
		]
	},
	{
		"ID": 60018,
		"Reward": [
			{
				"GoodsType": "GoodsType_Crystal",
				"Id": 0,
				"Count": 342
			},
			{
				"GoodsType": "GoodsType_Gold",
				"Id": 0,
				"Count": 800000
			}
		]
	},
	{
		"ID": 60019,
		"Reward": [
			{
				"GoodsType": "GoodsType_Crystal",
				"Id": 0,
				"Count": 168
			},
			{
				"GoodsType": "GoodsType_Item",
				"Id": 3503,
				"Count": 3
			}
		]
	},
	{
		"ID": 60021,
		"Reward": [
			{
				"GoodsType": "GoodsType_Crystal",
				"Id": 0,
				"Count": 692
			},
			{
				"GoodsType": "GoodsType_SkinTicket",
				"Id": 0,
				"Count": 98
			}
		]
	},
	{
		"ID": 60025,
		"Reward": [
			{
				"GoodsType": "GoodsType_Crystal",
				"Id": 0,
				"Count": 342
			},
			{
				"GoodsType": "GoodsType_Item",
				"Id": 4001,
				"Count": 2
			}
		]
	},
	{
		"ID": 60026,
		"Reward": [
			{
				"GoodsType": "GoodsType_Crystal",
				"Id": 0,
				"Count": 692
			},
			{
				"GoodsType": "GoodsType_Item",
				"Id": 4001,
				"Count": 4
			}
		]
	},
	{
		"ID": 60027,
		"Reward": [
			{
				"GoodsType": "GoodsType_Crystal",
				"Id": 0,
				"Count": 1772
			},
			{
				"GoodsType": "GoodsType_Item",
				"Id": 4001,
				"Count": 10
			}
		]
	},
	{
		"ID": 60028,
		"Reward": [
			{
				"GoodsType": "GoodsType_Crystal",
				"Id": 0,
				"Count": 3600
			},
			{
				"GoodsType": "GoodsType_Item",
				"Id": 4001,
				"Count": 20
			}
		]
	},
	{
		"ID": 60029,
		"Reward": [
			{
				"GoodsType": "GoodsType_Crystal",
				"Id": 0,
				"Count": 342
			},
			{
				"GoodsType": "GoodsType_Item",
				"Id": 4502,
				"Count": 2
			}
		]
	},
	{
		"ID": 60030,
		"Reward": [
			{
				"GoodsType": "GoodsType_Crystal",
				"Id": 0,
				"Count": 692
			},
			{
				"GoodsType": "GoodsType_Item",
				"Id": 4502,
				"Count": 4
			}
		]
	},
	{
		"ID": 60031,
		"Reward": [
			{
				"GoodsType": "GoodsType_Crystal",
				"Id": 0,
				"Count": 1772
			},
			{
				"GoodsType": "GoodsType_Item",
				"Id": 4502,
				"Count": 10
			}
		]
	},
	{
		"ID": 60032,
		"Reward": [
			{
				"GoodsType": "GoodsType_Crystal",
				"Id": 0,
				"Count": 3600
			},
			{
				"GoodsType": "GoodsType_Item",
				"Id": 4502,
				"Count": 20
			}
		]
	},
	{
		"ID": 60040,
		"Reward": [
			{
				"GoodsType": "GoodsType_Crystal",
				"Id": 0,
				"Count": 692
			},
			{
				"GoodsType": "GoodsType_ChallengePoint",
				"Id": 0,
				"Count": 150
			},
			{
				"GoodsType": "GoodsType_Equipment",
				"Id": 304,
				"Count": 10
			}
		]
	},
	{
		"ID": 60041,
		"Reward": [
			{
				"GoodsType": "GoodsType_Crystal",
				"Id": 0,
				"Count": 342
			},
			{
				"GoodsType": "GoodsType_Item",
				"Id": 3203,
				"Count": 5
			},
			{
				"GoodsType": "GoodsType_Item",
				"Id": 4515,
				"Count": 2
			},
			{
				"GoodsType": "GoodsType_Item",
				"Id": 4516,
				"Count": 2
			},
			{
				"GoodsType": "GoodsType_Item",
				"Id": 4517,
				"Count": 2
			},
			{
				"GoodsType": "GoodsType_Item",
				"Id": 4525,
				"Count": 2
			}
		]
	},
	{
		"ID": 60042,
		"Reward": [
			{
				"GoodsType": "GoodsType_Crystal",
				"Id": 0,
				"Count": 3600
			},
			{
				"GoodsType": "GoodsType_Item",
				"Id": 3009,
				"Count": 1
			},
			{
				"GoodsType": "GoodsType_BrillianceMithralStone",
				"Id": 0,
				"Count": 200
			},
			{
				"GoodsType": "GoodsType_SkinTicket",
				"Id": 0,
				"Count": 98
			},
			{
				"GoodsType": "GoodsType_Gold",
				"Id": 0,
				"Count": 500000
			}
		]
	},
	{
		"ID": 60052,
		"Reward": [
			{
				"GoodsType": "GoodsType_Crystal",
				"Id": 0,
				"Count": 692
			},
			{
				"GoodsType": "GoodsType_Item",
				"Id": 4001,
				"Count": 5
			},
			{
				"GoodsType": "GoodsType_Item",
				"Id": 4057,
				"Count": 5
			},
			{
				"GoodsType": "GoodsType_Gold",
				"Id": 0,
				"Count": 500000
			}
		]
	},
	{
		"ID": 60054,
		"Reward": [
			{
				"GoodsType": "GoodsType_Crystal",
				"Id": 0,
				"Count": 692
			},
			{
				"GoodsType": "GoodsType_SkinTicket",
				"Id": 0,
				"Count": 188
			},
			{
				"GoodsType": "GoodsType_Item",
				"Id": 4001,
				"Count": 3
			}
		]
	},
	{
		"ID": 60055,
		"Reward": [
			{
				"GoodsType": "GoodsType_Crystal",
				"Id": 0,
				"Count": 692
			},
			{
				"GoodsType": "GoodsType_Item",
				"Id": 4057,
				"Count": 6
			}
		]
	},
	{
		"ID": 60056,
		"Reward": [
			{
				"GoodsType": "GoodsType_Crystal",
				"Id": 0,
				"Count": 342
			},
			{
				"GoodsType": "GoodsType_Item",
				"Id": 4057,
				"Count": 2
			}
		]
	},
	{
		"ID": 60057,
		"Reward": [
			{
				"GoodsType": "GoodsType_Crystal",
				"Id": 0,
				"Count": 692
			},
			{
				"GoodsType": "GoodsType_Item",
				"Id": 4057,
				"Count": 4
			}
		]
	},
	{
		"ID": 60058,
		"Reward": [
			{
				"GoodsType": "GoodsType_Crystal",
				"Id": 0,
				"Count": 1772
			},
			{
				"GoodsType": "GoodsType_Item",
				"Id": 4057,
				"Count": 10
			}
		]
	},
	{
		"ID": 60059,
		"Reward": [
			{
				"GoodsType": "GoodsType_Crystal",
				"Id": 0,
				"Count": 3600
			},
			{
				"GoodsType": "GoodsType_Item",
				"Id": 4057,
				"Count": 20
			}
		]
	},
	{
		"ID": 68000,
		"Reward": [
			{
				"GoodsType": "GoodsType_JobMaterial",
				"Id": 48,
				"Count": 40
			},
			{
				"GoodsType": "GoodsType_JobMaterial",
				"Id": 49,
				"Count": 40
			},
			{
				"GoodsType": "GoodsType_JobMaterial",
				"Id": 50,
				"Count": 40
			},
			{
				"GoodsType": "GoodsType_JobMaterial",
				"Id": 51,
				"Count": 40
			},
			{
				"GoodsType": "GoodsType_JobMaterial",
				"Id": 52,
				"Count": 40
			},
			{
				"GoodsType": "GoodsType_JobMaterial",
				"Id": 53,
				"Count": 40
			},
			{
				"GoodsType": "GoodsType_BrillianceMithralStone",
				"Id": 0,
				"Count": 50
			}
		]
	},
	{
		"ID": 68001,
		"Reward": [
			{
				"GoodsType": "GoodsType_Item",
				"Id": 4001,
				"Count": 6
			},
			{
				"GoodsType": "GoodsType_BrillianceMithralStone",
				"Id": 0,
				"Count": 50
			}
		]
	},
	{
		"ID": 68002,
		"Reward": [
			{
				"GoodsType": "GoodsType_JobMaterial",
				"Id": 32,
				"Count": 25
			},
			{
				"GoodsType": "GoodsType_JobMaterial",
				"Id": 33,
				"Count": 25
			},
			{
				"GoodsType": "GoodsType_JobMaterial",
				"Id": 34,
				"Count": 25
			},
			{
				"GoodsType": "GoodsType_JobMaterial",
				"Id": 35,
				"Count": 25
			},
			{
				"GoodsType": "GoodsType_JobMaterial",
				"Id": 36,
				"Count": 25
			},
			{
				"GoodsType": "GoodsType_JobMaterial",
				"Id": 37,
				"Count": 25
			},
			{
				"GoodsType": "GoodsType_JobMaterial",
				"Id": 38,
				"Count": 25
			},
			{
				"GoodsType": "GoodsType_JobMaterial",
				"Id": 39,
				"Count": 25
			},
			{
				"GoodsType": "GoodsType_JobMaterial",
				"Id": 40,
				"Count": 25
			},
			{
				"GoodsType": "GoodsType_BrillianceMithralStone",
				"Id": 0,
				"Count": 100
			},
			{
				"GoodsType": "GoodsType_Gold",
				"Id": 0,
				"Count": 500000
			}
		]
	},
	{
		"ID": 68003,
		"Reward": [
			{
				"GoodsType": "GoodsType_Item",
				"Id": 4001,
				"Count": 10
			},
			{
				"GoodsType": "GoodsType_BrillianceMithralStone",
				"Id": 0,
				"Count": 100
			},
			{
				"GoodsType": "GoodsType_Gold",
				"Id": 0,
				"Count": 500000
			}
		]
	},
	{
		"ID": 68004,
		"Reward": [
			{
				"GoodsType": "GoodsType_JobMaterial",
				"Id": 41,
				"Count": 25
			},
			{
				"GoodsType": "GoodsType_JobMaterial",
				"Id": 42,
				"Count": 25
			},
			{
				"GoodsType": "GoodsType_JobMaterial",
				"Id": 43,
				"Count": 25
			},
			{
				"GoodsType": "GoodsType_JobMaterial",
				"Id": 44,
				"Count": 25
			},
			{
				"GoodsType": "GoodsType_JobMaterial",
				"Id": 45,
				"Count": 25
			},
			{
				"GoodsType": "GoodsType_JobMaterial",
				"Id": 46,
				"Count": 25
			},
			{
				"GoodsType": "GoodsType_Item",
				"Id": 3005,
				"Count": 15
			}
		]
	},
	{
		"ID": 68005,
		"Reward": [
			{
				"GoodsType": "GoodsType_Equipment",
				"Id": 304,
				"Count": 15
			},
			{
				"GoodsType": "GoodsType_Item",
				"Id": 3005,
				"Count": 15
			}
		]
	},
	{
		"ID": 68006,
		"Reward": [
			{
				"GoodsType": "GoodsType_Item",
				"Id": 4502,
				"Count": 8
			},
			{
				"GoodsType": "GoodsType_Item",
				"Id": 3503,
				"Count": 10
			},
			{
				"GoodsType": "GoodsType_Gold",
				"Id": 0,
				"Count": 300000
			}
		]
	},
	{
		"ID": 68007,
		"Reward": [
			{
				"GoodsType": "GoodsType_Item",
				"Id": 4001,
				"Count": 5
			},
			{
				"GoodsType": "GoodsType_Item",
				"Id": 3503,
				"Count": 10
			},
			{
				"GoodsType": "GoodsType_Gold",
				"Id": 0,
				"Count": 300000
			}
		]
	},
	{
		"ID": 68008,
		"Reward": [
			{
				"GoodsType": "GoodsType_Item",
				"Id": 4502,
				"Count": 15
			},
			{
				"GoodsType": "GoodsType_Item",
				"Id": 3503,
				"Count": 30
			},
			{
				"GoodsType": "GoodsType_Gold",
				"Id": 0,
				"Count": 500000
			}
		]
	},
	{
		"ID": 68009,
		"Reward": [
			{
				"GoodsType": "GoodsType_Item",
				"Id": 4001,
				"Count": 10
			},
			{
				"GoodsType": "GoodsType_Item",
				"Id": 3503,
				"Count": 30
			},
			{
				"GoodsType": "GoodsType_Gold",
				"Id": 0,
				"Count": 500000
			}
		]
	},
	{
		"ID": 68010,
		"Reward": [
			{
				"GoodsType": "GoodsType_Item",
				"Id": 6003,
				"Count": 25
			},
			{
				"GoodsType": "GoodsType_Item",
				"Id": 6006,
				"Count": 25
			},
			{
				"GoodsType": "GoodsType_Item",
				"Id": 6009,
				"Count": 25
			},
			{
				"GoodsType": "GoodsType_Item",
				"Id": 6012,
				"Count": 25
			},
			{
				"GoodsType": "GoodsType_Item",
				"Id": 6015,
				"Count": 25
			},
			{
				"GoodsType": "GoodsType_Item",
				"Id": 6018,
				"Count": 25
			},
			{
				"GoodsType": "GoodsType_BrillianceMithralStone",
				"Id": 0,
				"Count": 50
			},
			{
				"GoodsType": "GoodsType_Equipment",
				"Id": 304,
				"Count": 12
			}
		]
	},
	{
		"ID": 68011,
		"Reward": [
			{
				"GoodsType": "GoodsType_Item",
				"Id": 6031,
				"Count": 25
			},
			{
				"GoodsType": "GoodsType_Item",
				"Id": 6032,
				"Count": 25
			},
			{
				"GoodsType": "GoodsType_Item",
				"Id": 6033,
				"Count": 25
			},
			{
				"GoodsType": "GoodsType_Item",
				"Id": 6034,
				"Count": 25
			},
			{
				"GoodsType": "GoodsType_Item",
				"Id": 6035,
				"Count": 25
			},
			{
				"GoodsType": "GoodsType_Item",
				"Id": 6036,
				"Count": 25
			},
			{
				"GoodsType": "GoodsType_BrillianceMithralStone",
				"Id": 0,
				"Count": 50
			},
			{
				"GoodsType": "GoodsType_Equipment",
				"Id": 304,
				"Count": 12
			}
		]
	},
	{
		"ID": 68012,
		"Reward": [
			{
				"GoodsType": "GoodsType_Item",
				"Id": 6037,
				"Count": 4
			},
			{
				"GoodsType": "GoodsType_Item",
				"Id": 6038,
				"Count": 4
			},
			{
				"GoodsType": "GoodsType_Item",
				"Id": 6039,
				"Count": 4
			},
			{
				"GoodsType": "GoodsType_Item",
				"Id": 6040,
				"Count": 4
			},
			{
				"GoodsType": "GoodsType_Item",
				"Id": 6041,
				"Count": 4
			},
			{
				"GoodsType": "GoodsType_Item",
				"Id": 6042,
				"Count": 4
			},
			{
				"GoodsType": "GoodsType_BrillianceMithralStone",
				"Id": 0,
				"Count": 100
			},
			{
				"GoodsType": "GoodsType_Equipment",
				"Id": 304,
				"Count": 20
			}
		]
	},
	{
		"ID": 68013,
		"Reward": [
			{
				"GoodsType": "GoodsType_Item",
				"Id": 6043,
				"Count": 25
			},
			{
				"GoodsType": "GoodsType_Item",
				"Id": 6044,
				"Count": 25
			},
			{
				"GoodsType": "GoodsType_Item",
				"Id": 6045,
				"Count": 25
			},
			{
				"GoodsType": "GoodsType_Item",
				"Id": 6046,
				"Count": 25
			},
			{
				"GoodsType": "GoodsType_Item",
				"Id": 6047,
				"Count": 25
			},
			{
				"GoodsType": "GoodsType_Item",
				"Id": 6048,
				"Count": 25
			},
			{
				"GoodsType": "GoodsType_BrillianceMithralStone",
				"Id": 0,
				"Count": 100
			},
			{
				"GoodsType": "GoodsType_Equipment",
				"Id": 304,
				"Count": 20
			}
		]
	},
	{
		"ID": 69999,
		"Reward": [
			{
				"GoodsType": "GoodsType_Crystal",
				"Id": 0,
				"Count": 692
			}
		]
	}
]