[
	{
		"ID": 1,
		"Name": "Season of Giving",
		"TabImage": "UI/TextImages/English_Uncharted_ABS/1/Exchange_001.png",
		"BackgroundImage": "UI/TextImages/English_Uncharted_ABS/1/Exchange_001.png",
		"StartPlayerResource": "Spine/General/Sherry_ABS/Sherry_Dragon/Sherry_Dragon03_Prefab.prefab",
		"MapId": 1,
		"ExchangeTable": [
			1,
			2,
			3,
			4
		],
		"CurrencyItemTable": [
			{
				"ItemId": 3505,
				"Multiplier": 4000,
				"ExtInfoID": 1
			},
			{
				"ItemId": 3506,
				"Multiplier": 4000,
				"ExtInfoID": 2
			},
			{
				"ItemId": 3507,
				"Multiplier": 4000,
				"ExtInfoID": 3
			},
			{
				"ItemId": 3508,
				"Multiplier": 4000,
				"ExtInfoID": 4
			}
		],
		"RewardType": "CollectionActivityRewardType_Exchange",
		"ScoreRewardGroupId": 0,
		"ScoreItemId": 0,
		"ExchangePanelBg": "UI/StoryActivityBG_ABS/BG_Christmas.png",
		"ExchangePanelStateName": "Christmas",
		"ExchangePanelItemStateName": "Normal"
	},
	{
		"ID": 2,
		"Name": "Trails in Time FC",
		"TabImage": "UI/TextImages/English_Uncharted_ABS/1/Linkage_001.png",
		"BackgroundImage": "UI/TextImages/English_Uncharted_ABS/1/Linkage_001.png",
		"StartPlayerResource": "Spine/General/Mathew_ABS/Mathew_zs/Mathew_zs03_Prefab.prefab",
		"MapId": 2,
		"RewardType": "CollectionActivityRewardType_Score",
		"ScoreRewardGroupId": 1,
		"ScoreItemId": 3504,
		"BonusHeroIdList": [
			{
				"Key": 12,
				"Value": 50
			},
			{
				"Key": 6,
				"Value": 50
			},
			{
				"Key": 13,
				"Value": 50
			},
			{
				"Key": 4,
				"Value": 50
			},
			{
				"Key": 10,
				"Value": 50
			},
			{
				"Key": 16,
				"Value": 50
			},
			{
				"Key": 27,
				"Value": 50
			},
			{
				"Key": 25,
				"Value": 50
			},
			{
				"Key": 55,
				"Value": 50
			},
			{
				"Key": 53,
				"Value": 50
			}
		],
		"ExchangePanelBg": "UI/StoryActivityBG_ABS/KongGui_FCBG.png",
		"ExchangePanelStateName": "KongGuiFC",
		"ExchangePanelItemStateName": "Normal"
	},
	{
		"ID": 3,
		"Name": "Trails in Time SC",
		"TabImage": "UI/TextImages/English_Uncharted_ABS/1/Linkage_002.png",
		"BackgroundImage": "UI/TextImages/English_Uncharted_ABS/1/Linkage_002.png",
		"StartPlayerResource": "Spine/General/Estelle_ABS/Estelle_Sakura/Estelle_Sakura2_Prefab.prefab",
		"MapId": 3,
		"ExchangeTable": [
			5,
			6,
			7
		],
		"CurrencyItemTable": [
			{
				"ItemId": 3511,
				"Multiplier": 4000,
				"ExtInfoID": 5
			},
			{
				"ItemId": 3512,
				"Multiplier": 4000,
				"ExtInfoID": 6
			},
			{
				"ItemId": 3513,
				"Multiplier": 4000,
				"ExtInfoID": 7
			}
		],
		"RewardType": "CollectionActivityRewardType_Exchange",
		"ScoreRewardGroupId": 0,
		"ScoreItemId": 0,
		"ExchangePanelBg": "UI/StoryActivityBG_ABS/BG_KongGui.png",
		"ExchangePanelStateName": "KongGuiSC",
		"ExchangePanelItemStateName": "Normal"
	},
	{
		"ID": 4,
		"Name": "Another Legend - Overlord Line",
		"TabImage": "UI/TextImages/English_Uncharted_ABS/1/Exchange_002.png",
		"BackgroundImage": "UI/TextImages/English_Uncharted_ABS/1/Exchange_002.png",
		"StartPlayerResource": "Spine/General/Elwin_ABS/Elwin/Elwin04_Prefab.prefab",
		"MapId": 4,
		"ExchangeTable": [
			8,
			9,
			10
		],
		"CurrencyItemTable": [
			{
				"ItemId": 3523,
				"Multiplier": 4000,
				"ExtInfoID": 8
			},
			{
				"ItemId": 3524,
				"Multiplier": 4000,
				"ExtInfoID": 9
			},
			{
				"ItemId": 3525,
				"Multiplier": 4000,
				"ExtInfoID": 10
			}
		],
		"RewardType": "CollectionActivityRewardType_Exchange",
		"ScoreRewardGroupId": 0,
		"ScoreItemId": 0,
		"ExchangePanelBg": "UI/StoryActivityBG_ABS/BG_King.png",
		"ExchangePanelStateName": "King",
		"ExchangePanelItemStateName": "Normal"
	},
	{
		"ID": 5,
		"Name": "Sakura Strike Force",
		"TabImage": "UI/TextImages/English_Uncharted_ABS/1/Linkage_003.png",
		"BackgroundImage": "UI/TextImages/English_Uncharted_ABS/1/Linkage_003.png",
		"StartPlayerResource": "Spine/General/Anjelica_ABS/Anjelica_Magic/Anjelica_Engineer2_Prefab.prefab",
		"MapId": 5,
		"ExchangeTable": [
			11,
			12,
			13,
			14
		],
		"CurrencyItemTable": [
			{
				"ItemId": 3527,
				"Multiplier": 4000,
				"ExtInfoID": 11
			},
			{
				"ItemId": 3528,
				"Multiplier": 4000,
				"ExtInfoID": 12
			},
			{
				"ItemId": 3529,
				"Multiplier": 4000,
				"ExtInfoID": 13
			},
			{
				"ItemId": 3530,
				"Multiplier": 4000,
				"ExtInfoID": 14
			}
		],
		"RewardType": "CollectionActivityRewardType_Exchange",
		"ScoreRewardGroupId": 0,
		"ScoreItemId": 0,
		"ExchangePanelBg": "UI/StoryActivityBG_ABS/BG_Sakura.png",
		"ExchangePanelStateName": "Sakura",
		"ExchangePanelItemStateName": "Normal"
	},
	{
		"ID": 6,
		"Name": "Chapters of Legend: Seven Note Curse",
		"TabImage": "UI/TextImages/English_Uncharted_ABS/1/Points_004.png",
		"BackgroundImage": "UI/TextImages/English_Uncharted_ABS/1/Points_004.png",
		"StartPlayerResource": "Spine/General/Mathew_ABS/Mathew_zs/Mathew_zs03_Prefab.prefab",
		"MapId": 6,
		"RewardType": "CollectionActivityRewardType_Score",
		"ScoreRewardGroupId": 2,
		"ScoreItemId": 3504,
		"BonusHeroIdList": [
			{
				"Key": 1,
				"Value": 50
			},
			{
				"Key": 4,
				"Value": 50
			},
			{
				"Key": 28,
				"Value": 50
			},
			{
				"Key": 26,
				"Value": 50
			},
			{
				"Key": 15,
				"Value": 50
			},
			{
				"Key": 60,
				"Value": 50
			},
			{
				"Key": 61,
				"Value": 50
			},
			{
				"Key": 10,
				"Value": 50
			},
			{
				"Key": 8,
				"Value": 50
			},
			{
				"Key": 17,
				"Value": 50
			},
			{
				"Key": 25,
				"Value": 50
			}
		],
		"ExchangePanelBg": "UI/StoryActivityBG_ABS/MusicBG.png",
		"ExchangePanelStateName": "Music",
		"ExchangePanelItemStateName": "Normal"
	},
	{
		"ID": 7,
		"Name": "Fireworks Festival",
		"TabImage": "UI/TextImages/English_Uncharted_ABS/1/Exchange_003.png",
		"BackgroundImage": "UI/TextImages/English_Uncharted_ABS/1/Exchange_003.png",
		"StartPlayerResource": "Spine/General/Dehault_ABS/Dehault_Skin02/Dehault_Skin02_Prefab.prefab",
		"MapId": 7,
		"ExchangeTable": [
			15,
			16,
			17
		],
		"CurrencyItemTable": [
			{
				"ItemId": 3532,
				"Multiplier": 4000,
				"ExtInfoID": 15
			},
			{
				"ItemId": 3533,
				"Multiplier": 4000,
				"ExtInfoID": 16
			},
			{
				"ItemId": 3534,
				"Multiplier": 4000,
				"ExtInfoID": 17
			}
		],
		"RewardType": "CollectionActivityRewardType_Exchange",
		"ScoreRewardGroupId": 0,
		"ScoreItemId": 0,
		"ExchangePanelBg": "UI/StoryActivityBG_ABS/BG_Fireworks.png",
		"ExchangePanelStateName": "Fireworks",
		"ExchangePanelItemStateName": "Normal"
	},
	{
		"ID": 8,
		"Name": "Research Team Mania",
		"TabImage": "UI/TextImages/English_Uncharted_ABS/1/Exchange_004.png",
		"BackgroundImage": "UI/TextImages/English_Uncharted_ABS/1/Exchange_004.png",
		"StartPlayerResource": "Spine/General/Alfred_ABS/Alfred_SerpentMaster/Alfred_SerpentMaster4_Prefab.prefab",
		"MapId": 8,
		"ExchangeTable": [
			18,
			19,
			20,
			21
		],
		"CurrencyItemTable": [
			{
				"ItemId": 3535,
				"Multiplier": 4000,
				"ExtInfoID": 18
			},
			{
				"ItemId": 3536,
				"Multiplier": 4000,
				"ExtInfoID": 19
			},
			{
				"ItemId": 3537,
				"Multiplier": 4000,
				"ExtInfoID": 20
			},
			{
				"ItemId": 3538,
				"Multiplier": 4000,
				"ExtInfoID": 21
			}
		],
		"RewardType": "CollectionActivityRewardType_Exchange",
		"ScoreRewardGroupId": 0,
		"ScoreItemId": 0,
		"ExchangePanelBg": "UI/StoryActivityBG_ABS/BG_Project.png",
		"ExchangePanelStateName": "Project",
		"ExchangePanelItemStateName": "Normal"
	},
	{
		"ID": 9,
		"Name": "Maiden Voyage",
		"TabImage": "UI/TextImages/English_Uncharted_ABS/1/Points_005.png",
		"BackgroundImage": "UI/TextImages/English_Uncharted_ABS/1/Points_005.png",
		"StartPlayerResource": "Spine/General/Emilia_ABS/Emilia_RoyalGuardian/Emilia_RoyalGuardian4_Prefab.prefab",
		"MapId": 9,
		"RewardType": "CollectionActivityRewardType_Score",
		"ScoreRewardGroupId": 3,
		"ScoreItemId": 3504,
		"BonusHeroIdList": [
			{
				"Key": 60,
				"Value": 50
			},
			{
				"Key": 8,
				"Value": 50
			},
			{
				"Key": 29,
				"Value": 50
			},
			{
				"Key": 52,
				"Value": 50
			},
			{
				"Key": 37,
				"Value": 50
			},
			{
				"Key": 89,
				"Value": 50
			},
			{
				"Key": 1,
				"Value": 50
			},
			{
				"Key": 30,
				"Value": 50
			},
			{
				"Key": 5,
				"Value": 50
			},
			{
				"Key": 18,
				"Value": 50
			}
		],
		"ExchangePanelBg": "UI/StoryActivityBG_ABS/BG_King.png",
		"ExchangePanelStateName": "King",
		"ExchangePanelItemStateName": "Normal"
	},
	{
		"ID": 10,
		"Name": "Night of Lost Souls",
		"TabImage": "UI/TextImages/English_Uncharted_ABS/1/Exchange_005.png",
		"BackgroundImage": "UI/TextImages/English_Uncharted_ABS/1/Exchange_005.png",
		"StartPlayerResource": "Spine/General/Aka_ABS/Aka_Skin01/Aka_Skin01_Prefab.prefab",
		"MapId": 10,
		"ExchangeTable": [
			22,
			23,
			24
		],
		"CurrencyItemTable": [
			{
				"ItemId": 3539,
				"Multiplier": 4000,
				"ExtInfoID": 22
			},
			{
				"ItemId": 3540,
				"Multiplier": 4000,
				"ExtInfoID": 23
			},
			{
				"ItemId": 3541,
				"Multiplier": 4000,
				"ExtInfoID": 24
			}
		],
		"RewardType": "CollectionActivityRewardType_Exchange",
		"ScoreRewardGroupId": 0,
		"ScoreItemId": 0,
		"ExchangePanelBg": "UI/StoryActivityBG_ABS/BG_Halloween.png",
		"ExchangePanelStateName": "Halloween",
		"ExchangePanelItemStateName": "Halloween"
	},
	{
		"ID": 11,
		"Name": "Glorious Annals of Lodoss",
		"TabImage": "",
		"BackgroundImage": "",
		"StartPlayerResource": "Spine/General/Parn_ABS/Parn_SwordMaster/Parn_SwordMaster4_Prefab.prefab",
		"MapId": 11,
		"RewardType": "CollectionActivityRewardType_Score",
		"ScoreRewardGroupId": 4,
		"ScoreItemId": 3504,
		"BonusHeroIdList": [
			{
				"Key": 54,
				"Value": 50
			},
			{
				"Key": 56,
				"Value": 50
			},
			{
				"Key": 67,
				"Value": 50
			},
			{
				"Key": 7,
				"Value": 50
			},
			{
				"Key": 15,
				"Value": 50
			},
			{
				"Key": 25,
				"Value": 50
			},
			{
				"Key": 1,
				"Value": 50
			},
			{
				"Key": 4,
				"Value": 50
			},
			{
				"Key": 30,
				"Value": 50
			},
			{
				"Key": 17,
				"Value": 50
			}
		],
		"ExchangePanelBg": "UI/StoryActivityBG_ABS/BG_LodossWar.png",
		"ExchangePanelStateName": "LodossWar",
		"ExchangePanelItemStateName": "Normal"
	},
	{
		"ID": 12,
		"Name": "End of Year Feast",
		"TabImage": "UI/TextImages/English_Uncharted_ABS/1/Exchange_006.png",
		"BackgroundImage": "UI/TextImages/English_Uncharted_ABS/1/Exchange_006.png",
		"StartPlayerResource": "Spine/General/Norm_ABS/Norm_Skin03/Norm_Skin03_Prefab.prefab",
		"MapId": 12,
		"ExchangeTable": [
			25,
			26,
			27
		],
		"CurrencyItemTable": [
			{
				"ItemId": 3542,
				"Multiplier": 4000,
				"ExtInfoID": 25
			},
			{
				"ItemId": 3543,
				"Multiplier": 4000,
				"ExtInfoID": 26
			},
			{
				"ItemId": 3544,
				"Multiplier": 4000,
				"ExtInfoID": 27
			}
		],
		"RewardType": "CollectionActivityRewardType_Exchange",
		"ScoreRewardGroupId": 0,
		"ScoreItemId": 0,
		"ExchangePanelBg": "UI/StoryActivityBG_ABS/BG_NewYear.png",
		"ExchangePanelStateName": "NewEra",
		"ExchangePanelItemStateName": "Normal"
	}
]