[
	{
		"ID": 1,
		"RandomTalents": [
			{
				"SkillId": 72000,
				"Weight": 10
			},
			{
				"SkillId": 72001,
				"Weight": 10
			},
			{
				"SkillId": 72002,
				"Weight": 10
			},
			{
				"SkillId": 72003,
				"Weight": 10
			},
			{
				"SkillId": 72004,
				"Weight": 10
			},
			{
				"SkillId": 72005,
				"Weight": 10
			},
			{
				"SkillId": 72006,
				"Weight": 10
			},
			{
				"SkillId": 72007,
				"Weight": 10
			},
			{
				"SkillId": 72008,
				"Weight": 10
			},
			{
				"SkillId": 72009,
				"Weight": 10
			},
			{
				"SkillId": 72010,
				"Weight": 10
			},
			{
				"SkillId": 72011,
				"Weight": 10
			},
			{
				"SkillId": 72012,
				"Weight": 10
			},
			{
				"SkillId": 72013,
				"Weight": 10
			},
			{
				"SkillId": 72014,
				"Weight": 10
			},
			{
				"SkillId": 72015,
				"Weight": 10
			},
			{
				"SkillId": 72016,
				"Weight": 10
			},
			{
				"SkillId": 72017,
				"Weight": 10
			},
			{
				"SkillId": 72018,
				"Weight": 10
			},
			{
				"SkillId": 72019,
				"Weight": 10
			},
			{
				"SkillId": 72020,
				"Weight": 10
			},
			{
				"SkillId": 72021,
				"Weight": 10
			},
			{
				"SkillId": 72022,
				"Weight": 10
			},
			{
				"SkillId": 72023,
				"Weight": 10
			},
			{
				"SkillId": 72024,
				"Weight": 10
			},
			{
				"SkillId": 72025,
				"Weight": 10
			},
			{
				"SkillId": 72026,
				"Weight": 10
			}
		]
	},
	{
		"ID": 2,
		"RandomTalents": [
			{
				"SkillId": 3020,
				"Weight": 10
			},
			{
				"SkillId": 3021,
				"Weight": 10
			},
			{
				"SkillId": 3022,
				"Weight": 10
			}
		]
	}
]