[
	{
		"ID": 1,
		"Value": "<color=#008B00>◆Aniki's Gym Info◆ \n</color>★<color=#DC143C>Your Aniki's special training has begun! Let your soldiers start their training NOW!</color>\n★Different Aniki's Gym dungeons will be unlocked at different times each week!\n★Only after successfully completing a low difficulty dungeon will the next level become available.\n★Loot different <color=#DC143C>military training materials</color> in Aniki's dungeon to strengthen soldiers!\n\n<color=#008B00>◆Dungeon Times and Drops◆</color> \nMonday, Thursday, Sunday: Drops <color=#DC143C>Infantry</color> training materials.\nMonday, Thursday, Sunday: Drops <color=#DC143C>Archer</color> and <color=#DC143C>Assassin</color> training materials.\nTuesday, Friday, Sunday: Drops <color=#DC143C>Lancer</color> training materials.\nTuesday, Friday, Sunday: Drops <color=#DC143C>Flier</color> and <color=#DC143C>Aquatic</color> training materials.\nWednesday, Saturday, Sunday: Drops <color=#DC143C>Cavalry</color> training materials.\nWednesday, Saturday, Sunday: Drops <color=#DC143C>Holy</color> and <color=#DC143C>Demon</color> training materials."
	},
	{
		"ID": 2,
		"Value": "<color=#008B00>◆Goddess Trial Info◆</color> \n★ Are you ready to take down the <color=#DC143C>Demon Dragons</color>? Demon Dragons are huge foes with powerful skills! Smart deployment and strategy are the keys to victory here!\n★ Use units with <color=#DC143C>class priority</color> to help you take them down!\n★ <color=#DC143C>Hero Equipment</color> and <color=#DC143C>Enchant Scrolls</color> drop in the Goddess' Trial dungeon, and different types of Demon Dragons drop different parts and equipment types.\n\n<color=#008B00>◆Dungeon Times◆</color> \nMonday & Thursday - Fire Dragon Fafnir: <color=#DC143C>Weapons, Armor, and Helmets</color> (Random Drop)\nTuesday & Friday - Ice Dragon Asante: <color=#DC143C>Armor</color> (Exclusive Drop)\nWednesday & Saturday - Thunder Dragon Carcosa: <color=#DC143C>Helmets</color> (Exclusive Drop)\nSunday - Dark Dragon Tiamat: <color=#DC143C>Weapons</color> (Exclusive Drop)"
	},
	{
		"ID": 3,
		"Value": "<color=#008B00>◆Arena Info◆</color>\n★Choose 1 of<color=#DC143C> 3 </color>opponents to challenge. (Cannot refresh manually. Auto-refreshes at frequent intervals).\n★Challenges consume 1 <color=#DC143C>Arena Challenge Voucher</color>. <color=#DC143C>5</color> Challenge Vouchers will be sent at midnight every day.\n★A victory grants <color=#DC143C>points</color>, which determine the final reward.\n★A victory in<color=#DC143C> auto-battle </color>mode grants<color=#DC143C> double </color>points.\n★Arena progress will be cleared every Sunday at 10pm. A certain number of points will be deducted to ensure fairness.\n\n<color=#008B00>◆Rewards◆</color>\n★<color=#DC143C>Chest</color>: After a certain number of victories, you'll receive an extra chest reward.\n★<color=#DC143C>Daily Reward</color>: You'll receive rewards in your inbox every night at 10pm.\n\n<color=#008B00>◆Defense Formation◆</color>\n★You can set a formation to defend yourself against attacks from other Commanders.\n★<color=#DC143C>Change Map</color>: You can choose 1 of <color=#DC143C>3</color> defense maps, which will be renewed on a weekly basis.\n★<color=#DC143C>Victory Conditions</color>: There will be different conditions that must be fulfilled if you want to win.\n★<color=#DC143C>Attack Sequence</color>: You can freely change the attack order of your team members."
	},
	{
		"ID": 4,
		"Value": "<color=#008B00>◆Stolen Treasure Info◆</color>\n★Those damn goblins stole the treasure and escaped! <color=#DC143C>Kill them to get Gold</color>!\n★<color=#DC143C>Goblins</color> <color=#DC143C>won't attack</color> your heroes in the dungeon. They will escape successfully when they reach the edge of the map, so <color=#DC143C>defeat as many goblins as you can</color> to get Gold!\n★Dungeon levels will be unlocked as your team level increases.\n★Challenges consume <color=#DC143C>Stamina</color> and a <color=#DC143C>Treasure Key</color>.\n\n<color=#008B00>◆Dungeon Drops◆</color> \n★Defeated goblins will drop <color=#DC143C>loads of Gold</color>. The more you beat, the greater the rewards!\n★Higher-level goblins drop more Gold!"
	},
	{
		"ID": 5,
		"Value": "<color=#008B00>◆Bonding Realm Info◆</color>\n★<color=#DC143C>Challenge teams of heroes with Bond Power</color> and get Bond equipment!\n★Dungeon levels will be unlocked as your team level increases.\n★Each enemy in the dungeon will have<color=#DC143C> 1 General</color> and <color=#DC143C>2 Deputy Generals</color>. The enemy's generals will be granted <color=#DC143C>Bond Power</color> by the Deputy General.\n★Defeat the enemy's deputy generals, then <color=#DC143C>Bond Power will be removed from the generals</color>, making them easier to kill.\n<color=#008B00>◆Dungeon Drops◆</color>\n★Bond Realms drop<color=#DC143C> Hero Bond Gifts</color> and<color=#DC143C> Bond Power Materials</color> used to increase your bonds with your Heroes and strengthen Bond Power.\n★There are seven different themes and different favorite gifts for each day of the week."
	},
	{
		"ID": 6,
		"Value": "<color=#008B00>◆Team Info◆</color>\n★Most Secret Realms support team battles. <color=#DC143C>Joint Battles</color> require teams.\n★On each of your team's turns, each member will take a turn to attack.\n★Each team has<color=#DC143C> its own chat channel</color> so players can communicate with each other.\n<color=#008B00>◆Team Rules◆</color>\n★Teams can only challenge <color=#DC143C>unlocked levels</color>.\n★<color=#DC143C>Up to 3 players</color> can form a team. The creator of the team becomes the <color=#DC143C>team leader</color>.\n★Players can join teams freely and also invite friends to join.\n★Team stamina consumption is different from solo gameplay, and there are also differences in the number of heroes that can join the battle.\n\n<color=#008B00>◆Team Earnings◆</color>\n★In addition to regular drops, teams also receive additional rewards. Team up with 1 player to get 1 extra reward, and team up with 2 players to receive 2 extra rewards.\n★When you team up with <color=#DC143C>friends</color>, you'll get 1 additional friend reward, and you'll both get an extra <color=#DC143C>5 Friendship Points</color>. You can team up with other players up to <color=#DC143C>20 times</color> per day."
	},
	{
		"ID": 7,
		"Value": "<color=#008B00>◆Friend Feature Info◆</color>\n★Whenever you give a friend a gift, they'll get <color=#DC143C>5 </color>Friendship Points.\n★Invite your friends to <color=#DC143C>team</color> challenges to get <color=#DC143C>5</color> Friendship Points. Team Friendship Point chances refresh daily.\n★You can exchange Friendship Points for items in the <color=#DC143C>Friendship Store</color>.\n\n<color=#008B00>◆Name Cards◆</color>\n★<color=#DC143C>Name Cards</color> show a Commander's stats, personal signature, and heroes.\n★You can customize the formation, equipment, and actions of your <color=#DC143C>Default Team</color>.\n★You can <color=#DC143C>Like</color> other Commanders' name cards. Like all your friends!\n★Your own <color=#DC143C>Name Card</color> can be edited in the <color=#DC143C>Player Information</color> interface in the upper left corner of the main screen.\n★Tap on another player's avatar to view their <color=#DC143C>Name Card</color>."
	},
	{
		"ID": 8,
		"Value": "<color=#008B00>◆Hero Special Training School Explanation◆</color>\n★<color=#DC143C>Challenge lots of Mechanical Golems in Angelica's Special Training School!</color> \n★Special training dungeons are refreshed on a daily basis. Make sure you send suitable heroes to challenge them! For example, Cavalry training features Cavalry Golems, so you should send Lancers to fight them.\n★Different dungeon levels unlock as your team level increases.\n\n<color=#008B00>◆Dungeon Times◆</color>\nMonday & Thursday: Infantry Training\nTuesday & Friday: Lancer Training\nWednesday & Saturday: Cavalry Training\nSunday Only: Demon Training\n\n<color=#008B00>◆Dungeon Drops◆</color>\n★All Special Training dungeons grant <color=#DC143C>EXP Potions</color>, regardless of type."
	},
	{
		"ID": 9,
		"Value": "<color=#008B00>◆Joint Battle Info◆</color>\n★<color=#DC143C>Team up with other Commanders across time and space </color>to challenge powerful heroes!\n★You must join a <color=#DC143C>team</color> to take part in Joint Battles. Invite other Commanders to fight challenges together!\n★Joint Battle Dungeons offer <color=#DC143C>extremely rich rewards.</color>. <color=#DC143C>Each dungeon grants different rewards</color> every day! \n★<color=#DC143C>Challenge gameplay changes sporadically</color>, so all Commanders must work together!\n\n<color=#008B00>◆Dungeon Times◆</color>\n★Challenges are available every day at <color=#DC143C>14:00-15:00 and 21:00-22:00</color>!\n\n<color=#008B00>◆Dungeon Drops◆</color>\n★Enchant scrolls, epic equipment, training materials, bond materials, and special gifts!"
	},
	{
		"ID": 10,
		"Value": "<color=#008B00>◆Hero Phantom Info◆</color>\n★Challenge a themed hero each week! The <color=#DC143C>designated hero</color> will be the enemy leader. Dungeons are only available at specific times!\n\n<color=#008B00>◆Dungeon Drops◆</color>\n★<color=#DC143C>Memory Shards</color>: You can get lots of <color=#DC143C>Memory Shards</color> for themed heroes!"
	},
	{
		"ID": 11,
		"Value": "<color=#008B00>◆Time Rift Info◆</color>\n★Welcome to the Time Rift! Here you can experience <color=#DC143C>Langrisser</color> chapters from<color=#DC143C> the original series</color>!\n\n<color=#008B00>◆Unlocking Time Rift Stages◆</color>\n★Stages will be unlocked according to <color=#DC143C>progress made in the Main Story</color>.\n\n<color=#008B00>◆Elite Mode◆</color>\n★New enemies, in-depth strategies, rich rewards, and ultimate challenges!\n★You can switch between<color=#DC143C> Normal Mode </color>and<color=#DC143C> Elite Mode </color>in the upper right corner.\n\n<color=#008B00>◆Time Rift Drops◆</color>\n★<color=#DC143C>Basic Rewards</color>: Various kinds of equipment and strengthening materials.\n★<color=#DC143C>First Clearance Reward</color>: Complete a level for the first time to get extra rewards.\n★<color=#DC143C>Feat Rewards</color>: Complete all the requirements of the level to get Feat rewards.\n★<color=#DC143C>Chapter Rewards</color>: Collect stars to get chapter rewards."
	},
	{
		"ID": 12,
		"Value": "<color=#008B00>◆Intimacy Info◆</color>\n★<color=#DC143C>Intimacy Level</color>: A hero's level of trust in their Commander. Can be increased by giving gifts and is used to unlock Bond Power, Gate of Fate, and Hero Bio features.\n★<color=#DC143C>Giving Gifts</color>: Giving gifts to heroes is a quick way to improve Intimacy. Different heroes prefer different things.\n\n<color=#008B00>◆Unlockable Content◆</color>\n★<color=#DC143C>Bond Power</color>: Unlocked by increasing Intimacy level. Enhances the basic stats of the hero and their soldiers. Each Bond can be leveled up with Bond materials.\n★<color=#DC143C>Gate of Fate</color>: Unlocked by increasing Intimacy level. An exclusive hero scenario will be unlocked, and the corresponding hero must fight in the battle.\n★<color=#DC143C>Hero Bio</color>: Unlocked by increasing Intimacy level. You can view available hero stories and listen to voiceover dialog.\n\n<color=#008B00>◆Special Info◆</color>\n★Matthew's Intimacy level is equal to <color=#DC143C>the sum of all heroes' Intimacy levels</color>."
	},
	{
		"ID": 13,
		"Value": "<color=#008B00>◆Intimacy Info◆</color>\n★<color=#DC143C>Intimacy Level</color>: A hero's level of trust in their Commander. Can be increased by giving gifts and is used to unlock Bond Power, Gate of Fate, and Hero Bio features.\n★<color=#DC143C>Giving Gifts</color>: Giving gifts to heroes is a quick way to improve Intimacy. Different heroes prefer different things.\n\n<color=#008B00>◆Unlockable Content◆</color>\n★<color=#DC143C>Bond Power</color>: Unlocked by increasing Intimacy level. Enhances the basic stats of the hero and their soldiers. Each Bond can be leveled up with Bond materials.\n★<color=#DC143C>Gate of Fate</color>: Unlocked by increasing Intimacy level. An exclusive hero scenario will be unlocked, and the corresponding hero must fight in the battle.\n★<color=#DC143C>Hero Bio</color>: Unlocked by increasing Intimacy level. You can view available hero stories and listen to voiceover dialog.\n\n<color=#008B00>◆Special Info◆</color>\n★Matthew's Intimacy level is equal to <color=#DC143C>the sum of all heroes' Intimacy levels</color>."
	},
	{
		"ID": 14,
		"Value": "<color=#008B00>◆About Bond Power◆</color>\n★<color=#DC143C>Bond Skill</color>: Every hero has their own Bond skill which can strengthen their stats and the stats of their soldiers. \n★<color=#DC143C>Heart Bond</color>: After the Bond Skill reaches a certain level, it will be unlocked, greatly increasing your hero's stats and granting them unique abilities. \n★<color=#DC143C>Unlock</color>: After your Bond Skill reaches the required intimacy level, you may complete a Bond mission and unlock it. \n★<color=#DC143C>Strengthen</color>: You can use specific <color=#DC143C>[Bond Keepsakes]</color> to upgrade your Bond Skill. \n★<color=#DC143C>Confession</color>: After the intimacy reaches a certain level... what will happen?"
	},
	{
		"ID": 15,
		"Value": "<color=#008B00>◆Gate of Fate Info◆</color>\n★<color=#DC143C>Gate of Fate</color>: You can experience your heroes' adventures with them!\n★<color=#DC143C>Unlocking</color>: Unlocks when you increase hero Intimacy level.\n★<color=#DC143C>Challenge Chances</color>: You can challenge the Gate of Fate up to <color=#DC143C>9</color> times per day with <color=#DC143C>all your heroes</color>. A loss does not consume any challenge chances. Chances are automatically restored every day.\n\n<color=#008B00>◆Dungeon Drops◆</color>\n★<color=#DC143C>Basic Drops</color>: Hero Memory Shards and Bond Gifts!\n★<color=#DC143C>Chapter Rewards</color>: Collect chapter stars to get extra rewards!"
	},
	{
		"ID": 16,
		"Value": "<color=#008B00>◆Soldier Training Info◆</color>\n★Training increases <color=#DC143C>stats</color>, <color=#DC143C>grants passive skills, </color>and <color=#DC143C>unlocks new units</color>.\n★You must unlock and level up technologies one at a time according to the <color=#DC143C>Technology Tree</color>.\n★Upgrading soldier research consumes <color=#DC143C>Training Materials</color> and <color=#DC143C>Gold</color>.\n★Each upgrade grants<color=#DC143C> Training EXP</color>. Advanced soldier courses require you to reach certain <color=#DC143C>Training Field Levels</color> to unlock.\n\n<color=#008B00>◆Expedition Info◆</color>\n★Expeditions are unlocked as your team level increases, granting different training materials each day.\n★Up to <color=#DC143C>3</color> heroes can take part in each expedition.\n★Different heroes contribute different amounts to overall expedition reward <color=#DC143C>efficiency</color>. The higher the efficiency percentage, the more rewards you'll receive.\n★Expeditions can be set to different <color=#DC143C>durations</color> of 2, 4, or 8 hours. The longer the time, the more rewards you'll get. The shorter the time, the higher the performance ratio!\n\n\n<color=#008B00>◆Soldier Gallery Info◆</color>\n★The Soldier Gallery can be found in the lower right corner. You can use the gallery to look up the <color=#DC143C>base stats</color> and <color=#DC143C>special skills</color> of all units."
	},
	{
		"ID": 17,
		"Value": "<color=#008B00>◆Equipment Strengthening Info◆</color>\n★Consume <color=#DC143C>Equipment Materials</color> to increase equipment strengthening levels.\n★Equipment strengthening level enhances basic stats. After reaching a certain level, <color=#DC143C>Skill Level</color> will also increase.\n★When using <color=#DC143C>strengthened equipment</color> for alchemy, 100% of the costs will be returned to you.\n\n<color=#008B00>◆Equipment Star Upgrade Info◆</color>\n★Consume equipment of the <color=#DC143C>same name</color> and <color=#DC143C>Star Upgrade Items</color> to enhance the stars of equipment at max level.\n★When equipment stars are increased, the strengthening level cap will increase as well.\n★Equipment can be upgraded up to <color=#DC143C>6 stars</color>. 6-star equipment cannot be upgraded.\n\n<color=#008B00>◆Equipment Enchantment Info◆</color>\n★Consume <color=#DC143C>Enchant Scrolls</color> to grant random stats to your equipment. Each piece can have up to <color=#DC143C>3</color> enchanted stats.\n★Equipment Resonance: Different Enchant Scrolls can grant <color=#DC143C>Resonance</color> effects to your equipment. When <color=#DC143C>multiple items have the same resonance stats</color>, a new skill will be generated."
	},
	{
		"ID": 18,
		"Value": "<color=#008B00>◆Alchemy Feature Explanation◆</color>\n★ Alchemy can transform <color=#DC143C>unused items</color> into other useful resources and equipment materials.\n★ After placing the unused items into the Furnace, you can then view the list of items to be produced in the <color=#DC143C>Alchemy Preview</color>.\n★ When performing alchemy on <color=#DC143C>upgraded equipment</color>, all <color=#DC143C>Crafter's Hammers</color> and gold used for upgrading will be returned.\n★ After dissolving SR equipment, you will also receive <color=#DC143C>[Mithril Ore]</color>. After dissolving SSR equipment, you will also receive <color=#DC143C>[Orichalcum Ore]</color>. Both of these can be exchanged for items in the <color=#DC143C>Equipment Store</color>.\n★ Mastery Stones can be dissolved through alchemy to obtain <color=#DC143C>[Dust of Fate]</color> (Arena Mastery Stones cannot be dissolved)\nBelow is an example of items obtained: \n1 Elite Mastery Stone = 40 Dust of Fate\n1 Advanced Mastery Stone = 5 Dust of Fate\n1 Intermediate Mastery Stone = 1 Dust of Fate\n600 Dust of Fate can be formed into 1 <color=#DC143C>Elite Mastery Pick-one Gift Pack</color> (including 3 Elite Mastery Stones of the specified stats)."
	},
	{
		"ID": 19,
		"Value": "<color=#008B00>◆Hero Stat Info◆</color>\n<color=#DC143C>HP: </color>Maximum damage you can take.\n<color=#DC143C>ATK: </color>Physical damage potential.\n<color=#DC143C>INT: </color>Magic damage potential.\n<color=#DC143C>DEF: </color>Ability to resist physical damage.\n<color=#DC143C>MDEF: </color>Ability to resist magic damage.\n<color=#DC143C>SKILL: </color>Crit chance in battle."
	},
	{
		"ID": 20,
		"Value": "Training Field Expedition Info"
	},
	{
		"ID": 21,
		"Value": "<color=#008B00>◆Battle Tips◆</color>\n★<color=#DC143C>Priority</color>: Keep in mind that unit priority is the key to victory!\n★<color=#DC143C>Guard</color>: Heroes who can use guarding skills can protect their teammates!\n★<color=#DC143C>Terrain</color>: Occupying favorable terrain provides defensive bonuses!\n★<color=#DC143C>Melee & Ranged Combat</color>: When a ranged unit performs a melee attack, its damage will be decreased. Try to keep your distance, as melee units can take advantage of this!\n★<color=#DC143C>Soldiers and Heroes</color>: In general, soldiers receive damage first, but some skills can directly hit heroes. If the hero is killed, the entire division will collapse!\n★<color=#DC143C>AoE Attacks</color>: All AoE attack skills attack both soldiers and heroes!"
	},
	{
		"ID": 22,
		"Value": "<color=#008B00>◆World Arena Info◆</color>\n★You can challenge cross-server online opponents in both ranked and casual mode.\n★In ranked mode, you'll receive <color=#DC143C>points</color> to determine your rank and rewards.\n★When you reach a certain number of points, a <color=#DC143C>rank up battle</color> will be triggered. You will rank up when winning your designated matches.\n★Arena progress will be cleared <color=#DC143C>every Sunday at 10 PM</color>. A certain number of points will be deducted to ensure fairness.\n\n<color=#008B00>◆Battle Rules◆</color>\n★<color=#DC143C>Bronze or Casual Mode</color>: Both parties select 5 heroes to fight against each other.\n★<color=#DC143C>Silver Mode</color>: The initiator selects one hero to join the battle, then the other party selects 2 heroes, until both sides have 5.\n★<color=#DC143C>Gold Mode and Above</color>: The initiator selects one hero to join the battle, then the other party selects 2 heroes, until both sides have 6. Then both sides select a <color=#DC143C>protected hero</color>, and then select one of the other party's <color=#DC143C>unprotected heroes</color> to leave the battle.\n★When the battle reaches <color=#DC143C>Round 3</color>, both parties receive <color=#DC143C>Rage stats</color>, and fire gradually spreads to the center of the battlefield, <color=#DC143C>inflicting terrain damage</color>.\n\n<color=#008B00>◆Rewards◆</color>\n★<color=#DC143C>Chests</color>: Available after a certain number of victories. (Refreshes Weekly)\n★<color=#DC143C>Tier Reward</color>: Tier rewards are sent to your inbox at 10 PM daily, based on your tier.\n★<color=#DC143C>Ranking Reward</color>: Ranking rewards will be sent to your inbox every Sunday, based on your ranking."
	},
	{
		"ID": 23,
		"Value": "<color=#008B00>◆Summoning Info◆</color>\n★<color=#DC143C>Hero Summon: </color>Players can summon heroes. Heroes that are summoned multiple times will be converted into shards used for Star Upgrade.\n★<color=#DC143C>Equipment Summon: </color>Players can summon equipment. Equipment that is summoned multiple times will be converted into shards used for Star Upgrading.\n★<color=#DC143C>Friendship Summon:</color> Grants EXP Potions, strengthening materials and rare equipment and heroes.\n\n<color=#008B00>◆Summon 10 Times Special Info◆</color>\n★<color=#DC143C>Hero Summon</color> - Summon 10 Times: Grants at least <color=#DC143C>1</color> SR Hero.\n★<color=#DC143C>Equipment Summon</color> - Summon 10 Times: Grants at least <color=#DC143C>2</color> pieces of SR equipment."
	},
	{
		"ID": 24,
		"Value": "<color=#008B00>◆Event Info◆</color>\n★The fitness-loving Aniki Bros. are here to give all Commanders a free spin!\n★During the event, each Commander gets one <color=#DC143C>free spin</color>!\n★<color=#DC143C>Each spin grants a prize, and there are no repeats! </color>Spin 10 times to get all the prizes!\n★Each spin consumes: 0, 50, 100, 200, 300, 400, 500, 600, 800, and 1000 Trinity Crystals.\n★Received prizes are added directly to your bag."
	},
	{
		"ID": 25,
		"Value": "<color=#008B00>◆Descendants of Light: Limited-time Summon◆</color>\n★<color=#DC143C>Event Summon</color>: When summoning an SSR Hero, the chances of that hero appearing will increase!\n★The base chance of obtaining an SSR hero will remain the same as that of a normal \"Hero Summon\".\n\n<color=#008B00>◆Limited Heroes◆</color>\n★Heroes with a higher chance of appearing in this event are:\n<color=#DC143C>SSR Elwin</color>, <color=#DC143C>SSR Cherie</color>, <color=#DC143C>SSR Ledin</color>, <color=#DC143C>SSR Liana's</color>.\n\n<color=#008B00>◆Summon 10 Times Special Info◆</color>\n★<color=#DC143C>Hero Summon</color> - Summon 10 Times: Grants at least <color=#DC143C>1</color> SR Hero."
	},
	{
		"ID": 26,
		"Value": "<color=#008B00>◆Forcemaster: Limited-time Summon◆</color>\n★<color=#DC143C>Event Summon</color>: When summoning an SSR Hero, the chances of that hero appearing will increase! \n★The base chance of obtaining an SSR hero will remain the same as that of a normal \"Hero Summon\".\n\n<color=#008B00>◆Limited Heroes◆</color>\n★Heroes with a higher chance of appearing in this event are:\n<color=#DC143C>SSR Leon</color>,<color=#DC143C>SSR Bernhardt</color>,<color=#DC143C>SSR Lana</color>,<color=#DC143C>SSR Bozel</color>.\n\n\n<color=#008B00>◆「Summon 10 Times」 Special Info◆</color>\n★<color=#DC143C>Limited-time Summon</color> - 「Summon 10 Times」: Grants at least <color=#DC143C>1</color> SR Hero."
	},
	{
		"ID": 27,
		"Value": "<color=#008B00>◆Summon Chances◆</color>\n★<color=#DC143C>Hero Summon</color> Heroes of R, SR, SSR rarity: R Heroes 85%, SR Heroes 13%, SSR Heroes 2%.\n★<color=#DC143C>Equipment Summon</color> Equipment of R, SR, SSR rarity: R Equipment 70%, SR Equipment 25%, SSR Equipment 5%."
	},
	{
		"ID": 28,
		"Value": "<color=#008B00>◆Memory Store◆</color>\n★Extract spare Hero Memory Shards to obtain <color=#DC143C>Memory Essence</color>!\n★<color=#DC143C>Memory Essence</color> can be redeemed for goods in the Memory Store.\n\n<color=#008B00>◆Memory Extraction Info◆</color>\n★Spare memory shards can be extracted only when a hero reaches <color=#DC143C>6-stars</color>.\n★Different memory shards can be extracted to obtain different amounts of <color=#DC143C>Memory Essences</color>.\n SSR Hero Memory Shards: <color=#DC143C>30</color> Memory Essences\n SR Hero Memory Shards: <color=#DC143C>10</color> Memory Essences\nR Hero Memory Shards: <color=#DC143C>1</color> Memory Essence"
	},
	{
		"ID": 29,
		"Value": "<color=#008B00>◆Secret Realm Points Info◆</color>\n★Enter the turbulent vortex of time and track down legends of the past! Challenge limited-time stages to accumulate <color=#DC143C>points</color>, and use them to summon exclusive heroes!\n★The Time Rift will resonate with certain heroes, and using these <color=#DC143C>Recommended Heroes</color> will increase the amount of <color=#DC143C>points</color> you receive!\n★At different periods of the event, different levels will be unlocked. Some levels can be challenged only when the preceding levels have been passed.\n★<color=#DC143C>Limited-edition Stages</color> and <color=#DC143C>Points Stages</color> can be challenged multiple times. Repeatedly challenging <color=#DC143C>Limited-edition Stages</color> will not consume Stamina, but will also not grant rewards.\n★Players can team up to challenge Points Stages, but Challenge Stages can only be challenged in solo mode."
	},
	{
		"ID": 30,
		"Value": "<color=#008B00>◆Timeless Trial Info◆</color>\n ★<color=#DC143C>Follow the Chronomaster, start an unpredictable journey</color>, and receive fantastic rewards instantly!\n ★The Timeless Trial consists of <color=#DC143C>60</color> trial missions, and the difficulty of each increases as you progress. Every fifth trial will be an <color=#DC143C>Elite Leader Trial</color>.\n ★<color=#DC143C>Time Laws</color>: Affected by the Time Rift, trial missions will grant buffs or debuffs to heroes of certain factions. Please choose your lineup wisely!\n ★<color=#DC143C>Recommended Heroes</color>: The Time Rift will motivate certain heroes, and using these specified heroes will boost all of their stats (apart from HP)!\n ★The Timeless Trial<color=#DC143C> resets every Monday</color>, after which the Time Rift will create new trials for you to continue your challenge!"
	},
	{
		"ID": 31,
		"Value": "<color=#008B00>◆Guild of Time Explanation◆</color>\nUse the power of Langrisser to transcend spacetime, and join together with other wielders of Langrisser to write a new legend! \n★You can use a <color=#DC143C>Guild License</color> to establish a new Guild. You can also join an existing Guild by applying to one. \n★Guild members are divided into: <color=#DC143C>Leaders</color> (1 person), <color=#DC143C>Vice Leaders</color> (max 3 people), Elites, and Members. \n★You can consume Stamina to accumulate Activity and become an Elite. The Vice Leaders are directly appointed by the Leader. \n★ The Guild Leader and Vice Leader have the <color=#DC143C>right to expel members</color>. If the Guild Leader has been offline for a long period of time, Vice Leaders and Elite members can initiate <color=#DC143C>leader dismissal</color>. \n★ The Guild name can be changed by spending <color=#DC143C>Trinity Crystals</color>."
	},
	{
		"ID": 32,
		"Value": "<color=#008B00>◆Twin Princesses of Caconsis - Limited Summoning Event◆</color>\n★When obtaining an SSR hero during the <color=#DC143C>summoning event</color>, the chance of obtaining one of the selected event heroes will be greatly increased! \n★The base chance of obtaining an SSR hero will remain the same as that of a normal \"Hero Summon\".\n\n<color=#008B00>◆Limited-Edition Heroes◆</color>\n★Heroes with an increased drop rate during this event are: \n<color=#DC143C>SSR Angelina</color> and <color=#DC143C>SSR Shelfaniel</color>. \n\n<color=#008B00>◆[10x Summon] Special Instructions◆</color>\n★<color=#DC143C>During the limited summoning period, </color>[10x Summons] will guarantee you at least <color=#DC143C>1</color> SR hero."
	},
	{
		"ID": 33,
		"Value": "<color=#008B00>◆Legendary Convergence - Limited-time Summon◆</color>\n★When obtaining an SSR hero during the <color=#DC143C>summoning event</color>, the chance of obtaining one of the selected event heroes will be greatly increased! \n★The base chance of obtaining an SSR hero will remain the same as that of a normal \"Hero Summon\".\n★<color=#DC143C>Special Bonus</color>: The first SSR hero you obtain during this event is guaranteed to be a special SSR hero from the event banner that you do not already own. (If you already have all the heroes on the list, you can get another SSR hero or a duplicate of a selected SSR hero.)\n\n<color=#008B00>◆Limited-Edition Heroes◆</color>\n★Heroes with an increased drop rate during this event are: \n<color=#DC143C>SSR Ledin</color>, <color=#DC143C>SSR Leon</color>, and <color=#DC143C>SSR Elwin</color>. \n\n<color=#008B00>◆[10x Summon] Special Instructions◆</color>\n★<color=#DC143C>During the limited summoning period, </color>[10x Summons] will guarantee you at least <color=#DC143C>1</color> SR hero."
	},
	{
		"ID": 34,
		"Value": "<color=#008B00>◆Princess League Destiny Summon - Limited-time Summon Event◆</color>\n★When obtaining an SSR hero during the <color=#DC143C>summoning event</color>, the chance of obtaining one of the selected heroes is greatly increased! \n★The base chance of obtaining an SSR hero will remain the same as that of a normal \"Hero Summon\".\n★<color=#DC143C>Special Bonus</color>: The first SSR hero you obtain during this event is guaranteed to be a special SSR hero from the event banner that you do not already own. \n\n<color=#008B00>◆Limited-Edition Heroes◆</color>\n★Heroes with an increased drop rate during this event are: \n<color=#DC143C>SSR Luna</color>, <color=#DC143C>SSR Lana</color>, and <color=#DC143C>SSR Tiaris</color>. \n\n<color=#008B00>◆[10x Summon] Special Instructions◆</color>\n★<color=#DC143C>During the limited summoning period, </color>[10x Summons] will guarantee you at least <color=#DC143C>1</color> SR hero."
	},
	{
		"ID": 35,
		"Value": "<color=#008B00>◆Guild Event Info◆</color>\n★Join hands with <color=#DC143C>like-minded Commanders to build a new world!</color>\n★Guild events must be activated by the <color=#DC143C>Guild Leader or Vice Leader</color>. If you wish to attend more events, let your Guild Leader know!"
	},
	{
		"ID": 36,
		"Value": "<color=#008B00>◆Guild Battle Difficulty Info◆</color>\n★<color=#DC143C>Opening Requirements: </color>Guild Battles must be started by the <color=#DC143C>Guild Leader or Vice Leader</color>. There are different difficulties for Guild Battles, which will be unlocked in sequence according to the level of guild members. \n★<color=#DC143C>Opening Time: </color>Guild Battles can be opened <color=#DC143C>2</color> times per week. Chances will be reset every Monday. \n★<color=#DC143C>A guild can only start one Guild Battle at a time. </color>When the Guild Battle is finished, or is given up by the Guild Leader or Vice Leader, you can start a new Guild Battle."
	},
	{
		"ID": 37,
		"Value": "<color=#008B00>◆Guild Battle Instructions◆</color>\n★<color=#DC143C>Stronghold: </color>Guild Battles are divided into different stages. Each stage has different <color=#DC143C>Faction Bonuses</color>, and using corresponding heroes from the same faction will grant them a <color=#DC143C>40%</color> power bonus. \n★<color=#DC143C>Deployment Limit: </color><color=#DC143C>Each hero can only be deployed to fight stronghold battles once per day. </color>If withdrawn from battle, the hero will still be unable to compete again. \n★<color=#DC143C>Teaming Rules: </color>Battles can be completed in solo mode, as well as with a team, but you can only team up with Commanders from the same guild. \n<color=#008B00>◆Battle Rules◆</color>\n★New enemies will constantly spawn, and each enemy you defeat will grant you <color=#DC143C>Battle Points</color>. Annihilating all enemies will earn you <color=#DC143C>Annihilation Points</color>. \n★Try <color=#DC143C>defeating as many enemies as possible</color> before the time runs out. Guild Battle points will be calculated based on the number of the defeated enemies, as well as the total <color=#DC143C>Stronghold Domination Progress</color> of the guild. \n★<color=#DC143C>Exiting the level mid-game will not grant you Guild Battle points</color> in a Guild Battle, but as long as you have defeated an enemy, even if your team is wiped out, you can still get points. Therefore, make sure you fight until your last breath! \n<color=#008B00>◆Rewards◆</color>\n★<color=#DC143C>Personal Guild Battle Point Rewards: </color>Obtained when points reach a certain amount. \n★<color=#DC143C>Total Domination Reward: </color>After you completely dominate a stronghold, all members participating in the Guild Battle will receive the Domination Reward after the battle. \n★<color=#DC143C>Guild Battle Progress Rewards: </color>When the Guild Battle is over, all members who participated will be issued Guild Battle Progress Rewards. The higher the progress, the higher the rewards."
	},
	{
		"ID": 38,
		"Value": "<color=#008B00>◆Eternal Temple Info◆</color>\n★ Deep in the heart of the Eternal Temple, challenge awaits... Conquer the powerful phantoms within to obtain <color=#DC143C>Bond Keepsakes</color>! Challenge the temple and deepen your bonds with your heroes!\n★ Phantoms are formidable foes... Defeating them requires both a strong lineup and brilliant strategy!\n★ The Eternal Temple can only be challenged <color=#DC143C>once</color> per day.\n★ Use heroes of the <color=#DC143C>Recommended Faction</color> and they'll gain a huge boost in combat effectiveness! Different phantoms are opposed by different <color=#DC143C>Factions</color>.\n\n<color=#008B00>◆Dungeon Times◆</color>\nMonday & Thursday: Valkyrie - Recommended Faction: <color=#DC143C>Origins of Light, Empire's Honor</color>\nTuesday & Friday: Leviar - Recommended Faction: <color=#DC143C>Dark Reincarnation, Princess Alliance</color>\nWednesday & Saturday: Scylla - Recommended Faction: <color=#DC143C>Meteor Strike, Legion of Glory</color>\nSunday: Phoenix - Recommended Faction: <color=#DC143C>Strategic Masters, Protagonists, Yeless Legends</color>"
	},
	{
		"ID": 39,
		"Value": "<color=#008B00>◆Lost Tales Event Info◆</color>\n★ The old tales of El Sallia speak of countless secret treasures waiting to be discovered. Challenge each stage to obtain <color=#DC143C>event items</color> and exchange them for fantastic rewards! \n★ Different heroes have their own advantages in collecting different items. Deploy <color=#DC143C>\"Recommended Heroes\"</color> to gain the corresponding item's <color=#DC143C>drop bonus</color>. \n★ At different periods of the event, different levels will be unlocked. Some levels can be challenged only when the preceding levels have been passed. \n★ Event levels are divided into <color=#DC143C>Plot Levels, Challenge Levels</color>, and <color=#DC143C>Repeat Levels</color>. Plot Levels, Challenge Levels, and Repeat Levels can all be challenged multiple times. Repeatedly challenging Plot Levels and Challenge Levels does not consume Stamina, but also does not grant rewards. \n★ Players can team up to challenge Repeat Levels, but Plot Levels can only be challenged in single player mode."
	},
	{
		"ID": 40,
		"Value": "<color=#008B00>◆Event Info◆</color>\n★ The Aniki Bros. have been refining their own brand of philosophy to bring you a ridiculously rewarding revelation!\n★ During the event, you'll get the chance to try your luck and <color=#DC143C>take a free spin</color>!\n★ <color=#DC143C>Each spin will yield a different reward! </color>Spin 10 times, and you're guaranteed to get all of the rewards!\n★ After your free spin, each subsequent spin consumes the following number of Trinity Crystals: 50 Trinity Crystals, 100 Trinity Crystals, 200 Trinity Crystals, 300 Trinity Crystals, 400 Trinity Crystals, 500 Trinity Crystals, 600 Trinity Crystals, 800 Trinity Crystals, and 1,000 Trinity Crystals.\n★ Prizes will be added directly to your bag! Please check it carefully!"
	},
	{
		"ID": 41,
		"Value": "<color=#008B00>◆Return to Glory Event Info◆</color>\n★ Welcome back, Commander! I hope you are well! I've prepared some small missions to help you get back into the flow of things after your absence!\n★ This event lasts for <color=#DC143C>10 days</color>. Complete <color=#DC143C>special missions</color> during this period to earn rewards!\n★ Completing event missions will grant <color=#DC143C>Event Points</color>. Build up your points to a certain level and you'll get huge rewards!"
	},
	{
		"ID": 42,
		"Value": "<color=#008B00>◆Instructions for Twisted Fate◆</color>\n★ The power of Langrisser is gradually awakening, the singularity of time and space is looming, and the possibilities of fate are now beginning to diverge!<color=#DC143C> What choices will the heroes of parallel worlds make?</color> \n★ <color=#DC143C>Challenge points</color> can be obtained by completing your first clearance, and can be exchanged for personal hero equipment in the Secret Realm Store. \n★ Different levels correspond to different <color=#DC143C>\"Recommended Heroes\"</color>. They can get extra <color=#DC143C>combat bonuses</color> in battle. \n★ Each level has its own achievements. Extra challenge points can be obtained by completing these achievements."
	},
	{
		"ID": 43,
		"Value": "<color=#008B00>◆Point Event Info◆</color>\n★ The continent of El Sallia hides countless lost treasures waiting to be discovered. Challenge each stage in the story to obtain <color=#DC143C>Event Points</color> and exchange them for fantastic rewards.\n ★ Different heroes have their own advantages in obtaining points. Deploy <color=#DC143C>\"Recommended Heroes\"</color> to obtain <color=#DC143C>bonus points</color>.\n ★ At different periods of the event, different levels will be unlocked. Some levels can be challenged only when the preceding levels have been passed.\n ★ Event levels are divided into <color=#DC143C>Plot Levels, Challenge Levels</color>, and <color=#DC143C>Repeat Levels</color>. All three of them can be challenged multiple times. Repeatedly challenging Plot Levels and Challenge Levels does not consume Stamina, but also does not grant rewards.\n ★ Players can team up to challenge Repeat Levels, but Plot Levels can only be challenged in single player mode."
	},
	{
		"ID": 44,
		"Value": "<color=#008B00>◆Apex Arena Team Formation Instructions◆</color>\n<color=#DC143C>★Main Formation</color>: All Commanders must form a team of <color=#DC143C>15 heroes</color> in order to participate in the Ultimate Arena. These heroes can be composed of heroes personally trained by the Commander, or the mercenary heroes who change each week.\n<color=#DC143C>★Back-up Formations</color>: Back-up formations can only be used in BO3 Friendly Matches and Elimination Matches.\nIn BO3 matches, you must use your Main Formation in the first round. After that, before the second and third round's matches, you can switch the heroes in your Back-up Formation and Main Formation, and then decide upon a final 15-hero formation.\n\n<color=#008B00>★Mercenaries:</color>\nMercenary Heroes will be changed <color=#DC143C>every Monday</color>. <color=#DC143C>10 random heroes who meet certain requirements</color> will be selected as Mercenaries for all Commanders to use.\nHero data will correspond to data at the time they are selected (including class, skin, equipment, and enchantments), and a special reward will be sent via in-game mail to the Commanders whose heroes are chosen.\nAll Commanders are free to adjust these Mercenaries' skills and soldiers. Mercenary soldier data will correspond to your own Training Field data.\nAfter Mercenaries are changed each week, if you were using certain Mercenaries before the change, they will automatically be removed from your team. You will need to modify your team before you can continue fighting in the Ultimate Arena.\n\n<color=#008B00>★Special Rules:</color>\nYou cannot have more than <color=#DC143C>1</color> hero of the same name in your team.\nMercenaries cannot be used during Elimination Matches."
	},
	{
		"ID": 45,
		"Value": "<color=#008B00>■Ultimate Arena Explanation■</color>\n★All Commanders in the Ultimate Arena will be matched with <color=#DC143C>real players from the same region who meet the requirements</color>. Challenge the limits of your strategic capabilities in intense battles with real-life opponents!\n\n<color=#008B00>★Team Formation:</color>\nAll Commanders must form a team of 15 heroes in order to participate in the Ultimate Arena. These heroes can be composed of heroes personally trained by the commander, or the mercenary heroes who change each week. See the Team Formation interface for detailed rules.\n\n<color=#008B00>★Season Division Rules:</color>\nPlayers participating in the Ultimate Arena must go through the Ranked Match, Points Match, and Elimination Match stages each season.\n<color=#DC143C>◆Ranked Matches:</color>\nYou must go through 5 Ranked Matches to determine your starting tier this season. This tier is based on your final tier in the previous season (if you have no points from the previous season, you will be placed in Bronze III by default) and on your Ranked Match score.\n\n<color=#DC143C>◆Points Matches: </color>\nAfter your Ranked Matches are over, your Points Matches will automatically begin. In Points Matches, defeating your opponent will earn you Season Points. The stronger your opponent, the more points you will obtain from a winning streak. If you are defeated, points will be deducted.\n<color=#DC143C>Tier Protection System:</color> If you are at Silver Tier, you cannot be demoted to Bronze. If you are at Gold, you cannot be demoted to Silver. When in-between tiers, you will only be demoted if you are defeated twice consecutively.\n<color=#DC143C>Promotion & Points Resetting:</color> When you are promoted, your points will be recalculated starting from the lowest points for that tier +1.\n<color=#DC143C>Penalties for Malicious Behavior: </color>If the system detects malicious behavior in your matches, offenders will no longer be able to participate in Conquest matches.\n\n<color=#DC143C>◆Elimination Matches:</color>\nAfter your Points Matches are over, Commanders <color=#DC143C>ranked within the Top 256</color> will automatically enter the Elimination Match bracket. Elimination Match division status can be viewed in the Matches interface once Elimination Matches have begun.<color=#DC143C> Mercenaries cannot be used during Elimination Matches</color>.\nElimination Matches use a <color=#DC143C>BO3 System</color>, and <color=#DC143C>Back-up Formations can be used</color>.\nNon-participating Commanders can provide Aid to their favorite contestants. Detailed rules can be viewed after Elimination Matches have begun.\n\n<color=#008B00>★Final Tallying Stage:</color>\nCorresponding rewards will be awarded according to the final results of the Elimination Match stage. Afterwards, the points of all players will be cleared for the season, and initial points for the next season's Ranked Match phase will be awarded based on the season's final results.\n\n<color=#008B00>★Battle Rules:</color>\n<color=#008B00>◆Pre-battle Ban-Pick Phase:</color>\nIn Regular Match mode, both players must ban and pick to determine the final heroes that will be used.\n<color=#DC143C>Selection Phase Rules:</color>\n1. Player 2 bans a hero for Player 1.\n2. Player 1 bans a hero for Player 2 and selects 1 hero.\n3. Player 2 bans two heroes for Player 1 and selects 1 hero.\n4. Player 2 bans a hero for Player 2 and deploys 1 hero.\nRepeat steps 3-4 until both players have deployed 5 heroes.\n<color=#008B00>◆Pre-battle Phase:</color>\nWhen preparing for battle, you will only know the heroes that your opponent is using. You can also customize the position, skills, and soldiers of the heroes you are using.\n<color=#008B00>◆Battle Phase:</color>\nAfter <color=#DC143C>2 turns</color>, a <color=#DC143C>poisonous damaging terrain</color> effect will begin spreading toward the center of the battlefield.\n\n<color=#008B00>★Rewards:</color>\n<color=#DC143C>Chests: </color>Obtained after your first Conquest victory each week. (Not available during off-season and Elimination Matches.)\n<color=#DC143C>Weekly Tier Reward:</color> Sent via mail every Sunday at 22:00 according to tier.\n<color=#DC143C>Season Tier Reward:</color> During Points Matches, once you complete 10 or more matches and reach a certain tier, you will receive the corresponding rewards via mail upon meeting the conditions.\n<color=#DC143C>Elimination Match Reward:</color> An exclusive reward for participants that differs depending on ranking. Issued at the end of the Elimination Match phase. The Apex Champion will also receive an <color=#DC143C>Official Mystery Prize</color>."
	},
	{
		"ID": 46,
		"Value": "<color=#008B00>△Elimination Match Participants, Please Note:</color>\n1. During the Elimination Match phase, competitors <color=#DC143C>cannot use Mercenaries.</color>\n2. Participants must prepare for battle within the scheduled start time (tap \"Challenge\" in the Ultimate Arena interface). <color=#DC143C>Players who have not prepared before the time limit expires will automatically be disqualified.</color>\n3. You cannot edit your team after the specified start time. Please make sure that you have arranged your team before the match starts. (Note: Teams of less than 15 will not be able to participate.) Teams can only be edited again after the battle is over.\n4. The Elimination Match uses a <color=#DC143C>BO3 System</color>. The BO3 Division consists of continuous battles until a final winner is determined. Please try to ensure that you participate with a stable network connection. During the BO3 Division, retreating during a battle is considered a defeat for the current battle. If there are still matches left (e.g. your overall score is 1:0 after retreating), then you will enter the preparation phase for the next match.\n5. Whether you go first or not in the first BO3 round will be decided randomly, and <color=#DC143C>the loser can decide the attack order in the next round</color>.\n6. We ask all participants to safeguard their account privacy. If an abnormal login occurs during the match (e.g. your account is logged in on another device during the match), you will be <color=#DC143C>eliminated</color>.\n\n<color=#008B00>△Back-up Formation Function:</color>\n1. Back-up Formations <color=#DC143C>can only be used in BO3 Matches</color>, and can be left empty.\n2. You must use your Main Formation in the first round. After that, before the second and third round's matches, you can switch the heroes in your Back-up Formation and Main Formation, and then decide upon a final 15-hero formation.\n\n<color=#008B00>△Elimination Match Peripheral Features:</color>\n1. <color=#DC143C>Match Live Stream</color>: Non-participating Commanders can enter the Battle Room to directly watch players' matches during Elimination Matches. You can send real-time \"bullet screen\" comments during live streams. To ensure fairness, the system will implement a delay on live stream matches.\n2. <color=#DC143C>Match Aid</color>: After the Elimination Match has entered the Top 16 (Final Round), all Commanders that meet the level requirements on the match day will automatically receive <color=#DC143C>Aid Tickets</color>. Before the match has formally begun, non-participating players can Aid their favorite contestants in the Matches interface. If the player you Aid gains victory, you will gain corresponding rewards (rewards will be sent by the system via mail after the battle is over). You can use Aid on multiple matches each day, but you may only Aid one side in a match and cannot exceed the daily maximum Aid limit."
	},
	{
		"ID": 47,
		"Value": "<color=#008B00>◆Ancient Beckoning Explanation◆</color>\nTake on an army of <color=#DC143C>Ancient Beasts</color> in the Ancient Beckoning event. These fierce Ancient Beasts <color=#DC143C>cannot be defeated</color>, so try to defeat as many of them as possible before your party is wiped out. You'll be <color=#DC143C>evaluated</color> based on your <color=#DC143C>highest score</color>. \n\n<color=#008B00>◆Event Period◆</color>\nEach event period lasts <color=#DC143C>30 days</color>. \nThere are a total of <color=#DC143C>5</color> Ancient Beasts in each period of the event. \nEach Ancient Beast is released for <color=#DC143C>6 days</color> and is <color=#DC143C>cycled</color> sequentially. \n\n<color=#008B00>◆Battle Rules◆</color>\nAncient Beasts are <color=#DC143C>undefeatable</color>. \nEach Ancient Beast has <color=#DC143C>multiple phases</color>. When their HP is reduced to zero, they will enter the next phase, and thus continues the <color=#DC143C>cycle</color>.\nPlayers must deal <color=#DC143C>as much damage as possible</color> <color=#DC143C>before their heroes are wiped out</color>. \n\n<color=#008B00>◆Superior Formations◆</color>\nDuring <color=#DC143C>designated Ancient Beast</color> battles, deploying corresponding Superior Formation characters will grant a <color=#DC143C>100% increase to all stats</color>. This effect <color=#DC143C>cannot stack with Fusion Power</color>. \nNidhogg - Superior Formation: <color=#DC143C>Princess Alliance, Yeless Legends</color>\nFenrir - Superior Formation: <color=#DC143C>Dark Reincarnation, Extraordinary Realm</color>\nSleipnir - Superior Formation: <color=#DC143C>Empire's Honor, Strategic Masters</color>\nHugin & Munin - Superior Formation: <color=#DC143C>Protagonists, Legion of Glory</color>\nJormungandr - Superior Formation: <color=#DC143C>Origins of Light, Meteor Strike</color>\n\n<color=#008B00>◆Reward Explanation◆</color>\nUnlike other playing modes, Ancient Beckoning <color=#DC143C>does not grant rewards for individual battles</color> and also <color=#DC143C>does not consume Stamina</color>. Ancient Beckoning challenge rewards are delivered via mail <color=#DC143C>on a weekly-calculated basis</color>. The main types are as follows: \n-<color=#008B00>Achievement Rewards</color>-\nEach Ancient Beast has its own <color=#DC143C>Achievement List</color>. Players can claim the <color=#DC143C>corresponding rewards</color> for achievements in the list after accomplishing them in battle.\n \n-<color=#008B00>6-Day Rewards</color>-\nWithin the <color=#DC143C>6-day</color> period for which each Ancient Beast appears, the <color=#DC143C>highest total amount of damage dealt within those 6 days</color> will be recorded, and you will be given an appropriate <color=#DC143C>evaluation</color> based on this damage. After results are tallied, <color=#DC143C>a reward based on your evaluation</color> will be delivered to you via mail. After results are tallied, your highest damage and evaluation for that Ancient Beast will be <color=#DC143C>reset</color>.\n \n-<color=#008B00>Weekly Ranking Reward</color>-\nEach Ancient Beast has a corresponding <color=#DC143C>Ranking</color>. The higher a player's <color=#DC143C>damage</color>, the higher their <color=#DC143C>rank</color>, and thus the more <color=#DC143C>points</color> they will receive. Ranking is calculated once every 30 days, at which time all Ancient Beast Points will be aggregated in the Total Ranking as <color=#DC143C>Total Points</color>. The system will rank players according to their total points and distribute <color=#DC143C>corresponding ranking rewards</color>."
	},
	{
		"ID": 48,
		"Value": "<color=#008B00>◆Ancient Beckoning Explanation◆</color>\nTake on an army of <color=#DC143C>Ancient Beasts</color> in the Ancient Beckoning event. These fierce Ancient Beasts <color=#DC143C>cannot be defeated</color>, so try to defeat as many of them as possible before your party is wiped out. You'll be <color=#DC143C>evaluated</color> based on your <color=#DC143C>highest score</color>. \n\n<color=#008B00>◆Event Period◆</color>\nEach event period lasts <color=#DC143C>30 days</color>. \nThere are a total of <color=#DC143C>5</color> Ancient Beasts in each period of the event. \nEach Ancient Beast is released for <color=#DC143C>6 days</color> and is <color=#DC143C>cycled</color> sequentially. \n\n<color=#008B00>◆Battle Rules◆</color>\nAncient Beasts are <color=#DC143C>undefeatable</color>. \nEach Ancient Beast has <color=#DC143C>multiple phases</color>. When their HP is reduced to zero, they will enter the next phase, and thus continues the <color=#DC143C>cycle</color>.\nPlayers must deal <color=#DC143C>as much damage as possible</color> <color=#DC143C>before their heroes are wiped out</color>. \n\n<color=#008B00>◆Superior Formations◆</color>\nDuring <color=#DC143C>designated Ancient Beast</color> battles, deploying corresponding Superior Formation characters will grant a <color=#DC143C>100% increase to all stats</color>. This effect <color=#DC143C>cannot stack with Fusion Power</color>. \nNidhogg - Superior Formation: <color=#DC143C>Princess Alliance, Yeless Legends</color>\nFenrir - Superior Formation: <color=#DC143C>Dark Reincarnation, Extraordinary Realm</color>\nSleipnir - Superior Formation: <color=#DC143C>Empire's Honor, Strategic Masters</color>\nHugin & Munin - Superior Formation: <color=#DC143C>Protagonists, Legion of Glory</color>\nJormungandr - Superior Formation: <color=#DC143C>Origins of Light, Meteor Strike</color>\n\n<color=#008B00>◆Reward Explanation◆</color>\nUnlike other playing modes, Ancient Beckoning <color=#DC143C>does not grant rewards for individual battles</color> and also <color=#DC143C>does not consume Stamina</color>. Ancient Beckoning challenge rewards are delivered via mail <color=#DC143C>on a weekly-calculated basis</color>. The main types are as follows: \n-<color=#008B00>Achievement Rewards</color>-\nEach Ancient Beast has its own <color=#DC143C>Achievement List</color>. Players can claim the <color=#DC143C>corresponding rewards</color> for achievements in the list after accomplishing them in battle.\n \n-<color=#008B00>6-Day Rewards</color>-\nWithin the <color=#DC143C>6-day</color> period for which each Ancient Beast appears, the <color=#DC143C>highest total amount of damage dealt within those 6 days</color> will be recorded, and you will be given an appropriate <color=#DC143C>evaluation</color> based on this damage. After results are tallied, <color=#DC143C>a reward based on your evaluation</color> will be delivered to you via mail. After results are tallied, your highest damage and evaluation for that Ancient Beast will be <color=#DC143C>reset</color>.\n \n-<color=#008B00>Weekly Ranking Reward</color>-\nEach Ancient Beast has a corresponding <color=#DC143C>Ranking</color>. The higher a player's <color=#DC143C>damage</color>, the higher their <color=#DC143C>rank</color>, and thus the more <color=#DC143C>points</color> they will receive. Ranking is calculated once every 30 days, at which time all Ancient Beast Points will be aggregated in the Total Ranking as <color=#DC143C>Total Points</color>. The system will rank players according to their total points and distribute <color=#DC143C>corresponding ranking rewards</color>."
	},
	{
		"ID": 49,
		"Value": "Hero Card Page Description Test"
	},
	{
		"ID": 50,
		"Value": "<color=#008B00>◆Forbidden Battleground Info◆</color> \n★After two months, the tide will shift again, and <color=#DC143C>the Forbidden Battleground</color> will emerge from the long river of time! \n★<color=#DC143C>There are 4 groups for the Forbidden Battleground.</color> The event will last 4 weeks, and a new battlefield will be opened every week. \n★<color=#DC143C>No Stamina will be used to enter the Forbidden Battleground, and players can challenge this event an unlimited number of times</color>, anytime during the event period! \n★<color=#DC143C>You will only be rewarded once for each level!</color> \n★You will need to complete the previous levels before being able to challenge the later ones. \n★When the tide shifts every 2 months, your strength and the strength of your enemies will be stronger than normal. \n★Some battlefield levels will feature combat achievements. Players who complete these achievements will get the corresponding rewards! \n★You will be able to get <color=#DC143C>\"Ancient Coins\"</color> by completing levels. You can exchange Ancient Coins for rewards at the Forbidden Store"
	},
	{
		"ID": 51,
		"Value": "1. Daily Mission <color=#DC143C>EXP</color> increased.\n2. Aniki's Gym <color=#DC143C>Daily Challenge Rewards</color> increased.\n3. Goddess Trial <color=#DC143C>Daily Challenge Rewards</color> increased.\n4. Bonding Realm <color=#DC143C>Daily Challenge Rewards</color> increased.\n5. Angelica's Special Training School <color=#DC143C>Daily Challenge Rewards</color> increased.\n6. Time Rift <color=#DC143C>Challenge Rewards</color> increased (excluding first completion).\n7. Daily <color=#DC143C> Treasure Keys</color> +1."
	},
	{
		"ID": 52,
		"Value": "<color=#008B00>◆Magic Tower Conquest Details◆</color>\n★The latest, most popular strategy game in Yeless! Commanders engage in an exercise of strategy and tactics with another player on the <color=#DC143C>Magic Tower Conquest</color> game board. Show off your ingenuity as a military tactician! \n\n<color=#008B00>◆Battle Rules◆</color>\n★Each Commander has two <color=#DC143C>Vanguard Demon Towers</color> and one <color=#DC143C>Core Demon Tower</color>. Each player must attack the opponent's <color=#DC143C>Core Demon Tower</color> using <color=#DC143C>Hero Pieces</color> and <color=#DC143C>Strategic Skills</color>. Whichever Commander destroys the opposing <color=#DC143C>Core Demon Tower</color> wins. \n★At the start of each turn, both Commanders can place <color=#DC143C>Hero Pieces</color> and cast <color=#DC143C>Strategic Skills</color>. Once the battle begins, Hero Pieces move automatically under AI control according to the sequence in which they were deployed. \n★The <color=#DC143C>Unflinching</color> effects of all Hero Pieces can only be triggered <color=#DC143C>once</color>. \n★The <color=#DC143C>Arena Mastery Stats</color> of Hero Pieces are all effective in Magic Tower Conquest. \n\n<color=#008B00>◆Game Modes◆</color>\n★Ranked Mode and Casual Mode: Commanders are matched with another Brave Conquest player who is also currently online. \n★In Ranked Mode, Commanders gain <color=#DC143C>Conquest Points</color> for winning. Conquest Points are used to determine <color=#DC143C>rankings</color> and rewards. \n★In Ranked Mode, players with less than <color=#DC143C>900</color> points will not lose points upon losing a match. \n★In Training Mode, Commanders can play against a <color=#DC143C>simulated opponent</color>. Training Mode can be played repeatedly to get familiar with the basic controls and flow of Magic Tower Conquest. The outcomes are not counted in your statistics. \n\n<color=#008B00>◆Strategic Skill Addition Rules◆</color>\n★Every 7 days, a new Strategic Skill is added to the pool of skills for Commanders to choose from. \n\n<color=#008B00>◆Rewards◆</color>\n★Mission Rewards: After completing <color=#DC143C>Weekly Missions</color>, you will receive corresponding mission rewards. Missions are updated <color=#DC143C>every 7 days</color>. \n★Achievement Rewards: After accomplishing <color=#DC143C>Achievement Goals</color>, you can claim the corresponding rewards for that achievement. Rewards for the same achievement can only be claimed once. \n★Ranking Rewards: After the Magic Tower Conquest event ends, ranking rewards will be issued according to your <color=#DC143C>ranking</color>."
	},
	{
		"ID": 53,
		"Value": "<color=#008B00>◆Magic Tower Conquest Team Formation Instructions◆</color>\n\n<color=#008B00>★Hero Piece Formation</color>: All Commanders must assemble a team of <color=#DC143C>24 Hero Pieces</color> to be able to participate in Magic Tower Conquest matches. These Hero Pieces can be Heroes that you have trained yourself, or they can be <color=#DC143C>Mercenary</color> pieces. \n\n<color=#008B00>★Equipping Piece Skills</color>\nIn Magic Tower Conquest, each Hero Piece <color=#DC143C>can only carry one skill</color>. \n\n<color=#008B00>★Strategic Skills</color>\nCommanders can select <color=#DC143C>3</color> Strategic Skills. Each Strategic Skill has a <color=#DC143C>certain number of times</color> that it can be used in battle. \nThe list of Strategic Skills is updated <color=#DC143C>every seven days</color>."
	},
	{
		"ID": 54,
		"Value": "<color=#008B00>◆Battle Rules◆</color>\n<color=#008B00>★Demon Towers:</color> \nEach Commander has two <color=#DC143C>Vanguard Demon Towers</color> and one <color=#DC143C>Core Demon Tower</color>. Eliminate the enemy's <color=#DC143C>Core Demon Tower</color> first to win. Heroes deal 3 points of fixed damage each time they attack a Demon Tower. However, they also suffer the Demon Tower's debuff and lose 50% HP. AoE damage deals 1 point of fixed damage to Demon Towers, and the attacking Hero does not take extra damage. \n\n<color=#008B00>★Hero Pieces:</color> \nEach time a Hero Piece is deployed, it consumes <color=#DC143C>3 points</color> of Demon Tower Energy, which can be replenished at the start of each turn and by destroying enemy Hero Pieces. A maximum of 5 pieces can be placed on the battlefield. If less than 5 are placed, then the remaining Hero Pieces will be randomly selected and added to the battlefield at the beginning of the turn. \n\n<color=#008B00>★Strategic Skills</color> \nCommanders can use up to 3 Strategic Skills. After both Commanders have deployed their Hero Pieces each turn, the game enters the <color=#DC143C>Strategic Skill</color> casting phase. Each Strategic Skill can be <color=#DC143C>used a limited number of times</color> each turn. Once you have already used a Strategic Skill the maximum number of times in a round, you will be unable to continue using it. \n<color=#008B00>★Battle Phase:</color> \nAfter the battle begins, Hero Pieces <color=#DC143C>automatically</color> engage in combat according the sequence in which they were deployed.<color=#DC143C> Newly deployed</color> Hero Pieces <color=#DC143C>act first</color>. Note that Hero Pieces will only attack a Demon Tower if it is <color=#DC143C>the only</color> enemy in range. Once all Hero Pieces have taken action, the next turn commences. Whichever player's hero last took action will take action second in the next round. \n\n<color=#008B00>★Vanguard Demon Towers:</color> \nWhen a Vanguard Demon Tower is <color=#DC143C>destroyed</color>, the deployment points near the Vanguard Demon Tower <color=#DC143C>become the enemy's</color>. \n\n<color=#008B00>★Victory Conditions:</color> \nWhoever destroys the opposing <color=#DC143C>Core Demon Tower</color> within 12 turns wins.<color=#DC143C> At the end of the 12th round</color>, if neither side's Core Demon Tower has been destroyed, the side with the most remaining Demon Towers <color=#DC143C>wins immediately</color>. If the scores are tied, the match enters a <color=#DC143C>3</color>-round <color=#DC143C>Sudden Death Mode</color>: Whichever side destroys an enemy Demon Tower first <color=#DC143C>wins immediately</color>. If neither side has won after <color=#DC143C>3</color> rounds, the outcome will be decided according to the <color=#DC143C>number of remaining Hero Pieces</color>. If both sides have the same number of Hero Pieces remaining, then the side that dealt the most <color=#DC143C>total damage</color> wins. \n\n<color=#008B00>★Special Rules:</color> \nIn Magic Tower Conquest, the <color=#DC143C>Unflinching</color> effects of all Hero Pieces can only be triggered <color=#DC143C>once</color>."
	}
]