[
	{
		"ID": 1,
		"Name": "Reversal of Fate",
		"Desc": "If history can be fabricated, what will be the fate of its heroes?",
		"LevelList": [
			1,
			2,
			3,
			4,
			5
		],
		"Image": "UI/HeroAnthem_ABS/UI_HeroAnthem_1.png",
		"UpSkillID": 77000
	},
	{
		"ID": 2,
		"Name": "Chariot of Fate",
		"Desc": "The wheel of time churns on. The fate of a hero lies within!",
		"LevelList": [
			6,
			7,
			8,
			9,
			10
		],
		"Image": "UI/HeroAnthem_ABS/UI_HeroAnthem_2.png",
		"UpSkillID": 77000
	}
]