[
	{
		"ID": 1,
		"Reward": [
			{
				"GoodsType": "GoodsType_Crystal",
				"Id": 0,
				"Count": 5
			},
			{
				"GoodsType": "GoodsType_ArenaHonour",
				"Id": 0,
				"Count": 2
			}
		],
		"VictoryPoints": 4
	},
	{
		"ID": 2,
		"Reward": [
			{
				"GoodsType": "GoodsType_Item",
				"Id": 4000,
				"Count": 1
			},
			{
				"GoodsType": "GoodsType_ArenaHonour",
				"Id": 0,
				"Count": 3
			}
		],
		"VictoryPoints": 8
	},
	{
		"ID": 3,
		"Reward": [
			{
				"GoodsType": "GoodsType_Crystal",
				"Id": 0,
				"Count": 10
			},
			{
				"GoodsType": "GoodsType_ArenaHonour",
				"Id": 0,
				"Count": 5
			}
		],
		"VictoryPoints": 12
	}
]