[
	{
		"ID": 1,
		"Title": "Fusspot I",
		"Desc": "Eliminate 20 Enemy Heroes in Conquest Battles.",
		"RushBattleMissionPeriodType": "RushBattleMissionPeriodType_Week",
		"RushBattleMissionShowType": "RushBattleMissionShowType_Period",
		"RushBattleActivityId": 1,
		"RushBattleMissionType": "RushBattleMissionType_EnemyHeroesKilledNums",
		"Param1": 1,
		"Param2": 20,
		"Param3": 0,
		"Param4": 0,
		"Reward": [
			{
				"GoodsType": "GoodsType_Item",
				"Id": 3016,
				"Count": 150
			}
		]
	},
	{
		"ID": 2,
		"Title": "Fusspot II",
		"Desc": "Eliminate 50 Enemy Heroes in Conquest Battles.",
		"RushBattleMissionPeriodType": "RushBattleMissionPeriodType_Week",
		"RushBattleMissionShowType": "RushBattleMissionShowType_Period",
		"RushBattleActivityId": 1,
		"RushBattleMissionType": "RushBattleMissionType_EnemyHeroesKilledNums",
		"Param1": 1,
		"Param2": 50,
		"Param3": 0,
		"Param4": 0,
		"Reward": [
			{
				"GoodsType": "GoodsType_Item",
				"Id": 4534,
				"Count": 1
			}
		]
	},
	{
		"ID": 3,
		"Title": "Fusspot III",
		"Desc": "Eliminate 80 Enemy Heroes in Conquest Battles.",
		"RushBattleMissionPeriodType": "RushBattleMissionPeriodType_Week",
		"RushBattleMissionShowType": "RushBattleMissionShowType_Period",
		"RushBattleActivityId": 1,
		"RushBattleMissionType": "RushBattleMissionType_EnemyHeroesKilledNums",
		"Param1": 1,
		"Param2": 80,
		"Param3": 0,
		"Param4": 0,
		"Reward": [
			{
				"GoodsType": "GoodsType_Item",
				"Id": 4057,
				"Count": 3
			}
		]
	},
	{
		"ID": 4,
		"Title": "Illegal Demolition I",
		"Desc": "Destroy 2 enemy Demon Towers in Conquest Battles.",
		"RushBattleMissionPeriodType": "RushBattleMissionPeriodType_Week",
		"RushBattleMissionShowType": "RushBattleMissionShowType_Period",
		"RushBattleActivityId": 1,
		"RushBattleMissionType": "RushBattleMissionType_TowersRemovedNums",
		"Param1": 1,
		"Param2": 2,
		"Param3": 0,
		"Param4": 0,
		"Reward": [
			{
				"GoodsType": "GoodsType_Gold",
				"Id": 0,
				"Count": 100000
			}
		]
	},
	{
		"ID": 5,
		"Title": "Illegal Demolition II",
		"Desc": "Destroy 4 enemy Demon Towers in Conquest Battles.",
		"RushBattleMissionPeriodType": "RushBattleMissionPeriodType_Week",
		"RushBattleMissionShowType": "RushBattleMissionShowType_Period",
		"RushBattleActivityId": 1,
		"RushBattleMissionType": "RushBattleMissionType_TowersRemovedNums",
		"Param1": 1,
		"Param2": 4,
		"Param3": 0,
		"Param4": 0,
		"Reward": [
			{
				"GoodsType": "GoodsType_Gold",
				"Id": 0,
				"Count": 200000
			}
		]
	},
	{
		"ID": 6,
		"Title": "Illegal Demolition III",
		"Desc": "Destroy 6 enemy Demon Towers in Conquest Battles.",
		"RushBattleMissionPeriodType": "RushBattleMissionPeriodType_Week",
		"RushBattleMissionShowType": "RushBattleMissionShowType_Period",
		"RushBattleActivityId": 1,
		"RushBattleMissionType": "RushBattleMissionType_TowersRemovedNums",
		"Param1": 1,
		"Param2": 6,
		"Param3": 0,
		"Param4": 0,
		"Reward": [
			{
				"GoodsType": "GoodsType_Gold",
				"Id": 0,
				"Count": 300000
			}
		]
	},
	{
		"ID": 7,
		"Title": "Born to Win I",
		"Desc": "Win 1 Conquest Battle.",
		"RushBattleMissionPeriodType": "RushBattleMissionPeriodType_Week",
		"RushBattleMissionShowType": "RushBattleMissionShowType_Period",
		"RushBattleActivityId": 1,
		"RushBattleMissionType": "RushBattleMissionType_WinningNums",
		"Param1": 1,
		"Param2": 1,
		"Param3": 0,
		"Param4": 0,
		"Reward": [
			{
				"GoodsType": "GoodsType_Crystal",
				"Id": 0,
				"Count": 10
			}
		]
	},
	{
		"ID": 8,
		"Title": "Born to Win II",
		"Desc": "Win 3 Conquest Battles.",
		"RushBattleMissionPeriodType": "RushBattleMissionPeriodType_Week",
		"RushBattleMissionShowType": "RushBattleMissionShowType_Period",
		"RushBattleActivityId": 1,
		"RushBattleMissionType": "RushBattleMissionType_WinningNums",
		"Param1": 1,
		"Param2": 3,
		"Param3": 0,
		"Param4": 0,
		"Reward": [
			{
				"GoodsType": "GoodsType_Crystal",
				"Id": 0,
				"Count": 20
			}
		]
	},
	{
		"ID": 9,
		"Title": "Born to Win III",
		"Desc": "Win 5 Conquest Battles.",
		"RushBattleMissionPeriodType": "RushBattleMissionPeriodType_Week",
		"RushBattleMissionShowType": "RushBattleMissionShowType_Period",
		"RushBattleActivityId": 1,
		"RushBattleMissionType": "RushBattleMissionType_WinningNums",
		"Param1": 1,
		"Param2": 5,
		"Param3": 0,
		"Param4": 0,
		"Reward": [
			{
				"GoodsType": "GoodsType_Item",
				"Id": 4001,
				"Count": 1
			}
		]
	},
	{
		"ID": 10,
		"Title": "Table Tennis Hero I",
		"Desc": "Eliminate 100 enemy heroes in matched battles.",
		"RushBattleMissionPeriodType": "RushBattleMissionPeriodType_OneOff",
		"RushBattleMissionShowType": "RushBattleMissionShowType_Achievement",
		"RushBattleActivityId": 1,
		"RushBattleMissionType": "RushBattleMissionType_EnemyHeroesKilledNums",
		"Param1": 0,
		"Param2": 100,
		"Param3": 0,
		"Param4": 0,
		"Reward": [
			{
				"GoodsType": "GoodsType_Gold",
				"Id": 0,
				"Count": 100000
			}
		]
	},
	{
		"ID": 11,
		"Title": "Table Tennis Hero II",
		"Desc": "Eliminate 200 enemy heroes in matched battles.",
		"RushBattleMissionPeriodType": "RushBattleMissionPeriodType_OneOff",
		"RushBattleMissionShowType": "RushBattleMissionShowType_Achievement",
		"RushBattleActivityId": 1,
		"RushBattleMissionType": "RushBattleMissionType_EnemyHeroesKilledNums",
		"Param1": 0,
		"Param2": 200,
		"Param3": 0,
		"Param4": 0,
		"Reward": [
			{
				"GoodsType": "GoodsType_Gold",
				"Id": 0,
				"Count": 200000
			}
		]
	},
	{
		"ID": 12,
		"Title": "Table Tennis Hero III",
		"Desc": "Eliminate 300 enemy heroes in matched battles.",
		"RushBattleMissionPeriodType": "RushBattleMissionPeriodType_OneOff",
		"RushBattleMissionShowType": "RushBattleMissionShowType_Achievement",
		"RushBattleActivityId": 1,
		"RushBattleMissionType": "RushBattleMissionType_EnemyHeroesKilledNums",
		"Param1": 0,
		"Param2": 300,
		"Param3": 0,
		"Param4": 0,
		"Reward": [
			{
				"GoodsType": "GoodsType_Gold",
				"Id": 0,
				"Count": 300000
			}
		]
	},
	{
		"ID": 13,
		"Title": "Table Tennis Hero IV",
		"Desc": "Eliminate 400 enemy heroes in matched battles.",
		"RushBattleMissionPeriodType": "RushBattleMissionPeriodType_OneOff",
		"RushBattleMissionShowType": "RushBattleMissionShowType_Achievement",
		"RushBattleActivityId": 1,
		"RushBattleMissionType": "RushBattleMissionType_EnemyHeroesKilledNums",
		"Param1": 0,
		"Param2": 400,
		"Param3": 0,
		"Param4": 0,
		"Reward": [
			{
				"GoodsType": "GoodsType_Gold",
				"Id": 0,
				"Count": 400000
			}
		]
	},
	{
		"ID": 14,
		"Title": "Ready or Not I",
		"Desc": "Destroy 10 enemy Demon Towers in matched battles.",
		"RushBattleMissionPeriodType": "RushBattleMissionPeriodType_OneOff",
		"RushBattleMissionShowType": "RushBattleMissionShowType_Achievement",
		"RushBattleActivityId": 1,
		"RushBattleMissionType": "RushBattleMissionType_TowersRemovedNums",
		"Param1": 0,
		"Param2": 10,
		"Param3": 0,
		"Param4": 0,
		"Reward": [
			{
				"GoodsType": "GoodsType_BrillianceMithralStone",
				"Id": 0,
				"Count": 120
			}
		]
	},
	{
		"ID": 15,
		"Title": "Ready or Not II",
		"Desc": "Destroy 15 enemy Demon Towers in matched battles.",
		"RushBattleMissionPeriodType": "RushBattleMissionPeriodType_OneOff",
		"RushBattleMissionShowType": "RushBattleMissionShowType_Achievement",
		"RushBattleActivityId": 1,
		"RushBattleMissionType": "RushBattleMissionType_TowersRemovedNums",
		"Param1": 0,
		"Param2": 15,
		"Param3": 0,
		"Param4": 0,
		"Reward": [
			{
				"GoodsType": "GoodsType_BrillianceMithralStone",
				"Id": 0,
				"Count": 160
			}
		]
	},
	{
		"ID": 16,
		"Title": "Ready or Not III",
		"Desc": "Destroy 25 enemy Demon Towers in matched battles.",
		"RushBattleMissionPeriodType": "RushBattleMissionPeriodType_OneOff",
		"RushBattleMissionShowType": "RushBattleMissionShowType_Achievement",
		"RushBattleActivityId": 1,
		"RushBattleMissionType": "RushBattleMissionType_TowersRemovedNums",
		"Param1": 0,
		"Param2": 25,
		"Param3": 0,
		"Param4": 0,
		"Reward": [
			{
				"GoodsType": "GoodsType_BrillianceMithralStone",
				"Id": 0,
				"Count": 200
			}
		]
	},
	{
		"ID": 17,
		"Title": "Ready or Not IV",
		"Desc": "Destroy 35 enemy Demon Towers in matched battles.",
		"RushBattleMissionPeriodType": "RushBattleMissionPeriodType_OneOff",
		"RushBattleMissionShowType": "RushBattleMissionShowType_Achievement",
		"RushBattleActivityId": 1,
		"RushBattleMissionType": "RushBattleMissionType_TowersRemovedNums",
		"Param1": 0,
		"Param2": 35,
		"Param3": 0,
		"Param4": 0,
		"Reward": [
			{
				"GoodsType": "GoodsType_BrillianceMithralStone",
				"Id": 0,
				"Count": 240
			}
		]
	},
	{
		"ID": 18,
		"Title": "Superior Strategy I",
		"Desc": "Obtain 8 victories in matched battles.",
		"RushBattleMissionPeriodType": "RushBattleMissionPeriodType_OneOff",
		"RushBattleMissionShowType": "RushBattleMissionShowType_Achievement",
		"RushBattleActivityId": 1,
		"RushBattleMissionType": "RushBattleMissionType_WinningNums",
		"Param1": 0,
		"Param2": 8,
		"Param3": 0,
		"Param4": 0,
		"Reward": [
			{
				"GoodsType": "GoodsType_Item",
				"Id": 4502,
				"Count": 3
			}
		]
	},
	{
		"ID": 19,
		"Title": "Superior Strategy II",
		"Desc": "Obtain 12 victories in matched battles.",
		"RushBattleMissionPeriodType": "RushBattleMissionPeriodType_OneOff",
		"RushBattleMissionShowType": "RushBattleMissionShowType_Achievement",
		"RushBattleActivityId": 1,
		"RushBattleMissionType": "RushBattleMissionType_WinningNums",
		"Param1": 0,
		"Param2": 12,
		"Param3": 0,
		"Param4": 0,
		"Reward": [
			{
				"GoodsType": "GoodsType_Item",
				"Id": 4057,
				"Count": 3
			}
		]
	},
	{
		"ID": 20,
		"Title": "Superior Strategy III",
		"Desc": "Obtain 16 victories in matched battles.",
		"RushBattleMissionPeriodType": "RushBattleMissionPeriodType_OneOff",
		"RushBattleMissionShowType": "RushBattleMissionShowType_Achievement",
		"RushBattleActivityId": 1,
		"RushBattleMissionType": "RushBattleMissionType_WinningNums",
		"Param1": 0,
		"Param2": 16,
		"Param3": 0,
		"Param4": 0,
		"Reward": [
			{
				"GoodsType": "GoodsType_Item",
				"Id": 4534,
				"Count": 3
			}
		]
	},
	{
		"ID": 21,
		"Title": "Superior Strategy IV",
		"Desc": "Obtain 20 victories in matched battles.",
		"RushBattleMissionPeriodType": "RushBattleMissionPeriodType_OneOff",
		"RushBattleMissionShowType": "RushBattleMissionShowType_Achievement",
		"RushBattleActivityId": 1,
		"RushBattleMissionType": "RushBattleMissionType_WinningNums",
		"Param1": 0,
		"Param2": 20,
		"Param3": 0,
		"Param4": 0,
		"Reward": [
			{
				"GoodsType": "GoodsType_Item",
				"Id": 4541,
				"Count": 3
			}
		]
	},
	{
		"ID": 22,
		"Title": "Tactical Talent I",
		"Desc": "Obtain 1,100 Conquest Points.",
		"RushBattleMissionPeriodType": "RushBattleMissionPeriodType_OneOff",
		"RushBattleMissionShowType": "RushBattleMissionShowType_Achievement",
		"RushBattleActivityId": 1,
		"RushBattleMissionType": "RushBattleMissionType_CreditUp2",
		"Param1": 1100,
		"Param2": 0,
		"Param3": 0,
		"Param4": 0,
		"Reward": [
			{
				"GoodsType": "GoodsType_Crystal",
				"Id": 0,
				"Count": 80
			}
		]
	},
	{
		"ID": 23,
		"Title": "Tactical Talent II",
		"Desc": "Obtain 1,200 Conquest Points.",
		"RushBattleMissionPeriodType": "RushBattleMissionPeriodType_OneOff",
		"RushBattleMissionShowType": "RushBattleMissionShowType_Achievement",
		"RushBattleActivityId": 1,
		"RushBattleMissionType": "RushBattleMissionType_CreditUp2",
		"Param1": 1200,
		"Param2": 0,
		"Param3": 0,
		"Param4": 0,
		"Reward": [
			{
				"GoodsType": "GoodsType_Crystal",
				"Id": 0,
				"Count": 120
			}
		]
	},
	{
		"ID": 24,
		"Title": "Tactical Talent III",
		"Desc": "Obtain 1,300 Conquest Points.",
		"RushBattleMissionPeriodType": "RushBattleMissionPeriodType_OneOff",
		"RushBattleMissionShowType": "RushBattleMissionShowType_Achievement",
		"RushBattleActivityId": 1,
		"RushBattleMissionType": "RushBattleMissionType_CreditUp2",
		"Param1": 1300,
		"Param2": 0,
		"Param3": 0,
		"Param4": 0,
		"Reward": [
			{
				"GoodsType": "GoodsType_Item",
				"Id": 3203,
				"Count": 20
			}
		]
	},
	{
		"ID": 25,
		"Title": "Tactical Talent IV",
		"Desc": "Obtain 1,400 Conquest Points.",
		"RushBattleMissionPeriodType": "RushBattleMissionPeriodType_OneOff",
		"RushBattleMissionShowType": "RushBattleMissionShowType_Achievement",
		"RushBattleActivityId": 1,
		"RushBattleMissionType": "RushBattleMissionType_CreditUp2",
		"Param1": 1400,
		"Param2": 0,
		"Param3": 0,
		"Param4": 0,
		"Reward": [
			{
				"GoodsType": "GoodsType_Item",
				"Id": 4541,
				"Count": 3
			}
		]
	},
	{
		"ID": 26,
		"Title": "Tactical Talent V",
		"Desc": "Obtain 1,500 Conquest Points.",
		"RushBattleMissionPeriodType": "RushBattleMissionPeriodType_OneOff",
		"RushBattleMissionShowType": "RushBattleMissionShowType_Achievement",
		"RushBattleActivityId": 1,
		"RushBattleMissionType": "RushBattleMissionType_CreditUp2",
		"Param1": 1500,
		"Param2": 0,
		"Param3": 0,
		"Param4": 0,
		"Reward": [
			{
				"GoodsType": "GoodsType_Item",
				"Id": 4541,
				"Count": 3
			}
		]
	}
]