[
	{
		"ID": 1,
		"Name": "Share the Major Update for a Special Gift",
		"StaticImage": "UI/ShareActivityBanner_ABS/ShareActivityBanner01.png",
		"PublicizeImage": "UI/ShareActivityBanner_ABS/ShareActivityBanner01.png",
		"ShareRewardMailTemplateId": 231
	},
	{
		"ID": 2,
		"Name": "Share the Major Update for a Special Gift",
		"StaticImage": "UI/ShareActivityBanner_ABS/ShareActivityBanner02.png",
		"PublicizeImage": "UI/ShareActivityBanner_ABS/ShareActivityBanner02.png",
		"ShareRewardMailTemplateId": 231
	},
	{
		"ID": 3,
		"Name": "Share the Major Update for a Special Gift",
		"StaticImage": "UI/ShareActivityBanner_ABS/ShareActivityBanner03.png",
		"PublicizeImage": "UI/ShareActivityBanner_ABS/ShareActivityBanner03.png",
		"ShareRewardMailTemplateId": 231
	},
	{
		"ID": 4,
		"Name": "Share the Major Update for a Special Gift",
		"StaticImage": "UI/ShareActivityBanner_ABS/ShareActivityBanner04.png",
		"PublicizeImage": "UI/ShareActivityBanner_ABS/ShareActivityBanner04.png",
		"ShareRewardMailTemplateId": 231
	},
	{
		"ID": 5,
		"Name": "Share the Major Update for a Special Gift",
		"StaticImage": "UI/ShareActivityBanner_ABS/ShareActivityBanner05.png",
		"PublicizeImage": "UI/ShareActivityBanner_ABS/ShareActivityBanner05.png",
		"ShareRewardMailTemplateId": 231
	},
	{
		"ID": 6,
		"Name": "Share the Major Update for a Special Gift",
		"StaticImage": "UI/ShareActivityBanner_ABS/ShareActivityBanner07.png",
		"PublicizeImage": "UI/ShareActivityBanner_ABS/ShareActivityBanner07.png",
		"ShareRewardMailTemplateId": 231
	},
	{
		"ID": 7,
		"Name": "Langrisser Cafe Share Gift",
		"StaticImage": "UI/ShareActivityBanner_ABS/ShareActivityBanner06.png",
		"PublicizeImage": "UI/ShareActivityBanner_ABS/ShareActivityBanner06.png",
		"ShareRewardMailTemplateId": 231
	},
	{
		"ID": 8,
		"Name": "Happy New Year",
		"StaticImage": "UI/ShareActivityBanner_ABS/ShareActivityBanner08.png",
		"PublicizeImage": "UI/ShareActivityBanner_ABS/ShareActivityBanner08.png",
		"ShareRewardMailTemplateId": 231
	},
	{
		"ID": 9,
		"Name": "Happy New Year",
		"StaticImage": "UI/ShareActivityBanner_ABS/ShareActivityBanner09.png",
		"PublicizeImage": "UI/ShareActivityBanner_ABS/ShareActivityBanner09.png",
		"ShareRewardMailTemplateId": 231
	},
	{
		"ID": 10,
		"Name": "Happy New Year",
		"StaticImage": "UI/ShareActivityBanner_ABS/ShareActivityBanner10.png",
		"PublicizeImage": "UI/ShareActivityBanner_ABS/ShareActivityBanner10.png",
		"ShareRewardMailTemplateId": 231
	},
	{
		"ID": 11,
		"Name": "Happy New Year",
		"StaticImage": "UI/ShareActivityBanner_ABS/ShareActivityBanner11.png",
		"PublicizeImage": "UI/ShareActivityBanner_ABS/ShareActivityBanner11.png",
		"ShareRewardMailTemplateId": 231
	},
	{
		"ID": 12,
		"Name": "Happy New Year",
		"StaticImage": "UI/ShareActivityBanner_ABS/ShareActivityBanner12.png",
		"PublicizeImage": "UI/ShareActivityBanner_ABS/ShareActivityBanner12.png",
		"ShareRewardMailTemplateId": 231
	},
	{
		"ID": 13,
		"Name": "Happy New Year",
		"StaticImage": "UI/ShareActivityBanner_ABS/ShareActivityBanner13.png",
		"PublicizeImage": "UI/ShareActivityBanner_ABS/ShareActivityBanner13.png",
		"ShareRewardMailTemplateId": 231
	},
	{
		"ID": 14,
		"Name": "Happy New Year",
		"StaticImage": "UI/ShareActivityBanner_ABS/ShareActivityBanner14.png",
		"PublicizeImage": "UI/ShareActivityBanner_ABS/ShareActivityBanner14.png",
		"ShareRewardMailTemplateId": 231
	},
	{
		"ID": 15,
		"Name": "Share the Major Update for a Special Gift",
		"StaticImage": "UI/ShareActivityBanner_ABS/ShareActivityBanner15.png",
		"PublicizeImage": "UI/ShareActivityBanner_ABS/ShareActivityBanner15.png",
		"ShareRewardMailTemplateId": 231
	}
]