[
	{
		"ID": 0,
		"PropertyModifyType": "PropertyModifyType_None",
		"Name": "None",
		"IsAddType": false,
		"IsDynamic": false,
		"PropertyType": "PropertyType_None"
	},
	{
		"ID": 1,
		"PropertyModifyType": "PropertyModifyType_Hero1_HPAdd",
		"Name": "HP",
		"IsAddType": true,
		"IsDynamic": false,
		"PropertyType": "PropertyType_None"
	},
	{
		"ID": 2,
		"PropertyModifyType": "PropertyModifyType_Hero1_ATAdd",
		"Name": "ATK",
		"IsAddType": true,
		"IsDynamic": false,
		"PropertyType": "PropertyType_None"
	},
	{
		"ID": 3,
		"PropertyModifyType": "PropertyModifyType_Hero1_DFAdd",
		"Name": "DEF",
		"IsAddType": true,
		"IsDynamic": false,
		"PropertyType": "PropertyType_None"
	},
	{
		"ID": 4,
		"PropertyModifyType": "PropertyModifyType_Hero1_MagicAdd",
		"Name": "INT",
		"IsAddType": true,
		"IsDynamic": false,
		"PropertyType": "PropertyType_None"
	},
	{
		"ID": 5,
		"PropertyModifyType": "PropertyModifyType_Hero1_MagicDFAdd",
		"Name": "MDEF",
		"IsAddType": true,
		"IsDynamic": false,
		"PropertyType": "PropertyType_None"
	},
	{
		"ID": 6,
		"PropertyModifyType": "PropertyModifyType_Hero1_DEXAdd",
		"Name": "SKILL",
		"IsAddType": true,
		"IsDynamic": false,
		"PropertyType": "PropertyType_None"
	},
	{
		"ID": 7,
		"PropertyModifyType": "PropertyModifyType_Hero1_HPCmdAdd",
		"Name": "Life Command",
		"IsAddType": true,
		"IsDynamic": false,
		"PropertyType": "PropertyType_None"
	},
	{
		"ID": 8,
		"PropertyModifyType": "PropertyModifyType_Hero1_ATCmdAdd",
		"Name": "ATK Command",
		"IsAddType": true,
		"IsDynamic": false,
		"PropertyType": "PropertyType_None"
	},
	{
		"ID": 9,
		"PropertyModifyType": "PropertyModifyType_Hero1_DFCmdAdd",
		"Name": "DEF Command",
		"IsAddType": true,
		"IsDynamic": false,
		"PropertyType": "PropertyType_None"
	},
	{
		"ID": 10,
		"PropertyModifyType": "PropertyModifyType_Hero1_MagicDFCmdAdd",
		"Name": "MDEF Command",
		"IsAddType": true,
		"IsDynamic": false,
		"PropertyType": "PropertyType_None"
	},
	{
		"ID": 11,
		"PropertyModifyType": "PropertyModifyType_Hero1_BFMovePointAdd",
		"Name": "Mobility",
		"IsAddType": true,
		"IsDynamic": false,
		"PropertyType": "PropertyType_None"
	},
	{
		"ID": 12,
		"PropertyModifyType": "PropertyModifyType_Hero1_BFAttackDistanceAdd",
		"Name": "Normal Attack Range",
		"IsAddType": true,
		"IsDynamic": false,
		"PropertyType": "PropertyType_None"
	},
	{
		"ID": 13,
		"PropertyModifyType": "PropertyModifyType_Hero1_CriticalDamageAdd",
		"Name": "Crit Damage",
		"IsAddType": false,
		"IsDynamic": false,
		"PropertyType": "PropertyType_None"
	},
	{
		"ID": 14,
		"PropertyModifyType": "PropertyModifyType_Hero1_CriticalRateAdd",
		"Name": "Crit",
		"IsAddType": false,
		"IsDynamic": false,
		"PropertyType": "PropertyType_None"
	},
	{
		"ID": 15,
		"PropertyModifyType": "PropertyModifyType_Hero1_HPMul",
		"Name": "HP",
		"IsAddType": false,
		"IsDynamic": false,
		"PropertyType": "PropertyType_None"
	},
	{
		"ID": 16,
		"PropertyModifyType": "PropertyModifyType_Hero1_ATMul",
		"Name": "ATK",
		"IsAddType": false,
		"IsDynamic": false,
		"PropertyType": "PropertyType_None"
	},
	{
		"ID": 17,
		"PropertyModifyType": "PropertyModifyType_Hero1_DFMul",
		"Name": "DEF",
		"IsAddType": false,
		"IsDynamic": false,
		"PropertyType": "PropertyType_None"
	},
	{
		"ID": 18,
		"PropertyModifyType": "PropertyModifyType_Hero1_MagicMul",
		"Name": "INT",
		"IsAddType": false,
		"IsDynamic": false,
		"PropertyType": "PropertyType_None"
	},
	{
		"ID": 19,
		"PropertyModifyType": "PropertyModifyType_Hero1_MagicDFMul",
		"Name": "MDEF",
		"IsAddType": false,
		"IsDynamic": false,
		"PropertyType": "PropertyType_None"
	},
	{
		"ID": 20,
		"PropertyModifyType": "PropertyModifyType_Hero1_DEXMul",
		"Name": "SKILL",
		"IsAddType": false,
		"IsDynamic": false,
		"PropertyType": "PropertyType_None"
	},
	{
		"ID": 21,
		"PropertyModifyType": "PropertyModifyType_Hero2_HPAdd",
		"Name": "HP",
		"IsAddType": true,
		"IsDynamic": true,
		"PropertyType": "PropertyType_None"
	},
	{
		"ID": 22,
		"PropertyModifyType": "PropertyModifyType_Hero2_ATAdd",
		"Name": "ATK",
		"IsAddType": true,
		"IsDynamic": true,
		"PropertyType": "PropertyType_None"
	},
	{
		"ID": 23,
		"PropertyModifyType": "PropertyModifyType_Hero2_DFAdd",
		"Name": "DEF",
		"IsAddType": true,
		"IsDynamic": true,
		"PropertyType": "PropertyType_None"
	},
	{
		"ID": 24,
		"PropertyModifyType": "PropertyModifyType_Hero2_MagicAdd",
		"Name": "INT",
		"IsAddType": true,
		"IsDynamic": true,
		"PropertyType": "PropertyType_None"
	},
	{
		"ID": 25,
		"PropertyModifyType": "PropertyModifyType_Hero2_MagicDFAdd",
		"Name": "MDEF",
		"IsAddType": true,
		"IsDynamic": true,
		"PropertyType": "PropertyType_None"
	},
	{
		"ID": 26,
		"PropertyModifyType": "PropertyModifyType_Hero2_DEXAdd",
		"Name": "SKILL",
		"IsAddType": true,
		"IsDynamic": true,
		"PropertyType": "PropertyType_None"
	},
	{
		"ID": 27,
		"PropertyModifyType": "PropertyModifyType_Hero2_HPCmdAdd",
		"Name": "Life Command",
		"IsAddType": true,
		"IsDynamic": true,
		"PropertyType": "PropertyType_None"
	},
	{
		"ID": 28,
		"PropertyModifyType": "PropertyModifyType_Hero2_ATCmdAdd",
		"Name": "ATK Command",
		"IsAddType": true,
		"IsDynamic": true,
		"PropertyType": "PropertyType_None"
	},
	{
		"ID": 29,
		"PropertyModifyType": "PropertyModifyType_Hero2_DFCmdAdd",
		"Name": "DEF Command",
		"IsAddType": true,
		"IsDynamic": true,
		"PropertyType": "PropertyType_None"
	},
	{
		"ID": 30,
		"PropertyModifyType": "PropertyModifyType_Hero2_MagicDFCmdAdd",
		"Name": "MDEF Command",
		"IsAddType": true,
		"IsDynamic": true,
		"PropertyType": "PropertyType_None"
	},
	{
		"ID": 31,
		"PropertyModifyType": "PropertyModifyType_Hero2_BFMovePointAdd",
		"Name": "Mobility",
		"IsAddType": true,
		"IsDynamic": true,
		"PropertyType": "PropertyType_None"
	},
	{
		"ID": 32,
		"PropertyModifyType": "PropertyModifyType_Hero2_BFAttackDistanceAdd",
		"Name": "Normal Attack Range",
		"IsAddType": true,
		"IsDynamic": true,
		"PropertyType": "PropertyType_None"
	},
	{
		"ID": 33,
		"PropertyModifyType": "PropertyModifyType_Hero2_MagicDistanceAdd",
		"Name": "Magic Skill Range",
		"IsAddType": true,
		"IsDynamic": true,
		"PropertyType": "PropertyType_None"
	},
	{
		"ID": 34,
		"PropertyModifyType": "PropertyModifyType_Hero2_PsyDistanceAdd",
		"Name": "Physical Skill Range",
		"IsAddType": true,
		"IsDynamic": true,
		"PropertyType": "PropertyType_None"
	},
	{
		"ID": 35,
		"PropertyModifyType": "PropertyModifyType_Hero2_CriticalDamageAdd",
		"Name": "Crit Damage",
		"IsAddType": false,
		"IsDynamic": true,
		"PropertyType": "PropertyType_None"
	},
	{
		"ID": 36,
		"PropertyModifyType": "PropertyModifyType_Hero2_CriticalRateAdd",
		"Name": "Crit",
		"IsAddType": false,
		"IsDynamic": true,
		"PropertyType": "PropertyType_None"
	},
	{
		"ID": 37,
		"PropertyModifyType": "PropertyModifyType_Hero2_RageEndTurnAdd",
		"Name": "Rage Bonus - Complete action",
		"IsAddType": true,
		"IsDynamic": true,
		"PropertyType": "PropertyType_None"
	},
	{
		"ID": 38,
		"PropertyModifyType": "PropertyModifyType_Hero2_RageBeAttackAdd",
		"Name": "Rage Bonus - Attacked",
		"IsAddType": true,
		"IsDynamic": true,
		"PropertyType": "PropertyType_None"
	},
	{
		"ID": 39,
		"PropertyModifyType": "PropertyModifyType_Hero2_RageKillAdd",
		"Name": "Rage Bonus - Elimination",
		"IsAddType": true,
		"IsDynamic": true,
		"PropertyType": "PropertyType_None"
	},
	{
		"ID": 40,
		"PropertyModifyType": "PropertyModifyType_Hero2_HPMul",
		"Name": "HP",
		"IsAddType": false,
		"IsDynamic": true,
		"PropertyType": "PropertyType_None"
	},
	{
		"ID": 41,
		"PropertyModifyType": "PropertyModifyType_Hero2_ATMul",
		"Name": "ATK",
		"IsAddType": false,
		"IsDynamic": true,
		"PropertyType": "PropertyType_None"
	},
	{
		"ID": 42,
		"PropertyModifyType": "PropertyModifyType_Hero2_DFMul",
		"Name": "DEF",
		"IsAddType": false,
		"IsDynamic": true,
		"PropertyType": "PropertyType_None"
	},
	{
		"ID": 43,
		"PropertyModifyType": "PropertyModifyType_Hero2_MagicMul",
		"Name": "INT",
		"IsAddType": false,
		"IsDynamic": true,
		"PropertyType": "PropertyType_None"
	},
	{
		"ID": 44,
		"PropertyModifyType": "PropertyModifyType_Hero2_MagicDFMul",
		"Name": "MDEF",
		"IsAddType": false,
		"IsDynamic": true,
		"PropertyType": "PropertyType_None"
	},
	{
		"ID": 45,
		"PropertyModifyType": "PropertyModifyType_Hero2_DEXMul",
		"Name": "SKILL",
		"IsAddType": false,
		"IsDynamic": true,
		"PropertyType": "PropertyType_None"
	},
	{
		"ID": 46,
		"PropertyModifyType": "PropertyModifyType_Hero2_PsyDmgMul",
		"Name": "PDamage",
		"IsAddType": false,
		"IsDynamic": true,
		"PropertyType": "PropertyType_None"
	},
	{
		"ID": 47,
		"PropertyModifyType": "PropertyModifyType_Hero2_PsyDmgRecvMul",
		"Name": "Received Physical Damage",
		"IsAddType": false,
		"IsDynamic": true,
		"PropertyType": "PropertyType_None"
	},
	{
		"ID": 48,
		"PropertyModifyType": "PropertyModifyType_Hero2_SuperPsyDmgRecvMul",
		"Name": "Ultimate Received Physical Damage",
		"IsAddType": false,
		"IsDynamic": true,
		"PropertyType": "PropertyType_None"
	},
	{
		"ID": 49,
		"PropertyModifyType": "PropertyModifyType_Hero2_HealMul",
		"Name": "Heal",
		"IsAddType": false,
		"IsDynamic": true,
		"PropertyType": "PropertyType_None"
	},
	{
		"ID": 50,
		"PropertyModifyType": "PropertyModifyType_Hero2_HealRecvMul",
		"Name": "Received Heal Effect",
		"IsAddType": false,
		"IsDynamic": true,
		"PropertyType": "PropertyType_None"
	},
	{
		"ID": 51,
		"PropertyModifyType": "PropertyModifyType_Hero2_MagicDmgMul",
		"Name": "MDamage",
		"IsAddType": false,
		"IsDynamic": true,
		"PropertyType": "PropertyType_None"
	},
	{
		"ID": 52,
		"PropertyModifyType": "PropertyModifyType_Hero2_MagicDmgRecvMul",
		"Name": "MDamage Taken",
		"IsAddType": false,
		"IsDynamic": true,
		"PropertyType": "PropertyType_None"
	},
	{
		"ID": 53,
		"PropertyModifyType": "PropertyModifyType_Hero2_SuperMagicDmgRecvMul",
		"Name": "Ultimate MDamage Received",
		"IsAddType": false,
		"IsDynamic": true,
		"PropertyType": "PropertyType_None"
	},
	{
		"ID": 54,
		"PropertyModifyType": "PropertyModifyType_Hero2_IgnoreDFMul",
		"Name": "DEF Immunity Correction",
		"IsAddType": false,
		"IsDynamic": true,
		"PropertyType": "PropertyType_None"
	},
	{
		"ID": 55,
		"PropertyModifyType": "PropertyModifyType_Hero2_SkillDmgMul",
		"Name": "Hero Active Skill Damage Correction",
		"IsAddType": false,
		"IsDynamic": true,
		"PropertyType": "PropertyType_None"
	},
	{
		"ID": 56,
		"PropertyModifyType": "PropertyModifyType_Hero2_BFSkillDmgMul",
		"Name": "Hero Battle Skill Damage Correction",
		"IsAddType": false,
		"IsDynamic": true,
		"PropertyType": "PropertyType_None"
	},
	{
		"ID": 57,
		"PropertyModifyType": "PropertyModifyType_Soldier1_HPAdd",
		"Name": "HP",
		"IsAddType": true,
		"IsDynamic": false,
		"PropertyType": "PropertyType_None"
	},
	{
		"ID": 58,
		"PropertyModifyType": "PropertyModifyType_Soldier1_ATAdd",
		"Name": "ATK Bonus",
		"IsAddType": true,
		"IsDynamic": false,
		"PropertyType": "PropertyType_None"
	},
	{
		"ID": 59,
		"PropertyModifyType": "PropertyModifyType_Soldier1_DFAdd",
		"Name": "DEF",
		"IsAddType": true,
		"IsDynamic": false,
		"PropertyType": "PropertyType_None"
	},
	{
		"ID": 60,
		"PropertyModifyType": "PropertyModifyType_Soldier1_MagicDFAdd",
		"Name": "MDEF Bonus",
		"IsAddType": true,
		"IsDynamic": false,
		"PropertyType": "PropertyType_None"
	},
	{
		"ID": 61,
		"PropertyModifyType": "PropertyModifyType_Soldier1_BFMovePointAdd",
		"Name": "Mobility Bonus",
		"IsAddType": true,
		"IsDynamic": false,
		"PropertyType": "PropertyType_None"
	},
	{
		"ID": 62,
		"PropertyModifyType": "PropertyModifyType_Soldier1_BFAttackDistanceAdd",
		"Name": "Normal Attack Range Bonus",
		"IsAddType": true,
		"IsDynamic": false,
		"PropertyType": "PropertyType_None"
	},
	{
		"ID": 63,
		"PropertyModifyType": "PropertyModifyType_Soldier1_CriticalDamageAdd",
		"Name": "Crit Damage Bonus",
		"IsAddType": false,
		"IsDynamic": false,
		"PropertyType": "PropertyType_None"
	},
	{
		"ID": 64,
		"PropertyModifyType": "PropertyModifyType_Soldier1_CriticalRateAdd",
		"Name": "Crit Bonus",
		"IsAddType": false,
		"IsDynamic": false,
		"PropertyType": "PropertyType_None"
	},
	{
		"ID": 65,
		"PropertyModifyType": "PropertyModifyType_Soldier1_HPMul",
		"Name": "HP %",
		"IsAddType": false,
		"IsDynamic": false,
		"PropertyType": "PropertyType_None"
	},
	{
		"ID": 66,
		"PropertyModifyType": "PropertyModifyType_Soldier1_ATMul",
		"Name": "ATK %",
		"IsAddType": false,
		"IsDynamic": false,
		"PropertyType": "PropertyType_None"
	},
	{
		"ID": 67,
		"PropertyModifyType": "PropertyModifyType_Soldier1_DFMul",
		"Name": "DEF %",
		"IsAddType": false,
		"IsDynamic": false,
		"PropertyType": "PropertyType_None"
	},
	{
		"ID": 68,
		"PropertyModifyType": "PropertyModifyType_Soldier1_MagicDFMul",
		"Name": "MDEF %",
		"IsAddType": false,
		"IsDynamic": false,
		"PropertyType": "PropertyType_None"
	},
	{
		"ID": 69,
		"PropertyModifyType": "PropertyModifyType_Soldier2_HPAdd",
		"Name": "HP",
		"IsAddType": true,
		"IsDynamic": true,
		"PropertyType": "PropertyType_None"
	},
	{
		"ID": 70,
		"PropertyModifyType": "PropertyModifyType_Soldier2_ATAdd",
		"Name": "ATK Bonus",
		"IsAddType": true,
		"IsDynamic": true,
		"PropertyType": "PropertyType_None"
	},
	{
		"ID": 71,
		"PropertyModifyType": "PropertyModifyType_Soldier2_DFAdd",
		"Name": "DEF",
		"IsAddType": true,
		"IsDynamic": true,
		"PropertyType": "PropertyType_None"
	},
	{
		"ID": 72,
		"PropertyModifyType": "PropertyModifyType_Soldier2_MagicDFAdd",
		"Name": "MDEF Bonus",
		"IsAddType": true,
		"IsDynamic": true,
		"PropertyType": "PropertyType_None"
	},
	{
		"ID": 73,
		"PropertyModifyType": "PropertyModifyType_Soldier2_BFMovePointAdd",
		"Name": "Mobility Bonus",
		"IsAddType": true,
		"IsDynamic": true,
		"PropertyType": "PropertyType_None"
	},
	{
		"ID": 74,
		"PropertyModifyType": "PropertyModifyType_Soldier2_BFAttackDistanceAdd",
		"Name": "Normal Attack Range Bonus",
		"IsAddType": true,
		"IsDynamic": true,
		"PropertyType": "PropertyType_None"
	},
	{
		"ID": 75,
		"PropertyModifyType": "PropertyModifyType_Soldier2_CriticalDamageAdd",
		"Name": "Crit Damage Bonus",
		"IsAddType": false,
		"IsDynamic": true,
		"PropertyType": "PropertyType_None"
	},
	{
		"ID": 76,
		"PropertyModifyType": "PropertyModifyType_Soldier2_CriticalRateAdd",
		"Name": "Crit Bonus",
		"IsAddType": false,
		"IsDynamic": true,
		"PropertyType": "PropertyType_None"
	},
	{
		"ID": 77,
		"PropertyModifyType": "PropertyModifyType_Soldier2_HPMul",
		"Name": "HP %",
		"IsAddType": false,
		"IsDynamic": true,
		"PropertyType": "PropertyType_None"
	},
	{
		"ID": 78,
		"PropertyModifyType": "PropertyModifyType_Soldier2_ATMul",
		"Name": "ATK %",
		"IsAddType": false,
		"IsDynamic": true,
		"PropertyType": "PropertyType_None"
	},
	{
		"ID": 79,
		"PropertyModifyType": "PropertyModifyType_Soldier2_DFMul",
		"Name": "DEF %",
		"IsAddType": false,
		"IsDynamic": true,
		"PropertyType": "PropertyType_None"
	},
	{
		"ID": 80,
		"PropertyModifyType": "PropertyModifyType_Soldier2_MagicDFMul",
		"Name": "MDEF %",
		"IsAddType": false,
		"IsDynamic": true,
		"PropertyType": "PropertyType_None"
	},
	{
		"ID": 81,
		"PropertyModifyType": "PropertyModifyType_Soldier2_PsyDmgMul",
		"Name": "Physical Damage %",
		"IsAddType": false,
		"IsDynamic": true,
		"PropertyType": "PropertyType_None"
	},
	{
		"ID": 82,
		"PropertyModifyType": "PropertyModifyType_Soldier2_PsyDmgRecvMul",
		"Name": "Received Physical Damage %",
		"IsAddType": false,
		"IsDynamic": true,
		"PropertyType": "PropertyType_None"
	},
	{
		"ID": 83,
		"PropertyModifyType": "PropertyModifyType_Soldier2_SuperPsyDmgRecvMul",
		"Name": "Ultimate Received Physical Damage",
		"IsAddType": false,
		"IsDynamic": true,
		"PropertyType": "PropertyType_None"
	},
	{
		"ID": 84,
		"PropertyModifyType": "PropertyModifyType_Soldier2_MagicDmgRecvMul",
		"Name": "MDamage Taken %",
		"IsAddType": false,
		"IsDynamic": true,
		"PropertyType": "PropertyType_None"
	},
	{
		"ID": 85,
		"PropertyModifyType": "PropertyModifyType_Soldier2_SuperMagicDmgRecvMul",
		"Name": "Ultimate MDamage Received",
		"IsAddType": false,
		"IsDynamic": true,
		"PropertyType": "PropertyType_None"
	},
	{
		"ID": 86,
		"PropertyModifyType": "PropertyModifyType_Soldier2_IgnoreDFMul",
		"Name": "DEF Immunity Correction%",
		"IsAddType": false,
		"IsDynamic": true,
		"PropertyType": "PropertyType_None"
	},
	{
		"ID": 87,
		"PropertyModifyType": "PropertyModifyType_Hero3_HPAdd",
		"Name": "HP",
		"IsAddType": true,
		"IsDynamic": false,
		"PropertyType": "PropertyType_None"
	},
	{
		"ID": 88,
		"PropertyModifyType": "PropertyModifyType_Hero3_ATAdd",
		"Name": "ATK",
		"IsAddType": true,
		"IsDynamic": false,
		"PropertyType": "PropertyType_None"
	},
	{
		"ID": 89,
		"PropertyModifyType": "PropertyModifyType_Hero3_DFAdd",
		"Name": "DEF",
		"IsAddType": true,
		"IsDynamic": false,
		"PropertyType": "PropertyType_None"
	},
	{
		"ID": 90,
		"PropertyModifyType": "PropertyModifyType_Hero3_MagicAdd",
		"Name": "INT",
		"IsAddType": true,
		"IsDynamic": false,
		"PropertyType": "PropertyType_None"
	},
	{
		"ID": 91,
		"PropertyModifyType": "PropertyModifyType_Hero3_MagicDFAdd",
		"Name": "MDEF",
		"IsAddType": true,
		"IsDynamic": false,
		"PropertyType": "PropertyType_None"
	},
	{
		"ID": 92,
		"PropertyModifyType": "PropertyModifyType_Hero3_DEXAdd",
		"Name": "SKILL",
		"IsAddType": true,
		"IsDynamic": false,
		"PropertyType": "PropertyType_None"
	},
	{
		"ID": 93,
		"PropertyModifyType": "PropertyModifyType_Hero3_HPCmdAdd",
		"Name": "Life Command",
		"IsAddType": true,
		"IsDynamic": false,
		"PropertyType": "PropertyType_None"
	},
	{
		"ID": 94,
		"PropertyModifyType": "PropertyModifyType_Hero3_ATCmdAdd",
		"Name": "ATK Command",
		"IsAddType": true,
		"IsDynamic": false,
		"PropertyType": "PropertyType_None"
	},
	{
		"ID": 95,
		"PropertyModifyType": "PropertyModifyType_Hero3_DFCmdAdd",
		"Name": "DEF Command",
		"IsAddType": true,
		"IsDynamic": false,
		"PropertyType": "PropertyType_None"
	},
	{
		"ID": 96,
		"PropertyModifyType": "PropertyModifyType_Hero3_MagicDFCmdAdd",
		"Name": "MDEF Command",
		"IsAddType": true,
		"IsDynamic": false,
		"PropertyType": "PropertyType_None"
	},
	{
		"ID": 97,
		"PropertyModifyType": "PropertyModifyType_Hero3_CriticalDamageAdd",
		"Name": "Crit Damage",
		"IsAddType": false,
		"IsDynamic": false,
		"PropertyType": "PropertyType_None"
	},
	{
		"ID": 98,
		"PropertyModifyType": "PropertyModifyType_Hero3_CriticalRateAdd",
		"Name": "Crit",
		"IsAddType": false,
		"IsDynamic": false,
		"PropertyType": "PropertyType_None"
	},
	{
		"ID": 99,
		"PropertyModifyType": "PropertyModifyType_Hero3_HPMul",
		"Name": "HP",
		"IsAddType": false,
		"IsDynamic": false,
		"PropertyType": "PropertyType_None"
	},
	{
		"ID": 100,
		"PropertyModifyType": "PropertyModifyType_Hero3_ATMul",
		"Name": "ATK",
		"IsAddType": false,
		"IsDynamic": false,
		"PropertyType": "PropertyType_None"
	},
	{
		"ID": 101,
		"PropertyModifyType": "PropertyModifyType_Hero3_DFMul",
		"Name": "DEF",
		"IsAddType": false,
		"IsDynamic": false,
		"PropertyType": "PropertyType_None"
	},
	{
		"ID": 102,
		"PropertyModifyType": "PropertyModifyType_Hero3_MagicMul",
		"Name": "INT",
		"IsAddType": false,
		"IsDynamic": false,
		"PropertyType": "PropertyType_None"
	},
	{
		"ID": 103,
		"PropertyModifyType": "PropertyModifyType_Hero3_MagicDFMul",
		"Name": "MDEF",
		"IsAddType": false,
		"IsDynamic": false,
		"PropertyType": "PropertyType_None"
	},
	{
		"ID": 104,
		"PropertyModifyType": "PropertyModifyType_Hero3_DEXMul",
		"Name": "SKILL",
		"IsAddType": false,
		"IsDynamic": false,
		"PropertyType": "PropertyType_None"
	},
	{
		"ID": 105,
		"PropertyModifyType": "PropertyModifyType_Hero2_RangeDmgRecvMul",
		"Name": "Received Ranged Damage %",
		"IsAddType": false,
		"IsDynamic": true,
		"PropertyType": "PropertyType_None"
	},
	{
		"ID": 106,
		"PropertyModifyType": "PropertyModifyType_Soldier2_RangeDmgRecvMul",
		"Name": "Received Ranged Damage %",
		"IsAddType": false,
		"IsDynamic": true,
		"PropertyType": "PropertyType_None"
	},
	{
		"ID": 107,
		"PropertyModifyType": "PropertyModifyType_Hero2_RecvCriticalRateAdd",
		"Name": "Received Crit",
		"IsAddType": false,
		"IsDynamic": true,
		"PropertyType": "PropertyType_None"
	},
	{
		"ID": 108,
		"PropertyModifyType": "PropertyModifyType_Soldier2_RecvCriticalRateAdd",
		"Name": "Received Crit",
		"IsAddType": false,
		"IsDynamic": true,
		"PropertyType": "PropertyType_None"
	},
	{
		"ID": 109,
		"PropertyModifyType": "PropertyModifyType_Soldier2_MagicDmgMul",
		"Name": "MDamage",
		"IsAddType": false,
		"IsDynamic": true,
		"PropertyType": "PropertyType_None"
	},
	{
		"ID": 110,
		"PropertyModifyType": "PropertyModifyType_Hero2_TrueDmgMul",
		"Name": "Fixed Damage Correction",
		"IsAddType": false,
		"IsDynamic": true,
		"PropertyType": "PropertyType_None"
	},
	{
		"ID": 111,
		"PropertyModifyType": "PropertyModifyType_Hero2_RecvTrueDmgMul",
		"Name": "Taken Fixed Damage Correction",
		"IsAddType": false,
		"IsDynamic": true,
		"PropertyType": "PropertyType_None"
	},
	{
		"ID": 112,
		"PropertyModifyType": "PropertyModifyType_Hero2_RecvBFSkillDmgMul",
		"Name": "Taken AoE Damage Correction",
		"IsAddType": false,
		"IsDynamic": true,
		"PropertyType": "PropertyType_None"
	},
	{
		"ID": 113,
		"PropertyModifyType": "PropertyModifyType_Soldier2_RecvBFSkillDmgMul",
		"Name": "Taken AoE Damage Correction",
		"IsAddType": false,
		"IsDynamic": true,
		"PropertyType": "PropertyType_None"
	},
	{
		"ID": 114,
		"PropertyModifyType": "PropertyModifyType_Hero2_MagicBFSkillRangeAdd",
		"Name": "Magic AoE Skill AoE Correction",
		"IsAddType": true,
		"IsDynamic": true,
		"PropertyType": "PropertyType_None"
	},
	{
		"ID": 115,
		"PropertyModifyType": "PropertyModifyType_Hero2_PsyBFSkillRangeAdd",
		"Name": "Phy. AoE skill AoE Correction",
		"IsAddType": true,
		"IsDynamic": true,
		"PropertyType": "PropertyType_None"
	},
	{
		"ID": 116,
		"PropertyModifyType": "PropertyModifyType_Hero2_SupportDistanceAdd",
		"Name": "Hero Buff Bonus_Support Skill Range",
		"IsAddType": true,
		"IsDynamic": true,
		"PropertyType": "PropertyType_None"
	},
	{
		"ID": 117,
		"PropertyModifyType": "PropertyModifyType_Hero2_RecvCriticalDmgAdd",
		"Name": "Hero Buff Bonus_Suffered Crit Damage",
		"IsAddType": false,
		"IsDynamic": true,
		"PropertyType": "PropertyType_None"
	},
	{
		"ID": 118,
		"PropertyModifyType": "PropertyModifyType_Soldier2_RecvCriticalDmgAdd",
		"Name": "Minion Buff Bonus_Suffered Crit Damage",
		"IsAddType": false,
		"IsDynamic": true,
		"PropertyType": "PropertyType_None"
	},
	{
		"ID": 119,
		"PropertyModifyType": "PropertyModifyType_HeroPVP_HPAdd",
		"Name": "HP",
		"IsAddType": true,
		"IsDynamic": true,
		"PropertyType": "PropertyType_None"
	},
	{
		"ID": 120,
		"PropertyModifyType": "PropertyModifyType_HeroPVP_ATAdd",
		"Name": "ATK",
		"IsAddType": true,
		"IsDynamic": true,
		"PropertyType": "PropertyType_None"
	},
	{
		"ID": 121,
		"PropertyModifyType": "PropertyModifyType_HeroPVP_DFAdd",
		"Name": "DEF",
		"IsAddType": true,
		"IsDynamic": true,
		"PropertyType": "PropertyType_None"
	},
	{
		"ID": 122,
		"PropertyModifyType": "PropertyModifyType_HeroPVP_MagicAdd",
		"Name": "INT",
		"IsAddType": true,
		"IsDynamic": true,
		"PropertyType": "PropertyType_None"
	},
	{
		"ID": 123,
		"PropertyModifyType": "PropertyModifyType_HeroPVP_MagicDFAdd",
		"Name": "MDEF",
		"IsAddType": true,
		"IsDynamic": true,
		"PropertyType": "PropertyType_None"
	},
	{
		"ID": 124,
		"PropertyModifyType": "PropertyModifyType_HeroPVP_DEXAdd",
		"Name": "SKILL",
		"IsAddType": true,
		"IsDynamic": true,
		"PropertyType": "PropertyType_None"
	},
	{
		"ID": 125,
		"PropertyModifyType": "PropertyModifyType_HeroPVP_CriticalDamageAdd",
		"Name": "Crit Damage",
		"IsAddType": false,
		"IsDynamic": true,
		"PropertyType": "PropertyType_None"
	},
	{
		"ID": 126,
		"PropertyModifyType": "PropertyModifyType_HeroPVP_CriticalRateAdd",
		"Name": "Crit",
		"IsAddType": false,
		"IsDynamic": true,
		"PropertyType": "PropertyType_None"
	},
	{
		"ID": 127,
		"PropertyModifyType": "PropertyModifyType_HeroPVP_RecvCriticalRateAdd",
		"Name": "Suffered Crit",
		"IsAddType": false,
		"IsDynamic": true,
		"PropertyType": "PropertyType_None"
	},
	{
		"ID": 128,
		"PropertyModifyType": "PropertyModifyType_HeroPVP_RecvCriticalDmgAdd",
		"Name": "Suffered Crit Damage",
		"IsAddType": false,
		"IsDynamic": true,
		"PropertyType": "PropertyType_None"
	},
	{
		"ID": 129,
		"PropertyModifyType": "PropertyModifyType_Soldier2_HealRecvMul",
		"Name": "Received Heal Effect",
		"IsAddType": false,
		"IsDynamic": true,
		"PropertyType": "PropertyType_None"
	},
	{
		"ID": 130,
		"PropertyModifyType": "PropertyModifyType_Hero2_AllMul",
		"Name": "Includes Hero2_ATMul, Hero2_DFMul, Hero2_MagicMul, Hero2_MagicDFMul, and Hero2_DEXMul.",
		"IsAddType": false,
		"IsDynamic": true,
		"PropertyType": "PropertyType_None"
	},
	{
		"ID": 131,
		"PropertyModifyType": "PropertyModifyType_Soldier2_AllMul",
		"Name": "Includes Soldier2_ATMul, Soldier2_DFMul, and Soldier2_MagicDFMul.",
		"IsAddType": false,
		"IsDynamic": true,
		"PropertyType": "PropertyType_None"
	},
	{
		"ID": 132,
		"PropertyModifyType": "PropertyModifyType_Hero2_HealDistanceAdd",
		"Name": "Hero Buff Bonus_Healing Skill Range",
		"IsAddType": true,
		"IsDynamic": true,
		"PropertyType": "PropertyType_None"
	}
]