[
	{
		"ID": 1,
		"Name": "PVP1",
		"Desc": "PVP1",
		"WinDesc": "Eliminated the enemy!",
		"LoseDesc": "Your team is eliminated!",
		"BattlefieldID": 301,
		"CameraX": 5,
		"CameraY": 3,
		"DefendCameraX": 6,
		"DefendCameraY": 3,
		"PrepareMusic": "BattleMusic_Prepare",
		"BattleMusic": "BattleMusic_Knights_Errant",
		"DefendBattleMusic": "BattleMusic_09_Reinforce_of_Enemy_Remake",
		"TurnMax": 10,
		"WinConditionsID": [
			999
		],
		"LoseConditionsID": [
			999
		],
		"EventTriggersID": [
			70000,
			70001,
			70002,
			70003,
			70004,
			70005,
			70006,
			70007
		],
		"AttackNumber": 5,
		"AttackPositions": [
			{
				"X": 1,
				"Y": 2
			},
			{
				"X": 1,
				"Y": 3
			},
			{
				"X": 1,
				"Y": 4
			},
			{
				"X": 2,
				"Y": 2
			},
			{
				"X": 2,
				"Y": 3
			}
		],
		"DefendNumber": 5,
		"DefendPositions": [
			{
				"X": 9,
				"Y": 2
			},
			{
				"X": 9,
				"Y": 3
			},
			{
				"X": 10,
				"Y": 2
			},
			{
				"X": 10,
				"Y": 3
			},
			{
				"X": 10,
				"Y": 4
			}
		]
	},
	{
		"ID": 2,
		"Name": "PVP2",
		"Desc": "PVP2",
		"WinDesc": "Eliminated the enemy!",
		"LoseDesc": "Your team is eliminated!",
		"BattlefieldID": 302,
		"CameraX": 5,
		"CameraY": 3,
		"DefendCameraX": 6,
		"DefendCameraY": 3,
		"PrepareMusic": "BattleMusic_Prepare",
		"BattleMusic": "BattleMusic_07_No_Surrender_Remake_loop",
		"DefendBattleMusic": "BattleMusic_10_Fight_It_Out_Remake",
		"TurnMax": 10,
		"WinConditionsID": [
			999
		],
		"LoseConditionsID": [
			999
		],
		"EventTriggersID": [
			70000,
			70001,
			70002,
			70003,
			70004,
			70005,
			70006,
			70007
		],
		"AttackNumber": 5,
		"AttackPositions": [
			{
				"X": 1,
				"Y": 2
			},
			{
				"X": 1,
				"Y": 3
			},
			{
				"X": 1,
				"Y": 4
			},
			{
				"X": 2,
				"Y": 2
			},
			{
				"X": 2,
				"Y": 3
			}
		],
		"DefendNumber": 5,
		"DefendPositions": [
			{
				"X": 9,
				"Y": 2
			},
			{
				"X": 9,
				"Y": 3
			},
			{
				"X": 10,
				"Y": 2
			},
			{
				"X": 10,
				"Y": 3
			},
			{
				"X": 10,
				"Y": 4
			}
		]
	},
	{
		"ID": 3,
		"Name": "PVP3",
		"Desc": "PVP3",
		"WinDesc": "Eliminated the enemy!",
		"LoseDesc": "Your team is eliminated!",
		"BattlefieldID": 303,
		"CameraX": 5,
		"CameraY": 3,
		"DefendCameraX": 6,
		"DefendCameraY": 3,
		"PrepareMusic": "BattleMusic_Prepare",
		"BattleMusic": "BattleMusic_NormalBattle",
		"DefendBattleMusic": "BattleMusic_Ⅰ_05_Remake",
		"TurnMax": 10,
		"WinConditionsID": [
			999
		],
		"LoseConditionsID": [
			999
		],
		"EventTriggersID": [
			70000,
			70001,
			70002,
			70003,
			70004,
			70005,
			70006,
			70007
		],
		"AttackNumber": 5,
		"AttackPositions": [
			{
				"X": 1,
				"Y": 2
			},
			{
				"X": 1,
				"Y": 3
			},
			{
				"X": 1,
				"Y": 4
			},
			{
				"X": 2,
				"Y": 2
			},
			{
				"X": 2,
				"Y": 3
			}
		],
		"DefendNumber": 5,
		"DefendPositions": [
			{
				"X": 9,
				"Y": 2
			},
			{
				"X": 9,
				"Y": 3
			},
			{
				"X": 10,
				"Y": 2
			},
			{
				"X": 10,
				"Y": 3
			},
			{
				"X": 10,
				"Y": 4
			}
		]
	},
	{
		"ID": 4,
		"Name": "PVP4",
		"Desc": "PVP4",
		"WinDesc": "Eliminated the enemy!",
		"LoseDesc": "Your team is eliminated!",
		"BattlefieldID": 304,
		"CameraX": 5,
		"CameraY": 3,
		"DefendCameraX": 6,
		"DefendCameraY": 3,
		"PrepareMusic": "BattleMusic_Prepare",
		"BattleMusic": "BattleMusic_Ⅰ_03_Remake",
		"DefendBattleMusic": "BattleMusic_Ⅱ_06_Morgan",
		"TurnMax": 10,
		"WinConditionsID": [
			999
		],
		"LoseConditionsID": [
			999
		],
		"EventTriggersID": [
			70000,
			70001,
			70002,
			70003,
			70004,
			70005,
			70006,
			70007
		],
		"AttackNumber": 5,
		"AttackPositions": [
			{
				"X": 1,
				"Y": 2
			},
			{
				"X": 1,
				"Y": 3
			},
			{
				"X": 1,
				"Y": 4
			},
			{
				"X": 2,
				"Y": 2
			},
			{
				"X": 2,
				"Y": 3
			}
		],
		"DefendNumber": 5,
		"DefendPositions": [
			{
				"X": 9,
				"Y": 2
			},
			{
				"X": 9,
				"Y": 3
			},
			{
				"X": 10,
				"Y": 2
			},
			{
				"X": 10,
				"Y": 3
			},
			{
				"X": 10,
				"Y": 4
			}
		]
	},
	{
		"ID": 5,
		"Name": "PVP5",
		"Desc": "PVP5",
		"WinDesc": "Eliminated the enemy!",
		"LoseDesc": "Your team is eliminated!",
		"BattlefieldID": 305,
		"CameraX": 5,
		"CameraY": 3,
		"DefendCameraX": 6,
		"DefendCameraY": 3,
		"PrepareMusic": "BattleMusic_Prepare",
		"BattleMusic": "BattleMusic_Ⅰ_11",
		"DefendBattleMusic": "BattleMusic_Ⅱ_02_Leon",
		"TurnMax": 10,
		"WinConditionsID": [
			999
		],
		"LoseConditionsID": [
			999
		],
		"EventTriggersID": [
			70000,
			70001,
			70002,
			70003,
			70004,
			70005,
			70006,
			70007
		],
		"AttackNumber": 5,
		"AttackPositions": [
			{
				"X": 1,
				"Y": 2
			},
			{
				"X": 1,
				"Y": 3
			},
			{
				"X": 1,
				"Y": 4
			},
			{
				"X": 2,
				"Y": 2
			},
			{
				"X": 2,
				"Y": 3
			}
		],
		"DefendNumber": 5,
		"DefendPositions": [
			{
				"X": 9,
				"Y": 2
			},
			{
				"X": 9,
				"Y": 3
			},
			{
				"X": 10,
				"Y": 2
			},
			{
				"X": 10,
				"Y": 3
			},
			{
				"X": 10,
				"Y": 4
			}
		]
	},
	{
		"ID": 6,
		"Name": "PVP6",
		"Desc": "PVP6",
		"WinDesc": "Eliminated the enemy!",
		"LoseDesc": "Your team is eliminated!",
		"BattlefieldID": 306,
		"CameraX": 5,
		"CameraY": 3,
		"DefendCameraX": 6,
		"DefendCameraY": 3,
		"PrepareMusic": "BattleMusic_Prepare",
		"BattleMusic": "BattleMusic_Ⅰ_06_Remake",
		"DefendBattleMusic": "BattleMusic_Ⅱ_11_Eggbert",
		"TurnMax": 10,
		"WinConditionsID": [
			999
		],
		"LoseConditionsID": [
			999
		],
		"EventTriggersID": [
			70000,
			70001,
			70002,
			70003,
			70004,
			70005,
			70006,
			70007
		],
		"AttackNumber": 5,
		"AttackPositions": [
			{
				"X": 1,
				"Y": 2
			},
			{
				"X": 1,
				"Y": 3
			},
			{
				"X": 1,
				"Y": 4
			},
			{
				"X": 2,
				"Y": 2
			},
			{
				"X": 2,
				"Y": 3
			}
		],
		"DefendNumber": 5,
		"DefendPositions": [
			{
				"X": 9,
				"Y": 2
			},
			{
				"X": 9,
				"Y": 3
			},
			{
				"X": 10,
				"Y": 2
			},
			{
				"X": 10,
				"Y": 3
			},
			{
				"X": 10,
				"Y": 4
			}
		]
	},
	{
		"ID": 7,
		"Name": "PVP8",
		"Desc": "PVP8",
		"WinDesc": "Eliminated the enemy!",
		"LoseDesc": "Your team is eliminated!",
		"BattlefieldID": 308,
		"CameraX": 5,
		"CameraY": 3,
		"DefendCameraX": 6,
		"DefendCameraY": 3,
		"PrepareMusic": "BattleMusic_Prepare",
		"BattleMusic": "BattleMusic_Knights_Errant",
		"DefendBattleMusic": "BattleMusic_Ⅱ_08_Jyaakunaru_Mono",
		"TurnMax": 10,
		"WinConditionsID": [
			999
		],
		"LoseConditionsID": [
			999
		],
		"EventTriggersID": [
			70000,
			70001,
			70002,
			70003,
			70004,
			70005,
			70006,
			70007
		],
		"AttackNumber": 5,
		"AttackPositions": [
			{
				"X": 1,
				"Y": 2
			},
			{
				"X": 1,
				"Y": 3
			},
			{
				"X": 1,
				"Y": 4
			},
			{
				"X": 2,
				"Y": 2
			},
			{
				"X": 2,
				"Y": 3
			}
		],
		"DefendNumber": 5,
		"DefendPositions": [
			{
				"X": 9,
				"Y": 2
			},
			{
				"X": 9,
				"Y": 3
			},
			{
				"X": 10,
				"Y": 2
			},
			{
				"X": 10,
				"Y": 3
			},
			{
				"X": 10,
				"Y": 4
			}
		]
	},
	{
		"ID": 8,
		"Name": "PVP9",
		"Desc": "PVP9",
		"WinDesc": "Eliminated the enemy!",
		"LoseDesc": "Your team is eliminated!",
		"BattlefieldID": 309,
		"CameraX": 5,
		"CameraY": 3,
		"DefendCameraX": 6,
		"DefendCameraY": 3,
		"PrepareMusic": "BattleMusic_Prepare",
		"BattleMusic": "BattleMusic_Neo_HolyWar",
		"DefendBattleMusic": "BattleMusic_09_Reinforce_of_Enemy_Remake",
		"TurnMax": 10,
		"WinConditionsID": [
			999
		],
		"LoseConditionsID": [
			999
		],
		"EventTriggersID": [
			70000,
			70001,
			70002,
			70003,
			70004,
			70005,
			70006,
			70007
		],
		"AttackNumber": 5,
		"AttackPositions": [
			{
				"X": 1,
				"Y": 2
			},
			{
				"X": 1,
				"Y": 3
			},
			{
				"X": 1,
				"Y": 4
			},
			{
				"X": 2,
				"Y": 2
			},
			{
				"X": 2,
				"Y": 3
			}
		],
		"DefendNumber": 5,
		"DefendPositions": [
			{
				"X": 9,
				"Y": 2
			},
			{
				"X": 9,
				"Y": 3
			},
			{
				"X": 10,
				"Y": 2
			},
			{
				"X": 10,
				"Y": 3
			},
			{
				"X": 10,
				"Y": 4
			}
		]
	}
]