[
	{
		"ID": 1
	},
	{
		"ID": 2
	},
	{
		"ID": 3
	},
	{
		"ID": 4
	},
	{
		"ID": 5
	},
	{
		"ID": 6
	},
	{
		"ID": 7
	},
	{
		"ID": 8
	},
	{
		"ID": 9
	},
	{
		"ID": 10
	},
	{
		"ID": 11
	},
	{
		"ID": 12
	},
	{
		"ID": 13
	},
	{
		"ID": 14
	},
	{
		"ID": 20
	},
	{
		"ID": 21
	},
	{
		"ID": 22
	},
	{
		"ID": 23
	},
	{
		"ID": 31
	},
	{
		"ID": 32
	},
	{
		"ID": 33
	},
	{
		"ID": 41
	},
	{
		"ID": 42
	},
	{
		"ID": 43
	},
	{
		"ID": 51
	},
	{
		"ID": 52
	},
	{
		"ID": 53
	},
	{
		"ID": 61
	},
	{
		"ID": 62
	},
	{
		"ID": 63
	},
	{
		"ID": 71
	},
	{
		"ID": 72
	},
	{
		"ID": 73
	},
	{
		"ID": 81
	},
	{
		"ID": 82
	},
	{
		"ID": 83
	},
	{
		"ID": 85
	},
	{
		"ID": 91
	},
	{
		"ID": 92
	},
	{
		"ID": 93
	},
	{
		"ID": 95
	},
	{
		"ID": 101
	},
	{
		"ID": 102
	},
	{
		"ID": 103
	},
	{
		"ID": 111
	},
	{
		"ID": 112
	},
	{
		"ID": 113
	},
	{
		"ID": 114
	},
	{
		"ID": 121
	},
	{
		"ID": 122
	},
	{
		"ID": 123
	},
	{
		"ID": 124
	},
	{
		"ID": 131
	},
	{
		"ID": 132
	},
	{
		"ID": 133
	},
	{
		"ID": 141
	},
	{
		"ID": 142
	},
	{
		"ID": 143
	},
	{
		"ID": 144
	},
	{
		"ID": 151
	},
	{
		"ID": 152
	},
	{
		"ID": 153
	},
	{
		"ID": 154
	},
	{
		"ID": 161
	},
	{
		"ID": 162
	},
	{
		"ID": 163
	},
	{
		"ID": 171
	},
	{
		"ID": 172
	},
	{
		"ID": 173
	},
	{
		"ID": 174
	},
	{
		"ID": 181
	},
	{
		"ID": 182
	},
	{
		"ID": 183
	},
	{
		"ID": 184
	},
	{
		"ID": 191
	},
	{
		"ID": 192
	},
	{
		"ID": 193
	},
	{
		"ID": 201
	},
	{
		"ID": 202
	},
	{
		"ID": 203
	},
	{
		"ID": 211
	},
	{
		"ID": 212
	},
	{
		"ID": 213
	},
	{
		"ID": 221
	},
	{
		"ID": 222
	},
	{
		"ID": 223
	},
	{
		"ID": 224
	},
	{
		"ID": 231
	},
	{
		"ID": 232
	},
	{
		"ID": 233
	},
	{
		"ID": 234
	},
	{
		"ID": 241
	},
	{
		"ID": 242
	},
	{
		"ID": 243
	},
	{
		"ID": 251
	},
	{
		"ID": 252
	},
	{
		"ID": 253
	},
	{
		"ID": 254
	},
	{
		"ID": 261
	},
	{
		"ID": 262
	},
	{
		"ID": 263
	},
	{
		"ID": 264
	},
	{
		"ID": 271
	},
	{
		"ID": 272
	},
	{
		"ID": 273
	},
	{
		"ID": 274
	},
	{
		"ID": 281
	},
	{
		"ID": 282
	},
	{
		"ID": 283
	},
	{
		"ID": 291
	},
	{
		"ID": 292
	},
	{
		"ID": 293
	},
	{
		"ID": 301
	},
	{
		"ID": 302
	},
	{
		"ID": 303
	},
	{
		"ID": 311
	},
	{
		"ID": 312
	},
	{
		"ID": 313
	},
	{
		"ID": 321
	},
	{
		"ID": 322
	},
	{
		"ID": 323
	},
	{
		"ID": 331
	},
	{
		"ID": 332
	},
	{
		"ID": 333
	},
	{
		"ID": 334
	},
	{
		"ID": 341
	},
	{
		"ID": 342
	},
	{
		"ID": 343
	},
	{
		"ID": 345
	},
	{
		"ID": 351
	},
	{
		"ID": 352
	},
	{
		"ID": 353
	},
	{
		"ID": 354
	},
	{
		"ID": 361
	},
	{
		"ID": 362
	},
	{
		"ID": 363
	},
	{
		"ID": 364
	},
	{
		"ID": 371
	},
	{
		"ID": 372
	},
	{
		"ID": 373
	},
	{
		"ID": 381
	},
	{
		"ID": 382
	},
	{
		"ID": 383
	},
	{
		"ID": 384
	},
	{
		"ID": 391
	},
	{
		"ID": 392
	},
	{
		"ID": 393
	},
	{
		"ID": 394
	},
	{
		"ID": 401
	},
	{
		"ID": 402
	},
	{
		"ID": 403
	},
	{
		"ID": 411
	},
	{
		"ID": 412
	},
	{
		"ID": 413
	},
	{
		"ID": 421
	},
	{
		"ID": 422
	},
	{
		"ID": 423
	},
	{
		"ID": 424
	},
	{
		"ID": 431
	},
	{
		"ID": 432
	},
	{
		"ID": 433
	},
	{
		"ID": 441
	},
	{
		"ID": 442
	},
	{
		"ID": 443
	},
	{
		"ID": 444
	},
	{
		"ID": 451
	},
	{
		"ID": 452
	},
	{
		"ID": 453
	},
	{
		"ID": 454
	},
	{
		"ID": 461
	},
	{
		"ID": 462
	},
	{
		"ID": 463
	},
	{
		"ID": 471
	},
	{
		"ID": 472
	},
	{
		"ID": 473
	},
	{
		"ID": 481
	},
	{
		"ID": 482
	},
	{
		"ID": 483
	},
	{
		"ID": 484
	},
	{
		"ID": 491
	},
	{
		"ID": 492
	},
	{
		"ID": 493
	},
	{
		"ID": 501
	},
	{
		"ID": 502
	},
	{
		"ID": 503
	},
	{
		"ID": 504
	},
	{
		"ID": 511
	},
	{
		"ID": 512
	},
	{
		"ID": 513
	},
	{
		"ID": 521
	},
	{
		"ID": 522
	},
	{
		"ID": 523
	},
	{
		"ID": 524
	},
	{
		"ID": 531
	},
	{
		"ID": 532
	},
	{
		"ID": 533
	},
	{
		"ID": 534
	},
	{
		"ID": 541
	},
	{
		"ID": 542
	},
	{
		"ID": 543
	},
	{
		"ID": 551
	},
	{
		"ID": 552
	},
	{
		"ID": 553
	},
	{
		"ID": 561
	},
	{
		"ID": 562
	},
	{
		"ID": 563
	},
	{
		"ID": 564
	},
	{
		"ID": 571
	},
	{
		"ID": 572
	},
	{
		"ID": 573
	},
	{
		"ID": 574
	},
	{
		"ID": 581
	},
	{
		"ID": 582
	},
	{
		"ID": 583
	},
	{
		"ID": 591
	},
	{
		"ID": 592
	},
	{
		"ID": 593
	},
	{
		"ID": 594
	},
	{
		"ID": 601
	},
	{
		"ID": 602
	},
	{
		"ID": 603
	},
	{
		"ID": 604
	},
	{
		"ID": 611
	},
	{
		"ID": 612
	},
	{
		"ID": 613
	},
	{
		"ID": 621
	},
	{
		"ID": 622
	},
	{
		"ID": 623
	},
	{
		"ID": 631
	},
	{
		"ID": 632
	},
	{
		"ID": 633
	},
	{
		"ID": 641
	},
	{
		"ID": 642
	},
	{
		"ID": 643
	},
	{
		"ID": 644
	},
	{
		"ID": 651
	},
	{
		"ID": 652
	},
	{
		"ID": 653
	},
	{
		"ID": 661
	},
	{
		"ID": 662
	},
	{
		"ID": 663
	},
	{
		"ID": 664
	},
	{
		"ID": 671
	},
	{
		"ID": 672
	},
	{
		"ID": 673
	},
	{
		"ID": 681
	},
	{
		"ID": 682
	},
	{
		"ID": 683
	},
	{
		"ID": 684
	},
	{
		"ID": 691
	},
	{
		"ID": 692
	},
	{
		"ID": 693
	},
	{
		"ID": 694
	},
	{
		"ID": 701
	},
	{
		"ID": 702
	},
	{
		"ID": 703
	},
	{
		"ID": 711
	},
	{
		"ID": 712
	},
	{
		"ID": 713
	},
	{
		"ID": 721
	},
	{
		"ID": 722
	},
	{
		"ID": 723
	},
	{
		"ID": 724
	},
	{
		"ID": 731
	},
	{
		"ID": 732
	},
	{
		"ID": 733
	},
	{
		"ID": 741
	},
	{
		"ID": 742
	},
	{
		"ID": 743
	},
	{
		"ID": 751
	},
	{
		"ID": 752
	},
	{
		"ID": 753
	},
	{
		"ID": 754
	},
	{
		"ID": 761
	},
	{
		"ID": 762
	},
	{
		"ID": 763
	},
	{
		"ID": 771
	},
	{
		"ID": 772
	},
	{
		"ID": 773
	}
]