[
	{
		"ID": 0,
		"Content": "Skip not selected, unable to delete"
	},
	{
		"ID": 1,
		"Content": "Yes. Goodnight then."
	},
	{
		"ID": 2,
		"Content": "Let me walk you back to your room."
	},
	{
		"ID": 3,
		"Content": "Ah! It's already so late!"
	},
	{
		"ID": 4,
		"Content": "I'm worried about Iris."
	},
	{
		"ID": 5,
		"Content": "Because the pillow's too high."
	},
	{
		"ID": 6,
		"Content": "I'm worried about the Arcane Artifacts."
	},
	{
		"ID": 7,
		"Content": "I'm just having a walk to clear my head."
	},
	{
		"ID": 8,
		"Content": "Yeah, you aren't asleep yet either, Sakura."
	},
	{
		"ID": 9,
		"Content": "Where do you want to go next, Sakura?"
	},
	{
		"ID": 10,
		"Content": "Can I ask you a question?"
	},
	{
		"ID": 11,
		"Content": "Let's go for a walk together when we return home!"
	},
	{
		"ID": 12,
		"Content": "Don't move."
	},
	{
		"ID": 13,
		"Content": "Embrace her tightly."
	},
	{
		"ID": 14,
		"Content": "Call to her gently."
	},
	{
		"ID": 15,
		"Content": "Flee in a panic."
	},
	{
		"ID": 16,
		"Content": "Stay and rescue Sumire."
	},
	{
		"ID": 17,
		"Content": "Calm her down with words."
	},
	{
		"ID": 18,
		"Content": "Suck the venom out of the wound.."
	},
	{
		"ID": 19,
		"Content": "Is it lost? Then find it yourself."
	},
	{
		"ID": 20,
		"Content": "Ehh? Do you remember where it went?"
	},
	{
		"ID": 21,
		"Content": "I don't know..."
	},
	{
		"ID": 22,
		"Content": "Would you like to eat seafood pie tomorrow?"
	},
	{
		"ID": 23,
		"Content": "Do you want to find the Arcane Artifacts as soon as possible?"
	},
	{
		"ID": 24,
		"Content": "Don't look, it's too dangerous."
	},
	{
		"ID": 25,
		"Content": "Hold Iris."
	},
	{
		"ID": 26,
		"Content": "There's nothing to see."
	},
	{
		"ID": 27,
		"Content": "Agree to hand over Alhazard"
	},
	{
		"ID": 28,
		"Content": "Refuse to hand over Alhazard"
	}
]