[
	{
		"ID": 1,
		"HeroId": 1,
		"InclusiveMinRank": 1,
		"ExclusiveMaxRank": 10000,
		"InclusiveMinRange": 1500,
		"ExclusiveMaxRange": 2500,
		"InclusiveMinPower": 5000
	},
	{
		"ID": 2,
		"HeroId": 3,
		"InclusiveMinRank": 1,
		"ExclusiveMaxRank": 10000,
		"InclusiveMinRange": 1500,
		"ExclusiveMaxRange": 2500,
		"InclusiveMinPower": 4500
	},
	{
		"ID": 3,
		"HeroId": 4,
		"InclusiveMinRank": 1,
		"ExclusiveMaxRank": 10000,
		"InclusiveMinRange": 1500,
		"ExclusiveMaxRange": 2500,
		"InclusiveMinPower": 4500
	},
	{
		"ID": 4,
		"HeroId": 5,
		"InclusiveMinRank": 1,
		"ExclusiveMaxRank": 10000,
		"InclusiveMinRange": 1500,
		"ExclusiveMaxRange": 2500,
		"InclusiveMinPower": 5000
	},
	{
		"ID": 5,
		"HeroId": 6,
		"InclusiveMinRank": 1,
		"ExclusiveMaxRank": 10000,
		"InclusiveMinRange": 3500,
		"ExclusiveMaxRange": 4500,
		"InclusiveMinPower": 5500
	},
	{
		"ID": 6,
		"HeroId": 7,
		"InclusiveMinRank": 1,
		"ExclusiveMaxRank": 10000,
		"InclusiveMinRange": 2500,
		"ExclusiveMaxRange": 3500,
		"InclusiveMinPower": 5500
	},
	{
		"ID": 7,
		"HeroId": 8,
		"InclusiveMinRank": 1,
		"ExclusiveMaxRank": 10000,
		"InclusiveMinRange": 2500,
		"ExclusiveMaxRange": 3500,
		"InclusiveMinPower": 5500
	},
	{
		"ID": 8,
		"HeroId": 9,
		"InclusiveMinRank": 1,
		"ExclusiveMaxRank": 10000,
		"InclusiveMinRange": 2500,
		"ExclusiveMaxRange": 3500,
		"InclusiveMinPower": 6000
	},
	{
		"ID": 9,
		"HeroId": 10,
		"InclusiveMinRank": 1,
		"ExclusiveMaxRank": 10000,
		"InclusiveMinRange": 2500,
		"ExclusiveMaxRange": 3500,
		"InclusiveMinPower": 5500
	},
	{
		"ID": 10,
		"HeroId": 11,
		"InclusiveMinRank": 1,
		"ExclusiveMaxRank": 10000,
		"InclusiveMinRange": 1500,
		"ExclusiveMaxRange": 2500,
		"InclusiveMinPower": 4500
	},
	{
		"ID": 11,
		"HeroId": 12,
		"InclusiveMinRank": 1,
		"ExclusiveMaxRank": 10000,
		"InclusiveMinRange": 2500,
		"ExclusiveMaxRange": 3500,
		"InclusiveMinPower": 5500
	},
	{
		"ID": 12,
		"HeroId": 13,
		"InclusiveMinRank": 1,
		"ExclusiveMaxRank": 10000,
		"InclusiveMinRange": 1500,
		"ExclusiveMaxRange": 2500,
		"InclusiveMinPower": 5000
	},
	{
		"ID": 13,
		"HeroId": 14,
		"InclusiveMinRank": 1,
		"ExclusiveMaxRank": 10000,
		"InclusiveMinRange": 3500,
		"ExclusiveMaxRange": 4500,
		"InclusiveMinPower": 4500
	},
	{
		"ID": 14,
		"HeroId": 15,
		"InclusiveMinRank": 1,
		"ExclusiveMaxRank": 10000,
		"InclusiveMinRange": 2500,
		"ExclusiveMaxRange": 3500,
		"InclusiveMinPower": 4500
	},
	{
		"ID": 15,
		"HeroId": 16,
		"InclusiveMinRank": 1,
		"ExclusiveMaxRank": 10000,
		"InclusiveMinRange": 1500,
		"ExclusiveMaxRange": 2500,
		"InclusiveMinPower": 4500
	},
	{
		"ID": 16,
		"HeroId": 17,
		"InclusiveMinRank": 1,
		"ExclusiveMaxRank": 10000,
		"InclusiveMinRange": 1500,
		"ExclusiveMaxRange": 2500,
		"InclusiveMinPower": 4500
	},
	{
		"ID": 17,
		"HeroId": 18,
		"InclusiveMinRank": 1,
		"ExclusiveMaxRank": 10000,
		"InclusiveMinRange": 1500,
		"ExclusiveMaxRange": 2500,
		"InclusiveMinPower": 4500
	},
	{
		"ID": 18,
		"HeroId": 19,
		"InclusiveMinRank": 1,
		"ExclusiveMaxRank": 10000,
		"InclusiveMinRange": 500,
		"ExclusiveMaxRange": 1500,
		"InclusiveMinPower": 4500
	},
	{
		"ID": 19,
		"HeroId": 20,
		"InclusiveMinRank": 1,
		"ExclusiveMaxRank": 10000,
		"InclusiveMinRange": 1500,
		"ExclusiveMaxRange": 2500,
		"InclusiveMinPower": 4500
	},
	{
		"ID": 20,
		"HeroId": 21,
		"InclusiveMinRank": 1,
		"ExclusiveMaxRank": 10000,
		"InclusiveMinRange": 2500,
		"ExclusiveMaxRange": 3500,
		"InclusiveMinPower": 5000
	},
	{
		"ID": 21,
		"HeroId": 22,
		"InclusiveMinRank": 1,
		"ExclusiveMaxRank": 10000,
		"InclusiveMinRange": 500,
		"ExclusiveMaxRange": 1500,
		"InclusiveMinPower": 4500
	},
	{
		"ID": 22,
		"HeroId": 23,
		"InclusiveMinRank": 1,
		"ExclusiveMaxRank": 10000,
		"InclusiveMinRange": 500,
		"ExclusiveMaxRange": 1500,
		"InclusiveMinPower": 4500
	},
	{
		"ID": 23,
		"HeroId": 24,
		"InclusiveMinRank": 1,
		"ExclusiveMaxRank": 10000,
		"InclusiveMinRange": 500,
		"ExclusiveMaxRange": 1500,
		"InclusiveMinPower": 4500
	},
	{
		"ID": 24,
		"HeroId": 25,
		"InclusiveMinRank": 1,
		"ExclusiveMaxRank": 10000,
		"InclusiveMinRange": 2500,
		"ExclusiveMaxRange": 3500,
		"InclusiveMinPower": 5500
	},
	{
		"ID": 25,
		"HeroId": 26,
		"InclusiveMinRank": 1,
		"ExclusiveMaxRank": 10000,
		"InclusiveMinRange": 2500,
		"ExclusiveMaxRange": 3500,
		"InclusiveMinPower": 5000
	},
	{
		"ID": 26,
		"HeroId": 27,
		"InclusiveMinRank": 1,
		"ExclusiveMaxRank": 10000,
		"InclusiveMinRange": 2500,
		"ExclusiveMaxRange": 3500,
		"InclusiveMinPower": 5000
	},
	{
		"ID": 27,
		"HeroId": 28,
		"InclusiveMinRank": 1,
		"ExclusiveMaxRank": 10000,
		"InclusiveMinRange": 2500,
		"ExclusiveMaxRange": 3500,
		"InclusiveMinPower": 4500
	},
	{
		"ID": 28,
		"HeroId": 29,
		"InclusiveMinRank": 1,
		"ExclusiveMaxRank": 10000,
		"InclusiveMinRange": 2500,
		"ExclusiveMaxRange": 3500,
		"InclusiveMinPower": 4500
	},
	{
		"ID": 29,
		"HeroId": 30,
		"InclusiveMinRank": 1,
		"ExclusiveMaxRank": 10000,
		"InclusiveMinRange": 1500,
		"ExclusiveMaxRange": 2500,
		"InclusiveMinPower": 4500
	},
	{
		"ID": 30,
		"HeroId": 31,
		"InclusiveMinRank": 1,
		"ExclusiveMaxRank": 10000,
		"InclusiveMinRange": 500,
		"ExclusiveMaxRange": 1500,
		"InclusiveMinPower": 4500
	},
	{
		"ID": 31,
		"HeroId": 32,
		"InclusiveMinRank": 1,
		"ExclusiveMaxRank": 10000,
		"InclusiveMinRange": 1500,
		"ExclusiveMaxRange": 2500,
		"InclusiveMinPower": 4500
	},
	{
		"ID": 32,
		"HeroId": 33,
		"InclusiveMinRank": 1,
		"ExclusiveMaxRank": 10000,
		"InclusiveMinRange": 1500,
		"ExclusiveMaxRange": 2500,
		"InclusiveMinPower": 4500
	},
	{
		"ID": 33,
		"HeroId": 34,
		"InclusiveMinRank": 1,
		"ExclusiveMaxRank": 10000,
		"InclusiveMinRange": 1500,
		"ExclusiveMaxRange": 2500,
		"InclusiveMinPower": 4500
	},
	{
		"ID": 34,
		"HeroId": 36,
		"InclusiveMinRank": 1,
		"ExclusiveMaxRank": 10000,
		"InclusiveMinRange": 1500,
		"ExclusiveMaxRange": 2500,
		"InclusiveMinPower": 4500
	},
	{
		"ID": 35,
		"HeroId": 37,
		"InclusiveMinRank": 1,
		"ExclusiveMaxRank": 10000,
		"InclusiveMinRange": 1500,
		"ExclusiveMaxRange": 2500,
		"InclusiveMinPower": 5500
	},
	{
		"ID": 36,
		"HeroId": 38,
		"InclusiveMinRank": 1,
		"ExclusiveMaxRank": 10000,
		"InclusiveMinRange": 500,
		"ExclusiveMaxRange": 1500,
		"InclusiveMinPower": 4500
	},
	{
		"ID": 37,
		"HeroId": 39,
		"InclusiveMinRank": 1,
		"ExclusiveMaxRank": 10000,
		"InclusiveMinRange": 500,
		"ExclusiveMaxRange": 1500,
		"InclusiveMinPower": 4500
	},
	{
		"ID": 38,
		"HeroId": 40,
		"InclusiveMinRank": 1,
		"ExclusiveMaxRank": 10000,
		"InclusiveMinRange": 500,
		"ExclusiveMaxRange": 1500,
		"InclusiveMinPower": 4500
	},
	{
		"ID": 39,
		"HeroId": 41,
		"InclusiveMinRank": 1,
		"ExclusiveMaxRank": 10000,
		"InclusiveMinRange": 500,
		"ExclusiveMaxRange": 1500,
		"InclusiveMinPower": 4500
	},
	{
		"ID": 40,
		"HeroId": 42,
		"InclusiveMinRank": 1,
		"ExclusiveMaxRank": 10000,
		"InclusiveMinRange": 500,
		"ExclusiveMaxRange": 1500,
		"InclusiveMinPower": 4500
	},
	{
		"ID": 41,
		"HeroId": 43,
		"InclusiveMinRank": 1,
		"ExclusiveMaxRank": 10000,
		"InclusiveMinRange": 500,
		"ExclusiveMaxRange": 1500,
		"InclusiveMinPower": 4500
	},
	{
		"ID": 42,
		"HeroId": 44,
		"InclusiveMinRank": 1,
		"ExclusiveMaxRank": 10000,
		"InclusiveMinRange": 500,
		"ExclusiveMaxRange": 1500,
		"InclusiveMinPower": 4500
	},
	{
		"ID": 43,
		"HeroId": 45,
		"InclusiveMinRank": 1,
		"ExclusiveMaxRank": 10000,
		"InclusiveMinRange": 500,
		"ExclusiveMaxRange": 1500,
		"InclusiveMinPower": 4500
	},
	{
		"ID": 44,
		"HeroId": 47,
		"InclusiveMinRank": 1,
		"ExclusiveMaxRank": 10000,
		"InclusiveMinRange": 500,
		"ExclusiveMaxRange": 1500,
		"InclusiveMinPower": 4500
	},
	{
		"ID": 45,
		"HeroId": 48,
		"InclusiveMinRank": 1,
		"ExclusiveMaxRank": 10000,
		"InclusiveMinRange": 500,
		"ExclusiveMaxRange": 1500,
		"InclusiveMinPower": 4500
	},
	{
		"ID": 46,
		"HeroId": 49,
		"InclusiveMinRank": 1,
		"ExclusiveMaxRank": 10000,
		"InclusiveMinRange": 1500,
		"ExclusiveMaxRange": 2500,
		"InclusiveMinPower": 5000
	},
	{
		"ID": 47,
		"HeroId": 51,
		"InclusiveMinRank": 1,
		"ExclusiveMaxRank": 10000,
		"InclusiveMinRange": 2500,
		"ExclusiveMaxRange": 3500,
		"InclusiveMinPower": 5000
	},
	{
		"ID": 48,
		"HeroId": 52,
		"InclusiveMinRank": 1,
		"ExclusiveMaxRank": 10000,
		"InclusiveMinRange": 2500,
		"ExclusiveMaxRange": 3500,
		"InclusiveMinPower": 5000
	},
	{
		"ID": 49,
		"HeroId": 53,
		"InclusiveMinRank": 1,
		"ExclusiveMaxRank": 10000,
		"InclusiveMinRange": 2500,
		"ExclusiveMaxRange": 3500,
		"InclusiveMinPower": 5500
	},
	{
		"ID": 50,
		"HeroId": 54,
		"InclusiveMinRank": 1,
		"ExclusiveMaxRank": 10000,
		"InclusiveMinRange": 2500,
		"ExclusiveMaxRange": 3500,
		"InclusiveMinPower": 5500
	},
	{
		"ID": 51,
		"HeroId": 55,
		"InclusiveMinRank": 1,
		"ExclusiveMaxRank": 10000,
		"InclusiveMinRange": 2500,
		"ExclusiveMaxRange": 3500,
		"InclusiveMinPower": 5500
	},
	{
		"ID": 52,
		"HeroId": 56,
		"InclusiveMinRank": 1,
		"ExclusiveMaxRank": 10000,
		"InclusiveMinRange": 2500,
		"ExclusiveMaxRange": 3500,
		"InclusiveMinPower": 5000
	},
	{
		"ID": 53,
		"HeroId": 69,
		"InclusiveMinRank": 1,
		"ExclusiveMaxRank": 10000,
		"InclusiveMinRange": 1500,
		"ExclusiveMaxRange": 2500,
		"InclusiveMinPower": 5500
	},
	{
		"ID": 54,
		"HeroId": 70,
		"InclusiveMinRank": 1,
		"ExclusiveMaxRank": 10000,
		"InclusiveMinRange": 2500,
		"ExclusiveMaxRange": 3500,
		"InclusiveMinPower": 5000
	},
	{
		"ID": 55,
		"HeroId": 74,
		"InclusiveMinRank": 1,
		"ExclusiveMaxRank": 10000,
		"InclusiveMinRange": 1500,
		"ExclusiveMaxRange": 2500,
		"InclusiveMinPower": 5000
	},
	{
		"ID": 56,
		"HeroId": 71,
		"InclusiveMinRank": 1,
		"ExclusiveMaxRank": 10000,
		"InclusiveMinRange": 2500,
		"ExclusiveMaxRange": 3500,
		"InclusiveMinPower": 5500
	},
	{
		"ID": 57,
		"HeroId": 72,
		"InclusiveMinRank": 1,
		"ExclusiveMaxRank": 10000,
		"InclusiveMinRange": 2500,
		"ExclusiveMaxRange": 3500,
		"InclusiveMinPower": 5500
	},
	{
		"ID": 58,
		"HeroId": 73,
		"InclusiveMinRank": 1,
		"ExclusiveMaxRank": 10000,
		"InclusiveMinRange": 1500,
		"ExclusiveMaxRange": 2500,
		"InclusiveMinPower": 5500
	},
	{
		"ID": 59,
		"HeroId": 60,
		"InclusiveMinRank": 1,
		"ExclusiveMaxRank": 10000,
		"InclusiveMinRange": 2500,
		"ExclusiveMaxRange": 3500,
		"InclusiveMinPower": 5500
	},
	{
		"ID": 60,
		"HeroId": 61,
		"InclusiveMinRank": 1,
		"ExclusiveMaxRank": 10000,
		"InclusiveMinRange": 2500,
		"ExclusiveMaxRange": 3500,
		"InclusiveMinPower": 5500
	},
	{
		"ID": 61,
		"HeroId": 57,
		"InclusiveMinRank": 1,
		"ExclusiveMaxRank": 10000,
		"InclusiveMinRange": 500,
		"ExclusiveMaxRange": 1500,
		"InclusiveMinPower": 4500
	},
	{
		"ID": 62,
		"HeroId": 58,
		"InclusiveMinRank": 1,
		"ExclusiveMaxRank": 10000,
		"InclusiveMinRange": 500,
		"ExclusiveMaxRange": 1500,
		"InclusiveMinPower": 4500
	},
	{
		"ID": 63,
		"HeroId": 59,
		"InclusiveMinRank": 1,
		"ExclusiveMaxRank": 10000,
		"InclusiveMinRange": 1500,
		"ExclusiveMaxRange": 2500,
		"InclusiveMinPower": 5500
	},
	{
		"ID": 64,
		"HeroId": 79,
		"InclusiveMinRank": 1,
		"ExclusiveMaxRank": 10000,
		"InclusiveMinRange": 1500,
		"ExclusiveMaxRange": 2500,
		"InclusiveMinPower": 5500
	},
	{
		"ID": 65,
		"HeroId": 80,
		"InclusiveMinRank": 1,
		"ExclusiveMaxRank": 10000,
		"InclusiveMinRange": 1500,
		"ExclusiveMaxRange": 2500,
		"InclusiveMinPower": 5500
	},
	{
		"ID": 66,
		"HeroId": 81,
		"InclusiveMinRank": 1,
		"ExclusiveMaxRank": 10000,
		"InclusiveMinRange": 1500,
		"ExclusiveMaxRange": 2500,
		"InclusiveMinPower": 5000
	},
	{
		"ID": 67,
		"HeroId": 35,
		"InclusiveMinRank": 1,
		"ExclusiveMaxRank": 10000,
		"InclusiveMinRange": 500,
		"ExclusiveMaxRange": 1500,
		"InclusiveMinPower": 4500
	},
	{
		"ID": 68,
		"HeroId": 66,
		"InclusiveMinRank": 1,
		"ExclusiveMaxRank": 10000,
		"InclusiveMinRange": 1500,
		"ExclusiveMaxRange": 2500,
		"InclusiveMinPower": 5500
	},
	{
		"ID": 69,
		"HeroId": 88,
		"InclusiveMinRank": 1,
		"ExclusiveMaxRank": 10000,
		"InclusiveMinRange": 1500,
		"ExclusiveMaxRange": 2500,
		"InclusiveMinPower": 5500
	},
	{
		"ID": 70,
		"HeroId": 67,
		"InclusiveMinRank": 1,
		"ExclusiveMaxRank": 10000,
		"InclusiveMinRange": 1500,
		"ExclusiveMaxRange": 2500,
		"InclusiveMinPower": 4500
	},
	{
		"ID": 71,
		"HeroId": 89,
		"InclusiveMinRank": 1,
		"ExclusiveMaxRank": 10000,
		"InclusiveMinRange": 1500,
		"ExclusiveMaxRange": 2500,
		"InclusiveMinPower": 5500
	},
	{
		"ID": 72,
		"HeroId": 82,
		"InclusiveMinRank": 1,
		"ExclusiveMaxRank": 10000,
		"InclusiveMinRange": 1500,
		"ExclusiveMaxRange": 2500,
		"InclusiveMinPower": 4500
	},
	{
		"ID": 73,
		"HeroId": 83,
		"InclusiveMinRank": 1,
		"ExclusiveMaxRank": 10000,
		"InclusiveMinRange": 1500,
		"ExclusiveMaxRange": 2500,
		"InclusiveMinPower": 4500
	},
	{
		"ID": 74,
		"HeroId": 84,
		"InclusiveMinRank": 1,
		"ExclusiveMaxRank": 10000,
		"InclusiveMinRange": 1500,
		"ExclusiveMaxRange": 2500,
		"InclusiveMinPower": 4500
	},
	{
		"ID": 75,
		"HeroId": 85,
		"InclusiveMinRank": 1,
		"ExclusiveMaxRank": 10000,
		"InclusiveMinRange": 1500,
		"ExclusiveMaxRange": 2500,
		"InclusiveMinPower": 4500
	},
	{
		"ID": 76,
		"HeroId": 86,
		"InclusiveMinRank": 1,
		"ExclusiveMaxRank": 10000,
		"InclusiveMinRange": 500,
		"ExclusiveMaxRange": 1500,
		"InclusiveMinPower": 4500
	},
	{
		"ID": 77,
		"HeroId": 62,
		"InclusiveMinRank": 1,
		"ExclusiveMaxRank": 10000,
		"InclusiveMinRange": 1500,
		"ExclusiveMaxRange": 2500,
		"InclusiveMinPower": 4500
	},
	{
		"ID": 78,
		"HeroId": 63,
		"InclusiveMinRank": 1,
		"ExclusiveMaxRank": 10000,
		"InclusiveMinRange": 1500,
		"ExclusiveMaxRange": 2500,
		"InclusiveMinPower": 4500
	},
	{
		"ID": 79,
		"HeroId": 87,
		"InclusiveMinRank": 1,
		"ExclusiveMaxRank": 10000,
		"InclusiveMinRange": 1500,
		"ExclusiveMaxRange": 2500,
		"InclusiveMinPower": 4500
	},
	{
		"ID": 80,
		"HeroId": 91,
		"InclusiveMinRank": 1,
		"ExclusiveMaxRank": 10000,
		"InclusiveMinRange": 1500,
		"ExclusiveMaxRange": 2500,
		"InclusiveMinPower": 4500
	},
	{
		"ID": 81,
		"HeroId": 92,
		"InclusiveMinRank": 1,
		"ExclusiveMaxRank": 10000,
		"InclusiveMinRange": 1500,
		"ExclusiveMaxRange": 2500,
		"InclusiveMinPower": 4500
	},
	{
		"ID": 82,
		"HeroId": 65,
		"InclusiveMinRank": 1,
		"ExclusiveMaxRank": 10000,
		"InclusiveMinRange": 1500,
		"ExclusiveMaxRange": 2500,
		"InclusiveMinPower": 4500
	},
	{
		"ID": 83,
		"HeroId": 93,
		"InclusiveMinRank": 1,
		"ExclusiveMaxRank": 10000,
		"InclusiveMinRange": 1500,
		"ExclusiveMaxRange": 2500,
		"InclusiveMinPower": 4500
	},
	{
		"ID": 84,
		"HeroId": 64,
		"InclusiveMinRank": 1,
		"ExclusiveMaxRank": 10000,
		"InclusiveMinRange": 1500,
		"ExclusiveMaxRange": 2500,
		"InclusiveMinPower": 4500
	},
	{
		"ID": 85,
		"HeroId": 94,
		"InclusiveMinRank": 1,
		"ExclusiveMaxRank": 10000,
		"InclusiveMinRange": 1500,
		"ExclusiveMaxRange": 2500,
		"InclusiveMinPower": 4500
	},
	{
		"ID": 86,
		"HeroId": 95,
		"InclusiveMinRank": 1,
		"ExclusiveMaxRank": 10000,
		"InclusiveMinRange": 500,
		"ExclusiveMaxRange": 1500,
		"InclusiveMinPower": 4500
	},
	{
		"ID": 87,
		"HeroId": 75,
		"InclusiveMinRank": 1,
		"ExclusiveMaxRank": 10000,
		"InclusiveMinRange": 1500,
		"ExclusiveMaxRange": 2500,
		"InclusiveMinPower": 4500
	},
	{
		"ID": 88,
		"HeroId": 76,
		"InclusiveMinRank": 1,
		"ExclusiveMaxRank": 10000,
		"InclusiveMinRange": 1500,
		"ExclusiveMaxRange": 2500,
		"InclusiveMinPower": 4500
	},
	{
		"ID": 89,
		"HeroId": 77,
		"InclusiveMinRank": 1,
		"ExclusiveMaxRank": 10000,
		"InclusiveMinRange": 500,
		"ExclusiveMaxRange": 1500,
		"InclusiveMinPower": 4500
	},
	{
		"ID": 90,
		"HeroId": 78,
		"InclusiveMinRank": 1,
		"ExclusiveMaxRank": 10000,
		"InclusiveMinRange": 500,
		"ExclusiveMaxRange": 1500,
		"InclusiveMinPower": 4500
	},
	{
		"ID": 91,
		"HeroId": 110,
		"InclusiveMinRank": 1,
		"ExclusiveMaxRank": 10000,
		"InclusiveMinRange": 500,
		"ExclusiveMaxRange": 1500,
		"InclusiveMinPower": 4500
	},
	{
		"ID": 92,
		"HeroId": 111,
		"InclusiveMinRank": 1,
		"ExclusiveMaxRank": 10000,
		"InclusiveMinRange": 500,
		"ExclusiveMaxRange": 1500,
		"InclusiveMinPower": 4500
	},
	{
		"ID": 93,
		"HeroId": 97,
		"InclusiveMinRank": 1,
		"ExclusiveMaxRank": 10000,
		"InclusiveMinRange": 500,
		"ExclusiveMaxRange": 1500,
		"InclusiveMinPower": 4500
	},
	{
		"ID": 94,
		"HeroId": 103,
		"InclusiveMinRank": 1,
		"ExclusiveMaxRank": 10000,
		"InclusiveMinRange": 500,
		"ExclusiveMaxRange": 1500,
		"InclusiveMinPower": 4500
	}
]