[
	{
		"ID": 1,
		"CardPoolID": 48,
		"BeforeExchangeItems": [
			{
				"GoodsType": "GoodsType_Item",
				"Id": 1029,
				"Count": 50
			},
			{
				"GoodsType": "GoodsType_Item",
				"Id": 3015,
				"Count": 1
			}
		],
		"ExchangeCount": 1,
		"AfterExchangeItems": [
			{
				"GoodsType": "GoodsType_Item",
				"Id": 1026,
				"Count": 50
			}
		]
	},
	{
		"ID": 2,
		"CardPoolID": 48,
		"BeforeExchangeItems": [
			{
				"GoodsType": "GoodsType_Item",
				"Id": 1026,
				"Count": 50
			},
			{
				"GoodsType": "GoodsType_Item",
				"Id": 3015,
				"Count": 1
			}
		],
		"ExchangeCount": 1,
		"AfterExchangeItems": [
			{
				"GoodsType": "GoodsType_Item",
				"Id": 1066,
				"Count": 50
			}
		]
	},
	{
		"ID": 3,
		"CardPoolID": 48,
		"BeforeExchangeItems": [
			{
				"GoodsType": "GoodsType_Item",
				"Id": 1066,
				"Count": 50
			},
			{
				"GoodsType": "GoodsType_Item",
				"Id": 3015,
				"Count": 1
			}
		],
		"ExchangeCount": 1,
		"AfterExchangeItems": [
			{
				"GoodsType": "GoodsType_Item",
				"Id": 1029,
				"Count": 50
			}
		]
	},
	{
		"ID": 4,
		"CardPoolID": 48,
		"BeforeExchangeItems": [
			{
				"GoodsType": "GoodsType_Item",
				"Id": 1029,
				"Count": 50
			},
			{
				"GoodsType": "GoodsType_Item",
				"Id": 3015,
				"Count": 1
			}
		],
		"ExchangeCount": 1,
		"AfterExchangeItems": [
			{
				"GoodsType": "GoodsType_Item",
				"Id": 1066,
				"Count": 50
			}
		]
	},
	{
		"ID": 5,
		"CardPoolID": 48,
		"BeforeExchangeItems": [
			{
				"GoodsType": "GoodsType_Item",
				"Id": 1026,
				"Count": 50
			},
			{
				"GoodsType": "GoodsType_Item",
				"Id": 3015,
				"Count": 1
			}
		],
		"ExchangeCount": 1,
		"AfterExchangeItems": [
			{
				"GoodsType": "GoodsType_Item",
				"Id": 1029,
				"Count": 50
			}
		]
	},
	{
		"ID": 6,
		"CardPoolID": 48,
		"BeforeExchangeItems": [
			{
				"GoodsType": "GoodsType_Item",
				"Id": 1066,
				"Count": 50
			},
			{
				"GoodsType": "GoodsType_Item",
				"Id": 3015,
				"Count": 1
			}
		],
		"ExchangeCount": 1,
		"AfterExchangeItems": [
			{
				"GoodsType": "GoodsType_Item",
				"Id": 1026,
				"Count": 50
			}
		]
	},
	{
		"ID": 7,
		"CardPoolID": 48,
		"BeforeExchangeItems": [
			{
				"GoodsType": "GoodsType_Item",
				"Id": 3015,
				"Count": 1
			}
		],
		"ExchangeCount": 99,
		"AfterExchangeItems": [
			{
				"GoodsType": "GoodsType_MemoryEssence",
				"Id": 0,
				"Count": 300
			}
		]
	},
	{
		"ID": 8,
		"CardPoolID": 50,
		"BeforeExchangeItems": [
			{
				"GoodsType": "GoodsType_Item",
				"Id": 1088,
				"Count": 50
			},
			{
				"GoodsType": "GoodsType_Item",
				"Id": 3015,
				"Count": 1
			}
		],
		"ExchangeCount": 1,
		"AfterExchangeItems": [
			{
				"GoodsType": "GoodsType_Item",
				"Id": 1037,
				"Count": 50
			}
		]
	},
	{
		"ID": 9,
		"CardPoolID": 50,
		"BeforeExchangeItems": [
			{
				"GoodsType": "GoodsType_Item",
				"Id": 1037,
				"Count": 50
			},
			{
				"GoodsType": "GoodsType_Item",
				"Id": 3015,
				"Count": 1
			}
		],
		"ExchangeCount": 1,
		"AfterExchangeItems": [
			{
				"GoodsType": "GoodsType_Item",
				"Id": 1038,
				"Count": 50
			}
		]
	},
	{
		"ID": 10,
		"CardPoolID": 50,
		"BeforeExchangeItems": [
			{
				"GoodsType": "GoodsType_Item",
				"Id": 1038,
				"Count": 50
			},
			{
				"GoodsType": "GoodsType_Item",
				"Id": 3015,
				"Count": 1
			}
		],
		"ExchangeCount": 1,
		"AfterExchangeItems": [
			{
				"GoodsType": "GoodsType_Item",
				"Id": 1088,
				"Count": 50
			}
		]
	},
	{
		"ID": 11,
		"CardPoolID": 50,
		"BeforeExchangeItems": [
			{
				"GoodsType": "GoodsType_Item",
				"Id": 1088,
				"Count": 50
			},
			{
				"GoodsType": "GoodsType_Item",
				"Id": 3015,
				"Count": 1
			}
		],
		"ExchangeCount": 1,
		"AfterExchangeItems": [
			{
				"GoodsType": "GoodsType_Item",
				"Id": 1038,
				"Count": 50
			}
		]
	},
	{
		"ID": 12,
		"CardPoolID": 50,
		"BeforeExchangeItems": [
			{
				"GoodsType": "GoodsType_Item",
				"Id": 1037,
				"Count": 50
			},
			{
				"GoodsType": "GoodsType_Item",
				"Id": 3015,
				"Count": 1
			}
		],
		"ExchangeCount": 1,
		"AfterExchangeItems": [
			{
				"GoodsType": "GoodsType_Item",
				"Id": 1088,
				"Count": 50
			}
		]
	},
	{
		"ID": 13,
		"CardPoolID": 50,
		"BeforeExchangeItems": [
			{
				"GoodsType": "GoodsType_Item",
				"Id": 1038,
				"Count": 50
			},
			{
				"GoodsType": "GoodsType_Item",
				"Id": 3015,
				"Count": 1
			}
		],
		"ExchangeCount": 1,
		"AfterExchangeItems": [
			{
				"GoodsType": "GoodsType_Item",
				"Id": 1037,
				"Count": 50
			}
		]
	},
	{
		"ID": 14,
		"CardPoolID": 50,
		"BeforeExchangeItems": [
			{
				"GoodsType": "GoodsType_Item",
				"Id": 3015,
				"Count": 1
			}
		],
		"ExchangeCount": 99,
		"AfterExchangeItems": [
			{
				"GoodsType": "GoodsType_MemoryEssence",
				"Id": 0,
				"Count": 300
			}
		]
	},
	{
		"ID": 15,
		"CardPoolID": 51,
		"BeforeExchangeItems": [
			{
				"GoodsType": "GoodsType_Item",
				"Id": 1009,
				"Count": 50
			},
			{
				"GoodsType": "GoodsType_Item",
				"Id": 3015,
				"Count": 1
			}
		],
		"ExchangeCount": 2,
		"AfterExchangeItems": [
			{
				"GoodsType": "GoodsType_Item",
				"Id": 1055,
				"Count": 50
			}
		]
	},
	{
		"ID": 16,
		"CardPoolID": 51,
		"BeforeExchangeItems": [
			{
				"GoodsType": "GoodsType_Item",
				"Id": 1055,
				"Count": 50
			},
			{
				"GoodsType": "GoodsType_Item",
				"Id": 3015,
				"Count": 1
			}
		],
		"ExchangeCount": 2,
		"AfterExchangeItems": [
			{
				"GoodsType": "GoodsType_Item",
				"Id": 1009,
				"Count": 50
			}
		]
	},
	{
		"ID": 17,
		"CardPoolID": 51,
		"BeforeExchangeItems": [
			{
				"GoodsType": "GoodsType_Item",
				"Id": 3015,
				"Count": 1
			}
		],
		"ExchangeCount": 99,
		"AfterExchangeItems": [
			{
				"GoodsType": "GoodsType_MemoryEssence",
				"Id": 0,
				"Count": 300
			}
		]
	},
	{
		"ID": 18,
		"CardPoolID": 52,
		"BeforeExchangeItems": [
			{
				"GoodsType": "GoodsType_Item",
				"Id": 1010,
				"Count": 50
			},
			{
				"GoodsType": "GoodsType_Item",
				"Id": 3015,
				"Count": 1
			}
		],
		"ExchangeCount": 1,
		"AfterExchangeItems": [
			{
				"GoodsType": "GoodsType_Item",
				"Id": 1025,
				"Count": 50
			}
		]
	},
	{
		"ID": 19,
		"CardPoolID": 52,
		"BeforeExchangeItems": [
			{
				"GoodsType": "GoodsType_Item",
				"Id": 1025,
				"Count": 50
			},
			{
				"GoodsType": "GoodsType_Item",
				"Id": 3015,
				"Count": 1
			}
		],
		"ExchangeCount": 1,
		"AfterExchangeItems": [
			{
				"GoodsType": "GoodsType_Item",
				"Id": 1056,
				"Count": 50
			}
		]
	},
	{
		"ID": 20,
		"CardPoolID": 52,
		"BeforeExchangeItems": [
			{
				"GoodsType": "GoodsType_Item",
				"Id": 1056,
				"Count": 50
			},
			{
				"GoodsType": "GoodsType_Item",
				"Id": 3015,
				"Count": 1
			}
		],
		"ExchangeCount": 1,
		"AfterExchangeItems": [
			{
				"GoodsType": "GoodsType_Item",
				"Id": 1010,
				"Count": 50
			}
		]
	},
	{
		"ID": 21,
		"CardPoolID": 52,
		"BeforeExchangeItems": [
			{
				"GoodsType": "GoodsType_Item",
				"Id": 1010,
				"Count": 50
			},
			{
				"GoodsType": "GoodsType_Item",
				"Id": 3015,
				"Count": 1
			}
		],
		"ExchangeCount": 1,
		"AfterExchangeItems": [
			{
				"GoodsType": "GoodsType_Item",
				"Id": 1056,
				"Count": 50
			}
		]
	},
	{
		"ID": 22,
		"CardPoolID": 52,
		"BeforeExchangeItems": [
			{
				"GoodsType": "GoodsType_Item",
				"Id": 1025,
				"Count": 50
			},
			{
				"GoodsType": "GoodsType_Item",
				"Id": 3015,
				"Count": 1
			}
		],
		"ExchangeCount": 1,
		"AfterExchangeItems": [
			{
				"GoodsType": "GoodsType_Item",
				"Id": 1010,
				"Count": 50
			}
		]
	},
	{
		"ID": 23,
		"CardPoolID": 52,
		"BeforeExchangeItems": [
			{
				"GoodsType": "GoodsType_Item",
				"Id": 1056,
				"Count": 50
			},
			{
				"GoodsType": "GoodsType_Item",
				"Id": 3015,
				"Count": 1
			}
		],
		"ExchangeCount": 1,
		"AfterExchangeItems": [
			{
				"GoodsType": "GoodsType_Item",
				"Id": 1025,
				"Count": 50
			}
		]
	},
	{
		"ID": 24,
		"CardPoolID": 52,
		"BeforeExchangeItems": [
			{
				"GoodsType": "GoodsType_Item",
				"Id": 3015,
				"Count": 1
			}
		],
		"ExchangeCount": 99,
		"AfterExchangeItems": [
			{
				"GoodsType": "GoodsType_MemoryEssence",
				"Id": 0,
				"Count": 300
			}
		]
	},
	{
		"ID": 25,
		"CardPoolID": 55,
		"BeforeExchangeItems": [
			{
				"GoodsType": "GoodsType_Item",
				"Id": 1051,
				"Count": 50
			},
			{
				"GoodsType": "GoodsType_Item",
				"Id": 3015,
				"Count": 1
			}
		],
		"ExchangeCount": 2,
		"AfterExchangeItems": [
			{
				"GoodsType": "GoodsType_Item",
				"Id": 1089,
				"Count": 50
			}
		]
	},
	{
		"ID": 26,
		"CardPoolID": 55,
		"BeforeExchangeItems": [
			{
				"GoodsType": "GoodsType_Item",
				"Id": 1089,
				"Count": 50
			},
			{
				"GoodsType": "GoodsType_Item",
				"Id": 3015,
				"Count": 1
			}
		],
		"ExchangeCount": 2,
		"AfterExchangeItems": [
			{
				"GoodsType": "GoodsType_Item",
				"Id": 1051,
				"Count": 50
			}
		]
	},
	{
		"ID": 27,
		"CardPoolID": 55,
		"BeforeExchangeItems": [
			{
				"GoodsType": "GoodsType_Item",
				"Id": 3015,
				"Count": 1
			}
		],
		"ExchangeCount": 99,
		"AfterExchangeItems": [
			{
				"GoodsType": "GoodsType_MemoryEssence",
				"Id": 0,
				"Count": 300
			}
		]
	},
	{
		"ID": 28,
		"CardPoolID": 56,
		"BeforeExchangeItems": [
			{
				"GoodsType": "GoodsType_Item",
				"Id": 1027,
				"Count": 50
			},
			{
				"GoodsType": "GoodsType_Item",
				"Id": 3015,
				"Count": 1
			}
		],
		"ExchangeCount": 1,
		"AfterExchangeItems": [
			{
				"GoodsType": "GoodsType_Item",
				"Id": 1067,
				"Count": 50
			}
		]
	},
	{
		"ID": 29,
		"CardPoolID": 56,
		"BeforeExchangeItems": [
			{
				"GoodsType": "GoodsType_Item",
				"Id": 1067,
				"Count": 50
			},
			{
				"GoodsType": "GoodsType_Item",
				"Id": 3015,
				"Count": 1
			}
		],
		"ExchangeCount": 1,
		"AfterExchangeItems": [
			{
				"GoodsType": "GoodsType_Item",
				"Id": 1014,
				"Count": 50
			}
		]
	},
	{
		"ID": 30,
		"CardPoolID": 56,
		"BeforeExchangeItems": [
			{
				"GoodsType": "GoodsType_Item",
				"Id": 1014,
				"Count": 50
			},
			{
				"GoodsType": "GoodsType_Item",
				"Id": 3015,
				"Count": 1
			}
		],
		"ExchangeCount": 1,
		"AfterExchangeItems": [
			{
				"GoodsType": "GoodsType_Item",
				"Id": 1027,
				"Count": 50
			}
		]
	},
	{
		"ID": 31,
		"CardPoolID": 56,
		"BeforeExchangeItems": [
			{
				"GoodsType": "GoodsType_Item",
				"Id": 1027,
				"Count": 50
			},
			{
				"GoodsType": "GoodsType_Item",
				"Id": 3015,
				"Count": 1
			}
		],
		"ExchangeCount": 1,
		"AfterExchangeItems": [
			{
				"GoodsType": "GoodsType_Item",
				"Id": 1014,
				"Count": 50
			}
		]
	},
	{
		"ID": 32,
		"CardPoolID": 56,
		"BeforeExchangeItems": [
			{
				"GoodsType": "GoodsType_Item",
				"Id": 1067,
				"Count": 50
			},
			{
				"GoodsType": "GoodsType_Item",
				"Id": 3015,
				"Count": 1
			}
		],
		"ExchangeCount": 1,
		"AfterExchangeItems": [
			{
				"GoodsType": "GoodsType_Item",
				"Id": 1027,
				"Count": 50
			}
		]
	},
	{
		"ID": 33,
		"CardPoolID": 56,
		"BeforeExchangeItems": [
			{
				"GoodsType": "GoodsType_Item",
				"Id": 1014,
				"Count": 50
			},
			{
				"GoodsType": "GoodsType_Item",
				"Id": 3015,
				"Count": 1
			}
		],
		"ExchangeCount": 1,
		"AfterExchangeItems": [
			{
				"GoodsType": "GoodsType_Item",
				"Id": 1067,
				"Count": 50
			}
		]
	},
	{
		"ID": 34,
		"CardPoolID": 56,
		"BeforeExchangeItems": [
			{
				"GoodsType": "GoodsType_Item",
				"Id": 3015,
				"Count": 1
			}
		],
		"ExchangeCount": 99,
		"AfterExchangeItems": [
			{
				"GoodsType": "GoodsType_MemoryEssence",
				"Id": 0,
				"Count": 300
			}
		]
	},
	{
		"ID": 35,
		"CardPoolID": 57,
		"BeforeExchangeItems": [
			{
				"GoodsType": "GoodsType_Item",
				"Id": 1007,
				"Count": 50
			},
			{
				"GoodsType": "GoodsType_Item",
				"Id": 3015,
				"Count": 1
			}
		],
		"ExchangeCount": 1,
		"AfterExchangeItems": [
			{
				"GoodsType": "GoodsType_Item",
				"Id": 1006,
				"Count": 50
			}
		]
	},
	{
		"ID": 36,
		"CardPoolID": 57,
		"BeforeExchangeItems": [
			{
				"GoodsType": "GoodsType_Item",
				"Id": 1006,
				"Count": 50
			},
			{
				"GoodsType": "GoodsType_Item",
				"Id": 3015,
				"Count": 1
			}
		],
		"ExchangeCount": 1,
		"AfterExchangeItems": [
			{
				"GoodsType": "GoodsType_Item",
				"Id": 1012,
				"Count": 50
			}
		]
	},
	{
		"ID": 37,
		"CardPoolID": 57,
		"BeforeExchangeItems": [
			{
				"GoodsType": "GoodsType_Item",
				"Id": 1012,
				"Count": 50
			},
			{
				"GoodsType": "GoodsType_Item",
				"Id": 3015,
				"Count": 1
			}
		],
		"ExchangeCount": 1,
		"AfterExchangeItems": [
			{
				"GoodsType": "GoodsType_Item",
				"Id": 1007,
				"Count": 50
			}
		]
	},
	{
		"ID": 38,
		"CardPoolID": 57,
		"BeforeExchangeItems": [
			{
				"GoodsType": "GoodsType_Item",
				"Id": 1007,
				"Count": 50
			},
			{
				"GoodsType": "GoodsType_Item",
				"Id": 3015,
				"Count": 1
			}
		],
		"ExchangeCount": 1,
		"AfterExchangeItems": [
			{
				"GoodsType": "GoodsType_Item",
				"Id": 1012,
				"Count": 50
			}
		]
	},
	{
		"ID": 39,
		"CardPoolID": 57,
		"BeforeExchangeItems": [
			{
				"GoodsType": "GoodsType_Item",
				"Id": 1006,
				"Count": 50
			},
			{
				"GoodsType": "GoodsType_Item",
				"Id": 3015,
				"Count": 1
			}
		],
		"ExchangeCount": 1,
		"AfterExchangeItems": [
			{
				"GoodsType": "GoodsType_Item",
				"Id": 1007,
				"Count": 50
			}
		]
	},
	{
		"ID": 40,
		"CardPoolID": 57,
		"BeforeExchangeItems": [
			{
				"GoodsType": "GoodsType_Item",
				"Id": 1012,
				"Count": 50
			},
			{
				"GoodsType": "GoodsType_Item",
				"Id": 3015,
				"Count": 1
			}
		],
		"ExchangeCount": 1,
		"AfterExchangeItems": [
			{
				"GoodsType": "GoodsType_Item",
				"Id": 1006,
				"Count": 50
			}
		]
	},
	{
		"ID": 41,
		"CardPoolID": 57,
		"BeforeExchangeItems": [
			{
				"GoodsType": "GoodsType_Item",
				"Id": 3015,
				"Count": 1
			}
		],
		"ExchangeCount": 99,
		"AfterExchangeItems": [
			{
				"GoodsType": "GoodsType_MemoryEssence",
				"Id": 0,
				"Count": 300
			}
		]
	},
	{
		"ID": 42,
		"CardPoolID": 59,
		"BeforeExchangeItems": [
			{
				"GoodsType": "GoodsType_Item",
				"Id": 1054,
				"Count": 50
			},
			{
				"GoodsType": "GoodsType_Item",
				"Id": 3015,
				"Count": 1
			}
		],
		"ExchangeCount": 1,
		"AfterExchangeItems": [
			{
				"GoodsType": "GoodsType_Item",
				"Id": 1052,
				"Count": 50
			}
		]
	},
	{
		"ID": 43,
		"CardPoolID": 59,
		"BeforeExchangeItems": [
			{
				"GoodsType": "GoodsType_Item",
				"Id": 1052,
				"Count": 50
			},
			{
				"GoodsType": "GoodsType_Item",
				"Id": 3015,
				"Count": 1
			}
		],
		"ExchangeCount": 1,
		"AfterExchangeItems": [
			{
				"GoodsType": "GoodsType_Item",
				"Id": 1053,
				"Count": 50
			}
		]
	},
	{
		"ID": 44,
		"CardPoolID": 59,
		"BeforeExchangeItems": [
			{
				"GoodsType": "GoodsType_Item",
				"Id": 1053,
				"Count": 50
			},
			{
				"GoodsType": "GoodsType_Item",
				"Id": 3015,
				"Count": 1
			}
		],
		"ExchangeCount": 1,
		"AfterExchangeItems": [
			{
				"GoodsType": "GoodsType_Item",
				"Id": 1054,
				"Count": 50
			}
		]
	},
	{
		"ID": 45,
		"CardPoolID": 59,
		"BeforeExchangeItems": [
			{
				"GoodsType": "GoodsType_Item",
				"Id": 1054,
				"Count": 50
			},
			{
				"GoodsType": "GoodsType_Item",
				"Id": 3015,
				"Count": 1
			}
		],
		"ExchangeCount": 1,
		"AfterExchangeItems": [
			{
				"GoodsType": "GoodsType_Item",
				"Id": 1053,
				"Count": 50
			}
		]
	},
	{
		"ID": 46,
		"CardPoolID": 59,
		"BeforeExchangeItems": [
			{
				"GoodsType": "GoodsType_Item",
				"Id": 1052,
				"Count": 50
			},
			{
				"GoodsType": "GoodsType_Item",
				"Id": 3015,
				"Count": 1
			}
		],
		"ExchangeCount": 1,
		"AfterExchangeItems": [
			{
				"GoodsType": "GoodsType_Item",
				"Id": 1054,
				"Count": 50
			}
		]
	},
	{
		"ID": 47,
		"CardPoolID": 59,
		"BeforeExchangeItems": [
			{
				"GoodsType": "GoodsType_Item",
				"Id": 1053,
				"Count": 50
			},
			{
				"GoodsType": "GoodsType_Item",
				"Id": 3015,
				"Count": 1
			}
		],
		"ExchangeCount": 1,
		"AfterExchangeItems": [
			{
				"GoodsType": "GoodsType_Item",
				"Id": 1052,
				"Count": 50
			}
		]
	},
	{
		"ID": 48,
		"CardPoolID": 59,
		"BeforeExchangeItems": [
			{
				"GoodsType": "GoodsType_Item",
				"Id": 3015,
				"Count": 1
			}
		],
		"ExchangeCount": 99,
		"AfterExchangeItems": [
			{
				"GoodsType": "GoodsType_MemoryEssence",
				"Id": 0,
				"Count": 300
			}
		]
	},
	{
		"ID": 49,
		"CardPoolID": 60,
		"BeforeExchangeItems": [
			{
				"GoodsType": "GoodsType_Item",
				"Id": 1015,
				"Count": 50
			},
			{
				"GoodsType": "GoodsType_Item",
				"Id": 3015,
				"Count": 1
			}
		],
		"ExchangeCount": 1,
		"AfterExchangeItems": [
			{
				"GoodsType": "GoodsType_Item",
				"Id": 1026,
				"Count": 50
			}
		]
	},
	{
		"ID": 50,
		"CardPoolID": 60,
		"BeforeExchangeItems": [
			{
				"GoodsType": "GoodsType_Item",
				"Id": 1026,
				"Count": 50
			},
			{
				"GoodsType": "GoodsType_Item",
				"Id": 3015,
				"Count": 1
			}
		],
		"ExchangeCount": 1,
		"AfterExchangeItems": [
			{
				"GoodsType": "GoodsType_Item",
				"Id": 1009,
				"Count": 50
			}
		]
	},
	{
		"ID": 51,
		"CardPoolID": 60,
		"BeforeExchangeItems": [
			{
				"GoodsType": "GoodsType_Item",
				"Id": 1009,
				"Count": 50
			},
			{
				"GoodsType": "GoodsType_Item",
				"Id": 3015,
				"Count": 1
			}
		],
		"ExchangeCount": 1,
		"AfterExchangeItems": [
			{
				"GoodsType": "GoodsType_Item",
				"Id": 1015,
				"Count": 50
			}
		]
	},
	{
		"ID": 52,
		"CardPoolID": 60,
		"BeforeExchangeItems": [
			{
				"GoodsType": "GoodsType_Item",
				"Id": 1015,
				"Count": 50
			},
			{
				"GoodsType": "GoodsType_Item",
				"Id": 3015,
				"Count": 1
			}
		],
		"ExchangeCount": 1,
		"AfterExchangeItems": [
			{
				"GoodsType": "GoodsType_Item",
				"Id": 1009,
				"Count": 50
			}
		]
	},
	{
		"ID": 53,
		"CardPoolID": 60,
		"BeforeExchangeItems": [
			{
				"GoodsType": "GoodsType_Item",
				"Id": 1026,
				"Count": 50
			},
			{
				"GoodsType": "GoodsType_Item",
				"Id": 3015,
				"Count": 1
			}
		],
		"ExchangeCount": 1,
		"AfterExchangeItems": [
			{
				"GoodsType": "GoodsType_Item",
				"Id": 1015,
				"Count": 50
			}
		]
	},
	{
		"ID": 54,
		"CardPoolID": 60,
		"BeforeExchangeItems": [
			{
				"GoodsType": "GoodsType_Item",
				"Id": 1009,
				"Count": 50
			},
			{
				"GoodsType": "GoodsType_Item",
				"Id": 3015,
				"Count": 1
			}
		],
		"ExchangeCount": 1,
		"AfterExchangeItems": [
			{
				"GoodsType": "GoodsType_Item",
				"Id": 1026,
				"Count": 50
			}
		]
	},
	{
		"ID": 55,
		"CardPoolID": 60,
		"BeforeExchangeItems": [
			{
				"GoodsType": "GoodsType_Item",
				"Id": 3015,
				"Count": 1
			}
		],
		"ExchangeCount": 99,
		"AfterExchangeItems": [
			{
				"GoodsType": "GoodsType_MemoryEssence",
				"Id": 0,
				"Count": 300
			}
		]
	},
	{
		"ID": 56,
		"CardPoolID": 64,
		"BeforeExchangeItems": [
			{
				"GoodsType": "GoodsType_Item",
				"Id": 1029,
				"Count": 50
			},
			{
				"GoodsType": "GoodsType_Item",
				"Id": 3015,
				"Count": 1
			}
		],
		"ExchangeCount": 1,
		"AfterExchangeItems": [
			{
				"GoodsType": "GoodsType_Item",
				"Id": 1008,
				"Count": 50
			}
		]
	},
	{
		"ID": 57,
		"CardPoolID": 64,
		"BeforeExchangeItems": [
			{
				"GoodsType": "GoodsType_Item",
				"Id": 1008,
				"Count": 50
			},
			{
				"GoodsType": "GoodsType_Item",
				"Id": 3015,
				"Count": 1
			}
		],
		"ExchangeCount": 1,
		"AfterExchangeItems": [
			{
				"GoodsType": "GoodsType_Item",
				"Id": 1056,
				"Count": 50
			}
		]
	},
	{
		"ID": 58,
		"CardPoolID": 64,
		"BeforeExchangeItems": [
			{
				"GoodsType": "GoodsType_Item",
				"Id": 1056,
				"Count": 50
			},
			{
				"GoodsType": "GoodsType_Item",
				"Id": 3015,
				"Count": 1
			}
		],
		"ExchangeCount": 1,
		"AfterExchangeItems": [
			{
				"GoodsType": "GoodsType_Item",
				"Id": 1029,
				"Count": 50
			}
		]
	},
	{
		"ID": 59,
		"CardPoolID": 64,
		"BeforeExchangeItems": [
			{
				"GoodsType": "GoodsType_Item",
				"Id": 1029,
				"Count": 50
			},
			{
				"GoodsType": "GoodsType_Item",
				"Id": 3015,
				"Count": 1
			}
		],
		"ExchangeCount": 1,
		"AfterExchangeItems": [
			{
				"GoodsType": "GoodsType_Item",
				"Id": 1056,
				"Count": 50
			}
		]
	},
	{
		"ID": 60,
		"CardPoolID": 64,
		"BeforeExchangeItems": [
			{
				"GoodsType": "GoodsType_Item",
				"Id": 1008,
				"Count": 50
			},
			{
				"GoodsType": "GoodsType_Item",
				"Id": 3015,
				"Count": 1
			}
		],
		"ExchangeCount": 1,
		"AfterExchangeItems": [
			{
				"GoodsType": "GoodsType_Item",
				"Id": 1029,
				"Count": 50
			}
		]
	},
	{
		"ID": 61,
		"CardPoolID": 64,
		"BeforeExchangeItems": [
			{
				"GoodsType": "GoodsType_Item",
				"Id": 1056,
				"Count": 50
			},
			{
				"GoodsType": "GoodsType_Item",
				"Id": 3015,
				"Count": 1
			}
		],
		"ExchangeCount": 1,
		"AfterExchangeItems": [
			{
				"GoodsType": "GoodsType_Item",
				"Id": 1008,
				"Count": 50
			}
		]
	},
	{
		"ID": 62,
		"CardPoolID": 64,
		"BeforeExchangeItems": [
			{
				"GoodsType": "GoodsType_Item",
				"Id": 3015,
				"Count": 1
			}
		],
		"ExchangeCount": 99,
		"AfterExchangeItems": [
			{
				"GoodsType": "GoodsType_MemoryEssence",
				"Id": 0,
				"Count": 300
			}
		]
	},
	{
		"ID": 63,
		"CardPoolID": 44,
		"BeforeExchangeItems": [
			{
				"GoodsType": "GoodsType_Item",
				"Id": 1059,
				"Count": 50
			},
			{
				"GoodsType": "GoodsType_Item",
				"Id": 3015,
				"Count": 1
			}
		],
		"ExchangeCount": 1,
		"AfterExchangeItems": [
			{
				"GoodsType": "GoodsType_Item",
				"Id": 1060,
				"Count": 50
			}
		]
	},
	{
		"ID": 64,
		"CardPoolID": 44,
		"BeforeExchangeItems": [
			{
				"GoodsType": "GoodsType_Item",
				"Id": 1060,
				"Count": 50
			},
			{
				"GoodsType": "GoodsType_Item",
				"Id": 3015,
				"Count": 1
			}
		],
		"ExchangeCount": 1,
		"AfterExchangeItems": [
			{
				"GoodsType": "GoodsType_Item",
				"Id": 1061,
				"Count": 50
			}
		]
	},
	{
		"ID": 65,
		"CardPoolID": 44,
		"BeforeExchangeItems": [
			{
				"GoodsType": "GoodsType_Item",
				"Id": 1061,
				"Count": 50
			},
			{
				"GoodsType": "GoodsType_Item",
				"Id": 3015,
				"Count": 1
			}
		],
		"ExchangeCount": 1,
		"AfterExchangeItems": [
			{
				"GoodsType": "GoodsType_Item",
				"Id": 1059,
				"Count": 50
			}
		]
	},
	{
		"ID": 66,
		"CardPoolID": 44,
		"BeforeExchangeItems": [
			{
				"GoodsType": "GoodsType_Item",
				"Id": 1059,
				"Count": 50
			},
			{
				"GoodsType": "GoodsType_Item",
				"Id": 3015,
				"Count": 1
			}
		],
		"ExchangeCount": 1,
		"AfterExchangeItems": [
			{
				"GoodsType": "GoodsType_Item",
				"Id": 1061,
				"Count": 50
			}
		]
	},
	{
		"ID": 67,
		"CardPoolID": 44,
		"BeforeExchangeItems": [
			{
				"GoodsType": "GoodsType_Item",
				"Id": 1060,
				"Count": 50
			},
			{
				"GoodsType": "GoodsType_Item",
				"Id": 3015,
				"Count": 1
			}
		],
		"ExchangeCount": 1,
		"AfterExchangeItems": [
			{
				"GoodsType": "GoodsType_Item",
				"Id": 1059,
				"Count": 50
			}
		]
	},
	{
		"ID": 68,
		"CardPoolID": 44,
		"BeforeExchangeItems": [
			{
				"GoodsType": "GoodsType_Item",
				"Id": 1061,
				"Count": 50
			},
			{
				"GoodsType": "GoodsType_Item",
				"Id": 3015,
				"Count": 1
			}
		],
		"ExchangeCount": 1,
		"AfterExchangeItems": [
			{
				"GoodsType": "GoodsType_Item",
				"Id": 1060,
				"Count": 50
			}
		]
	},
	{
		"ID": 69,
		"CardPoolID": 44,
		"BeforeExchangeItems": [
			{
				"GoodsType": "GoodsType_Item",
				"Id": 3015,
				"Count": 1
			}
		],
		"ExchangeCount": 99,
		"AfterExchangeItems": [
			{
				"GoodsType": "GoodsType_MemoryEssence",
				"Id": 0,
				"Count": 300
			}
		]
	},
	{
		"ID": 70,
		"CardPoolID": 66,
		"BeforeExchangeItems": [
			{
				"GoodsType": "GoodsType_Item",
				"Id": 1063,
				"Count": 50
			},
			{
				"GoodsType": "GoodsType_Item",
				"Id": 3015,
				"Count": 1
			}
		],
		"ExchangeCount": 1,
		"AfterExchangeItems": [
			{
				"GoodsType": "GoodsType_Item",
				"Id": 1057,
				"Count": 50
			}
		]
	},
	{
		"ID": 71,
		"CardPoolID": 66,
		"BeforeExchangeItems": [
			{
				"GoodsType": "GoodsType_Item",
				"Id": 1057,
				"Count": 50
			},
			{
				"GoodsType": "GoodsType_Item",
				"Id": 3015,
				"Count": 1
			}
		],
		"ExchangeCount": 1,
		"AfterExchangeItems": [
			{
				"GoodsType": "GoodsType_Item",
				"Id": 1038,
				"Count": 50
			}
		]
	},
	{
		"ID": 72,
		"CardPoolID": 66,
		"BeforeExchangeItems": [
			{
				"GoodsType": "GoodsType_Item",
				"Id": 1038,
				"Count": 50
			},
			{
				"GoodsType": "GoodsType_Item",
				"Id": 3015,
				"Count": 1
			}
		],
		"ExchangeCount": 1,
		"AfterExchangeItems": [
			{
				"GoodsType": "GoodsType_Item",
				"Id": 1063,
				"Count": 50
			}
		]
	},
	{
		"ID": 73,
		"CardPoolID": 66,
		"BeforeExchangeItems": [
			{
				"GoodsType": "GoodsType_Item",
				"Id": 1063,
				"Count": 50
			},
			{
				"GoodsType": "GoodsType_Item",
				"Id": 3015,
				"Count": 1
			}
		],
		"ExchangeCount": 1,
		"AfterExchangeItems": [
			{
				"GoodsType": "GoodsType_Item",
				"Id": 1038,
				"Count": 50
			}
		]
	},
	{
		"ID": 74,
		"CardPoolID": 66,
		"BeforeExchangeItems": [
			{
				"GoodsType": "GoodsType_Item",
				"Id": 1057,
				"Count": 50
			},
			{
				"GoodsType": "GoodsType_Item",
				"Id": 3015,
				"Count": 1
			}
		],
		"ExchangeCount": 1,
		"AfterExchangeItems": [
			{
				"GoodsType": "GoodsType_Item",
				"Id": 1063,
				"Count": 50
			}
		]
	},
	{
		"ID": 75,
		"CardPoolID": 66,
		"BeforeExchangeItems": [
			{
				"GoodsType": "GoodsType_Item",
				"Id": 1038,
				"Count": 50
			},
			{
				"GoodsType": "GoodsType_Item",
				"Id": 3015,
				"Count": 1
			}
		],
		"ExchangeCount": 1,
		"AfterExchangeItems": [
			{
				"GoodsType": "GoodsType_Item",
				"Id": 1057,
				"Count": 50
			}
		]
	},
	{
		"ID": 76,
		"CardPoolID": 66,
		"BeforeExchangeItems": [
			{
				"GoodsType": "GoodsType_Item",
				"Id": 3015,
				"Count": 1
			}
		],
		"ExchangeCount": 99,
		"AfterExchangeItems": [
			{
				"GoodsType": "GoodsType_MemoryEssence",
				"Id": 0,
				"Count": 300
			}
		]
	},
	{
		"ID": 77,
		"CardPoolID": 67,
		"BeforeExchangeItems": [
			{
				"GoodsType": "GoodsType_Item",
				"Id": 1028,
				"Count": 50
			},
			{
				"GoodsType": "GoodsType_Item",
				"Id": 3015,
				"Count": 1
			}
		],
		"ExchangeCount": 2,
		"AfterExchangeItems": [
			{
				"GoodsType": "GoodsType_Item",
				"Id": 1066,
				"Count": 50
			}
		]
	},
	{
		"ID": 78,
		"CardPoolID": 67,
		"BeforeExchangeItems": [
			{
				"GoodsType": "GoodsType_Item",
				"Id": 1066,
				"Count": 50
			},
			{
				"GoodsType": "GoodsType_Item",
				"Id": 3015,
				"Count": 1
			}
		],
		"ExchangeCount": 2,
		"AfterExchangeItems": [
			{
				"GoodsType": "GoodsType_Item",
				"Id": 1028,
				"Count": 50
			}
		]
	},
	{
		"ID": 79,
		"CardPoolID": 67,
		"BeforeExchangeItems": [
			{
				"GoodsType": "GoodsType_Item",
				"Id": 3015,
				"Count": 1
			}
		],
		"ExchangeCount": 99,
		"AfterExchangeItems": [
			{
				"GoodsType": "GoodsType_MemoryEssence",
				"Id": 0,
				"Count": 300
			}
		]
	},
	{
		"ID": 80,
		"CardPoolID": 68,
		"BeforeExchangeItems": [
			{
				"GoodsType": "GoodsType_Item",
				"Id": 1055,
				"Count": 50
			},
			{
				"GoodsType": "GoodsType_Item",
				"Id": 3015,
				"Count": 1
			}
		],
		"ExchangeCount": 1,
		"AfterExchangeItems": [
			{
				"GoodsType": "GoodsType_Item",
				"Id": 1089,
				"Count": 50
			}
		]
	},
	{
		"ID": 81,
		"CardPoolID": 68,
		"BeforeExchangeItems": [
			{
				"GoodsType": "GoodsType_Item",
				"Id": 1089,
				"Count": 50
			},
			{
				"GoodsType": "GoodsType_Item",
				"Id": 3015,
				"Count": 1
			}
		],
		"ExchangeCount": 1,
		"AfterExchangeItems": [
			{
				"GoodsType": "GoodsType_Item",
				"Id": 1037,
				"Count": 50
			}
		]
	},
	{
		"ID": 82,
		"CardPoolID": 68,
		"BeforeExchangeItems": [
			{
				"GoodsType": "GoodsType_Item",
				"Id": 1037,
				"Count": 50
			},
			{
				"GoodsType": "GoodsType_Item",
				"Id": 3015,
				"Count": 1
			}
		],
		"ExchangeCount": 1,
		"AfterExchangeItems": [
			{
				"GoodsType": "GoodsType_Item",
				"Id": 1055,
				"Count": 50
			}
		]
	},
	{
		"ID": 83,
		"CardPoolID": 68,
		"BeforeExchangeItems": [
			{
				"GoodsType": "GoodsType_Item",
				"Id": 1055,
				"Count": 50
			},
			{
				"GoodsType": "GoodsType_Item",
				"Id": 3015,
				"Count": 1
			}
		],
		"ExchangeCount": 1,
		"AfterExchangeItems": [
			{
				"GoodsType": "GoodsType_Item",
				"Id": 1037,
				"Count": 50
			}
		]
	},
	{
		"ID": 84,
		"CardPoolID": 68,
		"BeforeExchangeItems": [
			{
				"GoodsType": "GoodsType_Item",
				"Id": 1089,
				"Count": 50
			},
			{
				"GoodsType": "GoodsType_Item",
				"Id": 3015,
				"Count": 1
			}
		],
		"ExchangeCount": 1,
		"AfterExchangeItems": [
			{
				"GoodsType": "GoodsType_Item",
				"Id": 1055,
				"Count": 50
			}
		]
	},
	{
		"ID": 85,
		"CardPoolID": 68,
		"BeforeExchangeItems": [
			{
				"GoodsType": "GoodsType_Item",
				"Id": 1037,
				"Count": 50
			},
			{
				"GoodsType": "GoodsType_Item",
				"Id": 3015,
				"Count": 1
			}
		],
		"ExchangeCount": 1,
		"AfterExchangeItems": [
			{
				"GoodsType": "GoodsType_Item",
				"Id": 1089,
				"Count": 50
			}
		]
	},
	{
		"ID": 86,
		"CardPoolID": 68,
		"BeforeExchangeItems": [
			{
				"GoodsType": "GoodsType_Item",
				"Id": 3015,
				"Count": 1
			}
		],
		"ExchangeCount": 99,
		"AfterExchangeItems": [
			{
				"GoodsType": "GoodsType_MemoryEssence",
				"Id": 0,
				"Count": 300
			}
		]
	},
	{
		"ID": 87,
		"CardPoolID": 71,
		"BeforeExchangeItems": [
			{
				"GoodsType": "GoodsType_Item",
				"Id": 1087,
				"Count": 50
			},
			{
				"GoodsType": "GoodsType_Item",
				"Id": 3015,
				"Count": 1
			}
		],
		"ExchangeCount": 2,
		"AfterExchangeItems": [
			{
				"GoodsType": "GoodsType_Item",
				"Id": 1051,
				"Count": 50
			}
		]
	},
	{
		"ID": 88,
		"CardPoolID": 71,
		"BeforeExchangeItems": [
			{
				"GoodsType": "GoodsType_Item",
				"Id": 1051,
				"Count": 50
			},
			{
				"GoodsType": "GoodsType_Item",
				"Id": 3015,
				"Count": 1
			}
		],
		"ExchangeCount": 2,
		"AfterExchangeItems": [
			{
				"GoodsType": "GoodsType_Item",
				"Id": 1087,
				"Count": 50
			}
		]
	},
	{
		"ID": 89,
		"CardPoolID": 71,
		"BeforeExchangeItems": [
			{
				"GoodsType": "GoodsType_Item",
				"Id": 3015,
				"Count": 1
			}
		],
		"ExchangeCount": 99,
		"AfterExchangeItems": [
			{
				"GoodsType": "GoodsType_MemoryEssence",
				"Id": 0,
				"Count": 300
			}
		]
	},
	{
		"ID": 90,
		"CardPoolID": 72,
		"BeforeExchangeItems": [
			{
				"GoodsType": "GoodsType_Item",
				"Id": 1092,
				"Count": 50
			},
			{
				"GoodsType": "GoodsType_Item",
				"Id": 3015,
				"Count": 1
			}
		],
		"ExchangeCount": 1,
		"AfterExchangeItems": [
			{
				"GoodsType": "GoodsType_Item",
				"Id": 1027,
				"Count": 50
			}
		]
	},
	{
		"ID": 91,
		"CardPoolID": 72,
		"BeforeExchangeItems": [
			{
				"GoodsType": "GoodsType_Item",
				"Id": 1027,
				"Count": 50
			},
			{
				"GoodsType": "GoodsType_Item",
				"Id": 3015,
				"Count": 1
			}
		],
		"ExchangeCount": 1,
		"AfterExchangeItems": [
			{
				"GoodsType": "GoodsType_Item",
				"Id": 1088,
				"Count": 50
			}
		]
	},
	{
		"ID": 92,
		"CardPoolID": 72,
		"BeforeExchangeItems": [
			{
				"GoodsType": "GoodsType_Item",
				"Id": 1088,
				"Count": 50
			},
			{
				"GoodsType": "GoodsType_Item",
				"Id": 3015,
				"Count": 1
			}
		],
		"ExchangeCount": 1,
		"AfterExchangeItems": [
			{
				"GoodsType": "GoodsType_Item",
				"Id": 1092,
				"Count": 50
			}
		]
	},
	{
		"ID": 93,
		"CardPoolID": 72,
		"BeforeExchangeItems": [
			{
				"GoodsType": "GoodsType_Item",
				"Id": 1092,
				"Count": 50
			},
			{
				"GoodsType": "GoodsType_Item",
				"Id": 3015,
				"Count": 1
			}
		],
		"ExchangeCount": 1,
		"AfterExchangeItems": [
			{
				"GoodsType": "GoodsType_Item",
				"Id": 1088,
				"Count": 50
			}
		]
	},
	{
		"ID": 94,
		"CardPoolID": 72,
		"BeforeExchangeItems": [
			{
				"GoodsType": "GoodsType_Item",
				"Id": 1027,
				"Count": 50
			},
			{
				"GoodsType": "GoodsType_Item",
				"Id": 3015,
				"Count": 1
			}
		],
		"ExchangeCount": 1,
		"AfterExchangeItems": [
			{
				"GoodsType": "GoodsType_Item",
				"Id": 1092,
				"Count": 50
			}
		]
	},
	{
		"ID": 95,
		"CardPoolID": 72,
		"BeforeExchangeItems": [
			{
				"GoodsType": "GoodsType_Item",
				"Id": 1088,
				"Count": 50
			},
			{
				"GoodsType": "GoodsType_Item",
				"Id": 3015,
				"Count": 1
			}
		],
		"ExchangeCount": 1,
		"AfterExchangeItems": [
			{
				"GoodsType": "GoodsType_Item",
				"Id": 1027,
				"Count": 50
			}
		]
	},
	{
		"ID": 96,
		"CardPoolID": 72,
		"BeforeExchangeItems": [
			{
				"GoodsType": "GoodsType_Item",
				"Id": 3015,
				"Count": 1
			}
		],
		"ExchangeCount": 99,
		"AfterExchangeItems": [
			{
				"GoodsType": "GoodsType_MemoryEssence",
				"Id": 0,
				"Count": 300
			}
		]
	},
	{
		"ID": 97,
		"CardPoolID": 75,
		"BeforeExchangeItems": [
			{
				"GoodsType": "GoodsType_Item",
				"Id": 1065,
				"Count": 50
			},
			{
				"GoodsType": "GoodsType_Item",
				"Id": 3015,
				"Count": 1
			}
		],
		"ExchangeCount": 1,
		"AfterExchangeItems": [
			{
				"GoodsType": "GoodsType_Item",
				"Id": 1014,
				"Count": 50
			}
		]
	},
	{
		"ID": 98,
		"CardPoolID": 75,
		"BeforeExchangeItems": [
			{
				"GoodsType": "GoodsType_Item",
				"Id": 1014,
				"Count": 50
			},
			{
				"GoodsType": "GoodsType_Item",
				"Id": 3015,
				"Count": 1
			}
		],
		"ExchangeCount": 1,
		"AfterExchangeItems": [
			{
				"GoodsType": "GoodsType_Item",
				"Id": 1067,
				"Count": 50
			}
		]
	},
	{
		"ID": 99,
		"CardPoolID": 75,
		"BeforeExchangeItems": [
			{
				"GoodsType": "GoodsType_Item",
				"Id": 1067,
				"Count": 50
			},
			{
				"GoodsType": "GoodsType_Item",
				"Id": 3015,
				"Count": 1
			}
		],
		"ExchangeCount": 1,
		"AfterExchangeItems": [
			{
				"GoodsType": "GoodsType_Item",
				"Id": 1065,
				"Count": 50
			}
		]
	},
	{
		"ID": 100,
		"CardPoolID": 75,
		"BeforeExchangeItems": [
			{
				"GoodsType": "GoodsType_Item",
				"Id": 1065,
				"Count": 50
			},
			{
				"GoodsType": "GoodsType_Item",
				"Id": 3015,
				"Count": 1
			}
		],
		"ExchangeCount": 1,
		"AfterExchangeItems": [
			{
				"GoodsType": "GoodsType_Item",
				"Id": 1067,
				"Count": 50
			}
		]
	},
	{
		"ID": 101,
		"CardPoolID": 75,
		"BeforeExchangeItems": [
			{
				"GoodsType": "GoodsType_Item",
				"Id": 1014,
				"Count": 50
			},
			{
				"GoodsType": "GoodsType_Item",
				"Id": 3015,
				"Count": 1
			}
		],
		"ExchangeCount": 1,
		"AfterExchangeItems": [
			{
				"GoodsType": "GoodsType_Item",
				"Id": 1065,
				"Count": 50
			}
		]
	},
	{
		"ID": 102,
		"CardPoolID": 75,
		"BeforeExchangeItems": [
			{
				"GoodsType": "GoodsType_Item",
				"Id": 1067,
				"Count": 50
			},
			{
				"GoodsType": "GoodsType_Item",
				"Id": 3015,
				"Count": 1
			}
		],
		"ExchangeCount": 1,
		"AfterExchangeItems": [
			{
				"GoodsType": "GoodsType_Item",
				"Id": 1014,
				"Count": 50
			}
		]
	},
	{
		"ID": 103,
		"CardPoolID": 75,
		"BeforeExchangeItems": [
			{
				"GoodsType": "GoodsType_Item",
				"Id": 3015,
				"Count": 1
			}
		],
		"ExchangeCount": 99,
		"AfterExchangeItems": [
			{
				"GoodsType": "GoodsType_MemoryEssence",
				"Id": 0,
				"Count": 300
			}
		]
	}
]