[
	{
		"ID": 0,
		"Text": "操作成功"
	},
	{
		"ID": -1,
		"Text": "需要创建角色"
	},
	{
		"ID": -2,
		"Text": "玩家名无效"
	},
	{
		"ID": -3,
		"Text": "玩家名重复"
	},
	{
		"ID": -4,
		"Text": "玩家名不可超过8个字符"
	},
	{
		"ID": -5,
		"Text": "玩家名不合法"
	},
	{
		"ID": -6,
		"Text": "玩家写入db数据操作失败"
	},
	{
		"ID": -7,
		"Text": "非法名字"
	},
	{
		"ID": -8,
		"Text": "玩家不存在"
	},
	{
		"ID": -9,
		"Text": "名字不能为空"
	},
	{
		"ID": -10,
		"Text": "存在相同订单"
	},
	{
		"ID": -11,
		"Text": "写订单到数据库失败"
	},
	{
		"ID": -12,
		"Text": "人民币商店类型不存在"
	},
	{
		"ID": -13,
		"Text": "没有该头相框"
	},
	{
		"ID": -14,
		"Text": "已经是这个头相框"
	},
	{
		"ID": -15,
		"Text": "写玩家数据到db失败"
	},
	{
		"ID": -16,
		"Text": "错误订单"
	},
	{
		"ID": -17,
		"Text": "订单重复"
	},
	{
		"ID": -99,
		"Text": "网络连接错误"
	},
	{
		"ID": -300,
		"Text": "GM消息解析错误"
	},
	{
		"ID": -301,
		"Text": "GM操作类型解析错误"
	},
	{
		"ID": -302,
		"Text": "GM操作数据解析错误"
	},
	{
		"ID": -303,
		"Text": "GM操作数据数字数据解析错误"
	},
	{
		"ID": -304,
		"Text": "英雄Id错误或英雄已拥有"
	},
	{
		"ID": -305,
		"Text": "英雄Id错误或英雄不存在"
	},
	{
		"ID": -306,
		"Text": "刷新配置失败"
	},
	{
		"ID": -307,
		"Text": "玩家不在线"
	},
	{
		"ID": -308,
		"Text": "GM操作数据时间数据解析错误"
	},
	{
		"ID": -309,
		"Text": "广告布局为空"
	},
	{
		"ID": -310,
		"Text": "广告布局活动id不存在"
	},
	{
		"ID": -311,
		"Text": "实例化物品添加数量超过背包上限"
	},
	{
		"ID": -312,
		"Text": "玩家列表为空"
	},
	{
		"ID": -313,
		"Text": "新手步骤列表为空"
	},
	{
		"ID": -400,
		"Text": "金币不足"
	},
	{
		"ID": -401,
		"Text": "圣魔晶不足"
	},
	{
		"ID": -402,
		"Text": "体力不足"
	},
	{
		"ID": -403,
		"Text": "物品类型不正确"
	},
	{
		"ID": -404,
		"Text": "货币不足"
	},
	{
		"ID": -405,
		"Text": "队伍等级和经验已达上限"
	},
	{
		"ID": -406,
		"Text": "玩家重复签到"
	},
	{
		"ID": -407,
		"Text": "签到奖励配置不存在"
	},
	{
		"ID": -408,
		"Text": "购买体力配置错误"
	},
	{
		"ID": -409,
		"Text": "竞技场荣誉点不足"
	},
	{
		"ID": -410,
		"Text": "购买竞技场门票配置错误"
	},
	{
		"ID": -411,
		"Text": "新手引导步骤id超出范围"
	},
	{
		"ID": -412,
		"Text": "修改的玩家名和当前玩家名相同"
	},
	{
		"ID": -413,
		"Text": "队伍等级不够"
	},
	{
		"ID": -414,
		"Text": "今日购买体力已经达到上限"
	},
	{
		"ID": -415,
		"Text": "实时PVP竞技场荣誉点不足"
	},
	{
		"ID": -416,
		"Text": "皮肤券不足"
	},
	{
		"ID": -417,
		"Text": "友情点不足"
	},
	{
		"ID": -418,
		"Text": "新手引导步骤不存在"
	},
	{
		"ID": -419,
		"Text": "记忆精华不足"
	},
	{
		"ID": -420,
		"Text": "光辉秘银石不足"
	},
	{
		"ID": -421,
		"Text": "秘银石不足"
	},
	{
		"ID": -422,
		"Text": "购买后，您的金币将超过上限，无法进行购买。"
	},
	{
		"ID": -423,
		"Text": "兑换礼包码物品不存在"
	},
	{
		"ID": -424,
		"Text": "兑换礼包码物品参数错误"
	},
	{
		"ID": -425,
		"Text": "挑战点不足"
	},
	{
		"ID": -426,
		"Text": "时装点不足"
	},
	{
		"ID": -500,
		"Text": "背包已满"
	},
	{
		"ID": -501,
		"Text": "没有足够的魔导石"
	},
	{
		"ID": -502,
		"Text": "所需物品不足"
	},
	{
		"ID": -503,
		"Text": "所需物品不足"
	},
	{
		"ID": -504,
		"Text": "背包中职业等级提升材料id配置中找不到"
	},
	{
		"ID": -505,
		"Text": "背包中道具id配置中找不到"
	},
	{
		"ID": -506,
		"Text": "背包道具不能使用"
	},
	{
		"ID": -507,
		"Text": "此类型物品无法出售"
	},
	{
		"ID": -508,
		"Text": "创建背包物品错误"
	},
	{
		"ID": -509,
		"Text": "物品不匹配此类型"
	},
	{
		"ID": -510,
		"Text": "请先在左边添加强化素材"
	},
	{
		"ID": -511,
		"Text": "装备被锁定"
	},
	{
		"ID": -512,
		"Text": "强化装备材料被强化过"
	},
	{
		"ID": -513,
		"Text": "强化装备材料被升星过"
	},
	{
		"ID": -514,
		"Text": "等级达到上限，无法继续强化"
	},
	{
		"ID": -515,
		"Text": "该装备不能被强化"
	},
	{
		"ID": -516,
		"Text": "装备突破素材类型错误"
	},
	{
		"ID": -517,
		"Text": "装备升星稀有度不同"
	},
	{
		"ID": -518,
		"Text": "装备升星达到上限"
	},
	{
		"ID": -519,
		"Text": "只有满级的装备可以进行突破"
	},
	{
		"ID": -520,
		"Text": "装备和材料是同一物品"
	},
	{
		"ID": -521,
		"Text": "不合法的使用背包物品数量"
	},
	{
		"ID": -522,
		"Text": "背包中装备id配置中找不到"
	},
	{
		"ID": -523,
		"Text": "消耗物品数量错误"
	},
	{
		"ID": -524,
		"Text": "突破专用装备不能作为强化装备素材"
	},
	{
		"ID": -525,
		"Text": "该装备不能进行突破"
	},
	{
		"ID": -526,
		"Text": "该装备不能被穿戴"
	},
	{
		"ID": -527,
		"Text": "物品不能被分解"
	},
	{
		"ID": -528,
		"Text": "物品没有被堆叠"
	},
	{
		"ID": -529,
		"Text": "非道具类型物品，无法使用"
	},
	{
		"ID": -530,
		"Text": "亲密度经验道具数量不足"
	},
	{
		"ID": -531,
		"Text": "物品使用数量参数出错"
	},
	{
		"ID": -532,
		"Text": "保存附魔装备不存在"
	},
	{
		"ID": -533,
		"Text": "操作失败，最多同时只能使用99个物品"
	},
	{
		"ID": -534,
		"Text": "兄贵大汗堡不够了哟"
	},
	{
		"ID": -535,
		"Text": "分解装备超过上限"
	},
	{
		"ID": -536,
		"Text": "固定宝箱不存在"
	},
	{
		"ID": -537,
		"Text": "随机宝箱不存在"
	},
	{
		"ID": -538,
		"Text": "自选宝箱不存在"
	},
	{
		"ID": -539,
		"Text": "自选宝箱物品下标不存在"
	},
	{
		"ID": -540,
		"Text": "非自选礼包不能携带参数"
	},
	{
		"ID": -541,
		"Text": "英雄皮肤自选礼包使用参数错误"
	},
	{
		"ID": -542,
		"Text": "英雄皮肤自选礼包使用参数重复"
	},
	{
		"ID": -543,
		"Text": "英雄皮肤自选礼包不存在"
	},
	{
		"ID": -544,
		"Text": "英雄皮肤自选礼包不能打开"
	},
	{
		"ID": -545,
		"Text": "英雄皮肤自选礼包选定数量过多"
	},
	{
		"ID": -546,
		"Text": "旅团许可证不足"
	},
	{
		"ID": -547,
		"Text": "所需物品不足"
	},
	{
		"ID": -600,
		"Text": "添加英雄职业已经存在"
	},
	{
		"ID": -601,
		"Text": "没有该职业"
	},
	{
		"ID": -602,
		"Text": "英雄不存在"
	},
	{
		"ID": -603,
		"Text": "英雄已存在"
	},
	{
		"ID": -604,
		"Text": "装备移除失败"
	},
	{
		"ID": -605,
		"Text": "装备与槽位不匹配"
	},
	{
		"ID": -606,
		"Text": "槽位已经装备"
	},
	{
		"ID": -607,
		"Text": "装备不全"
	},
	{
		"ID": -608,
		"Text": "背包没有对应的装备"
	},
	{
		"ID": -609,
		"Text": "槽位下标错误"
	},
	{
		"ID": -610,
		"Text": "升星无配置"
	},
	{
		"ID": -611,
		"Text": "英雄职业等级不够"
	},
	{
		"ID": -612,
		"Text": "英雄职业等级达到上限"
	},
	{
		"ID": -613,
		"Text": "配置找不到JobId"
	},
	{
		"ID": -614,
		"Text": "职业品阶错误"
	},
	{
		"ID": -615,
		"Text": "配置文件找不到职业关联id"
	},
	{
		"ID": -616,
		"Text": "配置文件找不到职业等级id"
	},
	{
		"ID": -617,
		"Text": "转职职业品阶超过可转职职业最大品阶"
	},
	{
		"ID": -618,
		"Text": "配置文件找不到英雄id"
	},
	{
		"ID": -619,
		"Text": "英雄没有该兵种可供选择"
	},
	{
		"ID": -620,
		"Text": "英雄没有该技能可供选择"
	},
	{
		"ID": -621,
		"Text": "技能ID错误"
	},
	{
		"ID": -622,
		"Text": "所需的材料列表不足"
	},
	{
		"ID": -623,
		"Text": "英雄等级不够"
	},
	{
		"ID": -624,
		"Text": "获取英雄的技能点失败"
	},
	{
		"ID": -625,
		"Text": "英雄技能点不足"
	},
	{
		"ID": -626,
		"Text": "英雄一次选择技能数量超过上限"
	},
	{
		"ID": -627,
		"Text": "合成材料不存在"
	},
	{
		"ID": -628,
		"Text": "没有任何装备可以佩戴"
	},
	{
		"ID": -629,
		"Text": "英雄碎片ID错误"
	},
	{
		"ID": -630,
		"Text": "英雄星阶已达上限"
	},
	{
		"ID": -631,
		"Text": "英雄已到最大等级"
	},
	{
		"ID": -632,
		"Text": "添加重复技能"
	},
	{
		"ID": -633,
		"Text": "已经是这个职业了哦"
	},
	{
		"ID": -634,
		"Text": "英雄可转职职业并不包含该职业"
	},
	{
		"ID": -635,
		"Text": "配置文件找不到英雄星级id"
	},
	{
		"ID": -636,
		"Text": "前置职业还未开启"
	},
	{
		"ID": -637,
		"Text": "职业还未解锁"
	},
	{
		"ID": -638,
		"Text": "将领职业重复解锁"
	},
	{
		"ID": -639,
		"Text": "职业解锁消耗物品不足"
	},
	{
		"ID": -640,
		"Text": "职业解锁成就未达到"
	},
	{
		"ID": -641,
		"Text": "职业不需要解锁"
	},
	{
		"ID": -642,
		"Text": "还未拥有前置职业"
	},
	{
		"ID": -643,
		"Text": "当前职业不能装备此技能"
	},
	{
		"ID": -644,
		"Text": "主角ID不存在"
	},
	{
		"ID": -645,
		"Text": "主角已经设定"
	},
	{
		"ID": -646,
		"Text": "装备已经被穿戴"
	},
	{
		"ID": -647,
		"Text": "装备穿戴兵种不匹配"
	},
	{
		"ID": -648,
		"Text": "装备穿戴职业不匹配"
	},
	{
		"ID": -649,
		"Text": "装备没有穿戴"
	},
	{
		"ID": -650,
		"Text": "请先“进阶”前置职业"
	},
	{
		"ID": -651,
		"Text": "该类型装备无法穿戴"
	},
	{
		"ID": -652,
		"Text": "英雄碎片不足"
	},
	{
		"ID": -653,
		"Text": "英雄一键自动装备时间太近"
	},
	{
		"ID": -654,
		"Text": "暂时没有更好的装备了"
	},
	{
		"ID": -655,
		"Text": "主角不能增加亲密度经验值"
	},
	{
		"ID": -656,
		"Text": "英雄亲密度经验已满"
	},
	{
		"ID": -657,
		"Text": "英雄资料不存在"
	},
	{
		"ID": -658,
		"Text": "羁绊解锁所需英雄亲密度等级过低"
	},
	{
		"ID": -659,
		"Text": "羁绊解锁任务未完成"
	},
	{
		"ID": -660,
		"Text": "羁绊解锁条件类型错误"
	},
	{
		"ID": -661,
		"Text": "英雄羁绊还未解锁"
	},
	{
		"ID": -662,
		"Text": "英雄不存在此羁绊"
	},
	{
		"ID": -663,
		"Text": "英雄羁绊重复解锁"
	},
	{
		"ID": -664,
		"Text": "英雄羁绊等级已达上限"
	},
	{
		"ID": -665,
		"Text": "英雄演出配置出错"
	},
	{
		"ID": -666,
		"Text": "解锁英雄演出亲密度等级不足"
	},
	{
		"ID": -667,
		"Text": "解锁英雄演出条件类型配置出错"
	},
	{
		"ID": -668,
		"Text": "英雄传记配置出错"
	},
	{
		"ID": -669,
		"Text": "解锁英雄传记亲密度等级不足"
	},
	{
		"ID": -670,
		"Text": "解锁英雄传记条件类型配置出错"
	},
	{
		"ID": -671,
		"Text": "英雄重复表白"
	},
	{
		"ID": -672,
		"Text": "英雄羁绊等级未达到可表白等级"
	},
	{
		"ID": -673,
		"Text": "英雄表白不存在"
	},
	{
		"ID": -674,
		"Text": "主角英雄不能被表白"
	},
	{
		"ID": -675,
		"Text": "英雄亲密次数不足"
	},
	{
		"ID": -676,
		"Text": "英雄互动ID出错"
	},
	{
		"ID": -677,
		"Text": "英雄互动大up结果配置不存在"
	},
	{
		"ID": -678,
		"Text": "英雄互动结果配置出错"
	},
	{
		"ID": -679,
		"Text": "英雄职业未开放"
	},
	{
		"ID": -680,
		"Text": "不存在多余的英雄记忆碎片"
	},
	{
		"ID": -681,
		"Text": "英雄一键自动装备实例id不唯一"
	},
	{
		"ID": -682,
		"Text": "英雄一键自动装备装备已被使用"
	},
	{
		"ID": -683,
		"Text": "英雄不存在心之羁绊"
	},
	{
		"ID": -684,
		"Text": "英雄心之羁绊重复解锁"
	},
	{
		"ID": -685,
		"Text": "英雄羁绊等级不足"
	},
	{
		"ID": -686,
		"Text": "英雄心之羁绊解锁条件类型错误"
	},
	{
		"ID": -687,
		"Text": "英雄心之羁绊还未解锁"
	},
	{
		"ID": -688,
		"Text": "英雄心之羁绊等级已满"
	},
	{
		"ID": -689,
		"Text": "英雄心之羁绊等级不足"
	},
	{
		"ID": -700,
		"Text": "配置文件找不到剧情ID"
	},
	{
		"ID": -701,
		"Text": "主线剧情解锁队伍等级不够"
	},
	{
		"ID": -702,
		"Text": "主线剧情解锁时空裂缝进度不够"
	},
	{
		"ID": -703,
		"Text": "完成剧情的关卡ID错误"
	},
	{
		"ID": -704,
		"Text": "下一主线剧情为空"
	},
	{
		"ID": -705,
		"Text": "路点ID错误"
	},
	{
		"ID": -706,
		"Text": "路点有剧情任务，无法移动到该点"
	},
	{
		"ID": -707,
		"Text": "无法移动到该点"
	},
	{
		"ID": -708,
		"Text": "路点发生除对话和宝箱的事件"
	},
	{
		"ID": -709,
		"Text": "宝箱配置出错"
	},
	{
		"ID": -710,
		"Text": "事件Id配置错误"
	},
	{
		"ID": -711,
		"Text": "指令出错，无法发生战斗"
	},
	{
		"ID": -712,
		"Text": "事件功能类型不存在"
	},
	{
		"ID": -713,
		"Text": "主线剧情解锁时未完成指定时空裂缝关卡"
	},
	{
		"ID": -714,
		"Text": "随机事件功能还未开启"
	},
	{
		"ID": -715,
		"Text": "地图上随机事件的数量已达上限"
	},
	{
		"ID": -716,
		"Text": "行为类随机事件已全部生成"
	},
	{
		"ID": -717,
		"Text": "随机事件Id不存在"
	},
	{
		"ID": -718,
		"Text": "没有路点释放随机事件"
	},
	{
		"ID": -719,
		"Text": "主线剧情章节尚未开放"
	},
	{
		"ID": -720,
		"Text": "事件功能类型错误"
	},
	{
		"ID": -721,
		"Text": "主线剧情解锁时未完成指定成就"
	},
	{
		"ID": -722,
		"Text": "世界树分支剧情奖励已经获取"
	},
	{
		"ID": -723,
		"Text": "世界树分支剧情奖励Id错误"
	},
	{
		"ID": -724,
		"Text": "世界树分支剧情奖励点不足"
	},
	{
		"ID": -800,
		"Text": "时空裂缝关卡没有解锁"
	},
	{
		"ID": -801,
		"Text": "本关卡今日次数已经达到上限"
	},
	{
		"ID": -802,
		"Text": "获得3星后才可以扫荡"
	},
	{
		"ID": -803,
		"Text": "时空裂缝关卡扫参数错误"
	},
	{
		"ID": -804,
		"Text": "时空裂缝奖励已领取"
	},
	{
		"ID": -805,
		"Text": "章节ID配置错误"
	},
	{
		"ID": -806,
		"Text": "队伍等级不足"
	},
	{
		"ID": -807,
		"Text": "关卡未开启"
	},
	{
		"ID": -808,
		"Text": "时空裂缝关卡ID配置错误"
	},
	{
		"ID": -809,
		"Text": "前置关卡没有通过"
	},
	{
		"ID": -810,
		"Text": "没有获得解锁该关卡的成就"
	},
	{
		"ID": -811,
		"Text": "没有获得解锁该条件的英雄"
	},
	{
		"ID": -812,
		"Text": "解锁章节参数错误"
	},
	{
		"ID": -813,
		"Text": "解锁时空裂缝参数错误"
	},
	{
		"ID": -814,
		"Text": "获取时空裂缝章节奖励星数不够"
	},
	{
		"ID": -815,
		"Text": "获取时空裂缝章节奖励索引错误"
	},
	{
		"ID": -816,
		"Text": "时空裂缝战斗配置错误"
	},
	{
		"ID": -817,
		"Text": "还未解锁该章节"
	},
	{
		"ID": -818,
		"Text": "未完成该关卡"
	},
	{
		"ID": -819,
		"Text": "时空裂缝关卡解锁队伍等级不够"
	},
	{
		"ID": -820,
		"Text": "时空裂缝关联成就ID错误"
	},
	{
		"ID": -821,
		"Text": "扫荡通行证不足"
	},
	{
		"ID": -822,
		"Text": "关卡未开启"
	},
	{
		"ID": -823,
		"Text": "时空裂缝成就重复完成"
	},
	{
		"ID": -824,
		"Text": "时空裂缝功能未开启"
	},
	{
		"ID": -825,
		"Text": "时空裂缝章节星数领奖参数错误"
	},
	{
		"ID": -826,
		"Text": "时空裂缝章节未开放"
	},
	{
		"ID": -900,
		"Text": "已经进入战斗, 重复战斗"
	},
	{
		"ID": -901,
		"Text": "发送战报时,不在战斗"
	},
	{
		"ID": -902,
		"Text": "发送战报时,攻击的路点不存在"
	},
	{
		"ID": -903,
		"Text": "发送战报时，攻击的时空裂缝的关卡不存在"
	},
	{
		"ID": -904,
		"Text": "取消战斗时，不在战斗"
	},
	{
		"ID": -905,
		"Text": "配置文件找不到战斗ID"
	},
	{
		"ID": -906,
		"Text": "战报错误"
	},
	{
		"ID": -907,
		"Text": "上阵英雄数量错误"
	},
	{
		"ID": -908,
		"Text": "上阵英雄位置错误"
	},
	{
		"ID": -909,
		"Text": "创建地图错误"
	},
	{
		"ID": -910,
		"Text": "战报出错"
	},
	{
		"ID": -911,
		"Text": "战斗初始化错误"
	},
	{
		"ID": -912,
		"Text": "未知战斗"
	},
	{
		"ID": -913,
		"Text": "战斗怪物等级获取失败"
	},
	{
		"ID": -914,
		"Text": "配置文件找不到竞技场战斗ID"
	},
	{
		"ID": -915,
		"Text": "战斗类型错误"
	},
	{
		"ID": -916,
		"Text": "发送战报时，攻击的英雄副本关卡不存在"
	},
	{
		"ID": -917,
		"Text": "行动位置索引超出范围"
	},
	{
		"ID": -918,
		"Text": "行动值超出范围"
	},
	{
		"ID": -919,
		"Text": "随机战斗部队不存在"
	},
	{
		"ID": -920,
		"Text": "随机战斗部队角色权重配置出错"
	},
	{
		"ID": -921,
		"Text": "事件类型时空裂缝关卡不能被重复攻打"
	},
	{
		"ID": -922,
		"Text": "必须上阵的英雄未上阵"
	},
	{
		"ID": -923,
		"Text": "战斗已经在战斗服务器上进行"
	},
	{
		"ID": -924,
		"Text": "战斗创建房间战斗类型错误"
	},
	{
		"ID": -925,
		"Text": "战斗服务器网络错误"
	},
	{
		"ID": -926,
		"Text": "已经离开战斗"
	},
	{
		"ID": -927,
		"Text": "玩家战斗状态超出范围"
	},
	{
		"ID": -928,
		"Text": "上阵英雄错误"
	},
	{
		"ID": -929,
		"Text": "战斗房间不存在"
	},
	{
		"ID": -930,
		"Text": "战斗重新连接"
	},
	{
		"ID": -931,
		"Text": "战斗房间上玩家不存在"
	},
	{
		"ID": -932,
		"Text": "战斗房间id错误"
	},
	{
		"ID": -933,
		"Text": "战斗房间玩家已经发送过行动开始"
	},
	{
		"ID": -934,
		"Text": "配置文件找不到PVP战斗ID"
	},
	{
		"ID": -935,
		"Text": "配置文件找不到实时PVP战斗ID"
	},
	{
		"ID": -936,
		"Text": "下阵英雄错误"
	},
	{
		"ID": -937,
		"Text": "公会合战上阵英雄不足"
	},
	{
		"ID": -938,
		"Text": "切磋类型错误"
	},
	{
		"ID": -939,
		"Text": "操作超时"
	},
	{
		"ID": -940,
		"Text": "不是这个玩家选先后手"
	},
	{
		"ID": -941,
		"Text": "玩家已经调整战队完毕"
	},
	{
		"ID": -942,
		"Text": "玩家调整战队数量超出范围"
	},
	{
		"ID": -943,
		"Text": "玩家调整战位置类型错误"
	},
	{
		"ID": -1000,
		"Text": "重复添加相同邮件"
	},
	{
		"ID": -1001,
		"Text": "邮件不存在"
	},
	{
		"ID": -1002,
		"Text": "邮件已读"
	},
	{
		"ID": -1003,
		"Text": "附件已经领取"
	},
	{
		"ID": -1004,
		"Text": "邮件已经过期"
	},
	{
		"ID": -1005,
		"Text": "模板邮件ID配置错误"
	},
	{
		"ID": -1006,
		"Text": "邮件附件已全部领取"
	},
	{
		"ID": -1007,
		"Text": "邮件没有附件"
	},
	{
		"ID": -1100,
		"Text": "商店不存在"
	},
	{
		"ID": -1101,
		"Text": "商店购买物品索引越界"
	},
	{
		"ID": -1102,
		"Text": "商店物品已经购买"
	},
	{
		"ID": -1103,
		"Text": "商店id不存在"
	},
	{
		"ID": -1104,
		"Text": "随机商店购买物品时商店物品已经刷新"
	},
	{
		"ID": -1105,
		"Text": "今日手动刷新次数已经用完"
	},
	{
		"ID": -1200,
		"Text": "随机事件等级区间配置错误"
	},
	{
		"ID": -1201,
		"Text": "必出事件组随机事件小组不存在"
	},
	{
		"ID": -1202,
		"Text": "事件ID配置出错"
	},
	{
		"ID": -1203,
		"Text": "当前路点有未完成的随机事件"
	},
	{
		"ID": -1204,
		"Text": "随机事件超时消失"
	},
	{
		"ID": -1205,
		"Text": "随机事件组ID配置出错"
	},
	{
		"ID": -1300,
		"Text": "没有此商店"
	},
	{
		"ID": -1301,
		"Text": "没有此物品可以出售"
	},
	{
		"ID": -1302,
		"Text": "该商品已售空"
	},
	{
		"ID": -1303,
		"Text": "商品不在可销售时间段内"
	},
	{
		"ID": -1304,
		"Text": "未到达购买该商品的最低玩家等级"
	},
	{
		"ID": -1306,
		"Text": "商品已下架"
	},
	{
		"ID": -1400,
		"Text": "队伍等级5级以才可以发言"
	},
	{
		"ID": -1401,
		"Text": "20秒内不能连续发言"
	},
	{
		"ID": -1402,
		"Text": "玩家被禁言"
	},
	{
		"ID": -1403,
		"Text": "没有频道发送权限"
	},
	{
		"ID": -1404,
		"Text": "玩家已下线"
	},
	{
		"ID": -1405,
		"Text": "世界频道自动分配房间失败：玩家已经有自己的房间"
	},
	{
		"ID": -1406,
		"Text": "世界频道自动分配房间失败：所有房间都已满"
	},
	{
		"ID": -1407,
		"Text": "世界频道将玩家从房间移除失败：找不到玩家"
	},
	{
		"ID": -1408,
		"Text": "世界频道玩家手动进入房间失败：不能进入相同的房间"
	},
	{
		"ID": -1409,
		"Text": "世界频道玩家手动进入房间失败：房间已满"
	},
	{
		"ID": -1410,
		"Text": "世界频道玩家手动进入房间失败：房间id超出范围"
	},
	{
		"ID": -1411,
		"Text": "组队频道聊天：玩家当前没有在组队房间中"
	},
	{
		"ID": -1412,
		"Text": "群组已经解散"
	},
	{
		"ID": -1413,
		"Text": "您不在群组中"
	},
	{
		"ID": -1414,
		"Text": "该条语音已过期"
	},
	{
		"ID": -1415,
		"Text": "请先选择私聊对象"
	},
	{
		"ID": -1416,
		"Text": "请先选择聊天群组"
	},
	{
		"ID": -1417,
		"Text": "您已屏蔽该玩家"
	},
	{
		"ID": -1418,
		"Text": "您已被该玩家屏蔽"
	},
	{
		"ID": -1419,
		"Text": "世界聊天服务器繁忙"
	},
	{
		"ID": -1420,
		"Text": "还没有加入时空旅团"
	},
	{
		"ID": -1421,
		"Text": "通过聊天分享装备的instanceid错误"
	},
	{
		"ID": -1422,
		"Text": "聊天分享装备数量限制"
	},
	{
		"ID": -1423,
		"Text": "找不到战报信息"
	},
	{
		"ID": -1424,
		"Text": "20秒不能连续分享至世界频道"
	},
	{
		"ID": -1425,
		"Text": "发送表情太频繁"
	},
	{
		"ID": -1500,
		"Text": "活动卡池在当前时间没有开启"
	},
	{
		"ID": -1501,
		"Text": "活动卡池抽取次数已经用光"
	},
	{
		"ID": -1502,
		"Text": "抽卡券不足"
	},
	{
		"ID": -1503,
		"Text": "抽卡池配置出错"
	},
	{
		"ID": -1504,
		"Text": "该抽卡池不能进行十连抽"
	},
	{
		"ID": -1505,
		"Text": "该卡池不能用圣魔晶进行抽卡"
	},
	{
		"ID": -1506,
		"Text": "免费券卡池只能用免费券进行抽卡"
	},
	{
		"ID": -1507,
		"Text": "非免费券池不能用卡券进行十连抽"
	},
	{
		"ID": -1508,
		"Text": "新手引导抽卡已经完成过了"
	},
	{
		"ID": -1509,
		"Text": "免费券卡池组表和圣魔晶卡池组表存在相同组"
	},
	{
		"ID": -1510,
		"Text": "免费券卡池组表和活动卡池组表存在相同组"
	},
	{
		"ID": -1511,
		"Text": "圣魔晶卡池组表和活动卡池组表存在相同组"
	},
	{
		"ID": -1512,
		"Text": "新手引导重复完成"
	},
	{
		"ID": -1513,
		"Text": "圣魔晶卡池只能使用圣魔券进行抽卡"
	},
	{
		"ID": -1514,
		"Text": "卡池抽卡卡券和圣魔晶都不足"
	},
	{
		"ID": -1515,
		"Text": "卡池抽卡,卡券不足,但是用来替换的圣魔晶很充足"
	},
	{
		"ID": -1516,
		"Text": "活动卡池只能使用活动卡券进行抽卡"
	},
	{
		"ID": -1600,
		"Text": "任务ID配置错误"
	},
	{
		"ID": -1601,
		"Text": "任务未完成"
	},
	{
		"ID": -1602,
		"Text": "任务还未解锁"
	},
	{
		"ID": -1603,
		"Text": "任务不存在"
	},
	{
		"ID": -1604,
		"Text": "服务器数据已经同步给客户端"
	},
	{
		"ID": -1605,
		"Text": "奖励已领取"
	},
	{
		"ID": -1700,
		"Text": "评论此英雄次数已达上限"
	},
	{
		"ID": -1701,
		"Text": "评论的英雄没有获得"
	},
	{
		"ID": -1702,
		"Text": "该评论已点过赞"
	},
	{
		"ID": -1703,
		"Text": "点赞评论不存在"
	},
	{
		"ID": -1704,
		"Text": "查看评论者英雄不存在"
	},
	{
		"ID": -1705,
		"Text": "评论禁言中"
	},
	{
		"ID": -1800,
		"Text": "当天的女神的试炼没有开放"
	},
	{
		"ID": -1801,
		"Text": "这个女神的试炼关卡不存在"
	},
	{
		"ID": -1802,
		"Text": "该女神的试炼关卡当天没有开放"
	},
	{
		"ID": -1803,
		"Text": "女神的试炼前置关卡没有通关"
	},
	{
		"ID": -1804,
		"Text": "女神的试炼关卡挑战次数已达上限"
	},
	{
		"ID": -1805,
		"Text": "女神的试炼关卡配置ID错误"
	},
	{
		"ID": -1806,
		"Text": "女神的试炼挑战次数用完"
	},
	{
		"ID": -1807,
		"Text": "女神的试炼战斗ID配置错误"
	},
	{
		"ID": -1808,
		"Text": "女神的试炼挑战券不足"
	},
	{
		"ID": -1809,
		"Text": "女神试炼功能未开启"
	},
	{
		"ID": -1810,
		"Text": "女神的试炼关卡未通过"
	},
	{
		"ID": -1811,
		"Text": "女神的试炼扫荡参数错误"
	},
	{
		"ID": -1812,
		"Text": "女神的试炼没有祝福，不能扫荡"
	},
	{
		"ID": -1900,
		"Text": "当天的兄贵健身房没有开放"
	},
	{
		"ID": -1901,
		"Text": "这个兄贵健身房关卡不存在"
	},
	{
		"ID": -1902,
		"Text": "该兄贵健身房关卡当天没有开放"
	},
	{
		"ID": -1903,
		"Text": "兄贵健身房前置关卡没有通关"
	},
	{
		"ID": -1904,
		"Text": "兄贵健身房关卡挑战次数已达上限"
	},
	{
		"ID": -1905,
		"Text": "兄贵健身房关卡配置ID错误"
	},
	{
		"ID": -1906,
		"Text": "兄贵健身房挑战次数用完"
	},
	{
		"ID": -1907,
		"Text": "兄贵健身房战斗ID配置错误"
	},
	{
		"ID": -1908,
		"Text": "兄贵健身房使用券不足"
	},
	{
		"ID": -1909,
		"Text": "兄贵健身房功能未开启"
	},
	{
		"ID": -1910,
		"Text": "兄贵健身房关卡没有通过"
	},
	{
		"ID": -1911,
		"Text": "兄贵健身房关卡扫荡参数错误"
	},
	{
		"ID": -1912,
		"Text": "兄贵健身房没有祝福，不能扫荡"
	},
	{
		"ID": -2000,
		"Text": "没有足够的竞技场门票"
	},
	{
		"ID": -2001,
		"Text": "竞技场开放等级不足"
	},
	{
		"ID": -2002,
		"Text": "竞技场对手索引不在范围"
	},
	{
		"ID": -2003,
		"Text": "对手已被攻打过，请刷新对手"
	},
	{
		"ID": -2004,
		"Text": "竞技场未开放"
	},
	{
		"ID": -2005,
		"Text": "竞技场手动刷新时间未到"
	},
	{
		"ID": -2006,
		"Text": "竞技场挑战对手获取对手防御信息失败"
	},
	{
		"ID": -2007,
		"Text": "竞技场战报不存在"
	},
	{
		"ID": -2008,
		"Text": "竞技场战斗超时"
	},
	{
		"ID": -2009,
		"Text": "不存在敌意，无法复仇"
	},
	{
		"ID": -2010,
		"Text": "已复仇过对手"
	},
	{
		"ID": -2011,
		"Text": "竞技场战斗汇报失败"
	},
	{
		"ID": -2012,
		"Text": "奖励已领取"
	},
	{
		"ID": -2013,
		"Text": "胜点奖励配置不存在"
	},
	{
		"ID": -2014,
		"Text": "胜点不足"
	},
	{
		"ID": -2015,
		"Text": "没有竞技场战斗, 发送战报时"
	},
	{
		"ID": -2016,
		"Text": "竞技场搜敌错误, 敌人还没被攻击过"
	},
	{
		"ID": -2017,
		"Text": "竞技场在结算"
	},
	{
		"ID": -2018,
		"Text": "竞技场战斗开始时不在布阵准备阶段"
	},
	{
		"ID": -2019,
		"Text": "竞技场作弊"
	},
	{
		"ID": -2020,
		"Text": "竞技场异常"
	},
	{
		"ID": -2101,
		"Text": "助教任务未解锁"
	},
	{
		"ID": -2102,
		"Text": "助教任务不存在"
	},
	{
		"ID": -2103,
		"Text": "英雄不存在"
	},
	{
		"ID": -2104,
		"Text": "英雄已派遣"
	},
	{
		"ID": -2105,
		"Text": "任务进行中"
	},
	{
		"ID": -2106,
		"Text": "未派遣"
	},
	{
		"ID": -2107,
		"Text": "任务未完成"
	},
	{
		"ID": -2108,
		"Text": "任务奖励已经领取"
	},
	{
		"ID": -2109,
		"Text": "不能派遣太多的英雄"
	},
	{
		"ID": -2110,
		"Text": "派遣时间太短"
	},
	{
		"ID": -2111,
		"Text": "请至少选择一个英雄"
	},
	{
		"ID": -2112,
		"Text": "任务安排槽位已满"
	},
	{
		"ID": -2200,
		"Text": "限时兑换活动不存在该物品兑换项"
	},
	{
		"ID": -2201,
		"Text": "限时兑换活动该物品兑换次数不足"
	},
	{
		"ID": -2202,
		"Text": "奖品类活动不存这个奖励"
	},
	{
		"ID": -2203,
		"Text": "运用活动奖励重复领取"
	},
	{
		"ID": -2204,
		"Text": "不存在该运营活动"
	},
	{
		"ID": -2205,
		"Text": "非奖品类活动无法领奖"
	},
	{
		"ID": -2206,
		"Text": "当前未在活动时间内"
	},
	{
		"ID": -2207,
		"Text": "奖品类运营活动当前时间不能领奖"
	},
	{
		"ID": -2208,
		"Text": "队伍等级过低,无法领奖"
	},
	{
		"ID": -2209,
		"Text": "当天未登录,无法领奖"
	},
	{
		"ID": -2210,
		"Text": "奖励物品组配置错误"
	},
	{
		"ID": -2211,
		"Text": "领奖时间已经结束"
	},
	{
		"ID": -2212,
		"Text": "非限时兑换活动不能兑换物品"
	},
	{
		"ID": -2213,
		"Text": "未知运营活动"
	},
	{
		"ID": -2214,
		"Text": "运营活动时间有冲突"
	},
	{
		"ID": -2215,
		"Text": "公告展示时间已结束"
	},
	{
		"ID": -2216,
		"Text": "活动时间已结束"
	},
	{
		"ID": -2217,
		"Text": "公告不存在"
	},
	{
		"ID": -2218,
		"Text": "抽奖活动中的物品已经全部获得"
	},
	{
		"ID": -2219,
		"Text": "没有充足的抽奖道具"
	},
	{
		"ID": -2220,
		"Text": "未充值足够的人民币"
	},
	{
		"ID": -2221,
		"Text": "未消费足够的圣魔晶"
	},
	{
		"ID": -2222,
		"Text": "同一时间内添加相同效果的活动"
	},
	{
		"ID": -2223,
		"Text": "开服活动，不能被手动修改，只能删除"
	},
	{
		"ID": -2224,
		"Text": "活动时间参数错误"
	},
	{
		"ID": -2400,
		"Text": "玩家不存在"
	},
	{
		"ID": -2401,
		"Text": "扣除货币的数量错误"
	},
	{
		"ID": -2402,
		"Text": "货币类型有误"
	},
	{
		"ID": -2403,
		"Text": "扣除操作物品的类型错误"
	},
	{
		"ID": -2404,
		"Text": "扣除物品的数量错误"
	},
	{
		"ID": -2405,
		"Text": "该功能处于维护中…"
	},
	{
		"ID": -2500,
		"Text": "问卷奖励重复领取"
	},
	{
		"ID": -2501,
		"Text": "问卷不存在"
	},
	{
		"ID": -2502,
		"Text": "问卷还未作答"
	},
	{
		"ID": -2503,
		"Text": "重复打开"
	},
	{
		"ID": -2504,
		"Text": "填写问卷等级不够"
	},
	{
		"ID": -2505,
		"Text": "问卷时间存在冲突"
	},
	{
		"ID": -2506,
		"Text": "问卷重复添加"
	},
	{
		"ID": -2600,
		"Text": "宝藏钥匙不足"
	},
	{
		"ID": -2601,
		"Text": "宝藏关卡不存在"
	},
	{
		"ID": -2602,
		"Text": "宝藏关卡战斗ID配置出错"
	},
	{
		"ID": -2603,
		"Text": "宝藏功能未开启"
	},
	{
		"ID": -2700,
		"Text": "功能玩法不支持弹幕"
	},
	{
		"ID": -2701,
		"Text": "弹幕位置id不存在"
	},
	{
		"ID": -2702,
		"Text": "弹幕回合数超过战斗配置"
	},
	{
		"ID": -2703,
		"Text": "投递弹幕不唯一或者没有排序"
	},
	{
		"ID": -2800,
		"Text": "羁绊之地入场券不够"
	},
	{
		"ID": -2801,
		"Text": "未满足进入条件"
	},
	{
		"ID": -2802,
		"Text": "羁绊之地关卡战斗ID配置出错"
	},
	{
		"ID": -2803,
		"Text": "该羁绊之地关卡当天没有开放"
	},
	{
		"ID": -2804,
		"Text": "当天的羁绊之地没有开放"
	},
	{
		"ID": -2805,
		"Text": "羁绊之地功能未开启"
	},
	{
		"ID": -2806,
		"Text": "羁绊之地本关卡没有通过"
	},
	{
		"ID": -2807,
		"Text": "羁绊之地扫荡参数错误"
	},
	{
		"ID": -2808,
		"Text": "羁绊之地没有祝福，不能扫荡"
	},
	{
		"ID": -2900,
		"Text": "命运之扉关卡不存在"
	},
	{
		"ID": -2901,
		"Text": "前置命运之扉关卡未完成"
	},
	{
		"ID": -2902,
		"Text": "命运之扉关卡解锁条件类型错误"
	},
	{
		"ID": -2903,
		"Text": "解锁命运之扉关卡英雄亲密度等级不足"
	},
	{
		"ID": -2904,
		"Text": "命运之扉关卡战斗ID配置出错"
	},
	{
		"ID": -2905,
		"Text": "命运之扉关卡可挑战次数不足"
	},
	{
		"ID": -2906,
		"Text": "命运之扉关卡没有通过"
	},
	{
		"ID": -2907,
		"Text": "命运之扉关卡获得星数不足"
	},
	{
		"ID": -2908,
		"Text": "命运之扉章节未攻打过"
	},
	{
		"ID": -2909,
		"Text": "命运之扉章节配置错误"
	},
	{
		"ID": -2910,
		"Text": "领取命运之扉章节星数奖励参数错误"
	},
	{
		"ID": -2911,
		"Text": "命运之扉章节获取星数不足"
	},
	{
		"ID": -2912,
		"Text": "奖励已领取"
	},
	{
		"ID": -2913,
		"Text": "命运之扉关卡扫参数错误"
	},
	{
		"ID": -2914,
		"Text": "记忆之扉功能未开启"
	},
	{
		"ID": -2915,
		"Text": "记忆之扉章节星数领奖参数错误"
	},
	{
		"ID": -2916,
		"Text": "英雄羁绊功能未开启"
	},
	{
		"ID": -2917,
		"Text": "今天已用完所有命运之扉挑战次数"
	},
	{
		"ID": -3000,
		"Text": "功能玩法不支持组队"
	},
	{
		"ID": -3001,
		"Text": "还没有通过这个关卡"
	},
	{
		"ID": -3002,
		"Text": "队伍等级超出范围"
	},
	{
		"ID": -3003,
		"Text": "队伍人数满了"
	},
	{
		"ID": -3004,
		"Text": "玩家已经加入队伍"
	},
	{
		"ID": -3005,
		"Text": "他们不是好友"
	},
	{
		"ID": -3006,
		"Text": "组队房间不开放"
	},
	{
		"ID": -3007,
		"Text": "对应关卡没有通关"
	},
	{
		"ID": -3008,
		"Text": "已经在队伍房间中"
	},
	{
		"ID": -3009,
		"Text": "组队服务器网络错误"
	},
	{
		"ID": -3010,
		"Text": "房间设置权限超出范围"
	},
	{
		"ID": -3011,
		"Text": "房间设置等级超出范围"
	},
	{
		"ID": -3012,
		"Text": "查看队伍房间类型错误"
	},
	{
		"ID": -3013,
		"Text": "取消自动匹配不在匹配队列"
	},
	{
		"ID": -3014,
		"Text": "玩家不在组队房间中"
	},
	{
		"ID": -3015,
		"Text": "不是队长没有权限修改房间权限"
	},
	{
		"ID": -3016,
		"Text": "房间不存在"
	},
	{
		"ID": -3017,
		"Text": "加入的房间设置不匹配"
	},
	{
		"ID": -3018,
		"Text": "加入房间权限不足"
	},
	{
		"ID": -3019,
		"Text": "玩家不在组队队伍中"
	},
	{
		"ID": -3020,
		"Text": "服务器id不存在"
	},
	{
		"ID": -3021,
		"Text": "组队邀请不存在"
	},
	{
		"ID": -3022,
		"Text": "组队邀请好友不在线"
	},
	{
		"ID": -3023,
		"Text": "组队邀请太频繁"
	},
	{
		"ID": -3024,
		"Text": "创建战斗房间权限不足"
	},
	{
		"ID": -3025,
		"Text": "找不到合适的战斗服务器"
	},
	{
		"ID": -3026,
		"Text": "创建战斗房间玩家人数不足"
	},
	{
		"ID": -3027,
		"Text": "查看队伍房间章节id不存在"
	},
	{
		"ID": -3028,
		"Text": "邀请关卡信息数量超出范围"
	},
	{
		"ID": -3029,
		"Text": "变更房间的位置不是队长"
	},
	{
		"ID": -3030,
		"Text": "变更房间的位置参数错误"
	},
	{
		"ID": -4000,
		"Text": "你的好友数量已经达到上限"
	},
	{
		"ID": -4001,
		"Text": "对方好友数量已经达到上限"
	},
	{
		"ID": -4002,
		"Text": "今日可发送的好友申请已到达上限"
	},
	{
		"ID": -4003,
		"Text": "已经是好友了"
	},
	{
		"ID": -4004,
		"Text": "当你被屏蔽的时候，你不能成为对方的好友"
	},
	{
		"ID": -4005,
		"Text": "不能邀请被你屏蔽的玩家"
	},
	{
		"ID": -4006,
		"Text": "已被屏蔽，不能发起邀请"
	},
	{
		"ID": -4007,
		"Text": "已被屏蔽，不能发起邀请"
	},
	{
		"ID": -4008,
		"Text": "好友服务器网络错误"
	},
	{
		"ID": -4009,
		"Text": "玩家不能对自己点赞"
	},
	{
		"ID": -4010,
		"Text": "对同一名玩家每天只能点赞一次"
	},
	{
		"ID": -4011,
		"Text": "查询玩家数据不存在"
	},
	{
		"ID": -4012,
		"Text": "名片描述信息为空"
	},
	{
		"ID": -4013,
		"Text": "名片描述信息过长"
	},
	{
		"ID": -4014,
		"Text": "名片设定数据为空"
	},
	{
		"ID": -4015,
		"Text": "好友服务器未找到"
	},
	{
		"ID": -4016,
		"Text": "目标GameServer服务器不存在"
	},
	{
		"ID": -4017,
		"Text": "GS转FS协议超时"
	},
	{
		"ID": -4018,
		"Text": "不能邀请自己"
	},
	{
		"ID": -4019,
		"Text": "已经邀请过相同玩家"
	},
	{
		"ID": -4020,
		"Text": "已经被目标玩家邀请过了"
	},
	{
		"ID": -4021,
		"Text": "目标玩家不在线"
	},
	{
		"ID": -4022,
		"Text": "不是你的好友"
	},
	{
		"ID": -4023,
		"Text": "已经赠送过友情点了"
	},
	{
		"ID": -4024,
		"Text": "已经接受过友情点了"
	},
	{
		"ID": -4025,
		"Text": "送过太多次友情点了"
	},
	{
		"ID": -4026,
		"Text": "收过太多次友情点了"
	},
	{
		"ID": -4027,
		"Text": "从不存在的人那里领取友情点"
	},
	{
		"ID": -4028,
		"Text": "屏蔽列表已满"
	},
	{
		"ID": -4029,
		"Text": "目标好友已满（批处理）"
	},
	{
		"ID": -4030,
		"Text": "可发送的邀请已满"
	},
	{
		"ID": -4031,
		"Text": "已经是好友了（批处理）"
	},
	{
		"ID": -4032,
		"Text": "不能邀请被你屏蔽的玩家（批处理）"
	},
	{
		"ID": -4033,
		"Text": "已被屏蔽，不能发起邀请（批处理）"
	},
	{
		"ID": -4034,
		"Text": "不能邀请自己"
	},
	{
		"ID": -4035,
		"Text": "已经邀请过相同玩家"
	},
	{
		"ID": -4036,
		"Text": "已经被目标玩家邀请过了（批处理）"
	},
	{
		"ID": -4037,
		"Text": "自己好友已满"
	},
	{
		"ID": -4038,
		"Text": "当你被屏蔽的时候，你不能成为对方的好友（批处理）"
	},
	{
		"ID": -4039,
		"Text": "不能屏蔽自己"
	},
	{
		"ID": -4040,
		"Text": "当前处于名片描述禁止修改期间"
	},
	{
		"ID": -4041,
		"Text": "不能将被屏蔽的玩家加为好友"
	},
	{
		"ID": -4099,
		"Text": "好友服务器未知错误"
	},
	{
		"ID": -4100,
		"Text": "排行榜查询的单独英雄不是玩家英雄"
	},
	{
		"ID": -4101,
		"Text": "需要10级才能够使用排行榜功能"
	},
	{
		"ID": -4102,
		"Text": "排行榜查询不能太频繁"
	},
	{
		"ID": -4103,
		"Text": "排行榜查询失败"
	},
	{
		"ID": -4104,
		"Text": "查询排行榜类型错误"
	},
	{
		"ID": -4200,
		"Text": "当天的英雄特训屋没有开放"
	},
	{
		"ID": -4201,
		"Text": "未满足进入条件"
	},
	{
		"ID": -4202,
		"Text": "该英雄特训屋关卡当天没有开放"
	},
	{
		"ID": -4203,
		"Text": "英雄特训屋关卡挑战次数已达上限"
	},
	{
		"ID": -4204,
		"Text": "英雄特训屋关卡配置ID错误"
	},
	{
		"ID": -4205,
		"Text": "英雄特训屋挑战次数用完"
	},
	{
		"ID": -4206,
		"Text": "英雄特训屋战斗ID配置错误"
	},
	{
		"ID": -4207,
		"Text": "英雄特训屋使用券不足"
	},
	{
		"ID": -4208,
		"Text": "英雄特训屋功能还未开启"
	},
	{
		"ID": -4209,
		"Text": "英雄特训屋扫荡参数错误"
	},
	{
		"ID": -4210,
		"Text": "英雄特训屋本关卡没有通过"
	},
	{
		"ID": -4211,
		"Text": "英雄特训屋没有祝福，不能扫荡"
	},
	{
		"ID": -4300,
		"Text": "创建聊天群组失败"
	},
	{
		"ID": -4301,
		"Text": "玩家的聊天群组已满"
	},
	{
		"ID": -4302,
		"Text": "聊天群组成员已满"
	},
	{
		"ID": -4303,
		"Text": "不是群主"
	},
	{
		"ID": -4304,
		"Text": "移交群主失败"
	},
	{
		"ID": -4305,
		"Text": "群主不能离开"
	},
	{
		"ID": -4306,
		"Text": "非法名字"
	},
	{
		"ID": -4307,
		"Text": "名字太长"
	},
	{
		"ID": -4308,
		"Text": "目标聊天群组已满"
	},
	{
		"ID": -4309,
		"Text": "聊天群组不存在"
	},
	{
		"ID": -4310,
		"Text": "聊天群组成员已满（批处理）"
	},
	{
		"ID": -4311,
		"Text": "目标的聊天群组已满（批处理）"
	},
	{
		"ID": -4400,
		"Text": "英雄幻影还没开放"
	},
	{
		"ID": -4401,
		"Text": "英雄幻影关卡不能攻打"
	},
	{
		"ID": -4402,
		"Text": "这个英雄幻影关卡不存在"
	},
	{
		"ID": -4500,
		"Text": "协力战还没开放"
	},
	{
		"ID": -4501,
		"Text": "协力战关卡不能攻打"
	},
	{
		"ID": -4502,
		"Text": "这个协力战关卡不存在"
	},
	{
		"ID": -4503,
		"Text": "协力战功能未开启"
	},
	{
		"ID": -4600,
		"Text": "这个新手任务点数奖励不存在"
	},
	{
		"ID": -4601,
		"Text": "这个新手任务点数奖励已领取"
	},
	{
		"ID": -4602,
		"Text": "这个新手任务点数不足"
	},
	{
		"ID": -4700,
		"Text": "匹配超时"
	},
	{
		"ID": -4701,
		"Text": "匹配取消失败"
	},
	{
		"ID": -4702,
		"Text": "连胜场次奖励不存在"
	},
	{
		"ID": -4703,
		"Text": "连胜场次奖励已领取"
	},
	{
		"ID": -4704,
		"Text": "连胜场次不足"
	},
	{
		"ID": -4705,
		"Text": "等级太低，不能参与实时PVP"
	},
	{
		"ID": -4706,
		"Text": "实时PVP竞技场关门了"
	},
	{
		"ID": -4707,
		"Text": "已处于世界竞技场匹配中"
	},
	{
		"ID": -4800,
		"Text": "充值商店物品不存在"
	},
	{
		"ID": -4801,
		"Text": "上一次购买仍在处理中，请稍后再试。"
	},
	{
		"ID": -4802,
		"Text": "商品不处于禁购时间内"
	},
	{
		"ID": -4900,
		"Text": "活动奖池在当前时间没有开启"
	},
	{
		"ID": -4901,
		"Text": "抽奖池配置出错"
	},
	{
		"ID": -5000,
		"Text": "皮肤不存在"
	},
	{
		"ID": -5001,
		"Text": "皮肤不匹配英雄"
	},
	{
		"ID": -5002,
		"Text": "皮肤不匹配英雄职业"
	},
	{
		"ID": -5003,
		"Text": "皮肤不匹配兵种"
	},
	{
		"ID": -5004,
		"Text": "没有皮肤穿戴"
	},
	{
		"ID": -5100,
		"Text": "礼包商店物品不存在"
	},
	{
		"ID": -5101,
		"Text": "礼包商店物品不在出售期间"
	},
	{
		"ID": -5102,
		"Text": "当前商品已售罄"
	},
	{
		"ID": -5103,
		"Text": "不存在这个等待付款的商品"
	},
	{
		"ID": -5104,
		"Text": "以首次购买价格作弊购买商品"
	},
	{
		"ID": -5105,
		"Text": "订阅礼包商店非苹果订阅特性商品"
	},
	{
		"ID": -5106,
		"Text": "非月卡类型不能被订阅"
	},
	{
		"ID": -5107,
		"Text": "该商品已经被苹果订阅"
	},
	{
		"ID": -5108,
		"Text": "作弊购买礼包商店商品"
	},
	{
		"ID": -5109,
		"Text": "运营商品列表为空"
	},
	{
		"ID": -5110,
		"Text": "非礼包商店运营商品"
	},
	{
		"ID": -5111,
		"Text": "苹果订阅商品一次只能买一个"
	},
	{
		"ID": -5112,
		"Text": "等待后台验证商品是否订阅中"
	},
	{
		"ID": -5113,
		"Text": "上一次购买仍在处理中，请稍后再试。"
	},
	{
		"ID": -5114,
		"Text": "商品不处于禁购时间内"
	},
	{
		"ID": -5115,
		"Text": "订单不存在"
	},
	{
		"ID": -5116,
		"Text": "商品仍在有效期间内,不可购买"
	},
	{
		"ID": -5200,
		"Text": "您未达到加入旅团的等级"
	},
	{
		"ID": -5201,
		"Text": "已经有旅团了"
	},
	{
		"ID": -5202,
		"Text": "玩家不存在"
	},
	{
		"ID": -5203,
		"Text": "离开旅团后，暂不能发出新申请"
	},
	{
		"ID": -5204,
		"Text": "旅团名字重复咯，请换一个尝试"
	},
	{
		"ID": -5205,
		"Text": "旅团操作太频繁啦，请稍后再试"
	},
	{
		"ID": -5206,
		"Text": "旅团名字不合适唷，请换一个尝试"
	},
	{
		"ID": -5207,
		"Text": "玩家尚未加入旅团"
	},
	{
		"ID": -5208,
		"Text": "玩家既不是团长也不是副团长，没有权限"
	},
	{
		"ID": -5209,
		"Text": "招人宣言内容非法"
	},
	{
		"ID": -5210,
		"Text": "招人宣言长度非法"
	},
	{
		"ID": -5211,
		"Text": "招人宣言为空"
	},
	{
		"ID": -5212,
		"Text": "旅团名字超出字数限制"
	},
	{
		"ID": -5213,
		"Text": "玩家不是团长，没有权限"
	},
	{
		"ID": -5214,
		"Text": "对方已经是副团长了"
	},
	{
		"ID": -5215,
		"Text": "对方不是副团长"
	},
	{
		"ID": -5216,
		"Text": "旅团副团长人数已达上限"
	},
	{
		"ID": -5217,
		"Text": "对方不是团长"
	},
	{
		"ID": -5218,
		"Text": "玩家既不是副团长也不是精英，没有权限"
	},
	{
		"ID": -5219,
		"Text": "旅团团长未离线太长时间，无法撤销团长职位"
	},
	{
		"ID": -5220,
		"Text": "该旅团不存在"
	},
	{
		"ID": -5221,
		"Text": "您没有该执行该操作的旅团权限"
	},
	{
		"ID": -5222,
		"Text": "旅团公告内容不太合适哦，请换一个尝试"
	},
	{
		"ID": -5223,
		"Text": "旅团公告长度不太合适哦，请换一个尝试"
	},
	{
		"ID": -5224,
		"Text": "旅团成员已满"
	},
	{
		"ID": -5225,
		"Text": "加入旅团等级不足"
	},
	{
		"ID": -5226,
		"Text": "加入旅团的邀请不存在"
	},
	{
		"ID": -5227,
		"Text": "申请不在列表中"
	},
	{
		"ID": -5228,
		"Text": "设置玩家入会等级有误"
	},
	{
		"ID": -5229,
		"Text": "旅团团长不能主动任命自己"
	},
	{
		"ID": -5230,
		"Text": "每周开启合战次数已达上限"
	},
	{
		"ID": -5231,
		"Text": "只有团长、副团长才能开启合战"
	},
	{
		"ID": -5232,
		"Text": "不能同时开启多场合战"
	},
	{
		"ID": -5233,
		"Text": "符合要求的团员人数不足"
	},
	{
		"ID": -5234,
		"Text": "合战难度不存在"
	},
	{
		"ID": -5235,
		"Text": "当前合战不存在，请退回主界面"
	},
	{
		"ID": -5236,
		"Text": "本周已经参加过其他旅团的合战，需要等下周合战刷新才能参与本旅团合战"
	},
	{
		"ID": -5237,
		"Text": "有英雄今日已经使用过了"
	},
	{
		"ID": -5238,
		"Text": "此据点已被压制"
	},
	{
		"ID": -5239,
		"Text": "旅团勋章不足，无法购买"
	},
	{
		"ID": -5240,
		"Text": "合战关卡不存在"
	},
	{
		"ID": -5241,
		"Text": "只有团长、副团长才能放弃本轮合战"
	},
	{
		"ID": -5242,
		"Text": "今日已没有足够可上阵英雄了"
	},
	{
		"ID": -5243,
		"Text": "仅团长及副团长可结束合战"
	},
	{
		"ID": -5300,
		"Text": "秘境积分活动在当前时间没有开启"
	},
	{
		"ID": -5301,
		"Text": "当前积分活动不存在"
	},
	{
		"ID": -5302,
		"Text": "秘境积分活动挑战关卡不包含(不在当前活动中)"
	},
	{
		"ID": -5303,
		"Text": "秘境积分活动挑战关卡不存在(配置中不存在)"
	},
	{
		"ID": -5304,
		"Text": "秘境积分活动挑战关卡未解锁(天数未到）"
	},
	{
		"ID": -5305,
		"Text": "秘境积分活动挑战关卡已经攻打"
	},
	{
		"ID": -5306,
		"Text": "秘境积分活动挑战关卡前置关卡未完成"
	},
	{
		"ID": -5307,
		"Text": "秘境积分活动积分关卡不包含（不在当前活动中）"
	},
	{
		"ID": -5308,
		"Text": "未满足进入条件"
	},
	{
		"ID": -5309,
		"Text": "秘境积分活动积分关卡玩家等级未达到"
	},
	{
		"ID": -5310,
		"Text": "秘境积分活动挑积分关卡已经攻打"
	},
	{
		"ID": -5311,
		"Text": "秘境积分活动积分关卡未解锁(天数未到）"
	},
	{
		"ID": -5312,
		"Text": "秘境积分活动奖励积分档不存在"
	},
	{
		"ID": -5313,
		"Text": "秘境积分活动奖励领取积分不足"
	},
	{
		"ID": -5314,
		"Text": "秘境积分活动奖励已经领取"
	},
	{
		"ID": -5400,
		"Text": "爬塔层参数非法"
	},
	{
		"ID": -5401,
		"Text": "爬塔前置层没有完成"
	},
	{
		"ID": -5402,
		"Text": "爬塔关卡不存在"
	},
	{
		"ID": -5403,
		"Text": "爬塔已经刷新，客户端需要重新请求数据"
	},
	{
		"ID": -5404,
		"Text": "爬塔攻打该层不合法"
	},
	{
		"ID": -5405,
		"Text": "爬塔层不存在"
	},
	{
		"ID": -5406,
		"Text": "爬塔层加成英雄组不存在"
	},
	{
		"ID": -5407,
		"Text": "爬塔层配置错误"
	},
	{
		"ID": -5408,
		"Text": "爬塔层配置错误"
	},
	{
		"ID": -5409,
		"Text": "爬塔层不能扫荡"
	},
	{
		"ID": -5410,
		"Text": "爬塔已经到达塔顶"
	},
	{
		"ID": -5500,
		"Text": "当天的永恒的神殿没有开放"
	},
	{
		"ID": -5501,
		"Text": "这个永恒的神殿关卡不存在"
	},
	{
		"ID": -5502,
		"Text": "该永恒的神殿关卡当天没有开放"
	},
	{
		"ID": -5503,
		"Text": "永恒的神殿前置关卡没有通关"
	},
	{
		"ID": -5504,
		"Text": "永恒的神殿关卡挑战次数已达上限"
	},
	{
		"ID": -5505,
		"Text": "永恒的神殿关卡配置ID错误"
	},
	{
		"ID": -5506,
		"Text": "永恒的神殿挑战次数用完"
	},
	{
		"ID": -5507,
		"Text": "永恒的神殿战斗ID配置错误"
	},
	{
		"ID": -5508,
		"Text": "永恒的神殿挑战券不足"
	},
	{
		"ID": -5509,
		"Text": "永恒的神殿功能未开启"
	},
	{
		"ID": -5510,
		"Text": "永恒的神殿本关卡未通过"
	},
	{
		"ID": -5511,
		"Text": "永恒的神殿扫荡参数错误"
	},
	{
		"ID": -5512,
		"Text": "永恒的神殿没有祝福，不能扫荡"
	},
	{
		"ID": -5600,
		"Text": "兑换项不存在"
	},
	{
		"ID": -5601,
		"Text": "兑换项不在允许时间内"
	},
	{
		"ID": -5602,
		"Text": "集换活动不存在"
	},
	{
		"ID": -5603,
		"Text": "集换活动主线关卡已经完成"
	},
	{
		"ID": -5604,
		"Text": "集换活动主线没有战斗"
	},
	{
		"ID": -5605,
		"Text": "集换活动攻击开始没有战斗ID"
	},
	{
		"ID": -5606,
		"Text": "关卡未解锁"
	},
	{
		"ID": -5607,
		"Text": "关卡类型错误"
	},
	{
		"ID": -5608,
		"Text": "集换活动兑换次数达到上限"
	},
	{
		"ID": -5609,
		"Text": "关卡不存在"
	},
	{
		"ID": -5610,
		"Text": "兑换前置关卡没有通关"
	},
	{
		"ID": -5701,
		"Text": "英雄赞歌功能未开启"
	},
	{
		"ID": -5702,
		"Text": "英雄赞歌关卡ID配置错误"
	},
	{
		"ID": -5703,
		"Text": "英雄赞歌关卡ID对应的章节配置错误"
	},
	{
		"ID": -5704,
		"Text": "英雄赞歌战斗配置错误"
	},
	{
		"ID": -5705,
		"Text": "英雄赞歌玩家等级不够"
	},
	{
		"ID": -5706,
		"Text": "发送战报时，攻击的英雄赞歌的关卡不存在"
	},
	{
		"ID": -5707,
		"Text": "英雄赞歌章节不存在"
	},
	{
		"ID": -5800,
		"Text": "巅峰竞技场bp阶段人物已经被使用"
	},
	{
		"ID": -5801,
		"Text": "巅峰竞技场bp阶段执行命令不是当前玩家"
	},
	{
		"ID": -5802,
		"Text": "巅峰竞技场bp阶段已经结束"
	},
	{
		"ID": -5803,
		"Text": "巅峰竞技场bp阶段指令操作人物数量错误"
	},
	{
		"ID": -5804,
		"Text": "巅峰竞技场bp阶段指令类型错误"
	},
	{
		"ID": -5805,
		"Text": "巅峰竞技场公用英雄池不可用"
	},
	{
		"ID": -5806,
		"Text": "队伍编成未完成，请前往巅峰竞技场编辑"
	},
	{
		"ID": -5807,
		"Text": "巅峰竞技场已关闭"
	},
	{
		"ID": -5808,
		"Text": "巅峰竞技场战队不合法"
	},
	{
		"ID": -5809,
		"Text": "巅峰竞技场英雄技能不存在"
	},
	{
		"ID": -5810,
		"Text": "巅峰竞技场英雄士兵不存在"
	},
	{
		"ID": -5811,
		"Text": "巅峰竞技场战队你没有该英雄"
	},
	{
		"ID": -5812,
		"Text": "巅峰竞技场战队有重复英雄"
	},
	{
		"ID": -5813,
		"Text": "阵容保存失败，佣兵阵容已经更新"
	},
	{
		"ID": -5814,
		"Text": "巅峰竞技场连胜场次奖励不存在"
	},
	{
		"ID": -5815,
		"Text": "巅峰竞技场连胜场次奖励已领取"
	},
	{
		"ID": -5816,
		"Text": "巅峰竞技场连胜场次不足"
	},
	{
		"ID": -5817,
		"Text": "巅峰竞技场未解锁"
	},
	{
		"ID": -5818,
		"Text": "巅峰竞技场赛季未开启"
	},
	{
		"ID": -5819,
		"Text": "巅峰竞技场战斗id不存在"
	},
	{
		"ID": -5820,
		"Text": "巅峰竞技场积分赛奖励领取失败"
	},
	{
		"ID": -5821,
		"Text": "战报名不合法"
	},
	{
		"ID": -5822,
		"Text": "战报不存在"
	},
	{
		"ID": -5823,
		"Text": "今日购买应援券次数已达上限"
	},
	{
		"ID": -5824,
		"Text": "今日购买应援券剩余次数不足"
	},
	{
		"ID": -5825,
		"Text": "巅峰竞技场季后赛轮次错误"
	},
	{
		"ID": -5826,
		"Text": "巅峰竞技场同场次不能对多个人进行应援"
	},
	{
		"ID": -5827,
		"Text": "今日应援已达上限"
	},
	{
		"ID": -5828,
		"Text": "当前时间无法进行应援"
	},
	{
		"ID": -5829,
		"Text": "巅峰竞技场赛季不存在"
	},
	{
		"ID": -5830,
		"Text": "应援券不足"
	},
	{
		"ID": -5831,
		"Text": "应援数量不能为0"
	},
	{
		"ID": -5832,
		"Text": "对应的淘汰赛比赛没有找到"
	},
	{
		"ID": -5833,
		"Text": "非法玩家数据"
	},
	{
		"ID": -5834,
		"Text": "对应的淘汰赛某场战斗没有找到"
	},
	{
		"ID": -5835,
		"Text": "巅峰竞技场淘汰赛网络错误"
	},
	{
		"ID": -5836,
		"Text": "巅峰竞技场战队人数不足"
	},
	{
		"ID": -5837,
		"Text": "巅峰竞技场淘汰赛参赛选手不能调整战队"
	},
	{
		"ID": -5838,
		"Text": "对阵信息不存在"
	},
	{
		"ID": -5839,
		"Text": "该对阵战斗已经结束，不允许应援"
	},
	{
		"ID": -5840,
		"Text": "该对阵中不存在这个玩家"
	},
	{
		"ID": -5841,
		"Text": "参赛选手不能应援"
	},
	{
		"ID": -5842,
		"Text": "巅峰竞技场直播房间不存在"
	},
	{
		"ID": -5843,
		"Text": "有选手弃权，不能应援"
	},
	{
		"ID": -5844,
		"Text": "您今天过于快速的投降场次过多，本日无法再进行积分赛挑战。"
	},
	{
		"ID": -5850,
		"Text": "20秒内不能连续发送弹幕"
	},
	{
		"ID": -5851,
		"Text": "阵容保存失败，选手阵容不能包含佣兵"
	},
	{
		"ID": -5853,
		"Text": "登录异常，无法重连至战斗"
	},
	{
		"ID": -6201,
		"Text": "此关卡剩余每日挑战次数为0，不能扫荡"
	},
	{
		"ID": -10013,
		"Text": "随机组随机事件总权重不为最大值"
	},
	{
		"ID": -10014,
		"Text": "随机商店权重错误"
	},
	{
		"ID": -10015,
		"Text": "初始剧情配置错误"
	},
	{
		"ID": -10016,
		"Text": "技能伤害次数上限大于零的时候下次释放等待时间小于零"
	},
	{
		"ID": -10017,
		"Text": "飞行道具的速度小于零"
	},
	{
		"ID": -10018,
		"Text": "英雄默认技能的总消耗技能点大于英雄初始等级所拥有的技能点数"
	},
	{
		"ID": -10019,
		"Text": "必出组随机事件等级区间大小与随机事件等级区间不匹配"
	},
	{
		"ID": -10020,
		"Text": "随机组随机事件等级区间大小与随机事件等级区间不匹配"
	},
	{
		"ID": -10021,
		"Text": "十连抽卡池所有组的最小出现次数之和大于10"
	},
	{
		"ID": -10022,
		"Text": "随机事件起始时间常量配置出错"
	},
	{
		"ID": -10023,
		"Text": "职业解锁消耗物品ID错误"
	},
	{
		"ID": -10024,
		"Text": "职业解锁成就ID错误"
	},
	{
		"ID": -10025,
		"Text": "职业解锁前置职业不存在"
	},
	{
		"ID": -10026,
		"Text": "道具表的固定宝箱的配置宝箱ID错误"
	},
	{
		"ID": -10027,
		"Text": "道具表的随机宝箱的配置宝箱ID错误"
	},
	{
		"ID": -10028,
		"Text": "道具表的随机宝箱开出物品的最小次数大于最大次数"
	},
	{
		"ID": -10029,
		"Text": "女神的试炼的小组关卡重复"
	},
	{
		"ID": -10030,
		"Text": "兄贵健身房的房间关卡重复"
	},
	{
		"ID": -10031,
		"Text": "将领默认技能不能被默认职业装备"
	},
	{
		"ID": -10032,
		"Text": "固定商店物品展示时间格式配置填写错误"
	},
	{
		"ID": -10033,
		"Text": "固定商店首次购买奖励物品ID配置检查"
	},
	{
		"ID": -10034,
		"Text": "固定商店售出物品ID配置检查"
	},
	{
		"ID": -10035,
		"Text": "固定商店物品折扣时间配置出错"
	},
	{
		"ID": -10036,
		"Text": "练兵场房间兵种列表配置错误"
	},
	{
		"ID": -10037,
		"Text": "练兵场房间教练不存在"
	},
	{
		"ID": -10038,
		"Text": "教练亲密度表教练不存在"
	},
	{
		"ID": -10039,
		"Text": "教练亲密度表等级配置错误"
	},
	{
		"ID": -10040,
		"Text": "教练亲密度表等级提升消耗物品ID配置出错"
	},
	{
		"ID": -10041,
		"Text": "两个或以上的训练场房间有相同的教练"
	},
	{
		"ID": -10042,
		"Text": "训练器械初始等级配置错误"
	},
	{
		"ID": -10043,
		"Text": "教练亲密度初始等级配置错误"
	},
	{
		"ID": -10044,
		"Text": "教练亲密度表的教练总个数不等于教练表的教练总个数"
	},
	{
		"ID": -10045,
		"Text": "教练亲密度等级解锁的器械不在教练所在训练场房间的器械列表内"
	},
	{
		"ID": -10046,
		"Text": "初始化英雄配置包含主角英雄ID"
	},
	{
		"ID": -10047,
		"Text": "英雄互动初始愉悦值配置错误"
	},
	{
		"ID": -10048,
		"Text": "英雄身体部位初始忍耐值配置错误"
	},
	{
		"ID": -10049,
		"Text": "初始化配置ID错误"
	},
	{
		"ID": -10050,
		"Text": "将领最大等级低于队伍最大等级上限加将领等级可超过队伍等级上限数值"
	},
	{
		"ID": -10051,
		"Text": "时空裂缝章节包含相同的关卡ID"
	},
	{
		"ID": -10052,
		"Text": "不同英雄拥有英雄副本关卡重复"
	},
	{
		"ID": -10053,
		"Text": "英雄副本星级奖励物品配置错误"
	},
	{
		"ID": -10054,
		"Text": "英雄副本关卡成就奖励物品配置错误"
	},
	{
		"ID": -10055,
		"Text": "玩家最大等级高于随机事件等级区间最大等级上限"
	},
	{
		"ID": -10056,
		"Text": "不同英雄拥有重复的羁绊"
	},
	{
		"ID": -10057,
		"Text": "随机商店物品表中等级区间没有分布所有等级区间中的id"
	},
	{
		"ID": -10058,
		"Text": "玩家冲级运营活动奖励物品组参数配置错误"
	},
	{
		"ID": -10059,
		"Text": "限时兑换运营活动物品组参数配置错误"
	},
	{
		"ID": -10060,
		"Text": "指定天数登录运营活动奖励物品组参数配置错误"
	},
	{
		"ID": -10061,
		"Text": "累积天数登录运营活动奖励物品组参数配置错误"
	},
	{
		"ID": -10062,
		"Text": "奖励增加活动玩法参数配置错误"
	},
	{
		"ID": -10063,
		"Text": "挑战次数增加活动玩法参数配置错误"
	},
	{
		"ID": -10064,
		"Text": "抽卡活动卡池参数配置错误"
	},
	{
		"ID": -10065,
		"Text": "运营活动物品组列表物品"
	},
	{
		"ID": -10066,
		"Text": "限时兑换运营活动物品组参数物品不能是装备"
	},
	{
		"ID": -10067,
		"Text": "随机宝箱奖励物品ID错误"
	},
	{
		"ID": -10068,
		"Text": "固定宝箱奖励物品ID错误"
	},
	{
		"ID": -10069,
		"Text": "装备等级表RankNextExps的数量少于装备表装备最大品阶"
	},
	{
		"ID": -10070,
		"Text": "战斗宝箱奖励物品ID配置错误"
	},
	{
		"ID": -10071,
		"Text": "英雄资料羁绊列表配置出错"
	},
	{
		"ID": -10072,
		"Text": "英雄资料表白配置出错"
	},
	{
		"ID": -10073,
		"Text": "英雄初始职业关联配置出错"
	},
	{
		"ID": -10074,
		"Text": "职业关联天赋技能配置出错"
	},
	{
		"ID": -10075,
		"Text": "不满足提升条件"
	},
	{
		"ID": -10076,
		"Text": "练兵场科技升级资源不足"
	},
	{
		"ID": -10077,
		"Text": "练兵场科技升级失败"
	},
	{
		"ID": -10078,
		"Text": "免费券卡池小组首次单抽权重全为0"
	},
	{
		"ID": -10079,
		"Text": "免费券卡池小组首次十连抽权重全为0"
	},
	{
		"ID": -10080,
		"Text": "钻石卡池小组首次单抽权重全为0"
	},
	{
		"ID": -10081,
		"Text": "钻石卡池小组首次十连抽权重全为0"
	},
	{
		"ID": -10082,
		"Text": "活动卡池小组首次单抽权重全为0"
	},
	{
		"ID": -10083,
		"Text": "活动卡池小组首次十连抽权重全为0"
	},
	{
		"ID": -10084,
		"Text": "英雄羁绊任务不能有奖励"
	},
	{
		"ID": -10085,
		"Text": "任务奖励为空"
	},
	{
		"ID": -10086,
		"Text": "物品数量错误"
	},
	{
		"ID": -10087,
		"Text": "礼包商店物品出售时间配置出错"
	},
	{
		"ID": -10088,
		"Text": "苹果订阅商品只能是月卡"
	},
	{
		"ID": -10089,
		"Text": "非苹果订阅性月卡"
	},
	{
		"ID": -10090,
		"Text": "礼包商店物品类型对应物品配置ID错误"
	},
	{
		"ID": -10091,
		"Text": "礼包商店首次购买奖励物品类型对应物品配置id错误"
	},
	{
		"ID": -10092,
		"Text": "抽奖活动奖池参数配置错误"
	},
	{
		"ID": -10093,
		"Text": "累计充值运营活动奖励物品组参数配置错误"
	},
	{
		"ID": -10094,
		"Text": "累计消费运营活动奖励物品组参数配置错误"
	},
	{
		"ID": -10095,
		"Text": "月卡任务配置出错"
	},
	{
		"ID": -10096,
		"Text": "新手累积保底值错误"
	},
	{
		"ID": -10097,
		"Text": "老手累积保底值错误"
	},
	{
		"ID": -10098,
		"Text": "卡池表十连抽最小保底数量错误"
	},
	{
		"ID": -10099,
		"Text": "卡池所有概率组默认单抽权重之和为0"
	},
	{
		"ID": -10100,
		"Text": "卡池所有概率组默认十连抽权重之和为0"
	},
	{
		"ID": -10101,
		"Text": "卡池所有概率组首次单抽权重之和为0"
	},
	{
		"ID": -10102,
		"Text": "卡池所有概率组首次十连抽权重之和为0"
	},
	{
		"ID": -10103,
		"Text": "卡池所有概率组十连保底权重之和为0"
	},
	{
		"ID": -10104,
		"Text": "卡池概率组所有物品权重之和为0"
	},
	{
		"ID": -10105,
		"Text": "秘境积分活动，活动Id数配置错误"
	},
	{
		"ID": -10106,
		"Text": "运营活动开服持续有效时间错误"
	},
	{
		"ID": -10107,
		"Text": "运营活动建号启服有效时间错误"
	},
	{
		"ID": -10108,
		"Text": "拷贝账号不存在"
	},
	{
		"ID": -10109,
		"Text": "拷贝目标玩家数据不存在"
	},
	{
		"ID": -10110,
		"Text": "拷贝玩家数据不存在"
	},
	{
		"ID": -4042,
		"Text": "重复添加英雄时刻分享战报"
	},
	{
		"ID": -4043,
		"Text": "不存在的英雄时刻分享战报"
	},
	{
		"ID": -4044,
		"Text": "英雄时刻战报数量已达上限"
	},
	{
		"ID": -5845,
		"Text": "活动事件表真实事件id重复"
	},
	{
		"ID": -5846,
		"Text": "当前时间不允许修改巅峰竞技场战报名"
	},
	{
		"ID": -20,
		"Text": "对话奖励已经领取过了"
	},
	{
		"ID": -21,
		"Text": "对话奖励不存在"
	},
	{
		"ID": -5848,
		"Text": "巅峰竞技场设置积分非法"
	},
	{
		"ID": -22,
		"Text": "当前时间无法购买应援券"
	},
	{
		"ID": -6000,
		"Text": "远古的呼唤功能未开放"
	},
	{
		"ID": -6001,
		"Text": "boss配置错误 不存在"
	},
	{
		"ID": -6002,
		"Text": "boss战斗id配置错误"
	},
	{
		"ID": -6003,
		"Text": "玩家等级不足"
	},
	{
		"ID": -6004,
		"Text": "发送战报时战斗信息不存在"
	},
	{
		"ID": -6005,
		"Text": "不是当前boss，无法攻打"
	},
	{
		"ID": -690,
		"Text": "并非英雄最终职业"
	},
	{
		"ID": -691,
		"Text": "英雄精炼石不存在"
	},
	{
		"ID": -692,
		"Text": "英雄精炼石不足"
	},
	{
		"ID": -693,
		"Text": "兵种类型不匹配"
	},
	{
		"ID": -694,
		"Text": "获取精炼石精炼模板失败"
	},
	{
		"ID": -695,
		"Text": "不合法的槽位"
	},
	{
		"ID": -696,
		"Text": "不合法的下标"
	},
	{
		"ID": -697,
		"Text": "槽位属性条目数已达上限"
	},
	{
		"ID": -698,
		"Text": "已经存在该类型的属性"
	},
	{
		"ID": -699,
		"Text": "精炼石属性模板不存在"
	},
	{
		"ID": -6100,
		"Text": "临时精炼属性不存在"
	},
	{
		"ID": -1305,
		"Text": "该礼包仅限在周末出售"
	},
	{
		"ID": -6200,
		"Text": "扫荡失败，今日扫荡次数已用完。"
	},
	{
		"ID": -6101,
		"Text": "没有设置过主角模板"
	},
	{
		"ID": -6102,
		"Text": "重置主角模板所需的物品不足"
	},
	{
		"ID": -6103,
		"Text": "要萃取的英雄碎片不足"
	},
	{
		"ID": -6104,
		"Text": "要萃取的英雄碎片数量不合法"
	},
	{
		"ID": -6300,
		"Text": "时狭之钟配置文件错误"
	},
	{
		"ID": -6301,
		"Text": "时狭之钟没有达到这个领奖等级"
	},
	{
		"ID": -6302,
		"Text": "已经领过奖了"
	},
	{
		"ID": -6303,
		"Text": "配置中没有这个奖励"
	},
	{
		"ID": -6304,
		"Text": "已经勾选过挂件"
	},
	{
		"ID": -6305,
		"Text": "已经取消过挂件"
	},
	{
		"ID": -6306,
		"Text": "抽卡次数不能小于0"
	},
	{
		"ID": -6307,
		"Text": "没有这个名片背景"
	},
	{
		"ID": -6308,
		"Text": "这个名片背景正在使用中"
	},
	{
		"ID": -6400,
		"Text": "觉醒等级不正确"
	},
	{
		"ID": -6401,
		"Text": "英雄已经觉醒过了"
	},
	{
		"ID": -6402,
		"Text": "英雄觉醒配置不存在"
	},
	{
		"ID": -6403,
		"Text": "英雄觉醒未解锁"
	},
	{
		"ID": -6404,
		"Text": "英雄觉醒功能被禁用"
	},
	{
		"ID": -6405,
		"Text": "英雄觉醒等级未达到"
	},
	{
		"ID": -6406,
		"Text": "觉醒关卡不正确"
	},
	{
		"ID": -6500,
		"Text": "英雄等级已达当前等级上限"
	},
	{
		"ID": -5117,
		"Text": "关联周期礼包已经买过了"
	},
	{
		"ID": -5118,
		"Text": "关联周期子礼包已经买过了"
	},
	{
		"ID": -428,
		"Text": "古代金币不足"
	},
	{
		"ID": -6600,
		"Text": "封印战域配置中找不到关卡组id"
	},
	{
		"ID": -6601,
		"Text": "封印战域配置中关卡id和关卡组id不对应"
	},
	{
		"ID": -6602,
		"Text": "封印战域功能未开放"
	},
	{
		"ID": -6603,
		"Text": "封印战域开放时间配置错误"
	},
	{
		"ID": -6604,
		"Text": "封印战域尚未开放"
	},
	{
		"ID": -6605,
		"Text": "封印战域配置中找不到关卡信息"
	},
	{
		"ID": -6606,
		"Text": "封印战域战斗配置错误"
	},
	{
		"ID": -6607,
		"Text": "封印战域没有通过本关卡的前置关卡"
	},
	{
		"ID": -6608,
		"Text": "当前未在活动时间内"
	},
	{
		"ID": -6609,
		"Text": "封印战域任务id重复"
	},
	{
		"ID": -6610,
		"Text": "封印战域任务id参数错误"
	},
	{
		"ID": -6611,
		"Text": "封印战域配置预加载关卡组信息错误"
	},
	{
		"ID": -6612,
		"Text": "封印战域配置预加载封印战域信息错误"
	},
	{
		"ID": -6700,
		"Text": "存在多于一个新手加速活动"
	},
	{
		"ID": -6701,
		"Text": "不存在新手加速活动"
	},
	{
		"ID": -6702,
		"Text": "没有新手加速活动配置信息"
	},
	{
		"ID": -6703,
		"Text": "超过限定的玩家等级"
	},
	{
		"ID": -6704,
		"Text": "已经超过了时间限制"
	},
	{
		"ID": -6705,
		"Text": "活动开始后的第一次登陆时间错误"
	},
	{
		"ID": -6706,
		"Text": "新手加速活动配置错误"
	},
	{
		"ID": -6800,
		"Text": "编队为空"
	},
	{
		"ID": -6801,
		"Text": "英雄装备技能数量不对"
	},
	{
		"ID": -6802,
		"Text": "不存在这个雇佣兵英雄"
	},
	{
		"ID": -6803,
		"Text": "队伍英雄数量超过上限"
	},
	{
		"ID": -6804,
		"Text": "队伍英雄重复"
	},
	{
		"ID": -6805,
		"Text": "活动已过期"
	},
	{
		"ID": -6806,
		"Text": "活动任务不存在"
	},
	{
		"ID": -6807,
		"Text": "活动任务配置错误"
	},
	{
		"ID": -6808,
		"Text": "活动任务未完成"
	},
	{
		"ID": -6809,
		"Text": "该活动已完成已领奖"
	},
	{
		"ID": -6810,
		"Text": "任务id重复"
	},
	{
		"ID": -6811,
		"Text": "配置不存在"
	},
	{
		"ID": -6812,
		"Text": "佣兵默认兵种不存在"
	},
	{
		"ID": -6813,
		"Text": "玩法未解锁"
	},
	{
		"ID": -6814,
		"Text": "活动关闭"
	},
	{
		"ID": -6815,
		"Text": "战斗地图不存在"
	},
	{
		"ID": -6816,
		"Text": "阵容人数不满，请前往秘境-魔塔勇士攻防战中进行队伍编成"
	},
	{
		"ID": -6819,
		"Text": "活动已结束"
	},
	{
		"ID": -6920,
		"Text": "玩家等级不足"
	},
	{
		"ID": -6921,
		"Text": "战略技能已更新，当前选择技能不存在"
	},
	{
		"ID": -6922,
		"Text": "当前装备技能数量不对"
	},
	{
		"ID": -6923,
		"Text": "战略技能重复"
	}
]