[
	{
		"ID": 1,
		"Name": "艾路萨莉亚",
		"Desc": "艾路萨莉亚",
		"RegionsID": [
			1,
			2,
			3,
			4,
			5,
			6,
			7,
			8,
			9,
			10,
			11,
			12,
			13,
			14,
			15,
			16,
			17,
			18,
			19,
			20,
			21,
			22,
			23,
			24,
			25,
			26,
			27,
			28,
			29,
			30,
			31,
			32,
			33,
			34,
			35,
			36,
			37,
			38,
			39,
			40,
			41
		],
		"StartWaypointID": 1,
		"WorldMap": "WorldMap/WorldMap1_ABS/WorldMap1a_Prefab.prefab",
		"BackgroundWidth": 36,
		"BackgroundHeight": 28,
		"Music": "MIMusic_Main"
	},
	{
		"ID": 2,
		"Name": "伊雷斯",
		"Desc": "伊雷斯",
		"RegionsID": [
			42,
			43,
			44,
			45,
			46,
			47,
			48,
			49,
			50,
			51,
			52,
			53,
			54,
			55,
			56
		],
		"StartWaypointID": 301,
		"WorldMap": "WorldMap/WorldMap2_ABS/WorldMap2a_Prefab.prefab",
		"BackgroundWidth": 36,
		"BackgroundHeight": 28,
		"Music": "MIMusic_Main02"
	}
]