[
	{
		"ID": 1,
		"Name": "禁地的异响",
		"PrevLevelId": 0,
		"UnlockDaysDelay": 0,
		"EnergySuccess": 10,
		"EnergyFail": 2,
		"MonsterLevel": 30,
		"BattleID": 6020,
		"DialogBeforeID": 0,
		"DialogAfterID": 0,
		"PlayerExp": 10,
		"HeroExp": 50,
		"Gold": 531,
		"ScoreBase": 200,
		"CommonRewardList": [
			{
				"GoodsType": "GoodsType_Gold",
				"Id": 0,
				"Count": 10000
			},
			{
				"GoodsType": "GoodsType_Item",
				"Id": 3203,
				"Count": 2
			}
		],
		"ItemDropCountDisplay": 2,
		"Strategy": ""
	},
	{
		"ID": 2,
		"Name": "魔剑的旋涡",
		"PrevLevelId": 1,
		"UnlockDaysDelay": 2,
		"EnergySuccess": 10,
		"EnergyFail": 2,
		"MonsterLevel": 40,
		"BattleID": 6021,
		"DialogBeforeID": 0,
		"DialogAfterID": 0,
		"PlayerExp": 10,
		"HeroExp": 60,
		"Gold": 752,
		"ScoreBase": 400,
		"CommonRewardList": [
			{
				"GoodsType": "GoodsType_Gold",
				"Id": 0,
				"Count": 20000
			},
			{
				"GoodsType": "GoodsType_Crystal",
				"Id": 0,
				"Count": 50
			}
		],
		"ItemDropCountDisplay": 2,
		"Strategy": ""
	},
	{
		"ID": 3,
		"Name": "黑暗再临",
		"PrevLevelId": 2,
		"UnlockDaysDelay": 4,
		"EnergySuccess": 10,
		"EnergyFail": 2,
		"MonsterLevel": 50,
		"BattleID": 6022,
		"DialogBeforeID": 0,
		"DialogAfterID": 0,
		"PlayerExp": 10,
		"HeroExp": 70,
		"Gold": 1004,
		"ScoreBase": 600,
		"CommonRewardList": [
			{
				"GoodsType": "GoodsType_Gold",
				"Id": 0,
				"Count": 30000
			},
			{
				"GoodsType": "GoodsType_Item",
				"Id": 3203,
				"Count": 3
			}
		],
		"ItemDropCountDisplay": 2,
		"Strategy": ""
	},
	{
		"ID": 4,
		"Name": "混沌乱战",
		"PrevLevelId": 3,
		"UnlockDaysDelay": 6,
		"EnergySuccess": 10,
		"EnergyFail": 2,
		"MonsterLevel": 60,
		"BattleID": 6023,
		"DialogBeforeID": 0,
		"DialogAfterID": 0,
		"PlayerExp": 10,
		"HeroExp": 80,
		"Gold": 1282,
		"ScoreBase": 800,
		"CommonRewardList": [
			{
				"GoodsType": "GoodsType_Gold",
				"Id": 0,
				"Count": 40000
			},
			{
				"GoodsType": "GoodsType_Item",
				"Id": 4001,
				"Count": 1
			}
		],
		"ItemDropCountDisplay": 2,
		"Strategy": ""
	},
	{
		"ID": 5,
		"Name": "魔界王子",
		"PrevLevelId": 4,
		"UnlockDaysDelay": 8,
		"EnergySuccess": 10,
		"EnergyFail": 2,
		"MonsterLevel": 65,
		"BattleID": 6024,
		"DialogBeforeID": 0,
		"DialogAfterID": 0,
		"PlayerExp": 10,
		"HeroExp": 80,
		"Gold": 1282,
		"ScoreBase": 1000,
		"CommonRewardList": [
			{
				"GoodsType": "GoodsType_Item",
				"Id": 1009,
				"Count": 25
			},
			{
				"GoodsType": "GoodsType_Gold",
				"Id": 0,
				"Count": 50000
			}
		],
		"ItemDropCountDisplay": 2,
		"Strategy": ""
	},
	{
		"ID": 11,
		"Name": "泳装假日物语",
		"PrevLevelId": 0,
		"UnlockDaysDelay": 0,
		"EnergySuccess": 10,
		"EnergyFail": 2,
		"MonsterLevel": 30,
		"BattleID": 6050,
		"DialogBeforeID": 8010101,
		"DialogAfterID": 0,
		"PlayerExp": 10,
		"HeroExp": 50,
		"Gold": 531,
		"ScoreBase": 200,
		"CommonRewardList": [
			{
				"GoodsType": "GoodsType_Gold",
				"Id": 0,
				"Count": 10000
			},
			{
				"GoodsType": "GoodsType_Item",
				"Id": 3503,
				"Count": 1
			}
		],
		"ItemDropCountDisplay": 2,
		"Strategy": ""
	},
	{
		"ID": 12,
		"Name": "兄贵？意外邂逅！",
		"PrevLevelId": 11,
		"UnlockDaysDelay": 1,
		"EnergySuccess": 10,
		"EnergyFail": 2,
		"MonsterLevel": 30,
		"BattleID": 6051,
		"DialogBeforeID": 0,
		"DialogAfterID": 8010201,
		"PlayerExp": 10,
		"HeroExp": 50,
		"Gold": 531,
		"ScoreBase": 200,
		"CommonRewardList": [
			{
				"GoodsType": "GoodsType_Gold",
				"Id": 0,
				"Count": 15000
			},
			{
				"GoodsType": "GoodsType_Item",
				"Id": 3203,
				"Count": 1
			}
		],
		"ItemDropCountDisplay": 2,
		"Strategy": ""
	},
	{
		"ID": 13,
		"Name": "密集弹幕！",
		"PrevLevelId": 12,
		"UnlockDaysDelay": 2,
		"EnergySuccess": 10,
		"EnergyFail": 2,
		"MonsterLevel": 40,
		"BattleID": 6052,
		"DialogBeforeID": 8010301,
		"DialogAfterID": 8010351,
		"PlayerExp": 10,
		"HeroExp": 60,
		"Gold": 752,
		"ScoreBase": 400,
		"CommonRewardList": [
			{
				"GoodsType": "GoodsType_Gold",
				"Id": 0,
				"Count": 20000
			},
			{
				"GoodsType": "GoodsType_Crystal",
				"Id": 0,
				"Count": 30
			}
		],
		"ItemDropCountDisplay": 2,
		"Strategy": ""
	},
	{
		"ID": 14,
		"Name": "群鱼大暴走！",
		"PrevLevelId": 13,
		"UnlockDaysDelay": 3,
		"EnergySuccess": 10,
		"EnergyFail": 2,
		"MonsterLevel": 50,
		"BattleID": 6053,
		"DialogBeforeID": 8010401,
		"DialogAfterID": 8010450,
		"PlayerExp": 10,
		"HeroExp": 70,
		"Gold": 1004,
		"ScoreBase": 600,
		"CommonRewardList": [
			{
				"GoodsType": "GoodsType_Gold",
				"Id": 0,
				"Count": 25000
			},
			{
				"GoodsType": "GoodsType_Item",
				"Id": 3203,
				"Count": 1
			}
		],
		"ItemDropCountDisplay": 2,
		"Strategy": ""
	},
	{
		"ID": 15,
		"Name": "推推球大战！",
		"PrevLevelId": 14,
		"UnlockDaysDelay": 4,
		"EnergySuccess": 10,
		"EnergyFail": 2,
		"MonsterLevel": 50,
		"BattleID": 6054,
		"DialogBeforeID": 8010501,
		"DialogAfterID": 0,
		"PlayerExp": 10,
		"HeroExp": 70,
		"Gold": 1004,
		"ScoreBase": 600,
		"CommonRewardList": [
			{
				"GoodsType": "GoodsType_Gold",
				"Id": 0,
				"Count": 30000
			},
			{
				"GoodsType": "GoodsType_Item",
				"Id": 1039,
				"Count": 20
			}
		],
		"ItemDropCountDisplay": 2,
		"Strategy": ""
	},
	{
		"ID": 16,
		"Name": "兄贵王座！？",
		"PrevLevelId": 15,
		"UnlockDaysDelay": 5,
		"EnergySuccess": 10,
		"EnergyFail": 2,
		"MonsterLevel": 60,
		"BattleID": 6055,
		"DialogBeforeID": 8010601,
		"DialogAfterID": 8010651,
		"PlayerExp": 10,
		"HeroExp": 80,
		"Gold": 1282,
		"ScoreBase": 800,
		"CommonRewardList": [
			{
				"GoodsType": "GoodsType_Gold",
				"Id": 0,
				"Count": 35000
			},
			{
				"GoodsType": "GoodsType_Item",
				"Id": 4001,
				"Count": 1
			}
		],
		"ItemDropCountDisplay": 2,
		"Strategy": ""
	},
	{
		"ID": 17,
		"Name": "深海大危机",
		"PrevLevelId": 16,
		"UnlockDaysDelay": 6,
		"EnergySuccess": 10,
		"EnergyFail": 2,
		"MonsterLevel": 65,
		"BattleID": 6056,
		"DialogBeforeID": 8010701,
		"DialogAfterID": 8010751,
		"PlayerExp": 10,
		"HeroExp": 80,
		"Gold": 1282,
		"ScoreBase": 1000,
		"CommonRewardList": [
			{
				"GoodsType": "GoodsType_Gold",
				"Id": 0,
				"Count": 40000
			},
			{
				"GoodsType": "GoodsType_Crystal",
				"Id": 0,
				"Count": 50
			}
		],
		"ItemDropCountDisplay": 2,
		"Strategy": ""
	},
	{
		"ID": 18,
		"Name": "筋肉的封印",
		"PrevLevelId": 17,
		"UnlockDaysDelay": 7,
		"EnergySuccess": 10,
		"EnergyFail": 2,
		"MonsterLevel": 65,
		"BattleID": 6057,
		"DialogBeforeID": 8010801,
		"DialogAfterID": 8010851,
		"PlayerExp": 10,
		"HeroExp": 80,
		"Gold": 1282,
		"ScoreBase": 1000,
		"CommonRewardList": [
			{
				"GoodsType": "GoodsType_Gold",
				"Id": 0,
				"Count": 50000
			},
			{
				"GoodsType": "GoodsType_Item",
				"Id": 1039,
				"Count": 30
			}
		],
		"ItemDropCountDisplay": 2,
		"Strategy": ""
	},
	{
		"ID": 21,
		"Name": "时空尽头的洋食屋",
		"PrevLevelId": 0,
		"UnlockDaysDelay": 0,
		"EnergySuccess": 10,
		"EnergyFail": 2,
		"MonsterLevel": 30,
		"BattleID": 6101,
		"DialogBeforeID": 8020101,
		"DialogAfterID": 8020151,
		"PlayerExp": 10,
		"HeroExp": 50,
		"Gold": 531,
		"ScoreBase": 400,
		"CommonRewardList": [
			{
				"GoodsType": "GoodsType_Gold",
				"Id": 0,
				"Count": 10000
			},
			{
				"GoodsType": "GoodsType_Item",
				"Id": 3503,
				"Count": 1
			}
		],
		"ItemDropCountDisplay": 2,
		"Strategy": ""
	},
	{
		"ID": 22,
		"Name": "大陆四天王",
		"PrevLevelId": 21,
		"UnlockDaysDelay": 1,
		"EnergySuccess": 10,
		"EnergyFail": 2,
		"MonsterLevel": 40,
		"BattleID": 6102,
		"DialogBeforeID": 8020201,
		"DialogAfterID": 8020251,
		"PlayerExp": 10,
		"HeroExp": 60,
		"Gold": 752,
		"ScoreBase": 400,
		"CommonRewardList": [
			{
				"GoodsType": "GoodsType_Gold",
				"Id": 0,
				"Count": 15000
			},
			{
				"GoodsType": "GoodsType_Item",
				"Id": 4001,
				"Count": 1
			}
		],
		"ItemDropCountDisplay": 2,
		"Strategy": ""
	},
	{
		"ID": 23,
		"Name": "双塔与恋爱",
		"PrevLevelId": 22,
		"UnlockDaysDelay": 2,
		"EnergySuccess": 10,
		"EnergyFail": 2,
		"MonsterLevel": 40,
		"BattleID": 6103,
		"DialogBeforeID": 8020301,
		"DialogAfterID": 8020351,
		"PlayerExp": 10,
		"HeroExp": 60,
		"Gold": 752,
		"ScoreBase": 600,
		"CommonRewardList": [
			{
				"GoodsType": "GoodsType_Gold",
				"Id": 0,
				"Count": 20000
			},
			{
				"GoodsType": "GoodsType_Crystal",
				"Id": 0,
				"Count": 30
			}
		],
		"ItemDropCountDisplay": 2,
		"Strategy": ""
	},
	{
		"ID": 24,
		"Name": "大陆最强骑士",
		"PrevLevelId": 23,
		"UnlockDaysDelay": 3,
		"EnergySuccess": 10,
		"EnergyFail": 2,
		"MonsterLevel": 50,
		"BattleID": 6520,
		"DialogBeforeID": 8020401,
		"DialogAfterID": 8020423,
		"PlayerExp": 10,
		"HeroExp": 70,
		"Gold": 1004,
		"ScoreBase": 600,
		"CommonRewardList": [
			{
				"GoodsType": "GoodsType_Gold",
				"Id": 0,
				"Count": 25000
			},
			{
				"GoodsType": "GoodsType_Item",
				"Id": 3203,
				"Count": 1
			}
		],
		"ItemDropCountDisplay": 2,
		"Strategy": ""
	},
	{
		"ID": 25,
		"Name": "无双之人",
		"PrevLevelId": 24,
		"UnlockDaysDelay": 4,
		"EnergySuccess": 10,
		"EnergyFail": 2,
		"MonsterLevel": 50,
		"BattleID": 6521,
		"DialogBeforeID": 8020501,
		"DialogAfterID": 8020532,
		"PlayerExp": 10,
		"HeroExp": 70,
		"Gold": 1004,
		"ScoreBase": 800,
		"CommonRewardList": [
			{
				"GoodsType": "GoodsType_Gold",
				"Id": 0,
				"Count": 30000
			},
			{
				"GoodsType": "GoodsType_Item",
				"Id": 1038,
				"Count": 10
			}
		],
		"ItemDropCountDisplay": 2,
		"Strategy": ""
	},
	{
		"ID": 26,
		"Name": "最强的试炼",
		"PrevLevelId": 25,
		"UnlockDaysDelay": 5,
		"EnergySuccess": 10,
		"EnergyFail": 2,
		"MonsterLevel": 60,
		"BattleID": 6106,
		"DialogBeforeID": 8020601,
		"DialogAfterID": 8020651,
		"PlayerExp": 10,
		"HeroExp": 80,
		"Gold": 1282,
		"ScoreBase": 800,
		"CommonRewardList": [
			{
				"GoodsType": "GoodsType_Gold",
				"Id": 0,
				"Count": 35000
			},
			{
				"GoodsType": "GoodsType_Crystal",
				"Id": 0,
				"Count": 50
			}
		],
		"ItemDropCountDisplay": 2,
		"Strategy": ""
	},
	{
		"ID": 27,
		"Name": "爱与家庭",
		"PrevLevelId": 26,
		"UnlockDaysDelay": 6,
		"EnergySuccess": 10,
		"EnergyFail": 2,
		"MonsterLevel": 60,
		"BattleID": 6107,
		"DialogBeforeID": 0,
		"DialogAfterID": 8020701,
		"PlayerExp": 10,
		"HeroExp": 80,
		"Gold": 1282,
		"ScoreBase": 1000,
		"CommonRewardList": [
			{
				"GoodsType": "GoodsType_Gold",
				"Id": 0,
				"Count": 40000
			},
			{
				"GoodsType": "GoodsType_Item",
				"Id": 3203,
				"Count": 3
			}
		],
		"ItemDropCountDisplay": 2,
		"Strategy": ""
	},
	{
		"ID": 28,
		"Name": "过去现在和未来",
		"PrevLevelId": 27,
		"UnlockDaysDelay": 7,
		"EnergySuccess": 10,
		"EnergyFail": 2,
		"MonsterLevel": 65,
		"BattleID": 6108,
		"DialogBeforeID": 8020801,
		"DialogAfterID": 8020901,
		"PlayerExp": 10,
		"HeroExp": 80,
		"Gold": 1282,
		"ScoreBase": 1000,
		"CommonRewardList": [
			{
				"GoodsType": "GoodsType_Gold",
				"Id": 0,
				"Count": 50000
			},
			{
				"GoodsType": "GoodsType_Item",
				"Id": 1038,
				"Count": 15
			}
		],
		"ItemDropCountDisplay": 2,
		"Strategy": ""
	},
	{
		"ID": 31,
		"Name": "魔剑的旋涡",
		"PrevLevelId": 0,
		"UnlockDaysDelay": 0,
		"EnergySuccess": 10,
		"EnergyFail": 2,
		"MonsterLevel": 60,
		"BattleID": 6702,
		"DialogBeforeID": 0,
		"DialogAfterID": 0,
		"PlayerExp": 10,
		"HeroExp": 80,
		"Gold": 1282,
		"ScoreBase": 400,
		"CommonRewardList": [
			{
				"GoodsType": "GoodsType_Crystal",
				"Id": 0,
				"Count": 30
			},
			{
				"GoodsType": "GoodsType_ChallengePoint",
				"Id": 0,
				"Count": 20
			},
			{
				"GoodsType": "GoodsType_Gold",
				"Id": 0,
				"Count": 80000
			}
		],
		"ItemDropCountDisplay": 4,
		"Strategy": ""
	},
	{
		"ID": 32,
		"Name": "禁地的异响",
		"PrevLevelId": 0,
		"UnlockDaysDelay": 2,
		"EnergySuccess": 10,
		"EnergyFail": 2,
		"MonsterLevel": 60,
		"BattleID": 6701,
		"DialogBeforeID": 0,
		"DialogAfterID": 0,
		"PlayerExp": 10,
		"HeroExp": 80,
		"Gold": 1282,
		"ScoreBase": 400,
		"CommonRewardList": [
			{
				"GoodsType": "GoodsType_Crystal",
				"Id": 0,
				"Count": 30
			},
			{
				"GoodsType": "GoodsType_ChallengePoint",
				"Id": 0,
				"Count": 20
			},
			{
				"GoodsType": "GoodsType_Gold",
				"Id": 0,
				"Count": 80000
			}
		],
		"ItemDropCountDisplay": 4,
		"Strategy": ""
	},
	{
		"ID": 33,
		"Name": "魔界王子",
		"PrevLevelId": 0,
		"UnlockDaysDelay": 4,
		"EnergySuccess": 10,
		"EnergyFail": 2,
		"MonsterLevel": 65,
		"BattleID": 6705,
		"DialogBeforeID": 0,
		"DialogAfterID": 0,
		"PlayerExp": 10,
		"HeroExp": 80,
		"Gold": 1282,
		"ScoreBase": 800,
		"CommonRewardList": [
			{
				"GoodsType": "GoodsType_Crystal",
				"Id": 0,
				"Count": 30
			},
			{
				"GoodsType": "GoodsType_ChallengePoint",
				"Id": 0,
				"Count": 40
			},
			{
				"GoodsType": "GoodsType_Gold",
				"Id": 0,
				"Count": 120000
			}
		],
		"ItemDropCountDisplay": 4,
		"Strategy": ""
	},
	{
		"ID": 34,
		"Name": "黑暗再临",
		"PrevLevelId": 0,
		"UnlockDaysDelay": 6,
		"EnergySuccess": 10,
		"EnergyFail": 2,
		"MonsterLevel": 65,
		"BattleID": 6703,
		"DialogBeforeID": 0,
		"DialogAfterID": 0,
		"PlayerExp": 10,
		"HeroExp": 80,
		"Gold": 1282,
		"ScoreBase": 800,
		"CommonRewardList": [
			{
				"GoodsType": "GoodsType_Crystal",
				"Id": 0,
				"Count": 30
			},
			{
				"GoodsType": "GoodsType_ChallengePoint",
				"Id": 0,
				"Count": 40
			},
			{
				"GoodsType": "GoodsType_Gold",
				"Id": 0,
				"Count": 120000
			}
		],
		"ItemDropCountDisplay": 4,
		"Strategy": ""
	},
	{
		"ID": 35,
		"Name": "混沌乱战",
		"PrevLevelId": 0,
		"UnlockDaysDelay": 8,
		"EnergySuccess": 10,
		"EnergyFail": 2,
		"MonsterLevel": 70,
		"BattleID": 6704,
		"DialogBeforeID": 0,
		"DialogAfterID": 0,
		"PlayerExp": 10,
		"HeroExp": 80,
		"Gold": 1282,
		"ScoreBase": 800,
		"CommonRewardList": [
			{
				"GoodsType": "GoodsType_Crystal",
				"Id": 0,
				"Count": 30
			},
			{
				"GoodsType": "GoodsType_ChallengePoint",
				"Id": 0,
				"Count": 40
			},
			{
				"GoodsType": "GoodsType_Gold",
				"Id": 0,
				"Count": 120000
			},
			{
				"GoodsType": "GoodsType_HeadFrame",
				"Id": 35,
				"Count": 1
			}
		],
		"ItemDropCountDisplay": 4,
		"Strategy": ""
	},
	{
		"ID": 51,
		"Name": "多重人格",
		"PrevLevelId": 0,
		"UnlockDaysDelay": 0,
		"EnergySuccess": 10,
		"EnergyFail": 2,
		"MonsterLevel": 60,
		"BattleID": 50620,
		"DialogBeforeID": 0,
		"DialogAfterID": 0,
		"PlayerExp": 10,
		"HeroExp": 80,
		"Gold": 1282,
		"ScoreBase": 400,
		"CommonRewardList": [
			{
				"GoodsType": "GoodsType_Crystal",
				"Id": 0,
				"Count": 30
			},
			{
				"GoodsType": "GoodsType_ChallengePoint",
				"Id": 0,
				"Count": 20
			},
			{
				"GoodsType": "GoodsType_Gold",
				"Id": 0,
				"Count": 200000
			}
		],
		"ItemDropCountDisplay": 4,
		"Strategy": ""
	},
	{
		"ID": 52,
		"Name": "飞影的招待状",
		"PrevLevelId": 0,
		"UnlockDaysDelay": 2,
		"EnergySuccess": 10,
		"EnergyFail": 2,
		"MonsterLevel": 60,
		"BattleID": 50622,
		"DialogBeforeID": 0,
		"DialogAfterID": 0,
		"PlayerExp": 10,
		"HeroExp": 80,
		"Gold": 1282,
		"ScoreBase": 400,
		"CommonRewardList": [
			{
				"GoodsType": "GoodsType_Crystal",
				"Id": 0,
				"Count": 30
			},
			{
				"GoodsType": "GoodsType_ChallengePoint",
				"Id": 0,
				"Count": 20
			},
			{
				"GoodsType": "GoodsType_Gold",
				"Id": 0,
				"Count": 200000
			}
		],
		"ItemDropCountDisplay": 4,
		"Strategy": ""
	},
	{
		"ID": 53,
		"Name": "武魂之祭奠",
		"PrevLevelId": 0,
		"UnlockDaysDelay": 4,
		"EnergySuccess": 10,
		"EnergyFail": 2,
		"MonsterLevel": 65,
		"BattleID": 50623,
		"DialogBeforeID": 0,
		"DialogAfterID": 0,
		"PlayerExp": 10,
		"HeroExp": 80,
		"Gold": 1282,
		"ScoreBase": 800,
		"CommonRewardList": [
			{
				"GoodsType": "GoodsType_Crystal",
				"Id": 0,
				"Count": 30
			},
			{
				"GoodsType": "GoodsType_ChallengePoint",
				"Id": 0,
				"Count": 40
			},
			{
				"GoodsType": "GoodsType_Item",
				"Id": 3203,
				"Count": 5
			}
		],
		"ItemDropCountDisplay": 4,
		"Strategy": ""
	},
	{
		"ID": 54,
		"Name": "四强·羁绊",
		"PrevLevelId": 0,
		"UnlockDaysDelay": 6,
		"EnergySuccess": 10,
		"EnergyFail": 2,
		"MonsterLevel": 65,
		"BattleID": 50624,
		"DialogBeforeID": 0,
		"DialogAfterID": 0,
		"PlayerExp": 10,
		"HeroExp": 80,
		"Gold": 1282,
		"ScoreBase": 800,
		"CommonRewardList": [
			{
				"GoodsType": "GoodsType_Crystal",
				"Id": 0,
				"Count": 30
			},
			{
				"GoodsType": "GoodsType_ChallengePoint",
				"Id": 0,
				"Count": 60
			},
			{
				"GoodsType": "GoodsType_Gold",
				"Id": 0,
				"Count": 400000
			}
		],
		"ItemDropCountDisplay": 4,
		"Strategy": ""
	},
	{
		"ID": 55,
		"Name": "仙水的复仇",
		"PrevLevelId": 0,
		"UnlockDaysDelay": 8,
		"EnergySuccess": 10,
		"EnergyFail": 2,
		"MonsterLevel": 65,
		"BattleID": 50625,
		"DialogBeforeID": 0,
		"DialogAfterID": 0,
		"PlayerExp": 10,
		"HeroExp": 80,
		"Gold": 1282,
		"ScoreBase": 800,
		"CommonRewardList": [
			{
				"GoodsType": "GoodsType_Crystal",
				"Id": 0,
				"Count": 30
			},
			{
				"GoodsType": "GoodsType_ChallengePoint",
				"Id": 0,
				"Count": 60
			},
			{
				"GoodsType": "GoodsType_Item",
				"Id": 4001,
				"Count": 3
			}
		],
		"ItemDropCountDisplay": 4,
		"Strategy": ""
	},
	{
		"ID": 56,
		"Name": "迷雾中的奇遇",
		"PrevLevelId": 0,
		"UnlockDaysDelay": 0,
		"EnergySuccess": 10,
		"EnergyFail": 2,
		"MonsterLevel": 50,
		"BattleID": 52311,
		"DialogBeforeID": 8171001,
		"DialogAfterID": 8171007,
		"PlayerExp": 10,
		"HeroExp": 80,
		"Gold": 1282,
		"ScoreBase": 0,
		"CommonRewardList": [
			{
				"GoodsType": "GoodsType_Crystal",
				"Id": 0,
				"Count": 30
			}
		],
		"ItemDropCountDisplay": 4,
		"Strategy": ""
	},
	{
		"ID": 57,
		"Name": "谁是谁的女友",
		"PrevLevelId": 56,
		"UnlockDaysDelay": 1,
		"EnergySuccess": 10,
		"EnergyFail": 2,
		"MonsterLevel": 50,
		"BattleID": 52312,
		"DialogBeforeID": 8172001,
		"DialogAfterID": 8172019,
		"PlayerExp": 10,
		"HeroExp": 80,
		"Gold": 1282,
		"ScoreBase": 0,
		"CommonRewardList": [
			{
				"GoodsType": "GoodsType_Crystal",
				"Id": 0,
				"Count": 30
			}
		],
		"ItemDropCountDisplay": 4,
		"Strategy": ""
	},
	{
		"ID": 58,
		"Name": "单身的理由",
		"PrevLevelId": 57,
		"UnlockDaysDelay": 2,
		"EnergySuccess": 10,
		"EnergyFail": 2,
		"MonsterLevel": 50,
		"BattleID": 52313,
		"DialogBeforeID": 8173000,
		"DialogAfterID": 8173036,
		"PlayerExp": 10,
		"HeroExp": 80,
		"Gold": 1282,
		"ScoreBase": 0,
		"CommonRewardList": [
			{
				"GoodsType": "GoodsType_Crystal",
				"Id": 0,
				"Count": 30
			}
		],
		"ItemDropCountDisplay": 4,
		"Strategy": ""
	},
	{
		"ID": 59,
		"Name": "难以触及的她",
		"PrevLevelId": 58,
		"UnlockDaysDelay": 3,
		"EnergySuccess": 10,
		"EnergyFail": 2,
		"MonsterLevel": 50,
		"BattleID": 52314,
		"DialogBeforeID": 8174000,
		"DialogAfterID": 8174030,
		"PlayerExp": 10,
		"HeroExp": 80,
		"Gold": 1282,
		"ScoreBase": 0,
		"CommonRewardList": [
			{
				"GoodsType": "GoodsType_Crystal",
				"Id": 0,
				"Count": 30
			}
		],
		"ItemDropCountDisplay": 4,
		"Strategy": ""
	},
	{
		"ID": 60,
		"Name": "情人节的礼物",
		"PrevLevelId": 59,
		"UnlockDaysDelay": 4,
		"EnergySuccess": 10,
		"EnergyFail": 2,
		"MonsterLevel": 50,
		"BattleID": 52315,
		"DialogBeforeID": 8175001,
		"DialogAfterID": 8175101,
		"PlayerExp": 10,
		"HeroExp": 80,
		"Gold": 1282,
		"ScoreBase": 0,
		"CommonRewardList": [
			{
				"GoodsType": "GoodsType_Crystal",
				"Id": 0,
				"Count": 30
			}
		],
		"ItemDropCountDisplay": 4,
		"Strategy": ""
	},
	{
		"ID": 61,
		"Name": "我只喜欢你",
		"PrevLevelId": 60,
		"UnlockDaysDelay": 5,
		"EnergySuccess": 10,
		"EnergyFail": 2,
		"MonsterLevel": 50,
		"BattleID": 52316,
		"DialogBeforeID": 8176001,
		"DialogAfterID": 8176101,
		"PlayerExp": 10,
		"HeroExp": 80,
		"Gold": 1282,
		"ScoreBase": 0,
		"CommonRewardList": [
			{
				"GoodsType": "GoodsType_Crystal",
				"Id": 0,
				"Count": 30
			}
		],
		"ItemDropCountDisplay": 4,
		"Strategy": ""
	},
	{
		"ID": 62,
		"Name": "返品的复仇",
		"PrevLevelId": 61,
		"UnlockDaysDelay": 6,
		"EnergySuccess": 10,
		"EnergyFail": 2,
		"MonsterLevel": 50,
		"BattleID": 52317,
		"DialogBeforeID": 8177001,
		"DialogAfterID": 8177041,
		"PlayerExp": 10,
		"HeroExp": 80,
		"Gold": 1282,
		"ScoreBase": 0,
		"CommonRewardList": [
			{
				"GoodsType": "GoodsType_Crystal",
				"Id": 0,
				"Count": 30
			},
			{
				"GoodsType": "GoodsType_HeadFrame",
				"Id": 64,
				"Count": 1
			}
		],
		"ItemDropCountDisplay": 4,
		"Strategy": ""
	},
	{
		"ID": 63,
		"Name": "月下的相会",
		"PrevLevelId": 0,
		"UnlockDaysDelay": 7,
		"EnergySuccess": 10,
		"EnergyFail": 2,
		"MonsterLevel": 60,
		"BattleID": 52321,
		"DialogBeforeID": 0,
		"DialogAfterID": 0,
		"PlayerExp": 10,
		"HeroExp": 80,
		"Gold": 1282,
		"ScoreBase": 800,
		"CommonRewardList": [
			{
				"GoodsType": "GoodsType_Crystal",
				"Id": 0,
				"Count": 30
			},
			{
				"GoodsType": "GoodsType_ChallengePoint",
				"Id": 0,
				"Count": 20
			},
			{
				"GoodsType": "GoodsType_Gold",
				"Id": 0,
				"Count": 200000
			}
		],
		"ItemDropCountDisplay": 4,
		"Strategy": ""
	},
	{
		"ID": 64,
		"Name": "磕磕碰碰的爱",
		"PrevLevelId": 0,
		"UnlockDaysDelay": 8,
		"EnergySuccess": 10,
		"EnergyFail": 2,
		"MonsterLevel": 60,
		"BattleID": 52322,
		"DialogBeforeID": 0,
		"DialogAfterID": 0,
		"PlayerExp": 10,
		"HeroExp": 80,
		"Gold": 1282,
		"ScoreBase": 800,
		"CommonRewardList": [
			{
				"GoodsType": "GoodsType_Crystal",
				"Id": 0,
				"Count": 30
			},
			{
				"GoodsType": "GoodsType_ChallengePoint",
				"Id": 0,
				"Count": 20
			},
			{
				"GoodsType": "GoodsType_Gold",
				"Id": 0,
				"Count": 200000
			}
		],
		"ItemDropCountDisplay": 4,
		"Strategy": ""
	},
	{
		"ID": 65,
		"Name": "全城热恋",
		"PrevLevelId": 0,
		"UnlockDaysDelay": 9,
		"EnergySuccess": 10,
		"EnergyFail": 2,
		"MonsterLevel": 60,
		"BattleID": 52323,
		"DialogBeforeID": 0,
		"DialogAfterID": 0,
		"PlayerExp": 10,
		"HeroExp": 80,
		"Gold": 1282,
		"ScoreBase": 1000,
		"CommonRewardList": [
			{
				"GoodsType": "GoodsType_Crystal",
				"Id": 0,
				"Count": 30
			},
			{
				"GoodsType": "GoodsType_ChallengePoint",
				"Id": 0,
				"Count": 40
			},
			{
				"GoodsType": "GoodsType_Item",
				"Id": 3203,
				"Count": 5
			}
		],
		"ItemDropCountDisplay": 4,
		"Strategy": ""
	},
	{
		"ID": 66,
		"Name": "大龄女神",
		"PrevLevelId": 0,
		"UnlockDaysDelay": 10,
		"EnergySuccess": 10,
		"EnergyFail": 2,
		"MonsterLevel": 65,
		"BattleID": 52324,
		"DialogBeforeID": 0,
		"DialogAfterID": 0,
		"PlayerExp": 10,
		"HeroExp": 80,
		"Gold": 1282,
		"ScoreBase": 1000,
		"CommonRewardList": [
			{
				"GoodsType": "GoodsType_Crystal",
				"Id": 0,
				"Count": 30
			},
			{
				"GoodsType": "GoodsType_ChallengePoint",
				"Id": 0,
				"Count": 60
			},
			{
				"GoodsType": "GoodsType_Gold",
				"Id": 0,
				"Count": 400000
			}
		],
		"ItemDropCountDisplay": 4,
		"Strategy": ""
	},
	{
		"ID": 67,
		"Name": "负心联盟",
		"PrevLevelId": 0,
		"UnlockDaysDelay": 11,
		"EnergySuccess": 10,
		"EnergyFail": 2,
		"MonsterLevel": 70,
		"BattleID": 52325,
		"DialogBeforeID": 0,
		"DialogAfterID": 0,
		"PlayerExp": 10,
		"HeroExp": 80,
		"Gold": 1282,
		"ScoreBase": 1000,
		"CommonRewardList": [
			{
				"GoodsType": "GoodsType_Crystal",
				"Id": 0,
				"Count": 30
			},
			{
				"GoodsType": "GoodsType_ChallengePoint",
				"Id": 0,
				"Count": 60
			},
			{
				"GoodsType": "GoodsType_Item",
				"Id": 4001,
				"Count": 3
			}
		],
		"ItemDropCountDisplay": 4,
		"Strategy": ""
	}
]