[
	{
		"ID": 1,
		"Name": "默认背景",
		"GetPathExplain": "",
		"BackGroundIcon": "UI/Friend_ABS/1/BG_Story_None.png",
		"FloorIcon": "UI/CommonBG_ABS/Background_PVP.png",
		"MarkIcon": "UI/Friend_ABS/1/BG_Story_None.png",
		"Describe": "默认背景。"
	},
	{
		"ID": 2,
		"Name": "浅滩时光",
		"GetPathExplain": "完成主线剧情第二部序章后获取",
		"BackGroundIcon": "UI/Friend_ABS/1/BG_Story_01.png",
		"FloorIcon": "UI/Friend_ABS/1/Ground_Story_01.png",
		"MarkIcon": "UI/Icon/ItemSkin_ABS/BusinessCard_BG1.png",
		"Describe": "「名片背景」充满夏日风情的金色沙滩，是少男少女们的最爱。"
	},
	{
		"ID": 3,
		"Name": "沙漠历险",
		"GetPathExplain": "累计登录30天成就获取",
		"BackGroundIcon": "UI/Friend_ABS/1/BG_Story_02.png",
		"FloorIcon": "UI/Friend_ABS/1/Ground_Story_02.png",
		"MarkIcon": "UI/Icon/ItemSkin_ABS/BusinessCard_BG2.png",
		"Describe": "「名片背景」落日孤烟的戈壁荒原，是英雄创生的地方。"
	},
	{
		"ID": 4,
		"Name": "云中之城",
		"GetPathExplain": "累计登录500天成就获取",
		"BackGroundIcon": "UI/Friend_ABS/1/BG_Story_03.png",
		"FloorIcon": "UI/Friend_ABS/1/Ground_Story_03.png",
		"MarkIcon": "UI/Icon/ItemSkin_ABS/BusinessCard_BG3.png",
		"Describe": "「名片背景」云梵之境，幻影之城，是强者渴望的心之故乡。"
	},
	{
		"ID": 5,
		"Name": "荣耀圣殿",
		"GetPathExplain": "通过超时空SSSS级终极试炼获取",
		"BackGroundIcon": "UI/Friend_ABS/1/BG_Story_04.png",
		"FloorIcon": "UI/Friend_ABS/1/Ground_Story_04.png",
		"MarkIcon": "UI/Icon/ItemSkin_ABS/BusinessCard_BG4.png",
		"Describe": "「名片背景」传说中天使高歌的圣地，是光之女神嘉奖勇者的殿堂。"
	}
]