[
	{
		"ID": 1,
		"Name": "免费券卡池",
		"PoolType": "CardPoolType_FreeCardPool",
		"SelectType": "CardSelectType_BothSelect",
		"CrystalCost": 0,
		"TenSelectDiscount": 0,
		"TenSelectCount": 0,
		"TicketId": 4000,
		"CardPoolSelectMaxCount": 0,
		"SortID": 1,
		"Icon": "UI/Common_New_ABS/Icon/Item_CardTicket_Silver.png",
		"ClockResPath": "UI/SelectCard_ABS/Prefab/Clock.prefab",
		"AdsImage": "UI/SelectCard_ABS/Banner/Banner_002.png",
		"SelectProbabilityInfoID": 1,
		"SelectContentInfoID": 1,
		"ToggleClickImage": "",
		"ToggleUnClickImage": "",
		"MissionCardPoolType": "MissionCardPoolType_Free",
		"CardPoolDetailDesc": ""
	},
	{
		"ID": 2,
		"Name": "钻石卡池-英雄",
		"PoolType": "CardPoolType_CrystalCardPool",
		"SelectType": "CardSelectType_BothSelect",
		"CrystalCost": 88,
		"TenSelectDiscount": 880,
		"TenSelectCount": 100,
		"TicketId": 4001,
		"CardPoolSelectMaxCount": 0,
		"SortID": 2,
		"Icon": "UI/Common_New_ABS/Icon/Item_CardTicket_Gold.png",
		"ClockResPath": "UI/SelectCard_ABS/Prefab/Clock.prefab",
		"AdsImage": "UI/SelectCard_ABS/Banner/Banner_001.png",
		"SelectProbabilityInfoID": 2,
		"SelectContentInfoID": 2,
		"ToggleClickImage": "",
		"ToggleUnClickImage": "",
		"MissionCardPoolType": "MissionCardPoolType_Hero",
		"CardPoolDetailDesc": ""
	},
	{
		"ID": 3,
		"Name": "钻石卡池-装备",
		"PoolType": "CardPoolType_CrystalCardPool",
		"SelectType": "CardSelectType_BothSelect",
		"CrystalCost": 88,
		"TenSelectDiscount": 880,
		"TenSelectCount": 100,
		"TicketId": 4001,
		"CardPoolSelectMaxCount": 0,
		"SortID": 3,
		"Icon": "UI/Common_New_ABS/Icon/Item_CardTicket_Gold.png",
		"ClockResPath": "UI/SelectCard_ABS/Prefab/Clock.prefab",
		"AdsImage": "UI/SelectCard_ABS/Banner/Banner_003.png",
		"SelectProbabilityInfoID": 3,
		"SelectContentInfoID": 3,
		"ToggleClickImage": "",
		"ToggleUnClickImage": "",
		"MissionCardPoolType": "MissionCardPoolType_Equipment",
		"CardPoolDetailDesc": ""
	},
	{
		"ID": 4,
		"Name": "启程的勇者",
		"PoolType": "CardPoolType_ActivityCardPool",
		"SelectType": "CardSelectType_BothSelect",
		"CrystalCost": 88,
		"TenSelectDiscount": 880,
		"TenSelectCount": 100,
		"TicketId": 4001,
		"CardPoolSelectMaxCount": 0,
		"SortID": 4,
		"Icon": "UI/Common_New_ABS/Icon/Item_CardTicket_Gold.png",
		"ClockResPath": "UI/SelectCard_ABS/Prefab/Clock.prefab",
		"AdsImage": "UI/SelectCard_ABS/Banner/Banner_006.png",
		"SelectProbabilityInfoID": 4,
		"SelectContentInfoID": 4,
		"ToggleClickImage": "UI/Icon/SelectCardHero_ABS/Cardpool_006.png",
		"ToggleUnClickImage": "UI/Icon/SelectCardHero_ABS/Cardpool_006.png",
		"MissionCardPoolType": "MissionCardPoolType_Hero",
		"CardPoolDetailDesc": "<color=#008B00>◆启程的勇者-限时召唤◆</color>\n★<color=#DC143C>活动召唤</color>中获得SSR时，指定英雄的获得概率大幅度UP！\n★SSR总获取概率与普通英雄召唤相同。\n\n<color=#008B00>◆限定英雄◆</color>\n★本次活动中概率UP的英雄是：\n<color=#DC143C>SSR 艾尔文</color>、<color=#DC143C>SSR 雪莉</color>\n\n<color=#008B00>◆「召唤10次」特殊说明◆</color>\n★<color=#DC143C>限时召唤</color>中「召唤10次」，至少获得<color=#DC143C>1</color>位SR英雄。"
	},
	{
		"ID": 5,
		"Name": "帝国的野望",
		"PoolType": "CardPoolType_ActivityCardPool",
		"SelectType": "CardSelectType_BothSelect",
		"CrystalCost": 88,
		"TenSelectDiscount": 880,
		"TenSelectCount": 100,
		"TicketId": 4001,
		"CardPoolSelectMaxCount": 0,
		"SortID": 5,
		"Icon": "UI/Common_New_ABS/Icon/Item_CardTicket_Gold.png",
		"ClockResPath": "UI/SelectCard_ABS/Prefab/Clock.prefab",
		"AdsImage": "UI/SelectCard_ABS/Banner/Banner_007.png",
		"SelectProbabilityInfoID": 5,
		"SelectContentInfoID": 5,
		"ToggleClickImage": "UI/Icon/SelectCardHero_ABS/Cardpool_007.png",
		"ToggleUnClickImage": "UI/Icon/SelectCardHero_ABS/Cardpool_007.png",
		"MissionCardPoolType": "MissionCardPoolType_Hero",
		"CardPoolDetailDesc": "<color=#008B00>◆帝国的野望-限时召唤◆</color>\n★<color=#DC143C>活动召唤</color>中获得SSR时，指定英雄的获得概率大幅度UP！\n★SSR总获取概率与普通英雄召唤相同。\n\n<color=#008B00>◆限定英雄◆</color>\n★本次活动中概率UP的英雄是：\n<color=#DC143C>SSR 利昂</color>、<color=#DC143C>SSR 巴恩哈特</color>\n\n<color=#008B00>◆「召唤10次」特殊说明◆</color>\n★<color=#DC143C>限时召唤</color>中「召唤10次」，至少获得<color=#DC143C>1</color>位SR英雄。"
	},
	{
		"ID": 6,
		"Name": "消除黑暗之光",
		"PoolType": "CardPoolType_ActivityCardPool",
		"SelectType": "CardSelectType_BothSelect",
		"CrystalCost": 88,
		"TenSelectDiscount": 880,
		"TenSelectCount": 100,
		"TicketId": 4001,
		"CardPoolSelectMaxCount": 0,
		"SortID": 4,
		"Icon": "UI/Common_New_ABS/Icon/Item_CardTicket_Gold.png",
		"ClockResPath": "UI/SelectCard_ABS/Prefab/Clock.prefab",
		"AdsImage": "UI/SelectCard_ABS/Banner/Banner_008.png",
		"SelectProbabilityInfoID": 4,
		"SelectContentInfoID": 4,
		"ToggleClickImage": "UI/Icon/SelectCardHero_ABS/Cardpool_008.png",
		"ToggleUnClickImage": "UI/Icon/SelectCardHero_ABS/Cardpool_008.png",
		"MissionCardPoolType": "MissionCardPoolType_Hero",
		"CardPoolDetailDesc": "<color=#008B00>◆消除黑暗的光-限时召唤◆</color>\n★<color=#DC143C>活动召唤</color>中获得SSR时，指定英雄的获得概率大幅度UP！\n★SSR总获取概率与普通英雄召唤相同。\n\n<color=#008B00>◆限定英雄◆</color>\n★本次活动中概率UP的英雄是：\n<color=#DC143C>SSR 雷丁</color>、<color=#DC143C>SSR 莉亚娜</color>\n\n<color=#008B00>◆「召唤10次」特殊说明◆</color>\n★<color=#DC143C>限时召唤</color>中「召唤10次」，至少获得<color=#DC143C>1</color>位SR英雄。"
	},
	{
		"ID": 7,
		"Name": "传说的黑暗面",
		"PoolType": "CardPoolType_ActivityCardPool",
		"SelectType": "CardSelectType_BothSelect",
		"CrystalCost": 88,
		"TenSelectDiscount": 880,
		"TenSelectCount": 100,
		"TicketId": 4001,
		"CardPoolSelectMaxCount": 0,
		"SortID": 5,
		"Icon": "UI/Common_New_ABS/Icon/Item_CardTicket_Gold.png",
		"ClockResPath": "UI/SelectCard_ABS/Prefab/Clock.prefab",
		"AdsImage": "UI/SelectCard_ABS/Banner/Banner_009.png",
		"SelectProbabilityInfoID": 5,
		"SelectContentInfoID": 5,
		"ToggleClickImage": "UI/Icon/SelectCardHero_ABS/Cardpool_009.png",
		"ToggleUnClickImage": "UI/Icon/SelectCardHero_ABS/Cardpool_009.png",
		"MissionCardPoolType": "MissionCardPoolType_Hero",
		"CardPoolDetailDesc": "<color=#008B00>◆传说的黑暗面-限时召唤◆</color>\n★<color=#DC143C>活动召唤</color>中获得SSR时，指定英雄的获得概率大幅度UP！\n★SSR总获取概率与普通英雄召唤相同。\n\n<color=#008B00>◆限定英雄◆</color>\n★本次活动中概率UP的英雄是：\n<color=#DC143C>SSR 波赞鲁</color>、<color=#DC143C>SSR 拉娜</color>\n\n<color=#008B00>◆「召唤10次」特殊说明◆</color>\n★<color=#DC143C>限时召唤</color>中「召唤10次」，至少获得<color=#DC143C>1</color>位SR英雄。"
	},
	{
		"ID": 8,
		"Name": "守护骑士物语",
		"PoolType": "CardPoolType_ActivityCardPool",
		"SelectType": "CardSelectType_BothSelect",
		"CrystalCost": 88,
		"TenSelectDiscount": 880,
		"TenSelectCount": 100,
		"TicketId": 4001,
		"CardPoolSelectMaxCount": 0,
		"SortID": 4,
		"Icon": "UI/Common_New_ABS/Icon/Item_CardTicket_Gold.png",
		"ClockResPath": "UI/SelectCard_ABS/Prefab/Clock.prefab",
		"AdsImage": "UI/SelectCard_ABS/Banner/Banner_010.png",
		"SelectProbabilityInfoID": 4,
		"SelectContentInfoID": 4,
		"ToggleClickImage": "UI/Icon/SelectCardHero_ABS/Cardpool_010.png",
		"ToggleUnClickImage": "UI/Icon/SelectCardHero_ABS/Cardpool_010.png",
		"MissionCardPoolType": "MissionCardPoolType_Hero",
		"CardPoolDetailDesc": "<color=#008B00>◆守护骑士物语-限时召唤◆</color>\n★<color=#DC143C>活动召唤</color>中获得SSR时，指定英雄的获得概率大幅度UP！\n★SSR总获取概率与普通英雄召唤相同。\n\n<color=#008B00>◆限定英雄◆</color>\n★本次活动中概率UP的英雄是：\n<color=#DC143C>SSR 迪哈尔特</color>、<color=#DC143C>SSR 蒂亚莉丝</color>\n\n<color=#008B00>◆「召唤10次」特殊说明◆</color>\n★<color=#DC143C>限时召唤</color>中「召唤10次」，至少获得<color=#DC143C>1</color>位SR英雄。"
	},
	{
		"ID": 9,
		"Name": "天空的统御者",
		"PoolType": "CardPoolType_ActivityCardPool",
		"SelectType": "CardSelectType_BothSelect",
		"CrystalCost": 88,
		"TenSelectDiscount": 880,
		"TenSelectCount": 100,
		"TicketId": 4001,
		"CardPoolSelectMaxCount": 0,
		"SortID": 5,
		"Icon": "UI/Common_New_ABS/Icon/Item_CardTicket_Gold.png",
		"ClockResPath": "UI/SelectCard_ABS/Prefab/Clock.prefab",
		"AdsImage": "UI/SelectCard_ABS/Banner/Banner_011.png",
		"SelectProbabilityInfoID": 5,
		"SelectContentInfoID": 5,
		"ToggleClickImage": "UI/Icon/SelectCardHero_ABS/Cardpool_011.png",
		"ToggleUnClickImage": "UI/Icon/SelectCardHero_ABS/Cardpool_011.png",
		"MissionCardPoolType": "MissionCardPoolType_Hero",
		"CardPoolDetailDesc": "<color=#008B00>◆天空的统御者-限时召唤◆</color>\n★<color=#DC143C>活动召唤</color>中获得SSR时，指定英雄的获得概率大幅度UP！\n★SSR总获取概率与普通英雄召唤相同。\n\n<color=#008B00>◆限定英雄◆</color>\n★本次活动中概率UP的英雄是：\n<color=#DC143C>SSR 亚鲁特缪拉</color>、<color=#DC143C>SSR 露娜</color>\n\n<color=#008B00>◆「召唤10次」特殊说明◆</color>\n★<color=#DC143C>限时召唤</color>中「召唤10次」，至少获得<color=#DC143C>1</color>位SR英雄。"
	},
	{
		"ID": 10,
		"Name": "碧空的双子",
		"PoolType": "CardPoolType_ActivityCardPool",
		"SelectType": "CardSelectType_BothSelect",
		"CrystalCost": 88,
		"TenSelectDiscount": 880,
		"TenSelectCount": 100,
		"TicketId": 4001,
		"CardPoolSelectMaxCount": 0,
		"SortID": 5,
		"Icon": "UI/Common_New_ABS/Icon/Item_CardTicket_Gold.png",
		"ClockResPath": "UI/SelectCard_ABS/Prefab/Clock.prefab",
		"AdsImage": "UI/SelectCard_ABS/Banner/Banner_012.png",
		"SelectProbabilityInfoID": 5,
		"SelectContentInfoID": 5,
		"ToggleClickImage": "UI/Icon/SelectCardHero_ABS/Icon_012.png",
		"ToggleUnClickImage": "UI/Icon/SelectCardHero_ABS/Icon_012.png",
		"MissionCardPoolType": "MissionCardPoolType_Hero",
		"CardPoolDetailDesc": "<color=#008B00>◆碧空的双子-限时召唤◆</color>\n★<color=#DC143C>活动召唤</color>中获得SSR时，其中指定英雄的获得概率大幅度UP！\n★SSR总获取概率与普通英雄召唤相同。\n\n\n<color=#008B00>◆限定英雄◆</color>\n★本次活动中概率UP的英雄是：\n<color=#DC143C>SSR 安洁丽娜</color>、<color=#DC143C>SSR 雪露法妮尔</color>。\n\n<color=#008B00>◆「召唤10次」特殊说明◆</color>\n★<color=#DC143C>限时召唤</color>中「召唤10次」，至少获得<color=#DC143C>1</color>位SR英雄。"
	},
	{
		"ID": 11,
		"Name": "传奇的汇聚",
		"PoolType": "CardPoolType_ActivityCardPool",
		"SelectType": "CardSelectType_BothSelect",
		"CrystalCost": 88,
		"TenSelectDiscount": 880,
		"TenSelectCount": 100,
		"TicketId": 4001,
		"CardPoolSelectMaxCount": 0,
		"SortID": 5,
		"Icon": "UI/Common_New_ABS/Icon/Item_CardTicket_Gold.png",
		"ClockResPath": "UI/SelectCard_ABS/Prefab/Clock.prefab",
		"AdsImage": "UI/SelectCard_ABS/Banner/Banner_013.png",
		"SelectProbabilityInfoID": 5,
		"SelectContentInfoID": 5,
		"ToggleClickImage": "UI/Icon/SelectCardHero_ABS/Icon_013.png",
		"ToggleUnClickImage": "UI/Icon/SelectCardHero_ABS/Icon_013.png",
		"MissionCardPoolType": "MissionCardPoolType_Hero",
		"CardPoolDetailDesc": "<color=#008B00>◆传奇的汇聚-限时召唤◆</color>\n★<color=#DC143C>活动召唤</color>中获得SSR时，其中指定英雄的获得概率大幅度UP！\n★SSR总获取概率与普通英雄召唤相同。\n★<color=#DC143C>精选福利</color>：你从本次活动中首次抽取到的SSR英雄，必定是活动精选列表中你尚未拥有的SSR英雄。\n\n<color=#008B00>◆限定英雄◆</color>\n★本次活动中概率UP的英雄是：\n<color=#DC143C>SSR 雷丁</color>、<color=#DC143C>SSR 利昂</color>、<color=#DC143C>SSR 艾尔文</color>。\n\n<color=#008B00>◆「召唤10次」特殊说明◆</color>\n★<color=#DC143C>限时召唤</color>中「召唤10次」，至少获得<color=#DC143C>1</color>位SR英雄。"
	},
	{
		"ID": 12,
		"Name": "夏日姬精选",
		"PoolType": "CardPoolType_ActivityCardPool",
		"SelectType": "CardSelectType_BothSelect",
		"CrystalCost": 88,
		"TenSelectDiscount": 880,
		"TenSelectCount": 100,
		"TicketId": 4001,
		"CardPoolSelectMaxCount": 0,
		"SortID": 5,
		"Icon": "UI/Common_New_ABS/Icon/Item_CardTicket_Gold.png",
		"ClockResPath": "UI/SelectCard_ABS/Prefab/Clock.prefab",
		"AdsImage": "UI/SelectCard_ABS/Banner/Banner_014.png",
		"SelectProbabilityInfoID": 5,
		"SelectContentInfoID": 5,
		"ToggleClickImage": "UI/Icon/SelectCardHero_ABS/Icon_014.png",
		"ToggleUnClickImage": "UI/Icon/SelectCardHero_ABS/Icon_014.png",
		"MissionCardPoolType": "MissionCardPoolType_Hero",
		"CardPoolDetailDesc": "<color=#008B00>◆夏日姬精选-限时召唤◆</color>\n★<color=#DC143C>活动召唤</color>中获得SSR时，其中指定英雄的获得概率大幅度UP！\n★SSR总获取概率与普通英雄召唤相同。\n★<color=#DC143C>精选福利</color>：你从本次活动中首次抽取到的SSR英雄，必定是活动精选列表中你尚未拥有的SSR英雄。\n\n<color=#008B00>◆限定英雄◆</color>\n★本次活动中概率UP的英雄是：\n<color=#DC143C>SSR 露娜</color>、<color=#DC143C>SSR 拉娜</color>、<color=#DC143C>SSR 蒂亚莉丝</color>。\n\n<color=#008B00>◆「召唤10次」特殊说明◆</color>\n★<color=#DC143C>限时召唤</color>中「召唤10次」，至少获得<color=#DC143C>1</color>位SR英雄。"
	},
	{
		"ID": 13,
		"Name": "光暗摇篮曲",
		"PoolType": "CardPoolType_ActivityCardPool",
		"SelectType": "CardSelectType_BothSelect",
		"CrystalCost": 88,
		"TenSelectDiscount": 880,
		"TenSelectCount": 100,
		"TicketId": 4001,
		"CardPoolSelectMaxCount": 0,
		"SortID": 5,
		"Icon": "UI/Common_New_ABS/Icon/Item_CardTicket_Gold.png",
		"ClockResPath": "UI/SelectCard_ABS/Prefab/Clock.prefab",
		"AdsImage": "UI/SelectCard_ABS/Banner/Banner_015.png",
		"SelectProbabilityInfoID": 5,
		"SelectContentInfoID": 5,
		"ToggleClickImage": "UI/Icon/SelectCardHero_ABS/Icon_015.png",
		"ToggleUnClickImage": "UI/Icon/SelectCardHero_ABS/Icon_015.png",
		"MissionCardPoolType": "MissionCardPoolType_Hero",
		"CardPoolDetailDesc": "<color=#008B00>◆光暗摇篮曲-限时召唤◆</color>\n★<color=#DC143C>活动召唤</color>中获得SSR时，其中指定英雄的获得概率大幅度UP！\n★SSR总获取概率与普通英雄召唤相同。\n\n<color=#008B00>◆限定英雄◆</color>\n★本次活动中概率UP的英雄是：\n<color=#DC143C>SSR 古巨拉</color>、<color=#DC143C>SSR 泽瑞达</color>。\n\n<color=#008B00>◆「召唤10次」特殊说明◆</color>\n★<color=#DC143C>限时召唤</color>中「召唤10次」，至少获得<color=#DC143C>1</color>位SR英雄。"
	},
	{
		"ID": 14,
		"Name": "公主宅急便",
		"PoolType": "CardPoolType_ActivityCardPool",
		"SelectType": "CardSelectType_BothSelect",
		"CrystalCost": 88,
		"TenSelectDiscount": 880,
		"TenSelectCount": 100,
		"TicketId": 4001,
		"CardPoolSelectMaxCount": 0,
		"SortID": 5,
		"Icon": "UI/Common_New_ABS/Icon/Item_CardTicket_Gold.png",
		"ClockResPath": "UI/SelectCard_ABS/Prefab/Clock.prefab",
		"AdsImage": "UI/SelectCard_ABS/Banner/Banner_016.png",
		"SelectProbabilityInfoID": 5,
		"SelectContentInfoID": 5,
		"ToggleClickImage": "UI/Icon/SelectCardHero_ABS/Icon_016.png",
		"ToggleUnClickImage": "UI/Icon/SelectCardHero_ABS/Icon_016.png",
		"MissionCardPoolType": "MissionCardPoolType_Hero",
		"CardPoolDetailDesc": "<color=#008B00>◆公主宅急便-限时召唤◆</color>\n★<color=#DC143C>活动召唤</color>中获得SSR时，其中指定英雄的获得概率大幅度UP！\n★SSR总获取概率与普通英雄召唤相同。\n★<color=#DC143C>精选福利</color>：你从本次活动中首次抽取到的SSR英雄，必定是活动精选列表中你尚未拥有的SSR英雄（若你已经集齐该活动精选列表中所有英雄，则可能获得其他SSR英雄或者重复的精选SSR英雄）。\n\n<color=#008B00>◆限定英雄◆</color>\n★本次活动中概率UP的英雄是：\n拥有再行动能力的<color=#DC143C>SSR 雪莉</color>、<color=#DC143C>SSR 莉亚娜</color>、<color=#DC143C>SSR 安洁丽娜</color>。\n\n<color=#008B00>◆「召唤10次」特殊说明◆</color>\n★<color=#DC143C>限时召唤</color>中「召唤10次」，至少获得<color=#DC143C>1</color>位SR英雄。"
	},
	{
		"ID": 15,
		"Name": "黑暗轮回精选",
		"PoolType": "CardPoolType_ActivityCardPool",
		"SelectType": "CardSelectType_BothSelect",
		"CrystalCost": 88,
		"TenSelectDiscount": 880,
		"TenSelectCount": 100,
		"TicketId": 4001,
		"CardPoolSelectMaxCount": 0,
		"SortID": 5,
		"Icon": "UI/Common_New_ABS/Icon/Item_CardTicket_Gold.png",
		"ClockResPath": "UI/SelectCard_ABS/Prefab/Clock.prefab",
		"AdsImage": "UI/SelectCard_ABS/Banner/Banner_017.png",
		"SelectProbabilityInfoID": 5,
		"SelectContentInfoID": 5,
		"ToggleClickImage": "UI/Icon/SelectCardHero_ABS/Icon_017.png",
		"ToggleUnClickImage": "UI/Icon/SelectCardHero_ABS/Icon_017.png",
		"MissionCardPoolType": "MissionCardPoolType_Hero",
		"CardPoolDetailDesc": "<color=#008B00>◆黑暗轮回精选-限时召唤◆</color>\n★<color=#DC143C>活动召唤</color>中获得SSR时，其中指定英雄的获得概率大幅度UP！\n★SSR总获取概率与普通英雄召唤相同。\n★<color=#DC143C>精选福利</color>：你从本次活动中首次抽取到的SSR英雄，必定是活动精选列表中你尚未拥有的SSR英雄（若你已经集齐该活动精选列表中所有英雄，则可能获得其他SSR英雄或者重复的精选SSR英雄）。\n\n<color=#008B00>◆限定英雄◆</color>\n★本次活动中概率UP的英雄是：\n<color=#DC143C>SSR 巴恩哈特</color>、<color=#DC143C>SSR 波赞鲁</color>、<color=#DC143C>SSR 亚鲁特缪拉</color>。\n\n<color=#008B00>◆「召唤10次」特殊说明◆</color>\n★<color=#DC143C>限时召唤</color>中「召唤10次」，至少获得<color=#DC143C>1</color>位SR英雄。"
	},
	{
		"ID": 16,
		"Name": "伊雷斯的季风",
		"PoolType": "CardPoolType_ActivityCardPool",
		"SelectType": "CardSelectType_BothSelect",
		"CrystalCost": 88,
		"TenSelectDiscount": 880,
		"TenSelectCount": 100,
		"TicketId": 4001,
		"CardPoolSelectMaxCount": 0,
		"SortID": 5,
		"Icon": "UI/Common_New_ABS/Icon/Item_CardTicket_Gold.png",
		"ClockResPath": "UI/SelectCard_ABS/Prefab/Clock.prefab",
		"AdsImage": "UI/SelectCard_ABS/Banner/Banner_018.png",
		"SelectProbabilityInfoID": 5,
		"SelectContentInfoID": 5,
		"ToggleClickImage": "UI/Icon/SelectCardHero_ABS/Icon_018.png",
		"ToggleUnClickImage": "UI/Icon/SelectCardHero_ABS/Icon_018.png",
		"MissionCardPoolType": "MissionCardPoolType_Hero",
		"CardPoolDetailDesc": "<color=#008B00>◆伊雷斯的季风-限时召唤◆</color>\n★<color=#DC143C>活动召唤</color>中获得SSR时，其中指定英雄的获得概率大幅度UP！\n★SSR总获取概率与普通英雄召唤相同。\n\n<color=#008B00>◆限定英雄◆</color>\n★本次活动中概率UP的英雄是：\n<color=#DC143C>SSR 兰芳特</color>、<color=#DC143C>SSR 妮丝蒂尔</color>。\n\n<color=#008B00>◆「召唤10次」特殊说明◆</color>\n★<color=#DC143C>限时召唤</color>中「召唤10次」，至少获得<color=#DC143C>1</color>位SR英雄。"
	},
	{
		"ID": 17,
		"Name": "光之起源精选",
		"PoolType": "CardPoolType_ActivityCardPool",
		"SelectType": "CardSelectType_BothSelect",
		"CrystalCost": 88,
		"TenSelectDiscount": 880,
		"TenSelectCount": 100,
		"TicketId": 4001,
		"CardPoolSelectMaxCount": 0,
		"SortID": 5,
		"Icon": "UI/Common_New_ABS/Icon/Item_CardTicket_Gold.png",
		"ClockResPath": "UI/SelectCard_ABS/Prefab/Clock.prefab",
		"AdsImage": "UI/SelectCard_ABS/Banner/Banner_019.png",
		"SelectProbabilityInfoID": 5,
		"SelectContentInfoID": 5,
		"ToggleClickImage": "UI/Icon/SelectCardHero_ABS/Icon_019.png",
		"ToggleUnClickImage": "UI/Icon/SelectCardHero_ABS/Icon_019.png",
		"MissionCardPoolType": "MissionCardPoolType_Hero",
		"CardPoolDetailDesc": "<color=#008B00>◆光之起源精选-限时召唤◆</color>\n★<color=#DC143C>活动召唤</color>中获得SSR时，其中指定英雄的获得概率大幅度UP！\n★SSR总获取概率与普通英雄召唤相同。\n★<color=#DC143C>精选福利</color>：你从本次活动中首次抽取到的SSR英雄，必定是活动精选列表中你尚未拥有的SSR英雄（若你已经集齐该活动精选列表中所有英雄，则可能获得其他SSR英雄或者重复的精选SSR英雄）。\n\n<color=#008B00>◆限定英雄◆</color>\n★本次活动中概率UP的英雄是：\n<color=#DC143C>SSR 迪哈尔特</color>、<color=#DC143C>SSR 蒂亚莉丝</color>、<color=#DC143C>SSR 露娜</color>。\n\n<color=#008B00>◆「召唤10次」特殊说明◆</color>\n★<color=#DC143C>限时召唤</color>中「召唤10次」，至少获得<color=#DC143C>1</color>位SR英雄。"
	},
	{
		"ID": 18,
		"Name": "魔法的风暴",
		"PoolType": "CardPoolType_ActivityCardPool",
		"SelectType": "CardSelectType_BothSelect",
		"CrystalCost": 88,
		"TenSelectDiscount": 880,
		"TenSelectCount": 100,
		"TicketId": 4001,
		"CardPoolSelectMaxCount": 0,
		"SortID": 5,
		"Icon": "UI/Common_New_ABS/Icon/Item_CardTicket_Gold.png",
		"ClockResPath": "UI/SelectCard_ABS/Prefab/Clock.prefab",
		"AdsImage": "UI/SelectCard_ABS/Banner/Banner_020.png",
		"SelectProbabilityInfoID": 5,
		"SelectContentInfoID": 5,
		"ToggleClickImage": "UI/Icon/SelectCardHero_ABS/Icon_020.png",
		"ToggleUnClickImage": "UI/Icon/SelectCardHero_ABS/Icon_020.png",
		"MissionCardPoolType": "MissionCardPoolType_Hero",
		"CardPoolDetailDesc": "<color=#008B00>◆魔法的风暴-限时召唤◆</color>\n★<color=#DC143C>活动召唤</color>中获得SSR时，其中指定英雄的获得概率大幅度UP！\n★SSR总获取概率与普通英雄召唤相同。\n★<color=#DC143C>精选福利</color>：你从本次活动中首次抽取到的SSR英雄，必定是活动精选列表中你尚未拥有的SSR英雄（若你已经集齐该活动精选列表中所有英雄，则可能获得其他SSR英雄或者重复的精选SSR英雄）。\n\n<color=#008B00>◆限定英雄◆</color>\n★本次活动中概率UP的英雄是：\n<color=#DC143C>SSR 雪露法妮尔</color>、<color=#DC143C>SSR 波赞鲁</color>、<color=#DC143C>SSR 拉娜</color>。\n\n<color=#008B00>◆「召唤10次」特殊说明◆</color>\n★<color=#DC143C>限时召唤</color>中「召唤10次」，至少获得<color=#DC143C>1</color>位SR英雄。"
	},
	{
		"ID": 19,
		"Name": "传说的彼端",
		"PoolType": "CardPoolType_ActivityCardPool",
		"SelectType": "CardSelectType_BothSelect",
		"CrystalCost": 88,
		"TenSelectDiscount": 880,
		"TenSelectCount": 100,
		"TicketId": 4001,
		"CardPoolSelectMaxCount": 0,
		"SortID": 5,
		"Icon": "UI/Common_New_ABS/Icon/Item_CardTicket_Gold.png",
		"ClockResPath": "UI/SelectCard_ABS/Prefab/Clock.prefab",
		"AdsImage": "UI/SelectCard_ABS/Banner/Banner_021.png",
		"SelectProbabilityInfoID": 5,
		"SelectContentInfoID": 5,
		"ToggleClickImage": "UI/Icon/SelectCardHero_ABS/Icon_021.png",
		"ToggleUnClickImage": "UI/Icon/SelectCardHero_ABS/Icon_021.png",
		"MissionCardPoolType": "MissionCardPoolType_Hero",
		"CardPoolDetailDesc": "<color=#008B00>◆传说的彼端-限时召唤◆</color>\n★<color=#DC143C>活动召唤</color>中获得SSR时，其中指定英雄的获得概率大幅度UP！\n★SSR总获取概率与普通英雄召唤相同。\n\n<color=#008B00>◆限定英雄◆</color>\n★本次活动中概率UP的英雄是：\n<color=#DC143C>SSR 兰迪乌斯</color>、<color=#DC143C>SSR 蕾伽尔</color>。\n\n<color=#008B00>◆「召唤10次」特殊说明◆</color>\n★<color=#DC143C>限时召唤</color>中「召唤10次」，至少获得<color=#DC143C>1</color>位SR英雄。"
	},
	{
		"ID": 20,
		"Name": "斩断宿命之力",
		"PoolType": "CardPoolType_ActivityCardPool",
		"SelectType": "CardSelectType_BothSelect",
		"CrystalCost": 88,
		"TenSelectDiscount": 880,
		"TenSelectCount": 100,
		"TicketId": 4001,
		"CardPoolSelectMaxCount": 0,
		"SortID": 5,
		"Icon": "UI/Common_New_ABS/Icon/Item_CardTicket_Gold.png",
		"ClockResPath": "UI/SelectCard_ABS/Prefab/Clock.prefab",
		"AdsImage": "UI/SelectCard_ABS/Banner/Banner_022.png",
		"SelectProbabilityInfoID": 5,
		"SelectContentInfoID": 5,
		"ToggleClickImage": "UI/Icon/SelectCardHero_ABS/Icon_022.png",
		"ToggleUnClickImage": "UI/Icon/SelectCardHero_ABS/Icon_022.png",
		"MissionCardPoolType": "MissionCardPoolType_Hero",
		"CardPoolDetailDesc": "<color=#008B00>◆斩断宿命之力-限时召唤◆</color>\n★<color=#DC143C>活动召唤</color>中获得SSR时，其中指定英雄的获得概率大幅度UP！\n★SSR总获取概率与普通英雄召唤相同。\n\n<color=#008B00>◆限定英雄◆</color>\n★本次活动中概率UP的英雄是：\n<color=#DC143C>SSR 利昂</color>、<color=#DC143C>SSR 亚鲁特缪拉</color>。\n\n<color=#008B00>◆「召唤10次」特殊说明◆</color>\n★<color=#DC143C>限时召唤</color>中「召唤10次」，至少获得<color=#DC143C>1</color>位SR英雄。"
	},
	{
		"ID": 21,
		"Name": "辉光的血脉",
		"PoolType": "CardPoolType_ActivityCardPool",
		"SelectType": "CardSelectType_BothSelect",
		"CrystalCost": 88,
		"TenSelectDiscount": 880,
		"TenSelectCount": 100,
		"TicketId": 4001,
		"CardPoolSelectMaxCount": 0,
		"SortID": 5,
		"Icon": "UI/Common_New_ABS/Icon/Item_CardTicket_Gold.png",
		"ClockResPath": "UI/SelectCard_ABS/Prefab/Clock.prefab",
		"AdsImage": "UI/SelectCard_ABS/Banner/Banner_023.png",
		"SelectProbabilityInfoID": 5,
		"SelectContentInfoID": 5,
		"ToggleClickImage": "UI/Icon/SelectCardHero_ABS/Icon_023.png",
		"ToggleUnClickImage": "UI/Icon/SelectCardHero_ABS/Icon_023.png",
		"MissionCardPoolType": "MissionCardPoolType_Hero",
		"CardPoolDetailDesc": "<color=#008B00>◆辉光的血脉-限时召唤◆</color>\n★<color=#DC143C>活动召唤</color>中获得SSR时，其中指定英雄的获得概率大幅度UP！\n★SSR总获取概率与普通英雄召唤相同。\n\n<color=#008B00>◆限定英雄◆</color>\n★本次活动中概率UP的英雄是：\n<color=#DC143C>SSR 艾尔文</color>、<color=#DC143C>SSR 雷丁</color>。\n\n<color=#008B00>◆「召唤10次」特殊说明◆</color>\n★<color=#DC143C>限时召唤</color>中「召唤10次」，至少获得<color=#DC143C>1</color>位SR英雄。"
	},
	{
		"ID": 22,
		"Name": "礼物姬精选",
		"PoolType": "CardPoolType_ActivityCardPool",
		"SelectType": "CardSelectType_BothSelect",
		"CrystalCost": 88,
		"TenSelectDiscount": 880,
		"TenSelectCount": 100,
		"TicketId": 4001,
		"CardPoolSelectMaxCount": 0,
		"SortID": 5,
		"Icon": "UI/Common_New_ABS/Icon/Item_CardTicket_Gold.png",
		"ClockResPath": "UI/SelectCard_ABS/Prefab/Clock.prefab",
		"AdsImage": "UI/SelectCard_ABS/Banner/Banner_024.png",
		"SelectProbabilityInfoID": 5,
		"SelectContentInfoID": 5,
		"ToggleClickImage": "UI/Icon/SelectCardHero_ABS/Icon_024.png",
		"ToggleUnClickImage": "UI/Icon/SelectCardHero_ABS/Icon_024.png",
		"MissionCardPoolType": "MissionCardPoolType_Hero",
		"CardPoolDetailDesc": "<color=#008B00>◆礼物姬精选-限时召唤◆</color>\n★<color=#DC143C>活动召唤</color>中获得SSR时，其中指定英雄的获得概率大幅度UP！\n★SSR总获取概率与普通英雄召唤相同。\n★<color=#DC143C>精选福利</color>：你从本次活动中首次抽取到的SSR英雄，必定是活动精选列表中你尚未拥有的SSR英雄（若你已经集齐该活动精选列表中所有英雄，则可能获得其他SSR英雄或者重复的精选SSR英雄）。\n\n<color=#008B00>◆限定英雄◆</color>\n★本次活动中概率UP的英雄是：\n<color=#DC143C>SSR 雪莉</color>、<color=#DC143C>SSR 雪露法妮尔</color>、<color=#DC143C>SSR 安洁丽娜</color>。\n\n<color=#008B00>◆「召唤10次」特殊说明◆</color>\n★<color=#DC143C>限时召唤</color>中「召唤10次」，至少获得<color=#DC143C>1</color>位SR英雄。"
	},
	{
		"ID": 23,
		"Name": "圣夜武具屋",
		"PoolType": "CardPoolType_ActivityCardPool",
		"SelectType": "CardSelectType_BothSelect",
		"CrystalCost": 88,
		"TenSelectDiscount": 880,
		"TenSelectCount": 100,
		"TicketId": 4001,
		"CardPoolSelectMaxCount": 0,
		"SortID": 5,
		"Icon": "UI/Common_New_ABS/Icon/Item_CardTicket_Gold.png",
		"ClockResPath": "UI/SelectCard_ABS/Prefab/Clock.prefab",
		"AdsImage": "UI/SelectCard_ABS/Banner/Banner_025.png",
		"SelectProbabilityInfoID": 3,
		"SelectContentInfoID": 3,
		"ToggleClickImage": "UI/Icon/SelectCardHero_ABS/Icon_025.png",
		"ToggleUnClickImage": "UI/Icon/SelectCardHero_ABS/Icon_025.png",
		"MissionCardPoolType": "MissionCardPoolType_Equipment",
		"CardPoolDetailDesc": "<color=#008B00>◆圣夜武具屋-限时装备召唤◆</color>\n★<color=#DC143C>活动召唤</color>中获得SSR装备时，其中指定装备的获得概率大幅度UP！\n★SSR总获取概率与普通装备召唤相同。\n\n<color=#008B00>◆限定装备◆</color>\n★本次活动中概率UP的装备是：\n<color=#DC143C>SSR 驯鹿礼帽</color>、<color=#DC143C>SSR 红色小棉袜</color>、<color=#DC143C>SSR 冰锋战甲</color>、<color=#DC143C>SSR 风暴卡路里</color>。\n★活动结束后，限定装备也可以通过普通卡池或游戏的其他常规玩法获得！\n\n<color=#008B00>◆「召唤10次」特殊说明◆</color>\n★<color=#DC143C>装备召唤</color>中「召唤10次」，至少获得<color=#DC143C>2</color>个SR装备。"
	},
	{
		"ID": 24,
		"Name": "游击士参上",
		"PoolType": "CardPoolType_ActivityCardPool",
		"SelectType": "CardSelectType_BothSelect",
		"CrystalCost": 88,
		"TenSelectDiscount": 880,
		"TenSelectCount": 100,
		"TicketId": 4001,
		"CardPoolSelectMaxCount": 0,
		"SortID": 5,
		"Icon": "UI/Common_New_ABS/Icon/Item_CardTicket_Gold.png",
		"ClockResPath": "UI/SelectCard_ABS/Prefab/Clock2.prefab",
		"AdsImage": "UI/SelectCard1_ABS/Banner_0501.png",
		"SelectProbabilityInfoID": 5,
		"SelectContentInfoID": 5,
		"ToggleClickImage": "UI/Icon/SelectCardHero_ABS/Icon_0501.png",
		"ToggleUnClickImage": "UI/Icon/SelectCardHero_ABS/Icon_0501.png",
		"MissionCardPoolType": "MissionCardPoolType_Hero",
		"CardPoolDetailDesc": "<color=#008B00>◆游击士参上-限时召唤◆</color>\n★<color=#DC143C>活动召唤</color>中获得SSR时，其中指定英雄的获得概率大幅度UP！\n★SSR总获取概率与普通英雄召唤相同。\n\n<color=#008B00>◆限定英雄◆</color>\n★本次活动中概率UP的英雄是：\n<color=#DC143C>SSR 艾丝蒂尔</color>、<color=#DC143C>SSR 约修亚</color>。\n★联动卡池中出现的英雄，不会进入其他卡池。\n\n<color=#008B00>◆「召唤10次」特殊说明◆</color>\n★<color=#DC143C>限时召唤</color>中「召唤10次」，至少获得<color=#DC143C>1</color>位SR英雄。"
	},
	{
		"ID": 25,
		"Name": "流星直击精选",
		"PoolType": "CardPoolType_ActivityCardPool",
		"SelectType": "CardSelectType_BothSelect",
		"CrystalCost": 88,
		"TenSelectDiscount": 880,
		"TenSelectCount": 100,
		"TicketId": 4001,
		"CardPoolSelectMaxCount": 0,
		"SortID": 5,
		"Icon": "UI/Common_New_ABS/Icon/Item_CardTicket_Gold.png",
		"ClockResPath": "UI/SelectCard_ABS/Prefab/Clock.prefab",
		"AdsImage": "UI/SelectCard1_ABS/Banner_0502.png",
		"SelectProbabilityInfoID": 5,
		"SelectContentInfoID": 5,
		"ToggleClickImage": "UI/Icon/SelectCardHero_ABS/Icon_0502.png",
		"ToggleUnClickImage": "UI/Icon/SelectCardHero_ABS/Icon_0502.png",
		"MissionCardPoolType": "MissionCardPoolType_Hero",
		"CardPoolDetailDesc": "<color=#008B00>◆流星直击精选-限时召唤◆</color>\n★<color=#DC143C>活动召唤</color>中获得SSR时，其中指定英雄的获得概率大幅度UP！\n★SSR总获取概率与普通英雄召唤相同。\n★<color=#DC143C>精选福利</color>：你从本次活动中首次抽取到的SSR英雄，必定是活动精选列表中你尚未拥有的SSR英雄（若你已经集齐该活动精选列表中所有英雄，则可能获得其他SSR英雄或者重复的精选SSR英雄）。\n\n<color=#008B00>◆限定英雄◆</color>\n★本次活动中概率UP的英雄是：\n<color=#DC143C>SSR 泽瑞达</color>、<color=#DC143C>SSR 古巨拉</color>、<color=#DC143C>SSR 迪哈尔特</color>。\n\n<color=#008B00>◆「召唤10次」特殊说明◆</color>\n★<color=#DC143C>限时召唤</color>中「召唤10次」，至少获得<color=#DC143C>1</color>位SR英雄。"
	},
	{
		"ID": 26,
		"Name": "甜心午后派对",
		"PoolType": "CardPoolType_ActivityCardPool",
		"SelectType": "CardSelectType_BothSelect",
		"CrystalCost": 88,
		"TenSelectDiscount": 880,
		"TenSelectCount": 100,
		"TicketId": 4001,
		"CardPoolSelectMaxCount": 0,
		"SortID": 5,
		"Icon": "UI/Common_New_ABS/Icon/Item_CardTicket_Gold.png",
		"ClockResPath": "UI/SelectCard_ABS/Prefab/Clock.prefab",
		"AdsImage": "UI/SelectCard1_ABS/Banner_0503.png",
		"SelectProbabilityInfoID": 5,
		"SelectContentInfoID": 5,
		"ToggleClickImage": "UI/Icon/SelectCardHero_ABS/Icon_0503.png",
		"ToggleUnClickImage": "UI/Icon/SelectCardHero_ABS/Icon_0503.png",
		"MissionCardPoolType": "MissionCardPoolType_Hero",
		"CardPoolDetailDesc": "<color=#008B00>◆甜心午后派对-限时召唤◆</color>\n★<color=#DC143C>活动召唤</color>中获得SSR时，其中指定英雄的获得概率大幅度UP！\n★SSR总获取概率与普通英雄召唤相同。\n★<color=#DC143C>精选福利</color>：你从本次活动中首次抽取到的SSR英雄，必定是活动精选列表中你尚未拥有的SSR英雄（若你已经集齐该活动精选列表中所有英雄，则可能获得其他SSR英雄或者重复的精选SSR英雄）。\n\n<color=#008B00>◆限定英雄◆</color>\n★本次活动中概率UP的英雄是：\n<color=#DC143C>SSR 蕾伽尔</color>、<color=#DC143C>SSR 蒂亚莉丝</color>、<color=#DC143C>SSR 莉亚娜</color>。\n\n<color=#008B00>◆「召唤10次」特殊说明◆</color>\n★<color=#DC143C>限时召唤</color>中「召唤10次」，至少获得<color=#DC143C>1</color>位SR英雄。"
	},
	{
		"ID": 27,
		"Name": "游击士武装",
		"PoolType": "CardPoolType_ActivityCardPool",
		"SelectType": "CardSelectType_BothSelect",
		"CrystalCost": 88,
		"TenSelectDiscount": 880,
		"TenSelectCount": 100,
		"TicketId": 4001,
		"CardPoolSelectMaxCount": 0,
		"SortID": 5,
		"Icon": "UI/Common_New_ABS/Icon/Item_CardTicket_Gold.png",
		"ClockResPath": "UI/SelectCard_ABS/Prefab/Clock2.prefab",
		"AdsImage": "UI/SelectCard1_ABS/Banner_0504.png",
		"SelectProbabilityInfoID": 3,
		"SelectContentInfoID": 3,
		"ToggleClickImage": "UI/Icon/SelectCardHero_ABS/Icon_0504.png",
		"ToggleUnClickImage": "UI/Icon/SelectCardHero_ABS/Icon_0504.png",
		"MissionCardPoolType": "MissionCardPoolType_Equipment",
		"CardPoolDetailDesc": "<color=#008B00>◆游击士武装-限时装备召唤◆</color>\n★<color=#DC143C>活动召唤</color>中获得SSR装备时，其中指定装备的获得概率大幅度UP！\n★SSR总获取概率与普通装备召唤相同。\n\n<color=#008B00>◆限定装备◆</color>\n★本次活动中概率UP的装备是：\n<color=#DC143C>SSR 噬岩者</color>、<color=#DC143C>SSR 魔导杖</color>、<color=#DC143C>SSR 家用晾衣杆</color>、<color=#DC143C>SSR 游击士勋章</color>。\n★联动限定装备将在活动结束后暂时无法获取，随后将会推出相同效果但是外观不同的装备在常规玩法中产出。\n\n<color=#008B00>◆「召唤10次」特殊说明◆</color>\n★<color=#DC143C>装备召唤</color>中「召唤10次」，至少获得<color=#DC143C>2</color>个SR装备。"
	},
	{
		"ID": 28,
		"Name": "执行者降临",
		"PoolType": "CardPoolType_ActivityCardPool",
		"SelectType": "CardSelectType_BothSelect",
		"CrystalCost": 88,
		"TenSelectDiscount": 880,
		"TenSelectCount": 100,
		"TicketId": 4001,
		"CardPoolSelectMaxCount": 0,
		"SortID": 5,
		"Icon": "UI/Common_New_ABS/Icon/Item_CardTicket_Gold.png",
		"ClockResPath": "UI/SelectCard_ABS/Prefab/Clock2.prefab",
		"AdsImage": "UI/SelectCard1_ABS/Banner_0601.png",
		"SelectProbabilityInfoID": 5,
		"SelectContentInfoID": 5,
		"ToggleClickImage": "UI/Icon/SelectCardHero_ABS/Icon_0601.png",
		"ToggleUnClickImage": "UI/Icon/SelectCardHero_ABS/Icon_0601.png",
		"MissionCardPoolType": "MissionCardPoolType_Hero",
		"CardPoolDetailDesc": "<color=#008B00>◆执行者降临-限时召唤◆</color>\n★<color=#DC143C>活动召唤</color>中获得SSR时，其中指定英雄的获得概率大幅度UP！\n★SSR总获取概率与普通英雄召唤相同。\n\n<color=#008B00>◆限定英雄◆</color>\n★本次活动中概率UP的英雄是：\n<color=#DC143C>SSR 莱恩哈特</color>、<color=#DC143C>SSR 玲</color>。\n★联动卡池中出现的英雄，不会进入其他卡池。\n\n<color=#008B00>◆「召唤10次」特殊说明◆</color>\n★<color=#DC143C>限时召唤</color>中「召唤10次」，至少获得<color=#DC143C>1</color>位SR英雄。"
	},
	{
		"ID": 29,
		"Name": "辉光之恋曲",
		"PoolType": "CardPoolType_ActivityCardPool",
		"SelectType": "CardSelectType_BothSelect",
		"CrystalCost": 88,
		"TenSelectDiscount": 880,
		"TenSelectCount": 100,
		"TicketId": 4001,
		"CardPoolSelectMaxCount": 0,
		"SortID": 5,
		"Icon": "UI/Common_New_ABS/Icon/Item_CardTicket_Gold.png",
		"ClockResPath": "UI/SelectCard_ABS/Prefab/Clock.prefab",
		"AdsImage": "UI/SelectCard1_ABS/Banner_0602.png",
		"SelectProbabilityInfoID": 5,
		"SelectContentInfoID": 5,
		"ToggleClickImage": "UI/Icon/SelectCardHero_ABS/Icon_0602.png",
		"ToggleUnClickImage": "UI/Icon/SelectCardHero_ABS/Icon_0602.png",
		"MissionCardPoolType": "MissionCardPoolType_Hero",
		"CardPoolDetailDesc": "<color=#008B00>◆辉光之恋曲-限时召唤◆</color>\n★<color=#DC143C>活动召唤</color>中获得SSR时，其中指定英雄的获得概率大幅度UP！\n★SSR总获取概率与普通英雄召唤相同。\n★在本卡池中抽取到SSR英雄时，将同时获得在<color=#DC143C>「相通的心灵」</color>活动中可以使用的<color=#DC143C>「CP点」</color>。\n\n<color=#008B00>◆限定英雄◆</color>\n★本次活动中概率UP的英雄是：\n<color=#DC143C>SSR 艾尔文</color>、<color=#DC143C>SSR 莉亚娜</color>。\n\n<color=#008B00>◆「召唤10次」特殊说明◆</color>\n★<color=#DC143C>限时召唤</color>中「召唤10次」，至少获得<color=#DC143C>1</color>位SR英雄。"
	},
	{
		"ID": 30,
		"Name": "相依的孤影",
		"PoolType": "CardPoolType_ActivityCardPool",
		"SelectType": "CardSelectType_BothSelect",
		"CrystalCost": 88,
		"TenSelectDiscount": 880,
		"TenSelectCount": 100,
		"TicketId": 4001,
		"CardPoolSelectMaxCount": 0,
		"SortID": 5,
		"Icon": "UI/Common_New_ABS/Icon/Item_CardTicket_Gold.png",
		"ClockResPath": "UI/SelectCard_ABS/Prefab/Clock.prefab",
		"AdsImage": "UI/SelectCard1_ABS/Banner_0603.png",
		"SelectProbabilityInfoID": 5,
		"SelectContentInfoID": 5,
		"ToggleClickImage": "UI/Icon/SelectCardHero_ABS/Icon_0603.png",
		"ToggleUnClickImage": "UI/Icon/SelectCardHero_ABS/Icon_0603.png",
		"MissionCardPoolType": "MissionCardPoolType_Hero",
		"CardPoolDetailDesc": "<color=#008B00>◆相依的孤影-限时召唤◆</color>\n★<color=#DC143C>活动召唤</color>中获得SSR时，其中指定英雄的获得概率大幅度UP！\n★SSR总获取概率与普通英雄召唤相同。\n★在本卡池中抽取到SSR英雄时，将同时获得在<color=#DC143C>「相通的心灵」</color>活动中可以使用的<color=#DC143C>「CP点」</color>。\n\n<color=#008B00>◆限定英雄◆</color>\n★本次活动中概率UP的英雄是：\n<color=#DC143C>SSR 拉娜</color>、<color=#DC143C>SSR 利昂</color>。\n\n<color=#008B00>◆「召唤10次」特殊说明◆</color>\n★<color=#DC143C>限时召唤</color>中「召唤10次」，至少获得<color=#DC143C>1</color>位SR英雄。"
	},
	{
		"ID": 31,
		"Name": "禁断的邂逅",
		"PoolType": "CardPoolType_ActivityCardPool",
		"SelectType": "CardSelectType_BothSelect",
		"CrystalCost": 88,
		"TenSelectDiscount": 880,
		"TenSelectCount": 100,
		"TicketId": 4001,
		"CardPoolSelectMaxCount": 0,
		"SortID": 5,
		"Icon": "UI/Common_New_ABS/Icon/Item_CardTicket_Gold.png",
		"ClockResPath": "UI/SelectCard_ABS/Prefab/Clock.prefab",
		"AdsImage": "UI/SelectCard1_ABS/Banner_0604.png",
		"SelectProbabilityInfoID": 5,
		"SelectContentInfoID": 5,
		"ToggleClickImage": "UI/Icon/SelectCardHero_ABS/Icon_0604.png",
		"ToggleUnClickImage": "UI/Icon/SelectCardHero_ABS/Icon_0604.png",
		"MissionCardPoolType": "MissionCardPoolType_Hero",
		"CardPoolDetailDesc": "<color=#008B00>◆禁断的邂逅-限时召唤◆</color>\n★<color=#DC143C>活动召唤</color>中获得SSR时，其中指定英雄的获得概率大幅度UP！\n★SSR总获取概率与普通英雄召唤相同。\n★在本卡池中抽取到SSR英雄时，将同时获得在<color=#DC143C>「相通的心灵」</color>活动中可以使用的<color=#DC143C>「CP点」</color>。\n\n<color=#008B00>◆限定英雄◆</color>\n★本次活动中概率UP的英雄是：\n<color=#DC143C>SSR 兰迪乌斯</color>、<color=#DC143C>SSR 妮丝蒂尔</color>。\n\n<color=#008B00>◆「召唤10次」特殊说明◆</color>\n★<color=#DC143C>限时召唤</color>中「召唤10次」，至少获得<color=#DC143C>1</color>位SR英雄。"
	},
	{
		"ID": 32,
		"Name": "传说的超新生",
		"PoolType": "CardPoolType_ActivityCardPool",
		"SelectType": "CardSelectType_BothSelect",
		"CrystalCost": 88,
		"TenSelectDiscount": 880,
		"TenSelectCount": 100,
		"TicketId": 4001,
		"CardPoolSelectMaxCount": 0,
		"SortID": 5,
		"Icon": "UI/Common_New_ABS/Icon/Item_CardTicket_Gold.png",
		"ClockResPath": "UI/SelectCard_ABS/Prefab/Clock.prefab",
		"AdsImage": "UI/SelectCard1_ABS/Banner_0701.png",
		"SelectProbabilityInfoID": 5,
		"SelectContentInfoID": 5,
		"ToggleClickImage": "UI/Icon/SelectCardHero_ABS/Icon_0701.png",
		"ToggleUnClickImage": "UI/Icon/SelectCardHero_ABS/Icon_0701.png",
		"MissionCardPoolType": "MissionCardPoolType_Hero",
		"CardPoolDetailDesc": "<color=#008B00>◆传说的超新生-限时召唤◆</color>\n★<color=#DC143C>活动召唤</color>中获得SSR时，其中指定英雄的获得概率大幅度UP！\n★SSR总获取概率与普通英雄召唤相同。\n\n<color=#008B00>◆限定英雄◆</color>\n★本次活动中概率UP的英雄是：\n<color=#DC143C>SSR 西格玛</color>、<color=#DC143C>SSR拉姆达</color>。\n\n<color=#008B00>◆「召唤10次」特殊说明◆</color>\n★<color=#DC143C>限时召唤</color>中「召唤10次」，至少获得<color=#DC143C>1</color>位SR英雄。"
	},
	{
		"ID": 33,
		"Name": "智慧的闪光",
		"PoolType": "CardPoolType_ActivityCardPool",
		"SelectType": "CardSelectType_BothSelect",
		"CrystalCost": 88,
		"TenSelectDiscount": 880,
		"TenSelectCount": 100,
		"TicketId": 4001,
		"CardPoolSelectMaxCount": 0,
		"SortID": 5,
		"Icon": "UI/Common_New_ABS/Icon/Item_CardTicket_Gold.png",
		"ClockResPath": "UI/SelectCard_ABS/Prefab/Clock.prefab",
		"AdsImage": "UI/SelectCard1_ABS/Banner_0702.png",
		"SelectProbabilityInfoID": 5,
		"SelectContentInfoID": 5,
		"ToggleClickImage": "UI/Icon/SelectCardHero_ABS/Icon_0702.png",
		"ToggleUnClickImage": "UI/Icon/SelectCardHero_ABS/Icon_0702.png",
		"MissionCardPoolType": "MissionCardPoolType_Hero",
		"CardPoolDetailDesc": "<color=#008B00>◆智慧的闪光-限时召唤◆</color>\n★<color=#DC143C>活动召唤</color>中获得SSR时，其中指定英雄的获得概率大幅度UP！\n★SSR总获取概率与普通英雄召唤相同。\n★<color=#DC143C>精选福利</color>：你从本次活动中首次抽取到的SSR英雄，必定是活动精选列表中你尚未拥有的SSR英雄（若你已经集齐该活动精选列表中所有英雄，则可能获得其他SSR英雄或者重复的精选SSR英雄）。\n\n<color=#008B00>◆限定英雄◆</color>\n★本次活动中概率UP的英雄是：\n<color=#DC143C>SSR 露娜</color>、<color=#DC143C>SSR 兰芳特</color>、<color=#DC143C>SSR 亚鲁特繆拉</color>。\n\n<color=#008B00>◆「召唤10次」特殊说明◆</color>\n★<color=#DC143C>限时召唤</color>中「召唤10次」，至少获得<color=#DC143C>1</color>位SR英雄。"
	},
	{
		"ID": 34,
		"Name": "极略之魔术",
		"PoolType": "CardPoolType_ActivityCardPool",
		"SelectType": "CardSelectType_BothSelect",
		"CrystalCost": 88,
		"TenSelectDiscount": 880,
		"TenSelectCount": 100,
		"TicketId": 4001,
		"CardPoolSelectMaxCount": 0,
		"SortID": 5,
		"Icon": "UI/Common_New_ABS/Icon/Item_CardTicket_Gold.png",
		"ClockResPath": "UI/SelectCard_ABS/Prefab/Clock.prefab",
		"AdsImage": "UI/SelectCard1_ABS/Banner_0801.png",
		"SelectProbabilityInfoID": 5,
		"SelectContentInfoID": 5,
		"ToggleClickImage": "UI/Icon/SelectCardHero_ABS/Icon_0801.png",
		"ToggleUnClickImage": "UI/Icon/SelectCardHero_ABS/Icon_0801.png",
		"MissionCardPoolType": "MissionCardPoolType_Hero",
		"CardPoolDetailDesc": "<color=#008B00>◆极略之魔术-限时召唤◆</color>\n★<color=#DC143C>活动召唤</color>中获得SSR时，其中指定英雄的获得概率大幅度UP！\n★SSR总获取概率与普通英雄召唤相同。\n\n<color=#008B00>◆限定英雄◆</color>\n★本次活动中概率UP的英雄是：\n<color=#DC143C>SSR 威拉</color>、<color=#DC143C>SSR 基扎洛夫</color>。\n\n<color=#008B00>◆「召唤10次」特殊说明◆</color>\n★<color=#DC143C>限时召唤</color>中「召唤10次」，至少获得<color=#DC143C>1</color>位SR英雄。"
	},
	{
		"ID": 35,
		"Name": "主角光环精选",
		"PoolType": "CardPoolType_ActivityCardPool",
		"SelectType": "CardSelectType_BothSelect",
		"CrystalCost": 88,
		"TenSelectDiscount": 880,
		"TenSelectCount": 100,
		"TicketId": 4001,
		"CardPoolSelectMaxCount": 0,
		"SortID": 5,
		"Icon": "UI/Common_New_ABS/Icon/Item_CardTicket_Gold.png",
		"ClockResPath": "UI/SelectCard_ABS/Prefab/Clock.prefab",
		"AdsImage": "UI/SelectCard1_ABS/Banner_0802.png",
		"SelectProbabilityInfoID": 5,
		"SelectContentInfoID": 5,
		"ToggleClickImage": "UI/Icon/SelectCardHero_ABS/Icon_0802.png",
		"ToggleUnClickImage": "UI/Icon/SelectCardHero_ABS/Icon_0802.png",
		"MissionCardPoolType": "MissionCardPoolType_Hero",
		"CardPoolDetailDesc": "<color=#008B00>◆主角光环精选-限时召唤◆</color>\n★<color=#DC143C>活动召唤</color>中获得SSR时，其中指定英雄的获得概率大幅度UP！\n★SSR总获取概率与普通英雄召唤相同。\n★<color=#DC143C>精选福利</color>：你从本次活动中首次抽取到的SSR英雄，必定是活动精选列表中你尚未拥有的SSR英雄（若你已经集齐该活动精选列表中所有英雄，则可能获得其他SSR英雄或者重复的精选SSR英雄）。\n\n<color=#008B00>◆限定英雄◆</color>\n★本次活动中概率UP的英雄是：\n<color=#DC143C>SSR 雷丁</color>、<color=#DC143C>SSR 艾尔文</color>、<color=#DC143C>SSR 兰迪乌斯</color>。\n\n<color=#008B00>◆「召唤10次」特殊说明◆</color>\n★<color=#DC143C>限时召唤</color>中「召唤10次」，至少获得<color=#DC143C>1</color>位SR英雄。"
	},
	{
		"ID": 36,
		"Name": "甜心午后派对",
		"PoolType": "CardPoolType_ActivityCardPool",
		"SelectType": "CardSelectType_BothSelect",
		"CrystalCost": 88,
		"TenSelectDiscount": 880,
		"TenSelectCount": 100,
		"TicketId": 4001,
		"CardPoolSelectMaxCount": 0,
		"SortID": 5,
		"Icon": "UI/Common_New_ABS/Icon/Item_CardTicket_Gold.png",
		"ClockResPath": "UI/SelectCard_ABS/Prefab/Clock.prefab",
		"AdsImage": "UI/SelectCard1_ABS/Banner_0803.png",
		"SelectProbabilityInfoID": 5,
		"SelectContentInfoID": 5,
		"ToggleClickImage": "UI/Icon/SelectCardHero_ABS/Icon_0803.png",
		"ToggleUnClickImage": "UI/Icon/SelectCardHero_ABS/Icon_0803.png",
		"MissionCardPoolType": "MissionCardPoolType_Hero",
		"CardPoolDetailDesc": "<color=#008B00>◆甜心午后派对-限时召唤◆</color>\n★<color=#DC143C>活动召唤</color>中获得SSR时，其中指定英雄的获得概率大幅度UP！\n★SSR总获取概率与普通英雄召唤相同。\n★<color=#DC143C>精选福利</color>：你从本次活动中首次抽取到的SSR英雄，必定是活动精选列表中你尚未拥有的SSR英雄（若你已经集齐该活动精选列表中所有英雄，则可能获得其他SSR英雄或者重复的精选SSR英雄）。\n\n<color=#008B00>◆限定英雄◆</color>\n★本次活动中概率UP的英雄是：\n<color=#DC143C>SSR 蕾伽尔</color>、<color=#DC143C>SSR 莉亚娜</color>、<color=#DC143C>SSR 拉姆达</color>。\n\n<color=#008B00>◆「召唤10次」特殊说明◆</color>\n★<color=#DC143C>限时召唤</color>中「召唤10次」，至少获得<color=#DC143C>1</color>位SR英雄。"
	},
	{
		"ID": 37,
		"Name": "檄!帝国华击团",
		"PoolType": "CardPoolType_ActivityCardPool",
		"SelectType": "CardSelectType_BothSelect",
		"CrystalCost": 88,
		"TenSelectDiscount": 880,
		"TenSelectCount": 100,
		"TicketId": 4001,
		"CardPoolSelectMaxCount": 0,
		"SortID": 5,
		"Icon": "UI/Common_New_ABS/Icon/Item_CardTicket_Gold.png",
		"ClockResPath": "UI/SelectCard_ABS/Prefab/Clock.prefab",
		"AdsImage": "UI/SelectCard1_ABS/Banner_0901.png",
		"SelectProbabilityInfoID": 5,
		"SelectContentInfoID": 5,
		"ToggleClickImage": "UI/Icon/SelectCardHero_ABS/Icon_0901.png",
		"ToggleUnClickImage": "UI/Icon/SelectCardHero_ABS/Icon_0901.png",
		"MissionCardPoolType": "MissionCardPoolType_Hero",
		"CardPoolDetailDesc": "<color=#008B00>◆檄！帝国华击团-限时召唤◆</color>\n★<color=#DC143C>活动召唤</color>中获得SSR时，其中指定英雄的获得概率大幅度UP！\n★SSR总获取概率与普通英雄召唤相同。\n\n<color=#008B00>◆限定英雄◆</color>\n★本次活动中概率UP的英雄是：\n<color=#DC143C>SSR 真宫寺樱</color>、<color=#DC143C>SSR 神崎堇</color>。\n★联动卡池中出现的英雄，不会进入其他卡池。\n\n<color=#008B00>◆「召唤10次」特殊说明◆</color>\n★<color=#DC143C>限时召唤</color>中「召唤10次」，至少获得<color=#DC143C>1</color>位SR英雄。"
	},
	{
		"ID": 38,
		"Name": "帝国之辉精选",
		"PoolType": "CardPoolType_ActivityCardPool",
		"SelectType": "CardSelectType_BothSelect",
		"CrystalCost": 88,
		"TenSelectDiscount": 880,
		"TenSelectCount": 100,
		"TicketId": 4001,
		"CardPoolSelectMaxCount": 0,
		"SortID": 5,
		"Icon": "UI/Common_New_ABS/Icon/Item_CardTicket_Gold.png",
		"ClockResPath": "UI/SelectCard_ABS/Prefab/Clock.prefab",
		"AdsImage": "UI/SelectCard1_ABS/Banner_0902.png",
		"SelectProbabilityInfoID": 5,
		"SelectContentInfoID": 5,
		"ToggleClickImage": "UI/Icon/SelectCardHero_ABS/Icon_0902.png",
		"ToggleUnClickImage": "UI/Icon/SelectCardHero_ABS/Icon_0902.png",
		"MissionCardPoolType": "MissionCardPoolType_Hero",
		"CardPoolDetailDesc": "<color=#008B00>◆帝国之辉精选-限时召唤◆</color>\n★<color=#DC143C>活动召唤</color>中获得SSR时，其中指定英雄的获得概率大幅度UP！\n★SSR总获取概率与普通英雄召唤相同。\n★<color=#DC143C>精选福利</color>：你从本次活动中首次抽取到的SSR英雄，必定是活动精选列表中你尚未拥有的SSR英雄（若你已经集齐该活动精选列表中所有英雄，则可能获得其他SSR英雄或者重复的精选SSR英雄）。\n\n<color=#008B00>◆限定英雄◆</color>\n★本次活动中概率UP的英雄是：\n<color=#DC143C>SSR 巴恩哈特</color>、<color=#DC143C>SSR 艾尔文</color>、<color=#DC143C>SSR 利昂</color>。\n\n<color=#008B00>◆「召唤10次」特殊说明◆</color>\n★<color=#DC143C>限时召唤</color>中「召唤10次」，至少获得<color=#DC143C>1</color>位SR英雄。"
	},
	{
		"ID": 39,
		"Name": "华击团武装",
		"PoolType": "CardPoolType_ActivityCardPool",
		"SelectType": "CardSelectType_BothSelect",
		"CrystalCost": 88,
		"TenSelectDiscount": 880,
		"TenSelectCount": 100,
		"TicketId": 4001,
		"CardPoolSelectMaxCount": 0,
		"SortID": 5,
		"Icon": "UI/Common_New_ABS/Icon/Item_CardTicket_Gold.png",
		"ClockResPath": "UI/SelectCard_ABS/Prefab/Clock.prefab",
		"AdsImage": "UI/SelectCard1_ABS/Banner_0903.png",
		"SelectProbabilityInfoID": 3,
		"SelectContentInfoID": 3,
		"ToggleClickImage": "UI/Icon/SelectCardHero_ABS/Icon_0903.png",
		"ToggleUnClickImage": "UI/Icon/SelectCardHero_ABS/Icon_0903.png",
		"MissionCardPoolType": "MissionCardPoolType_Equipment",
		"CardPoolDetailDesc": "<color=#008B00>◆华击团武装-限时装备召唤◆</color>\n★<color=#DC143C>活动召唤</color>中获得SSR装备时，其中指定装备的获得概率大幅度UP！\n★SSR总获取概率与普通装备召唤相同。\n\n<color=#008B00>◆限定装备◆</color>\n★本次活动中概率UP的装备是：\n<color=#DC143C>SSR 灵剑荒鹰</color>、<color=#DC143C>SSR 华击团制服</color>、<color=#DC143C>SSR 红色缎带</color>、<color=#DC143C>SSR 小熊玩偶</color>。\n★联动限定装备将在活动结束后暂时无法获取，随后将会推出相同效果但是外观不同的装备在常规玩法中产出。\n\n<color=#008B00>◆「召唤10次」特殊说明◆</color>\n★<color=#DC143C>装备召唤</color>中「召唤10次」，至少获得<color=#DC143C>2</color>个SR装备。"
	},
	{
		"ID": 40,
		"Name": "破空的羽箭",
		"PoolType": "CardPoolType_ActivityCardPool",
		"SelectType": "CardSelectType_BothSelect",
		"CrystalCost": 88,
		"TenSelectDiscount": 880,
		"TenSelectCount": 100,
		"TicketId": 4001,
		"CardPoolSelectMaxCount": 0,
		"SortID": 5,
		"Icon": "UI/Common_New_ABS/Icon/Item_CardTicket_Gold.png",
		"ClockResPath": "UI/SelectCard_ABS/Prefab/Clock.prefab",
		"AdsImage": "UI/SelectCard1_ABS/Banner_1001.png",
		"SelectProbabilityInfoID": 5,
		"SelectContentInfoID": 5,
		"ToggleClickImage": "UI/Icon/SelectCardHero_ABS/Icon_1001.png",
		"ToggleUnClickImage": "UI/Icon/SelectCardHero_ABS/Icon_1001.png",
		"MissionCardPoolType": "MissionCardPoolType_Hero",
		"CardPoolDetailDesc": "<color=#008B00>◆破空的羽箭-限时召唤◆</color>\n★<color=#DC143C>活动召唤</color>中获得SSR时，其中指定英雄的获得概率大幅度UP！\n★SSR总获取概率与普通英雄召唤相同。\n\n<color=#008B00>◆限定英雄◆</color>\n★本次活动中概率UP的英雄是：\n<color=#DC143C>SSR 克拉蕾特</color>、<color=#DC143C>SSR 艾拉斯卓</color>。\n\n<color=#008B00>◆「召唤10次」特殊说明◆</color>\n★<color=#DC143C>限时召唤</color>中「召唤10次」，至少获得<color=#DC143C>1</color>位SR英雄。"
	},
	{
		"ID": 41,
		"Name": "卡尔萨斯之翼",
		"PoolType": "CardPoolType_ActivityCardPool",
		"SelectType": "CardSelectType_BothSelect",
		"CrystalCost": 88,
		"TenSelectDiscount": 880,
		"TenSelectCount": 100,
		"TicketId": 4001,
		"CardPoolSelectMaxCount": 0,
		"SortID": 5,
		"Icon": "UI/Common_New_ABS/Icon/Item_CardTicket_Gold.png",
		"ClockResPath": "UI/SelectCard_ABS/Prefab/Clock.prefab",
		"AdsImage": "UI/SelectCard1_ABS/Banner_1002.png",
		"SelectProbabilityInfoID": 5,
		"SelectContentInfoID": 5,
		"ToggleClickImage": "UI/Icon/SelectCardHero_ABS/Icon_1002.png",
		"ToggleUnClickImage": "UI/Icon/SelectCardHero_ABS/Icon_1002.png",
		"MissionCardPoolType": "MissionCardPoolType_Hero",
		"CardPoolDetailDesc": "<color=#008B00>◆卡尔萨斯之翼-限时召唤◆</color>\n★<color=#DC143C>活动召唤</color>中获得SSR时，其中指定英雄的获得概率大幅度UP！\n★SSR总获取概率与普通英雄召唤相同。\n\n<color=#008B00>◆限定英雄◆</color>\n★本次活动中概率UP的英雄是：\n<color=#DC143C>SSR 雪莉</color>、<color=#DC143C>SSR 露娜</color>。\n<color=#DC143C>SR 娜姆</color>获取概率小幅提升（不影响SSR英雄的获取率）。\n\n<color=#008B00>◆「召唤10次」特殊说明◆</color>\n★<color=#DC143C>限时召唤</color>中「召唤10次」，至少获得<color=#DC143C>1</color>位SR英雄。"
	},
	{
		"ID": 42,
		"Name": "传说彼端精选",
		"PoolType": "CardPoolType_ActivityCardPool",
		"SelectType": "CardSelectType_BothSelect",
		"CrystalCost": 88,
		"TenSelectDiscount": 880,
		"TenSelectCount": 100,
		"TicketId": 4001,
		"CardPoolSelectMaxCount": 0,
		"SortID": 5,
		"Icon": "UI/Common_New_ABS/Icon/Item_CardTicket_Gold.png",
		"ClockResPath": "UI/SelectCard_ABS/Prefab/Clock.prefab",
		"AdsImage": "UI/SelectCard1_ABS/Banner_1003.png",
		"SelectProbabilityInfoID": 5,
		"SelectContentInfoID": 5,
		"ToggleClickImage": "UI/Icon/SelectCardHero_ABS/Icon_1003.png",
		"ToggleUnClickImage": "UI/Icon/SelectCardHero_ABS/Icon_1003.png",
		"MissionCardPoolType": "MissionCardPoolType_Hero",
		"CardPoolDetailDesc": "<color=#008B00>◆传说彼端精选-限时召唤◆</color>\n★<color=#DC143C>活动召唤</color>中获得SSR时，其中指定英雄的获得概率大幅度UP！\n★SSR总获取概率与普通英雄召唤相同。\n★<color=#DC143C>精选福利</color>：你从本次活动中首次抽取到的SSR英雄，必定是活动精选列表中你尚未拥有的SSR英雄（若你已经集齐该活动精选列表中所有英雄，则可能获得其他SSR英雄或者重复的精选SSR英雄）。\n\n<color=#008B00>◆限定英雄◆</color>\n★本次活动中概率UP的英雄是：\n<color=#DC143C>SSR 威拉</color>、<color=#DC143C>SSR 妮丝蒂尔</color>、<color=#DC143C>SSR 兰芳特</color>。\n\n<color=#008B00>◆「召唤10次」特殊说明◆</color>\n★<color=#DC143C>限时召唤</color>中「召唤10次」，至少获得<color=#DC143C>1</color>位SR英雄。"
	},
	{
		"ID": 43,
		"Name": "铸剑的创生",
		"PoolType": "CardPoolType_ActivityCardPool",
		"SelectType": "CardSelectType_BothSelect",
		"CrystalCost": 88,
		"TenSelectDiscount": 880,
		"TenSelectCount": 100,
		"TicketId": 4001,
		"CardPoolSelectMaxCount": 0,
		"SortID": 5,
		"Icon": "UI/Common_New_ABS/Icon/Item_CardTicket_Gold.png",
		"ClockResPath": "UI/SelectCard_ABS/Prefab/Clock.prefab",
		"AdsImage": "UI/SelectCard1_ABS/Banner_1101.png",
		"SelectProbabilityInfoID": 5,
		"SelectContentInfoID": 5,
		"ToggleClickImage": "UI/Icon/SelectCardHero_ABS/Icon_1101.png",
		"ToggleUnClickImage": "UI/Icon/SelectCardHero_ABS/Icon_1101.png",
		"MissionCardPoolType": "MissionCardPoolType_Hero",
		"CardPoolDetailDesc": "<color=#008B00>◆铸剑的创生-限时召唤◆</color>\n★<color=#DC143C>活动召唤</color>中获得SSR时，其中指定英雄的获得概率大幅度UP！\n★SSR总获取概率与普通英雄召唤相同。\n\n<color=#008B00>◆限定英雄◆</color>\n★本次活动中概率UP的英雄是：\n<color=#DC143C>SSR 欧米伽</color>、<color=#DC143C>SSR 尤利娅</color>。\n\n<color=#008B00>◆「召唤10次」特殊说明◆</color>\n★<color=#DC143C>限时召唤</color>中「召唤10次」，至少获得<color=#DC143C>1</color>位SR英雄。"
	},
	{
		"ID": 44,
		"Name": "素体改造计划",
		"PoolType": "CardPoolType_ActivityCardPool",
		"SelectType": "CardSelectType_BothSelect",
		"CrystalCost": 88,
		"TenSelectDiscount": 880,
		"TenSelectCount": 100,
		"TicketId": 4001,
		"CardPoolSelectMaxCount": 0,
		"SortID": 5,
		"Icon": "UI/Common_New_ABS/Icon/Item_CardTicket_Gold.png",
		"ClockResPath": "UI/SelectCard_ABS/Prefab/Clock.prefab",
		"AdsImage": "UI/SelectCard1_ABS/Banner_1102.png",
		"SelectProbabilityInfoID": 5,
		"SelectContentInfoID": 5,
		"ToggleClickImage": "UI/Icon/SelectCardHero_ABS/Icon_1102.png",
		"ToggleUnClickImage": "UI/Icon/SelectCardHero_ABS/Icon_1102.png",
		"MissionCardPoolType": "MissionCardPoolType_Hero",
		"CardPoolDetailDesc": "<color=#008B00>◆素体改造计划-限时召唤◆</color>\n★<color=#DC143C>活动召唤</color>中获得SSR时，其中指定英雄的获得概率大幅度UP！\n★SSR总获取概率与普通英雄召唤相同。\n★<color=#DC143C>精选福利</color>：你从本次活动中首次抽取到的SSR英雄，必定是活动精选列表中你尚未拥有的SSR英雄（若你已经集齐该活动精选列表中所有英雄，则可能获得其他SSR英雄或者重复的精选SSR英雄）。\n\n<color=#008B00>◆限定英雄◆</color>\n★本次活动中概率UP的英雄是：\n<color=#DC143C>SSR 基扎洛夫</color>、<color=#DC143C>SSR 西格玛</color>、<color=#DC143C>SSR 拉姆达</color>。\n\n<color=#008B00>◆「召唤10次」特殊说明◆</color>\n★<color=#DC143C>限时召唤</color>中「召唤10次」，至少获得<color=#DC143C>1</color>位SR英雄。\n\n<color=#008B00>◆卡池兑换说明◆</color>\n★在本次活动中获得的UP英雄已经6星时，会额外获得<color=#DC143C>1</color>个时空精粹奖励,可在卡池兑换中用于UP英雄之间的转换。"
	},
	{
		"ID": 45,
		"Name": "剑之封印赞美诗",
		"PoolType": "CardPoolType_ActivityCardPool",
		"SelectType": "CardSelectType_BothSelect",
		"CrystalCost": 88,
		"TenSelectDiscount": 880,
		"TenSelectCount": 100,
		"TicketId": 4001,
		"CardPoolSelectMaxCount": 0,
		"SortID": 5,
		"Icon": "UI/Common_New_ABS/Icon/Item_CardTicket_Gold.png",
		"ClockResPath": "UI/SelectCard_ABS/Prefab/Clock.prefab",
		"AdsImage": "UI/SelectCard1_ABS/Banner_1103.png",
		"SelectProbabilityInfoID": 5,
		"SelectContentInfoID": 5,
		"ToggleClickImage": "UI/Icon/SelectCardHero_ABS/Icon_1103.png",
		"ToggleUnClickImage": "UI/Icon/SelectCardHero_ABS/Icon_1103.png",
		"MissionCardPoolType": "MissionCardPoolType_Hero",
		"CardPoolDetailDesc": "<color=#008B00>◆剑之封印赞美诗-限时召唤◆</color>\n★<color=#DC143C>活动召唤</color>中获得SSR时，其中指定英雄的获得概率大幅度UP！\n★SSR总获取概率与普通英雄召唤相同。\n★<color=#DC143C>精选福利</color>：你从本次活动中首次抽取到的SSR英雄，必定是活动精选列表中你尚未拥有的SSR英雄（若你已经集齐该活动精选列表中所有英雄，则可能获得其他SSR英雄或者重复的精选SSR英雄）。\n\n<color=#008B00>◆限定英雄◆</color>\n★本次活动中概率UP的英雄是：\n<color=#DC143C>SSR 泽瑞达</color>、<color=#DC143C>SSR 莉亚娜</color>、<color=#DC143C>SSR 拉娜</color>。\n\n<color=#008B00>◆「召唤10次」特殊说明◆</color>\n★<color=#DC143C>限时召唤</color>中「召唤10次」，至少获得<color=#DC143C>1</color>位SR英雄。"
	},
	{
		"ID": 46,
		"Name": "激燃!魔强世代",
		"PoolType": "CardPoolType_ActivityCardPool",
		"SelectType": "CardSelectType_BothSelect",
		"CrystalCost": 88,
		"TenSelectDiscount": 880,
		"TenSelectCount": 100,
		"TicketId": 4001,
		"CardPoolSelectMaxCount": 0,
		"SortID": 5,
		"Icon": "UI/Common_New_ABS/Icon/Item_CardTicket_Gold.png",
		"ClockResPath": "UI/SelectCard_ABS/Prefab/Clock.prefab",
		"AdsImage": "UI/SelectCard1_ABS/Banner_1201.png",
		"SelectProbabilityInfoID": 5,
		"SelectContentInfoID": 5,
		"ToggleClickImage": "UI/Icon/SelectCardHero_ABS/Icon_1201.png",
		"ToggleUnClickImage": "UI/Icon/SelectCardHero_ABS/Icon_1201.png",
		"MissionCardPoolType": "MissionCardPoolType_Hero",
		"CardPoolDetailDesc": "<color=#008B00>◆激燃！魔强世代！-限时召唤◆</color>\n★<color=#DC143C>活动召唤</color>中获得SSR时，其中指定英雄的获得概率大幅度UP！\n★SSR总获取概率与普通英雄召唤相同。\n\n<color=#008B00>◆限定英雄◆</color>\n★本次活动中概率UP的英雄是：\n<color=#DC143C>SSR 浦饭幽助</color>、<color=#DC143C>SSR 藏马</color>。\n★联动卡池中出现的英雄，不会进入其他卡池。\n\n<color=#008B00>◆「召唤10次」特殊说明◆</color>\n★<color=#DC143C>限时召唤</color>中「召唤10次」，至少获得<color=#DC143C>1</color>位SR英雄。"
	},
	{
		"ID": 47,
		"Name": "凶.极恶的妖怪",
		"PoolType": "CardPoolType_ActivityCardPool",
		"SelectType": "CardSelectType_BothSelect",
		"CrystalCost": 88,
		"TenSelectDiscount": 880,
		"TenSelectCount": 100,
		"TicketId": 4001,
		"CardPoolSelectMaxCount": 0,
		"SortID": 5,
		"Icon": "UI/Common_New_ABS/Icon/Item_CardTicket_Gold.png",
		"ClockResPath": "UI/SelectCard_ABS/Prefab/Clock.prefab",
		"AdsImage": "UI/SelectCard1_ABS/Banner_1202.png",
		"SelectProbabilityInfoID": 5,
		"SelectContentInfoID": 5,
		"ToggleClickImage": "UI/Icon/SelectCardHero_ABS/Icon_1202.png",
		"ToggleUnClickImage": "UI/Icon/SelectCardHero_ABS/Icon_1202.png",
		"MissionCardPoolType": "MissionCardPoolType_Hero",
		"CardPoolDetailDesc": "<color=#008B00>◆凶·极恶的妖怪！-限时召唤◆</color>\n★<color=#DC143C>活动召唤</color>中获得SSR时，其中指定英雄的获得概率大幅度UP！\n★SSR总获取概率与普通英雄召唤相同。\n\n<color=#008B00>◆限定英雄◆</color>\n★本次活动中概率UP的英雄是：\n<color=#DC143C>SSR 飞影</color>、<color=#DC143C>SSR 户愚吕兄弟</color>。\n★联动卡池中出现的英雄，不会进入其他卡池。\n\n<color=#008B00>◆「召唤10次」特殊说明◆</color>\n★<color=#DC143C>限时召唤</color>中「召唤10次」，至少获得<color=#DC143C>1</color>位SR英雄。"
	},
	{
		"ID": 48,
		"Name": "公主联盟精选",
		"PoolType": "CardPoolType_ActivityCardPool",
		"SelectType": "CardSelectType_BothSelect",
		"CrystalCost": 88,
		"TenSelectDiscount": 880,
		"TenSelectCount": 100,
		"TicketId": 4001,
		"CardPoolSelectMaxCount": 0,
		"SortID": 5,
		"Icon": "UI/Common_New_ABS/Icon/Item_CardTicket_Gold.png",
		"ClockResPath": "UI/SelectCard_ABS/Prefab/Clock.prefab",
		"AdsImage": "UI/SelectCard1_ABS/Banner_1203.png",
		"SelectProbabilityInfoID": 5,
		"SelectContentInfoID": 5,
		"ToggleClickImage": "UI/Icon/SelectCardHero_ABS/Icon_1203.png",
		"ToggleUnClickImage": "UI/Icon/SelectCardHero_ABS/Icon_1203.png",
		"MissionCardPoolType": "MissionCardPoolType_Hero",
		"CardPoolDetailDesc": "<color=#008B00>◆公主联盟精选-限时召唤◆</color>\n★<color=#DC143C>活动召唤</color>中获得SSR时，其中指定英雄的获得概率大幅度UP！\n★SSR总获取概率与普通英雄召唤相同。\n★<color=#DC143C>精选福利</color>：你从本次活动中首次抽取到的SSR英雄，必定是活动精选列表中你尚未拥有的SSR英雄（若你已经集齐该活动精选列表中所有英雄，则可能获得其他SSR英雄或者重复的精选SSR英雄）。\n\n<color=#008B00>◆限定英雄◆</color>\n★本次活动中概率UP的英雄是：\n<color=#DC143C>SSR 克拉蕾特</color>、<color=#DC143C>SSR 蒂亚莉丝</color>、<color=#DC143C>SSR 露娜</color>。\n\n<color=#008B00>◆「召唤10次」特殊说明◆</color>\n★<color=#DC143C>限时召唤</color>中「召唤10次」，至少获得<color=#DC143C>1</color>位SR英雄。\n\n<color=#008B00>◆卡池兑换说明◆</color>\n★在本次活动中获得的UP英雄已经6星时，会额外获得<color=#DC143C>1</color>个时空精粹奖励,可在卡池兑换中用于UP英雄之间的转换。"
	},
	{
		"ID": 49,
		"Name": "降临!腥红之月",
		"PoolType": "CardPoolType_ActivityCardPool",
		"SelectType": "CardSelectType_BothSelect",
		"CrystalCost": 88,
		"TenSelectDiscount": 880,
		"TenSelectCount": 100,
		"TicketId": 4001,
		"CardPoolSelectMaxCount": 0,
		"SortID": 5,
		"Icon": "UI/Common_New_ABS/Icon/Item_CardTicket_Gold.png",
		"ClockResPath": "UI/SelectCard_ABS/Prefab/Clock.prefab",
		"AdsImage": "UI/SelectCard2_ABS/Banner_1301.png",
		"SelectProbabilityInfoID": 5,
		"SelectContentInfoID": 5,
		"ToggleClickImage": "UI/Icon/SelectCardHero_ABS/Icon_1301.png",
		"ToggleUnClickImage": "UI/Icon/SelectCardHero_ABS/Icon_1301.png",
		"MissionCardPoolType": "MissionCardPoolType_Hero",
		"CardPoolDetailDesc": "<color=#008B00>◆降临!腥红之月-限时召唤◆</color>\n★<color=#DC143C>活动召唤</color>中获得SSR时，其中指定英雄的获得概率大幅度UP！\n★SSR总获取概率与普通英雄召唤相同。\n\n<color=#008B00>◆限定英雄◆</color>\n★本次活动中概率UP的英雄是：\n<color=#DC143C>SSR 雷因法鲁斯</color>、<color=#DC143C>SSR 贝蒂</color>。\n\n<color=#008B00>◆「召唤10次」特殊说明◆</color>\n★<color=#DC143C>限时召唤</color>中「召唤10次」，至少获得<color=#DC143C>1</color>位SR英雄。"
	},
	{
		"ID": 50,
		"Name": "光之起源精选",
		"PoolType": "CardPoolType_ActivityCardPool",
		"SelectType": "CardSelectType_BothSelect",
		"CrystalCost": 88,
		"TenSelectDiscount": 880,
		"TenSelectCount": 100,
		"TicketId": 4001,
		"CardPoolSelectMaxCount": 0,
		"SortID": 5,
		"Icon": "UI/Common_New_ABS/Icon/Item_CardTicket_Gold.png",
		"ClockResPath": "UI/SelectCard_ABS/Prefab/Clock.prefab",
		"AdsImage": "UI/SelectCard2_ABS/Banner_1302.png",
		"SelectProbabilityInfoID": 5,
		"SelectContentInfoID": 5,
		"ToggleClickImage": "UI/Icon/SelectCardHero_ABS/Icon_1302.png",
		"ToggleUnClickImage": "UI/Icon/SelectCardHero_ABS/Icon_1302.png",
		"MissionCardPoolType": "MissionCardPoolType_Hero",
		"CardPoolDetailDesc": "<color=#008B00>◆光之起源精选-限时召唤◆</color>\n★<color=#DC143C>活动召唤</color>中获得SSR时，其中指定英雄的获得概率大幅度UP！\n★SSR总获取概率与普通英雄召唤相同。\n★<color=#DC143C>精选福利</color>：你从本次活动中首次抽取到的SSR英雄，必定是活动精选列表中你尚未拥有的SSR英雄（若你已经集齐该活动精选列表中所有英雄，则可能获得其他SSR英雄或者重复的精选SSR英雄）。\n\n<color=#008B00>◆限定英雄◆</color>\n★本次活动中概率UP的英雄是：\n<color=#DC143C>SSR 艾拉斯卓</color>、<color=#DC143C>SSR 古巨拉</color>、<color=#DC143C>SSR 杰利奥鲁&蕾拉</color>。\n\n\n<color=#008B00>◆「召唤10次」特殊说明◆</color>\n★<color=#DC143C>限时召唤</color>中「召唤10次」，至少获得<color=#DC143C>1</color>位SR英雄。\n\n<color=#008B00>◆卡池兑换说明◆</color>\n★在本次活动中获得的UP英雄已经6星时，会额外获得<color=#DC143C>1</color>个时空精粹奖励,可在卡池兑换中用于UP英雄之间的转换。"
	},
	{
		"ID": 51,
		"Name": "世代奏鸣曲",
		"PoolType": "CardPoolType_ActivityCardPool",
		"SelectType": "CardSelectType_BothSelect",
		"CrystalCost": 88,
		"TenSelectDiscount": 880,
		"TenSelectCount": 100,
		"TicketId": 4001,
		"CardPoolSelectMaxCount": 0,
		"SortID": 5,
		"Icon": "UI/Common_New_ABS/Icon/Item_CardTicket_Gold.png",
		"ClockResPath": "UI/SelectCard_ABS/Prefab/Clock.prefab",
		"AdsImage": "UI/SelectCard2_ABS/Banner_1303.png",
		"SelectProbabilityInfoID": 5,
		"SelectContentInfoID": 5,
		"ToggleClickImage": "UI/Icon/SelectCardHero_ABS/Icon_1303.png",
		"ToggleUnClickImage": "UI/Icon/SelectCardHero_ABS/Icon_1303.png",
		"MissionCardPoolType": "MissionCardPoolType_Hero",
		"CardPoolDetailDesc": "<color=#008B00>◆世代奏鸣曲-限时召唤◆</color>\n★<color=#DC143C>活动召唤</color>中获得SSR时，其中指定英雄的获得概率大幅度UP！\n★SSR总获取概率与普通英雄召唤相同。\n\n<color=#008B00>◆限定英雄◆</color>\n★本次活动中概率UP的英雄是：\n<color=#DC143C>SSR 波赞鲁</color>、<color=#DC143C>SSR 兰迪乌斯</color>。\n\n\n<color=#008B00>◆「召唤10次」特殊说明◆</color>\n★<color=#DC143C>限时召唤</color>中「召唤10次」，至少获得<color=#DC143C>1</color>位SR英雄。\n\n<color=#008B00>◆卡池兑换说明◆</color>\n★在本次活动中获得的UP英雄已经6星时，会额外获得<color=#DC143C>1</color>个时空精粹奖励,可在卡池兑换中用于UP英雄之间的转换。"
	},
	{
		"ID": 52,
		"Name": "天命之英豪",
		"PoolType": "CardPoolType_ActivityCardPool",
		"SelectType": "CardSelectType_BothSelect",
		"CrystalCost": 88,
		"TenSelectDiscount": 880,
		"TenSelectCount": 100,
		"TicketId": 4001,
		"CardPoolSelectMaxCount": 0,
		"SortID": 5,
		"Icon": "UI/Common_New_ABS/Icon/Item_CardTicket_Gold.png",
		"ClockResPath": "UI/SelectCard_ABS/Prefab/Clock.prefab",
		"AdsImage": "UI/SelectCard2_ABS/Banner_1304.png",
		"SelectProbabilityInfoID": 5,
		"SelectContentInfoID": 5,
		"ToggleClickImage": "UI/Icon/SelectCardHero_ABS/Icon_1304.png",
		"ToggleUnClickImage": "UI/Icon/SelectCardHero_ABS/Icon_1304.png",
		"MissionCardPoolType": "MissionCardPoolType_Hero",
		"CardPoolDetailDesc": "<color=#008B00>◆天命之英豪-限时召唤◆</color>\n★<color=#DC143C>活动召唤</color>中获得SSR时，其中指定英雄的获得概率大幅度UP！\n★SSR总获取概率与普通英雄召唤相同。\n★<color=#DC143C>精选福利</color>：你从本次活动中首次抽取到的SSR英雄，必定是活动精选列表中你尚未拥有的SSR英雄（若你已经集齐该活动精选列表中所有英雄，则可能获得其他SSR英雄或者重复的精选SSR英雄）。\n\n<color=#008B00>◆限定英雄◆</color>\n★本次活动中概率UP的英雄是：\n<color=#DC143C>SSR 雷丁</color>、<color=#DC143C>SSR 亚鲁特缪拉</color>、<color=#DC143C>SSR 蕾伽尔</color>。\n\n<color=#008B00>◆「召唤10次」特殊说明◆</color>\n★<color=#DC143C>限时召唤</color>中「召唤10次」，至少获得<color=#DC143C>1</color>位SR英雄。\n\n<color=#008B00>◆卡池兑换说明◆</color>\n★在本次活动中获得的UP英雄已经6星时，会额外获得<color=#DC143C>1</color>个时空精粹奖励,可在卡池兑换中用于UP英雄之间的转换。"
	},
	{
		"ID": 53,
		"Name": "远古的传说",
		"PoolType": "CardPoolType_ActivityCardPool",
		"SelectType": "CardSelectType_BothSelect",
		"CrystalCost": 88,
		"TenSelectDiscount": 880,
		"TenSelectCount": 100,
		"TicketId": 4001,
		"CardPoolSelectMaxCount": 0,
		"SortID": 5,
		"Icon": "UI/Common_New_ABS/Icon/Item_CardTicket_Gold.png",
		"ClockResPath": "UI/SelectCard_ABS/Prefab/Clock.prefab",
		"AdsImage": "UI/SelectCard2_ABS/Banner_1305.png",
		"SelectProbabilityInfoID": 3,
		"SelectContentInfoID": 3,
		"ToggleClickImage": "UI/Icon/SelectCardHero_ABS/Icon_1305.png",
		"ToggleUnClickImage": "UI/Icon/SelectCardHero_ABS/Icon_1305.png",
		"MissionCardPoolType": "MissionCardPoolType_Equipment",
		"CardPoolDetailDesc": "<color=#008B00>◆远古的传说-限时装备召唤◆</color>\n★<color=#DC143C>活动召唤</color>中获得SSR装备时，其中指定装备的获得概率大幅度UP！\n★SSR总获取概率与普通装备召唤相同。\n\n<color=#008B00>◆限定装备◆</color>\n★本次活动中概率UP的装备是：\n<color=#DC143C>SSR 提尔之怒</color>、<color=#DC143C>SSR 弥米尔的战锤</color>、<color=#DC143C>SSR 巨人的抗争</color>、<color=#DC143C>SSR 福金之翼</color>。\n★活动结束后，限定装备也可以通过普通卡池或游戏的其他常规玩法获得！\n\n<color=#008B00>◆「召唤10次」特殊说明◆</color>\n★<color=#DC143C>装备召唤</color>中「召唤10次」，至少获得<color=#DC143C>2</color>个SR装备。"
	},
	{
		"ID": 54,
		"Name": "呼唤光的少女",
		"PoolType": "CardPoolType_ActivityCardPool",
		"SelectType": "CardSelectType_BothSelect",
		"CrystalCost": 88,
		"TenSelectDiscount": 880,
		"TenSelectCount": 100,
		"TicketId": 4001,
		"CardPoolSelectMaxCount": 0,
		"SortID": 5,
		"Icon": "UI/Common_New_ABS/Icon/Item_CardTicket_Gold.png",
		"ClockResPath": "UI/SelectCard_ABS/Prefab/Clock.prefab",
		"AdsImage": "UI/SelectCard2_ABS/Banner_1401.png",
		"SelectProbabilityInfoID": 5,
		"SelectContentInfoID": 5,
		"ToggleClickImage": "UI/Icon/SelectCardHero_ABS/Icon_1401.png",
		"ToggleUnClickImage": "UI/Icon/SelectCardHero_ABS/Icon_1401.png",
		"MissionCardPoolType": "MissionCardPoolType_Hero",
		"CardPoolDetailDesc": "<color=#008B00>◆呼唤光的少女-限时召唤◆</color>\n★<color=#DC143C>活动召唤</color>中获得SSR时，其中指定英雄的获得概率大幅度UP！\n★SSR总获取概率与普通英雄召唤相同。\n\n<color=#008B00>◆限定英雄◆</color>\n★本次活动中概率UP的英雄是：\n<color=#DC143C>SSR 女神化身</color>、<color=#DC143C>SSR 艾米莉亚</color>。\n\n<color=#008B00>◆「召唤10次」特殊说明◆</color>\n★<color=#DC143C>限时召唤</color>中「召唤10次」，至少获得<color=#DC143C>1</color>位SR英雄。"
	},
	{
		"ID": 55,
		"Name": "奉献与救赎之歌",
		"PoolType": "CardPoolType_ActivityCardPool",
		"SelectType": "CardSelectType_BothSelect",
		"CrystalCost": 88,
		"TenSelectDiscount": 880,
		"TenSelectCount": 100,
		"TicketId": 4001,
		"CardPoolSelectMaxCount": 0,
		"SortID": 5,
		"Icon": "UI/Common_New_ABS/Icon/Item_CardTicket_Gold.png",
		"ClockResPath": "UI/SelectCard_ABS/Prefab/Clock.prefab",
		"AdsImage": "UI/SelectCard2_ABS/Banner_1402.png",
		"SelectProbabilityInfoID": 5,
		"SelectContentInfoID": 5,
		"ToggleClickImage": "UI/Icon/SelectCardHero_ABS/Icon_1402.png",
		"ToggleUnClickImage": "UI/Icon/SelectCardHero_ABS/Icon_1402.png",
		"MissionCardPoolType": "MissionCardPoolType_Hero",
		"CardPoolDetailDesc": "<color=#008B00>◆奉献与救赎之歌-限时召唤◆</color>\n★<color=#DC143C>活动召唤</color>中获得SSR时，其中指定英雄的获得概率大幅度UP！\n★SSR总获取概率与普通英雄召唤相同。\n\n<color=#008B00>◆限定英雄◆</color>\n★本次活动中概率UP的英雄是：\n<color=#DC143C>SSR 雪露法妮尔</color>、<color=#DC143C>SSR 尤利娅</color>。\n\n<color=#008B00>◆「召唤10次」特殊说明◆</color>\n★<color=#DC143C>限时召唤</color>中「召唤10次」，至少获得<color=#DC143C>1</color>位SR英雄。\n\n<color=#008B00>◆卡池兑换说明◆</color>\n★在本次活动中获得的UP英雄已经6星时，会额外获得<color=#DC143C>1</color>个时空精粹奖励,可在卡池兑换中用于UP英雄之间的转换。"
	},
	{
		"ID": 56,
		"Name": "流星直击精选",
		"PoolType": "CardPoolType_ActivityCardPool",
		"SelectType": "CardSelectType_BothSelect",
		"CrystalCost": 88,
		"TenSelectDiscount": 880,
		"TenSelectCount": 100,
		"TicketId": 4001,
		"CardPoolSelectMaxCount": 0,
		"SortID": 5,
		"Icon": "UI/Common_New_ABS/Icon/Item_CardTicket_Gold.png",
		"ClockResPath": "UI/SelectCard_ABS/Prefab/Clock.prefab",
		"AdsImage": "UI/SelectCard2_ABS/Banner_1403.png",
		"SelectProbabilityInfoID": 5,
		"SelectContentInfoID": 5,
		"ToggleClickImage": "UI/Icon/SelectCardHero_ABS/Icon_1403.png",
		"ToggleUnClickImage": "UI/Icon/SelectCardHero_ABS/Icon_1403.png",
		"MissionCardPoolType": "MissionCardPoolType_Hero",
		"CardPoolDetailDesc": "<color=#008B00>◆流星直击精选-限时召唤◆</color>\n★<color=#DC143C>活动召唤</color>中获得SSR时，其中指定英雄的获得概率大幅度UP！\n★SSR总获取概率与普通英雄召唤相同。\n★<color=#DC143C>精选福利</color>：你从本次活动中首次抽取到的SSR英雄，必定是活动精选列表中你尚未拥有的SSR英雄（若你已经集齐该活动精选列表中所有英雄，则可能获得其他SSR英雄或者重复的精选SSR英雄）。\n\n<color=#008B00>◆限定英雄◆</color>\n★本次活动中概率UP的英雄是：\n<color=#DC143C>SSR 欧米伽</color>、<color=#DC143C>SSR 迪哈尔特</color>、<color=#DC143C>SSR 雪莉</color>。\n\n<color=#008B00>◆「召唤10次」特殊说明◆</color>\n★<color=#DC143C>限时召唤</color>中「召唤10次」，至少获得<color=#DC143C>1</color>位SR英雄。\n\n<color=#008B00>◆卡池兑换说明◆</color>\n★在本次活动中获得的UP英雄已经6星时，会额外获得<color=#DC143C>1</color>个时空精粹奖励,可在卡池兑换中用于UP英雄之间的转换。"
	},
	{
		"ID": 57,
		"Name": "天命之英豪",
		"PoolType": "CardPoolType_ActivityCardPool",
		"SelectType": "CardSelectType_BothSelect",
		"CrystalCost": 88,
		"TenSelectDiscount": 880,
		"TenSelectCount": 100,
		"TicketId": 4001,
		"CardPoolSelectMaxCount": 0,
		"SortID": 5,
		"Icon": "UI/Common_New_ABS/Icon/Item_CardTicket_Gold.png",
		"ClockResPath": "UI/SelectCard_ABS/Prefab/Clock.prefab",
		"AdsImage": "UI/SelectCard2_ABS/Banner_1404.png",
		"SelectProbabilityInfoID": 5,
		"SelectContentInfoID": 5,
		"ToggleClickImage": "UI/Icon/SelectCardHero_ABS/Icon_1404.png",
		"ToggleUnClickImage": "UI/Icon/SelectCardHero_ABS/Icon_1404.png",
		"MissionCardPoolType": "MissionCardPoolType_Hero",
		"CardPoolDetailDesc": "<color=#008B00>◆天命之英豪-限时召唤◆</color>\n★<color=#DC143C>活动召唤</color>中获得SSR时，其中指定英雄的获得概率大幅度UP！\n★SSR总获取概率与普通英雄召唤相同。\n★<color=#DC143C>精选福利</color>：你从本次活动中首次抽取到的SSR英雄，必定是活动精选列表中你尚未拥有的SSR英雄（若你已经集齐该活动精选列表中所有英雄，则可能获得其他SSR英雄或者重复的精选SSR英雄）。\n\n<color=#008B00>◆限定英雄◆</color>\n★本次活动中概率UP的英雄是：\n<color=#DC143C>SSR 巴恩哈特</color>、<color=#DC143C>SSR 艾尔文</color>、<color=#DC143C>SSR 利昂</color>。\n\n<color=#008B00>◆「召唤10次」特殊说明◆</color>\n★<color=#DC143C>限时召唤</color>中「召唤10次」，至少获得<color=#DC143C>1</color>位SR英雄。\n\n<color=#008B00>◆卡池兑换说明◆</color>\n★在本次活动中获得的UP英雄已经6星时，会额外获得<color=#DC143C>1</color>个时空精粹奖励,可在卡池兑换中用于UP英雄之间的转换。"
	},
	{
		"ID": 58,
		"Name": "月辉下的守护者",
		"PoolType": "CardPoolType_ActivityCardPool",
		"SelectType": "CardSelectType_BothSelect",
		"CrystalCost": 88,
		"TenSelectDiscount": 880,
		"TenSelectCount": 100,
		"TicketId": 4001,
		"CardPoolSelectMaxCount": 0,
		"SortID": 5,
		"Icon": "UI/Common_New_ABS/Icon/Item_CardTicket_Gold.png",
		"ClockResPath": "UI/SelectCard_ABS/Prefab/Clock.prefab",
		"AdsImage": "UI/SelectCard2_ABS/Banner_1501.png",
		"SelectProbabilityInfoID": 5,
		"SelectContentInfoID": 5,
		"ToggleClickImage": "UI/Icon/SelectCardHero_ABS/Icon_1501.png",
		"ToggleUnClickImage": "UI/Icon/SelectCardHero_ABS/Icon_1501.png",
		"MissionCardPoolType": "MissionCardPoolType_Hero",
		"CardPoolDetailDesc": "<color=#008B00>◆月辉下的守护者-限时召唤◆</color>\n★<color=#DC143C>活动召唤</color>中获得SSR时，其中指定英雄的获得概率大幅度UP！\n★SSR总获取概率与普通英雄召唤相同。\n\n<color=#008B00>◆限定英雄◆</color>\n★本次活动中概率UP的英雄是：\n<color=#DC143C>SSR 谜之骑士</color>、<color=#DC143C>SSR 维拉玖</color>。\n\n<color=#008B00>◆「召唤10次」特殊说明◆</color>\n★<color=#DC143C>限时召唤</color>中「召唤10次」，至少获得<color=#DC143C>1</color>位SR英雄。"
	},
	{
		"ID": 59,
		"Name": "传说彼端精选",
		"PoolType": "CardPoolType_ActivityCardPool",
		"SelectType": "CardSelectType_BothSelect",
		"CrystalCost": 88,
		"TenSelectDiscount": 880,
		"TenSelectCount": 100,
		"TicketId": 4001,
		"CardPoolSelectMaxCount": 0,
		"SortID": 5,
		"Icon": "UI/Common_New_ABS/Icon/Item_CardTicket_Gold.png",
		"ClockResPath": "UI/SelectCard_ABS/Prefab/Clock.prefab",
		"AdsImage": "UI/SelectCard2_ABS/Banner_1502.png",
		"SelectProbabilityInfoID": 5,
		"SelectContentInfoID": 5,
		"ToggleClickImage": "UI/Icon/SelectCardHero_ABS/Icon_1502.png",
		"ToggleUnClickImage": "UI/Icon/SelectCardHero_ABS/Icon_1502.png",
		"MissionCardPoolType": "MissionCardPoolType_Hero",
		"CardPoolDetailDesc": "<color=#008B00>◆传说彼端精选-限时召唤◆</color>\n★<color=#DC143C>活动召唤</color>中获得SSR时，其中指定英雄的获得概率大幅度UP！\n★SSR总获取概率与普通英雄召唤相同。\n★<color=#DC143C>精选福利</color>：你从本次活动中首次抽取到的SSR英雄，必定是活动精选列表中你尚未拥有的SSR英雄（若你已经集齐该活动精选列表中所有英雄，则可能获得其他SSR英雄或者重复的精选SSR英雄）。\n\n<color=#008B00>◆限定英雄◆</color>\n★本次活动中概率UP的英雄是：\n<color=#DC143C>SSR 妮丝蒂尔</color>、<color=#DC143C>SSR 安洁丽娜</color>、<color=#DC143C>SSR 兰芳特</color>。\n\n<color=#008B00>◆「召唤10次」特殊说明◆</color>\n★<color=#DC143C>限时召唤</color>中「召唤10次」，至少获得<color=#DC143C>1</color>位SR英雄。\n\n<color=#008B00>◆卡池兑换说明◆</color>\n★在本次活动中获得的UP英雄已经6星时，会额外获得<color=#DC143C>1</color>个时空精粹奖励,可在卡池兑换中用于UP英雄之间的转换。"
	},
	{
		"ID": 60,
		"Name": "天命之英豪",
		"PoolType": "CardPoolType_ActivityCardPool",
		"SelectType": "CardSelectType_BothSelect",
		"CrystalCost": 88,
		"TenSelectDiscount": 880,
		"TenSelectCount": 100,
		"TicketId": 4001,
		"CardPoolSelectMaxCount": 0,
		"SortID": 5,
		"Icon": "UI/Common_New_ABS/Icon/Item_CardTicket_Gold.png",
		"ClockResPath": "UI/SelectCard_ABS/Prefab/Clock.prefab",
		"AdsImage": "UI/SelectCard2_ABS/Banner_1503.png",
		"SelectProbabilityInfoID": 5,
		"SelectContentInfoID": 5,
		"ToggleClickImage": "UI/Icon/SelectCardHero_ABS/Icon_1503.png",
		"ToggleUnClickImage": "UI/Icon/SelectCardHero_ABS/Icon_1503.png",
		"MissionCardPoolType": "MissionCardPoolType_Hero",
		"CardPoolDetailDesc": "<color=#008B00>◆天命之英豪-限时召唤◆</color>\n★<color=#DC143C>活动召唤</color>中获得SSR时，其中指定英雄的获得概率大幅度UP！\n★SSR总获取概率与普通英雄召唤相同。\n★<color=#DC143C>精选福利</color>：你从本次活动中首次抽取到的SSR英雄，必定是活动精选列表中你尚未拥有的SSR英雄（若你已经集齐该活动精选列表中所有英雄，则可能获得其他SSR英雄或者重复的精选SSR英雄）。\n\n<color=#008B00>◆限定英雄◆</color>\n★本次活动中概率UP的英雄是：\n<color=#DC143C>SSR 莉亚娜</color>、<color=#DC143C>SSR 露娜</color>、<color=#DC143C>SSR 波赞鲁</color>。\n\n<color=#008B00>◆「召唤10次」特殊说明◆</color>\n★<color=#DC143C>限时召唤</color>中「召唤10次」，至少获得<color=#DC143C>1</color>位SR英雄。\n\n<color=#008B00>◆卡池兑换说明◆</color>\n★在本次活动中获得的UP英雄已经6星时，会额外获得<color=#DC143C>1</color>个时空精粹奖励,可在卡池兑换中用于UP英雄之间的转换。"
	},
	{
		"ID": 61,
		"Name": "无瑕的圣盾",
		"PoolType": "CardPoolType_ActivityCardPool",
		"SelectType": "CardSelectType_BothSelect",
		"CrystalCost": 88,
		"TenSelectDiscount": 880,
		"TenSelectCount": 100,
		"TicketId": 4001,
		"CardPoolSelectMaxCount": 0,
		"SortID": 5,
		"Icon": "UI/Common_New_ABS/Icon/Item_CardTicket_Gold.png",
		"ClockResPath": "UI/SelectCard_ABS/Prefab/Clock.prefab",
		"AdsImage": "UI/SelectCard2_ABS/Banner_New001.png",
		"SelectProbabilityInfoID": 5,
		"SelectContentInfoID": 5,
		"ToggleClickImage": "UI/Icon/SelectCardHero_ABS/Icon_New001.png",
		"ToggleUnClickImage": "UI/Icon/SelectCardHero_ABS/Icon_New001.png",
		"MissionCardPoolType": "MissionCardPoolType_Hero",
		"CardPoolDetailDesc": "<color=#008B00>◆无瑕的圣盾-限时召唤◆</color>\n★<color=#DC143C>活动召唤</color>中获得SSR时，其中指定英雄的获得概率大幅度UP！\n★SSR总获取概率与普通英雄召唤相同。\n\n<color=#008B00>◆限定英雄◆</color>\n★本次活动中概率UP的英雄是：\n<color=#DC143C>SSR 雷丁</color>、<color=#DC143C>SSR 蒂亚莉丝</color>。\n\n<color=#008B00>◆「召唤10次」特殊说明◆</color>\n★<color=#DC143C>限时召唤</color>中「召唤10次」，至少获得<color=#DC143C>1</color>位SR英雄。"
	},
	{
		"ID": 62,
		"Name": "天威的战侣",
		"PoolType": "CardPoolType_ActivityCardPool",
		"SelectType": "CardSelectType_BothSelect",
		"CrystalCost": 88,
		"TenSelectDiscount": 880,
		"TenSelectCount": 100,
		"TicketId": 4001,
		"CardPoolSelectMaxCount": 0,
		"SortID": 5,
		"Icon": "UI/Common_New_ABS/Icon/Item_CardTicket_Gold.png",
		"ClockResPath": "UI/SelectCard_ABS/Prefab/Clock.prefab",
		"AdsImage": "UI/SelectCard2_ABS/Banner_New002.png",
		"SelectProbabilityInfoID": 5,
		"SelectContentInfoID": 5,
		"ToggleClickImage": "UI/Icon/SelectCardHero_ABS/Icon_New002.png",
		"ToggleUnClickImage": "UI/Icon/SelectCardHero_ABS/Icon_New002.png",
		"MissionCardPoolType": "MissionCardPoolType_Hero",
		"CardPoolDetailDesc": "<color=#008B00>◆天威的战侣-限时召唤◆</color>\n★<color=#DC143C>活动召唤</color>中获得SSR时，其中指定英雄的获得概率大幅度UP！\n★SSR总获取概率与普通英雄召唤相同。\n\n<color=#008B00>◆限定英雄◆</color>\n★本次活动中概率UP的英雄是：\n<color=#DC143C>SSR 利昂</color>、<color=#DC143C>SSR 拉娜</color>。\n\n<color=#008B00>◆「召唤10次」特殊说明◆</color>\n★<color=#DC143C>限时召唤</color>中「召唤10次」，至少获得<color=#DC143C>1</color>位SR英雄。"
	},
	{
		"ID": 63,
		"Name": "星野异梦曲",
		"PoolType": "CardPoolType_ActivityCardPool",
		"SelectType": "CardSelectType_BothSelect",
		"CrystalCost": 88,
		"TenSelectDiscount": 880,
		"TenSelectCount": 100,
		"TicketId": 4001,
		"CardPoolSelectMaxCount": 0,
		"SortID": 5,
		"Icon": "UI/Common_New_ABS/Icon/Item_CardTicket_Gold.png",
		"ClockResPath": "UI/SelectCard_ABS/Prefab/Clock.prefab",
		"AdsImage": "UI/SelectCard2_ABS/Banner_1601.png",
		"SelectProbabilityInfoID": 5,
		"SelectContentInfoID": 5,
		"ToggleClickImage": "UI/Icon/SelectCardHero_ABS/Icon_1601.png",
		"ToggleUnClickImage": "UI/Icon/SelectCardHero_ABS/Icon_1601.png",
		"MissionCardPoolType": "MissionCardPoolType_Hero",
		"CardPoolDetailDesc": "<color=#008B00>◆星野异梦曲-限时召唤◆</color>\n★<color=#DC143C>活动召唤</color>中获得SSR时，其中指定英雄的获得概率大幅度UP！\n★SSR总获取概率与普通英雄召唤相同。\n\n<color=#008B00>◆限定英雄◆</color>\n★本次活动中概率UP的英雄是：\n<color=#DC143C>SSR 阿卡娅</color>、<color=#DC143C>SSR 布琳达</color>。\n\n<color=#008B00>◆「召唤10次」特殊说明◆</color>\n★<color=#DC143C>限时召唤</color>中「召唤10次」，至少获得<color=#DC143C>1</color>位SR英雄。"
	},
	{
		"ID": 64,
		"Name": "天命之英豪",
		"PoolType": "CardPoolType_ActivityCardPool",
		"SelectType": "CardSelectType_BothSelect",
		"CrystalCost": 88,
		"TenSelectDiscount": 880,
		"TenSelectCount": 100,
		"TicketId": 4001,
		"CardPoolSelectMaxCount": 0,
		"SortID": 5,
		"Icon": "UI/Common_New_ABS/Icon/Item_CardTicket_Gold.png",
		"ClockResPath": "UI/SelectCard_ABS/Prefab/Clock.prefab",
		"AdsImage": "UI/SelectCard2_ABS/Banner_1602.png",
		"SelectProbabilityInfoID": 5,
		"SelectContentInfoID": 5,
		"ToggleClickImage": "UI/Icon/SelectCardHero_ABS/Icon_1602.png",
		"ToggleUnClickImage": "UI/Icon/SelectCardHero_ABS/Icon_1602.png",
		"MissionCardPoolType": "MissionCardPoolType_Hero",
		"CardPoolDetailDesc": "<color=#008B00>◆天命之英豪-限时召唤◆</color>\n★<color=#DC143C>活动召唤</color>中获得SSR时，其中指定英雄的获得概率大幅度UP！\n★SSR总获取概率与普通英雄召唤相同。\n★<color=#DC143C>精选福利</color>：你从本次活动中首次抽取到的SSR英雄，必定是活动精选列表中你尚未拥有的SSR英雄（若你已经集齐该活动精选列表中所有英雄，则可能获得其他SSR英雄或者重复的精选SSR英雄）。\n\n<color=#008B00>◆限定英雄◆</color>\n★本次活动中概率UP的英雄是：\n<color=#DC143C>SSR 拉娜</color>、<color=#DC143C>SSR 蒂亚莉丝</color>、<color=#DC143C>SSR 蕾伽尔</color>。\n\n<color=#008B00>◆「召唤10次」特殊说明◆</color>\n★<color=#DC143C>限时召唤</color>中「召唤10次」，至少获得<color=#DC143C>1</color>位SR英雄。\n\n<color=#008B00>◆卡池兑换说明◆</color>\n★在本次活动中获得的UP英雄已经6星时，会额外获得<color=#DC143C>1</color>个时空精粹奖励,可在卡池兑换中用于UP英雄之间的转换。"
	},
	{
		"ID": 65,
		"Name": "光！征服者之殇",
		"PoolType": "CardPoolType_ActivityCardPool",
		"SelectType": "CardSelectType_BothSelect",
		"CrystalCost": 88,
		"TenSelectDiscount": 880,
		"TenSelectCount": 100,
		"TicketId": 4001,
		"CardPoolSelectMaxCount": 0,
		"SortID": 5,
		"Icon": "UI/Common_New_ABS/Icon/Item_CardTicket_Gold.png",
		"ClockResPath": "UI/SelectCard_ABS/Prefab/Clock.prefab",
		"AdsImage": "UI/SelectCard2_ABS/Banner_1701.png",
		"SelectProbabilityInfoID": 5,
		"SelectContentInfoID": 5,
		"ToggleClickImage": "UI/Icon/SelectCardHero_ABS/Icon_1701.png",
		"ToggleUnClickImage": "UI/Icon/SelectCardHero_ABS/Icon_1701.png",
		"MissionCardPoolType": "MissionCardPoolType_Hero",
		"CardPoolDetailDesc": "<color=#008B00>◆光！征服者之殇-限时召唤◆</color>\n★<color=#DC143C>活动召唤</color>中获得SSR时，其中指定英雄的获得概率大幅度UP！\n★SSR总获取概率与普通英雄召唤相同。\n\n<color=#008B00>◆限定英雄◆</color>\n★本次活动中概率UP的英雄是：\n<color=#DC143C>SSR 蒂德莉特</color>、<color=#DC143C>SSR 亚修拉姆</color>\n★联动卡池中出现的英雄，不会进入其他卡池。\n\n<color=#008B00>◆「召唤10次」特殊说明◆</color>\n★<color=#DC143C>限时召唤</color>中「召唤10次」，至少获得<color=#DC143C>1</color>位SR英雄。"
	},
	{
		"ID": 66,
		"Name": "战略大师精选",
		"PoolType": "CardPoolType_ActivityCardPool",
		"SelectType": "CardSelectType_BothSelect",
		"CrystalCost": 88,
		"TenSelectDiscount": 880,
		"TenSelectCount": 100,
		"TicketId": 4001,
		"CardPoolSelectMaxCount": 0,
		"SortID": 5,
		"Icon": "UI/Common_New_ABS/Icon/Item_CardTicket_Gold.png",
		"ClockResPath": "UI/SelectCard_ABS/Prefab/Clock.prefab",
		"AdsImage": "UI/SelectCard2_ABS/Banner_1702.png",
		"SelectProbabilityInfoID": 5,
		"SelectContentInfoID": 5,
		"ToggleClickImage": "UI/Icon/SelectCardHero_ABS/Icon_1702.png",
		"ToggleUnClickImage": "UI/Icon/SelectCardHero_ABS/Icon_1702.png",
		"MissionCardPoolType": "MissionCardPoolType_Hero",
		"CardPoolDetailDesc": "<color=#008B00>◆战略大师精选-限时召唤◆</color>\n★<color=#DC143C>活动召唤</color>中获得SSR时，其中指定英雄的获得概率大幅度UP！\n★SSR总获取概率与普通英雄召唤相同。\n★<color=#DC143C>精选福利</color>：你从本次活动中首次抽取到的SSR英雄，必定是活动精选列表中你尚未拥有的SSR英雄（若你已经集齐该活动精选列表中所有英雄，则可能获得其他SSR英雄或者重复的精选SSR英雄）。\n\n<color=#008B00>◆限定英雄◆</color>\n★本次活动中概率UP的英雄是：\n<color=#DC143C>SSR 雷因法鲁斯</color>、<color=#DC143C>SSR 威拉</color>、<color=#DC143C>SSR 杰利奥鲁&蕾拉</color>。\n\n<color=#008B00>◆「召唤10次」特殊说明◆</color>\n★<color=#DC143C>限时召唤</color>中「召唤10次」，至少获得<color=#DC143C>1</color>位SR英雄。\n\n<color=#008B00>◆卡池兑换说明◆</color>\n★在本次活动中获得的UP英雄已经6星时，会额外获得<color=#DC143C>1</color>个时空精粹奖励,可在卡池兑换中用于UP英雄之间的转换。"
	},
	{
		"ID": 67,
		"Name": "划破暗夜的星",
		"PoolType": "CardPoolType_ActivityCardPool",
		"SelectType": "CardSelectType_BothSelect",
		"CrystalCost": 88,
		"TenSelectDiscount": 880,
		"TenSelectCount": 100,
		"TicketId": 4001,
		"CardPoolSelectMaxCount": 0,
		"SortID": 5,
		"Icon": "UI/Common_New_ABS/Icon/Item_CardTicket_Gold.png",
		"ClockResPath": "UI/SelectCard_ABS/Prefab/Clock.prefab",
		"AdsImage": "UI/SelectCard2_ABS/Banner_1703.png",
		"SelectProbabilityInfoID": 5,
		"SelectContentInfoID": 5,
		"ToggleClickImage": "UI/Icon/SelectCardHero_ABS/Icon_1703.png",
		"ToggleUnClickImage": "UI/Icon/SelectCardHero_ABS/Icon_1703.png",
		"MissionCardPoolType": "MissionCardPoolType_Hero",
		"CardPoolDetailDesc": "<color=#008B00>◆划破暗夜的星-限时召唤◆</color>\n★<color=#DC143C>活动召唤</color>中获得SSR时，其中指定英雄的获得概率大幅度UP！\n★SSR总获取概率与普通英雄召唤相同。\n\n<color=#008B00>◆限定英雄◆</color>\n★本次活动中概率UP的英雄是：\n<color=#DC143C>SSR 泽瑞达</color>、<color=#DC143C>SSR 克拉蕾特</color>。\n\n<color=#008B00>◆「召唤10次」特殊说明◆</color>\n★<color=#DC143C>限时召唤</color>中「召唤10次」，至少获得<color=#DC143C>1</color>位SR英雄。\n\n<color=#008B00>◆卡池兑换说明◆</color>\n★在本次活动中获得的UP英雄已经6星时，会额外获得<color=#DC143C>1</color>个时空精粹奖励,可在卡池兑换中用于UP英雄之间的转换。"
	},
	{
		"ID": 68,
		"Name": "天命之英豪",
		"PoolType": "CardPoolType_ActivityCardPool",
		"SelectType": "CardSelectType_BothSelect",
		"CrystalCost": 88,
		"TenSelectDiscount": 880,
		"TenSelectCount": 100,
		"TicketId": 4001,
		"CardPoolSelectMaxCount": 0,
		"SortID": 5,
		"Icon": "UI/Common_New_ABS/Icon/Item_CardTicket_Gold.png",
		"ClockResPath": "UI/SelectCard_ABS/Prefab/Clock.prefab",
		"AdsImage": "UI/SelectCard2_ABS/Banner_1704.png",
		"SelectProbabilityInfoID": 5,
		"SelectContentInfoID": 5,
		"ToggleClickImage": "UI/Icon/SelectCardHero_ABS/Icon_1704.png",
		"ToggleUnClickImage": "UI/Icon/SelectCardHero_ABS/Icon_1704.png",
		"MissionCardPoolType": "MissionCardPoolType_Hero",
		"CardPoolDetailDesc": "<color=#008B00>◆天命之英豪-限时召唤◆</color>\n★<color=#DC143C>活动召唤</color>中获得SSR时，其中指定英雄的获得概率大幅度UP！\n★SSR总获取概率与普通英雄召唤相同。\n★<color=#DC143C>精选福利</color>：你从本次活动中首次抽取到的SSR英雄，必定是活动精选列表中你尚未拥有的SSR英雄（若你已经集齐该活动精选列表中所有英雄，则可能获得其他SSR英雄或者重复的精选SSR英雄）。\n\n<color=#008B00>◆限定英雄◆</color>\n★本次活动中概率UP的英雄是：\n<color=#DC143C>SSR 兰迪乌斯</color>、<color=#DC143C>SSR 尤利娅</color>、<color=#DC143C>SSR 古巨拉</color>。\n\n<color=#008B00>◆「召唤10次」特殊说明◆</color>\n★<color=#DC143C>限时召唤</color>中「召唤10次」，至少获得<color=#DC143C>1</color>位SR英雄。\n\n<color=#008B00>◆卡池兑换说明◆</color>\n★在本次活动中获得的UP英雄已经6星时，会额外获得<color=#DC143C>1</color>个时空精粹奖励,可在卡池兑换中用于UP英雄之间的转换。"
	},
	{
		"ID": 69,
		"Name": "大工匠的奇想",
		"PoolType": "CardPoolType_ActivityCardPool",
		"SelectType": "CardSelectType_BothSelect",
		"CrystalCost": 88,
		"TenSelectDiscount": 880,
		"TenSelectCount": 100,
		"TicketId": 4001,
		"CardPoolSelectMaxCount": 0,
		"SortID": 5,
		"Icon": "UI/Common_New_ABS/Icon/Item_CardTicket_Gold.png",
		"ClockResPath": "UI/SelectCard_ABS/Prefab/Clock.prefab",
		"AdsImage": "UI/SelectCard2_ABS/Banner_1705.png",
		"SelectProbabilityInfoID": 3,
		"SelectContentInfoID": 3,
		"ToggleClickImage": "UI/Icon/SelectCardHero_ABS/Icon_1705.png",
		"ToggleUnClickImage": "UI/Icon/SelectCardHero_ABS/Icon_1705.png",
		"MissionCardPoolType": "MissionCardPoolType_Equipment",
		"CardPoolDetailDesc": "<color=#008B00>◆大工匠的奇想-限时装备召唤◆</color>\n★<color=#DC143C>活动召唤</color>中获得SSR装备时，其中指定装备的获得概率大幅度UP！\n★SSR总获取概率与普通装备召唤相同。\n\n<color=#008B00>◆限定装备◆</color>\n★本次活动中概率UP的装备是：\n<color=#DC143C>SSR 影渊麟衣</color>、<color=#DC143C>SSR 魔女的追想</color>、<color=#DC143C>SSR 晨昏之星</color>、<color=#DC143C>SSR 真红死神</color>\n★活动结束后，限定装备也可以通过普通卡池或游戏的其他常规玩法获得！\n\n<color=#008B00>◆「召唤10次」特殊说明◆</color>\n★<color=#DC143C>装备召唤</color>中「召唤10次」，至少获得<color=#DC143C>2</color>个SR装备。"
	},
	{
		"ID": 70,
		"Name": "光的转生纪",
		"PoolType": "CardPoolType_ActivityCardPool",
		"SelectType": "CardSelectType_BothSelect",
		"CrystalCost": 88,
		"TenSelectDiscount": 880,
		"TenSelectCount": 100,
		"TicketId": 4001,
		"CardPoolSelectMaxCount": 0,
		"SortID": 5,
		"Icon": "UI/Common_New_ABS/Icon/Item_CardTicket_Gold.png",
		"ClockResPath": "UI/SelectCard_ABS/Prefab/Clock.prefab",
		"AdsImage": "UI/SelectCard2_ABS/Banner_1801.png",
		"SelectProbabilityInfoID": 5,
		"SelectContentInfoID": 5,
		"ToggleClickImage": "UI/Icon/SelectCardHero_ABS/Icon_1801.png",
		"ToggleUnClickImage": "UI/Icon/SelectCardHero_ABS/Icon_1801.png",
		"MissionCardPoolType": "MissionCardPoolType_Hero",
		"CardPoolDetailDesc": "<color=#008B00>◆光的转生纪-限时召唤◆</color>\n★<color=#DC143C>活动召唤</color>中获得SSR时，其中指定英雄的获得概率大幅度UP！\n★SSR总获取概率与普通英雄召唤相同。\n\n<color=#008B00>◆限定英雄◆</color>\n★本次活动中概率UP的英雄是：\n<color=#DC143C>SSR 阿雷斯</color>、<color=#DC143C>SSR 梅雅</color>。\n\n<color=#008B00>◆「召唤10次」特殊说明◆</color>\n★<color=#DC143C>限时召唤</color>中「召唤10次」，至少获得<color=#DC143C>1</color>位SR英雄。"
	},
	{
		"ID": 71,
		"Name": "剑与魔法之歌",
		"PoolType": "CardPoolType_ActivityCardPool",
		"SelectType": "CardSelectType_BothSelect",
		"CrystalCost": 88,
		"TenSelectDiscount": 880,
		"TenSelectCount": 100,
		"TicketId": 4001,
		"CardPoolSelectMaxCount": 0,
		"SortID": 5,
		"Icon": "UI/Common_New_ABS/Icon/Item_CardTicket_Gold.png",
		"ClockResPath": "UI/SelectCard_ABS/Prefab/Clock.prefab",
		"AdsImage": "UI/SelectCard2_ABS/Banner_1803.png",
		"SelectProbabilityInfoID": 5,
		"SelectContentInfoID": 5,
		"ToggleClickImage": "UI/Icon/SelectCardHero_ABS/Icon_1803.png",
		"ToggleUnClickImage": "UI/Icon/SelectCardHero_ABS/Icon_1803.png",
		"MissionCardPoolType": "MissionCardPoolType_Hero",
		"CardPoolDetailDesc": "<color=#008B00>◆剑与魔法之歌-限时召唤◆</color>\n★<color=#DC143C>活动召唤</color>中获得SSR时，其中指定英雄的获得概率大幅度UP！\n★SSR总获取概率与普通英雄召唤相同。\n\n<color=#008B00>◆限定英雄◆</color>\n★本次活动中概率UP的英雄是：\n<color=#DC143C>SSR 贝蒂</color>、<color=#DC143C>SSR 雪露法妮尔</color>。\n\n<color=#008B00>◆「召唤10次」特殊说明◆</color>\n★<color=#DC143C>限时召唤</color>中「召唤10次」，至少获得<color=#DC143C>1</color>位SR英雄。\n\n<color=#008B00>◆卡池兑换说明◆</color>\n★在本次活动中获得的UP英雄已经6星时，会额外获得<color=#DC143C>1</color>个时空精粹奖励,可在卡池兑换中用于UP英雄之间的转换。"
	},
	{
		"ID": 72,
		"Name": "光之起源精选",
		"PoolType": "CardPoolType_ActivityCardPool",
		"SelectType": "CardSelectType_BothSelect",
		"CrystalCost": 88,
		"TenSelectDiscount": 880,
		"TenSelectCount": 100,
		"TicketId": 4001,
		"CardPoolSelectMaxCount": 0,
		"SortID": 5,
		"Icon": "UI/Common_New_ABS/Icon/Item_CardTicket_Gold.png",
		"ClockResPath": "UI/SelectCard_ABS/Prefab/Clock.prefab",
		"AdsImage": "UI/SelectCard2_ABS/Banner_1802.png",
		"SelectProbabilityInfoID": 5,
		"SelectContentInfoID": 5,
		"ToggleClickImage": "UI/Icon/SelectCardHero_ABS/Icon_1802.png",
		"ToggleUnClickImage": "UI/Icon/SelectCardHero_ABS/Icon_1802.png",
		"MissionCardPoolType": "MissionCardPoolType_Hero",
		"CardPoolDetailDesc": "<color=#008B00>◆光之起源精选-限时召唤◆</color>\n★<color=#DC143C>活动召唤</color>中获得SSR时，其中指定英雄的获得概率大幅度UP！\n★SSR总获取概率与普通英雄召唤相同。\n★<color=#DC143C>精选福利</color>：你从本次活动中首次抽取到的SSR英雄，必定是活动精选列表中你尚未拥有的SSR英雄（若你已经集齐该活动精选列表中所有英雄，则可能获得其他SSR英雄或者重复的精选SSR英雄）。\n\n<color=#008B00>◆限定英雄◆</color>\n★本次活动中概率UP的英雄是：\n<color=#DC143C>SSR 女神化身</color>、<color=#DC143C>SSR 迪哈尔特</color>、<color=#DC143C>SSR 艾拉斯卓</color>。\n\n<color=#008B00>◆「召唤10次」特殊说明◆</color>\n★<color=#DC143C>限时召唤</color>中「召唤10次」，至少获得<color=#DC143C>1</color>位SR英雄。\n\n<color=#008B00>◆卡池兑换说明◆</color>\n★在本次活动中获得的UP英雄已经6星时，会额外获得<color=#DC143C>1</color>个时空精粹奖励,可在卡池兑换中用于UP英雄之间的转换。"
	},
	{
		"ID": 73,
		"Name": "凛仇之逆羽",
		"PoolType": "CardPoolType_ActivityCardPool",
		"SelectType": "CardSelectType_BothSelect",
		"CrystalCost": 88,
		"TenSelectDiscount": 880,
		"TenSelectCount": 100,
		"TicketId": 4001,
		"CardPoolSelectMaxCount": 0,
		"SortID": 5,
		"Icon": "UI/Common_New_ABS/Icon/Item_CardTicket_Gold.png",
		"ClockResPath": "UI/SelectCard_ABS/Prefab/Clock.prefab",
		"AdsImage": "UI/SelectCard3_ABS/Banner_1901.png",
		"SelectProbabilityInfoID": 5,
		"SelectContentInfoID": 5,
		"ToggleClickImage": "UI/Icon/SelectCardHero_ABS/Icon_1901.png",
		"ToggleUnClickImage": "UI/Icon/SelectCardHero_ABS/Icon_1901.png",
		"MissionCardPoolType": "MissionCardPoolType_Hero",
		"CardPoolDetailDesc": "<color=#008B00>◆凛仇之逆羽-限时召唤◆</color>\n★<color=#DC143C>活动召唤</color>中获得SSR时，其中指定英雄的获得概率大幅度UP！\n★SSR总获取概率与普通英雄召唤相同。\n\n<color=#008B00>◆限定英雄◆</color>\n★本次活动中概率UP的英雄是：\n<color=#DC143C>SSR 伊露希亚</color>、<color=#DC143C>SSR 希琳卡</color>。\n\n<color=#008B00>◆「召唤10次」特殊说明◆</color>\n★<color=#DC143C>限时召唤</color>中「召唤10次」，至少获得<color=#DC143C>1</color>位SR英雄。"
	},
	{
		"ID": 74,
		"Name": "回忆尽头之恋",
		"PoolType": "CardPoolType_ActivityCardPool",
		"SelectType": "CardSelectType_BothSelect",
		"CrystalCost": 88,
		"TenSelectDiscount": 880,
		"TenSelectCount": 100,
		"TicketId": 4001,
		"CardPoolSelectMaxCount": 0,
		"SortID": 5,
		"Icon": "UI/Common_New_ABS/Icon/Item_CardTicket_Gold.png",
		"ClockResPath": "UI/SelectCard_ABS/Prefab/Clock.prefab",
		"AdsImage": "UI/SelectCard3_ABS/Banner_1903.png",
		"SelectProbabilityInfoID": 5,
		"SelectContentInfoID": 5,
		"ToggleClickImage": "UI/Icon/SelectCardHero_ABS/Icon_1903.png",
		"ToggleUnClickImage": "UI/Icon/SelectCardHero_ABS/Icon_1903.png",
		"MissionCardPoolType": "MissionCardPoolType_Hero",
		"CardPoolDetailDesc": "<color=#008B00>◆回忆尽头之恋-限时召唤◆</color>\n★<color=#DC143C>活动召唤</color>中获得SSR时，其中指定英雄的获得概率大幅度UP！\n★SSR总获取概率与普通英雄召唤相同。\n★在本卡池中抽取到SSR英雄时，将同时获得在<color=#DC143C>「未尽的羁绊」</color>活动中可以使用的<color=#DC143C>「CP点」</color>。\n\n<color=#008B00>◆限定英雄◆</color>\n★本次活动中概率UP的英雄是：\n<color=#DC143C>SSR 兰迪乌斯</color>、<color=#DC143C>SSR 安洁丽娜</color>。\n\n<color=#008B00>◆「召唤10次」特殊说明◆</color>\n★<color=#DC143C>限时召唤</color>中「召唤10次」，至少获得<color=#DC143C>1</color>位SR英雄。"
	},
	{
		"ID": 75,
		"Name": "流星直击精选",
		"PoolType": "CardPoolType_ActivityCardPool",
		"SelectType": "CardSelectType_BothSelect",
		"CrystalCost": 88,
		"TenSelectDiscount": 880,
		"TenSelectCount": 100,
		"TicketId": 4001,
		"CardPoolSelectMaxCount": 0,
		"SortID": 5,
		"Icon": "UI/Common_New_ABS/Icon/Item_CardTicket_Gold.png",
		"ClockResPath": "UI/SelectCard_ABS/Prefab/Clock.prefab",
		"AdsImage": "UI/SelectCard3_ABS/Banner_1902.png",
		"SelectProbabilityInfoID": 5,
		"SelectContentInfoID": 5,
		"ToggleClickImage": "UI/Icon/SelectCardHero_ABS/Icon_1902.png",
		"ToggleUnClickImage": "UI/Icon/SelectCardHero_ABS/Icon_1902.png",
		"MissionCardPoolType": "MissionCardPoolType_Hero",
		"CardPoolDetailDesc": "<color=#008B00>◆流星直击精选-限时召唤◆</color>\n★<color=#DC143C>活动召唤</color>中获得SSR时，其中指定英雄的获得概率大幅度UP！\n★SSR总获取概率与普通英雄召唤相同。\n★<color=#DC143C>精选福利</color>：你从本次活动中首次抽取到的SSR英雄，必定是活动精选列表中你尚未拥有的SSR英雄（若你已经集齐该活动精选列表中所有英雄，则可能获得其他SSR英雄或者重复的精选SSR英雄）。\n\n<color=#008B00>◆限定英雄◆</color>\n★本次活动中概率UP的英雄是：\n<color=#DC143C>SSR 维拉玖</color>、<color=#DC143C>SSR 雪莉</color>、<color=#DC143C>SSR 欧米伽</color>。\n\n<color=#008B00>◆「召唤10次」特殊说明◆</color>\n★<color=#DC143C>限时召唤</color>中「召唤10次」，至少获得<color=#DC143C>1</color>位SR英雄。\n\n<color=#008B00>◆卡池兑换说明◆</color>\n★在本次活动中获得的UP英雄已经6星时，会额外获得<color=#DC143C>1</color>个时空精粹奖励,可在卡池兑换中用于UP英雄之间的转换。"
	},
	{
		"ID": 76,
		"Name": "永隔的时光",
		"PoolType": "CardPoolType_ActivityCardPool",
		"SelectType": "CardSelectType_BothSelect",
		"CrystalCost": 88,
		"TenSelectDiscount": 880,
		"TenSelectCount": 100,
		"TicketId": 4001,
		"CardPoolSelectMaxCount": 0,
		"SortID": 5,
		"Icon": "UI/Common_New_ABS/Icon/Item_CardTicket_Gold.png",
		"ClockResPath": "UI/SelectCard_ABS/Prefab/Clock.prefab",
		"AdsImage": "UI/SelectCard3_ABS/Banner_1904.png",
		"SelectProbabilityInfoID": 5,
		"SelectContentInfoID": 5,
		"ToggleClickImage": "UI/Icon/SelectCardHero_ABS/Icon_1904.png",
		"ToggleUnClickImage": "UI/Icon/SelectCardHero_ABS/Icon_1904.png",
		"MissionCardPoolType": "MissionCardPoolType_Hero",
		"CardPoolDetailDesc": "<color=#008B00>◆永隔的时光-限时召唤◆</color>\n★<color=#DC143C>活动召唤</color>中获得SSR时，其中指定英雄的获得概率大幅度UP！\n★SSR总获取概率与普通英雄召唤相同。\n★在本卡池中抽取到SSR英雄时，将同时获得在<color=#DC143C>「未尽的羁绊」</color>活动中可以使用的<color=#DC143C>「CP点」</color>。\n\n<color=#008B00>◆限定英雄◆</color>\n★本次活动中概率UP的英雄是：\n<color=#DC143C>SSR 兰芳特</color>、<color=#DC143C>SSR 谜之骑士</color>。\n\n<color=#008B00>◆「召唤10次」特殊说明◆</color>\n★<color=#DC143C>限时召唤</color>中「召唤10次」，至少获得<color=#DC143C>1</color>位SR英雄。"
	},
	{
		"ID": 77,
		"Name": "缘起的邂逅",
		"PoolType": "CardPoolType_ActivityCardPool",
		"SelectType": "CardSelectType_BothSelect",
		"CrystalCost": 88,
		"TenSelectDiscount": 880,
		"TenSelectCount": 100,
		"TicketId": 4001,
		"CardPoolSelectMaxCount": 0,
		"SortID": 5,
		"Icon": "UI/Common_New_ABS/Icon/Item_CardTicket_Gold.png",
		"ClockResPath": "UI/SelectCard_ABS/Prefab/Clock.prefab",
		"AdsImage": "UI/SelectCard3_ABS/Banner_1905.png",
		"SelectProbabilityInfoID": 5,
		"SelectContentInfoID": 5,
		"ToggleClickImage": "UI/Icon/SelectCardHero_ABS/Icon_1905.png",
		"ToggleUnClickImage": "UI/Icon/SelectCardHero_ABS/Icon_1905.png",
		"MissionCardPoolType": "MissionCardPoolType_Hero",
		"CardPoolDetailDesc": "<color=#008B00>◆缘起的邂逅-限时召唤◆</color>\n★<color=#DC143C>活动召唤</color>中获得SSR时，其中指定英雄的获得概率大幅度UP！\n★SSR总获取概率与普通英雄召唤相同。\n★在本卡池中抽取到SSR英雄时，将同时获得在<color=#DC143C>「未尽的羁绊」</color>活动中可以使用的<color=#DC143C>「CP点」</color>。\n\n<color=#008B00>◆限定英雄◆</color>\n★本次活动中概率UP的英雄是：\n<color=#DC143C>SSR 西格玛</color>、<color=#DC143C>SSR 克拉蕾特</color>。\n\n<color=#008B00>◆「召唤10次」特殊说明◆</color>\n★<color=#DC143C>限时召唤</color>中「召唤10次」，至少获得<color=#DC143C>1</color>位SR英雄。"
	}
]