[
	{
		"ID": 1,
		"Price": 40
	},
	{
		"ID": 2,
		"Price": 60
	},
	{
		"ID": 3,
		"Price": 100
	},
	{
		"ID": 4,
		"Price": 150
	},
	{
		"ID": 5,
		"Price": 200
	},
	{
		"ID": 6,
		"Price": 250
	},
	{
		"ID": 7,
		"Price": 300
	},
	{
		"ID": 8,
		"Price": 350
	},
	{
		"ID": 9,
		"Price": 400
	},
	{
		"ID": 10,
		"Price": 500
	}
]