[
	{
		"ID": 101,
		"Name": "魔剑",
		"Image": "UI/Icon/HeroSkin_ABS/Skin/Skin_Sherry_01.png",
		"SpineAssetPath": "Spine/Char/Flakia_ABS/Flakia_prefab.prefab"
	},
	{
		"ID": 1201,
		"Name": "另一位勇者",
		"Image": "UI/Icon/HeroSkin_ABS/Skin/Skin_Elwin_01.png",
		"SpineAssetPath": "Spine/Char/Elwin_ABS/Elwin_Skin_Prefab.prefab"
	},
	{
		"ID": 1501,
		"Name": "樱之巫女",
		"Image": "UI/Icon/HeroSkin_ABS/Skin/Skin_Riana_01.png",
		"SpineAssetPath": "Spine/Char/Riana_ABS/Riana_Skin_Prefab.prefab"
	},
	{
		"ID": 601,
		"Name": "西部世界",
		"Image": "UI/Icon/HeroSkin_ABS/Skin/Skin_Leon_01.png",
		"SpineAssetPath": "Spine/Char/Leon_ABS/Leon_Skin_Prefab.prefab"
	},
	{
		"ID": 701,
		"Name": "第六天魔王",
		"Image": "UI/Icon/HeroSkin_ABS/Skin/Skin_Bernhardt_01.png",
		"SpineAssetPath": "Spine/Char/Bernhardt_ABS/Bernhardt_skin_Prefab.prefab"
	},
	{
		"ID": 801,
		"Name": "旋律的妖精",
		"Image": "UI/Icon/HeroSkin_ABS/Skin/Skin_Lana_01.png",
		"SpineAssetPath": "Spine/Char/Lana_ABS/Lana_Skin_Prefab.prefab"
	},
	{
		"ID": 1401,
		"Name": "落跑天使",
		"Image": "UI/Icon/HeroSkin_ABS/Skin/Skin_Sherry_02.png",
		"SpineAssetPath": "Spine/Char/Sherry_ABS/SherryAngel_Skin_Prefab.prefab"
	},
	{
		"ID": 1402,
		"Name": "卡尔萨斯公主",
		"Image": "UI/Icon/HeroSkin_ABS/Skin/Skin_Sherry_01.png",
		"SpineAssetPath": "Spine/Char/Sherry_ABS/Sherry_Skin_Prefab.prefab"
	},
	{
		"ID": 602,
		"Name": "浮浪之刃",
		"Image": "UI/Icon/HeroSkin_ABS/Skin/Skin_Leon_02.png",
		"SpineAssetPath": "Spine/Char/Leon_ABS/Leon_Skin2_Prefab.prefab"
	},
	{
		"ID": 1202,
		"Name": "天霸绝枪",
		"Image": "UI/Icon/HeroSkin_ABS/Skin/Skin_Elwin_02.png",
		"SpineAssetPath": "Spine/Char/Elwin_ABS/Elwin_Skin02_Prefab.prefab"
	},
	{
		"ID": 1001,
		"Name": "火红的独奏者",
		"Image": "UI/Icon/HeroSkin_ABS/Skin/Skin_Ledyn_01.png",
		"SpineAssetPath": "Spine/Char/Ledin_ABS/Ledin_Skin_Prefab.prefab"
	},
	{
		"ID": 2501,
		"Name": "重低音狂潮",
		"Image": "UI/Icon/HeroSkin_ABS/Skin/Skin_Alutemurat_01.png",
		"SpineAssetPath": "Spine/Char/Alutemurat_ABS/Alutemurat_Skin_Prefab.prefab"
	},
	{
		"ID": 2101,
		"Name": "行星防卫官",
		"Image": "UI/Icon/HeroSkin_ABS/Skin/Skin_Bargas_01.png",
		"SpineAssetPath": "Spine/Char/Bargas_ABS/Bargas_skin_Prefab.prefab"
	},
	{
		"ID": 1801,
		"Name": "传奇女帝",
		"Image": "UI/Icon/HeroSkin_ABS/Skin/Skin_Imelda_01.png",
		"SpineAssetPath": "Spine/Char/Imelda_ABS/Imelda_Skin_Prefab.prefab"
	},
	{
		"ID": 501,
		"Name": "防暴女警",
		"Image": "UI/Icon/HeroSkin_ABS/Skin/Skin_Chris_01.png",
		"SpineAssetPath": "Spine/Char/Chris_ABS/Chris_Skin_Prefab.prefab"
	},
	{
		"ID": 2601,
		"Name": "战争女神",
		"Image": "UI/Icon/HeroSkin_ABS/Skin/Skin_Luna_01.png",
		"SpineAssetPath": "Spine/Char/Luna_ABS/Luna_Skin_Prefab.prefab"
	},
	{
		"ID": 5201,
		"Name": "龙游灵刃",
		"Image": "UI/Icon/HeroSkin_ABS/Skin/Skin_Angelina_01.png",
		"SpineAssetPath": "Spine/Char/Angelina_ABS/Angelina_Skin_Prefab.prefab"
	},
	{
		"ID": 5101,
		"Name": "竹取清辉",
		"Image": "UI/Icon/HeroSkin_ABS/Skin/Skin_SchelFaniel_01.png",
		"SpineAssetPath": "Spine/Char/Schelfaniel_ABS/Schelfaniel_Skin01_Prefab.prefab"
	},
	{
		"ID": 1301,
		"Name": "魔法奇缘",
		"Image": "UI/Icon/HeroSkin_ABS/Skin/Skin_Hein_01.png",
		"SpineAssetPath": "Spine/Char/Hein_ABS/Hein_Skin_Prefab.prefab"
	},
	{
		"ID": 4901,
		"Name": "夏日倩影",
		"Image": "UI/Icon/HeroSkin_ABS/Skin/Skin_Fana_SP01.png",
		"SpineAssetPath": "Spine/Char/Fana_ABS/Fana_Skin_Prefab.prefab"
	},
	{
		"ID": 3301,
		"Name": "阳光热梦",
		"Image": "UI/Icon/HeroSkin_ABS/Skin/Skin_Freya_SP01.png",
		"SpineAssetPath": "Spine/Char/Freya_ABS/Freya_Skin02_Prefab.prefab"
	},
	{
		"ID": 802,
		"Name": "海滨丽人",
		"Image": "UI/Icon/HeroSkin_ABS/Skin/Skin_Lana_SP01.png",
		"SpineAssetPath": "Spine/Char/Lana_ABS/Lana_Skin3_Prefab.prefab"
	},
	{
		"ID": 2602,
		"Name": "水弹直击",
		"Image": "UI/Icon/HeroSkin_ABS/Skin/Skin_Luna_SP01.png",
		"SpineAssetPath": "Spine/Char/Luna_ABS/Luna_Skin02_Prefab.prefab"
	},
	{
		"ID": 1101,
		"Name": "浪漫一夏",
		"Image": "UI/Icon/HeroSkin_ABS/Skin/Skin_Norm_SP01.png",
		"SpineAssetPath": "Spine/Char/Nahm_ABS/Nahm_Skin02_Prefab.prefab"
	},
	{
		"ID": 2901,
		"Name": "沙滩宝贝",
		"Image": "UI/Icon/HeroSkin_ABS/Skin/Skin_Tialice_SP01.png",
		"SpineAssetPath": "Spine/Char/Tialice_ABS/Tialice_Skin01_Prefab.prefab"
	},
	{
		"ID": 803,
		"Name": "月下红樱",
		"Image": "UI/Icon/HeroSkin_ABS/Skin/Skin_Lana_02.png",
		"SpineAssetPath": "Spine/Char/Lana_ABS/Lana_Skin2_Prefab.prefab"
	},
	{
		"ID": 901,
		"Name": "灵魂收割者",
		"Image": "UI/Icon/HeroSkin_ABS/Skin/Skin_Bozel_01.png",
		"SpineAssetPath": "Spine/Char/Bozel_ABS/Bozel_Skin_Prefab.prefab"
	},
	{
		"ID": 3601,
		"Name": "致命绅士",
		"Image": "UI/Icon/HeroSkin_ABS/Skin/Skin_SilverWolf_01.png",
		"SpineAssetPath": "Spine/Char/SilverWolf_ABS/SilverWolf_Skin_Prefab.prefab"
	},
	{
		"ID": 2801,
		"Name": "魔剑精灵",
		"Image": "UI/Icon/HeroSkin_ABS/Skin/Skin_Zalrahda_01.png",
		"SpineAssetPath": "Spine/Char/Zalrahda_ABS/Zalrahda01_Prefab.prefab"
	},
	{
		"ID": 1102,
		"Name": "星海领航员",
		"Image": "UI/Icon/HeroSkin_ABS/Skin/Skin_Norm_01.png",
		"SpineAssetPath": "Spine/Char/Nahm_ABS/Nahm_Skin_Prefab.prefab"
	},
	{
		"ID": 2701,
		"Name": "雷神之锤",
		"Image": "UI/Icon/HeroSkin_ABS/Skin/Skin_Dehault_01.png",
		"SpineAssetPath": "Spine/Char/Dehault_ABS/Dehault_Skin_Prefab.prefab"
	},
	{
		"ID": 3302,
		"Name": "斯巴达克斯",
		"Image": "UI/Icon/HeroSkin_ABS/Skin/Skin_Freya_01.png",
		"SpineAssetPath": "Spine/Char/Freya_ABS/Freya_Skin_Prefab.prefab"
	},
	{
		"ID": 1701,
		"Name": "节奏的爆点",
		"Image": "UI/Icon/HeroSkin_ABS/Skin/Skin_Eggbert_01.png",
		"SpineAssetPath": "Spine/Char/Eggbert_ABS/Eggbert_Skin01_Prefab.prefab"
	},
	{
		"ID": 102,
		"Name": "执事美酒",
		"Image": "UI/Icon/HeroSkin_ABS/Skin/Skin_Matthew_01.png",
		"SpineAssetPath": "Spine/Char/Mathew_ABS/Mathew_Skin01_Prefab.prefab"
	},
	{
		"ID": 301,
		"Name": "星级大厨",
		"Image": "UI/Icon/HeroSkin_ABS/Skin/Skin_Grenier_01.png",
		"SpineAssetPath": "Spine/Char/Grenier_ABS/Grenier_Skin_Prefab.prefab"
	},
	{
		"ID": 401,
		"Name": "甜心女仆",
		"Image": "UI/Icon/HeroSkin_ABS/Skin/Skin_Aimeeda_01.png",
		"SpineAssetPath": "Spine/Char/Aimeeda_ABS/Aimeeda_Skin01_Prefab.prefab"
	},
	{
		"ID": 2902,
		"Name": "圣女天降",
		"Image": "UI/Icon/HeroSkin_ABS/Skin/Skin_Chris_02.png",
		"SpineAssetPath": "Spine/Char/Tialice_ABS/Tialice_Skin02_Prefab.prefab"
	},
	{
		"ID": 5301,
		"Name": "暗夜猎手",
		"Image": "UI/Icon/HeroSkin_ABS/Skin/Skin_Ranford_01.png",
		"SpineAssetPath": "Spine/Char/Ranford_ABS/Ranford_Skin01_Prefab.prefab"
	},
	{
		"ID": 5401,
		"Name": "魔血妖姬",
		"Image": "UI/Icon/HeroSkin_ABS/Skin/Skin_Listell_01.png",
		"SpineAssetPath": "Spine/Char/Listell_ABS/Listell_Skin01_Prefab.prefab"
	},
	{
		"ID": 1502,
		"Name": "千年之恋",
		"Image": "UI/Icon/HeroSkin_ABS/Skin/Skin_Riana_02.png",
		"SpineAssetPath": "Spine/Char/Riana_ABS/Riana_Skin02_Prefab.prefab"
	},
	{
		"ID": 5501,
		"Name": "堕夜天使",
		"Image": "UI/Icon/HeroSkin_ABS/Skin/Skin_Randiovs_01.png",
		"SpineAssetPath": "Spine/Char/Landius_ABS/Landius_Skin01_Prefab.prefab"
	},
	{
		"ID": 5601,
		"Name": "霹雳小恶魔",
		"Image": "UI/Icon/HeroSkin_ABS/Skin/Skin_Rachel_01.png",
		"SpineAssetPath": "Spine/Char/Rachel_ABS/Rachel_Skin01_Prefab.prefab"
	},
	{
		"ID": 1403,
		"Name": "雪莉圣诞",
		"Image": "UI/Icon/HeroSkin_ABS/Skin/Skin_Sherry_03.png",
		"SpineAssetPath": "Spine/Char/Sherry_ABS/Sherry_Skin03_Prefab.prefab"
	},
	{
		"ID": 5102,
		"Name": "雪露法妮尔圣诞",
		"Image": "UI/Icon/HeroSkin_ABS/Skin/Skin_SchelFaniel_02.png",
		"SpineAssetPath": "Spine/Char/Schelfaniel_ABS/Schelfaniel_Skin02_Prefab.prefab"
	},
	{
		"ID": 5202,
		"Name": "安洁丽娜圣诞",
		"Image": "UI/Icon/HeroSkin_ABS/Skin/Skin_Angelina_02.png",
		"SpineAssetPath": "Spine/Char/Angelina_ABS/Angelina_Skin02_Prefab.prefab"
	},
	{
		"ID": 1203,
		"Name": "红之骑士",
		"Image": "UI/Icon/HeroSkin_ABS/Skin/Skin_Elwin_03.png",
		"SpineAssetPath": "Spine/Char/Elwin_ABS/Elwin_Skin03_Prefab.prefab"
	},
	{
		"ID": 603,
		"Name": "苍之骑士",
		"Image": "UI/Icon/HeroSkin_ABS/Skin/Skin_Leon_03.png",
		"SpineAssetPath": "Spine/Char/Leon_ABS/Leon_Skin3_Prefab.prefab"
	},
	{
		"ID": 1302,
		"Name": "超时空公主",
		"Image": "UI/Icon/HeroSkin_ABS/Skin/Skin_Hein_02.png",
		"SpineAssetPath": "Spine/Char/Hein_ABS/Hein_Skin02_Prefab.prefab"
	},
	{
		"ID": 7001,
		"Name": "白花恋诗",
		"Image": "UI/Icon/HeroSkin_ABS/Skin/Skin_Joshua_01.png",
		"SpineAssetPath": "Spine/Char/Joshua_ABS/Joshua_Skin01_Prefab.prefab"
	},
	{
		"ID": 402,
		"Name": "艾梅达唐僧",
		"Image": "UI/Icon/HeroSkin_ABS/Skin/Skin_Aimeeda_02.png",
		"SpineAssetPath": "Spine/Char/Aimeeda_ABS/Aimeeda_Skin02_Prefab.prefab"
	},
	{
		"ID": 2802,
		"Name": "泽瑞达白龙",
		"Image": "UI/Icon/HeroSkin_ABS/Skin/Skin_Zalrahda_02.png",
		"SpineAssetPath": "Spine/Char/Zalrahda_ABS/Zalrahda_Skin02_Prefab.prefab"
	},
	{
		"ID": 502,
		"Name": "克丽丝猫",
		"Image": "UI/Icon/HeroSkin_ABS/Skin/Skin_Chris_03.png",
		"SpineAssetPath": "Spine/Char/Chris_ABS/Chris_Skin02_Prefab.prefab"
	},
	{
		"ID": 7201,
		"Name": "黑骑士",
		"Image": "UI/Icon/HeroSkin_ABS/Skin/Skin_Leonhardt.png",
		"SpineAssetPath": "Spine/Char/Leonhardt_ABS/Leonhardt_Skin01_Prefab.prefab"
	},
	{
		"ID": 1002,
		"Name": "战神阿瑞斯",
		"Image": "UI/Icon/HeroSkin_ABS/Skin/Skin_Ledyn_02.png",
		"SpineAssetPath": "Spine/Char/Ledin_ABS/Ledin_Skin02_Prefab.prefab"
	},
	{
		"ID": 2502,
		"Name": "海王元帅",
		"Image": "UI/Icon/HeroSkin_ABS/Skin/Skin_Alutemurat_02.png",
		"SpineAssetPath": "Spine/Char/Alutemurat_ABS/Alutemurat_Skin02_Prefab.prefab"
	},
	{
		"ID": 6001,
		"Name": "音乐王子",
		"Image": "UI/Icon/HeroSkin_ABS/Skin/Skin_Sigma_01.png",
		"SpineAssetPath": "Spine/Char/Sigma_ABS/Sigma_Skin01_Prefab.prefab"
	},
	{
		"ID": 6101,
		"Name": "未来偶像",
		"Image": "UI/Icon/HeroSkin_ABS/Skin/Skin_Lambda_01.png",
		"SpineAssetPath": "Spine/Char/Lambda_ABS/Lambda_Skin01_Prefab.prefab"
	},
	{
		"ID": 902,
		"Name": "冥渊之主",
		"Image": "UI/Icon/HeroSkin_ABS/Skin/Skin_Bozel_02.png",
		"SpineAssetPath": "Spine/Char/Bozel_ABS/Bozel_Skin02_Prefab.prefab"
	},
	{
		"ID": 3201,
		"Name": "千年智瞳",
		"Image": "UI/Icon/HeroSkin_ABS/Skin/Skin_EmmaLink_01.png",
		"SpineAssetPath": "Spine/Char/Emmalink_ABS/Emmalink_Skin01_Prefab.prefab"
	},
	{
		"ID": 5701,
		"Name": "自由远行者",
		"Image": "UI/Icon/HeroSkin_ABS/Skin/Skin_Willer_01.png",
		"SpineAssetPath": "Spine/Char/Viler_ABS/Viler_Skin01_Prefab.prefab"
	},
	{
		"ID": 1204,
		"Name": "霸者",
		"Image": "UI/Icon/HeroSkin_ABS/Skin/Skin_Elwin_04.png",
		"SpineAssetPath": "Spine/Char/Elwin_ABS/Elwin_Skin04_Prefab.prefab"
	},
	{
		"ID": 5402,
		"Name": "注射天使",
		"Image": "UI/Icon/HeroSkin_ABS/Skin/Skin_Listell_02.png",
		"SpineAssetPath": "Spine/Char/Listell_ABS/Listell_Skin02_Prefab.prefab"
	},
	{
		"ID": 2001,
		"Name": "飞驰少女",
		"Image": "UI/Icon/HeroSkin_ABS/Skin/Skin_Sonia_01.png",
		"SpineAssetPath": "Spine/Char/Sonia_ABS/Sonia_Skin01_Prefab.prefab"
	},
	{
		"ID": 5502,
		"Name": "天目一命",
		"Image": "UI/Icon/HeroSkin_ABS/Skin/Skin_Randiovs_02.png",
		"SpineAssetPath": "Spine/Char/Landius_ABS/Landius_Skin02_Prefab.prefab"
	},
	{
		"ID": 7901,
		"Name": "樱花武装",
		"Image": "UI/Icon/HeroSkin_ABS/Skin/Skin_Sakura_01.png",
		"SpineAssetPath": "Spine/Char/Sakura_ABS/Sakura_Skin01_Prefab.prefab"
	},
	{
		"ID": 8001,
		"Name": "樱花吹雪",
		"Image": "UI/Icon/HeroSkin_ABS/Skin/Skin_Sumire_01.png",
		"SpineAssetPath": "Spine/Char/Sumire_ABS/Sumire_Skin01_Prefab.prefab"
	},
	{
		"ID": 8101,
		"Name": "樱花甜心",
		"Image": "UI/Icon/HeroSkin_ABS/Skin/Skin_Alice_01.png",
		"SpineAssetPath": "Spine/Char/Alice_ABS/Alice_Skin01_Prefab.prefab"
	},
	{
		"ID": 6601,
		"Name": "魔女公主",
		"Image": "UI/Icon/HeroSkin_ABS/Skin/Skin_Claret_01.png",
		"SpineAssetPath": "Spine/Char/Clarett_ABS/Clarett_Skin01_Prefab.prefab"
	},
	{
		"ID": 8801,
		"Name": "丛林女王",
		"Image": "UI/Icon/HeroSkin_ABS/Skin/Skin_Alustriel_01.png",
		"SpineAssetPath": "Spine/Char/Alustriel_ABS/Alustriel_Skin01_Prefab.prefab"
	},
	{
		"ID": 2603,
		"Name": "露娜音乐会",
		"Image": "UI/Icon/HeroSkin_ABS/Skin/Skin_Luna_02.png",
		"SpineAssetPath": "Spine/Char/Luna_ABS/Luna_Skin03_Prefab.prefab"
	},
	{
		"ID": 2803,
		"Name": "泽瑞达音乐会",
		"Image": "UI/Icon/HeroSkin_ABS/Skin/Skin_Zalrahda_03.png",
		"SpineAssetPath": "Spine/Char/Zalrahda_ABS/Zalrahda_Skin03_Prefab.prefab"
	},
	{
		"ID": 103,
		"Name": "马修音乐会",
		"Image": "UI/Icon/HeroSkin_ABS/Skin/Skin_Matthew_02.png",
		"SpineAssetPath": "Spine/Char/Mathew_ABS/Mathew_Skin02_Prefab.prefab"
	},
	{
		"ID": 403,
		"Name": "艾梅达音乐会",
		"Image": "UI/Icon/HeroSkin_ABS/Skin/Skin_Aimeeda_03.png",
		"SpineAssetPath": "Spine/Char/Aimeeda_ABS/Aimeeda_Skin03_Prefab.prefab"
	},
	{
		"ID": 1503,
		"Name": "莉亚娜音乐会",
		"Image": "UI/Icon/HeroSkin_ABS/Skin/Skin_Riana_03.png",
		"SpineAssetPath": "Spine/Char/Riana_ABS/Riana_Skin03_Prefab.prefab"
	},
	{
		"ID": 6701,
		"Name": "喧哗上等",
		"Image": "UI/Icon/HeroSkin_ABS/Skin/Skin_Omega_01.png",
		"SpineAssetPath": "Spine/Char/Omega_ABS/Omega_Skin01_Prefab.prefab"
	},
	{
		"ID": 8901,
		"Name": "崩坏之刃",
		"Image": "UI/Icon/HeroSkin_ABS/Skin/Skin_Yulia_01.png",
		"SpineAssetPath": "Spine/Char/Yulia_ABS/Yulia_Skin01_Prefab.prefab"
	},
	{
		"ID": 3701,
		"Name": "太鼓神侍",
		"Image": "UI/Icon/HeroSkin_ABS/Skin/Skin_Zigodlla_01.png",
		"SpineAssetPath": "Spine/Char/Zigodlla_ABS/Zigodlla_Skin01_Prefab.prefab"
	},
	{
		"ID": 2102,
		"Name": "性感炙烤",
		"Image": "UI/Icon/HeroSkin_ABS/Skin/Skin_Bargas_02.png",
		"SpineAssetPath": "Spine/Char/Bargas_ABS/Bargas_Skin02_Prefab.prefab"
	},
	{
		"ID": 3303,
		"Name": "花火琉璃",
		"Image": "UI/Icon/HeroSkin_ABS/Skin/Skin_Freya_02.png",
		"SpineAssetPath": "Spine/Char/Freya_ABS/Freya_Skin03_Prefab.prefab"
	},
	{
		"ID": 2903,
		"Name": "神乐鼓姬",
		"Image": "UI/Icon/HeroSkin_ABS/Skin/Skin_Tialice_02.png",
		"SpineAssetPath": "Spine/Char/Tialice_ABS/Tialice_Skin03_Prefab.prefab"
	},
	{
		"ID": 2702,
		"Name": "竹影剑心",
		"Image": "UI/Icon/HeroSkin_ABS/Skin/Skin_Dehault_02.png",
		"SpineAssetPath": "Spine/Char/Dehault_ABS/Dehault_Skin02_Prefab.prefab"
	},
	{
		"ID": 899,
		"Name": "漫长的告白",
		"Image": "UI/Icon/HeroSkin_ABS/Skin/Skin_Lana_03.png",
		"SpineAssetPath": "Spine/Char/Lana_ABS/Lana_Skin4_Prefab.prefab"
	},
	{
		"ID": 1499,
		"Name": "天空的恋人",
		"Image": "UI/Icon/HeroSkin_ABS/Skin/Skin_Sherry_04.png",
		"SpineAssetPath": "Spine/Char/Sherry_ABS/Sherry_Skin05_Prefab.prefab"
	},
	{
		"ID": 3901,
		"Name": "圣枪魔影",
		"Image": "UI/Icon/HeroSkin_ABS/Skin/Skin_Flakia_01.png",
		"SpineAssetPath": "Spine/Char/Flakia_ABS/Flakia_Skin01_Prefab.prefab"
	},
	{
		"ID": 8201,
		"Name": "魔族大隔世",
		"Image": "UI/Icon/HeroSkin_ABS/Skin/Skin_Yuusuke_01.png",
		"SpineAssetPath": "Spine/Char/Yuusuke_ABS/Yuusuke_Skin01_Prefab.prefab"
	},
	{
		"ID": 8401,
		"Name": "蔷薇妖狐",
		"Image": "UI/Icon/HeroSkin_ABS/Skin/Skin_Kurama_01.png",
		"SpineAssetPath": "Spine/Char/Kurama_ABS/Kurama_Skin01_Prefab.prefab"
	},
	{
		"ID": 8301,
		"Name": "黑龙炎铠",
		"Image": "UI/Icon/HeroSkin_ABS/Skin/Skin_Hiei_01.png",
		"SpineAssetPath": "Spine/Char/Hiei_ABS/Hiei_Skin01_Prefab.prefab"
	},
	{
		"ID": 5302,
		"Name": "统御之刃",
		"Image": "UI/Icon/HeroSkin_ABS/Skin/Skin_Ranford_02.png",
		"SpineAssetPath": "Spine/Char/Ranford_ABS/Ranford_Skin02_Prefab.prefab"
	},
	{
		"ID": 702,
		"Name": "巅峰伟力",
		"Image": "UI/Icon/HeroSkin_ABS/Skin/Skin_Bernhardt_02.png",
		"SpineAssetPath": "Spine/Char/Bernhardt_ABS/Bernhardt_Skin02_Prefab.prefab"
	},
	{
		"ID": 8802,
		"Name": "职场妖精",
		"Image": "UI/Icon/HeroSkin_ABS/Skin/Skin_Alustriel_02.png",
		"SpineAssetPath": "Spine/Char/Alustriel_ABS/Alustriel_Skin02_Prefab.prefab"
	},
	{
		"ID": 6301,
		"Name": "觅心游医",
		"Image": "UI/Icon/HeroSkin_ABS/Skin/Skin_Lainforce_01.png",
		"SpineAssetPath": "Spine/Char/Lainforce_ABS/Lainforce_Skin01_Prefab.prefab"
	},
	{
		"ID": 104,
		"Name": "铸剑的英雄",
		"Image": "UI/Icon/HeroSkin_ABS/Skin/Skin_Matthew_03.png",
		"SpineAssetPath": "Spine/Char/Mathew_ABS/Mathew_Skin03_Prefab.prefab"
	},
	{
		"ID": 2804,
		"Name": "羁绊的锋刃",
		"Image": "UI/Icon/HeroSkin_ABS/Skin/Skin_Zalrahda_05.png",
		"SpineAssetPath": "Spine/Char/Zalrahda_ABS/Zalrahda_Skin05_Prefab.prefab"
	},
	{
		"ID": 2201,
		"Name": "光辉的启蒙",
		"Image": "UI/Icon/HeroSkin_ABS/Skin/Skin_Jessica_01.png",
		"SpineAssetPath": "Spine/Char/Jessica_ABS/Jessica_Skin01_Prefab.prefab"
	},
	{
		"ID": 8701,
		"Name": "绯红之剑",
		"Image": "UI/Icon/HeroSkin_ABS/Skin/Skin_Betty_01.png",
		"SpineAssetPath": "Spine/Char/Betty_ABS/Betty_Skin01_Prefab.prefab"
	},
	{
		"ID": 2899,
		"Name": "蔚蓝宝贝",
		"Image": "UI/Icon/HeroSkin_ABS/Skin/Skin_Zalrahda_04.png",
		"SpineAssetPath": "Spine/Char/Zalrahda_ABS/Zalrahda_Skin04_Prefab.prefab"
	},
	{
		"ID": 1899,
		"Name": "炽热丽姬",
		"Image": "UI/Icon/HeroSkin_ABS/Skin/Skin_Imelda_02.png",
		"SpineAssetPath": "Spine/Char/Imelda_ABS/Imelda_Skin02_Prefab.prefab"
	},
	{
		"ID": 6102,
		"Name": "冰原雪女",
		"Image": "UI/Icon/HeroSkin_ABS/Skin/Skin_Lambda_02.png",
		"SpineAssetPath": "Spine/Char/Lambda_ABS/Lambda_Skin02_Prefab.prefab"
	},
	{
		"ID": 9201,
		"Name": "真红少女",
		"Image": "UI/Icon/HeroSkin_ABS/Skin/Skin_PeakJessica_01.png",
		"SpineAssetPath": "Spine/Char/PeakJessica_ABS/PeakJessica_Skin01_Prefab.prefab"
	},
	{
		"ID": 9101,
		"Name": "黑金时代",
		"Image": "UI/Icon/HeroSkin_ABS/Skin/Skin_Emilia_01.png",
		"SpineAssetPath": "Spine/Char/Emilia_ABS/Emilia_Skin01_Prefab.prefab"
	},
	{
		"ID": 2904,
		"Name": "堇色月姬",
		"Image": "UI/Icon/HeroSkin_ABS/Skin/Skin_Tialice_03.png",
		"SpineAssetPath": "Spine/Char/Tialice_ABS/Tialice_Skin04_Prefab.prefab"
	},
	{
		"ID": 5199,
		"Name": "活泼助力",
		"Image": "UI/Icon/HeroSkin_ABS/Skin/Skin_SchelFaniel_03.png",
		"SpineAssetPath": "Spine/Char/Schelfaniel_ABS/Schelfaniel_Skin03_Prefab.prefab"
	},
	{
		"ID": 5299,
		"Name": "闪耀应援",
		"Image": "UI/Icon/HeroSkin_ABS/Skin/Skin_Angelina_03.png",
		"SpineAssetPath": "Spine/Char/Angelina_ABS/Angelina_Skin03_Prefab.prefab"
	},
	{
		"ID": 6501,
		"Name": "寅虎之拳",
		"Image": "UI/Icon/HeroSkin_ABS/Skin/Skin_Virash_01.png",
		"SpineAssetPath": "Spine/Char/Virash_ABS/Virash_Skin01_Prefab.prefab"
	},
	{
		"ID": 9301,
		"Name": "乐园守护者",
		"Image": "UI/Icon/HeroSkin_ABS/Skin/Skin_MysteryKnight_01.png",
		"SpineAssetPath": "Spine/Char/MysteryKnight_ABS/MysteryKnight_Skin01_Prefab.prefab"
	},
	{
		"ID": 6002,
		"Name": "守望之刃",
		"Image": "UI/Icon/HeroSkin_ABS/Skin/Skin_Sigma_02.png",
		"SpineAssetPath": "Spine/Char/Sigma_ABS/Sigma_Skin02_Prefab.prefab"
	},
	{
		"ID": 3801,
		"Name": "狂欢之夜",
		"Image": "UI/Icon/HeroSkin_ABS/Skin/Skin_JellioruLela_01.png",
		"SpineAssetPath": "Spine/Char/Jellioru&Lela_ABS/Jellioru&Lela_Skin01_Prefab.prefab"
	},
	{
		"ID": 3101,
		"Name": "魅心狼女",
		"Image": "UI/Icon/HeroSkin_ABS/Skin/Skin_Sofia_01.png",
		"SpineAssetPath": "Spine/Char/Sofia_ABS/Sofia_Skin01_Prefab.prefab"
	},
	{
		"ID": 604,
		"Name": "真源的帝王",
		"Image": "UI/Icon/HeroSkin_ABS/Skin/Skin_Leon_04.png",
		"SpineAssetPath": "Spine/Char/Leon_ABS/Leon_Skin04_Prefab.prefab"
	},
	{
		"ID": 3401,
		"Name": "钛金武士",
		"Image": "UI/Icon/HeroSkin_ABS/Skin/Skin_Kirikaze_01.png",
		"SpineAssetPath": "Spine/Char/Kirikaze_ABS/Kirikaze_Skin01_Prefab.prefab"
	},
	{
		"ID": 9401,
		"Name": "阿卡娅光之回响",
		"Image": "UI/Icon/HeroSkin_ABS/Skin/Skin_Aka_01.png",
		"SpineAssetPath": "Spine/Char/Aka_ABS/Aka_Skin01_Prefab.prefab"
	},
	{
		"ID": 6401,
		"Name": "布琳达光之回响",
		"Image": "UI/Icon/HeroSkin_ABS/Skin/Skin_Brenda_01.png",
		"SpineAssetPath": "Spine/Char/Brenda_ABS/Brenda_Skin01_Prefab.prefab"
	},
	{
		"ID": 6602,
		"Name": "克拉蕾特哲学",
		"Image": "UI/Icon/HeroSkin_ABS/Skin/Skin_Claret_02.png",
		"SpineAssetPath": "Spine/Char/Clarett_ABS/Clarett_Skin02_Prefab.prefab"
	},
	{
		"ID": 5602,
		"Name": "蕾伽尔观星者",
		"Image": "UI/Icon/HeroSkin_ABS/Skin/Skin_Rachel_02.png",
		"SpineAssetPath": "Spine/Char/Rachel_ABS/Rachel_Skin02_Prefab.prefab"
	},
	{
		"ID": 2503,
		"Name": "元帅学生会",
		"Image": "UI/Icon/HeroSkin_ABS/Skin/Skin_Alutemurat_03.png",
		"SpineAssetPath": "Spine/Char/Alutemurat_ABS/Alutemurat_Skin03_Prefab.prefab"
	},
	{
		"ID": 3001,
		"Name": "莉法妮学生会",
		"Image": "UI/Icon/HeroSkin_ABS/Skin/Skin_Leafani_01.png",
		"SpineAssetPath": "Spine/Char/Leafani_ABS/Leafani_Skin01_Prefab.prefab"
	},
	{
		"ID": 94001,
		"Name": "狼魂",
		"Image": "UI/Icon/HeroSkin_ABS/Skin/Skin_Aka_01.png",
		"SpineAssetPath": "Spine/Char/Aka_ABS/Aka_Wolfspirit_Skin01_Prefab.prefab"
	},
	{
		"ID": 94002,
		"Name": "狼魂",
		"Image": "UI/Icon/HeroSkin_ABS/Skin/Skin_Aka_01.png",
		"SpineAssetPath": "Spine/Char/Aka_ABS/Aka_Wolfspirit_Skin01_Prefab.prefab"
	},
	{
		"ID": 7701,
		"Name": "自由骑士",
		"Image": "UI/Icon/HeroSkin_ABS/Skin/Skin_Parn_01.png",
		"SpineAssetPath": "Spine/Char/Parn_ABS/Parn_Skin01_Prefab.prefab"
	},
	{
		"ID": 7501,
		"Name": "白色妖精恋曲",
		"Image": "UI/Icon/HeroSkin_ABS/Skin/Skin_Deedlit_01.png",
		"SpineAssetPath": "Spine/Char/Deedlit_ABS/Deedlit_Skin01_Prefab.prefab"
	},
	{
		"ID": 5901,
		"Name": "恶国狮子",
		"Image": "UI/Icon/HeroSkin_ABS/Skin/Skin_Gizlof_01.png",
		"SpineAssetPath": "Spine/Char/Gizlof_ABS/Gizlof_Skin01_Prefab.prefab"
	},
	{
		"ID": 59001,
		"Name": "组构体",
		"Image": "UI/Icon/HeroSkin_ABS/Skin/Skin_Gizlof_01.png",
		"SpineAssetPath": "Spine/Bust/4_ABS/Robot/Robot_Skin01_Prefab.prefab"
	},
	{
		"ID": 59002,
		"Name": "组构体",
		"Image": "UI/Icon/HeroSkin_ABS/Skin/Skin_Gizlof_01.png",
		"SpineAssetPath": "Spine/Bust/4_ABS/Robot/Robot_Skin01_Prefab.prefab"
	},
	{
		"ID": 1003,
		"Name": "醒狮迎岁",
		"Image": "UI/Icon/HeroSkin_ABS/Skin/Skin_Ledyn_03.png",
		"SpineAssetPath": "Spine/Char/Ledin_ABS/Ledin_Skin03_Prefab.prefab"
	},
	{
		"ID": 503,
		"Name": "锦绣佳缘",
		"Image": "UI/Icon/HeroSkin_ABS/Skin/Skin_Chris_04.png",
		"SpineAssetPath": "Spine/Char/Chris_ABS/Chris_Skin03_Prefab.prefab"
	},
	{
		"ID": 11001,
		"Name": "混沌幻想",
		"Image": "UI/Icon/HeroSkin_ABS/Skin/Skin_Ares_01.png",
		"SpineAssetPath": "Spine/Char/Ares_ABS/Ares_Skin01_Prefab.prefab"
	},
	{
		"ID": 11101,
		"Name": "刺云胭脂",
		"Image": "UI/Icon/HeroSkin_ABS/Skin/Skin_Maiya_01.png",
		"SpineAssetPath": "Spine/Char/Maiya_ABS/Maiya_Skin01_Prefab.prefab"
	},
	{
		"ID": 8702,
		"Name": "风华堇夜",
		"Image": "UI/Icon/HeroSkin_ABS/Skin/Skin_Betty_02.png",
		"SpineAssetPath": "Spine/Char/Betty_ABS/Betty_Skin02_Prefab.prefab"
	},
	{
		"ID": 1103,
		"Name": "爱心蘸酱",
		"Image": "UI/Icon/HeroSkin_ABS/Skin/Skin_Norm_02.png",
		"SpineAssetPath": "Spine/Char/Nahm_ABS/Nahm_Skin03_Prefab.prefab"
	},
	{
		"ID": 8902,
		"Name": "凯旋的终时",
		"Image": "UI/Icon/HeroSkin_ABS/Skin/Skin_Yulia_02.png",
		"SpineAssetPath": "Spine/Char/Yulia_ABS/Yulia_Skin02_Prefab.prefab"
	},
	{
		"ID": 5801,
		"Name": "钢铁的英姿",
		"Image": "UI/Icon/HeroSkin_ABS/Skin/Skin_Serena_01.png",
		"SpineAssetPath": "Spine/Char/Serena_ABS/Serena_Skin01_Prefab.prefab"
	},
	{
		"ID": 5702,
		"Name": "最后致意",
		"Image": "UI/Icon/HeroSkin_ABS/Skin/Skin_Willer_02.png",
		"SpineAssetPath": "Spine/Char/Viler_ABS/Viler_Skin02_Prefab.prefab"
	},
	{
		"ID": 10301,
		"Name": "仇誓黯羽",
		"Image": "UI/Icon/HeroSkin_ABS/Skin/Skin_Sirink_01.png",
		"SpineAssetPath": "Spine/Char/Sirink_ABS/Sirink_Skin01_Prefab.prefab"
	},
	{
		"ID": 9701,
		"Name": "烂漫盛花",
		"Image": "UI/Icon/HeroSkin_ABS/Skin/Skin_Elucia_01.png",
		"SpineAssetPath": "Spine/Char/Elucia_ABS/Elucia_Skin01_Prefab.prefab"
	},
	{
		"ID": 5603,
		"Name": "漫心情结",
		"Image": "UI/Icon/HeroSkin_ABS/Skin/Skin_Rachel_03.png",
		"SpineAssetPath": "Spine/Char/Rachel_ABS/Rachel_Skin03_Prefab.prefab"
	},
	{
		"ID": 4902,
		"Name": "迷情甜蜜",
		"Image": "UI/Icon/HeroSkin_ABS/Skin/Skin_Fana_01.png",
		"SpineAssetPath": "Spine/Char/Fana_ABS/Fana_Skin02_Prefab.prefab"
	}
]