[
	{
		"ID": 1,
		"Name": "1~10名",
		"HighRank": 1,
		"LowRank": 10,
		"RankingRewardMailTemplateId": 61
	},
	{
		"ID": 2,
		"Name": "11~100名",
		"HighRank": 11,
		"LowRank": 100,
		"RankingRewardMailTemplateId": 62
	},
	{
		"ID": 3,
		"Name": "101~200名",
		"HighRank": 101,
		"LowRank": 200,
		"RankingRewardMailTemplateId": 63
	},
	{
		"ID": 4,
		"Name": "201到300名",
		"HighRank": 201,
		"LowRank": 300,
		"RankingRewardMailTemplateId": 64
	},
	{
		"ID": 5,
		"Name": "301到500名",
		"HighRank": 301,
		"LowRank": 500,
		"RankingRewardMailTemplateId": 65
	},
	{
		"ID": 6,
		"Name": "501到800名",
		"HighRank": 501,
		"LowRank": 800,
		"RankingRewardMailTemplateId": 66
	},
	{
		"ID": 7,
		"Name": "801到1200名",
		"HighRank": 801,
		"LowRank": 1200,
		"RankingRewardMailTemplateId": 67
	},
	{
		"ID": 8,
		"Name": "1201到2500名",
		"HighRank": 1201,
		"LowRank": 2500,
		"RankingRewardMailTemplateId": 68
	},
	{
		"ID": 9,
		"Name": "2501到5000名",
		"HighRank": 2501,
		"LowRank": 5000,
		"RankingRewardMailTemplateId": 69
	},
	{
		"ID": 10,
		"Name": "5001到7500名",
		"HighRank": 5001,
		"LowRank": 7500,
		"RankingRewardMailTemplateId": 70
	},
	{
		"ID": 11,
		"Name": "7501到10000名",
		"HighRank": 7501,
		"LowRank": 10000,
		"RankingRewardMailTemplateId": 71
	}
]