[
	{
		"ID": 1,
		"Exp": 20,
		"SkillPoint": 5
	},
	{
		"ID": 2,
		"Exp": 40,
		"SkillPoint": 5
	},
	{
		"ID": 3,
		"Exp": 60,
		"SkillPoint": 5
	},
	{
		"ID": 4,
		"Exp": 80,
		"SkillPoint": 5
	},
	{
		"ID": 5,
		"Exp": 100,
		"SkillPoint": 5
	},
	{
		"ID": 6,
		"Exp": 120,
		"SkillPoint": 5
	},
	{
		"ID": 7,
		"Exp": 140,
		"SkillPoint": 5
	},
	{
		"ID": 8,
		"Exp": 160,
		"SkillPoint": 5
	},
	{
		"ID": 9,
		"Exp": 180,
		"SkillPoint": 5
	},
	{
		"ID": 10,
		"Exp": 200,
		"SkillPoint": 5
	},
	{
		"ID": 11,
		"Exp": 250,
		"SkillPoint": 5
	},
	{
		"ID": 12,
		"Exp": 300,
		"SkillPoint": 5
	},
	{
		"ID": 13,
		"Exp": 350,
		"SkillPoint": 5
	},
	{
		"ID": 14,
		"Exp": 400,
		"SkillPoint": 5
	},
	{
		"ID": 15,
		"Exp": 450,
		"SkillPoint": 5
	},
	{
		"ID": 16,
		"Exp": 500,
		"SkillPoint": 5
	},
	{
		"ID": 17,
		"Exp": 550,
		"SkillPoint": 5
	},
	{
		"ID": 18,
		"Exp": 600,
		"SkillPoint": 5
	},
	{
		"ID": 19,
		"Exp": 700,
		"SkillPoint": 5
	},
	{
		"ID": 20,
		"Exp": 1100,
		"SkillPoint": 5
	},
	{
		"ID": 21,
		"Exp": 1500,
		"SkillPoint": 5
	},
	{
		"ID": 22,
		"Exp": 1900,
		"SkillPoint": 5
	},
	{
		"ID": 23,
		"Exp": 2400,
		"SkillPoint": 5
	},
	{
		"ID": 24,
		"Exp": 2900,
		"SkillPoint": 5
	},
	{
		"ID": 25,
		"Exp": 3500,
		"SkillPoint": 5
	},
	{
		"ID": 26,
		"Exp": 4200,
		"SkillPoint": 5
	},
	{
		"ID": 27,
		"Exp": 4900,
		"SkillPoint": 5
	},
	{
		"ID": 28,
		"Exp": 5700,
		"SkillPoint": 5
	},
	{
		"ID": 29,
		"Exp": 6600,
		"SkillPoint": 5
	},
	{
		"ID": 30,
		"Exp": 7600,
		"SkillPoint": 5
	},
	{
		"ID": 31,
		"Exp": 8700,
		"SkillPoint": 5
	},
	{
		"ID": 32,
		"Exp": 10000,
		"SkillPoint": 5
	},
	{
		"ID": 33,
		"Exp": 11400,
		"SkillPoint": 5
	},
	{
		"ID": 34,
		"Exp": 12900,
		"SkillPoint": 5
	},
	{
		"ID": 35,
		"Exp": 14600,
		"SkillPoint": 5
	},
	{
		"ID": 36,
		"Exp": 16500,
		"SkillPoint": 5
	},
	{
		"ID": 37,
		"Exp": 18600,
		"SkillPoint": 5
	},
	{
		"ID": 38,
		"Exp": 21000,
		"SkillPoint": 5
	},
	{
		"ID": 39,
		"Exp": 23600,
		"SkillPoint": 5
	},
	{
		"ID": 40,
		"Exp": 26600,
		"SkillPoint": 5
	},
	{
		"ID": 41,
		"Exp": 29800,
		"SkillPoint": 5
	},
	{
		"ID": 42,
		"Exp": 33500,
		"SkillPoint": 5
	},
	{
		"ID": 43,
		"Exp": 37500,
		"SkillPoint": 5
	},
	{
		"ID": 44,
		"Exp": 42000,
		"SkillPoint": 5
	},
	{
		"ID": 45,
		"Exp": 47000,
		"SkillPoint": 5
	},
	{
		"ID": 46,
		"Exp": 50000,
		"SkillPoint": 5
	},
	{
		"ID": 47,
		"Exp": 55000,
		"SkillPoint": 5
	},
	{
		"ID": 48,
		"Exp": 60000,
		"SkillPoint": 5
	},
	{
		"ID": 49,
		"Exp": 65000,
		"SkillPoint": 5
	},
	{
		"ID": 50,
		"Exp": 70000,
		"SkillPoint": 5
	},
	{
		"ID": 51,
		"Exp": 75000,
		"SkillPoint": 5
	},
	{
		"ID": 52,
		"Exp": 80000,
		"SkillPoint": 5
	},
	{
		"ID": 53,
		"Exp": 85000,
		"SkillPoint": 5
	},
	{
		"ID": 54,
		"Exp": 90000,
		"SkillPoint": 5
	},
	{
		"ID": 55,
		"Exp": 95000,
		"SkillPoint": 5
	},
	{
		"ID": 56,
		"Exp": 100000,
		"SkillPoint": 5
	},
	{
		"ID": 57,
		"Exp": 105000,
		"SkillPoint": 5
	},
	{
		"ID": 58,
		"Exp": 110000,
		"SkillPoint": 5
	},
	{
		"ID": 59,
		"Exp": 120000,
		"SkillPoint": 5
	},
	{
		"ID": 60,
		"Exp": 120000,
		"SkillPoint": 5
	},
	{
		"ID": 61,
		"Exp": 120000,
		"SkillPoint": 5
	},
	{
		"ID": 62,
		"Exp": 120000,
		"SkillPoint": 5
	},
	{
		"ID": 63,
		"Exp": 120000,
		"SkillPoint": 5
	},
	{
		"ID": 64,
		"Exp": 120000,
		"SkillPoint": 5
	},
	{
		"ID": 65,
		"Exp": 125000,
		"SkillPoint": 5
	},
	{
		"ID": 66,
		"Exp": 125000,
		"SkillPoint": 5
	},
	{
		"ID": 67,
		"Exp": 125000,
		"SkillPoint": 5
	},
	{
		"ID": 68,
		"Exp": 125000,
		"SkillPoint": 5
	},
	{
		"ID": 69,
		"Exp": 125000,
		"SkillPoint": 5
	},
	{
		"ID": 70,
		"Exp": 0,
		"SkillPoint": 5
	}
]