[
	{
		"ID": 1,
		"NextExp": 100
	},
	{
		"ID": 2,
		"NextExp": 170
	},
	{
		"ID": 3,
		"NextExp": 300
	},
	{
		"ID": 4,
		"NextExp": 470
	},
	{
		"ID": 5,
		"NextExp": 700
	},
	{
		"ID": 6,
		"NextExp": 850
	},
	{
		"ID": 7,
		"NextExp": 1030
	},
	{
		"ID": 8,
		"NextExp": 1240
	},
	{
		"ID": 9,
		"NextExp": 1470
	},
	{
		"ID": 10,
		"NextExp": 1720
	},
	{
		"ID": 11,
		"NextExp": 1990
	},
	{
		"ID": 12,
		"NextExp": 2280
	},
	{
		"ID": 13,
		"NextExp": 2600
	},
	{
		"ID": 14,
		"NextExp": 2930
	},
	{
		"ID": 15,
		"NextExp": 3280
	},
	{
		"ID": 16,
		"NextExp": 3650
	},
	{
		"ID": 17,
		"NextExp": 4040
	},
	{
		"ID": 18,
		"NextExp": 4850
	},
	{
		"ID": 19,
		"NextExp": 5820
	},
	{
		"ID": 20,
		"NextExp": 6980
	},
	{
		"ID": 21,
		"NextExp": 8380
	},
	{
		"ID": 22,
		"NextExp": 10060
	},
	{
		"ID": 23,
		"NextExp": 12070
	},
	{
		"ID": 24,
		"NextExp": 14480
	},
	{
		"ID": 25,
		"NextExp": 0
	}
]