[
	{
		"ID": 1,
		"Name": "逃离王城-IF",
		"Desc": "达尔西斯帝国皇帝德高斯向巴尔迪亚城伸出了魔手，命运的齿轮开始转动了……",
		"MonsterLevel": 70,
		"BattleID": 3100,
		"Achievement1ID": 5000,
		"AchievementReward1": [
			{
				"GoodsType": "GoodsType_ChallengePoint",
				"Id": 0,
				"Count": 5
			}
		],
		"Achievement2ID": 5001,
		"AchievementReward2": [
			{
				"GoodsType": "GoodsType_ChallengePoint",
				"Id": 0,
				"Count": 5
			}
		],
		"Achievement3ID": 5002,
		"AchievementReward3": [
			{
				"GoodsType": "GoodsType_ChallengePoint",
				"Id": 0,
				"Count": 10
			}
		],
		"FirstReward": [
			{
				"GoodsType": "GoodsType_ChallengePoint",
				"Id": 0,
				"Count": 20
			}
		],
		"BonusHeroIdList": [
			10,
			22
		],
		"Strategy": ""
	},
	{
		"ID": 2,
		"Name": "将军加艾鲁-IF",
		"Desc": "利古里亚帝国加艾鲁将军残暴地猎杀着难民，而命运的奇点于此展开……",
		"MonsterLevel": 70,
		"BattleID": 3101,
		"Achievement1ID": 5003,
		"AchievementReward1": [
			{
				"GoodsType": "GoodsType_ChallengePoint",
				"Id": 0,
				"Count": 5
			}
		],
		"Achievement2ID": 5004,
		"AchievementReward2": [
			{
				"GoodsType": "GoodsType_ChallengePoint",
				"Id": 0,
				"Count": 5
			}
		],
		"Achievement3ID": 5005,
		"AchievementReward3": [
			{
				"GoodsType": "GoodsType_ChallengePoint",
				"Id": 0,
				"Count": 10
			}
		],
		"FirstReward": [
			{
				"GoodsType": "GoodsType_ChallengePoint",
				"Id": 0,
				"Count": 20
			}
		],
		"BonusHeroIdList": [
			26
		],
		"Strategy": ""
	},
	{
		"ID": 3,
		"Name": "大陆最强骑士-IF",
		"Desc": "利昂与艾尔文之间宿命的对决，命运的风向开始逆转……",
		"MonsterLevel": 70,
		"BattleID": 3102,
		"Achievement1ID": 5006,
		"AchievementReward1": [
			{
				"GoodsType": "GoodsType_ChallengePoint",
				"Id": 0,
				"Count": 5
			}
		],
		"Achievement2ID": 5007,
		"AchievementReward2": [
			{
				"GoodsType": "GoodsType_ChallengePoint",
				"Id": 0,
				"Count": 5
			}
		],
		"Achievement3ID": 5008,
		"AchievementReward3": [
			{
				"GoodsType": "GoodsType_ChallengePoint",
				"Id": 0,
				"Count": 10
			}
		],
		"FirstReward": [
			{
				"GoodsType": "GoodsType_ChallengePoint",
				"Id": 0,
				"Count": 20
			}
		],
		"BonusHeroIdList": [
			6,
			44
		],
		"Strategy": ""
	},
	{
		"ID": 4,
		"Name": "复活的魔剑-IF",
		"Desc": "魔剑的解放仪式开始了，这把混沌之剑牵动着所有人的命运……",
		"MonsterLevel": 70,
		"BattleID": 3103,
		"Achievement1ID": 5009,
		"AchievementReward1": [
			{
				"GoodsType": "GoodsType_ChallengePoint",
				"Id": 0,
				"Count": 5
			}
		],
		"Achievement2ID": 5010,
		"AchievementReward2": [
			{
				"GoodsType": "GoodsType_ChallengePoint",
				"Id": 0,
				"Count": 5
			}
		],
		"Achievement3ID": 5011,
		"AchievementReward3": [
			{
				"GoodsType": "GoodsType_ChallengePoint",
				"Id": 0,
				"Count": 10
			}
		],
		"FirstReward": [
			{
				"GoodsType": "GoodsType_ChallengePoint",
				"Id": 0,
				"Count": 20
			}
		],
		"BonusHeroIdList": [
			17
		],
		"Strategy": ""
	},
	{
		"ID": 5,
		"Name": "散落海上的星-IF",
		"Desc": "利斯塔正在港口等待着帝国的部队，一切都是命运的安排……",
		"MonsterLevel": 70,
		"BattleID": 3104,
		"Achievement1ID": 5012,
		"AchievementReward1": [
			{
				"GoodsType": "GoodsType_ChallengePoint",
				"Id": 0,
				"Count": 5
			}
		],
		"Achievement2ID": 5013,
		"AchievementReward2": [
			{
				"GoodsType": "GoodsType_ChallengePoint",
				"Id": 0,
				"Count": 5
			}
		],
		"Achievement3ID": 5014,
		"AchievementReward3": [
			{
				"GoodsType": "GoodsType_ChallengePoint",
				"Id": 0,
				"Count": 10
			}
		],
		"FirstReward": [
			{
				"GoodsType": "GoodsType_ChallengePoint",
				"Id": 0,
				"Count": 20
			}
		],
		"BonusHeroIdList": [
			19
		],
		"Strategy": ""
	},
	{
		"ID": 6,
		"Name": "复仇-IF",
		"Desc": "为了替哥哥复仇的索尼娅出现在了艾尔文等人的面前……仇恨的命运何去何从？",
		"MonsterLevel": 70,
		"BattleID": 3109,
		"Achievement1ID": 5016,
		"AchievementReward1": [
			{
				"GoodsType": "GoodsType_ChallengePoint",
				"Id": 0,
				"Count": 5
			}
		],
		"Achievement2ID": 5017,
		"AchievementReward2": [
			{
				"GoodsType": "GoodsType_ChallengePoint",
				"Id": 0,
				"Count": 5
			}
		],
		"Achievement3ID": 5015,
		"AchievementReward3": [
			{
				"GoodsType": "GoodsType_ChallengePoint",
				"Id": 0,
				"Count": 10
			}
		],
		"FirstReward": [
			{
				"GoodsType": "GoodsType_ChallengePoint",
				"Id": 0,
				"Count": 20
			}
		],
		"BonusHeroIdList": [
			20
		],
		"Strategy": ""
	},
	{
		"ID": 7,
		"Name": "被操控的人偶-IF",
		"Desc": "法鲁赞利亚的阵地之前，黑暗公主静候着与艾尔文一行的命运一战……",
		"MonsterLevel": 70,
		"BattleID": 3110,
		"Achievement1ID": 5019,
		"AchievementReward1": [
			{
				"GoodsType": "GoodsType_ChallengePoint",
				"Id": 0,
				"Count": 5
			}
		],
		"Achievement2ID": 5020,
		"AchievementReward2": [
			{
				"GoodsType": "GoodsType_ChallengePoint",
				"Id": 0,
				"Count": 5
			}
		],
		"Achievement3ID": 5018,
		"AchievementReward3": [
			{
				"GoodsType": "GoodsType_ChallengePoint",
				"Id": 0,
				"Count": 10
			}
		],
		"FirstReward": [
			{
				"GoodsType": "GoodsType_ChallengePoint",
				"Id": 0,
				"Count": 20
			}
		],
		"BonusHeroIdList": [
			8
		],
		"Strategy": ""
	},
	{
		"ID": 8,
		"Name": "浮空城陷落-IF",
		"Desc": "一个时代的开端，一个少女希望挑战自己的命运……",
		"MonsterLevel": 70,
		"BattleID": 3111,
		"Achievement1ID": 5021,
		"AchievementReward1": [
			{
				"GoodsType": "GoodsType_ChallengePoint",
				"Id": 0,
				"Count": 5
			}
		],
		"Achievement2ID": 5023,
		"AchievementReward2": [
			{
				"GoodsType": "GoodsType_ChallengePoint",
				"Id": 0,
				"Count": 5
			}
		],
		"Achievement3ID": 5022,
		"AchievementReward3": [
			{
				"GoodsType": "GoodsType_ChallengePoint",
				"Id": 0,
				"Count": 10
			}
		],
		"FirstReward": [
			{
				"GoodsType": "GoodsType_ChallengePoint",
				"Id": 0,
				"Count": 20
			}
		],
		"BonusHeroIdList": [
			29
		],
		"Strategy": ""
	},
	{
		"ID": 9,
		"Name": "传说的终结-IF",
		"Desc": "手持魔剑的皇帝巴恩哈特，要将命运牢牢握紧在自己手中……",
		"MonsterLevel": 70,
		"BattleID": 3112,
		"Achievement1ID": 5024,
		"AchievementReward1": [
			{
				"GoodsType": "GoodsType_ChallengePoint",
				"Id": 0,
				"Count": 5
			}
		],
		"Achievement2ID": 5025,
		"AchievementReward2": [
			{
				"GoodsType": "GoodsType_ChallengePoint",
				"Id": 0,
				"Count": 5
			}
		],
		"Achievement3ID": 5026,
		"AchievementReward3": [
			{
				"GoodsType": "GoodsType_ChallengePoint",
				"Id": 0,
				"Count": 10
			}
		],
		"FirstReward": [
			{
				"GoodsType": "GoodsType_ChallengePoint",
				"Id": 0,
				"Count": 20
			}
		],
		"BonusHeroIdList": [
			7
		],
		"Strategy": ""
	},
	{
		"ID": 10,
		"Name": "疑惑-IF",
		"Desc": "少年勇者路因哦，请勇敢地挑战自己的命运吧……",
		"MonsterLevel": 70,
		"BattleID": 3113,
		"Achievement1ID": 5028,
		"AchievementReward1": [
			{
				"GoodsType": "GoodsType_ChallengePoint",
				"Id": 0,
				"Count": 5
			}
		],
		"Achievement2ID": 5029,
		"AchievementReward2": [
			{
				"GoodsType": "GoodsType_ChallengePoint",
				"Id": 0,
				"Count": 5
			}
		],
		"Achievement3ID": 5027,
		"AchievementReward3": [
			{
				"GoodsType": "GoodsType_ChallengePoint",
				"Id": 0,
				"Count": 10
			}
		],
		"FirstReward": [
			{
				"GoodsType": "GoodsType_ChallengePoint",
				"Id": 0,
				"Count": 20
			}
		],
		"BonusHeroIdList": [
			40
		],
		"Strategy": ""
	}
]