[
	{
		"ID": 1,
		"Name": "拉卡斯25",
		"TeamName": "Lv.25",
		"OpenPlayerLevel": 20,
		"TicketCost": 0,
		"EnergySuccess": 20,
		"EnergyFail": 4,
		"TeamEnergyCost": 16,
		"MonsterLevel": 25,
		"BattleID": 5000,
		"PlayerExp": 20,
		"HeroExp": 90,
		"Gold": 866,
		"DropID": 5011,
		"TeamDropID": 8051,
		"OperationalActivityDropID": 0,
		"DayBonusDropID": 5001,
		"DayBonusExtraDropID": 0,
		"DisplayRewardCount": 2,
		"Strategy": ""
	},
	{
		"ID": 2,
		"Name": "拉卡斯30",
		"TeamName": "Lv.30",
		"OpenPlayerLevel": 30,
		"TicketCost": 0,
		"EnergySuccess": 20,
		"EnergyFail": 4,
		"TeamEnergyCost": 16,
		"MonsterLevel": 30,
		"BattleID": 5001,
		"PlayerExp": 20,
		"HeroExp": 100,
		"Gold": 1062,
		"DropID": 5012,
		"TeamDropID": 8052,
		"OperationalActivityDropID": 0,
		"DayBonusDropID": 5002,
		"DayBonusExtraDropID": 0,
		"DisplayRewardCount": 3,
		"Strategy": ""
	},
	{
		"ID": 3,
		"Name": "拉卡斯35",
		"TeamName": "Lv.35",
		"OpenPlayerLevel": 35,
		"TicketCost": 0,
		"EnergySuccess": 20,
		"EnergyFail": 4,
		"TeamEnergyCost": 16,
		"MonsterLevel": 35,
		"BattleID": 5002,
		"PlayerExp": 20,
		"HeroExp": 110,
		"Gold": 1276,
		"DropID": 5013,
		"TeamDropID": 8053,
		"OperationalActivityDropID": 0,
		"DayBonusDropID": 5003,
		"DayBonusExtraDropID": 0,
		"DisplayRewardCount": 3,
		"Strategy": ""
	},
	{
		"ID": 4,
		"Name": "拉卡斯40",
		"TeamName": "Lv.40",
		"OpenPlayerLevel": 40,
		"TicketCost": 0,
		"EnergySuccess": 20,
		"EnergyFail": 4,
		"TeamEnergyCost": 16,
		"MonsterLevel": 40,
		"BattleID": 5003,
		"PlayerExp": 20,
		"HeroExp": 120,
		"Gold": 1504,
		"DropID": 5014,
		"TeamDropID": 8054,
		"OperationalActivityDropID": 0,
		"DayBonusDropID": 5004,
		"DayBonusExtraDropID": 0,
		"DisplayRewardCount": 3,
		"Strategy": ""
	},
	{
		"ID": 5,
		"Name": "拉卡斯45",
		"TeamName": "Lv.45",
		"OpenPlayerLevel": 45,
		"TicketCost": 0,
		"EnergySuccess": 20,
		"EnergyFail": 4,
		"TeamEnergyCost": 16,
		"MonsterLevel": 45,
		"BattleID": 5004,
		"PlayerExp": 20,
		"HeroExp": 130,
		"Gold": 1750,
		"DropID": 5015,
		"TeamDropID": 8055,
		"OperationalActivityDropID": 0,
		"DayBonusDropID": 5005,
		"DayBonusExtraDropID": 0,
		"DisplayRewardCount": 3,
		"Strategy": ""
	},
	{
		"ID": 6,
		"Name": "拉卡斯50",
		"TeamName": "Lv.50",
		"OpenPlayerLevel": 50,
		"TicketCost": 0,
		"EnergySuccess": 20,
		"EnergyFail": 4,
		"TeamEnergyCost": 16,
		"MonsterLevel": 50,
		"BattleID": 5005,
		"PlayerExp": 20,
		"HeroExp": 140,
		"Gold": 2008,
		"DropID": 5016,
		"TeamDropID": 8056,
		"OperationalActivityDropID": 0,
		"DayBonusDropID": 5006,
		"DayBonusExtraDropID": 0,
		"DisplayRewardCount": 3,
		"Strategy": ""
	},
	{
		"ID": 7,
		"Name": "拉卡斯55",
		"TeamName": "Lv.55",
		"OpenPlayerLevel": 55,
		"TicketCost": 0,
		"EnergySuccess": 20,
		"EnergyFail": 4,
		"TeamEnergyCost": 16,
		"MonsterLevel": 55,
		"BattleID": 5006,
		"PlayerExp": 20,
		"HeroExp": 150,
		"Gold": 2280,
		"DropID": 5017,
		"TeamDropID": 8057,
		"OperationalActivityDropID": 0,
		"DayBonusDropID": 5007,
		"DayBonusExtraDropID": 0,
		"DisplayRewardCount": 3,
		"Strategy": ""
	},
	{
		"ID": 8,
		"Name": "拉卡斯60",
		"TeamName": "Lv.60",
		"OpenPlayerLevel": 60,
		"TicketCost": 0,
		"EnergySuccess": 20,
		"EnergyFail": 4,
		"TeamEnergyCost": 16,
		"MonsterLevel": 60,
		"BattleID": 5007,
		"PlayerExp": 20,
		"HeroExp": 160,
		"Gold": 2564,
		"DropID": 5018,
		"TeamDropID": 8058,
		"OperationalActivityDropID": 0,
		"DayBonusDropID": 5008,
		"DayBonusExtraDropID": 0,
		"DisplayRewardCount": 3,
		"Strategy": ""
	},
	{
		"ID": 9,
		"Name": "拉卡斯65",
		"TeamName": "Lv.65",
		"OpenPlayerLevel": 60,
		"TicketCost": 0,
		"EnergySuccess": 20,
		"EnergyFail": 4,
		"TeamEnergyCost": 16,
		"MonsterLevel": 65,
		"BattleID": 5008,
		"PlayerExp": 20,
		"HeroExp": 160,
		"Gold": 2564,
		"DropID": 5019,
		"TeamDropID": 8059,
		"OperationalActivityDropID": 0,
		"DayBonusDropID": 5009,
		"DayBonusExtraDropID": 0,
		"DisplayRewardCount": 3,
		"Strategy": ""
	},
	{
		"ID": 10,
		"Name": "拉卡斯70",
		"TeamName": "Lv.70",
		"OpenPlayerLevel": 65,
		"TicketCost": 0,
		"EnergySuccess": 20,
		"EnergyFail": 4,
		"TeamEnergyCost": 16,
		"MonsterLevel": 70,
		"BattleID": 5009,
		"PlayerExp": 20,
		"HeroExp": 160,
		"Gold": 2564,
		"DropID": 5020,
		"TeamDropID": 8059,
		"OperationalActivityDropID": 0,
		"DayBonusDropID": 5010,
		"DayBonusExtraDropID": 0,
		"DisplayRewardCount": 3,
		"Strategy": ""
	},
	{
		"ID": 11,
		"Name": "卡尔萨斯25",
		"TeamName": "Lv.25",
		"OpenPlayerLevel": 20,
		"TicketCost": 0,
		"EnergySuccess": 20,
		"EnergyFail": 4,
		"TeamEnergyCost": 16,
		"MonsterLevel": 25,
		"BattleID": 5100,
		"PlayerExp": 20,
		"HeroExp": 90,
		"Gold": 866,
		"DropID": 5031,
		"TeamDropID": 8051,
		"OperationalActivityDropID": 0,
		"DayBonusDropID": 5021,
		"DayBonusExtraDropID": 0,
		"DisplayRewardCount": 2,
		"Strategy": ""
	},
	{
		"ID": 12,
		"Name": "卡尔萨斯30",
		"TeamName": "Lv.30",
		"OpenPlayerLevel": 30,
		"TicketCost": 0,
		"EnergySuccess": 20,
		"EnergyFail": 4,
		"TeamEnergyCost": 16,
		"MonsterLevel": 30,
		"BattleID": 5101,
		"PlayerExp": 20,
		"HeroExp": 100,
		"Gold": 1062,
		"DropID": 5032,
		"TeamDropID": 8052,
		"OperationalActivityDropID": 0,
		"DayBonusDropID": 5022,
		"DayBonusExtraDropID": 0,
		"DisplayRewardCount": 3,
		"Strategy": ""
	},
	{
		"ID": 13,
		"Name": "卡尔萨斯35",
		"TeamName": "Lv.35",
		"OpenPlayerLevel": 35,
		"TicketCost": 0,
		"EnergySuccess": 20,
		"EnergyFail": 4,
		"TeamEnergyCost": 16,
		"MonsterLevel": 35,
		"BattleID": 5102,
		"PlayerExp": 20,
		"HeroExp": 110,
		"Gold": 1276,
		"DropID": 5033,
		"TeamDropID": 8053,
		"OperationalActivityDropID": 0,
		"DayBonusDropID": 5023,
		"DayBonusExtraDropID": 0,
		"DisplayRewardCount": 3,
		"Strategy": ""
	},
	{
		"ID": 14,
		"Name": "卡尔萨斯40",
		"TeamName": "Lv.40",
		"OpenPlayerLevel": 40,
		"TicketCost": 0,
		"EnergySuccess": 20,
		"EnergyFail": 4,
		"TeamEnergyCost": 16,
		"MonsterLevel": 40,
		"BattleID": 5103,
		"PlayerExp": 20,
		"HeroExp": 120,
		"Gold": 1504,
		"DropID": 5034,
		"TeamDropID": 8054,
		"OperationalActivityDropID": 0,
		"DayBonusDropID": 5024,
		"DayBonusExtraDropID": 0,
		"DisplayRewardCount": 3,
		"Strategy": ""
	},
	{
		"ID": 15,
		"Name": "卡尔萨斯45",
		"TeamName": "Lv.45",
		"OpenPlayerLevel": 45,
		"TicketCost": 0,
		"EnergySuccess": 20,
		"EnergyFail": 4,
		"TeamEnergyCost": 16,
		"MonsterLevel": 45,
		"BattleID": 5104,
		"PlayerExp": 20,
		"HeroExp": 130,
		"Gold": 1750,
		"DropID": 5035,
		"TeamDropID": 8055,
		"OperationalActivityDropID": 0,
		"DayBonusDropID": 5025,
		"DayBonusExtraDropID": 0,
		"DisplayRewardCount": 3,
		"Strategy": ""
	},
	{
		"ID": 16,
		"Name": "卡尔萨斯50",
		"TeamName": "Lv.50",
		"OpenPlayerLevel": 50,
		"TicketCost": 0,
		"EnergySuccess": 20,
		"EnergyFail": 4,
		"TeamEnergyCost": 16,
		"MonsterLevel": 50,
		"BattleID": 5105,
		"PlayerExp": 20,
		"HeroExp": 140,
		"Gold": 2008,
		"DropID": 5036,
		"TeamDropID": 8056,
		"OperationalActivityDropID": 0,
		"DayBonusDropID": 5026,
		"DayBonusExtraDropID": 0,
		"DisplayRewardCount": 3,
		"Strategy": ""
	},
	{
		"ID": 17,
		"Name": "卡尔萨斯55",
		"TeamName": "Lv.55",
		"OpenPlayerLevel": 55,
		"TicketCost": 0,
		"EnergySuccess": 20,
		"EnergyFail": 4,
		"TeamEnergyCost": 16,
		"MonsterLevel": 55,
		"BattleID": 5106,
		"PlayerExp": 20,
		"HeroExp": 150,
		"Gold": 2280,
		"DropID": 5037,
		"TeamDropID": 8057,
		"OperationalActivityDropID": 0,
		"DayBonusDropID": 5027,
		"DayBonusExtraDropID": 0,
		"DisplayRewardCount": 3,
		"Strategy": ""
	},
	{
		"ID": 18,
		"Name": "卡尔萨斯60",
		"TeamName": "Lv.60",
		"OpenPlayerLevel": 60,
		"TicketCost": 0,
		"EnergySuccess": 20,
		"EnergyFail": 4,
		"TeamEnergyCost": 16,
		"MonsterLevel": 60,
		"BattleID": 5107,
		"PlayerExp": 20,
		"HeroExp": 160,
		"Gold": 2564,
		"DropID": 5038,
		"TeamDropID": 8058,
		"OperationalActivityDropID": 0,
		"DayBonusDropID": 5028,
		"DayBonusExtraDropID": 0,
		"DisplayRewardCount": 3,
		"Strategy": ""
	},
	{
		"ID": 19,
		"Name": "卡尔萨斯65",
		"TeamName": "Lv.65",
		"OpenPlayerLevel": 60,
		"TicketCost": 0,
		"EnergySuccess": 20,
		"EnergyFail": 4,
		"TeamEnergyCost": 16,
		"MonsterLevel": 65,
		"BattleID": 5108,
		"PlayerExp": 20,
		"HeroExp": 160,
		"Gold": 2564,
		"DropID": 5039,
		"TeamDropID": 8059,
		"OperationalActivityDropID": 0,
		"DayBonusDropID": 5029,
		"DayBonusExtraDropID": 0,
		"DisplayRewardCount": 3,
		"Strategy": ""
	},
	{
		"ID": 20,
		"Name": "卡尔萨斯70",
		"TeamName": "Lv.70",
		"OpenPlayerLevel": 65,
		"TicketCost": 0,
		"EnergySuccess": 20,
		"EnergyFail": 4,
		"TeamEnergyCost": 16,
		"MonsterLevel": 70,
		"BattleID": 5109,
		"PlayerExp": 20,
		"HeroExp": 160,
		"Gold": 2564,
		"DropID": 5040,
		"TeamDropID": 8059,
		"OperationalActivityDropID": 0,
		"DayBonusDropID": 5030,
		"DayBonusExtraDropID": 0,
		"DisplayRewardCount": 3,
		"Strategy": ""
	},
	{
		"ID": 21,
		"Name": "雷尔加德25",
		"TeamName": "Lv.25",
		"OpenPlayerLevel": 20,
		"TicketCost": 0,
		"EnergySuccess": 20,
		"EnergyFail": 4,
		"TeamEnergyCost": 16,
		"MonsterLevel": 25,
		"BattleID": 5200,
		"PlayerExp": 20,
		"HeroExp": 90,
		"Gold": 866,
		"DropID": 5051,
		"TeamDropID": 8051,
		"OperationalActivityDropID": 0,
		"DayBonusDropID": 5041,
		"DayBonusExtraDropID": 0,
		"DisplayRewardCount": 2,
		"Strategy": ""
	},
	{
		"ID": 22,
		"Name": "雷尔加德30",
		"TeamName": "Lv.30",
		"OpenPlayerLevel": 30,
		"TicketCost": 0,
		"EnergySuccess": 20,
		"EnergyFail": 4,
		"TeamEnergyCost": 16,
		"MonsterLevel": 30,
		"BattleID": 5201,
		"PlayerExp": 20,
		"HeroExp": 100,
		"Gold": 1062,
		"DropID": 5052,
		"TeamDropID": 8052,
		"OperationalActivityDropID": 0,
		"DayBonusDropID": 5042,
		"DayBonusExtraDropID": 0,
		"DisplayRewardCount": 3,
		"Strategy": ""
	},
	{
		"ID": 23,
		"Name": "雷尔加德35",
		"TeamName": "Lv.35",
		"OpenPlayerLevel": 35,
		"TicketCost": 0,
		"EnergySuccess": 20,
		"EnergyFail": 4,
		"TeamEnergyCost": 16,
		"MonsterLevel": 35,
		"BattleID": 5202,
		"PlayerExp": 20,
		"HeroExp": 110,
		"Gold": 1276,
		"DropID": 5053,
		"TeamDropID": 8053,
		"OperationalActivityDropID": 0,
		"DayBonusDropID": 5043,
		"DayBonusExtraDropID": 0,
		"DisplayRewardCount": 3,
		"Strategy": ""
	},
	{
		"ID": 24,
		"Name": "雷尔加德40",
		"TeamName": "Lv.40",
		"OpenPlayerLevel": 40,
		"TicketCost": 0,
		"EnergySuccess": 20,
		"EnergyFail": 4,
		"TeamEnergyCost": 16,
		"MonsterLevel": 40,
		"BattleID": 5203,
		"PlayerExp": 20,
		"HeroExp": 120,
		"Gold": 1504,
		"DropID": 5054,
		"TeamDropID": 8054,
		"OperationalActivityDropID": 0,
		"DayBonusDropID": 5044,
		"DayBonusExtraDropID": 0,
		"DisplayRewardCount": 3,
		"Strategy": ""
	},
	{
		"ID": 25,
		"Name": "雷尔加德45",
		"TeamName": "Lv.45",
		"OpenPlayerLevel": 45,
		"TicketCost": 0,
		"EnergySuccess": 20,
		"EnergyFail": 4,
		"TeamEnergyCost": 16,
		"MonsterLevel": 45,
		"BattleID": 5204,
		"PlayerExp": 20,
		"HeroExp": 130,
		"Gold": 1750,
		"DropID": 5055,
		"TeamDropID": 8055,
		"OperationalActivityDropID": 0,
		"DayBonusDropID": 5045,
		"DayBonusExtraDropID": 0,
		"DisplayRewardCount": 3,
		"Strategy": ""
	},
	{
		"ID": 26,
		"Name": "雷尔加德50",
		"TeamName": "Lv.50",
		"OpenPlayerLevel": 50,
		"TicketCost": 0,
		"EnergySuccess": 20,
		"EnergyFail": 4,
		"TeamEnergyCost": 16,
		"MonsterLevel": 50,
		"BattleID": 5205,
		"PlayerExp": 20,
		"HeroExp": 140,
		"Gold": 2008,
		"DropID": 5056,
		"TeamDropID": 8056,
		"OperationalActivityDropID": 0,
		"DayBonusDropID": 5046,
		"DayBonusExtraDropID": 0,
		"DisplayRewardCount": 3,
		"Strategy": ""
	},
	{
		"ID": 27,
		"Name": "雷尔加德55",
		"TeamName": "Lv.55",
		"OpenPlayerLevel": 55,
		"TicketCost": 0,
		"EnergySuccess": 20,
		"EnergyFail": 4,
		"TeamEnergyCost": 16,
		"MonsterLevel": 55,
		"BattleID": 5206,
		"PlayerExp": 20,
		"HeroExp": 150,
		"Gold": 2280,
		"DropID": 5057,
		"TeamDropID": 8057,
		"OperationalActivityDropID": 0,
		"DayBonusDropID": 5047,
		"DayBonusExtraDropID": 0,
		"DisplayRewardCount": 3,
		"Strategy": ""
	},
	{
		"ID": 28,
		"Name": "雷尔加德60",
		"TeamName": "Lv.60",
		"OpenPlayerLevel": 60,
		"TicketCost": 0,
		"EnergySuccess": 20,
		"EnergyFail": 4,
		"TeamEnergyCost": 16,
		"MonsterLevel": 60,
		"BattleID": 5207,
		"PlayerExp": 20,
		"HeroExp": 160,
		"Gold": 2564,
		"DropID": 5058,
		"TeamDropID": 8058,
		"OperationalActivityDropID": 0,
		"DayBonusDropID": 5048,
		"DayBonusExtraDropID": 0,
		"DisplayRewardCount": 3,
		"Strategy": ""
	},
	{
		"ID": 29,
		"Name": "雷尔加德65",
		"TeamName": "Lv.65",
		"OpenPlayerLevel": 60,
		"TicketCost": 0,
		"EnergySuccess": 20,
		"EnergyFail": 4,
		"TeamEnergyCost": 16,
		"MonsterLevel": 65,
		"BattleID": 5208,
		"PlayerExp": 20,
		"HeroExp": 160,
		"Gold": 2564,
		"DropID": 5059,
		"TeamDropID": 8059,
		"OperationalActivityDropID": 0,
		"DayBonusDropID": 5049,
		"DayBonusExtraDropID": 0,
		"DisplayRewardCount": 3,
		"Strategy": ""
	},
	{
		"ID": 30,
		"Name": "雷尔加德70",
		"TeamName": "Lv.70",
		"OpenPlayerLevel": 65,
		"TicketCost": 0,
		"EnergySuccess": 20,
		"EnergyFail": 4,
		"TeamEnergyCost": 16,
		"MonsterLevel": 70,
		"BattleID": 5209,
		"PlayerExp": 20,
		"HeroExp": 160,
		"Gold": 2564,
		"DropID": 5060,
		"TeamDropID": 8059,
		"OperationalActivityDropID": 0,
		"DayBonusDropID": 5050,
		"DayBonusExtraDropID": 0,
		"DisplayRewardCount": 3,
		"Strategy": ""
	},
	{
		"ID": 31,
		"Name": "萨尔拉斯25",
		"TeamName": "Lv.25",
		"OpenPlayerLevel": 20,
		"TicketCost": 0,
		"EnergySuccess": 20,
		"EnergyFail": 4,
		"TeamEnergyCost": 16,
		"MonsterLevel": 25,
		"BattleID": 5300,
		"PlayerExp": 20,
		"HeroExp": 90,
		"Gold": 866,
		"DropID": 5071,
		"TeamDropID": 8051,
		"OperationalActivityDropID": 0,
		"DayBonusDropID": 5061,
		"DayBonusExtraDropID": 0,
		"DisplayRewardCount": 2,
		"Strategy": ""
	},
	{
		"ID": 32,
		"Name": "萨尔拉斯30",
		"TeamName": "Lv.30",
		"OpenPlayerLevel": 30,
		"TicketCost": 0,
		"EnergySuccess": 20,
		"EnergyFail": 4,
		"TeamEnergyCost": 16,
		"MonsterLevel": 30,
		"BattleID": 5301,
		"PlayerExp": 20,
		"HeroExp": 100,
		"Gold": 1062,
		"DropID": 5072,
		"TeamDropID": 8052,
		"OperationalActivityDropID": 0,
		"DayBonusDropID": 5062,
		"DayBonusExtraDropID": 0,
		"DisplayRewardCount": 3,
		"Strategy": ""
	},
	{
		"ID": 33,
		"Name": "萨尔拉斯35",
		"TeamName": "Lv.35",
		"OpenPlayerLevel": 35,
		"TicketCost": 0,
		"EnergySuccess": 20,
		"EnergyFail": 4,
		"TeamEnergyCost": 16,
		"MonsterLevel": 35,
		"BattleID": 5302,
		"PlayerExp": 20,
		"HeroExp": 110,
		"Gold": 1276,
		"DropID": 5073,
		"TeamDropID": 8053,
		"OperationalActivityDropID": 0,
		"DayBonusDropID": 5063,
		"DayBonusExtraDropID": 0,
		"DisplayRewardCount": 3,
		"Strategy": ""
	},
	{
		"ID": 34,
		"Name": "萨尔拉斯40",
		"TeamName": "Lv.40",
		"OpenPlayerLevel": 40,
		"TicketCost": 0,
		"EnergySuccess": 20,
		"EnergyFail": 4,
		"TeamEnergyCost": 16,
		"MonsterLevel": 40,
		"BattleID": 5303,
		"PlayerExp": 20,
		"HeroExp": 120,
		"Gold": 1504,
		"DropID": 5074,
		"TeamDropID": 8054,
		"OperationalActivityDropID": 0,
		"DayBonusDropID": 5064,
		"DayBonusExtraDropID": 0,
		"DisplayRewardCount": 3,
		"Strategy": ""
	},
	{
		"ID": 35,
		"Name": "萨尔拉斯45",
		"TeamName": "Lv.45",
		"OpenPlayerLevel": 45,
		"TicketCost": 0,
		"EnergySuccess": 20,
		"EnergyFail": 4,
		"TeamEnergyCost": 16,
		"MonsterLevel": 45,
		"BattleID": 5304,
		"PlayerExp": 20,
		"HeroExp": 130,
		"Gold": 1750,
		"DropID": 5075,
		"TeamDropID": 8055,
		"OperationalActivityDropID": 0,
		"DayBonusDropID": 5065,
		"DayBonusExtraDropID": 0,
		"DisplayRewardCount": 3,
		"Strategy": ""
	},
	{
		"ID": 36,
		"Name": "萨尔拉斯50",
		"TeamName": "Lv.50",
		"OpenPlayerLevel": 50,
		"TicketCost": 0,
		"EnergySuccess": 20,
		"EnergyFail": 4,
		"TeamEnergyCost": 16,
		"MonsterLevel": 50,
		"BattleID": 5305,
		"PlayerExp": 20,
		"HeroExp": 140,
		"Gold": 2008,
		"DropID": 5076,
		"TeamDropID": 8056,
		"OperationalActivityDropID": 0,
		"DayBonusDropID": 5066,
		"DayBonusExtraDropID": 0,
		"DisplayRewardCount": 3,
		"Strategy": ""
	},
	{
		"ID": 37,
		"Name": "萨尔拉斯55",
		"TeamName": "Lv.55",
		"OpenPlayerLevel": 55,
		"TicketCost": 0,
		"EnergySuccess": 20,
		"EnergyFail": 4,
		"TeamEnergyCost": 16,
		"MonsterLevel": 55,
		"BattleID": 5306,
		"PlayerExp": 20,
		"HeroExp": 150,
		"Gold": 2280,
		"DropID": 5077,
		"TeamDropID": 8057,
		"OperationalActivityDropID": 0,
		"DayBonusDropID": 5067,
		"DayBonusExtraDropID": 0,
		"DisplayRewardCount": 3,
		"Strategy": ""
	},
	{
		"ID": 38,
		"Name": "萨尔拉斯60",
		"TeamName": "Lv.60",
		"OpenPlayerLevel": 60,
		"TicketCost": 0,
		"EnergySuccess": 20,
		"EnergyFail": 4,
		"TeamEnergyCost": 16,
		"MonsterLevel": 60,
		"BattleID": 5307,
		"PlayerExp": 20,
		"HeroExp": 160,
		"Gold": 2564,
		"DropID": 5078,
		"TeamDropID": 8058,
		"OperationalActivityDropID": 0,
		"DayBonusDropID": 5068,
		"DayBonusExtraDropID": 0,
		"DisplayRewardCount": 3,
		"Strategy": ""
	},
	{
		"ID": 39,
		"Name": "萨尔拉斯65",
		"TeamName": "Lv.65",
		"OpenPlayerLevel": 60,
		"TicketCost": 0,
		"EnergySuccess": 20,
		"EnergyFail": 4,
		"TeamEnergyCost": 16,
		"MonsterLevel": 65,
		"BattleID": 5308,
		"PlayerExp": 20,
		"HeroExp": 160,
		"Gold": 2564,
		"DropID": 5079,
		"TeamDropID": 8059,
		"OperationalActivityDropID": 0,
		"DayBonusDropID": 5069,
		"DayBonusExtraDropID": 0,
		"DisplayRewardCount": 3,
		"Strategy": ""
	},
	{
		"ID": 40,
		"Name": "萨尔拉斯70",
		"TeamName": "Lv.70",
		"OpenPlayerLevel": 65,
		"TicketCost": 0,
		"EnergySuccess": 20,
		"EnergyFail": 4,
		"TeamEnergyCost": 16,
		"MonsterLevel": 70,
		"BattleID": 5309,
		"PlayerExp": 20,
		"HeroExp": 160,
		"Gold": 2564,
		"DropID": 5080,
		"TeamDropID": 8059,
		"OperationalActivityDropID": 0,
		"DayBonusDropID": 5070,
		"DayBonusExtraDropID": 0,
		"DisplayRewardCount": 3,
		"Strategy": ""
	},
	{
		"ID": 41,
		"Name": "巴尔迪亚25",
		"TeamName": "Lv.25",
		"OpenPlayerLevel": 20,
		"TicketCost": 0,
		"EnergySuccess": 20,
		"EnergyFail": 4,
		"TeamEnergyCost": 16,
		"MonsterLevel": 25,
		"BattleID": 5400,
		"PlayerExp": 20,
		"HeroExp": 90,
		"Gold": 866,
		"DropID": 5091,
		"TeamDropID": 8051,
		"OperationalActivityDropID": 0,
		"DayBonusDropID": 5081,
		"DayBonusExtraDropID": 0,
		"DisplayRewardCount": 2,
		"Strategy": ""
	},
	{
		"ID": 42,
		"Name": "巴尔迪亚30",
		"TeamName": "Lv.30",
		"OpenPlayerLevel": 30,
		"TicketCost": 0,
		"EnergySuccess": 20,
		"EnergyFail": 4,
		"TeamEnergyCost": 16,
		"MonsterLevel": 30,
		"BattleID": 5401,
		"PlayerExp": 20,
		"HeroExp": 100,
		"Gold": 1062,
		"DropID": 5092,
		"TeamDropID": 8052,
		"OperationalActivityDropID": 0,
		"DayBonusDropID": 5082,
		"DayBonusExtraDropID": 0,
		"DisplayRewardCount": 3,
		"Strategy": ""
	},
	{
		"ID": 43,
		"Name": "巴尔迪亚35",
		"TeamName": "Lv.35",
		"OpenPlayerLevel": 35,
		"TicketCost": 0,
		"EnergySuccess": 20,
		"EnergyFail": 4,
		"TeamEnergyCost": 16,
		"MonsterLevel": 35,
		"BattleID": 5402,
		"PlayerExp": 20,
		"HeroExp": 110,
		"Gold": 1276,
		"DropID": 5093,
		"TeamDropID": 8053,
		"OperationalActivityDropID": 0,
		"DayBonusDropID": 5083,
		"DayBonusExtraDropID": 0,
		"DisplayRewardCount": 3,
		"Strategy": ""
	},
	{
		"ID": 44,
		"Name": "巴尔迪亚40",
		"TeamName": "Lv.40",
		"OpenPlayerLevel": 40,
		"TicketCost": 0,
		"EnergySuccess": 20,
		"EnergyFail": 4,
		"TeamEnergyCost": 16,
		"MonsterLevel": 40,
		"BattleID": 5403,
		"PlayerExp": 20,
		"HeroExp": 120,
		"Gold": 1504,
		"DropID": 5094,
		"TeamDropID": 8054,
		"OperationalActivityDropID": 0,
		"DayBonusDropID": 5084,
		"DayBonusExtraDropID": 0,
		"DisplayRewardCount": 3,
		"Strategy": ""
	},
	{
		"ID": 45,
		"Name": "巴尔迪亚45",
		"TeamName": "Lv.45",
		"OpenPlayerLevel": 45,
		"TicketCost": 0,
		"EnergySuccess": 20,
		"EnergyFail": 4,
		"TeamEnergyCost": 16,
		"MonsterLevel": 45,
		"BattleID": 5404,
		"PlayerExp": 20,
		"HeroExp": 130,
		"Gold": 1750,
		"DropID": 5095,
		"TeamDropID": 8055,
		"OperationalActivityDropID": 0,
		"DayBonusDropID": 5085,
		"DayBonusExtraDropID": 0,
		"DisplayRewardCount": 3,
		"Strategy": ""
	},
	{
		"ID": 46,
		"Name": "巴尔迪亚50",
		"TeamName": "Lv.50",
		"OpenPlayerLevel": 50,
		"TicketCost": 0,
		"EnergySuccess": 20,
		"EnergyFail": 4,
		"TeamEnergyCost": 16,
		"MonsterLevel": 50,
		"BattleID": 5405,
		"PlayerExp": 20,
		"HeroExp": 140,
		"Gold": 2008,
		"DropID": 5096,
		"TeamDropID": 8056,
		"OperationalActivityDropID": 0,
		"DayBonusDropID": 5086,
		"DayBonusExtraDropID": 0,
		"DisplayRewardCount": 3,
		"Strategy": ""
	},
	{
		"ID": 47,
		"Name": "巴尔迪亚55",
		"TeamName": "Lv.55",
		"OpenPlayerLevel": 55,
		"TicketCost": 0,
		"EnergySuccess": 20,
		"EnergyFail": 4,
		"TeamEnergyCost": 16,
		"MonsterLevel": 55,
		"BattleID": 5406,
		"PlayerExp": 20,
		"HeroExp": 150,
		"Gold": 2280,
		"DropID": 5097,
		"TeamDropID": 8057,
		"OperationalActivityDropID": 0,
		"DayBonusDropID": 5087,
		"DayBonusExtraDropID": 0,
		"DisplayRewardCount": 3,
		"Strategy": ""
	},
	{
		"ID": 48,
		"Name": "巴尔迪亚60",
		"TeamName": "Lv.60",
		"OpenPlayerLevel": 60,
		"TicketCost": 0,
		"EnergySuccess": 20,
		"EnergyFail": 4,
		"TeamEnergyCost": 16,
		"MonsterLevel": 60,
		"BattleID": 5407,
		"PlayerExp": 20,
		"HeroExp": 160,
		"Gold": 2564,
		"DropID": 5098,
		"TeamDropID": 8058,
		"OperationalActivityDropID": 0,
		"DayBonusDropID": 5088,
		"DayBonusExtraDropID": 0,
		"DisplayRewardCount": 3,
		"Strategy": ""
	},
	{
		"ID": 49,
		"Name": "巴尔迪亚65",
		"TeamName": "Lv.65",
		"OpenPlayerLevel": 60,
		"TicketCost": 0,
		"EnergySuccess": 20,
		"EnergyFail": 4,
		"TeamEnergyCost": 16,
		"MonsterLevel": 65,
		"BattleID": 5408,
		"PlayerExp": 20,
		"HeroExp": 160,
		"Gold": 2564,
		"DropID": 5099,
		"TeamDropID": 8059,
		"OperationalActivityDropID": 0,
		"DayBonusDropID": 5089,
		"DayBonusExtraDropID": 0,
		"DisplayRewardCount": 3,
		"Strategy": ""
	},
	{
		"ID": 50,
		"Name": "巴尔迪亚70",
		"TeamName": "Lv.70",
		"OpenPlayerLevel": 65,
		"TicketCost": 0,
		"EnergySuccess": 20,
		"EnergyFail": 4,
		"TeamEnergyCost": 16,
		"MonsterLevel": 70,
		"BattleID": 5409,
		"PlayerExp": 20,
		"HeroExp": 160,
		"Gold": 2564,
		"DropID": 5100,
		"TeamDropID": 8059,
		"OperationalActivityDropID": 0,
		"DayBonusDropID": 5090,
		"DayBonusExtraDropID": 0,
		"DisplayRewardCount": 3,
		"Strategy": ""
	},
	{
		"ID": 51,
		"Name": "女神之殿25",
		"TeamName": "Lv.25",
		"OpenPlayerLevel": 20,
		"TicketCost": 0,
		"EnergySuccess": 20,
		"EnergyFail": 4,
		"TeamEnergyCost": 16,
		"MonsterLevel": 25,
		"BattleID": 5500,
		"PlayerExp": 20,
		"HeroExp": 90,
		"Gold": 866,
		"DropID": 5111,
		"TeamDropID": 8051,
		"OperationalActivityDropID": 0,
		"DayBonusDropID": 5101,
		"DayBonusExtraDropID": 0,
		"DisplayRewardCount": 2,
		"Strategy": ""
	},
	{
		"ID": 52,
		"Name": "女神之殿30",
		"TeamName": "Lv.30",
		"OpenPlayerLevel": 30,
		"TicketCost": 0,
		"EnergySuccess": 20,
		"EnergyFail": 4,
		"TeamEnergyCost": 16,
		"MonsterLevel": 30,
		"BattleID": 5501,
		"PlayerExp": 20,
		"HeroExp": 100,
		"Gold": 1062,
		"DropID": 5112,
		"TeamDropID": 8052,
		"OperationalActivityDropID": 0,
		"DayBonusDropID": 5102,
		"DayBonusExtraDropID": 0,
		"DisplayRewardCount": 3,
		"Strategy": ""
	},
	{
		"ID": 53,
		"Name": "女神之殿35",
		"TeamName": "Lv.35",
		"OpenPlayerLevel": 35,
		"TicketCost": 0,
		"EnergySuccess": 20,
		"EnergyFail": 4,
		"TeamEnergyCost": 16,
		"MonsterLevel": 35,
		"BattleID": 5502,
		"PlayerExp": 20,
		"HeroExp": 110,
		"Gold": 1276,
		"DropID": 5113,
		"TeamDropID": 8053,
		"OperationalActivityDropID": 0,
		"DayBonusDropID": 5103,
		"DayBonusExtraDropID": 0,
		"DisplayRewardCount": 3,
		"Strategy": ""
	},
	{
		"ID": 54,
		"Name": "女神之殿40",
		"TeamName": "Lv.40",
		"OpenPlayerLevel": 40,
		"TicketCost": 0,
		"EnergySuccess": 20,
		"EnergyFail": 4,
		"TeamEnergyCost": 16,
		"MonsterLevel": 40,
		"BattleID": 5503,
		"PlayerExp": 20,
		"HeroExp": 120,
		"Gold": 1504,
		"DropID": 5114,
		"TeamDropID": 8054,
		"OperationalActivityDropID": 0,
		"DayBonusDropID": 5104,
		"DayBonusExtraDropID": 0,
		"DisplayRewardCount": 3,
		"Strategy": ""
	},
	{
		"ID": 55,
		"Name": "女神之殿45",
		"TeamName": "Lv.45",
		"OpenPlayerLevel": 45,
		"TicketCost": 0,
		"EnergySuccess": 20,
		"EnergyFail": 4,
		"TeamEnergyCost": 16,
		"MonsterLevel": 45,
		"BattleID": 5504,
		"PlayerExp": 20,
		"HeroExp": 130,
		"Gold": 1750,
		"DropID": 5115,
		"TeamDropID": 8055,
		"OperationalActivityDropID": 0,
		"DayBonusDropID": 5105,
		"DayBonusExtraDropID": 0,
		"DisplayRewardCount": 3,
		"Strategy": ""
	},
	{
		"ID": 56,
		"Name": "女神之殿50",
		"TeamName": "Lv.50",
		"OpenPlayerLevel": 50,
		"TicketCost": 0,
		"EnergySuccess": 20,
		"EnergyFail": 4,
		"TeamEnergyCost": 16,
		"MonsterLevel": 50,
		"BattleID": 5505,
		"PlayerExp": 20,
		"HeroExp": 140,
		"Gold": 2008,
		"DropID": 5116,
		"TeamDropID": 8056,
		"OperationalActivityDropID": 0,
		"DayBonusDropID": 5106,
		"DayBonusExtraDropID": 0,
		"DisplayRewardCount": 3,
		"Strategy": ""
	},
	{
		"ID": 57,
		"Name": "女神之殿55",
		"TeamName": "Lv.55",
		"OpenPlayerLevel": 55,
		"TicketCost": 0,
		"EnergySuccess": 20,
		"EnergyFail": 4,
		"TeamEnergyCost": 16,
		"MonsterLevel": 55,
		"BattleID": 5506,
		"PlayerExp": 20,
		"HeroExp": 150,
		"Gold": 2280,
		"DropID": 5117,
		"TeamDropID": 8057,
		"OperationalActivityDropID": 0,
		"DayBonusDropID": 5107,
		"DayBonusExtraDropID": 0,
		"DisplayRewardCount": 3,
		"Strategy": ""
	},
	{
		"ID": 58,
		"Name": "女神之殿60",
		"TeamName": "Lv.60",
		"OpenPlayerLevel": 60,
		"TicketCost": 0,
		"EnergySuccess": 20,
		"EnergyFail": 4,
		"TeamEnergyCost": 16,
		"MonsterLevel": 60,
		"BattleID": 5507,
		"PlayerExp": 20,
		"HeroExp": 160,
		"Gold": 2564,
		"DropID": 5118,
		"TeamDropID": 8058,
		"OperationalActivityDropID": 0,
		"DayBonusDropID": 5108,
		"DayBonusExtraDropID": 0,
		"DisplayRewardCount": 3,
		"Strategy": ""
	},
	{
		"ID": 59,
		"Name": "女神之殿65",
		"TeamName": "Lv.65",
		"OpenPlayerLevel": 60,
		"TicketCost": 0,
		"EnergySuccess": 20,
		"EnergyFail": 4,
		"TeamEnergyCost": 16,
		"MonsterLevel": 65,
		"BattleID": 5508,
		"PlayerExp": 20,
		"HeroExp": 160,
		"Gold": 2564,
		"DropID": 5119,
		"TeamDropID": 8059,
		"OperationalActivityDropID": 0,
		"DayBonusDropID": 5109,
		"DayBonusExtraDropID": 0,
		"DisplayRewardCount": 3,
		"Strategy": ""
	},
	{
		"ID": 60,
		"Name": "女神之殿70",
		"TeamName": "Lv.70",
		"OpenPlayerLevel": 65,
		"TicketCost": 0,
		"EnergySuccess": 20,
		"EnergyFail": 4,
		"TeamEnergyCost": 16,
		"MonsterLevel": 70,
		"BattleID": 5509,
		"PlayerExp": 20,
		"HeroExp": 160,
		"Gold": 2564,
		"DropID": 5120,
		"TeamDropID": 8059,
		"OperationalActivityDropID": 0,
		"DayBonusDropID": 5110,
		"DayBonusExtraDropID": 0,
		"DisplayRewardCount": 3,
		"Strategy": ""
	},
	{
		"ID": 61,
		"Name": "瓦尔赛利亚25",
		"TeamName": "Lv.25",
		"OpenPlayerLevel": 20,
		"TicketCost": 0,
		"EnergySuccess": 20,
		"EnergyFail": 4,
		"TeamEnergyCost": 16,
		"MonsterLevel": 25,
		"BattleID": 5600,
		"PlayerExp": 20,
		"HeroExp": 90,
		"Gold": 866,
		"DropID": 5131,
		"TeamDropID": 8051,
		"OperationalActivityDropID": 0,
		"DayBonusDropID": 5121,
		"DayBonusExtraDropID": 0,
		"DisplayRewardCount": 2,
		"Strategy": ""
	},
	{
		"ID": 62,
		"Name": "瓦尔赛利亚30",
		"TeamName": "Lv.30",
		"OpenPlayerLevel": 30,
		"TicketCost": 0,
		"EnergySuccess": 20,
		"EnergyFail": 4,
		"TeamEnergyCost": 16,
		"MonsterLevel": 30,
		"BattleID": 5601,
		"PlayerExp": 20,
		"HeroExp": 100,
		"Gold": 1062,
		"DropID": 5132,
		"TeamDropID": 8052,
		"OperationalActivityDropID": 0,
		"DayBonusDropID": 5122,
		"DayBonusExtraDropID": 0,
		"DisplayRewardCount": 3,
		"Strategy": ""
	},
	{
		"ID": 63,
		"Name": "瓦尔赛利亚35",
		"TeamName": "Lv.35",
		"OpenPlayerLevel": 35,
		"TicketCost": 0,
		"EnergySuccess": 20,
		"EnergyFail": 4,
		"TeamEnergyCost": 16,
		"MonsterLevel": 35,
		"BattleID": 5602,
		"PlayerExp": 20,
		"HeroExp": 110,
		"Gold": 1276,
		"DropID": 5133,
		"TeamDropID": 8053,
		"OperationalActivityDropID": 0,
		"DayBonusDropID": 5123,
		"DayBonusExtraDropID": 0,
		"DisplayRewardCount": 3,
		"Strategy": ""
	},
	{
		"ID": 64,
		"Name": "瓦尔赛利亚40",
		"TeamName": "Lv.40",
		"OpenPlayerLevel": 40,
		"TicketCost": 0,
		"EnergySuccess": 20,
		"EnergyFail": 4,
		"TeamEnergyCost": 16,
		"MonsterLevel": 40,
		"BattleID": 5603,
		"PlayerExp": 20,
		"HeroExp": 120,
		"Gold": 1504,
		"DropID": 5134,
		"TeamDropID": 8054,
		"OperationalActivityDropID": 0,
		"DayBonusDropID": 5124,
		"DayBonusExtraDropID": 0,
		"DisplayRewardCount": 3,
		"Strategy": ""
	},
	{
		"ID": 65,
		"Name": "瓦尔赛利亚45",
		"TeamName": "Lv.45",
		"OpenPlayerLevel": 45,
		"TicketCost": 0,
		"EnergySuccess": 20,
		"EnergyFail": 4,
		"TeamEnergyCost": 16,
		"MonsterLevel": 45,
		"BattleID": 5604,
		"PlayerExp": 20,
		"HeroExp": 130,
		"Gold": 1750,
		"DropID": 5135,
		"TeamDropID": 8055,
		"OperationalActivityDropID": 0,
		"DayBonusDropID": 5125,
		"DayBonusExtraDropID": 0,
		"DisplayRewardCount": 3,
		"Strategy": ""
	},
	{
		"ID": 66,
		"Name": "瓦尔赛利亚50",
		"TeamName": "Lv.50",
		"OpenPlayerLevel": 50,
		"TicketCost": 0,
		"EnergySuccess": 20,
		"EnergyFail": 4,
		"TeamEnergyCost": 16,
		"MonsterLevel": 50,
		"BattleID": 5605,
		"PlayerExp": 20,
		"HeroExp": 140,
		"Gold": 2008,
		"DropID": 5136,
		"TeamDropID": 8056,
		"OperationalActivityDropID": 0,
		"DayBonusDropID": 5126,
		"DayBonusExtraDropID": 0,
		"DisplayRewardCount": 3,
		"Strategy": ""
	},
	{
		"ID": 67,
		"Name": "瓦尔赛利亚55",
		"TeamName": "Lv.55",
		"OpenPlayerLevel": 55,
		"TicketCost": 0,
		"EnergySuccess": 20,
		"EnergyFail": 4,
		"TeamEnergyCost": 16,
		"MonsterLevel": 55,
		"BattleID": 5606,
		"PlayerExp": 20,
		"HeroExp": 150,
		"Gold": 2280,
		"DropID": 5137,
		"TeamDropID": 8057,
		"OperationalActivityDropID": 0,
		"DayBonusDropID": 5127,
		"DayBonusExtraDropID": 0,
		"DisplayRewardCount": 3,
		"Strategy": ""
	},
	{
		"ID": 68,
		"Name": "瓦尔赛利亚60",
		"TeamName": "Lv.60",
		"OpenPlayerLevel": 60,
		"TicketCost": 0,
		"EnergySuccess": 20,
		"EnergyFail": 4,
		"TeamEnergyCost": 16,
		"MonsterLevel": 60,
		"BattleID": 5607,
		"PlayerExp": 20,
		"HeroExp": 160,
		"Gold": 2564,
		"DropID": 5138,
		"TeamDropID": 8058,
		"OperationalActivityDropID": 0,
		"DayBonusDropID": 5128,
		"DayBonusExtraDropID": 0,
		"DisplayRewardCount": 3,
		"Strategy": ""
	},
	{
		"ID": 69,
		"Name": "瓦尔赛利亚65",
		"TeamName": "Lv.65",
		"OpenPlayerLevel": 60,
		"TicketCost": 0,
		"EnergySuccess": 20,
		"EnergyFail": 4,
		"TeamEnergyCost": 16,
		"MonsterLevel": 65,
		"BattleID": 5608,
		"PlayerExp": 20,
		"HeroExp": 160,
		"Gold": 2564,
		"DropID": 5139,
		"TeamDropID": 8059,
		"OperationalActivityDropID": 0,
		"DayBonusDropID": 5129,
		"DayBonusExtraDropID": 0,
		"DisplayRewardCount": 3,
		"Strategy": ""
	},
	{
		"ID": 70,
		"Name": "瓦尔赛利亚70",
		"TeamName": "Lv.70",
		"OpenPlayerLevel": 65,
		"TicketCost": 0,
		"EnergySuccess": 20,
		"EnergyFail": 4,
		"TeamEnergyCost": 16,
		"MonsterLevel": 70,
		"BattleID": 5609,
		"PlayerExp": 20,
		"HeroExp": 160,
		"Gold": 2564,
		"DropID": 5140,
		"TeamDropID": 8059,
		"OperationalActivityDropID": 0,
		"DayBonusDropID": 5130,
		"DayBonusExtraDropID": 0,
		"DisplayRewardCount": 3,
		"Strategy": ""
	}
]