[
	{
		"ID": 1001,
		"Name": "主角传承",
		"BattleID": 42000,
		"MonsterLevel": 70,
		"Desc": "兰古利萨的辉光，将由我来守护下去！",
		"Image": "UI/BattleThumbnail_ABS/Castle007.png"
	},
	{
		"ID": 1003,
		"Name": "泰坦之力",
		"BattleID": 42001,
		"MonsterLevel": 70,
		"Desc": "一个人，就是一道城墙！",
		"Image": "UI/BattleThumbnail_ABS/Castle007.png"
	},
	{
		"ID": 1004,
		"Name": "萤萤之光",
		"BattleID": 42002,
		"MonsterLevel": 70,
		"Desc": "萤火之光，也能照亮整个艾露萨利亚！",
		"Image": "UI/BattleThumbnail_ABS/Castle007.png"
	},
	{
		"ID": 1005,
		"Name": "爱与希望",
		"BattleID": 42003,
		"MonsterLevel": 70,
		"Desc": "永远不能丧失希望呀！",
		"Image": "UI/BattleThumbnail_ABS/Castle007.png"
	},
	{
		"ID": 1006,
		"Name": "青龙之吼",
		"BattleID": 42004,
		"MonsterLevel": 70,
		"Desc": "这将是我最后的冲锋！",
		"Image": "UI/BattleThumbnail_ABS/Castle007.png"
	},
	{
		"ID": 1007,
		"Name": "帝王之怒",
		"BattleID": 42005,
		"MonsterLevel": 70,
		"Desc": "汝等犯上之人，在朕的剑下消亡吧！",
		"Image": "UI/BattleThumbnail_ABS/Castle007.png"
	},
	{
		"ID": 1008,
		"Name": "巫女之心",
		"BattleID": 42006,
		"MonsterLevel": 70,
		"Desc": "与利昂为敌之人，即是我的敌人！",
		"Image": "UI/BattleThumbnail_ABS/Castle007.png"
	},
	{
		"ID": 1009,
		"Name": "黑暗之魂",
		"BattleID": 42007,
		"MonsterLevel": 70,
		"Desc": "肮脏的光，永久的熄灭吧！",
		"Image": "UI/BattleThumbnail_ABS/Castle007.png"
	},
	{
		"ID": 1010,
		"Name": "正义降临",
		"BattleID": 42008,
		"MonsterLevel": 70,
		"Desc": "坚守正义，一往无前！",
		"Image": "UI/BattleThumbnail_ABS/Castle007.png"
	},
	{
		"ID": 1011,
		"Name": "以爱之名",
		"BattleID": 42009,
		"MonsterLevel": 70,
		"Desc": "兰斯先生，这是我可以与你并肩作战的证明！",
		"Image": "UI/BattleThumbnail_ABS/Castle007.png"
	},
	{
		"ID": 1012,
		"Name": "最后的战役",
		"BattleID": 42010,
		"MonsterLevel": 70,
		"Desc": "帝国也好，黑暗也罢，通通都毁灭吧！",
		"Image": "UI/BattleThumbnail_ABS/Castle007.png"
	},
	{
		"ID": 1013,
		"Name": "永恒的羁绊",
		"BattleID": 42011,
		"MonsterLevel": 70,
		"Desc": "艾尔文的选择，就是我最终的抉选！",
		"Image": "UI/BattleThumbnail_ABS/Castle007.png"
	},
	{
		"ID": 1014,
		"Name": "横冲直撞",
		"BattleID": 42012,
		"MonsterLevel": 70,
		"Desc": "读书太枯燥了，我要去冒险！",
		"Image": "UI/BattleThumbnail_ABS/Castle007.png"
	},
	{
		"ID": 1015,
		"Name": "光明之火",
		"BattleID": 42013,
		"MonsterLevel": 70,
		"Desc": "艾尔文，你难道没有什么要和我解释吗？",
		"Image": "UI/BattleThumbnail_ABS/Castle007.png"
	},
	{
		"ID": 1016,
		"Name": "向死而生",
		"BattleID": 42014,
		"MonsterLevel": 70,
		"Desc": "我所带来的灾难，就由我来平复！",
		"Image": "UI/BattleThumbnail_ABS/Castle007.png"
	},
	{
		"ID": 1017,
		"Name": "黑暗之击",
		"BattleID": 42015,
		"MonsterLevel": 70,
		"Desc": "我将用黑暗来打破黑暗！",
		"Image": "UI/BattleThumbnail_ABS/Castle007.png"
	},
	{
		"ID": 1018,
		"Name": "征服",
		"BattleID": 42016,
		"MonsterLevel": 70,
		"Desc": "光辉也好，黑暗也罢，通通给我跪下！",
		"Image": "UI/BattleThumbnail_ABS/Castle007.png"
	},
	{
		"ID": 1019,
		"Name": "海之守望者",
		"BattleID": 42017,
		"MonsterLevel": 70,
		"Desc": "任何试图伤害杰西卡老师的家伙，都将被海浪吞没！",
		"Image": "UI/BattleThumbnail_ABS/Castle007.png"
	},
	{
		"ID": 1020,
		"Name": "半魔",
		"BattleID": 42018,
		"MonsterLevel": 70,
		"Desc": "虚伪的光明，浸泡在黑暗之中吧！",
		"Image": "UI/BattleThumbnail_ABS/Castle007.png"
	},
	{
		"ID": 1021,
		"Name": "炎龙咆哮",
		"BattleID": 42019,
		"MonsterLevel": 70,
		"Desc": "炎龙兵团，只有战死的烈士，没有后退的逃兵！",
		"Image": "UI/BattleThumbnail_ABS/Castle007.png"
	},
	{
		"ID": 1022,
		"Name": "光之意志",
		"BattleID": 42020,
		"MonsterLevel": 70,
		"Desc": "以女神之名，任何沾染上黑暗之人都将被净化！",
		"Image": "UI/BattleThumbnail_ABS/Castle007.png"
	},
	{
		"ID": 1023,
		"Name": "血脉",
		"BattleID": 42021,
		"MonsterLevel": 70,
		"Desc": "抱歉，舍妹剑之所向，即是我洛加之敌！",
		"Image": "UI/BattleThumbnail_ABS/Castle007.png"
	},
	{
		"ID": 1024,
		"Name": "骑士的觉悟",
		"BattleID": 42022,
		"MonsterLevel": 70,
		"Desc": "决定战争胜负的说到底还是人啊。",
		"Image": "UI/BattleThumbnail_ABS/Castle007.png"
	},
	{
		"ID": 1025,
		"Name": "最后的抉择",
		"BattleID": 42023,
		"MonsterLevel": 70,
		"Desc": "为了法娜，我愿与诸神为敌！",
		"Image": "UI/BattleThumbnail_ABS/Castle007.png"
	},
	{
		"ID": 1026,
		"Name": "风暴之怒",
		"BattleID": 42024,
		"MonsterLevel": 70,
		"Desc": "风啊，听从我的呼唤，撕碎敌人吧！",
		"Image": "UI/BattleThumbnail_ABS/Castle007.png"
	},
	{
		"ID": 1027,
		"Name": "光之起始",
		"BattleID": 42025,
		"MonsterLevel": 70,
		"Desc": "携自由与热血之志，冲破黑暗，迎接黎明！",
		"Image": "UI/BattleThumbnail_ABS/Castle007.png"
	},
	{
		"ID": 1028,
		"Name": "暗的光面",
		"BattleID": 42026,
		"MonsterLevel": 70,
		"Desc": "如果马修需要，泽瑞达可以没有自己！",
		"Image": "UI/BattleThumbnail_ABS/Castle007.png"
	},
	{
		"ID": 1029,
		"Name": "复仇",
		"BattleID": 42027,
		"MonsterLevel": 70,
		"Desc": "为了父亲，为了拉卡斯所有无辜死去的人民！",
		"Image": "UI/BattleThumbnail_ABS/Castle007.png"
	},
	{
		"ID": 1030,
		"Name": "魔法之矢",
		"BattleID": 42028,
		"MonsterLevel": 70,
		"Desc": "魔法，是为了消除痛苦而被创造出来的力量……",
		"Image": "UI/BattleThumbnail_ABS/Castle007.png"
	},
	{
		"ID": 1031,
		"Name": "光之献祭",
		"BattleID": 42029,
		"MonsterLevel": 70,
		"Desc": "我……我愿以我的生命，换取永久的和平！",
		"Image": "UI/BattleThumbnail_ABS/Castle007.png"
	},
	{
		"ID": 1032,
		"Name": "战争的艺术",
		"BattleID": 42030,
		"MonsterLevel": 70,
		"Desc": "关于战争的智慧，我要学习的还有很多，请各位赐教。",
		"Image": "UI/BattleThumbnail_ABS/Castle007.png"
	},
	{
		"ID": 1033,
		"Name": "王女的反击",
		"BattleID": 42031,
		"MonsterLevel": 70,
		"Desc": "任何胆敢伤害巴拉鲁的家伙，都将死在我的长枪之下！",
		"Image": "UI/BattleThumbnail_ABS/Castle007.png"
	},
	{
		"ID": 1034,
		"Name": "二刀流",
		"BattleID": 42032,
		"MonsterLevel": 70,
		"Desc": "武士的宿命，杀死敌人或死在敌人的刀下。",
		"Image": "UI/BattleThumbnail_ABS/Castle007.png"
	},
	{
		"ID": 1035,
		"Name": "报复心",
		"BattleID": 42033,
		"MonsterLevel": 70,
		"Desc": "嘛……没错，这就是一场报复，我就是很记仇啊。",
		"Image": "UI/BattleThumbnail_ABS/Castle007.png"
	},
	{
		"ID": 1036,
		"Name": "相惜",
		"BattleID": 42034,
		"MonsterLevel": 70,
		"Desc": "神秘的东方之国，遵循道义的武士，请赐教。",
		"Image": "UI/BattleThumbnail_ABS/Castle007.png"
	},
	{
		"ID": 1037,
		"Name": "圣兽之怒",
		"BattleID": 42035,
		"MonsterLevel": 70,
		"Desc": "迎接老夫的怒火吧！",
		"Image": "UI/BattleThumbnail_ABS/Castle007.png"
	},
	{
		"ID": 1038,
		"Name": "恋人之心",
		"BattleID": 42036,
		"MonsterLevel": 70,
		"Desc": "没有任何人能让我放下挡在蕾拉身前的长枪！",
		"Image": "UI/BattleThumbnail_ABS/Castle007.png"
	},
	{
		"ID": 1039,
		"Name": "魔女",
		"BattleID": 42037,
		"MonsterLevel": 70,
		"Desc": "想要被我宠爱么？在黑暗之中……",
		"Image": "UI/BattleThumbnail_ABS/Castle007.png"
	},
	{
		"ID": 1040,
		"Name": "光的考教",
		"BattleID": 42038,
		"MonsterLevel": 70,
		"Desc": "那么就证明给我看吧，光是否还在你们的身上绽放着。",
		"Image": "UI/BattleThumbnail_ABS/Castle007.png"
	},
	{
		"ID": 1041,
		"Name": "见习骑士",
		"BattleID": 42039,
		"MonsterLevel": 70,
		"Desc": "即便是见习骑士，在我倒下之前，也绝不允许敌人踏过一步！",
		"Image": "UI/BattleThumbnail_ABS/Castle007.png"
	},
	{
		"ID": 1042,
		"Name": "忠义",
		"BattleID": 42040,
		"MonsterLevel": 70,
		"Desc": "保证公主的安危，即是我的职责所在！",
		"Image": "UI/BattleThumbnail_ABS/Castle007.png"
	},
	{
		"ID": 1043,
		"Name": "辅助的倔强",
		"BattleID": 42041,
		"MonsterLevel": 70,
		"Desc": "虽然我不像姐姐那样强，但也不要小瞧我！",
		"Image": "UI/BattleThumbnail_ABS/Castle007.png"
	},
	{
		"ID": 1044,
		"Name": "榜样的力量",
		"BattleID": 42042,
		"MonsterLevel": 70,
		"Desc": "我一定不会让利昂大人失望的！",
		"Image": "UI/BattleThumbnail_ABS/Castle007.png"
	},
	{
		"ID": 1045,
		"Name": "老师的责任",
		"BattleID": 42043,
		"MonsterLevel": 70,
		"Desc": "公主殿下，读书时间到了。",
		"Image": "UI/BattleThumbnail_ABS/Castle007.png"
	},
	{
		"ID": 1046,
		"Name": "塞莉娅的觉醒",
		"BattleID": 301,
		"MonsterLevel": 70,
		"Desc": "塞莉娅的觉醒",
		"Image": "UI/BattleThumbnail_ABS/Castle007.png"
	},
	{
		"ID": 1047,
		"Name": "崇拜",
		"BattleID": 42044,
		"MonsterLevel": 70,
		"Desc": "我一定会努力让兰斯先生注意到我的！",
		"Image": "UI/BattleThumbnail_ABS/Castle007.png"
	},
	{
		"ID": 1048,
		"Name": "剑士的傲骨",
		"BattleID": 42045,
		"MonsterLevel": 70,
		"Desc": "当我拿着剑，便只是一名剑士，与年龄无关！",
		"Image": "UI/BattleThumbnail_ABS/Castle007.png"
	},
	{
		"ID": 1049,
		"Name": "无尾之箭",
		"BattleID": 42046,
		"MonsterLevel": 70,
		"Desc": "不论元帅变成什么样子，我始终会陪在他的身边。",
		"Image": "UI/BattleThumbnail_ABS/Castle007.png"
	},
	{
		"ID": 1050,
		"Name": "魔剑泽瑞达的觉醒",
		"BattleID": 301,
		"MonsterLevel": 70,
		"Desc": "魔剑泽瑞达的觉醒",
		"Image": "UI/BattleThumbnail_ABS/Castle007.png"
	},
	{
		"ID": 1051,
		"Name": "永生的意志",
		"BattleID": 42047,
		"MonsterLevel": 70,
		"Desc": "卡昆西斯的意志，永不会凋零。",
		"Image": "UI/BattleThumbnail_ABS/Castle007.png"
	},
	{
		"ID": 1052,
		"Name": "天空之虹",
		"BattleID": 42048,
		"MonsterLevel": 70,
		"Desc": "姐姐贯彻的意志，就是我所前进的方向！",
		"Image": "UI/BattleThumbnail_ABS/Castle007.png"
	},
	{
		"ID": 1053,
		"Name": "黄金之盾",
		"BattleID": 42049,
		"MonsterLevel": 70,
		"Desc": "我所坚定的，是这片大陆的和平不容任何人破坏！",
		"Image": "UI/BattleThumbnail_ABS/Castle007.png"
	},
	{
		"ID": 1054,
		"Name": "吻光的魔",
		"BattleID": 42050,
		"MonsterLevel": 70,
		"Desc": "我好不容易拥有的，绝不允许任何人来破坏！",
		"Image": "UI/BattleThumbnail_ABS/Castle007.png"
	},
	{
		"ID": 1055,
		"Name": "守护之约",
		"BattleID": 42051,
		"MonsterLevel": 70,
		"Desc": "比起后退，我已经做好了死去的觉悟。",
		"Image": "UI/BattleThumbnail_ABS/Castle007.png"
	},
	{
		"ID": 1056,
		"Name": "坚决之魂",
		"BattleID": 42052,
		"MonsterLevel": 70,
		"Desc": "我再也不会受人摆布，成为哥哥的累赘了！",
		"Image": "UI/BattleThumbnail_ABS/Castle007.png"
	},
	{
		"ID": 1057,
		"Name": "最后的战争",
		"BattleID": 42053,
		"MonsterLevel": 70,
		"Desc": "终于只剩下我独自直面战争了么……",
		"Image": "UI/BattleThumbnail_ABS/Castle007.png"
	},
	{
		"ID": 1058,
		"Name": "无畏之枪",
		"BattleID": 42054,
		"MonsterLevel": 70,
		"Desc": "在我倒下之前，没有任何人能够伤害威拉提督！",
		"Image": "UI/BattleThumbnail_ABS/Castle007.png"
	},
	{
		"ID": 1059,
		"Name": "创世之愿",
		"BattleID": 42055,
		"MonsterLevel": 70,
		"Desc": "甘愿伏于所谓神下的你们，没有资格活在老夫所创造的新世界！",
		"Image": "UI/BattleThumbnail_ABS/Castle007.png"
	},
	{
		"ID": 1060,
		"Name": "救世之主",
		"BattleID": 42056,
		"MonsterLevel": 70,
		"Desc": "这是我的选择，也是我的命运。",
		"Image": "UI/BattleThumbnail_ABS/Castle007.png"
	},
	{
		"ID": 1061,
		"Name": "翡翠之触",
		"BattleID": 42057,
		"MonsterLevel": 70,
		"Desc": "痛苦，是你们带来的唯一东西，所以，忏悔吧。",
		"Image": "UI/BattleThumbnail_ABS/Castle007.png"
	},
	{
		"ID": 1062,
		"Name": "少年之誓",
		"BattleID": 42058,
		"MonsterLevel": 70,
		"Desc": "我一定会成为独当一面的勇者！",
		"Image": "UI/BattleThumbnail_ABS/Castle007.png"
	},
	{
		"ID": 1063,
		"Name": "月亮的寄托",
		"BattleID": 42059,
		"MonsterLevel": 70,
		"Desc": "我所做的，只是为了让我的族人得以生存下去。",
		"Image": "UI/BattleThumbnail_ABS/Castle007.png"
	},
	{
		"ID": 1064,
		"Name": "命运之刺",
		"BattleID": 42083,
		"MonsterLevel": 70,
		"Desc": "所有的人啊，都要为做过的事付出相应的代价……",
		"Image": "UI/BattleThumbnail_ABS/Castle007.png"
	},
	{
		"ID": 1065,
		"Name": "月民之志",
		"BattleID": 42082,
		"MonsterLevel": 70,
		"Desc": "看清楚吧！这是所有克利姆索兰达人民的反击！",
		"Image": "UI/BattleThumbnail_ABS/Castle007.png"
	},
	{
		"ID": 1066,
		"Name": "天空之翼",
		"BattleID": 42060,
		"MonsterLevel": 70,
		"Desc": "终于轮到我大展身手了！",
		"Image": "UI/BattleThumbnail_ABS/Castle007.png"
	},
	{
		"ID": 1067,
		"Name": "疯魔",
		"BattleID": 42061,
		"MonsterLevel": 70,
		"Desc": "战斗……战斗……！",
		"Image": "UI/BattleThumbnail_ABS/Castle007.png"
	},
	{
		"ID": 1068,
		"Name": "",
		"BattleID": 301,
		"MonsterLevel": 70,
		"Desc": "",
		"Image": "UI/BattleThumbnail_ABS/Castle007.png"
	},
	{
		"ID": 1069,
		"Name": "游击士的意志",
		"BattleID": 42062,
		"MonsterLevel": 70,
		"Desc": "为了身后的大家……我不能后退……绝不后退！",
		"Image": "UI/BattleThumbnail_ABS/Castle007.png"
	},
	{
		"ID": 1070,
		"Name": "月下之约",
		"BattleID": 42063,
		"MonsterLevel": 70,
		"Desc": "支撑着我的，是心底那份羁绊……",
		"Image": "UI/BattleThumbnail_ABS/Castle007.png"
	},
	{
		"ID": 1071,
		"Name": "歼灭天使",
		"BattleID": 42064,
		"MonsterLevel": 70,
		"Desc": "玲……是很「有用」的人……",
		"Image": "UI/BattleThumbnail_ABS/Castle007.png"
	},
	{
		"ID": 1072,
		"Name": "苍金之剑",
		"BattleID": 42065,
		"MonsterLevel": 70,
		"Desc": "我已化身修罗，无喜无悲……",
		"Image": "UI/BattleThumbnail_ABS/Castle007.png"
	},
	{
		"ID": 1073,
		"Name": "吟游诗人",
		"BattleID": 42066,
		"MonsterLevel": 70,
		"Desc": "冒险，只不过是我传播爱的一种方式，所以，不要挡路！",
		"Image": "UI/BattleThumbnail_ABS/Castle007.png"
	},
	{
		"ID": 1074,
		"Name": "代理女王",
		"BattleID": 42067,
		"MonsterLevel": 70,
		"Desc": "我所做的一切都是为了我的亲人和朋友。基库，上了哦！",
		"Image": "UI/BattleThumbnail_ABS/Castle007.png"
	},
	{
		"ID": 1075,
		"Name": "光之妖精",
		"BattleID": 42086,
		"MonsterLevel": 70,
		"Desc": "看好了！这，就是精灵魔法！",
		"Image": "UI/BattleThumbnail_ABS/Castle007.png"
	},
	{
		"ID": 1076,
		"Name": "宿命之人",
		"BattleID": 42087,
		"MonsterLevel": 70,
		"Desc": "超脱时空的束缚，宿命的对决！",
		"Image": "UI/BattleThumbnail_ABS/Castle007.png"
	},
	{
		"ID": 1077,
		"Name": "自由之剑",
		"BattleID": 42088,
		"MonsterLevel": 70,
		"Desc": "国王的权威或是神的教义都和我无关，我唯一效忠的只有自己的信念！",
		"Image": "UI/BattleThumbnail_ABS/Castle007.png"
	},
	{
		"ID": 1078,
		"Name": "暗之妖精",
		"BattleID": 42089,
		"MonsterLevel": 70,
		"Desc": "黑暗让我更悄无声息的……将你杀死！",
		"Image": "UI/BattleThumbnail_ABS/Castle007.png"
	},
	{
		"ID": 1079,
		"Name": "荒鹰",
		"BattleID": 42068,
		"MonsterLevel": 70,
		"Desc": "这是我新领悟的剑术，看招！",
		"Image": "UI/BattleThumbnail_ABS/Castle007.png"
	},
	{
		"ID": 1080,
		"Name": "购物狂人",
		"BattleID": 42069,
		"MonsterLevel": 70,
		"Desc": "走开！所有阻止我购物的家伙都是敌人！",
		"Image": "UI/BattleThumbnail_ABS/Castle007.png"
	},
	{
		"ID": 1081,
		"Name": "萝莉要长大",
		"BattleID": 42070,
		"MonsterLevel": 70,
		"Desc": "阻止我嫁给大神哥哥的你们，都是坏人！",
		"Image": "UI/BattleThumbnail_ABS/Castle007.png"
	},
	{
		"ID": 1082,
		"Name": "魔王大暴走",
		"BattleID": 42071,
		"MonsterLevel": 70,
		"Desc": "魔王之血正在沸腾……",
		"Image": "UI/BattleThumbnail_ABS/Castle007.png"
	},
	{
		"ID": 1083,
		"Name": "邪眼黑龙",
		"BattleID": 42072,
		"MonsterLevel": 70,
		"Desc": "湮灭，于地狱之中升腾而起的黑色火焰……",
		"Image": "UI/BattleThumbnail_ABS/Castle007.png"
	},
	{
		"ID": 1084,
		"Name": "死亡之舞",
		"BattleID": 42073,
		"MonsterLevel": 70,
		"Desc": "风华圆舞阵，于杀戮之中绽放的花朵。",
		"Image": "UI/BattleThumbnail_ABS/Castle007.png"
	},
	{
		"ID": 1085,
		"Name": "死斗",
		"BattleID": 42074,
		"MonsterLevel": 70,
		"Desc": "宿命的决斗，迎向死亡的最后一击。",
		"Image": "UI/BattleThumbnail_ABS/Castle007.png"
	},
	{
		"ID": 1086,
		"Name": "男人的觉悟",
		"BattleID": 42075,
		"MonsterLevel": 70,
		"Desc": "冰雪中的女孩儿，爆发的男子汉意志。",
		"Image": "UI/BattleThumbnail_ABS/Castle007.png"
	},
	{
		"ID": 1087,
		"Name": "亡语",
		"BattleID": 42076,
		"MonsterLevel": 70,
		"Desc": "哥哥死了……所有人，一起吧……",
		"Image": "UI/BattleThumbnail_ABS/Castle007.png"
	},
	{
		"ID": 1088,
		"Name": "妖精之吻",
		"BattleID": 42077,
		"MonsterLevel": 70,
		"Desc": "别动，我手中的箭已经瞄准了。",
		"Image": "UI/BattleThumbnail_ABS/Castle007.png"
	},
	{
		"ID": 1089,
		"Name": "抉择",
		"BattleID": 42078,
		"MonsterLevel": 70,
		"Desc": "化身为剑，既是赎罪，也是解脱……",
		"Image": "UI/BattleThumbnail_ABS/Castle007.png"
	},
	{
		"ID": 1091,
		"Name": "传承的意志",
		"BattleID": 42079,
		"MonsterLevel": 70,
		"Desc": "我定会成为像父亲那样伟大的战士，从这一刻开始！",
		"Image": "UI/BattleThumbnail_ABS/Castle007.png"
	},
	{
		"ID": 1092,
		"Name": "神之意志",
		"BattleID": 42080,
		"MonsterLevel": 70,
		"Desc": "代行神旨，诸暗退散！",
		"Image": "UI/BattleThumbnail_ABS/Castle007.png"
	},
	{
		"ID": 1093,
		"Name": "骑士之誓",
		"BattleID": 42081,
		"MonsterLevel": 70,
		"Desc": "曾经发生在克利姆索兰达身上的事情，我绝不容许再次发生！",
		"Image": "UI/BattleThumbnail_ABS/Castle007.png"
	},
	{
		"ID": 1094,
		"Name": "家的力量",
		"BattleID": 42084,
		"MonsterLevel": 70,
		"Desc": "这里是我的村落，是我绝对要守护的地方！",
		"Image": "UI/BattleThumbnail_ABS/Castle007.png"
	},
	{
		"ID": 1095,
		"Name": "王子的冒险",
		"BattleID": 42085,
		"MonsterLevel": 70,
		"Desc": "未来的卡昆西斯之王！登场！",
		"Image": "UI/BattleThumbnail_ABS/Castle007.png"
	},
	{
		"ID": 1096,
		"Name": "英雄的觉醒",
		"BattleID": 301,
		"MonsterLevel": 70,
		"Desc": "英雄的觉醒",
		"Image": "UI/BattleThumbnail_ABS/Arena003.png"
	},
	{
		"ID": 1097,
		"Name": "卡昆西斯的试炼",
		"BattleID": 42092,
		"MonsterLevel": 70,
		"Desc": "来吧，我会展示我守护卡昆西斯的决意！",
		"Image": "UI/BattleThumbnail_ABS/Castle007.png"
	},
	{
		"ID": 1098,
		"Name": "英雄的觉醒",
		"BattleID": 301,
		"MonsterLevel": 70,
		"Desc": "英雄的觉醒",
		"Image": "UI/BattleThumbnail_ABS/Arena003.png"
	},
	{
		"ID": 1099,
		"Name": "英雄的觉醒",
		"BattleID": 301,
		"MonsterLevel": 70,
		"Desc": "英雄的觉醒",
		"Image": "UI/BattleThumbnail_ABS/Arena003.png"
	},
	{
		"ID": 1100,
		"Name": "英雄的觉醒",
		"BattleID": 301,
		"MonsterLevel": 70,
		"Desc": "英雄的觉醒",
		"Image": "UI/BattleThumbnail_ABS/Arena003.png"
	},
	{
		"ID": 1101,
		"Name": "英雄的觉醒",
		"BattleID": 301,
		"MonsterLevel": 70,
		"Desc": "英雄的觉醒",
		"Image": "UI/BattleThumbnail_ABS/Arena003.png"
	},
	{
		"ID": 1102,
		"Name": "英雄的觉醒",
		"BattleID": 301,
		"MonsterLevel": 70,
		"Desc": "英雄的觉醒",
		"Image": "UI/BattleThumbnail_ABS/Arena003.png"
	},
	{
		"ID": 1103,
		"Name": "争斗的月相",
		"BattleID": 42093,
		"MonsterLevel": 70,
		"Desc": "世代的仇恨，也因为月之民们漫长的寿命而显得格外深刻。",
		"Image": "UI/BattleThumbnail_ABS/Castle007.png"
	},
	{
		"ID": 1104,
		"Name": "英雄的觉醒",
		"BattleID": 301,
		"MonsterLevel": 70,
		"Desc": "英雄的觉醒",
		"Image": "UI/BattleThumbnail_ABS/Arena003.png"
	},
	{
		"ID": 1105,
		"Name": "英雄的觉醒",
		"BattleID": 301,
		"MonsterLevel": 70,
		"Desc": "英雄的觉醒",
		"Image": "UI/BattleThumbnail_ABS/Arena003.png"
	},
	{
		"ID": 1106,
		"Name": "英雄的觉醒",
		"BattleID": 301,
		"MonsterLevel": 70,
		"Desc": "英雄的觉醒",
		"Image": "UI/BattleThumbnail_ABS/Arena003.png"
	},
	{
		"ID": 1107,
		"Name": "英雄的觉醒",
		"BattleID": 301,
		"MonsterLevel": 70,
		"Desc": "英雄的觉醒",
		"Image": "UI/BattleThumbnail_ABS/Arena003.png"
	},
	{
		"ID": 1108,
		"Name": "英雄的觉醒",
		"BattleID": 301,
		"MonsterLevel": 70,
		"Desc": "英雄的觉醒",
		"Image": "UI/BattleThumbnail_ABS/Arena003.png"
	},
	{
		"ID": 1109,
		"Name": "英雄的觉醒",
		"BattleID": 301,
		"MonsterLevel": 70,
		"Desc": "英雄的觉醒",
		"Image": "UI/BattleThumbnail_ABS/Arena003.png"
	},
	{
		"ID": 1110,
		"Name": "自警团之星",
		"BattleID": 42090,
		"MonsterLevel": 70,
		"Desc": "接下来就让你见识一下自警团真正的实力吧！",
		"Image": "UI/BattleThumbnail_ABS/Castle007.png"
	},
	{
		"ID": 1111,
		"Name": "万事屋的禁忌",
		"BattleID": 42091,
		"MonsterLevel": 70,
		"Desc": "唔……适可而止吧，这里不是你能随意踏入的地方。",
		"Image": "UI/BattleThumbnail_ABS/Castle007.png"
	},
	{
		"ID": 1112,
		"Name": "英雄的觉醒",
		"BattleID": 301,
		"MonsterLevel": 70,
		"Desc": "英雄的觉醒",
		"Image": "UI/BattleThumbnail_ABS/Arena003.png"
	},
	{
		"ID": 1113,
		"Name": "英雄的觉醒",
		"BattleID": 301,
		"MonsterLevel": 70,
		"Desc": "英雄的觉醒",
		"Image": "UI/BattleThumbnail_ABS/Arena003.png"
	},
	{
		"ID": 1114,
		"Name": "英雄的觉醒",
		"BattleID": 301,
		"MonsterLevel": 70,
		"Desc": "英雄的觉醒",
		"Image": "UI/BattleThumbnail_ABS/Arena003.png"
	},
	{
		"ID": 1115,
		"Name": "英雄的觉醒",
		"BattleID": 301,
		"MonsterLevel": 70,
		"Desc": "英雄的觉醒",
		"Image": "UI/BattleThumbnail_ABS/Arena003.png"
	},
	{
		"ID": 1116,
		"Name": "英雄的觉醒",
		"BattleID": 301,
		"MonsterLevel": 70,
		"Desc": "英雄的觉醒",
		"Image": "UI/BattleThumbnail_ABS/Arena003.png"
	},
	{
		"ID": 1117,
		"Name": "英雄的觉醒",
		"BattleID": 301,
		"MonsterLevel": 70,
		"Desc": "英雄的觉醒",
		"Image": "UI/BattleThumbnail_ABS/Arena003.png"
	},
	{
		"ID": 1118,
		"Name": "英雄的觉醒",
		"BattleID": 301,
		"MonsterLevel": 70,
		"Desc": "英雄的觉醒",
		"Image": "UI/BattleThumbnail_ABS/Arena003.png"
	},
	{
		"ID": 1119,
		"Name": "英雄的觉醒",
		"BattleID": 301,
		"MonsterLevel": 70,
		"Desc": "英雄的觉醒",
		"Image": "UI/BattleThumbnail_ABS/Arena003.png"
	},
	{
		"ID": 1120,
		"Name": "英雄的觉醒",
		"BattleID": 301,
		"MonsterLevel": 70,
		"Desc": "英雄的觉醒",
		"Image": "UI/BattleThumbnail_ABS/Arena003.png"
	},
	{
		"ID": 1121,
		"Name": "英雄的觉醒",
		"BattleID": 301,
		"MonsterLevel": 70,
		"Desc": "英雄的觉醒",
		"Image": "UI/BattleThumbnail_ABS/Arena003.png"
	},
	{
		"ID": 1122,
		"Name": "英雄的觉醒",
		"BattleID": 301,
		"MonsterLevel": 70,
		"Desc": "英雄的觉醒",
		"Image": "UI/BattleThumbnail_ABS/Arena003.png"
	},
	{
		"ID": 1123,
		"Name": "英雄的觉醒",
		"BattleID": 301,
		"MonsterLevel": 70,
		"Desc": "英雄的觉醒",
		"Image": "UI/BattleThumbnail_ABS/Arena003.png"
	},
	{
		"ID": 1124,
		"Name": "英雄的觉醒",
		"BattleID": 301,
		"MonsterLevel": 70,
		"Desc": "英雄的觉醒",
		"Image": "UI/BattleThumbnail_ABS/Arena003.png"
	},
	{
		"ID": 1125,
		"Name": "英雄的觉醒",
		"BattleID": 301,
		"MonsterLevel": 70,
		"Desc": "英雄的觉醒",
		"Image": "UI/BattleThumbnail_ABS/Arena003.png"
	},
	{
		"ID": 1126,
		"Name": "英雄的觉醒",
		"BattleID": 301,
		"MonsterLevel": 70,
		"Desc": "英雄的觉醒",
		"Image": "UI/BattleThumbnail_ABS/Arena003.png"
	},
	{
		"ID": 1127,
		"Name": "英雄的觉醒",
		"BattleID": 301,
		"MonsterLevel": 70,
		"Desc": "英雄的觉醒",
		"Image": "UI/BattleThumbnail_ABS/Arena003.png"
	},
	{
		"ID": 1128,
		"Name": "英雄的觉醒",
		"BattleID": 301,
		"MonsterLevel": 70,
		"Desc": "英雄的觉醒",
		"Image": "UI/BattleThumbnail_ABS/Arena003.png"
	},
	{
		"ID": 1129,
		"Name": "英雄的觉醒",
		"BattleID": 301,
		"MonsterLevel": 70,
		"Desc": "英雄的觉醒",
		"Image": "UI/BattleThumbnail_ABS/Arena003.png"
	},
	{
		"ID": 1130,
		"Name": "英雄的觉醒",
		"BattleID": 301,
		"MonsterLevel": 70,
		"Desc": "英雄的觉醒",
		"Image": "UI/BattleThumbnail_ABS/Arena003.png"
	},
	{
		"ID": 2001,
		"Name": "破碎之刃",
		"BattleID": 42500,
		"MonsterLevel": 70,
		"Desc": "破碎的不只是剑……还有心底的爱人……",
		"Image": "UI/BattleThumbnail_ABS/Arena003.png"
	},
	{
		"ID": 2003,
		"Name": "格尼尔的终极觉醒",
		"BattleID": 301,
		"MonsterLevel": 70,
		"Desc": "格尼尔的终极觉醒",
		"Image": "UI/BattleThumbnail_ABS/Arena003.png"
	},
	{
		"ID": 2004,
		"Name": "艾梅达的终极觉醒",
		"BattleID": 301,
		"MonsterLevel": 70,
		"Desc": "艾梅达的终极觉醒",
		"Image": "UI/BattleThumbnail_ABS/Arena003.png"
	},
	{
		"ID": 2005,
		"Name": "散落的光",
		"BattleID": 42506,
		"MonsterLevel": 70,
		"Desc": "如果可以，我想抹平这个世界上所有的伤……",
		"Image": "UI/BattleThumbnail_ABS/Arena003.png"
	},
	{
		"ID": 2006,
		"Name": "青龙世界",
		"BattleID": 42504,
		"MonsterLevel": 70,
		"Desc": "青色的光冲天而起，整个世界响起了震耳的龙吟……",
		"Image": "UI/BattleThumbnail_ABS/Arena003.png"
	},
	{
		"ID": 2007,
		"Name": "巴恩哈特的终极觉醒",
		"BattleID": 301,
		"MonsterLevel": 70,
		"Desc": "巴恩哈特的终极觉醒",
		"Image": "UI/BattleThumbnail_ABS/Arena003.png"
	},
	{
		"ID": 2008,
		"Name": "黑暗的尽头",
		"BattleID": 42525,
		"MonsterLevel": 70,
		"Desc": "在黑暗的最深处，那份埋藏着的力量是……",
		"Image": "UI/BattleThumbnail_ABS/Arena003.png"
	},
	{
		"ID": 2009,
		"Name": "波赞鲁的终极觉醒",
		"BattleID": 301,
		"MonsterLevel": 70,
		"Desc": "波赞鲁的终极觉醒",
		"Image": "UI/BattleThumbnail_ABS/Arena003.png"
	},
	{
		"ID": 2010,
		"Name": "王者之光",
		"BattleID": 42516,
		"MonsterLevel": 70,
		"Desc": "纯粹的勇气、一定能带来纯粹的胜利——！",
		"Image": "UI/BattleThumbnail_ABS/Arena003.png"
	},
	{
		"ID": 2011,
		"Name": "娜姆的终极觉醒",
		"BattleID": 301,
		"MonsterLevel": 70,
		"Desc": "娜姆的终极觉醒",
		"Image": "UI/BattleThumbnail_ABS/Arena003.png"
	},
	{
		"ID": 2012,
		"Name": "艾尔文的终极觉醒",
		"BattleID": 301,
		"MonsterLevel": 70,
		"Desc": "艾尔文的终极觉醒",
		"Image": "UI/BattleThumbnail_ABS/Arena003.png"
	},
	{
		"ID": 2013,
		"Name": "穿越魔法之门",
		"BattleID": 42519,
		"MonsterLevel": 70,
		"Desc": "关于魔法的一切，都将由我海恩重新定义！",
		"Image": "UI/BattleThumbnail_ABS/Arena003.png"
	},
	{
		"ID": 2014,
		"Name": "一场冒险",
		"BattleID": 42505,
		"MonsterLevel": 70,
		"Desc": "只是一场冒险，就像每个人的一生。",
		"Image": "UI/BattleThumbnail_ABS/Arena003.png"
	},
	{
		"ID": 2015,
		"Name": "莉亚娜的终极觉醒",
		"BattleID": 301,
		"MonsterLevel": 70,
		"Desc": "莉亚娜的终极觉醒",
		"Image": "UI/BattleThumbnail_ABS/Arena003.png"
	},
	{
		"ID": 2016,
		"Name": "兰斯的终极觉醒",
		"BattleID": 301,
		"MonsterLevel": 70,
		"Desc": "兰斯的终极觉醒",
		"Image": "UI/BattleThumbnail_ABS/Arena003.png"
	},
	{
		"ID": 2017,
		"Name": "埃格贝尔特的终极觉醒",
		"BattleID": 301,
		"MonsterLevel": 70,
		"Desc": "埃格贝尔特的终极觉醒",
		"Image": "UI/BattleThumbnail_ABS/Arena003.png"
	},
	{
		"ID": 2018,
		"Name": "伊梅尔达的终极觉醒",
		"BattleID": 301,
		"MonsterLevel": 70,
		"Desc": "伊梅尔达的终极觉醒",
		"Image": "UI/BattleThumbnail_ABS/Arena003.png"
	},
	{
		"ID": 2019,
		"Name": "利斯塔的终极觉醒",
		"BattleID": 301,
		"MonsterLevel": 70,
		"Desc": "利斯塔的终极觉醒",
		"Image": "UI/BattleThumbnail_ABS/Arena003.png"
	},
	{
		"ID": 2020,
		"Name": "光暗的抉择",
		"BattleID": 42511,
		"MonsterLevel": 70,
		"Desc": "光明与黑暗之间，我已经做出了选择……",
		"Image": "UI/BattleThumbnail_ABS/Arena003.png"
	},
	{
		"ID": 2021,
		"Name": "巴尔加斯的终极觉醒",
		"BattleID": 301,
		"MonsterLevel": 70,
		"Desc": "巴尔加斯的终极觉醒",
		"Image": "UI/BattleThumbnail_ABS/Arena003.png"
	},
	{
		"ID": 2022,
		"Name": "杰西卡的终极觉醒",
		"BattleID": 301,
		"MonsterLevel": 70,
		"Desc": "杰西卡的终极觉醒",
		"Image": "UI/BattleThumbnail_ABS/Arena003.png"
	},
	{
		"ID": 2023,
		"Name": "洛加的终极觉醒",
		"BattleID": 301,
		"MonsterLevel": 70,
		"Desc": "洛加的终极觉醒",
		"Image": "UI/BattleThumbnail_ABS/Arena003.png"
	},
	{
		"ID": 2024,
		"Name": "斯科特的终极觉醒",
		"BattleID": 301,
		"MonsterLevel": 70,
		"Desc": "斯科特的终极觉醒",
		"Image": "UI/BattleThumbnail_ABS/Arena003.png"
	},
	{
		"ID": 2025,
		"Name": "亚鲁特缪拉的终极觉醒",
		"BattleID": 301,
		"MonsterLevel": 70,
		"Desc": "亚鲁特缪拉的终极觉醒",
		"Image": "UI/BattleThumbnail_ABS/Arena003.png"
	},
	{
		"ID": 2026,
		"Name": "风起之时",
		"BattleID": 42501,
		"MonsterLevel": 70,
		"Desc": "风起之时，生命也随之凋零……",
		"Image": "UI/BattleThumbnail_ABS/Arena003.png"
	},
	{
		"ID": 2027,
		"Name": "浪子的极意",
		"BattleID": 42524,
		"MonsterLevel": 70,
		"Desc": "吊儿郎当的家伙认真起来的时候，才是最可怕的！",
		"Image": "UI/BattleThumbnail_ABS/Arena003.png"
	},
	{
		"ID": 2028,
		"Name": "泽瑞达的终极觉醒",
		"BattleID": 301,
		"MonsterLevel": 70,
		"Desc": "泽瑞达的终极觉醒",
		"Image": "UI/BattleThumbnail_ABS/Arena003.png"
	},
	{
		"ID": 2029,
		"Name": "蒂亚莉丝的终极觉醒",
		"BattleID": 301,
		"MonsterLevel": 70,
		"Desc": "蒂亚莉丝的终极觉醒",
		"Image": "UI/BattleThumbnail_ABS/Arena003.png"
	},
	{
		"ID": 2030,
		"Name": "魔法大爆发",
		"BattleID": 42515,
		"MonsterLevel": 70,
		"Desc": "魔法的召唤……我，既是魔法的中心！",
		"Image": "UI/BattleThumbnail_ABS/Arena003.png"
	},
	{
		"ID": 2031,
		"Name": "索菲亚的终极觉醒",
		"BattleID": 301,
		"MonsterLevel": 70,
		"Desc": "索菲亚的终极觉醒",
		"Image": "UI/BattleThumbnail_ABS/Arena003.png"
	},
	{
		"ID": 2032,
		"Name": "艾马林克的终极觉醒",
		"BattleID": 301,
		"MonsterLevel": 70,
		"Desc": "艾马林克的终极觉醒",
		"Image": "UI/BattleThumbnail_ABS/Arena003.png"
	},
	{
		"ID": 2033,
		"Name": "芙蕾雅的终极觉醒",
		"BattleID": 301,
		"MonsterLevel": 70,
		"Desc": "芙蕾雅的终极觉醒",
		"Image": "UI/BattleThumbnail_ABS/Arena003.png"
	},
	{
		"ID": 2034,
		"Name": "雾风的终极觉醒",
		"BattleID": 301,
		"MonsterLevel": 70,
		"Desc": "雾风的终极觉醒",
		"Image": "UI/BattleThumbnail_ABS/Arena003.png"
	},
	{
		"ID": 2035,
		"Name": "安杰丽卡的终极觉醒",
		"BattleID": 301,
		"MonsterLevel": 70,
		"Desc": "安杰丽卡的终极觉醒",
		"Image": "UI/BattleThumbnail_ABS/Arena003.png"
	},
	{
		"ID": 2036,
		"Name": "银狼的终极觉醒",
		"BattleID": 301,
		"MonsterLevel": 70,
		"Desc": "银狼的终极觉醒",
		"Image": "UI/BattleThumbnail_ABS/Arena003.png"
	},
	{
		"ID": 2037,
		"Name": "光之形",
		"BattleID": 42508,
		"MonsterLevel": 70,
		"Desc": "如果光有具体形象的话，那一定就是老夫的样子！",
		"Image": "UI/BattleThumbnail_ABS/Arena003.png"
	},
	{
		"ID": 2038,
		"Name": "无间",
		"BattleID": 42503,
		"MonsterLevel": 70,
		"Desc": "无间的配合给予敌人的是无间的地狱……",
		"Image": "UI/BattleThumbnail_ABS/Arena003.png"
	},
	{
		"ID": 2039,
		"Name": "弗拉基亚的终极觉醒",
		"BattleID": 301,
		"MonsterLevel": 70,
		"Desc": "弗拉基亚的终极觉醒",
		"Image": "UI/BattleThumbnail_ABS/Arena003.png"
	},
	{
		"ID": 2040,
		"Name": "路因的终极觉醒",
		"BattleID": 301,
		"MonsterLevel": 70,
		"Desc": "路因的终极觉醒",
		"Image": "UI/BattleThumbnail_ABS/Arena003.png"
	},
	{
		"ID": 2041,
		"Name": "皮耶鲁的终极觉醒",
		"BattleID": 301,
		"MonsterLevel": 70,
		"Desc": "皮耶鲁的终极觉醒",
		"Image": "UI/BattleThumbnail_ABS/Arena003.png"
	},
	{
		"ID": 2042,
		"Name": "迪欧斯的终极觉醒",
		"BattleID": 301,
		"MonsterLevel": 70,
		"Desc": "迪欧斯的终极觉醒",
		"Image": "UI/BattleThumbnail_ABS/Arena003.png"
	},
	{
		"ID": 2043,
		"Name": "安娜的终极觉醒",
		"BattleID": 301,
		"MonsterLevel": 70,
		"Desc": "安娜的终极觉醒",
		"Image": "UI/BattleThumbnail_ABS/Arena003.png"
	},
	{
		"ID": 2044,
		"Name": "利亚特的终极觉醒",
		"BattleID": 301,
		"MonsterLevel": 70,
		"Desc": "利亚特的终极觉醒",
		"Image": "UI/BattleThumbnail_ABS/Arena003.png"
	},
	{
		"ID": 2045,
		"Name": "基斯的终极觉醒",
		"BattleID": 301,
		"MonsterLevel": 70,
		"Desc": "基斯的终极觉醒",
		"Image": "UI/BattleThumbnail_ABS/Arena003.png"
	},
	{
		"ID": 2046,
		"Name": "塞莉娅的终极觉醒",
		"BattleID": 301,
		"MonsterLevel": 70,
		"Desc": "塞莉娅的终极觉醒",
		"Image": "UI/BattleThumbnail_ABS/Arena003.png"
	},
	{
		"ID": 2047,
		"Name": "蕾蒂西亚的终极觉醒",
		"BattleID": 301,
		"MonsterLevel": 70,
		"Desc": "蕾蒂西亚的终极觉醒",
		"Image": "UI/BattleThumbnail_ABS/Arena003.png"
	},
	{
		"ID": 2048,
		"Name": "阿伦的终极觉醒",
		"BattleID": 301,
		"MonsterLevel": 70,
		"Desc": "阿伦的终极觉醒",
		"Image": "UI/BattleThumbnail_ABS/Arena003.png"
	},
	{
		"ID": 2049,
		"Name": "法娜的终极觉醒",
		"BattleID": 301,
		"MonsterLevel": 70,
		"Desc": "法娜的终极觉醒",
		"Image": "UI/BattleThumbnail_ABS/Arena003.png"
	},
	{
		"ID": 2050,
		"Name": "魔剑泽瑞达的终极觉醒",
		"BattleID": 301,
		"MonsterLevel": 70,
		"Desc": "魔剑泽瑞达的终极觉醒",
		"Image": "UI/BattleThumbnail_ABS/Arena003.png"
	},
	{
		"ID": 2051,
		"Name": "雪露法妮尔的终极觉醒",
		"BattleID": 301,
		"MonsterLevel": 70,
		"Desc": "雪露法妮尔的终极觉醒",
		"Image": "UI/BattleThumbnail_ABS/Arena003.png"
	},
	{
		"ID": 2052,
		"Name": "深海爆发",
		"BattleID": 42513,
		"MonsterLevel": 70,
		"Desc": "潜伏于深蓝之中的终极力量……",
		"Image": "UI/BattleThumbnail_ABS/Arena003.png"
	},
	{
		"ID": 2053,
		"Name": "兰芳特的终极觉醒",
		"BattleID": 301,
		"MonsterLevel": 70,
		"Desc": "兰芳特的终极觉醒",
		"Image": "UI/BattleThumbnail_ABS/Arena003.png"
	},
	{
		"ID": 2054,
		"Name": "妮丝蒂尔的终极觉醒",
		"BattleID": 301,
		"MonsterLevel": 70,
		"Desc": "妮丝蒂尔的终极觉醒",
		"Image": "UI/BattleThumbnail_ABS/Arena003.png"
	},
	{
		"ID": 2055,
		"Name": "止水",
		"BattleID": 42512,
		"MonsterLevel": 70,
		"Desc": "战场之上心如止水将立于不败之地。",
		"Image": "UI/BattleThumbnail_ABS/Arena003.png"
	},
	{
		"ID": 2056,
		"Name": "魔法暴动",
		"BattleID": 42502,
		"MonsterLevel": 70,
		"Desc": "没有人能逃过无所不在的魔法粒子的袭杀……",
		"Image": "UI/BattleThumbnail_ABS/Arena003.png"
	},
	{
		"ID": 2057,
		"Name": "战术的终极",
		"BattleID": 42509,
		"MonsterLevel": 70,
		"Desc": "只有战胜自己，才能真正的掌控这片战场……",
		"Image": "UI/BattleThumbnail_ABS/Arena003.png"
	},
	{
		"ID": 2058,
		"Name": "塞蕾娜的终极觉醒",
		"BattleID": 301,
		"MonsterLevel": 70,
		"Desc": "塞蕾娜的终极觉醒",
		"Image": "UI/BattleThumbnail_ABS/Arena003.png"
	},
	{
		"ID": 2059,
		"Name": "基扎洛夫的终极觉醒",
		"BattleID": 301,
		"MonsterLevel": 70,
		"Desc": "基扎洛夫的终极觉醒",
		"Image": "UI/BattleThumbnail_ABS/Arena003.png"
	},
	{
		"ID": 2060,
		"Name": "西格玛的终极觉醒",
		"BattleID": 301,
		"MonsterLevel": 70,
		"Desc": "西格玛的终极觉醒",
		"Image": "UI/BattleThumbnail_ABS/Arena003.png"
	},
	{
		"ID": 2061,
		"Name": "拉姆达的终极觉醒",
		"BattleID": 301,
		"MonsterLevel": 70,
		"Desc": "拉姆达的终极觉醒",
		"Image": "UI/BattleThumbnail_ABS/Arena003.png"
	},
	{
		"ID": 2062,
		"Name": "阿尔弗雷德的终极觉醒",
		"BattleID": 301,
		"MonsterLevel": 70,
		"Desc": "阿尔弗雷德的终极觉醒",
		"Image": "UI/BattleThumbnail_ABS/Arena003.png"
	},
	{
		"ID": 2063,
		"Name": "赤月的希望",
		"BattleID": 42517,
		"MonsterLevel": 70,
		"Desc": "混沌之门开启的那一天……终于迎来了么？",
		"Image": "UI/BattleThumbnail_ABS/Arena003.png"
	},
	{
		"ID": 2064,
		"Name": "布琳达的终极觉醒",
		"BattleID": 301,
		"MonsterLevel": 70,
		"Desc": "布琳达的终极觉醒",
		"Image": "UI/BattleThumbnail_ABS/Arena003.png"
	},
	{
		"ID": 2065,
		"Name": "维拉玖的终极觉醒",
		"BattleID": 301,
		"MonsterLevel": 70,
		"Desc": "维拉玖的终极觉醒",
		"Image": "UI/BattleThumbnail_ABS/Arena003.png"
	},
	{
		"ID": 2066,
		"Name": "克拉蕾特的终极觉醒",
		"BattleID": 301,
		"MonsterLevel": 70,
		"Desc": "克拉蕾特的终极觉醒",
		"Image": "UI/BattleThumbnail_ABS/Arena003.png"
	},
	{
		"ID": 2067,
		"Name": "欧米伽的终极觉醒",
		"BattleID": 301,
		"MonsterLevel": 70,
		"Desc": "欧米伽的终极觉醒",
		"Image": "UI/BattleThumbnail_ABS/Arena003.png"
	},
	{
		"ID": 2068,
		"Name": "英雄的终极觉醒",
		"BattleID": 301,
		"MonsterLevel": 70,
		"Desc": "英雄的终极觉醒",
		"Image": "UI/BattleThumbnail_ABS/Arena003.png"
	},
	{
		"ID": 2069,
		"Name": "最后的闪耀",
		"BattleID": 42507,
		"MonsterLevel": 70,
		"Desc": "有一团光爆发出来，比太阳还要闪耀……",
		"Image": "UI/BattleThumbnail_ABS/Arena003.png"
	},
	{
		"ID": 2070,
		"Name": "约修亚的终极觉醒",
		"BattleID": 301,
		"MonsterLevel": 70,
		"Desc": "约修亚的终极觉醒",
		"Image": "UI/BattleThumbnail_ABS/Arena003.png"
	},
	{
		"ID": 2071,
		"Name": "终焉歼灭者",
		"BattleID": 42518,
		"MonsterLevel": 70,
		"Desc": "玲亲手为你准备的……「歼灭行动」要正式开始了哦……",
		"Image": "UI/BattleThumbnail_ABS/Arena003.png"
	},
	{
		"ID": 2072,
		"Name": "莱恩哈特的终极觉醒",
		"BattleID": 301,
		"MonsterLevel": 70,
		"Desc": "莱恩哈特的终极觉醒",
		"Image": "UI/BattleThumbnail_ABS/Arena003.png"
	},
	{
		"ID": 2073,
		"Name": "奥利维尔的终极觉醒",
		"BattleID": 301,
		"MonsterLevel": 70,
		"Desc": "奥利维尔的终极觉醒",
		"Image": "UI/BattleThumbnail_ABS/Arena003.png"
	},
	{
		"ID": 2074,
		"Name": "科洛丝的终极觉醒",
		"BattleID": 301,
		"MonsterLevel": 70,
		"Desc": "科洛丝的终极觉醒",
		"Image": "UI/BattleThumbnail_ABS/Arena003.png"
	},
	{
		"ID": 2075,
		"Name": "蒂德莉特的终极觉醒",
		"BattleID": 301,
		"MonsterLevel": 70,
		"Desc": "蒂德莉特的终极觉醒",
		"Image": "UI/BattleThumbnail_ABS/Arena003.png"
	},
	{
		"ID": 2076,
		"Name": "亚修拉姆的终极觉醒",
		"BattleID": 301,
		"MonsterLevel": 70,
		"Desc": "亚修拉姆的终极觉醒",
		"Image": "UI/BattleThumbnail_ABS/Arena003.png"
	},
	{
		"ID": 2077,
		"Name": "帕恩的终极觉醒",
		"BattleID": 301,
		"MonsterLevel": 70,
		"Desc": "帕恩的终极觉醒",
		"Image": "UI/BattleThumbnail_ABS/Arena003.png"
	},
	{
		"ID": 2078,
		"Name": "比萝蒂丝的终极觉醒",
		"BattleID": 301,
		"MonsterLevel": 70,
		"Desc": "比萝蒂丝的终极觉醒",
		"Image": "UI/BattleThumbnail_ABS/Arena003.png"
	},
	{
		"ID": 2079,
		"Name": "真宫寺樱的终极觉醒",
		"BattleID": 301,
		"MonsterLevel": 70,
		"Desc": "真宫寺樱的终极觉醒",
		"Image": "UI/BattleThumbnail_ABS/Arena003.png"
	},
	{
		"ID": 2080,
		"Name": "最后之舞",
		"BattleID": 42510,
		"MonsterLevel": 70,
		"Desc": "刀光的舞动，是你能看到的最后的舞蹈。",
		"Image": "UI/BattleThumbnail_ABS/Arena003.png"
	},
	{
		"ID": 2081,
		"Name": "爱丽丝的终极觉醒",
		"BattleID": 301,
		"MonsterLevel": 70,
		"Desc": "爱丽丝的终极觉醒",
		"Image": "UI/BattleThumbnail_ABS/Arena003.png"
	},
	{
		"ID": 2082,
		"Name": "终极发射",
		"BattleID": 42514,
		"MonsterLevel": 70,
		"Desc": "融合魔王之血的终极力量……",
		"Image": "UI/BattleThumbnail_ABS/Arena003.png"
	},
	{
		"ID": 2083,
		"Name": "飞影的终极觉醒",
		"BattleID": 301,
		"MonsterLevel": 70,
		"Desc": "飞影的终极觉醒",
		"Image": "UI/BattleThumbnail_ABS/Arena003.png"
	},
	{
		"ID": 2084,
		"Name": "魔界蔷薇绽放",
		"BattleID": 42526,
		"MonsterLevel": 70,
		"Desc": "来吧，见证这场啜饮了鲜血的盛放！",
		"Image": "UI/BattleThumbnail_ABS/Arena003.png"
	},
	{
		"ID": 2085,
		"Name": "户愚吕兄弟的终极觉醒",
		"BattleID": 301,
		"MonsterLevel": 70,
		"Desc": "户愚吕兄弟的终极觉醒",
		"Image": "UI/BattleThumbnail_ABS/Arena003.png"
	},
	{
		"ID": 2086,
		"Name": "桑原和真的终极觉醒",
		"BattleID": 301,
		"MonsterLevel": 70,
		"Desc": "桑原和真的终极觉醒",
		"Image": "UI/BattleThumbnail_ABS/Arena003.png"
	},
	{
		"ID": 2087,
		"Name": "贝蒂的终极觉醒",
		"BattleID": 301,
		"MonsterLevel": 70,
		"Desc": "贝蒂的终极觉醒",
		"Image": "UI/BattleThumbnail_ABS/Arena003.png"
	},
	{
		"ID": 2088,
		"Name": "艾拉斯卓的终极觉醒",
		"BattleID": 301,
		"MonsterLevel": 70,
		"Desc": "艾拉斯卓的终极觉醒",
		"Image": "UI/BattleThumbnail_ABS/Arena003.png"
	},
	{
		"ID": 2089,
		"Name": "尤利娅的终极觉醒",
		"BattleID": 301,
		"MonsterLevel": 70,
		"Desc": "尤利娅的终极觉醒",
		"Image": "UI/BattleThumbnail_ABS/Arena003.png"
	},
	{
		"ID": 2091,
		"Name": "艾米莉亚的终极觉醒",
		"BattleID": 301,
		"MonsterLevel": 70,
		"Desc": "艾米莉亚的终极觉醒",
		"Image": "UI/BattleThumbnail_ABS/Arena003.png"
	},
	{
		"ID": 2092,
		"Name": "女神化身的终极觉醒",
		"BattleID": 301,
		"MonsterLevel": 70,
		"Desc": "女神化身的终极觉醒",
		"Image": "UI/BattleThumbnail_ABS/Arena003.png"
	},
	{
		"ID": 2093,
		"Name": "谜之骑士的终极觉醒",
		"BattleID": 301,
		"MonsterLevel": 70,
		"Desc": "谜之骑士的终极觉醒",
		"Image": "UI/BattleThumbnail_ABS/Arena003.png"
	},
	{
		"ID": 2094,
		"Name": "阿卡娅的终极觉醒",
		"BattleID": 301,
		"MonsterLevel": 70,
		"Desc": "阿卡娅的终极觉醒",
		"Image": "UI/BattleThumbnail_ABS/Arena003.png"
	},
	{
		"ID": 2095,
		"Name": "奥利佛的终极觉醒",
		"BattleID": 301,
		"MonsterLevel": 70,
		"Desc": "奥利佛的终极觉醒",
		"Image": "UI/BattleThumbnail_ABS/Arena003.png"
	},
	{
		"ID": 2096,
		"Name": "英雄的终极觉醒",
		"BattleID": 301,
		"MonsterLevel": 70,
		"Desc": "英雄的终极觉醒",
		"Image": "UI/BattleThumbnail_ABS/Arena003.png"
	},
	{
		"ID": 2097,
		"Name": "虔诚的祈愿",
		"BattleID": 42522,
		"MonsterLevel": 70,
		"Desc": "我绝对不允许悲剧再次……重演！为了卡昆西斯！",
		"Image": "UI/BattleThumbnail_ABS/Arena003.png"
	},
	{
		"ID": 2098,
		"Name": "英雄的终极觉醒",
		"BattleID": 301,
		"MonsterLevel": 70,
		"Desc": "英雄的终极觉醒",
		"Image": "UI/BattleThumbnail_ABS/Arena003.png"
	},
	{
		"ID": 2099,
		"Name": "英雄的终极觉醒",
		"BattleID": 301,
		"MonsterLevel": 70,
		"Desc": "英雄的终极觉醒",
		"Image": "UI/BattleThumbnail_ABS/Arena003.png"
	},
	{
		"ID": 2100,
		"Name": "英雄的终极觉醒",
		"BattleID": 301,
		"MonsterLevel": 70,
		"Desc": "英雄的终极觉醒",
		"Image": "UI/BattleThumbnail_ABS/Arena003.png"
	},
	{
		"ID": 2101,
		"Name": "英雄的终极觉醒",
		"BattleID": 301,
		"MonsterLevel": 70,
		"Desc": "英雄的终极觉醒",
		"Image": "UI/BattleThumbnail_ABS/Arena003.png"
	},
	{
		"ID": 2102,
		"Name": "英雄的终极觉醒",
		"BattleID": 301,
		"MonsterLevel": 70,
		"Desc": "英雄的终极觉醒",
		"Image": "UI/BattleThumbnail_ABS/Arena003.png"
	},
	{
		"ID": 2103,
		"Name": "凛羽的梦魇",
		"BattleID": 42523,
		"MonsterLevel": 70,
		"Desc": "你……为什么会出现在这里？滚开，这不是你能踏足的领域！",
		"Image": "UI/BattleThumbnail_ABS/Arena003.png"
	},
	{
		"ID": 2104,
		"Name": "英雄的终极觉醒",
		"BattleID": 301,
		"MonsterLevel": 70,
		"Desc": "英雄的终极觉醒",
		"Image": "UI/BattleThumbnail_ABS/Arena003.png"
	},
	{
		"ID": 2105,
		"Name": "英雄的终极觉醒",
		"BattleID": 301,
		"MonsterLevel": 70,
		"Desc": "英雄的终极觉醒",
		"Image": "UI/BattleThumbnail_ABS/Arena003.png"
	},
	{
		"ID": 2106,
		"Name": "英雄的终极觉醒",
		"BattleID": 301,
		"MonsterLevel": 70,
		"Desc": "英雄的终极觉醒",
		"Image": "UI/BattleThumbnail_ABS/Arena003.png"
	},
	{
		"ID": 2107,
		"Name": "英雄的终极觉醒",
		"BattleID": 301,
		"MonsterLevel": 70,
		"Desc": "英雄的终极觉醒",
		"Image": "UI/BattleThumbnail_ABS/Arena003.png"
	},
	{
		"ID": 2108,
		"Name": "英雄的终极觉醒",
		"BattleID": 301,
		"MonsterLevel": 70,
		"Desc": "英雄的终极觉醒",
		"Image": "UI/BattleThumbnail_ABS/Arena003.png"
	},
	{
		"ID": 2109,
		"Name": "英雄的终极觉醒",
		"BattleID": 301,
		"MonsterLevel": 70,
		"Desc": "英雄的终极觉醒",
		"Image": "UI/BattleThumbnail_ABS/Arena003.png"
	},
	{
		"ID": 2110,
		"Name": "命运预言者",
		"BattleID": 42520,
		"MonsterLevel": 70,
		"Desc": "兰古利萨啊……请协助我斩破黑暗之渊吧！",
		"Image": "UI/BattleThumbnail_ABS/Arena003.png"
	},
	{
		"ID": 2111,
		"Name": "女仆养成攻略",
		"BattleID": 42521,
		"MonsterLevel": 70,
		"Desc": "想要见识一下梅雅的真正实力？呵……这可不是你能承受的。",
		"Image": "UI/BattleThumbnail_ABS/Arena003.png"
	},
	{
		"ID": 2112,
		"Name": "英雄的终极觉醒",
		"BattleID": 301,
		"MonsterLevel": 70,
		"Desc": "英雄的终极觉醒",
		"Image": "UI/BattleThumbnail_ABS/Arena003.png"
	},
	{
		"ID": 2113,
		"Name": "英雄的终极觉醒",
		"BattleID": 301,
		"MonsterLevel": 70,
		"Desc": "英雄的终极觉醒",
		"Image": "UI/BattleThumbnail_ABS/Arena003.png"
	},
	{
		"ID": 2114,
		"Name": "英雄的终极觉醒",
		"BattleID": 301,
		"MonsterLevel": 70,
		"Desc": "英雄的终极觉醒",
		"Image": "UI/BattleThumbnail_ABS/Arena003.png"
	},
	{
		"ID": 2115,
		"Name": "英雄的终极觉醒",
		"BattleID": 301,
		"MonsterLevel": 70,
		"Desc": "英雄的终极觉醒",
		"Image": "UI/BattleThumbnail_ABS/Arena003.png"
	},
	{
		"ID": 2116,
		"Name": "英雄的终极觉醒",
		"BattleID": 301,
		"MonsterLevel": 70,
		"Desc": "英雄的终极觉醒",
		"Image": "UI/BattleThumbnail_ABS/Arena003.png"
	},
	{
		"ID": 2117,
		"Name": "英雄的终极觉醒",
		"BattleID": 301,
		"MonsterLevel": 70,
		"Desc": "英雄的终极觉醒",
		"Image": "UI/BattleThumbnail_ABS/Arena003.png"
	},
	{
		"ID": 2118,
		"Name": "英雄的终极觉醒",
		"BattleID": 301,
		"MonsterLevel": 70,
		"Desc": "英雄的终极觉醒",
		"Image": "UI/BattleThumbnail_ABS/Arena003.png"
	},
	{
		"ID": 2119,
		"Name": "英雄的终极觉醒",
		"BattleID": 301,
		"MonsterLevel": 70,
		"Desc": "英雄的终极觉醒",
		"Image": "UI/BattleThumbnail_ABS/Arena003.png"
	},
	{
		"ID": 2120,
		"Name": "英雄的终极觉醒",
		"BattleID": 301,
		"MonsterLevel": 70,
		"Desc": "英雄的终极觉醒",
		"Image": "UI/BattleThumbnail_ABS/Arena003.png"
	},
	{
		"ID": 2121,
		"Name": "英雄的终极觉醒",
		"BattleID": 301,
		"MonsterLevel": 70,
		"Desc": "英雄的终极觉醒",
		"Image": "UI/BattleThumbnail_ABS/Arena003.png"
	},
	{
		"ID": 2122,
		"Name": "英雄的终极觉醒",
		"BattleID": 301,
		"MonsterLevel": 70,
		"Desc": "英雄的终极觉醒",
		"Image": "UI/BattleThumbnail_ABS/Arena003.png"
	},
	{
		"ID": 2123,
		"Name": "英雄的终极觉醒",
		"BattleID": 301,
		"MonsterLevel": 70,
		"Desc": "英雄的终极觉醒",
		"Image": "UI/BattleThumbnail_ABS/Arena003.png"
	},
	{
		"ID": 2124,
		"Name": "英雄的终极觉醒",
		"BattleID": 301,
		"MonsterLevel": 70,
		"Desc": "英雄的终极觉醒",
		"Image": "UI/BattleThumbnail_ABS/Arena003.png"
	},
	{
		"ID": 2125,
		"Name": "英雄的终极觉醒",
		"BattleID": 301,
		"MonsterLevel": 70,
		"Desc": "英雄的终极觉醒",
		"Image": "UI/BattleThumbnail_ABS/Arena003.png"
	},
	{
		"ID": 2126,
		"Name": "英雄的终极觉醒",
		"BattleID": 301,
		"MonsterLevel": 70,
		"Desc": "英雄的终极觉醒",
		"Image": "UI/BattleThumbnail_ABS/Arena003.png"
	},
	{
		"ID": 2127,
		"Name": "英雄的终极觉醒",
		"BattleID": 301,
		"MonsterLevel": 70,
		"Desc": "英雄的终极觉醒",
		"Image": "UI/BattleThumbnail_ABS/Arena003.png"
	},
	{
		"ID": 2128,
		"Name": "英雄的终极觉醒",
		"BattleID": 301,
		"MonsterLevel": 70,
		"Desc": "英雄的终极觉醒",
		"Image": "UI/BattleThumbnail_ABS/Arena003.png"
	},
	{
		"ID": 2129,
		"Name": "英雄的终极觉醒",
		"BattleID": 301,
		"MonsterLevel": 70,
		"Desc": "英雄的终极觉醒",
		"Image": "UI/BattleThumbnail_ABS/Arena003.png"
	},
	{
		"ID": 2130,
		"Name": "英雄的终极觉醒",
		"BattleID": 301,
		"MonsterLevel": 70,
		"Desc": "英雄的终极觉醒",
		"Image": "UI/BattleThumbnail_ABS/Arena003.png"
	}
]