[
	{
		"ID": 1,
		"Name": "女神的恩惠",
		"StoreId": "StoreId_Privilege",
		"ItemType": "GoodsType_MonthCard",
		"ItemId": 1,
		"Nums": 1,
		"ShowStartTime": "2017/12/14 3:30:30",
		"ShowEndTime": "",
		"RefluxBeginDays": 0,
		"RefluxEndDays": 0,
		"IsOperateGoods": false,
		"BuyLimitType": "BuyRuleType_Forever",
		"Param": 0,
		"Count": 0,
		"FirstPrice": 30.0,
		"NormalPrice": 30.0,
		"Lable": "LabelType_None",
		"IsAppleSubscribe": false,
		"FirstBuyCompensation": 150,
		"NormalBuyCompensation": 150,
		"PlayerBuyMinLevel": 0,
		"Sort": 0,
		"IsRecommendDisplay": 0,
		"RecommendDisplayStartTime": "2017/12/14 3:30:30",
		"DiscountText": "",
		"BigAdvertisingImage": "",
		"Desc": "",
		"IsStrongRecommend": 0,
		"SmallAdvertisingImage": "",
		"RecommendDesc": "",
		"IsShowIOSSpecificGo": false,
		"RedMark": "StoreRedMarkType_None",
		"PreUnlockGoodsId": 0
	},
	{
		"ID": 2,
		"Name": "勇气的旗帜",
		"StoreId": "StoreId_Privilege",
		"ItemType": "GoodsType_MonthCard",
		"ItemId": 2,
		"Nums": 1,
		"ShowStartTime": "2017/12/14 3:30:30",
		"ShowEndTime": "",
		"RefluxBeginDays": 0,
		"RefluxEndDays": 0,
		"IsOperateGoods": false,
		"BuyLimitType": "BuyRuleType_Forever",
		"Param": 0,
		"Count": 0,
		"FirstPrice": 25.0,
		"NormalPrice": 25.0,
		"Lable": "LabelType_None",
		"IsAppleSubscribe": false,
		"FirstBuyCompensation": 125,
		"NormalBuyCompensation": 125,
		"PlayerBuyMinLevel": 0,
		"Sort": 0,
		"IsRecommendDisplay": 0,
		"RecommendDisplayStartTime": "2017/12/14 3:30:30",
		"DiscountText": "",
		"BigAdvertisingImage": "",
		"Desc": "",
		"IsStrongRecommend": 0,
		"SmallAdvertisingImage": "",
		"RecommendDesc": "",
		"IsShowIOSSpecificGo": false,
		"RedMark": "StoreRedMarkType_None",
		"PreUnlockGoodsId": 0
	},
	{
		"ID": 3,
		"Name": "原谅的时钟",
		"StoreId": "StoreId_Privilege",
		"ItemType": "GoodsType_MonthCard",
		"ItemId": 3,
		"Nums": 1,
		"ShowStartTime": "2017/12/14 3:30:30",
		"ShowEndTime": "",
		"RefluxBeginDays": 0,
		"RefluxEndDays": 0,
		"IsOperateGoods": false,
		"BuyLimitType": "BuyRuleType_Forever",
		"Param": 0,
		"Count": 0,
		"FirstPrice": 6.0,
		"NormalPrice": 6.0,
		"Lable": "LabelType_None",
		"IsAppleSubscribe": true,
		"FirstBuyCompensation": 30,
		"NormalBuyCompensation": 30,
		"PlayerBuyMinLevel": 0,
		"Sort": 0,
		"IsRecommendDisplay": 0,
		"RecommendDisplayStartTime": "2017/12/14 3:30:30",
		"DiscountText": "",
		"BigAdvertisingImage": "",
		"Desc": "",
		"IsStrongRecommend": 0,
		"SmallAdvertisingImage": "",
		"RecommendDesc": "",
		"IsShowIOSSpecificGo": false,
		"RedMark": "StoreRedMarkType_None",
		"PreUnlockGoodsId": 0
	},
	{
		"ID": 11,
		"Name": "蔷薇礼包",
		"StoreId": "StoreId_Gift",
		"ItemType": "GoodsType_Item",
		"ItemId": 5000,
		"Nums": 1,
		"ShowStartTime": "2017/12/14 3:30:30",
		"ShowEndTime": "",
		"RefluxBeginDays": 0,
		"RefluxEndDays": 0,
		"IsOperateGoods": false,
		"BuyLimitType": "BuyRuleType_Forever",
		"Param": 0,
		"Count": 1,
		"FirstPrice": 6.0,
		"NormalPrice": 6.0,
		"Lable": "LabelType_None",
		"IsAppleSubscribe": false,
		"FirstBuyCompensation": 30,
		"NormalBuyCompensation": 30,
		"PlayerBuyMinLevel": 0,
		"Sort": 0,
		"IsRecommendDisplay": 0,
		"RecommendDisplayStartTime": "2017/12/14 3:30:30",
		"DiscountText": "",
		"BigAdvertisingImage": "UI/CommonBG_ABS/BG_Church.png",
		"Desc": "",
		"IsStrongRecommend": 0,
		"SmallAdvertisingImage": "UI/Store_ABS/1/Store_Banner_08.png",
		"RecommendDesc": "",
		"IsShowIOSSpecificGo": false,
		"RedMark": "StoreRedMarkType_None",
		"PreUnlockGoodsId": 0
	},
	{
		"ID": 14,
		"Name": "每日优惠礼包",
		"StoreId": "StoreId_Gift",
		"ItemType": "GoodsType_Item",
		"ItemId": 5003,
		"Nums": 1,
		"ShowStartTime": "2017/12/14 3:30:30",
		"ShowEndTime": "",
		"RefluxBeginDays": 0,
		"RefluxEndDays": 0,
		"IsOperateGoods": false,
		"BuyLimitType": "BuyRuleType_FixedTime",
		"Param": 1,
		"Count": 1,
		"FirstPrice": 6.0,
		"NormalPrice": 6.0,
		"Lable": "LabelType_None",
		"IsAppleSubscribe": false,
		"FirstBuyCompensation": 30,
		"NormalBuyCompensation": 30,
		"PlayerBuyMinLevel": 0,
		"Sort": 0,
		"IsRecommendDisplay": 0,
		"RecommendDisplayStartTime": "2017/12/14 3:30:30",
		"DiscountText": "",
		"BigAdvertisingImage": "UI/CommonBG_ABS/BG_Church.png",
		"Desc": "",
		"IsStrongRecommend": 0,
		"SmallAdvertisingImage": "UI/Store_ABS/1/Store_Banner_04.png",
		"RecommendDesc": "",
		"IsShowIOSSpecificGo": false,
		"RedMark": "StoreRedMarkType_None",
		"PreUnlockGoodsId": 54
	},
	{
		"ID": 54,
		"Name": "每日优惠礼包（7天）",
		"StoreId": "StoreId_Gift",
		"ItemType": "GoodsType_Item",
		"ItemId": 5003,
		"Nums": 1,
		"ShowStartTime": "2017/12/14 3:30:30",
		"ShowEndTime": "",
		"RefluxBeginDays": 0,
		"RefluxEndDays": 0,
		"IsOperateGoods": false,
		"Param": 7,
		"Count": 1,
		"FirstPrice": 40.0,
		"NormalPrice": 40.0,
		"Lable": "LabelType_None",
		"IsAppleSubscribe": false,
		"FirstBuyCompensation": 200,
		"NormalBuyCompensation": 200,
		"PlayerBuyMinLevel": 0,
		"Sort": 0,
		"IsRecommendDisplay": 0,
		"RecommendDisplayStartTime": "2017/12/14 3:30:30",
		"DiscountText": "",
		"BigAdvertisingImage": "UI/CommonBG_ABS/BG_Church.png",
		"Desc": "",
		"IsStrongRecommend": 0,
		"SmallAdvertisingImage": "UI/Store_ABS/1/Store_Banner_04.png",
		"RecommendDesc": "",
		"IsShowIOSSpecificGo": false,
		"RedMark": "StoreRedMarkType_None",
		"PreUnlockGoodsId": 0
	},
	{
		"ID": 15,
		"Name": "每日召唤礼包",
		"StoreId": "StoreId_Gift",
		"ItemType": "GoodsType_Item",
		"ItemId": 5004,
		"Nums": 1,
		"ShowStartTime": "2017/12/14 3:30:30",
		"ShowEndTime": "",
		"RefluxBeginDays": 0,
		"RefluxEndDays": 0,
		"IsOperateGoods": false,
		"BuyLimitType": "BuyRuleType_FixedTime",
		"Param": 1,
		"Count": 1,
		"FirstPrice": 18.0,
		"NormalPrice": 18.0,
		"Lable": "LabelType_None",
		"IsAppleSubscribe": false,
		"FirstBuyCompensation": 90,
		"NormalBuyCompensation": 90,
		"PlayerBuyMinLevel": 0,
		"Sort": 0,
		"IsRecommendDisplay": 0,
		"RecommendDisplayStartTime": "2017/12/14 3:30:30",
		"DiscountText": "",
		"BigAdvertisingImage": "UI/CommonBG_ABS/BG_Church.png",
		"Desc": "",
		"IsStrongRecommend": 0,
		"SmallAdvertisingImage": "UI/Store_ABS/1/Store_Banner_05.png",
		"RecommendDesc": "",
		"IsShowIOSSpecificGo": false,
		"RedMark": "StoreRedMarkType_None",
		"PreUnlockGoodsId": 55
	},
	{
		"ID": 55,
		"Name": "每日召唤礼包（7天）",
		"StoreId": "StoreId_Gift",
		"ItemType": "GoodsType_Item",
		"ItemId": 5004,
		"Nums": 1,
		"ShowStartTime": "2017/12/14 3:30:30",
		"ShowEndTime": "",
		"RefluxBeginDays": 0,
		"RefluxEndDays": 0,
		"IsOperateGoods": false,
		"Param": 7,
		"Count": 1,
		"FirstPrice": 118.0,
		"NormalPrice": 118.0,
		"Lable": "LabelType_None",
		"IsAppleSubscribe": false,
		"FirstBuyCompensation": 590,
		"NormalBuyCompensation": 590,
		"PlayerBuyMinLevel": 0,
		"Sort": 0,
		"IsRecommendDisplay": 0,
		"RecommendDisplayStartTime": "2017/12/14 3:30:30",
		"DiscountText": "",
		"BigAdvertisingImage": "UI/CommonBG_ABS/BG_Church.png",
		"Desc": "",
		"IsStrongRecommend": 0,
		"SmallAdvertisingImage": "UI/Store_ABS/1/Store_Banner_05.png",
		"RecommendDesc": "",
		"IsShowIOSSpecificGo": false,
		"RedMark": "StoreRedMarkType_None",
		"PreUnlockGoodsId": 0
	},
	{
		"ID": 29,
		"Name": "周末体力礼包",
		"StoreId": "StoreId_Gift",
		"ItemType": "GoodsType_Item",
		"ItemId": 7025,
		"Nums": 1,
		"ShowStartTime": "2017/12/14 3:30:30",
		"ShowEndTime": "",
		"RefluxBeginDays": 0,
		"RefluxEndDays": 0,
		"IsOperateGoods": false,
		"BuyLimitType": "BuyRuleType_Weekend",
		"Param": 0,
		"Count": 1,
		"FirstPrice": 68.0,
		"NormalPrice": 68.0,
		"Lable": "LabelType_None",
		"IsAppleSubscribe": false,
		"FirstBuyCompensation": 340,
		"NormalBuyCompensation": 340,
		"PlayerBuyMinLevel": 0,
		"Sort": 0,
		"IsRecommendDisplay": 0,
		"RecommendDisplayStartTime": "2018/12/25 0:00:04",
		"DiscountText": "",
		"BigAdvertisingImage": "UI/CommonBG_ABS/BG_Church.png",
		"Desc": "",
		"IsStrongRecommend": 0,
		"SmallAdvertisingImage": "UI/Store_ABS/1/Store_Banner_16.png",
		"RecommendDesc": "",
		"IsShowIOSSpecificGo": false,
		"RedMark": "StoreRedMarkType_None",
		"PreUnlockGoodsId": 0
	},
	{
		"ID": 30,
		"Name": "练兵大师礼包",
		"StoreId": "StoreId_Gift",
		"ItemType": "GoodsType_Item",
		"ItemId": 7026,
		"Nums": 1,
		"ShowStartTime": "2017/12/14 3:30:30",
		"ShowEndTime": "",
		"RefluxBeginDays": 0,
		"RefluxEndDays": 0,
		"IsOperateGoods": false,
		"BuyLimitType": "BuyRuleType_Weekend",
		"Param": 0,
		"Count": 1,
		"FirstPrice": 68.0,
		"NormalPrice": 68.0,
		"Lable": "LabelType_None",
		"IsAppleSubscribe": false,
		"FirstBuyCompensation": 340,
		"NormalBuyCompensation": 340,
		"PlayerBuyMinLevel": 0,
		"Sort": 0,
		"IsRecommendDisplay": 0,
		"RecommendDisplayStartTime": "2018/12/25 0:00:04",
		"DiscountText": "",
		"BigAdvertisingImage": "UI/CommonBG_ABS/BG_Church.png",
		"Desc": "",
		"IsStrongRecommend": 0,
		"SmallAdvertisingImage": "UI/Store_ABS/1/Store_Banner_09.png",
		"RecommendDesc": "",
		"IsShowIOSSpecificGo": false,
		"RedMark": "StoreRedMarkType_None",
		"PreUnlockGoodsId": 0
	},
	{
		"ID": 36,
		"Name": "夏日着装指南",
		"StoreId": "StoreId_Gift",
		"ItemType": "GoodsType_Item",
		"ItemId": 7043,
		"Nums": 1,
		"ShowStartTime": "2019/8/19 10:00:00",
		"ShowEndTime": "2019/9/4 23:59:59",
		"RefluxBeginDays": 0,
		"RefluxEndDays": 0,
		"IsOperateGoods": false,
		"BuyLimitType": "BuyRuleType_FixedTime",
		"Param": 14,
		"Count": 2,
		"FirstPrice": 188.0,
		"NormalPrice": 188.0,
		"Lable": "LabelType_None",
		"IsAppleSubscribe": false,
		"FirstBuyCompensation": 940,
		"NormalBuyCompensation": 940,
		"PlayerBuyMinLevel": 0,
		"Sort": 0,
		"IsRecommendDisplay": 0,
		"RecommendDisplayStartTime": "2018/12/25 0:00:04",
		"DiscountText": "",
		"BigAdvertisingImage": "UI/CommonBG_ABS/BG_Church.png",
		"Desc": "",
		"IsStrongRecommend": 0,
		"SmallAdvertisingImage": "UI/Store_ABS/1/Store_Banner_07.png",
		"RecommendDesc": "",
		"IsShowIOSSpecificGo": false,
		"RedMark": "StoreRedMarkType_None",
		"PreUnlockGoodsId": 0
	},
	{
		"ID": 31,
		"Name": "模范英雄礼包",
		"StoreId": "StoreId_Gift",
		"ItemType": "GoodsType_Item",
		"ItemId": 7031,
		"Nums": 1,
		"ShowStartTime": "2019/5/1 0:00:00",
		"ShowEndTime": "2019/5/8 23:59:59",
		"RefluxBeginDays": 0,
		"RefluxEndDays": 0,
		"IsOperateGoods": false,
		"BuyLimitType": "BuyRuleType_Forever",
		"Param": 0,
		"Count": 1,
		"FirstPrice": 128.0,
		"NormalPrice": 128.0,
		"Lable": "LabelType_None",
		"IsAppleSubscribe": false,
		"FirstBuyCompensation": 640,
		"NormalBuyCompensation": 640,
		"PlayerBuyMinLevel": 0,
		"Sort": 0,
		"IsRecommendDisplay": 0,
		"RecommendDisplayStartTime": "2018/12/25 0:00:04",
		"DiscountText": "",
		"BigAdvertisingImage": "UI/CommonBG_ABS/BG_Church.png",
		"Desc": "",
		"IsStrongRecommend": 0,
		"SmallAdvertisingImage": "UI/Store_ABS/1/Store_Banner_12.png",
		"RecommendDesc": "",
		"IsShowIOSSpecificGo": false,
		"RedMark": "StoreRedMarkType_None",
		"PreUnlockGoodsId": 0
	},
	{
		"ID": 39,
		"Name": "铸剑礼包",
		"StoreId": "StoreId_Gift",
		"ItemType": "GoodsType_Item",
		"ItemId": 7047,
		"Nums": 1,
		"ShowStartTime": "2019/6/20 0:00:00",
		"ShowEndTime": "2019/6/26 23:59:59",
		"RefluxBeginDays": 0,
		"RefluxEndDays": 0,
		"IsOperateGoods": false,
		"BuyLimitType": "BuyRuleType_FixedTime",
		"Param": 7,
		"Count": 1,
		"FirstPrice": 88.0,
		"NormalPrice": 88.0,
		"Lable": "LabelType_None",
		"IsAppleSubscribe": false,
		"FirstBuyCompensation": 440,
		"NormalBuyCompensation": 440,
		"PlayerBuyMinLevel": 0,
		"Sort": 0,
		"IsRecommendDisplay": 0,
		"RecommendDisplayStartTime": "2018/12/25 0:00:04",
		"DiscountText": "",
		"BigAdvertisingImage": "UI/CommonBG_ABS/BG_Church.png",
		"Desc": "",
		"IsStrongRecommend": 0,
		"SmallAdvertisingImage": "UI/Store_ABS/1/Store_Banner_02.png",
		"RecommendDesc": "",
		"IsShowIOSSpecificGo": false,
		"RedMark": "StoreRedMarkType_None",
		"PreUnlockGoodsId": 0
	},
	{
		"ID": 40,
		"Name": "创生惊叹礼包",
		"StoreId": "StoreId_Gift",
		"ItemType": "GoodsType_Item",
		"ItemId": 7048,
		"Nums": 1,
		"ShowStartTime": "2019/6/20 0:00:00",
		"ShowEndTime": "2019/6/26 23:59:59",
		"RefluxBeginDays": 0,
		"RefluxEndDays": 0,
		"IsOperateGoods": false,
		"BuyLimitType": "BuyRuleType_FixedTime",
		"Param": 7,
		"Count": 1,
		"FirstPrice": 198.0,
		"NormalPrice": 198.0,
		"Lable": "LabelType_None",
		"IsAppleSubscribe": false,
		"FirstBuyCompensation": 990,
		"NormalBuyCompensation": 990,
		"PlayerBuyMinLevel": 0,
		"Sort": 0,
		"IsRecommendDisplay": 0,
		"RecommendDisplayStartTime": "2018/12/25 0:00:04",
		"DiscountText": "",
		"BigAdvertisingImage": "UI/CommonBG_ABS/BG_Church.png",
		"Desc": "",
		"IsStrongRecommend": 0,
		"SmallAdvertisingImage": "UI/Store_ABS/1/Store_Banner_02.png",
		"RecommendDesc": "",
		"IsShowIOSSpecificGo": false,
		"RedMark": "StoreRedMarkType_None",
		"PreUnlockGoodsId": 0
	},
	{
		"ID": 41,
		"Name": "时装周指南",
		"StoreId": "StoreId_Gift",
		"ItemType": "GoodsType_Item",
		"ItemId": 7049,
		"Nums": 1,
		"ShowStartTime": "2020/2/14 0:00:00",
		"ShowEndTime": "2020/2/27 23:59:59",
		"RefluxBeginDays": 0,
		"RefluxEndDays": 0,
		"IsOperateGoods": false,
		"BuyLimitType": "BuyRuleType_FixedTime",
		"Param": 14,
		"Count": 2,
		"FirstPrice": 188.0,
		"NormalPrice": 188.0,
		"Lable": "LabelType_None",
		"IsAppleSubscribe": false,
		"FirstBuyCompensation": 940,
		"NormalBuyCompensation": 940,
		"PlayerBuyMinLevel": 0,
		"Sort": 0,
		"IsRecommendDisplay": 0,
		"RecommendDisplayStartTime": "2018/12/25 0:00:04",
		"DiscountText": "",
		"BigAdvertisingImage": "UI/CommonBG_ABS/BG_Church.png",
		"Desc": "",
		"IsStrongRecommend": 0,
		"SmallAdvertisingImage": "UI/Store_ABS/1/Store_Banner_07.png",
		"RecommendDesc": "",
		"IsShowIOSSpecificGo": false,
		"RedMark": "StoreRedMarkType_None",
		"PreUnlockGoodsId": 0
	},
	{
		"ID": 13,
		"Name": "超值皮肤礼包",
		"StoreId": "StoreId_Gift",
		"ItemType": "GoodsType_Item",
		"ItemId": 5002,
		"Nums": 1,
		"ShowStartTime": "2017/12/14 3:30:30",
		"ShowEndTime": "",
		"RefluxBeginDays": 0,
		"RefluxEndDays": 0,
		"IsOperateGoods": false,
		"BuyLimitType": "BuyRuleType_Forever",
		"Param": 0,
		"Count": 1,
		"FirstPrice": 88.0,
		"NormalPrice": 88.0,
		"Lable": "LabelType_None",
		"IsAppleSubscribe": false,
		"FirstBuyCompensation": 440,
		"NormalBuyCompensation": 440,
		"PlayerBuyMinLevel": 0,
		"Sort": 0,
		"IsRecommendDisplay": 0,
		"RecommendDisplayStartTime": "2017/12/14 3:30:30",
		"DiscountText": "",
		"BigAdvertisingImage": "UI/CommonBG_ABS/BG_Church.png",
		"Desc": "",
		"IsStrongRecommend": 0,
		"SmallAdvertisingImage": "UI/Store_ABS/1/Store_Banner_01.png",
		"RecommendDesc": "",
		"IsShowIOSSpecificGo": false,
		"RedMark": "StoreRedMarkType_None",
		"PreUnlockGoodsId": 0
	},
	{
		"ID": 16,
		"Name": "皮肤券礼包",
		"StoreId": "StoreId_Gift",
		"ItemType": "GoodsType_Item",
		"ItemId": 5005,
		"Nums": 1,
		"ShowStartTime": "2017/12/14 3:30:30",
		"ShowEndTime": "",
		"RefluxBeginDays": 0,
		"RefluxEndDays": 0,
		"IsOperateGoods": false,
		"BuyLimitType": "BuyRuleType_Forever",
		"Param": 0,
		"Count": 0,
		"FirstPrice": 128.0,
		"NormalPrice": 128.0,
		"Lable": "LabelType_None",
		"IsAppleSubscribe": false,
		"FirstBuyCompensation": 640,
		"NormalBuyCompensation": 640,
		"PlayerBuyMinLevel": 0,
		"Sort": 0,
		"IsRecommendDisplay": 0,
		"RecommendDisplayStartTime": "2017/12/14 3:30:30",
		"DiscountText": "",
		"BigAdvertisingImage": "UI/CommonBG_ABS/BG_Church.png",
		"Desc": "",
		"IsStrongRecommend": 0,
		"SmallAdvertisingImage": "UI/Store_ABS/1/Store_Banner_07.png",
		"RecommendDesc": "",
		"IsShowIOSSpecificGo": false,
		"RedMark": "StoreRedMarkType_None",
		"PreUnlockGoodsId": 0
	},
	{
		"ID": 12,
		"Name": "魔导石礼包",
		"StoreId": "StoreId_Gift",
		"ItemType": "GoodsType_Item",
		"ItemId": 5001,
		"Nums": 1,
		"ShowStartTime": "2017/12/14 3:30:30",
		"ShowEndTime": "",
		"RefluxBeginDays": 0,
		"RefluxEndDays": 0,
		"IsOperateGoods": false,
		"BuyLimitType": "BuyRuleType_Forever",
		"Param": 0,
		"Count": 1,
		"FirstPrice": 198.0,
		"NormalPrice": 198.0,
		"Lable": "LabelType_None",
		"IsAppleSubscribe": false,
		"FirstBuyCompensation": 990,
		"NormalBuyCompensation": 990,
		"PlayerBuyMinLevel": 0,
		"Sort": 0,
		"IsRecommendDisplay": 0,
		"RecommendDisplayStartTime": "2017/12/14 3:30:30",
		"DiscountText": "",
		"BigAdvertisingImage": "UI/CommonBG_ABS/BG_Church.png",
		"Desc": "",
		"IsStrongRecommend": 0,
		"SmallAdvertisingImage": "UI/Store_ABS/1/Store_Banner_06.png",
		"RecommendDesc": "",
		"IsShowIOSSpecificGo": false,
		"RedMark": "StoreRedMarkType_None",
		"PreUnlockGoodsId": 0
	},
	{
		"ID": 17,
		"Name": "旅团许可证",
		"StoreId": "StoreId_Gift",
		"ItemType": "GoodsType_Item",
		"ItemId": 3012,
		"Nums": 1,
		"ShowStartTime": "2017/12/14 3:30:30",
		"ShowEndTime": "",
		"RefluxBeginDays": 0,
		"RefluxEndDays": 0,
		"IsOperateGoods": false,
		"BuyLimitType": "BuyRuleType_Forever",
		"Param": 0,
		"Count": 0,
		"FirstPrice": 12.0,
		"NormalPrice": 12.0,
		"Lable": "LabelType_None",
		"IsAppleSubscribe": false,
		"FirstBuyCompensation": 60,
		"NormalBuyCompensation": 60,
		"PlayerBuyMinLevel": 0,
		"Sort": 0,
		"IsRecommendDisplay": 0,
		"RecommendDisplayStartTime": "2017/12/14 3:30:30",
		"DiscountText": "",
		"BigAdvertisingImage": "UI/CommonBG_ABS/BG_Church.png",
		"Desc": "",
		"IsStrongRecommend": 0,
		"SmallAdvertisingImage": "UI/Store_ABS/1/Store_Banner_03.png",
		"RecommendDesc": "",
		"IsShowIOSSpecificGo": false,
		"RedMark": "StoreRedMarkType_None",
		"PreUnlockGoodsId": 0
	},
	{
		"ID": 18,
		"Name": "指挥官养成礼包",
		"StoreId": "StoreId_Gift",
		"ItemType": "GoodsType_Item",
		"ItemId": 7000,
		"Nums": 1,
		"ShowStartTime": "2017/12/14 3:30:30",
		"ShowEndTime": "",
		"RefluxBeginDays": 0,
		"RefluxEndDays": 0,
		"IsOperateGoods": false,
		"BuyLimitType": "BuyRuleType_Forever",
		"Param": 0,
		"Count": 1,
		"FirstPrice": 168.0,
		"NormalPrice": 168.0,
		"Lable": "LabelType_None",
		"IsAppleSubscribe": false,
		"FirstBuyCompensation": 840,
		"NormalBuyCompensation": 840,
		"PlayerBuyMinLevel": 0,
		"Sort": 0,
		"IsRecommendDisplay": 0,
		"RecommendDisplayStartTime": "2017/12/14 3:30:30",
		"DiscountText": "",
		"BigAdvertisingImage": "UI/CommonBG_ABS/BG_Church.png",
		"Desc": "",
		"IsStrongRecommend": 0,
		"SmallAdvertisingImage": "UI/Store_ABS/1/Store_Banner_10.png",
		"RecommendDesc": "",
		"IsShowIOSSpecificGo": false,
		"RedMark": "StoreRedMarkType_None",
		"PreUnlockGoodsId": 0
	},
	{
		"ID": 19,
		"Name": "健身房百宝箱",
		"StoreId": "StoreId_Gift",
		"ItemType": "GoodsType_Item",
		"ItemId": 7003,
		"Nums": 1,
		"ShowStartTime": "2017/12/14 3:30:30",
		"ShowEndTime": "",
		"RefluxBeginDays": 0,
		"RefluxEndDays": 0,
		"IsOperateGoods": false,
		"BuyLimitType": "BuyRuleType_WeekTime",
		"Param": 0,
		"Count": 1,
		"FirstPrice": 128.0,
		"NormalPrice": 128.0,
		"Lable": "LabelType_None",
		"IsAppleSubscribe": false,
		"FirstBuyCompensation": 640,
		"NormalBuyCompensation": 640,
		"PlayerBuyMinLevel": 50,
		"Sort": 0,
		"IsRecommendDisplay": 0,
		"RecommendDisplayStartTime": "2017/12/14 3:30:30",
		"DiscountText": "",
		"BigAdvertisingImage": "UI/CommonBG_ABS/BG_Church.png",
		"Desc": "",
		"IsStrongRecommend": 0,
		"SmallAdvertisingImage": "UI/Store_ABS/1/Store_Banner_09.png",
		"RecommendDesc": "",
		"IsShowIOSSpecificGo": false,
		"RedMark": "StoreRedMarkType_None",
		"PreUnlockGoodsId": 0
	},
	{
		"ID": 20,
		"Name": "圣夜祝福礼包",
		"StoreId": "StoreId_Gift",
		"ItemType": "GoodsType_Item",
		"ItemId": 7006,
		"Nums": 1,
		"ShowStartTime": "2018/12/25 0:00:00",
		"ShowEndTime": "2019/1/2 23:59:59",
		"RefluxBeginDays": 0,
		"RefluxEndDays": 0,
		"IsOperateGoods": false,
		"BuyLimitType": "BuyRuleType_Forever",
		"Param": 0,
		"Count": 1,
		"FirstPrice": 88.0,
		"NormalPrice": 88.0,
		"Lable": "LabelType_None",
		"IsAppleSubscribe": false,
		"FirstBuyCompensation": 440,
		"NormalBuyCompensation": 440,
		"PlayerBuyMinLevel": 0,
		"Sort": 0,
		"IsRecommendDisplay": 0,
		"RecommendDisplayStartTime": "2018/12/25 0:00:00",
		"DiscountText": "",
		"BigAdvertisingImage": "UI/CommonBG_ABS/BG_Church.png",
		"Desc": "",
		"IsStrongRecommend": 0,
		"SmallAdvertisingImage": "UI/CommonBG_ABS/BG_Church.png",
		"RecommendDesc": "",
		"IsShowIOSSpecificGo": false,
		"RedMark": "StoreRedMarkType_None",
		"PreUnlockGoodsId": 0
	},
	{
		"ID": 21,
		"Name": "冰雪之心礼包",
		"StoreId": "StoreId_Gift",
		"ItemType": "GoodsType_Item",
		"ItemId": 7007,
		"Nums": 1,
		"ShowStartTime": "2018/12/25 0:00:00",
		"ShowEndTime": "2019/1/2 23:59:59",
		"RefluxBeginDays": 0,
		"RefluxEndDays": 0,
		"IsOperateGoods": false,
		"BuyLimitType": "BuyRuleType_Forever",
		"Param": 0,
		"Count": 2,
		"FirstPrice": 328.0,
		"NormalPrice": 328.0,
		"Lable": "LabelType_None",
		"IsAppleSubscribe": false,
		"FirstBuyCompensation": 1640,
		"NormalBuyCompensation": 1640,
		"PlayerBuyMinLevel": 0,
		"Sort": 0,
		"IsRecommendDisplay": 0,
		"RecommendDisplayStartTime": "2018/12/25 0:00:00",
		"DiscountText": "",
		"BigAdvertisingImage": "UI/CommonBG_ABS/BG_Church.png",
		"Desc": "",
		"IsStrongRecommend": 0,
		"SmallAdvertisingImage": "UI/CommonBG_ABS/BG_Church.png",
		"RecommendDesc": "",
		"IsShowIOSSpecificGo": false,
		"RedMark": "StoreRedMarkType_None",
		"PreUnlockGoodsId": 0
	},
	{
		"ID": 22,
		"Name": "金玉礼盒",
		"StoreId": "StoreId_Gift",
		"ItemType": "GoodsType_Item",
		"ItemId": 7009,
		"Nums": 1,
		"ShowStartTime": "2019/2/4 0:00:00",
		"ShowEndTime": "2019/2/13 23:59:59",
		"RefluxBeginDays": 0,
		"RefluxEndDays": 0,
		"IsOperateGoods": false,
		"BuyLimitType": "BuyRuleType_Forever",
		"Param": 0,
		"Count": 2,
		"FirstPrice": 328.0,
		"NormalPrice": 328.0,
		"Lable": "LabelType_None",
		"IsAppleSubscribe": false,
		"FirstBuyCompensation": 1640,
		"NormalBuyCompensation": 1640,
		"PlayerBuyMinLevel": 0,
		"Sort": 0,
		"IsRecommendDisplay": 0,
		"RecommendDisplayStartTime": "2018/12/25 0:00:01",
		"DiscountText": "",
		"BigAdvertisingImage": "UI/CommonBG_ABS/BG_Church.png",
		"Desc": "",
		"IsStrongRecommend": 0,
		"SmallAdvertisingImage": "UI/CommonBG_ABS/BG_Church.png",
		"RecommendDesc": "",
		"IsShowIOSSpecificGo": false,
		"RedMark": "StoreRedMarkType_None",
		"PreUnlockGoodsId": 0
	},
	{
		"ID": 23,
		"Name": "春岁礼包",
		"StoreId": "StoreId_Gift",
		"ItemType": "GoodsType_Item",
		"ItemId": 7010,
		"Nums": 1,
		"ShowStartTime": "2019/2/4 0:00:00",
		"ShowEndTime": "2019/2/13 23:59:59",
		"RefluxBeginDays": 0,
		"RefluxEndDays": 0,
		"IsOperateGoods": false,
		"BuyLimitType": "BuyRuleType_FixedTime",
		"Param": 1,
		"Count": 1,
		"FirstPrice": 12.0,
		"NormalPrice": 12.0,
		"Lable": "LabelType_None",
		"IsAppleSubscribe": false,
		"FirstBuyCompensation": 60,
		"NormalBuyCompensation": 60,
		"PlayerBuyMinLevel": 0,
		"Sort": 0,
		"IsRecommendDisplay": 0,
		"RecommendDisplayStartTime": "2018/12/25 0:00:02",
		"DiscountText": "",
		"BigAdvertisingImage": "UI/CommonBG_ABS/BG_Church.png",
		"Desc": "",
		"IsStrongRecommend": 0,
		"SmallAdvertisingImage": "UI/CommonBG_ABS/BG_Church.png",
		"RecommendDesc": "",
		"IsShowIOSSpecificGo": false,
		"RedMark": "StoreRedMarkType_None",
		"PreUnlockGoodsId": 0
	},
	{
		"ID": 24,
		"Name": "结彩福袋",
		"StoreId": "StoreId_Gift",
		"ItemType": "GoodsType_Item",
		"ItemId": 7011,
		"Nums": 1,
		"ShowStartTime": "2019/2/4 0:00:00",
		"ShowEndTime": "2019/2/13 23:59:59",
		"RefluxBeginDays": 0,
		"RefluxEndDays": 0,
		"IsOperateGoods": false,
		"BuyLimitType": "BuyRuleType_Forever",
		"Param": 0,
		"Count": 1,
		"FirstPrice": 128.0,
		"NormalPrice": 128.0,
		"Lable": "LabelType_None",
		"IsAppleSubscribe": false,
		"FirstBuyCompensation": 640,
		"NormalBuyCompensation": 640,
		"PlayerBuyMinLevel": 0,
		"Sort": 0,
		"IsRecommendDisplay": 0,
		"RecommendDisplayStartTime": "2018/12/25 0:00:03",
		"DiscountText": "",
		"BigAdvertisingImage": "UI/CommonBG_ABS/BG_Church.png",
		"Desc": "",
		"IsStrongRecommend": 0,
		"SmallAdvertisingImage": "UI/CommonBG_ABS/BG_Church.png",
		"RecommendDesc": "",
		"IsShowIOSSpecificGo": false,
		"RedMark": "StoreRedMarkType_None",
		"PreUnlockGoodsId": 0
	},
	{
		"ID": 25,
		"Name": "欢乐附魔好礼",
		"StoreId": "StoreId_Gift",
		"ItemType": "GoodsType_Item",
		"ItemId": 7019,
		"Nums": 1,
		"ShowStartTime": "2019/1/17 0:00:00",
		"ShowEndTime": "2019/1/23 23:59:59",
		"RefluxBeginDays": 0,
		"RefluxEndDays": 0,
		"IsOperateGoods": false,
		"BuyLimitType": "BuyRuleType_Forever",
		"Param": 0,
		"Count": 1,
		"FirstPrice": 168.0,
		"NormalPrice": 168.0,
		"Lable": "LabelType_None",
		"IsAppleSubscribe": false,
		"FirstBuyCompensation": 840,
		"NormalBuyCompensation": 840,
		"PlayerBuyMinLevel": 0,
		"Sort": 0,
		"IsRecommendDisplay": 0,
		"RecommendDisplayStartTime": "2018/12/25 0:00:04",
		"DiscountText": "",
		"BigAdvertisingImage": "UI/CommonBG_ABS/BG_Church.png",
		"Desc": "",
		"IsStrongRecommend": 0,
		"SmallAdvertisingImage": "UI/CommonBG_ABS/BG_Church.png",
		"RecommendDesc": "",
		"IsShowIOSSpecificGo": false,
		"RedMark": "StoreRedMarkType_None",
		"PreUnlockGoodsId": 0
	},
	{
		"ID": 26,
		"Name": "周末羁绊礼包",
		"StoreId": "StoreId_Gift",
		"ItemType": "GoodsType_Item",
		"ItemId": 7023,
		"Nums": 1,
		"ShowStartTime": "2019/3/16 0:00:00",
		"ShowEndTime": "2019/3/17 23:59:59",
		"RefluxBeginDays": 0,
		"RefluxEndDays": 0,
		"IsOperateGoods": false,
		"BuyLimitType": "BuyRuleType_WeekTime",
		"Param": 0,
		"Count": 1,
		"FirstPrice": 98.0,
		"NormalPrice": 98.0,
		"Lable": "LabelType_None",
		"IsAppleSubscribe": false,
		"FirstBuyCompensation": 490,
		"NormalBuyCompensation": 490,
		"PlayerBuyMinLevel": 0,
		"Sort": 0,
		"IsRecommendDisplay": 0,
		"RecommendDisplayStartTime": "2018/12/25 0:00:04",
		"DiscountText": "",
		"BigAdvertisingImage": "UI/CommonBG_ABS/BG_Church.png",
		"Desc": "",
		"IsStrongRecommend": 0,
		"SmallAdvertisingImage": "UI/Store_ABS/1/Store_Banner_11.png",
		"RecommendDesc": "",
		"IsShowIOSSpecificGo": false,
		"RedMark": "StoreRedMarkType_None",
		"PreUnlockGoodsId": 0
	},
	{
		"ID": 27,
		"Name": "欢乐附魔礼包",
		"StoreId": "StoreId_Gift",
		"ItemType": "GoodsType_Item",
		"ItemId": 7019,
		"Nums": 1,
		"ShowStartTime": "2019/3/21 0:00:00",
		"ShowEndTime": "2019/3/27 23:59:59",
		"RefluxBeginDays": 0,
		"RefluxEndDays": 0,
		"IsOperateGoods": false,
		"BuyLimitType": "BuyRuleType_FixedTime",
		"Param": 7,
		"Count": 1,
		"FirstPrice": 168.0,
		"NormalPrice": 168.0,
		"Lable": "LabelType_None",
		"IsAppleSubscribe": false,
		"FirstBuyCompensation": 840,
		"NormalBuyCompensation": 840,
		"PlayerBuyMinLevel": 0,
		"Sort": 0,
		"IsRecommendDisplay": 0,
		"RecommendDisplayStartTime": "2018/12/25 0:00:04",
		"DiscountText": "",
		"BigAdvertisingImage": "UI/CommonBG_ABS/BG_Church.png",
		"Desc": "",
		"IsStrongRecommend": 0,
		"SmallAdvertisingImage": "UI/Store_ABS/1/Store_Banner_02.png",
		"RecommendDesc": "",
		"IsShowIOSSpecificGo": false,
		"RedMark": "StoreRedMarkType_None",
		"PreUnlockGoodsId": 0
	},
	{
		"ID": 28,
		"Name": "职业大师礼包",
		"StoreId": "StoreId_Gift",
		"ItemType": "GoodsType_Item",
		"ItemId": 7024,
		"Nums": 1,
		"ShowStartTime": "2019/4/4 0:00:00",
		"ShowEndTime": "2019/4/10 23:59:59",
		"RefluxBeginDays": 0,
		"RefluxEndDays": 0,
		"IsOperateGoods": false,
		"BuyLimitType": "BuyRuleType_FixedTime",
		"Param": 7,
		"Count": 1,
		"FirstPrice": 328.0,
		"NormalPrice": 328.0,
		"Lable": "LabelType_None",
		"IsAppleSubscribe": false,
		"FirstBuyCompensation": 1640,
		"NormalBuyCompensation": 1640,
		"PlayerBuyMinLevel": 0,
		"Sort": 0,
		"IsRecommendDisplay": 0,
		"RecommendDisplayStartTime": "2018/12/25 0:00:04",
		"DiscountText": "",
		"BigAdvertisingImage": "UI/CommonBG_ABS/BG_Church.png",
		"Desc": "",
		"IsStrongRecommend": 0,
		"SmallAdvertisingImage": "UI/Store_ABS/1/Store_Banner_10.png",
		"RecommendDesc": "",
		"IsShowIOSSpecificGo": false,
		"RedMark": "StoreRedMarkType_None",
		"PreUnlockGoodsId": 0
	},
	{
		"ID": 35,
		"Name": "心之羁绊礼包",
		"StoreId": "StoreId_Gift",
		"ItemType": "GoodsType_Item",
		"ItemId": 7042,
		"Nums": 1,
		"ShowStartTime": "2019/5/23 0:00:00",
		"ShowEndTime": "2019/5/29 23:59:59",
		"RefluxBeginDays": 0,
		"RefluxEndDays": 0,
		"IsOperateGoods": false,
		"BuyLimitType": "BuyRuleType_FixedTime",
		"Param": 7,
		"Count": 1,
		"FirstPrice": 138.0,
		"NormalPrice": 138.0,
		"Lable": "LabelType_None",
		"IsAppleSubscribe": false,
		"FirstBuyCompensation": 690,
		"NormalBuyCompensation": 690,
		"PlayerBuyMinLevel": 0,
		"Sort": 0,
		"IsRecommendDisplay": 0,
		"RecommendDisplayStartTime": "2018/12/25 0:00:04",
		"DiscountText": "",
		"BigAdvertisingImage": "UI/CommonBG_ABS/BG_Church.png",
		"Desc": "",
		"IsStrongRecommend": 0,
		"SmallAdvertisingImage": "UI/Store_ABS/1/Store_Banner_13.png",
		"RecommendDesc": "",
		"IsShowIOSSpecificGo": false,
		"RedMark": "StoreRedMarkType_None",
		"PreUnlockGoodsId": 0
	},
	{
		"ID": 37,
		"Name": "七彩钥匣",
		"StoreId": "StoreId_Gift",
		"ItemType": "GoodsType_Item",
		"ItemId": 7045,
		"Nums": 1,
		"ShowStartTime": "2019/6/6 0:00:00",
		"ShowEndTime": "2019/6/12 23:59:59",
		"RefluxBeginDays": 0,
		"RefluxEndDays": 0,
		"IsOperateGoods": false,
		"BuyLimitType": "BuyRuleType_FixedTime",
		"Param": 7,
		"Count": 1,
		"FirstPrice": 98.0,
		"NormalPrice": 98.0,
		"Lable": "LabelType_None",
		"IsAppleSubscribe": false,
		"FirstBuyCompensation": 490,
		"NormalBuyCompensation": 490,
		"PlayerBuyMinLevel": 0,
		"Sort": 0,
		"IsRecommendDisplay": 0,
		"RecommendDisplayStartTime": "2018/12/25 0:00:04",
		"DiscountText": "",
		"BigAdvertisingImage": "UI/CommonBG_ABS/BG_Church.png",
		"Desc": "",
		"IsStrongRecommend": 0,
		"SmallAdvertisingImage": "UI/Store_ABS/1/Store_Banner_11.png",
		"RecommendDesc": "",
		"IsShowIOSSpecificGo": true,
		"RedMark": "StoreRedMarkType_None",
		"PreUnlockGoodsId": 0
	},
	{
		"ID": 38,
		"Name": "心钥魔盒",
		"StoreId": "StoreId_Gift",
		"ItemType": "GoodsType_Item",
		"ItemId": 7046,
		"Nums": 1,
		"ShowStartTime": "2019/6/6 0:00:00",
		"ShowEndTime": "2019/6/12 23:59:59",
		"RefluxBeginDays": 0,
		"RefluxEndDays": 0,
		"IsOperateGoods": false,
		"BuyLimitType": "BuyRuleType_FixedTime",
		"Param": 7,
		"Count": 1,
		"FirstPrice": 98.0,
		"NormalPrice": 98.0,
		"Lable": "LabelType_None",
		"IsAppleSubscribe": false,
		"FirstBuyCompensation": 490,
		"NormalBuyCompensation": 490,
		"PlayerBuyMinLevel": 0,
		"Sort": 0,
		"IsRecommendDisplay": 0,
		"RecommendDisplayStartTime": "2018/12/25 0:00:04",
		"DiscountText": "",
		"BigAdvertisingImage": "UI/CommonBG_ABS/BG_Church.png",
		"Desc": "",
		"IsStrongRecommend": 0,
		"SmallAdvertisingImage": "UI/Store_ABS/1/Store_Banner_11.png",
		"RecommendDesc": "",
		"IsShowIOSSpecificGo": false,
		"RedMark": "StoreRedMarkType_None",
		"PreUnlockGoodsId": 0
	},
	{
		"ID": 42,
		"Name": "心锁宝盒",
		"StoreId": "StoreId_Gift",
		"ItemType": "GoodsType_Item",
		"ItemId": 7053,
		"Nums": 1,
		"ShowStartTime": "2019/7/11 0:00:00",
		"ShowEndTime": "2019/7/17 23:59:59",
		"RefluxBeginDays": 0,
		"RefluxEndDays": 0,
		"IsOperateGoods": false,
		"BuyLimitType": "BuyRuleType_FixedTime",
		"Param": 7,
		"Count": 2,
		"FirstPrice": 188.0,
		"NormalPrice": 188.0,
		"Lable": "LabelType_None",
		"IsAppleSubscribe": false,
		"FirstBuyCompensation": 940,
		"NormalBuyCompensation": 940,
		"PlayerBuyMinLevel": 0,
		"Sort": 0,
		"IsRecommendDisplay": 0,
		"RecommendDisplayStartTime": "2018/12/25 0:00:04",
		"DiscountText": "",
		"BigAdvertisingImage": "UI/CommonBG_ABS/BG_Church.png",
		"Desc": "",
		"IsStrongRecommend": 0,
		"SmallAdvertisingImage": "UI/Store_ABS/1/Store_Banner_06.png",
		"RecommendDesc": "",
		"IsShowIOSSpecificGo": false,
		"RedMark": "StoreRedMarkType_None",
		"PreUnlockGoodsId": 0
	},
	{
		"ID": 43,
		"Name": "附魔特惠礼包",
		"StoreId": "StoreId_Gift",
		"ItemType": "GoodsType_Item",
		"ItemId": 7054,
		"Nums": 1,
		"ShowStartTime": "2019/7/15 0:00:00",
		"ShowEndTime": "",
		"RefluxBeginDays": 0,
		"RefluxEndDays": 0,
		"IsOperateGoods": false,
		"BuyLimitType": "BuyRuleType_WeekTime",
		"Param": 0,
		"Count": 1,
		"FirstPrice": 88.0,
		"NormalPrice": 88.0,
		"Lable": "LabelType_None",
		"IsAppleSubscribe": false,
		"FirstBuyCompensation": 440,
		"NormalBuyCompensation": 440,
		"PlayerBuyMinLevel": 50,
		"Sort": 0,
		"IsRecommendDisplay": 0,
		"RecommendDisplayStartTime": "2017/12/14 3:30:30",
		"DiscountText": "",
		"BigAdvertisingImage": "UI/CommonBG_ABS/BG_Church.png",
		"Desc": "",
		"IsStrongRecommend": 0,
		"SmallAdvertisingImage": "UI/Store_ABS/1/Store_Banner_02.png",
		"RecommendDesc": "",
		"IsShowIOSSpecificGo": false,
		"RedMark": "StoreRedMarkType_None",
		"PreUnlockGoodsId": 0
	},
	{
		"ID": 44,
		"Name": "S1巅峰纪念礼包",
		"StoreId": "StoreId_Gift",
		"ItemType": "GoodsType_Item",
		"ItemId": 7055,
		"Nums": 1,
		"ShowStartTime": "2019/7/18 0:00:00",
		"ShowEndTime": "2019/8/14 23:59:59",
		"RefluxBeginDays": 0,
		"RefluxEndDays": 0,
		"IsOperateGoods": false,
		"BuyLimitType": "BuyRuleType_Forever",
		"Param": 0,
		"Count": 1,
		"FirstPrice": 128.0,
		"NormalPrice": 128.0,
		"Lable": "LabelType_None",
		"IsAppleSubscribe": false,
		"FirstBuyCompensation": 640,
		"NormalBuyCompensation": 640,
		"PlayerBuyMinLevel": 0,
		"Sort": 0,
		"IsRecommendDisplay": 0,
		"RecommendDisplayStartTime": "2017/12/14 3:30:30",
		"DiscountText": "",
		"BigAdvertisingImage": "UI/CommonBG_ABS/BG_Church.png",
		"Desc": "",
		"IsStrongRecommend": 0,
		"SmallAdvertisingImage": "UI/Store_ABS/1/Store_Banner_03.png",
		"RecommendDesc": "",
		"IsShowIOSSpecificGo": false,
		"RedMark": "StoreRedMarkType_None",
		"PreUnlockGoodsId": 0
	},
	{
		"ID": 45,
		"Name": "头号玩家礼包",
		"StoreId": "StoreId_Gift",
		"ItemType": "GoodsType_Item",
		"ItemId": 7057,
		"Nums": 1,
		"ShowStartTime": "2019/8/15 0:00:00",
		"ShowEndTime": "2019/9/11 23:59:59",
		"RefluxBeginDays": 0,
		"RefluxEndDays": 0,
		"IsOperateGoods": false,
		"BuyLimitType": "BuyRuleType_Forever",
		"Param": 0,
		"Count": 1,
		"FirstPrice": 228.0,
		"NormalPrice": 228.0,
		"Lable": "LabelType_None",
		"IsAppleSubscribe": false,
		"FirstBuyCompensation": 1140,
		"NormalBuyCompensation": 1140,
		"PlayerBuyMinLevel": 0,
		"Sort": 0,
		"IsRecommendDisplay": 0,
		"RecommendDisplayStartTime": "2018/12/25 0:00:04",
		"DiscountText": "",
		"BigAdvertisingImage": "UI/CommonBG_ABS/BG_Church.png",
		"Desc": "",
		"IsStrongRecommend": 0,
		"SmallAdvertisingImage": "UI/Store_ABS/1/Store_Banner_14.png",
		"RecommendDesc": "",
		"IsShowIOSSpecificGo": false,
		"RedMark": "StoreRedMarkType_None",
		"PreUnlockGoodsId": 0
	},
	{
		"ID": 46,
		"Name": "英雄进修宝典",
		"StoreId": "StoreId_Gift",
		"ItemType": "GoodsType_Item",
		"ItemId": 7058,
		"Nums": 1,
		"ShowStartTime": "2019/8/15 0:00:00",
		"ShowEndTime": "2019/9/11 23:59:59",
		"RefluxBeginDays": 0,
		"RefluxEndDays": 0,
		"IsOperateGoods": false,
		"BuyLimitType": "BuyRuleType_Forever",
		"Param": 0,
		"Count": 2,
		"FirstPrice": 388.0,
		"NormalPrice": 388.0,
		"Lable": "LabelType_None",
		"IsAppleSubscribe": false,
		"FirstBuyCompensation": 1940,
		"NormalBuyCompensation": 1940,
		"PlayerBuyMinLevel": 0,
		"Sort": 0,
		"IsRecommendDisplay": 0,
		"RecommendDisplayStartTime": "2018/12/25 0:00:04",
		"DiscountText": "",
		"BigAdvertisingImage": "UI/CommonBG_ABS/BG_Church.png",
		"Desc": "",
		"IsStrongRecommend": 0,
		"SmallAdvertisingImage": "UI/Store_ABS/1/Store_Banner_14.png",
		"RecommendDesc": "",
		"IsShowIOSSpecificGo": false,
		"RedMark": "StoreRedMarkType_None",
		"PreUnlockGoodsId": 0
	},
	{
		"ID": 47,
		"Name": "七日欢庆礼包",
		"StoreId": "StoreId_Gift",
		"ItemType": "GoodsType_Item",
		"ItemId": 7059,
		"Nums": 1,
		"ShowStartTime": "2019/10/1 0:00:00",
		"ShowEndTime": "2019/10/7 23:59:59",
		"RefluxBeginDays": 0,
		"RefluxEndDays": 0,
		"IsOperateGoods": false,
		"BuyLimitType": "BuyRuleType_FixedTime",
		"Param": 1,
		"Count": 1,
		"FirstPrice": 12.0,
		"NormalPrice": 12.0,
		"Lable": "LabelType_None",
		"IsAppleSubscribe": false,
		"FirstBuyCompensation": 60,
		"NormalBuyCompensation": 60,
		"PlayerBuyMinLevel": 0,
		"Sort": 0,
		"IsRecommendDisplay": 0,
		"RecommendDisplayStartTime": "2018/12/25 0:00:02",
		"DiscountText": "",
		"BigAdvertisingImage": "UI/CommonBG_ABS/BG_Church.png",
		"Desc": "",
		"IsStrongRecommend": 0,
		"SmallAdvertisingImage": "UI/Store_ABS/1/Store_Banner_17.png",
		"RecommendDesc": "",
		"IsShowIOSSpecificGo": false,
		"RedMark": "StoreRedMarkType_Everyone",
		"PreUnlockGoodsId": 0
	},
	{
		"ID": 48,
		"Name": "崭新征程献礼",
		"StoreId": "StoreId_Gift",
		"ItemType": "GoodsType_Item",
		"ItemId": 7060,
		"Nums": 1,
		"ShowStartTime": "2019/8/15 0:00:00",
		"ShowEndTime": "2019/9/11 23:59:59",
		"RefluxBeginDays": 0,
		"RefluxEndDays": 0,
		"IsOperateGoods": false,
		"BuyLimitType": "BuyRuleType_Forever",
		"Param": 0,
		"Count": 1,
		"FirstPrice": 6.0,
		"NormalPrice": 6.0,
		"Lable": "LabelType_None",
		"IsAppleSubscribe": false,
		"FirstBuyCompensation": 30,
		"NormalBuyCompensation": 30,
		"PlayerBuyMinLevel": 0,
		"Sort": 0,
		"IsRecommendDisplay": 0,
		"RecommendDisplayStartTime": "2018/12/25 0:00:02",
		"DiscountText": "",
		"BigAdvertisingImage": "UI/CommonBG_ABS/BG_Church.png",
		"Desc": "",
		"IsStrongRecommend": 0,
		"SmallAdvertisingImage": "UI/Store_ABS/1/Store_Banner_14.png",
		"RecommendDesc": "",
		"IsShowIOSSpecificGo": false,
		"RedMark": "StoreRedMarkType_None",
		"PreUnlockGoodsId": 0
	},
	{
		"ID": 49,
		"Name": "远航福袋",
		"StoreId": "StoreId_Gift",
		"ItemType": "GoodsType_Item",
		"ItemId": 7061,
		"Nums": 1,
		"ShowStartTime": "2019/8/15 0:00:00",
		"ShowEndTime": "2019/9/11 23:59:59",
		"RefluxBeginDays": 0,
		"RefluxEndDays": 0,
		"IsOperateGoods": false,
		"BuyLimitType": "BuyRuleType_Forever",
		"Param": 0,
		"Count": 1,
		"FirstPrice": 128.0,
		"NormalPrice": 128.0,
		"Lable": "LabelType_None",
		"IsAppleSubscribe": false,
		"FirstBuyCompensation": 640,
		"NormalBuyCompensation": 640,
		"PlayerBuyMinLevel": 0,
		"Sort": 0,
		"IsRecommendDisplay": 0,
		"RecommendDisplayStartTime": "2018/12/25 0:00:03",
		"DiscountText": "",
		"BigAdvertisingImage": "UI/CommonBG_ABS/BG_Church.png",
		"Desc": "",
		"IsStrongRecommend": 0,
		"SmallAdvertisingImage": "UI/Store_ABS/1/Store_Banner_14.png",
		"RecommendDesc": "",
		"IsShowIOSSpecificGo": false,
		"RedMark": "StoreRedMarkType_None",
		"PreUnlockGoodsId": 0
	},
	{
		"ID": 50,
		"Name": "无限宝匣",
		"StoreId": "StoreId_Gift",
		"ItemType": "GoodsType_Item",
		"ItemId": 7067,
		"Nums": 1,
		"ShowStartTime": "2019/8/15 0:00:00",
		"ShowEndTime": "2019/9/4 23:59:59",
		"RefluxBeginDays": 0,
		"RefluxEndDays": 0,
		"IsOperateGoods": false,
		"BuyLimitType": "BuyRuleType_Forever",
		"Param": 0,
		"Count": 1,
		"FirstPrice": 128.0,
		"NormalPrice": 128.0,
		"Lable": "LabelType_None",
		"IsAppleSubscribe": false,
		"FirstBuyCompensation": 640,
		"NormalBuyCompensation": 640,
		"PlayerBuyMinLevel": 0,
		"Sort": 0,
		"IsRecommendDisplay": 0,
		"RecommendDisplayStartTime": "2018/12/25 0:00:03",
		"DiscountText": "",
		"BigAdvertisingImage": "UI/CommonBG_ABS/BG_Church.png",
		"Desc": "",
		"IsStrongRecommend": 0,
		"SmallAdvertisingImage": "UI/Store_ABS/1/Store_Banner_14.png",
		"RecommendDesc": "",
		"IsShowIOSSpecificGo": false,
		"RedMark": "StoreRedMarkType_None",
		"PreUnlockGoodsId": 0
	},
	{
		"ID": 51,
		"Name": "S2赛季补给",
		"StoreId": "StoreId_Gift",
		"ItemType": "GoodsType_Item",
		"ItemId": 7076,
		"Nums": 1,
		"ShowStartTime": "2019/9/5 0:00:00",
		"ShowEndTime": "2019/9/25 23:59:59",
		"RefluxBeginDays": 0,
		"RefluxEndDays": 0,
		"IsOperateGoods": false,
		"BuyLimitType": "BuyRuleType_FixedTime",
		"Param": 21,
		"Count": 2,
		"FirstPrice": 138.0,
		"NormalPrice": 138.0,
		"Lable": "LabelType_None",
		"IsAppleSubscribe": false,
		"FirstBuyCompensation": 690,
		"NormalBuyCompensation": 690,
		"PlayerBuyMinLevel": 0,
		"Sort": 0,
		"IsRecommendDisplay": 0,
		"RecommendDisplayStartTime": "2018/12/25 0:00:03",
		"DiscountText": "",
		"BigAdvertisingImage": "UI/CommonBG_ABS/BG_Church.png",
		"Desc": "",
		"IsStrongRecommend": 0,
		"SmallAdvertisingImage": "UI/Store_ABS/1/Store_Banner_03.png",
		"RecommendDesc": "",
		"IsShowIOSSpecificGo": false,
		"RedMark": "StoreRedMarkType_None",
		"PreUnlockGoodsId": 0
	},
	{
		"ID": 52,
		"Name": "秘石的宝具箱",
		"StoreId": "StoreId_Gift",
		"ItemType": "GoodsType_Item",
		"ItemId": 7077,
		"Nums": 1,
		"ShowStartTime": "2017/12/14 3:30:30",
		"ShowEndTime": "",
		"RefluxBeginDays": 0,
		"RefluxEndDays": 0,
		"IsOperateGoods": false,
		"BuyLimitType": "BuyRuleType_MonthTime",
		"Param": 0,
		"Count": 1,
		"FirstPrice": 268.0,
		"NormalPrice": 268.0,
		"Lable": "LabelType_None",
		"IsAppleSubscribe": false,
		"FirstBuyCompensation": 1340,
		"NormalBuyCompensation": 1340,
		"PlayerBuyMinLevel": 0,
		"Sort": 0,
		"IsRecommendDisplay": 0,
		"RecommendDisplayStartTime": "2018/12/25 0:00:03",
		"DiscountText": "",
		"BigAdvertisingImage": "UI/CommonBG_ABS/BG_Church.png",
		"Desc": "",
		"IsStrongRecommend": 0,
		"SmallAdvertisingImage": "UI/Store_ABS/1/Store_Banner_15.png",
		"RecommendDesc": "",
		"IsShowIOSSpecificGo": false,
		"RedMark": "StoreRedMarkType_PayingUser",
		"PreUnlockGoodsId": 0
	},
	{
		"ID": 53,
		"Name": "心之珍宝",
		"StoreId": "StoreId_Gift",
		"ItemType": "GoodsType_Item",
		"ItemId": 7078,
		"Nums": 1,
		"ShowStartTime": "2017/12/14 3:30:30",
		"ShowEndTime": "",
		"RefluxBeginDays": 0,
		"RefluxEndDays": 0,
		"IsOperateGoods": false,
		"BuyLimitType": "BuyRuleType_WeekTime",
		"Param": 0,
		"Count": 1,
		"FirstPrice": 128.0,
		"NormalPrice": 128.0,
		"Lable": "LabelType_None",
		"IsAppleSubscribe": false,
		"FirstBuyCompensation": 640,
		"NormalBuyCompensation": 640,
		"PlayerBuyMinLevel": 0,
		"Sort": 0,
		"IsRecommendDisplay": 0,
		"RecommendDisplayStartTime": "2018/12/25 0:00:03",
		"DiscountText": "",
		"BigAdvertisingImage": "UI/CommonBG_ABS/BG_Church.png",
		"Desc": "",
		"IsStrongRecommend": 0,
		"SmallAdvertisingImage": "UI/Store_ABS/1/Store_Banner_13.png",
		"RecommendDesc": "",
		"IsShowIOSSpecificGo": false,
		"RedMark": "StoreRedMarkType_PayingUser",
		"PreUnlockGoodsId": 0
	},
	{
		"ID": 56,
		"Name": "武具许愿礼",
		"StoreId": "StoreId_Gift",
		"ItemType": "GoodsType_Item",
		"ItemId": 7079,
		"Nums": 1,
		"ShowStartTime": "2019/10/1 0:00:00",
		"ShowEndTime": "2019/10/14 23:59:59",
		"RefluxBeginDays": 0,
		"RefluxEndDays": 0,
		"IsOperateGoods": false,
		"BuyLimitType": "BuyRuleType_FixedTime",
		"Param": 14,
		"Count": 1,
		"FirstPrice": 128.0,
		"NormalPrice": 128.0,
		"Lable": "LabelType_None",
		"IsAppleSubscribe": false,
		"FirstBuyCompensation": 640,
		"NormalBuyCompensation": 640,
		"PlayerBuyMinLevel": 0,
		"Sort": 0,
		"IsRecommendDisplay": 0,
		"RecommendDisplayStartTime": "2018/12/25 0:00:03",
		"DiscountText": "",
		"BigAdvertisingImage": "UI/CommonBG_ABS/BG_Church.png",
		"Desc": "",
		"IsStrongRecommend": 0,
		"SmallAdvertisingImage": "UI/Store_ABS/1/Store_Banner_17.png",
		"RecommendDesc": "",
		"IsShowIOSSpecificGo": false,
		"RedMark": "StoreRedMarkType_PayingUser",
		"PreUnlockGoodsId": 0
	},
	{
		"ID": 57,
		"Name": "严选精通大礼",
		"StoreId": "StoreId_Gift",
		"ItemType": "GoodsType_Item",
		"ItemId": 7084,
		"Nums": 1,
		"ShowStartTime": "2020/2/6 0:00:00",
		"ShowEndTime": "2020/2/19 23:59:59",
		"RefluxBeginDays": 0,
		"RefluxEndDays": 0,
		"IsOperateGoods": false,
		"BuyLimitType": "BuyRuleType_FixedTime",
		"Param": 14,
		"Count": 2,
		"FirstPrice": 388.0,
		"NormalPrice": 388.0,
		"Lable": "LabelType_None",
		"IsAppleSubscribe": false,
		"FirstBuyCompensation": 1940,
		"NormalBuyCompensation": 1940,
		"PlayerBuyMinLevel": 0,
		"Sort": 0,
		"IsRecommendDisplay": 0,
		"RecommendDisplayStartTime": "2018/12/25 0:00:04",
		"DiscountText": "",
		"BigAdvertisingImage": "UI/CommonBG_ABS/BG_Church.png",
		"Desc": "",
		"IsStrongRecommend": 0,
		"SmallAdvertisingImage": "UI/Store_ABS/1/Store_Banner_17.png",
		"RecommendDesc": "",
		"IsShowIOSSpecificGo": false,
		"RedMark": "StoreRedMarkType_PayingUser",
		"PreUnlockGoodsId": 0
	},
	{
		"ID": 58,
		"Name": "S2巅峰纪念礼包",
		"StoreId": "StoreId_Gift",
		"ItemType": "GoodsType_Item",
		"ItemId": 7086,
		"Nums": 1,
		"ShowStartTime": "2019/10/17 0:00:00",
		"ShowEndTime": "2019/11/13 23:59:59",
		"RefluxBeginDays": 0,
		"RefluxEndDays": 0,
		"IsOperateGoods": false,
		"BuyLimitType": "BuyRuleType_Forever",
		"Param": 0,
		"Count": 1,
		"FirstPrice": 128.0,
		"NormalPrice": 128.0,
		"Lable": "LabelType_None",
		"IsAppleSubscribe": false,
		"FirstBuyCompensation": 640,
		"NormalBuyCompensation": 640,
		"PlayerBuyMinLevel": 0,
		"Sort": 0,
		"IsRecommendDisplay": 0,
		"RecommendDisplayStartTime": "2017/12/14 3:30:30",
		"DiscountText": "",
		"BigAdvertisingImage": "UI/CommonBG_ABS/BG_Church.png",
		"Desc": "",
		"IsStrongRecommend": 0,
		"SmallAdvertisingImage": "UI/Store_ABS/1/Store_Banner_03.png",
		"RecommendDesc": "",
		"IsShowIOSSpecificGo": false,
		"RedMark": "StoreRedMarkType_PayingUser",
		"PreUnlockGoodsId": 0
	},
	{
		"ID": 59,
		"Name": "觉醒宝石盒",
		"StoreId": "StoreId_Gift",
		"ItemType": "GoodsType_Item",
		"ItemId": 7087,
		"Nums": 1,
		"ShowStartTime": "2019/11/11 0:00:00",
		"ShowEndTime": "2019/11/24 23:59:59",
		"RefluxBeginDays": 0,
		"RefluxEndDays": 0,
		"IsOperateGoods": false,
		"BuyLimitType": "BuyRuleType_FixedTime",
		"Param": 14,
		"Count": 1,
		"FirstPrice": 188.0,
		"NormalPrice": 188.0,
		"Lable": "LabelType_None",
		"IsAppleSubscribe": false,
		"FirstBuyCompensation": 940,
		"NormalBuyCompensation": 940,
		"PlayerBuyMinLevel": 0,
		"Sort": 0,
		"IsRecommendDisplay": 0,
		"RecommendDisplayStartTime": "2018/12/25 0:00:03",
		"DiscountText": "",
		"BigAdvertisingImage": "UI/CommonBG_ABS/BG_Church.png",
		"Desc": "",
		"IsStrongRecommend": 0,
		"SmallAdvertisingImage": "UI/Store_ABS/1/Store_Banner_18.png",
		"RecommendDesc": "",
		"IsShowIOSSpecificGo": false,
		"RedMark": "StoreRedMarkType_PayingUser",
		"PreUnlockGoodsId": 0
	},
	{
		"ID": 60,
		"Name": "大工匠的秘宝箱",
		"StoreId": "StoreId_Gift",
		"ItemType": "GoodsType_Item",
		"ItemId": 7088,
		"Nums": 1,
		"ShowStartTime": "2020/2/14 0:00:00",
		"ShowEndTime": "2020/2/27 23:59:59",
		"RefluxBeginDays": 0,
		"RefluxEndDays": 0,
		"IsOperateGoods": false,
		"BuyLimitType": "BuyRuleType_FixedTime",
		"Param": 14,
		"Count": 1,
		"FirstPrice": 128.0,
		"NormalPrice": 128.0,
		"Lable": "LabelType_None",
		"IsAppleSubscribe": false,
		"FirstBuyCompensation": 640,
		"NormalBuyCompensation": 640,
		"PlayerBuyMinLevel": 0,
		"Sort": 0,
		"IsRecommendDisplay": 0,
		"RecommendDisplayStartTime": "2018/12/25 0:00:03",
		"DiscountText": "",
		"BigAdvertisingImage": "UI/CommonBG_ABS/BG_Church.png",
		"Desc": "",
		"IsStrongRecommend": 0,
		"SmallAdvertisingImage": "UI/Store_ABS/1/Store_Banner_18.png",
		"RecommendDesc": "",
		"IsShowIOSSpecificGo": false,
		"RedMark": "StoreRedMarkType_PayingUser",
		"PreUnlockGoodsId": 0
	},
	{
		"ID": 61,
		"Name": "金秋着装指南",
		"StoreId": "StoreId_Gift",
		"ItemType": "GoodsType_Item",
		"ItemId": 7089,
		"Nums": 1,
		"ShowStartTime": "2019/11/11 0:00:00",
		"ShowEndTime": "2019/11/24 23:59:59",
		"RefluxBeginDays": 0,
		"RefluxEndDays": 0,
		"IsOperateGoods": false,
		"BuyLimitType": "BuyRuleType_FixedTime",
		"Param": 14,
		"Count": 1,
		"FirstPrice": 188.0,
		"NormalPrice": 188.0,
		"Lable": "LabelType_None",
		"IsAppleSubscribe": false,
		"FirstBuyCompensation": 940,
		"NormalBuyCompensation": 940,
		"PlayerBuyMinLevel": 0,
		"Sort": 0,
		"IsRecommendDisplay": 0,
		"RecommendDisplayStartTime": "2018/12/25 0:00:04",
		"DiscountText": "",
		"BigAdvertisingImage": "UI/CommonBG_ABS/BG_Church.png",
		"Desc": "",
		"IsStrongRecommend": 0,
		"SmallAdvertisingImage": "UI/Store_ABS/1/Store_Banner_07.png",
		"RecommendDesc": "",
		"IsShowIOSSpecificGo": false,
		"RedMark": "StoreRedMarkType_None",
		"PreUnlockGoodsId": 0
	},
	{
		"ID": 62,
		"Name": "初雪特别献礼",
		"StoreId": "StoreId_Gift",
		"ItemType": "GoodsType_Item",
		"ItemId": 7090,
		"Nums": 1,
		"ShowStartTime": "2019/12/24 0:00:00",
		"ShowEndTime": "2019/12/30 23:59:59",
		"RefluxBeginDays": 0,
		"RefluxEndDays": 0,
		"IsOperateGoods": false,
		"BuyLimitType": "BuyRuleType_FixedTime",
		"Param": 7,
		"Count": 1,
		"FirstPrice": 12.0,
		"NormalPrice": 12.0,
		"Lable": "LabelType_None",
		"IsAppleSubscribe": false,
		"FirstBuyCompensation": 60,
		"NormalBuyCompensation": 60,
		"PlayerBuyMinLevel": 0,
		"Sort": 0,
		"IsRecommendDisplay": 0,
		"RecommendDisplayStartTime": "2018/12/25 0:00:04",
		"DiscountText": "",
		"BigAdvertisingImage": "UI/CommonBG_ABS/BG_Church.png",
		"Desc": "",
		"IsStrongRecommend": 0,
		"SmallAdvertisingImage": "UI/Store_ABS/1/Store_Banner_21.png",
		"RecommendDesc": "",
		"IsShowIOSSpecificGo": false,
		"RedMark": "StoreRedMarkType_Everyone",
		"PreUnlockGoodsId": 0
	},
	{
		"ID": 63,
		"Name": "圣夜工具包",
		"StoreId": "StoreId_Gift",
		"ItemType": "GoodsType_Item",
		"ItemId": 7091,
		"Nums": 1,
		"ShowStartTime": "2019/12/24 0:00:00",
		"ShowEndTime": "2019/12/30 23:59:59",
		"RefluxBeginDays": 0,
		"RefluxEndDays": 0,
		"IsOperateGoods": false,
		"BuyLimitType": "BuyRuleType_FixedTime",
		"Param": 7,
		"Count": 1,
		"FirstPrice": 128.0,
		"NormalPrice": 128.0,
		"Lable": "LabelType_None",
		"IsAppleSubscribe": false,
		"FirstBuyCompensation": 640,
		"NormalBuyCompensation": 640,
		"PlayerBuyMinLevel": 0,
		"Sort": 0,
		"IsRecommendDisplay": 0,
		"RecommendDisplayStartTime": "2018/12/25 0:00:04",
		"DiscountText": "",
		"BigAdvertisingImage": "UI/CommonBG_ABS/BG_Church.png",
		"Desc": "",
		"IsStrongRecommend": 0,
		"SmallAdvertisingImage": "UI/Store_ABS/1/Store_Banner_21.png",
		"RecommendDesc": "",
		"IsShowIOSSpecificGo": false,
		"RedMark": "StoreRedMarkType_PayingUser",
		"PreUnlockGoodsId": 0
	},
	{
		"ID": 64,
		"Name": "心愿钥匙糖",
		"StoreId": "StoreId_Gift",
		"ItemType": "GoodsType_Item",
		"ItemId": 7092,
		"Nums": 1,
		"ShowStartTime": "2019/12/24 0:00:00",
		"ShowEndTime": "2019/12/30 23:59:59",
		"RefluxBeginDays": 0,
		"RefluxEndDays": 0,
		"IsOperateGoods": false,
		"BuyLimitType": "BuyRuleType_FixedTime",
		"Param": 7,
		"Count": 2,
		"FirstPrice": 88.0,
		"NormalPrice": 88.0,
		"Lable": "LabelType_None",
		"IsAppleSubscribe": false,
		"FirstBuyCompensation": 440,
		"NormalBuyCompensation": 440,
		"PlayerBuyMinLevel": 0,
		"Sort": 0,
		"IsRecommendDisplay": 0,
		"RecommendDisplayStartTime": "2018/12/25 0:00:04",
		"DiscountText": "",
		"BigAdvertisingImage": "UI/CommonBG_ABS/BG_Church.png",
		"Desc": "",
		"IsStrongRecommend": 0,
		"SmallAdvertisingImage": "UI/Store_ABS/1/Store_Banner_21.png",
		"RecommendDesc": "",
		"IsShowIOSSpecificGo": false,
		"RedMark": "StoreRedMarkType_Everyone",
		"PreUnlockGoodsId": 0
	},
	{
		"ID": 65,
		"Name": "年终健身特惠",
		"StoreId": "StoreId_Gift",
		"ItemType": "GoodsType_Item",
		"ItemId": 7093,
		"Nums": 1,
		"ShowStartTime": "2020/1/1 0:00:00",
		"ShowEndTime": "2020/1/7 23:59:59",
		"RefluxBeginDays": 0,
		"RefluxEndDays": 0,
		"IsOperateGoods": false,
		"BuyLimitType": "BuyRuleType_FixedTime",
		"Param": 7,
		"Count": 1,
		"FirstPrice": 128.0,
		"NormalPrice": 128.0,
		"Lable": "LabelType_None",
		"IsAppleSubscribe": false,
		"FirstBuyCompensation": 640,
		"NormalBuyCompensation": 640,
		"PlayerBuyMinLevel": 0,
		"Sort": 0,
		"IsRecommendDisplay": 0,
		"RecommendDisplayStartTime": "2018/12/25 0:00:04",
		"DiscountText": "",
		"BigAdvertisingImage": "UI/CommonBG_ABS/BG_Church.png",
		"Desc": "",
		"IsStrongRecommend": 0,
		"SmallAdvertisingImage": "UI/Store_ABS/1/Store_Banner_20.png",
		"RecommendDesc": "",
		"IsShowIOSSpecificGo": false,
		"RedMark": "StoreRedMarkType_PayingUser",
		"PreUnlockGoodsId": 0
	},
	{
		"ID": 66,
		"Name": "远古的秘宝",
		"StoreId": "StoreId_Gift",
		"ItemType": "GoodsType_Item",
		"ItemId": 7094,
		"Nums": 1,
		"ShowStartTime": "2020/1/1 0:00:00",
		"ShowEndTime": "2020/1/7 23:59:59",
		"RefluxBeginDays": 0,
		"RefluxEndDays": 0,
		"IsOperateGoods": false,
		"BuyLimitType": "BuyRuleType_FixedTime",
		"Param": 7,
		"Count": 2,
		"FirstPrice": 388.0,
		"NormalPrice": 388.0,
		"Lable": "LabelType_None",
		"IsAppleSubscribe": false,
		"FirstBuyCompensation": 1940,
		"NormalBuyCompensation": 1940,
		"PlayerBuyMinLevel": 0,
		"Sort": 0,
		"IsRecommendDisplay": 0,
		"RecommendDisplayStartTime": "2018/12/25 0:00:04",
		"DiscountText": "",
		"BigAdvertisingImage": "UI/CommonBG_ABS/BG_Church.png",
		"Desc": "",
		"IsStrongRecommend": 0,
		"SmallAdvertisingImage": "UI/Store_ABS/1/Store_Banner_20.png",
		"RecommendDesc": "",
		"IsShowIOSSpecificGo": false,
		"RedMark": "StoreRedMarkType_PayingUser",
		"PreUnlockGoodsId": 0
	},
	{
		"ID": 67,
		"Name": "迎春吉祥礼",
		"StoreId": "StoreId_Gift",
		"ItemType": "GoodsType_Item",
		"ItemId": 7095,
		"Nums": 1,
		"ShowStartTime": "2020/1/24 0:00:00",
		"ShowEndTime": "2020/1/30 23:59:59",
		"RefluxBeginDays": 0,
		"RefluxEndDays": 0,
		"IsOperateGoods": false,
		"BuyLimitType": "BuyRuleType_Forever",
		"Param": 0,
		"Count": 1,
		"FirstPrice": 6.0,
		"NormalPrice": 6.0,
		"Lable": "LabelType_None",
		"IsAppleSubscribe": false,
		"FirstBuyCompensation": 30,
		"NormalBuyCompensation": 30,
		"PlayerBuyMinLevel": 0,
		"Sort": 0,
		"IsRecommendDisplay": 0,
		"RecommendDisplayStartTime": "2018/12/25 0:00:04",
		"DiscountText": "",
		"BigAdvertisingImage": "UI/CommonBG_ABS/BG_Church.png",
		"Desc": "",
		"IsStrongRecommend": 0,
		"SmallAdvertisingImage": "UI/Store_ABS/1/Store_Banner_22.png",
		"RecommendDesc": "",
		"IsShowIOSSpecificGo": false,
		"RedMark": "StoreRedMarkType_Everyone",
		"PreUnlockGoodsId": 0
	},
	{
		"ID": 68,
		"Name": "正月七日献礼",
		"StoreId": "StoreId_Gift",
		"ItemType": "GoodsType_Item",
		"ItemId": 7096,
		"Nums": 1,
		"ShowStartTime": "2020/1/24 0:00:00",
		"ShowEndTime": "2020/1/30 23:59:59",
		"RefluxBeginDays": 0,
		"RefluxEndDays": 0,
		"IsOperateGoods": false,
		"BuyLimitType": "BuyRuleType_FixedTime",
		"Param": 1,
		"Count": 1,
		"FirstPrice": 12.0,
		"NormalPrice": 12.0,
		"Lable": "LabelType_None",
		"IsAppleSubscribe": false,
		"FirstBuyCompensation": 60,
		"NormalBuyCompensation": 60,
		"PlayerBuyMinLevel": 0,
		"Sort": 0,
		"IsRecommendDisplay": 0,
		"RecommendDisplayStartTime": "2018/12/25 0:00:04",
		"DiscountText": "",
		"BigAdvertisingImage": "UI/CommonBG_ABS/BG_Church.png",
		"Desc": "",
		"IsStrongRecommend": 0,
		"SmallAdvertisingImage": "UI/Store_ABS/1/Store_Banner_22.png",
		"RecommendDesc": "",
		"IsShowIOSSpecificGo": false,
		"RedMark": "StoreRedMarkType_Everyone",
		"PreUnlockGoodsId": 0
	},
	{
		"ID": 69,
		"Name": "新春心愿武装",
		"StoreId": "StoreId_Gift",
		"ItemType": "GoodsType_Item",
		"ItemId": 7097,
		"Nums": 1,
		"ShowStartTime": "2020/1/24 0:00:00",
		"ShowEndTime": "2020/1/30 23:59:59",
		"RefluxBeginDays": 0,
		"RefluxEndDays": 0,
		"IsOperateGoods": false,
		"BuyLimitType": "BuyRuleType_FixedTime",
		"Param": 7,
		"Count": 1,
		"FirstPrice": 128.0,
		"NormalPrice": 128.0,
		"Lable": "LabelType_None",
		"IsAppleSubscribe": false,
		"FirstBuyCompensation": 640,
		"NormalBuyCompensation": 640,
		"PlayerBuyMinLevel": 0,
		"Sort": 0,
		"IsRecommendDisplay": 0,
		"RecommendDisplayStartTime": "2018/12/25 0:00:04",
		"DiscountText": "",
		"BigAdvertisingImage": "UI/CommonBG_ABS/BG_Church.png",
		"Desc": "",
		"IsStrongRecommend": 0,
		"SmallAdvertisingImage": "UI/Store_ABS/1/Store_Banner_22.png",
		"RecommendDesc": "",
		"IsShowIOSSpecificGo": false,
		"RedMark": "StoreRedMarkType_PayingUser",
		"PreUnlockGoodsId": 0
	},
	{
		"ID": 70,
		"Name": "彩霞福袋",
		"StoreId": "StoreId_Gift",
		"ItemType": "GoodsType_Item",
		"ItemId": 7102,
		"Nums": 1,
		"ShowStartTime": "2020/1/24 0:00:00",
		"ShowEndTime": "2020/1/30 23:59:59",
		"RefluxBeginDays": 0,
		"RefluxEndDays": 0,
		"IsOperateGoods": false,
		"BuyLimitType": "BuyRuleType_FixedTime",
		"Param": 7,
		"Count": 1,
		"FirstPrice": 128.0,
		"NormalPrice": 128.0,
		"Lable": "LabelType_None",
		"IsAppleSubscribe": false,
		"FirstBuyCompensation": 640,
		"NormalBuyCompensation": 640,
		"PlayerBuyMinLevel": 0,
		"Sort": 0,
		"IsRecommendDisplay": 0,
		"RecommendDisplayStartTime": "2018/12/25 0:00:04",
		"DiscountText": "",
		"BigAdvertisingImage": "UI/CommonBG_ABS/BG_Church.png",
		"Desc": "",
		"IsStrongRecommend": 0,
		"SmallAdvertisingImage": "UI/Store_ABS/1/Store_Banner_22.png",
		"RecommendDesc": "",
		"IsShowIOSSpecificGo": false,
		"RedMark": "StoreRedMarkType_PayingUser",
		"PreUnlockGoodsId": 0
	},
	{
		"ID": 71,
		"Name": "鼠年大吉特典",
		"StoreId": "StoreId_Gift",
		"ItemType": "GoodsType_Item",
		"ItemId": 7108,
		"Nums": 1,
		"ShowStartTime": "2020/1/24 0:00:00",
		"ShowEndTime": "2020/1/30 23:59:59",
		"RefluxBeginDays": 0,
		"RefluxEndDays": 0,
		"IsOperateGoods": false,
		"BuyLimitType": "BuyRuleType_FixedTime",
		"Param": 7,
		"Count": 2,
		"FirstPrice": 388.0,
		"NormalPrice": 388.0,
		"Lable": "LabelType_None",
		"IsAppleSubscribe": false,
		"FirstBuyCompensation": 1940,
		"NormalBuyCompensation": 1940,
		"PlayerBuyMinLevel": 0,
		"Sort": 0,
		"IsRecommendDisplay": 0,
		"RecommendDisplayStartTime": "2018/12/25 0:00:04",
		"DiscountText": "",
		"BigAdvertisingImage": "UI/CommonBG_ABS/BG_Church.png",
		"Desc": "",
		"IsStrongRecommend": 0,
		"SmallAdvertisingImage": "UI/Store_ABS/1/Store_Banner_22.png",
		"RecommendDesc": "",
		"IsShowIOSSpecificGo": false,
		"RedMark": "StoreRedMarkType_PayingUser",
		"PreUnlockGoodsId": 0
	},
	{
		"ID": 72,
		"Name": "勇气的黄金柜",
		"StoreId": "StoreId_Gift",
		"ItemType": "GoodsType_Item",
		"ItemId": 7109,
		"Nums": 1,
		"ShowStartTime": "2020/2/6 0:00:00",
		"ShowEndTime": "2020/2/12 23:59:59",
		"RefluxBeginDays": 0,
		"RefluxEndDays": 0,
		"IsOperateGoods": false,
		"BuyLimitType": "BuyRuleType_FixedTime",
		"Param": 7,
		"Count": 1,
		"FirstPrice": 168.0,
		"NormalPrice": 168.0,
		"Lable": "LabelType_None",
		"IsAppleSubscribe": false,
		"FirstBuyCompensation": 840,
		"NormalBuyCompensation": 840,
		"PlayerBuyMinLevel": 0,
		"Sort": 0,
		"IsRecommendDisplay": 0,
		"RecommendDisplayStartTime": "2018/12/25 0:00:04",
		"DiscountText": "",
		"BigAdvertisingImage": "UI/CommonBG_ABS/BG_Church.png",
		"Desc": "",
		"IsStrongRecommend": 0,
		"SmallAdvertisingImage": "UI/Store_ABS/1/Store_Banner_23.png",
		"RecommendDesc": "",
		"IsShowIOSSpecificGo": false,
		"RedMark": "StoreRedMarkType_PayingUser",
		"PreUnlockGoodsId": 0
	},
	{
		"ID": 73,
		"Name": "五福呈礼",
		"StoreId": "StoreId_Gift",
		"ItemType": "GoodsType_Item",
		"ItemId": 7111,
		"Nums": 1,
		"ShowStartTime": "2020/1/24 0:00:00",
		"ShowEndTime": "2020/1/30 23:59:59",
		"RefluxBeginDays": 0,
		"RefluxEndDays": 0,
		"IsOperateGoods": false,
		"BuyLimitType": "BuyRuleType_FixedTime",
		"Param": 7,
		"Count": 1,
		"FirstPrice": 328.0,
		"NormalPrice": 328.0,
		"Lable": "LabelType_None",
		"IsAppleSubscribe": false,
		"FirstBuyCompensation": 1640,
		"NormalBuyCompensation": 1640,
		"PlayerBuyMinLevel": 0,
		"Sort": 0,
		"IsRecommendDisplay": 0,
		"RecommendDisplayStartTime": "2018/12/25 0:00:04",
		"DiscountText": "",
		"BigAdvertisingImage": "UI/CommonBG_ABS/BG_Church.png",
		"Desc": "",
		"IsStrongRecommend": 0,
		"SmallAdvertisingImage": "UI/Store_ABS/1/Store_Banner_22.png",
		"RecommendDesc": "",
		"IsShowIOSSpecificGo": false,
		"RedMark": "StoreRedMarkType_PayingUser",
		"PreUnlockGoodsId": 0
	},
	{
		"ID": 74,
		"Name": "S3巅峰纪念礼包",
		"StoreId": "StoreId_Gift",
		"ItemType": "GoodsType_Item",
		"ItemId": 7112,
		"Nums": 1,
		"ShowStartTime": "2020/2/6 00:00:00",
		"ShowEndTime": "2020/3/4 23:59:59",
		"RefluxBeginDays": 0,
		"RefluxEndDays": 0,
		"IsOperateGoods": false,
		"BuyLimitType": "BuyRuleType_Forever",
		"Param": 0,
		"Count": 1,
		"FirstPrice": 128.0,
		"NormalPrice": 128.0,
		"Lable": "LabelType_None",
		"IsAppleSubscribe": false,
		"FirstBuyCompensation": 640,
		"NormalBuyCompensation": 640,
		"PlayerBuyMinLevel": 0,
		"Sort": 0,
		"IsRecommendDisplay": 0,
		"RecommendDisplayStartTime": "2017/12/14 3:30:30",
		"DiscountText": "",
		"BigAdvertisingImage": "UI/CommonBG_ABS/BG_Church.png",
		"Desc": "",
		"IsStrongRecommend": 0,
		"SmallAdvertisingImage": "UI/Store_ABS/1/Store_Banner_03.png",
		"RecommendDesc": "",
		"IsShowIOSSpecificGo": false,
		"RedMark": "StoreRedMarkType_PayingUser",
		"PreUnlockGoodsId": 0
	},
	{
		"ID": 301,
		"Name": "回归者超值礼包",
		"StoreId": "StoreId_RefluxBoon",
		"ItemType": "GoodsType_Item",
		"ItemId": 7050,
		"Nums": 1,
		"ShowStartTime": "2017/12/14 3:30:30",
		"ShowEndTime": "",
		"RefluxBeginDays": 1,
		"RefluxEndDays": 7,
		"IsOperateGoods": false,
		"BuyLimitType": "BuyRuleType_FixedTime",
		"Param": 7,
		"Count": 1,
		"FirstPrice": 1.0,
		"NormalPrice": 1.0,
		"Lable": "LabelType_None",
		"IsAppleSubscribe": false,
		"FirstBuyCompensation": 5,
		"NormalBuyCompensation": 5,
		"PlayerBuyMinLevel": 0,
		"Sort": 0,
		"IsRecommendDisplay": 0,
		"RecommendDisplayStartTime": "",
		"DiscountText": "",
		"BigAdvertisingImage": "UI/CommonBG_ABS/BG_Church.png",
		"Desc": "",
		"IsStrongRecommend": 0,
		"SmallAdvertisingImage": "UI/Store_ABS/1/Store_Banner_04.png",
		"RecommendDesc": "",
		"IsShowIOSSpecificGo": false,
		"RedMark": "StoreRedMarkType_Everyone",
		"PreUnlockGoodsId": 0
	},
	{
		"ID": 302,
		"Name": "回归者职业礼包",
		"StoreId": "StoreId_RefluxBoon",
		"ItemType": "GoodsType_Item",
		"ItemId": 7051,
		"Nums": 1,
		"ShowStartTime": "2017/12/14 3:30:30",
		"ShowEndTime": "",
		"RefluxBeginDays": 1,
		"RefluxEndDays": 7,
		"IsOperateGoods": false,
		"BuyLimitType": "BuyRuleType_FixedTime",
		"Param": 7,
		"Count": 1,
		"FirstPrice": 6.0,
		"NormalPrice": 6.0,
		"Lable": "LabelType_None",
		"IsAppleSubscribe": false,
		"FirstBuyCompensation": 30,
		"NormalBuyCompensation": 30,
		"PlayerBuyMinLevel": 0,
		"Sort": 0,
		"IsRecommendDisplay": 0,
		"RecommendDisplayStartTime": "",
		"DiscountText": "",
		"BigAdvertisingImage": "UI/CommonBG_ABS/BG_Church.png",
		"Desc": "",
		"IsStrongRecommend": 0,
		"SmallAdvertisingImage": "UI/Store_ABS/1/Store_Banner_10.png",
		"RecommendDesc": "",
		"IsShowIOSSpecificGo": false,
		"RedMark": "StoreRedMarkType_Everyone",
		"PreUnlockGoodsId": 0
	},
	{
		"ID": 303,
		"Name": "回归者武具礼包",
		"StoreId": "StoreId_RefluxBoon",
		"ItemType": "GoodsType_Item",
		"ItemId": 7052,
		"Nums": 1,
		"ShowStartTime": "2017/12/14 3:30:30",
		"ShowEndTime": "",
		"RefluxBeginDays": 1,
		"RefluxEndDays": 7,
		"IsOperateGoods": false,
		"BuyLimitType": "BuyRuleType_FixedTime",
		"Param": 7,
		"Count": 1,
		"FirstPrice": 18.0,
		"NormalPrice": 18.0,
		"Lable": "LabelType_None",
		"IsAppleSubscribe": false,
		"FirstBuyCompensation": 90,
		"NormalBuyCompensation": 90,
		"PlayerBuyMinLevel": 0,
		"Sort": 0,
		"IsRecommendDisplay": 0,
		"RecommendDisplayStartTime": "",
		"DiscountText": "",
		"BigAdvertisingImage": "UI/CommonBG_ABS/BG_Church.png",
		"Desc": "",
		"IsStrongRecommend": 0,
		"SmallAdvertisingImage": "UI/Store_ABS/1/Store_Banner_13.png",
		"RecommendDesc": "",
		"IsShowIOSSpecificGo": false,
		"RedMark": "StoreRedMarkType_Everyone",
		"PreUnlockGoodsId": 0
	},
	{
		"ID": 304,
		"Name": "回归者练兵礼包",
		"StoreId": "StoreId_RefluxBoon",
		"ItemType": "GoodsType_Item",
		"ItemId": 7073,
		"Nums": 1,
		"ShowStartTime": "2017/12/14 3:30:30",
		"ShowEndTime": "",
		"RefluxBeginDays": 1,
		"RefluxEndDays": 7,
		"IsOperateGoods": false,
		"BuyLimitType": "BuyRuleType_FixedTime",
		"Param": 7,
		"Count": 1,
		"FirstPrice": 68.0,
		"NormalPrice": 68.0,
		"Lable": "LabelType_None",
		"IsAppleSubscribe": false,
		"FirstBuyCompensation": 340,
		"NormalBuyCompensation": 340,
		"PlayerBuyMinLevel": 0,
		"Sort": 0,
		"IsRecommendDisplay": 0,
		"RecommendDisplayStartTime": "",
		"DiscountText": "",
		"BigAdvertisingImage": "UI/CommonBG_ABS/BG_Church.png",
		"Desc": "",
		"IsStrongRecommend": 0,
		"SmallAdvertisingImage": "UI/Store_ABS/1/Store_Banner_09.png",
		"RecommendDesc": "",
		"IsShowIOSSpecificGo": false,
		"RedMark": "StoreRedMarkType_Everyone",
		"PreUnlockGoodsId": 0
	}
]