[
	{
		"ID": 1,
		"Name": "女神的恩惠",
		"ValidDays": 30,
		"Desc": "特权有效期：<color=#DC143C>30</color>天\n1.每日获得<color=#DC143C>50</color>圣魔晶(通过任务领取)\n2.英雄经验获取+<color=#DC143C>10%</color>\n3.英雄亲密度获取+<color=#DC143C>10%</color>",
		"Reward": [
			{
				"GoodsType": "GoodsType_Crystal",
				"Id": 0,
				"Count": 150
			}
		],
		"OpenEverydayTaskId": 2011,
		"HeroExpAddRate": 1000,
		"HeroFavourabilityExpAddRate": 1000,
		"OpenGameFunc": "GameFunctionType_None",
		"IsAppleSubscribe": false,
		"FightFailEnergyDecreaseRate": 0,
		"Icon": "UI/Icon/Item_ABS/Special_PowerItem1.png"
	},
	{
		"ID": 2,
		"Name": "勇气的旗帜",
		"ValidDays": 30,
		"Desc": "特权有效期：<color=#DC143C>30</color>天\n1.女神的试炼每日奖励+<color=#DC143C>1</color>次\n2.兄贵健身房每日奖励+<color=#DC143C>1</color>次\n3.秘境扫荡每日次数+<color=#DC143C>2</color>次",
		"Reward": [
			{
				"GoodsType": "GoodsType_Crystal",
				"Id": 0,
				"Count": 125
			}
		],
		"OpenEverydayTaskId": 0,
		"HeroExpAddRate": 0,
		"HeroFavourabilityExpAddRate": 0,
		"DayBonusAdd": [
			{
				"GameFuncId": "GameFunctionType_AnikiGym",
				"Nums": 1
			},
			{
				"GameFuncId": "GameFunctionType_ThearchyTrial",
				"Nums": 1
			}
		],
		"OpenGameFunc": "GameFunctionType_None",
		"IsAppleSubscribe": false,
		"FightFailEnergyDecreaseRate": 0,
		"Icon": "UI/Icon/Item_ABS/Special_PowerItem2.png",
		"UnchartedRaidTimesAdd": [
			{
				"GameFuncId": "GameFunctionType_UnchartedRaid",
				"Nums": 2
			}
		]
	},
	{
		"ID": 3,
		"Name": "原谅的时钟",
		"ValidDays": 30,
		"Desc": "特权有效期：<color=#DC143C>30</color>天\n1.在战斗中可回退到之前操作的任意一步（每场战斗可使用9次，组队及竞技场战斗无法使用）\n2.战斗失败所消耗的体力减少<color=#DC143C>50%</color>",
		"OpenEverydayTaskId": 0,
		"HeroExpAddRate": 0,
		"HeroFavourabilityExpAddRate": 0,
		"OpenGameFunc": "GameFunctionType_Regret",
		"IsAppleSubscribe": true,
		"FightFailEnergyDecreaseRate": 5000,
		"Icon": "UI/Icon/Item_ABS/Special_PowerItem3.png"
	}
]