[
	{
		"ID": 1,
		"Name": "时钟",
		"SmallIcon": "UI/Icon/Rune_ABS/Icon_Enchant_Time.png",
		"InactiveIcon": "UI/Icon/Rune_ABS/Resonate_Red1_1.png",
		"ActiveIcon": "UI/Icon/Rune_ABS/Resonate_Red1_2.png",
		"Affix": "通过炼金获得",
		"Effect1": 55000,
		"Effect2": 55013
	},
	{
		"ID": 2,
		"Name": "魔术",
		"SmallIcon": "UI/Icon/Rune_ABS/Icon_Enchant_Magic.png",
		"InactiveIcon": "UI/Icon/Rune_ABS/Resonate_Red2_1.png",
		"ActiveIcon": "UI/Icon/Rune_ABS/Resonate_Red2_2.png",
		"Affix": "通过炼金获得",
		"Effect1": 55001,
		"Effect2": 55014
	},
	{
		"ID": 3,
		"Name": "满月",
		"SmallIcon": "UI/Icon/Rune_ABS/Icon_Enchant_Moon.png",
		"InactiveIcon": "UI/Icon/Rune_ABS/Resonate_Red3_1.png",
		"ActiveIcon": "UI/Icon/Rune_ABS/Resonate_Red3_2.png",
		"Affix": "通过炼金获得",
		"Effect1": 55002,
		"Effect2": 55015
	},
	{
		"ID": 4,
		"Name": "怒涛",
		"SmallIcon": "UI/Icon/Rune_ABS/Icon_Enchant_Wave.png",
		"InactiveIcon": "UI/Icon/Rune_ABS/Resonate_Red4_1.png",
		"ActiveIcon": "UI/Icon/Rune_ABS/Resonate_Red4_2.png",
		"Affix": "通过炼金获得",
		"Effect1": 55003,
		"Effect2": 55017
	},
	{
		"ID": 5,
		"Name": "轻风",
		"SmallIcon": "UI/Icon/Rune_ABS/Icon_Enchant_Wind.png",
		"InactiveIcon": "UI/Icon/Rune_ABS/Resonate_Red5_1.png",
		"ActiveIcon": "UI/Icon/Rune_ABS/Resonate_Red5_2.png",
		"Affix": "通过炼金获得",
		"Effect1": 55004,
		"Effect2": 55019
	},
	{
		"ID": 6,
		"Name": "烈日",
		"SmallIcon": "UI/Icon/Rune_ABS/Icon_Enchant_Sun.png",
		"InactiveIcon": "UI/Icon/Rune_ABS/Resonate_Yellow1_1.png",
		"ActiveIcon": "UI/Icon/Rune_ABS/Resonate_Yellow1_2.png",
		"Affix": "通过炼金获得",
		"Effect1": 55005,
		"Effect2": 55020
	},
	{
		"ID": 7,
		"Name": "流星",
		"SmallIcon": "UI/Icon/Rune_ABS/Icon_Enchant_Star.png",
		"InactiveIcon": "UI/Icon/Rune_ABS/Resonate_Yellow2_1.png",
		"ActiveIcon": "UI/Icon/Rune_ABS/Resonate_Yellow2_2.png",
		"Affix": "通过炼金获得",
		"Effect1": 55006,
		"Effect2": 55021
	},
	{
		"ID": 8,
		"Name": "钢铁",
		"SmallIcon": "UI/Icon/Rune_ABS/Icon_Enchant_Iron.png",
		"InactiveIcon": "UI/Icon/Rune_ABS/Resonate_Green1_1.png",
		"ActiveIcon": "UI/Icon/Rune_ABS/Resonate_Green1_2.png",
		"Affix": "通过炼金获得",
		"Effect1": 55007,
		"Effect2": 55022
	},
	{
		"ID": 9,
		"Name": "荆棘",
		"SmallIcon": "UI/Icon/Rune_ABS/Icon_Enchant_Bram.png",
		"InactiveIcon": "UI/Icon/Rune_ABS/Resonate_Green2_1.png",
		"ActiveIcon": "UI/Icon/Rune_ABS/Resonate_Green2_2.png",
		"Affix": "通过炼金获得",
		"Effect1": 55008,
		"Effect2": 55023
	},
	{
		"ID": 10,
		"Name": "大树",
		"SmallIcon": "UI/Icon/Rune_ABS/Icon_Enchant_Tree.png",
		"InactiveIcon": "UI/Icon/Rune_ABS/Resonate_Green3_1.png",
		"ActiveIcon": "UI/Icon/Rune_ABS/Resonate_Green3_2.png",
		"Affix": "通过炼金获得",
		"Effect1": 55009,
		"Effect2": 55025
	},
	{
		"ID": 11,
		"Name": "顽石",
		"SmallIcon": "UI/Icon/Rune_ABS/Icon_Enchant_Rock.png",
		"InactiveIcon": "UI/Icon/Rune_ABS/Resonate_Blue1_1.png",
		"ActiveIcon": "UI/Icon/Rune_ABS/Resonate_Blue1_2.png",
		"Affix": "通过炼金获得",
		"Effect1": 55010,
		"Effect2": 55027
	},
	{
		"ID": 12,
		"Name": "寒冰",
		"SmallIcon": "UI/Icon/Rune_ABS/Icon_Enchant_Ice.png",
		"InactiveIcon": "UI/Icon/Rune_ABS/Resonate_Blue2_1.png",
		"ActiveIcon": "UI/Icon/Rune_ABS/Resonate_Blue2_2.png",
		"Affix": "通过炼金获得",
		"Effect1": 55011,
		"Effect2": 55028
	},
	{
		"ID": 13,
		"Name": "水晶",
		"SmallIcon": "UI/Icon/Rune_ABS/Icon_Enchant_Leaf.png",
		"InactiveIcon": "UI/Icon/Rune_ABS/Resonate_Blue3_1.png",
		"ActiveIcon": "UI/Icon/Rune_ABS/Resonate_Blue3_2.png",
		"Affix": "通过炼金获得",
		"Effect1": 55012,
		"Effect2": 55029
	}
]