[
	{
		"ID": 20101,
		"Name": "棒球高手",
		"Model": "Spine/Soldier/SwordMan_ABS/Skin/SwordMan_Skin01_Prefab.prefab",
		"CombatModel": "",
		"ModelScale": 0,
		"BFModelScale": 0,
		"UIModelScale": 0,
		"UIModelOffsetX": 0,
		"UIModelOffsetY": 0,
		"MeleeATKID": 0,
		"RangeATKID": 270,
		"SkillID": 0
	},
	{
		"ID": 20201,
		"Name": "棒球高手",
		"Model": "Spine/Soldier/SwordMan_ABS/Skin/SwordMan_Skin02_Prefab.prefab",
		"CombatModel": "",
		"ModelScale": 0,
		"BFModelScale": 0,
		"UIModelScale": 0,
		"UIModelOffsetX": 0,
		"UIModelOffsetY": 0,
		"MeleeATKID": 0,
		"RangeATKID": 270,
		"SkillID": 0
	},
	{
		"ID": 10101,
		"Name": "冰球健将",
		"Model": "Spine/Soldier/PikeMan_ABS/Skin/PikeMan_Skin01_Prefab.prefab",
		"CombatModel": "",
		"ModelScale": 0,
		"BFModelScale": 0,
		"UIModelScale": 0,
		"UIModelOffsetX": 0,
		"UIModelOffsetY": 0,
		"MeleeATKID": 0,
		"RangeATKID": 0,
		"SkillID": 0
	},
	{
		"ID": 10201,
		"Name": "冰球健将",
		"Model": "Spine/Soldier/PikeMan_ABS/Skin/PikeMan_Skin02_Prefab.prefab",
		"CombatModel": "",
		"ModelScale": 0,
		"BFModelScale": 0,
		"UIModelScale": 0,
		"UIModelOffsetX": 0,
		"UIModelOffsetY": 0,
		"MeleeATKID": 0,
		"RangeATKID": 0,
		"SkillID": 0
	},
	{
		"ID": 30101,
		"Name": "狗熊骑士",
		"Model": "Spine/Soldier/SwordHorse_ABS/Skin/SwordHorse_Skin01_Prefab.prefab",
		"CombatModel": "",
		"ModelScale": 0,
		"BFModelScale": 0,
		"UIModelScale": 0,
		"UIModelOffsetX": 0,
		"UIModelOffsetY": 0,
		"MeleeATKID": 0,
		"RangeATKID": 0,
		"SkillID": 0
	},
	{
		"ID": 30201,
		"Name": "狗熊骑士",
		"Model": "Spine/Soldier/SwordHorse_ABS/Skin/SwordHorse_Skin02_Prefab.prefab",
		"CombatModel": "",
		"ModelScale": 0,
		"BFModelScale": 0,
		"UIModelScale": 0,
		"UIModelOffsetX": 0,
		"UIModelOffsetY": 0,
		"MeleeATKID": 0,
		"RangeATKID": 0,
		"SkillID": 0
	},
	{
		"ID": 40101,
		"Name": "飞蛇法老",
		"Model": "Spine/Soldier/FlyingUnit/Sword_Griffin_ABS/Skin/Sword_Griffin_Skin01_Prefab.prefab",
		"CombatModel": "Spine/Soldier/FlyingUnit/Sword_Griffin_ABS/Skin/Sword_Griffin_Skin01_air_Prefab.prefab",
		"ModelScale": 0,
		"BFModelScale": 0,
		"UIModelScale": 0,
		"UIModelOffsetX": 0,
		"UIModelOffsetY": 0,
		"MeleeATKID": 0,
		"RangeATKID": 0,
		"SkillID": 0
	},
	{
		"ID": 40201,
		"Name": "飞蛇法老",
		"Model": "Spine/Soldier/FlyingUnit/Sword_Griffin_ABS/Skin/Sword_Griffin_Skin02_Prefab.prefab",
		"CombatModel": "Spine/Soldier/FlyingUnit/Sword_Griffin_ABS/Skin/Sword_Griffin_Skin02_air_Prefab.prefab",
		"ModelScale": 0,
		"BFModelScale": 0,
		"UIModelScale": 0,
		"UIModelOffsetX": 0,
		"UIModelOffsetY": 0,
		"MeleeATKID": 0,
		"RangeATKID": 0,
		"SkillID": 0
	},
	{
		"ID": 60101,
		"Name": "礼服假面",
		"Model": "Spine/Soldier/Archer_ABS/Skin/Archer_Skin01_Prefab.prefab",
		"CombatModel": "",
		"ModelScale": 0,
		"BFModelScale": 0,
		"UIModelScale": 0,
		"UIModelOffsetX": 0,
		"UIModelOffsetY": 0,
		"MeleeATKID": 0,
		"RangeATKID": 0,
		"SkillID": 0
	},
	{
		"ID": 60201,
		"Name": "礼服假面",
		"Model": "Spine/Soldier/Archer_ABS/Skin/Archer_Skin02_Prefab.prefab",
		"CombatModel": "",
		"ModelScale": 0,
		"BFModelScale": 0,
		"UIModelScale": 0,
		"UIModelOffsetX": 0,
		"UIModelOffsetY": 0,
		"MeleeATKID": 0,
		"RangeATKID": 0,
		"SkillID": 0
	},
	{
		"ID": 80101,
		"Name": "医学绅士",
		"Model": "Spine/Soldier/Clergy_ABS/Skin/Clergy_Skin01_Prefab.prefab",
		"CombatModel": "",
		"ModelScale": 0,
		"BFModelScale": 0,
		"UIModelScale": 0,
		"UIModelOffsetX": 0,
		"UIModelOffsetY": 0,
		"MeleeATKID": 0,
		"RangeATKID": 0,
		"SkillID": 0
	},
	{
		"ID": 80201,
		"Name": "医学绅士",
		"Model": "Spine/Soldier/Clergy_ABS/Skin/Clergy_Skin02_Prefab.prefab",
		"CombatModel": "",
		"ModelScale": 0,
		"BFModelScale": 0,
		"UIModelScale": 0,
		"UIModelOffsetX": 0,
		"UIModelOffsetY": 0,
		"MeleeATKID": 0,
		"RangeATKID": 0,
		"SkillID": 0
	},
	{
		"ID": 110101,
		"Name": "小丑惊魂",
		"Model": "Spine/Soldier/Thief_ABS/Skin/Thief_Skin01_Prefab.prefab",
		"CombatModel": "",
		"ModelScale": 0,
		"BFModelScale": 0,
		"UIModelScale": 0,
		"UIModelOffsetX": 0,
		"UIModelOffsetY": 0,
		"MeleeATKID": 0,
		"RangeATKID": 0,
		"SkillID": 0
	},
	{
		"ID": 110201,
		"Name": "小丑惊魂",
		"Model": "Spine/Soldier/Thief_ABS/Skin/Thief_Skin02_Prefab.prefab",
		"CombatModel": "",
		"ModelScale": 0,
		"BFModelScale": 0,
		"UIModelScale": 0,
		"UIModelOffsetX": 0,
		"UIModelOffsetY": 0,
		"MeleeATKID": 0,
		"RangeATKID": 0,
		"SkillID": 0
	},
	{
		"ID": 20001,
		"Name": "官方集结",
		"Model": "Spine/Soldier/Qudao_ABS/Qudao_100W/Qudao_100W_Prefab.prefab",
		"CombatModel": "",
		"ModelScale": 0,
		"BFModelScale": 0,
		"UIModelScale": 0,
		"UIModelOffsetX": 0,
		"UIModelOffsetY": 0,
		"MeleeATKID": 0,
		"RangeATKID": 0,
		"SkillID": 0
	},
	{
		"ID": 20102,
		"Name": "初心者",
		"Model": "Spine/Soldier/Qudao_ABS/Qudao_MD/Qudao_MD_Prefab.prefab",
		"CombatModel": "",
		"ModelScale": 0,
		"BFModelScale": 0,
		"UIModelScale": 0,
		"UIModelOffsetX": 0,
		"UIModelOffsetY": 0,
		"MeleeATKID": 0,
		"RangeATKID": 0,
		"SkillID": 0
	},
	{
		"ID": 20002,
		"Name": "浪花小伙",
		"Model": "Spine/Soldier/Qudao_ABS/Qudao_Tap/Qudao_Tap_Prefab.prefab",
		"CombatModel": "",
		"ModelScale": 0,
		"BFModelScale": 0,
		"UIModelScale": 0,
		"UIModelOffsetX": 0,
		"UIModelOffsetY": 0,
		"MeleeATKID": 0,
		"RangeATKID": 0,
		"SkillID": 0
	},
	{
		"ID": 20003,
		"Name": "小电视人",
		"Model": "Spine/Soldier/Qudao_ABS/Qudao_Bilibili/Qudao_Bilibili_Prefab.prefab",
		"CombatModel": "",
		"ModelScale": 0,
		"BFModelScale": 0,
		"UIModelScale": 0,
		"UIModelOffsetX": 0,
		"UIModelOffsetY": 0,
		"MeleeATKID": 0,
		"RangeATKID": 0,
		"SkillID": 0
	},
	{
		"ID": 10001,
		"Name": "滑板怪咖",
		"Model": "Spine/Soldier/Qudao_ABS/Qudao_QQ/Qudao_QQ_Prefab.prefab",
		"CombatModel": "",
		"ModelScale": 0,
		"BFModelScale": 0,
		"UIModelScale": 0,
		"UIModelOffsetX": 0,
		"UIModelOffsetY": 0,
		"MeleeATKID": 0,
		"RangeATKID": 0,
		"SkillID": 0
	},
	{
		"ID": 20004,
		"Name": "橙帽青年",
		"Model": "Spine/Soldier/Qudao_ABS/Qudao_Jiuyou/Qudao_jiuyou_Prefab.prefab",
		"CombatModel": "",
		"ModelScale": 0,
		"BFModelScale": 0,
		"UIModelScale": 0,
		"UIModelOffsetX": 0,
		"UIModelOffsetY": 0,
		"MeleeATKID": 0,
		"RangeATKID": 0,
		"SkillID": 0
	},
	{
		"ID": 10002,
		"Name": "网红小哥",
		"Model": "Spine/Soldier/Qudao_ABS/Qudao_Oppo/Qudao_Oppo_Prefab.prefab",
		"CombatModel": "",
		"ModelScale": 0,
		"BFModelScale": 0,
		"UIModelScale": 0,
		"UIModelOffsetX": 0,
		"UIModelOffsetY": 0,
		"MeleeATKID": 0,
		"RangeATKID": 0,
		"SkillID": 0
	},
	{
		"ID": 20005,
		"Name": "比特小子",
		"Model": "Spine/Soldier/Qudao_ABS/Qudao_Vivo/Qudao_Vivo_Prefab.prefab",
		"CombatModel": "",
		"ModelScale": 0,
		"BFModelScale": 0,
		"UIModelScale": 0,
		"UIModelOffsetX": 0,
		"UIModelOffsetY": 0,
		"MeleeATKID": 0,
		"RangeATKID": 0,
		"SkillID": 0
	},
	{
		"ID": 20006,
		"Name": "麒麟宝宝",
		"Model": "Spine/Soldier/Qudao_ABS/Qudao_Huawei01/Qudao_huawei01_Prefab.prefab",
		"CombatModel": "",
		"ModelScale": 0,
		"BFModelScale": 0,
		"UIModelScale": 0,
		"UIModelOffsetX": 0,
		"UIModelOffsetY": 0,
		"MeleeATKID": 0,
		"RangeATKID": 0,
		"SkillID": 0
	},
	{
		"ID": 20007,
		"Name": "熬夜熊猫",
		"Model": "Spine/Soldier/Qudao_ABS/Qudao_Meizu/Qudao_Meizu_Prefab.prefab",
		"CombatModel": "",
		"ModelScale": 0,
		"BFModelScale": 0,
		"UIModelScale": 0,
		"UIModelOffsetX": 0,
		"UIModelOffsetY": 0,
		"MeleeATKID": 0,
		"RangeATKID": 0,
		"SkillID": 0
	},
	{
		"ID": 80001,
		"Name": "星星点灯",
		"Model": "Spine/Soldier/Qudao_ABS/Qudao_Xiaomi/Qudao_Xiaomi_Prefab.prefab",
		"CombatModel": "",
		"ModelScale": 0,
		"BFModelScale": 0,
		"UIModelScale": 0,
		"UIModelOffsetX": 0,
		"UIModelOffsetY": 0,
		"MeleeATKID": 0,
		"RangeATKID": 0,
		"SkillID": 0
	},
	{
		"ID": 61901,
		"Name": "魔法夏日",
		"Model": "Spine/Soldier/FlyingUnit/Witch_ABS/Witch_Skin/Witch_Skin01_Prefab.prefab",
		"CombatModel": "",
		"ModelScale": 0,
		"BFModelScale": 0,
		"UIModelScale": 0,
		"UIModelOffsetX": 0,
		"UIModelOffsetY": 0,
		"MeleeATKID": 0,
		"RangeATKID": 0,
		"SkillID": 0
	},
	{
		"ID": 62201,
		"Name": "魔法夏日",
		"Model": "Spine/Soldier/FlyingUnit/Witch_ABS/Witch_Skin/Witch_Skin02_Prafab.prefab",
		"CombatModel": "",
		"ModelScale": 0,
		"BFModelScale": 0,
		"UIModelScale": 0,
		"UIModelOffsetX": 0,
		"UIModelOffsetY": 0,
		"MeleeATKID": 0,
		"RangeATKID": 0,
		"SkillID": 0
	},
	{
		"ID": 60102,
		"Name": "岛屿精灵",
		"Model": "Spine/Soldier/Fairy_ABS/Fairy_Skin/Fairy_Skin01_Prefab.prefab",
		"CombatModel": "",
		"ModelScale": 0,
		"BFModelScale": 0,
		"UIModelScale": 0,
		"UIModelOffsetX": 0,
		"UIModelOffsetY": 0,
		"MeleeATKID": 0,
		"RangeATKID": 0,
		"SkillID": 0
	},
	{
		"ID": 60202,
		"Name": "岛屿精灵",
		"Model": "Spine/Soldier/Fairy_ABS/Fairy_Skin/Fairy_Skin02_Prefab.prefab",
		"CombatModel": "",
		"ModelScale": 0,
		"BFModelScale": 0,
		"UIModelScale": 0,
		"UIModelOffsetX": 0,
		"UIModelOffsetY": 0,
		"MeleeATKID": 0,
		"RangeATKID": 0,
		"SkillID": 0
	},
	{
		"ID": 60401,
		"Name": "沙滩精灵",
		"Model": "Spine/Soldier/DarkElf_ABS/DarkElf_skin/DarkElf_skin01_Prefab.prefab",
		"CombatModel": "",
		"ModelScale": 0,
		"BFModelScale": 0,
		"UIModelScale": 0,
		"UIModelOffsetX": 0,
		"UIModelOffsetY": 0,
		"MeleeATKID": 0,
		"RangeATKID": 0,
		"SkillID": 0
	},
	{
		"ID": 61001,
		"Name": "沙滩精灵",
		"Model": "Spine/Soldier/DarkElf_ABS/DarkElf_skin/DarkElf_skin02_Prefab.prefab",
		"CombatModel": "",
		"ModelScale": 0,
		"BFModelScale": 0,
		"UIModelScale": 0,
		"UIModelOffsetX": 0,
		"UIModelOffsetY": 0,
		"MeleeATKID": 0,
		"RangeATKID": 0,
		"SkillID": 0
	},
	{
		"ID": 23401,
		"Name": "王室亲卫",
		"Model": "Spine/Soldier/SwordMan_ABS/Skin/SwordMan_Skin03_Prefab.prefab",
		"CombatModel": "",
		"ModelScale": 0,
		"BFModelScale": 0,
		"UIModelScale": 0,
		"UIModelOffsetX": 0,
		"UIModelOffsetY": 0,
		"MeleeATKID": 0,
		"RangeATKID": 0,
		"SkillID": 0
	},
	{
		"ID": 23701,
		"Name": "王室亲卫",
		"Model": "Spine/Soldier/SwordMan_ABS/Skin/SwordMan_Skin04_Prefab.prefab",
		"CombatModel": "",
		"ModelScale": 0,
		"BFModelScale": 0,
		"UIModelScale": 0,
		"UIModelOffsetX": 0,
		"UIModelOffsetY": 0,
		"MeleeATKID": 0,
		"RangeATKID": 0,
		"SkillID": 0
	},
	{
		"ID": 10301,
		"Name": "游击士",
		"Model": "Spine/Soldier/SpearGirl_ABS/Skin/SpearGirl_Skin01_Prefab.prefab",
		"CombatModel": "",
		"ModelScale": 0,
		"BFModelScale": 0,
		"UIModelScale": 0,
		"UIModelOffsetX": 0,
		"UIModelOffsetY": 0,
		"MeleeATKID": 0,
		"RangeATKID": 0,
		"SkillID": 0
	},
	{
		"ID": 12101,
		"Name": "游击士",
		"Model": "Spine/Soldier/SpearGirl_ABS/Skin/SpearGirl_Skin02_prefab.prefab",
		"CombatModel": "",
		"ModelScale": 0,
		"BFModelScale": 0,
		"UIModelScale": 0,
		"UIModelOffsetX": 0,
		"UIModelOffsetY": 0,
		"MeleeATKID": 0,
		"RangeATKID": 0,
		"SkillID": 0
	},
	{
		"ID": 80102,
		"Name": "圣洁修女",
		"Model": "Spine/Soldier/Clergy_ABS/Skin/Clergy_Skin03_Prefab.prefab",
		"CombatModel": "",
		"ModelScale": 0,
		"BFModelScale": 0,
		"UIModelScale": 0,
		"UIModelOffsetX": 0,
		"UIModelOffsetY": 0,
		"MeleeATKID": 0,
		"RangeATKID": 0,
		"SkillID": 0
	},
	{
		"ID": 80601,
		"Name": "圣洁修女",
		"Model": "Spine/Soldier/Clergy_ABS/Skin/Clergy_Skin04_Prefab.prefab",
		"CombatModel": "",
		"ModelScale": 0,
		"BFModelScale": 0,
		"UIModelScale": 0,
		"UIModelOffsetX": 0,
		"UIModelOffsetY": 0,
		"MeleeATKID": 0,
		"RangeATKID": 0,
		"SkillID": 0
	},
	{
		"ID": 10102,
		"Name": "巅峰斗士",
		"Model": "Spine/Soldier/PikeMan_ABS/Skin/PikeMan_Skin03_Prefab.prefab",
		"CombatModel": "",
		"ModelScale": 0,
		"BFModelScale": 0,
		"UIModelScale": 0,
		"UIModelOffsetX": 0,
		"UIModelOffsetY": 0,
		"MeleeATKID": 0,
		"RangeATKID": 0,
		"SkillID": 0
	},
	{
		"ID": 10202,
		"Name": "巅峰斗士",
		"Model": "Spine/Soldier/PikeMan_ABS/Skin/PikeMan_Skin04_Prefab.prefab",
		"CombatModel": "",
		"ModelScale": 0,
		"BFModelScale": 0,
		"UIModelScale": 0,
		"UIModelOffsetX": 0,
		"UIModelOffsetY": 0,
		"MeleeATKID": 0,
		"RangeATKID": 0,
		"SkillID": 0
	},
	{
		"ID": 31101,
		"Name": "光武·利刃",
		"Model": "Spine/Soldier/SwordMan_ABS/Skin/SwordMan_Skin_Robot_Prefab.prefab",
		"CombatModel": "",
		"ModelScale": 0,
		"BFModelScale": 0,
		"UIModelScale": 0,
		"UIModelOffsetX": 0,
		"UIModelOffsetY": 0,
		"MeleeATKID": 0,
		"RangeATKID": 0,
		"SkillID": 0
	},
	{
		"ID": 32601,
		"Name": "光武·重装",
		"Model": "Spine/Soldier/PikeMan_ABS/Skin/PikeMan_Skin_Robot_Prefab.prefab",
		"CombatModel": "",
		"ModelScale": 0,
		"BFModelScale": 0,
		"UIModelScale": 0,
		"UIModelOffsetX": 0,
		"UIModelOffsetY": 0,
		"MeleeATKID": 0,
		"RangeATKID": 0,
		"SkillID": 0
	},
	{
		"ID": 80501,
		"Name": "光武·愈合",
		"Model": "Spine/Soldier/Clergy_ABS/Skin/Clergy_Skin_Robot_Prefab.prefab",
		"CombatModel": "",
		"ModelScale": 0,
		"BFModelScale": 0,
		"UIModelScale": 0,
		"UIModelOffsetX": 0,
		"UIModelOffsetY": 0,
		"MeleeATKID": 0,
		"RangeATKID": 0,
		"SkillID": 0
	},
	{
		"ID": 805011,
		"Name": "光武·愈合",
		"Model": "Spine/Soldier/Clergy_ABS/Skin/Clergy_Skin_Robot02_Prefab.prefab",
		"CombatModel": "",
		"ModelScale": 0,
		"BFModelScale": 0,
		"UIModelScale": 0,
		"UIModelOffsetX": 0,
		"UIModelOffsetY": 0,
		"MeleeATKID": 0,
		"RangeATKID": 0,
		"SkillID": 0
	},
	{
		"ID": 111101,
		"Name": "巅峰之刃",
		"Model": "Spine/Soldier/Kunoichi_ABS/Kunoichi_Skin02_Prefab.prefab",
		"CombatModel": "",
		"ModelScale": 0,
		"BFModelScale": 0,
		"UIModelScale": 0,
		"UIModelOffsetX": 0,
		"UIModelOffsetY": 0,
		"MeleeATKID": 0,
		"RangeATKID": 0,
		"SkillID": 0
	},
	{
		"ID": 1111011,
		"Name": "巅峰之刃",
		"Model": "Spine/Soldier/Kunoichi_ABS/Kunoichi_Skin01_Prefab.prefab",
		"CombatModel": "",
		"ModelScale": 0,
		"BFModelScale": 0,
		"UIModelScale": 0,
		"UIModelOffsetX": 0,
		"UIModelOffsetY": 0,
		"MeleeATKID": 0,
		"RangeATKID": 0,
		"SkillID": 0
	},
	{
		"ID": 1032001,
		"Name": "测试数据",
		"Model": "Spine/Soldier/Kunoichi_ABS/Kunoichi_Skin01_Prefab.prefab",
		"CombatModel": "",
		"ModelScale": 0,
		"BFModelScale": 0,
		"UIModelScale": 0,
		"UIModelOffsetX": 0,
		"UIModelOffsetY": 0,
		"MeleeATKID": 0,
		"RangeATKID": 0,
		"SkillID": 0
	},
	{
		"ID": 80502,
		"Name": "灯马月兔",
		"Model": "Spine/Soldier/ClergyKnight_ABS/Skin/ClergyKnight_Skin01_Prefab.prefab",
		"CombatModel": "",
		"ModelScale": 0,
		"BFModelScale": 0,
		"UIModelScale": 0,
		"UIModelOffsetX": 0,
		"UIModelOffsetY": 0,
		"MeleeATKID": 0,
		"RangeATKID": 0,
		"SkillID": 0
	},
	{
		"ID": 805021,
		"Name": "灯马月兔",
		"Model": "Spine/Soldier/ClergyKnight_ABS/Skin/ClergyKnight_Skin01_Prefab.prefab",
		"CombatModel": "",
		"ModelScale": 42,
		"BFModelScale": 42,
		"UIModelScale": 42,
		"UIModelOffsetX": 0,
		"UIModelOffsetY": 0,
		"MeleeATKID": 0,
		"RangeATKID": 0,
		"SkillID": 0
	},
	{
		"ID": 23101,
		"Name": "巅峰战将",
		"Model": "Spine/Soldier/Gladiator_ABS/Skin01/Gladiator_Skin01_Prefab.prefab",
		"CombatModel": "",
		"ModelScale": 0,
		"BFModelScale": 0,
		"UIModelScale": 0,
		"UIModelOffsetX": 0,
		"UIModelOffsetY": 0,
		"MeleeATKID": 0,
		"RangeATKID": 0,
		"SkillID": 0
	},
	{
		"ID": 231011,
		"Name": "巅峰战将",
		"Model": "Spine/Soldier/Gladiator_ABS/Skin01/Gladiator_Skin02_Prefab.prefab",
		"CombatModel": "",
		"ModelScale": 0,
		"BFModelScale": 0,
		"UIModelScale": 0,
		"UIModelOffsetX": 0,
		"UIModelOffsetY": 0,
		"MeleeATKID": 0,
		"RangeATKID": 0,
		"SkillID": 0
	},
	{
		"ID": 41301,
		"Name": "南瓜杰克",
		"Model": "Spine/Soldier/Gargoyle_ABS/Skin02/Gargoyle_Skin02_Prefab.prefab",
		"CombatModel": "Spine/Soldier/Gargoyle_ABS/Skin02/Gargoyle_Skin02_air_Prefab.prefab",
		"ModelScale": 0,
		"BFModelScale": 0,
		"UIModelScale": 50,
		"UIModelOffsetX": 0,
		"UIModelOffsetY": 0,
		"MeleeATKID": 0,
		"RangeATKID": 0,
		"SkillID": 0
	},
	{
		"ID": 81201,
		"Name": "巅峰信念",
		"Model": "Spine/Soldier/Zealot_ABS/Zealot_Skin02/Zealot_Skin02_Prefab.prefab",
		"CombatModel": "",
		"ModelScale": 0,
		"BFModelScale": 0,
		"UIModelScale": 0,
		"UIModelOffsetX": 0,
		"UIModelOffsetY": 0,
		"MeleeATKID": 0,
		"RangeATKID": 0,
		"SkillID": 0
	},
	{
		"ID": 812011,
		"Name": "巅峰信念",
		"Model": "Spine/Soldier/Zealot_ABS/Zealot_Skin01/Zealot_Skin01_Prefab.prefab",
		"CombatModel": "",
		"ModelScale": 0,
		"BFModelScale": 0,
		"UIModelScale": 0,
		"UIModelOffsetX": 0,
		"UIModelOffsetY": 0,
		"MeleeATKID": 0,
		"RangeATKID": 0,
		"SkillID": 0
	},
	{
		"ID": 60203,
		"Name": "小萌",
		"Model": "Spine/Soldier/Qudao_ABS/Qudao_Maid/Qudao_Maid01_Prefab.prefab",
		"CombatModel": "",
		"ModelScale": 0,
		"BFModelScale": 0,
		"UIModelScale": 0,
		"UIModelOffsetX": 0,
		"UIModelOffsetY": 0,
		"MeleeATKID": 0,
		"RangeATKID": 0,
		"SkillID": 0
	},
	{
		"ID": 23702,
		"Name": "果酱",
		"Model": "Spine/Soldier/Qudao_ABS/Qudao_Maid/Qudao_Maid02_Prefab.prefab",
		"CombatModel": "",
		"ModelScale": 0,
		"BFModelScale": 0,
		"UIModelScale": 0,
		"UIModelOffsetX": 0,
		"UIModelOffsetY": 0,
		"MeleeATKID": 0,
		"RangeATKID": 0,
		"SkillID": 0
	},
	{
		"ID": 20008,
		"Name": "逗鱼高手",
		"Model": "Spine/Soldier/Qudao_ABS/Qudao_Douyu/Qudao_Douyu_Prefab.prefab",
		"CombatModel": "",
		"ModelScale": 0,
		"BFModelScale": 0,
		"UIModelScale": 0,
		"UIModelOffsetX": 0,
		"UIModelOffsetY": 0,
		"MeleeATKID": 0,
		"RangeATKID": 0,
		"SkillID": 0
	},
	{
		"ID": 101,
		"Name": "魔剑",
		"Model": "Spine/Soldier/Shadow_ABS/Shadow_prefab.prefab",
		"CombatModel": "",
		"ModelScale": 0,
		"BFModelScale": 0,
		"UIModelScale": 0,
		"UIModelOffsetX": 0,
		"UIModelOffsetY": 0,
		"MeleeATKID": 0,
		"RangeATKID": 0,
		"SkillID": 0
	},
	{
		"ID": 1201,
		"Name": "另一位勇者",
		"Model": "Spine/General/Elwin_ABS/Elwin_Skin/Elwin_Skin_Prefab.prefab",
		"CombatModel": "",
		"ModelScale": 0,
		"BFModelScale": 0,
		"UIModelScale": 0,
		"UIModelOffsetX": 0,
		"UIModelOffsetY": 0,
		"MeleeATKID": 0,
		"RangeATKID": 0,
		"SkillID": 0
	},
	{
		"ID": 12011,
		"Name": "另一位勇者",
		"Model": "Spine/General/Elwin_ABS/Elwin_Skin01_1/Elwin_Skin01_1_Prefab.prefab",
		"CombatModel": "",
		"ModelScale": 0,
		"BFModelScale": 0,
		"UIModelScale": 0,
		"UIModelOffsetX": 0,
		"UIModelOffsetY": 0,
		"MeleeATKID": 0,
		"RangeATKID": 0,
		"SkillID": 0
	},
	{
		"ID": 1501,
		"Name": "樱之巫女",
		"Model": "Spine/General/Riana_ABS/Riana_Skin/Riana_Skin_Prefab.prefab",
		"CombatModel": "",
		"ModelScale": 0,
		"BFModelScale": 0,
		"UIModelScale": 0,
		"UIModelOffsetX": 0,
		"UIModelOffsetY": 0,
		"MeleeATKID": 0,
		"RangeATKID": 0,
		"SkillID": 0
	},
	{
		"ID": 601,
		"Name": "西部世界",
		"Model": "Spine/General/Leon_ABS/Leon_Skin/Leon_Skin_Prefab.prefab",
		"CombatModel": "",
		"ModelScale": 0,
		"BFModelScale": 0,
		"UIModelScale": 0,
		"UIModelOffsetX": 0,
		"UIModelOffsetY": 0,
		"MeleeATKID": 0,
		"RangeATKID": 0,
		"SkillID": 0
	},
	{
		"ID": 701,
		"Name": "第六天魔王",
		"Model": "Spine/General/Barnhart_ABS/Barnhart_Skin/Barnhart_Skin_Prefab.prefab",
		"CombatModel": "",
		"ModelScale": 0,
		"BFModelScale": 0,
		"UIModelScale": 0,
		"UIModelOffsetX": 0,
		"UIModelOffsetY": 0,
		"MeleeATKID": 0,
		"RangeATKID": 0,
		"SkillID": 0
	},
	{
		"ID": 801,
		"Name": "旋律的妖精",
		"Model": "Spine/General/Lana_ABS/Lana_Skin/Lana_Skin_Prefab.prefab",
		"CombatModel": "",
		"ModelScale": 0,
		"BFModelScale": 0,
		"UIModelScale": 0,
		"UIModelOffsetX": 0,
		"UIModelOffsetY": 0,
		"MeleeATKID": 0,
		"RangeATKID": 0,
		"SkillID": 0
	},
	{
		"ID": 1401,
		"Name": "落跑天使",
		"Model": "Spine/General/Sherry_ABS/Sherry_Skin/Sherry_Skin01_Prefab.prefab",
		"CombatModel": "Spine/General/Sherry_ABS/Sherry_Skin/Sherry_Skin01_air_Prefab.prefab",
		"ModelScale": 0,
		"BFModelScale": 0,
		"UIModelScale": 0,
		"UIModelOffsetX": 0,
		"UIModelOffsetY": 0,
		"MeleeATKID": 0,
		"RangeATKID": 0,
		"SkillID": 0
	},
	{
		"ID": 14011,
		"Name": "落跑天使",
		"Model": "Spine/General/Sherry_ABS/Sherry_Skin01_1/Sherry_Skin01_1_Prefab.prefab",
		"CombatModel": "",
		"ModelScale": 0,
		"BFModelScale": 0,
		"UIModelScale": 0,
		"UIModelOffsetX": 0,
		"UIModelOffsetY": 0,
		"MeleeATKID": 0,
		"RangeATKID": 0,
		"SkillID": 0
	},
	{
		"ID": 1402,
		"Name": "卡尔萨斯公主",
		"Model": "Spine/General/Sherry_ABS/Sherry_Skin/Sherry_Skin02_Prefab.prefab",
		"CombatModel": "Spine/General/Sherry_ABS/Sherry_Skin/Sherry_Skin02_air_Prefab.prefab",
		"ModelScale": 0,
		"BFModelScale": 0,
		"UIModelScale": 0,
		"UIModelOffsetX": 0,
		"UIModelOffsetY": 0,
		"MeleeATKID": 0,
		"RangeATKID": 0,
		"SkillID": 0
	},
	{
		"ID": 602,
		"Name": "浮浪之刃",
		"Model": "Spine/General/Leon_ABS/Leon_Skin02/Leon_Skin02_Prefab.prefab",
		"CombatModel": "",
		"ModelScale": 0,
		"BFModelScale": 0,
		"UIModelScale": 0,
		"UIModelOffsetX": 0,
		"UIModelOffsetY": 0,
		"MeleeATKID": 0,
		"RangeATKID": 0,
		"SkillID": 0
	},
	{
		"ID": 1202,
		"Name": "天霸绝枪",
		"Model": "Spine/General/Elwin_ABS/Elwin_Skin02/Elwin_Skin02_Prefab.prefab",
		"CombatModel": "",
		"ModelScale": 0,
		"BFModelScale": 0,
		"UIModelScale": 0,
		"UIModelOffsetX": 0,
		"UIModelOffsetY": 0,
		"MeleeATKID": 0,
		"RangeATKID": 0,
		"SkillID": 0
	},
	{
		"ID": 12021,
		"Name": "天霸绝枪",
		"Model": "Spine/General/Elwin_ABS/Elwin_Skin02_1/Elwin_Skin02_1_Prefab.prefab",
		"CombatModel": "",
		"ModelScale": 0,
		"BFModelScale": 0,
		"UIModelScale": 0,
		"UIModelOffsetX": 0,
		"UIModelOffsetY": 0,
		"MeleeATKID": 0,
		"RangeATKID": 0,
		"SkillID": 0
	},
	{
		"ID": 1001,
		"Name": "火红的独奏者",
		"Model": "Spine/General/Ledin_ABS/Ledin_Skin01/Ledin_Skin01_Prefab.prefab",
		"CombatModel": "",
		"ModelScale": 0,
		"BFModelScale": 0,
		"UIModelScale": 0,
		"UIModelOffsetX": 0,
		"UIModelOffsetY": 0,
		"MeleeATKID": 0,
		"RangeATKID": 0,
		"SkillID": 0
	},
	{
		"ID": 2501,
		"Name": "重低音狂潮",
		"Model": "Spine/General/Alutemurat_ABS/Alutermurat_Skin01/Alutemurat_Skin01_Prefab.prefab",
		"CombatModel": "Spine/General/Alutemurat_ABS/Alutermurat_Skin01/Alutemurat_Skin01_air_Prefab.prefab",
		"ModelScale": 0,
		"BFModelScale": 0,
		"UIModelScale": 0,
		"UIModelOffsetX": 0,
		"UIModelOffsetY": 0,
		"MeleeATKID": 0,
		"RangeATKID": 0,
		"SkillID": 0
	},
	{
		"ID": 25011,
		"Name": "重低音狂潮",
		"Model": "Spine/General/Alutemurat_ABS/Alutemurat_Skin01_1/Alutemurat_Skin01_1_Prefab.prefab",
		"CombatModel": "",
		"ModelScale": 0,
		"BFModelScale": 0,
		"UIModelScale": 0,
		"UIModelOffsetX": 0,
		"UIModelOffsetY": 0,
		"MeleeATKID": 0,
		"RangeATKID": 0,
		"SkillID": 0
	},
	{
		"ID": 2101,
		"Name": "行星防卫官",
		"Model": "Spine/General/Bargas_ABS/Bargas_Skin/Bargas_Skin_Prefab.prefab",
		"CombatModel": "",
		"ModelScale": 0,
		"BFModelScale": 0,
		"UIModelScale": 0,
		"UIModelOffsetX": 0,
		"UIModelOffsetY": 0,
		"MeleeATKID": 0,
		"RangeATKID": 0,
		"SkillID": 0
	},
	{
		"ID": 21011,
		"Name": "行星防卫官",
		"Model": "Spine/General/Bargas_ABS/Bargas_Skin01_1/Bargas_Skin01_1_Prefab.prefab",
		"CombatModel": "",
		"ModelScale": 0,
		"BFModelScale": 0,
		"UIModelScale": 0,
		"UIModelOffsetX": 0,
		"UIModelOffsetY": 0,
		"MeleeATKID": 0,
		"RangeATKID": 0,
		"SkillID": 0
	},
	{
		"ID": 1801,
		"Name": "传奇女帝",
		"Model": "Spine/General/Imelda_ABS/Imelda_Skin/Imelda_Skin01_Prefab.prefab",
		"CombatModel": "",
		"ModelScale": 0,
		"BFModelScale": 0,
		"UIModelScale": 0,
		"UIModelOffsetX": 0,
		"UIModelOffsetY": 0,
		"MeleeATKID": 0,
		"RangeATKID": 0,
		"SkillID": 0
	},
	{
		"ID": 501,
		"Name": "防暴女警",
		"Model": "Spine/General/Chris_ABS/Chris_Skin/Chris_Skin01_Prefab.prefab",
		"CombatModel": "",
		"ModelScale": 0,
		"BFModelScale": 0,
		"UIModelScale": 0,
		"UIModelOffsetX": 0,
		"UIModelOffsetY": 0,
		"MeleeATKID": 0,
		"RangeATKID": 0,
		"SkillID": 0
	},
	{
		"ID": 2601,
		"Name": "战争女神",
		"Model": "Spine/General/Luna_ABS/Luna_Skin01/Luna_Skin1_Prefab.prefab",
		"CombatModel": "Spine/General/Luna_ABS/Luna_Skin01/Luna_Skin1_air_Prefab.prefab",
		"ModelScale": 0,
		"BFModelScale": 0,
		"UIModelScale": 0,
		"UIModelOffsetX": 0,
		"UIModelOffsetY": 0,
		"MeleeATKID": 0,
		"RangeATKID": 0,
		"SkillID": 0
	},
	{
		"ID": 26011,
		"Name": "战争女神",
		"Model": "Spine/General/Luna_ABS/Luna_Skin01_1/Luna_Skin01_1_Prefab.prefab",
		"CombatModel": "",
		"ModelScale": 0,
		"BFModelScale": 0,
		"UIModelScale": 0,
		"UIModelOffsetX": 0,
		"UIModelOffsetY": 0,
		"MeleeATKID": 0,
		"RangeATKID": 0,
		"SkillID": 0
	},
	{
		"ID": 5201,
		"Name": "龙游灵刃",
		"Model": "Spine/General/Angelina_ABS/Angelina_Skin/Angelina_Skin_Prefab.prefab",
		"CombatModel": "",
		"ModelScale": 0,
		"BFModelScale": 0,
		"UIModelScale": 0,
		"UIModelOffsetX": 0,
		"UIModelOffsetY": 0,
		"MeleeATKID": 0,
		"RangeATKID": 0,
		"SkillID": 0
	},
	{
		"ID": 52011,
		"Name": "龙游灵刃",
		"Model": "Spine/General/Angelina_ABS/Angelina_Skin01_1/Angelina_Skin01_1_Prefab.prefab",
		"CombatModel": "Spine/General/Angelina_ABS/Angelina_Skin01_1/Angelina_Skin01_1_air_Prefab.prefab",
		"ModelScale": 0,
		"BFModelScale": 0,
		"UIModelScale": 0,
		"UIModelOffsetX": 0,
		"UIModelOffsetY": 0,
		"MeleeATKID": 0,
		"RangeATKID": 0,
		"SkillID": 0
	},
	{
		"ID": 5101,
		"Name": "竹取清辉",
		"Model": "Spine/General/Schelfaniel_ABS/Schelfaniel_Skin/Schelfaniel_Skin_Prefab.prefab",
		"CombatModel": "",
		"ModelScale": 0,
		"BFModelScale": 0,
		"UIModelScale": 0,
		"UIModelOffsetX": 0,
		"UIModelOffsetY": 0,
		"MeleeATKID": 0,
		"RangeATKID": 0,
		"SkillID": 0
	},
	{
		"ID": 1301,
		"Name": "魔法奇缘",
		"Model": "Spine/General/Hein_ABS/Hein_skin/Hein_Skin_Prefab.prefab",
		"CombatModel": "",
		"ModelScale": 0,
		"BFModelScale": 0,
		"UIModelScale": 0,
		"UIModelOffsetX": 0,
		"UIModelOffsetY": 0,
		"MeleeATKID": 0,
		"RangeATKID": 0,
		"SkillID": 0
	},
	{
		"ID": 4901,
		"Name": "夏日倩影",
		"Model": "Spine/General/Fana_ABS/Fana_Skin/Fana_Skin_Prefab.prefab",
		"CombatModel": "",
		"ModelScale": 0,
		"BFModelScale": 0,
		"UIModelScale": 0,
		"UIModelOffsetX": 0,
		"UIModelOffsetY": 0,
		"MeleeATKID": 0,
		"RangeATKID": 0,
		"SkillID": 0
	},
	{
		"ID": 49011,
		"Name": "夏日倩影",
		"Model": "Spine/General/Fana_ABS/Fana_Skin01_1/Fana_Skin01_1_Prefab.prefab",
		"CombatModel": "Spine/General/Fana_ABS/Fana_Skin01_1/Fana_Skin01_1_air_Prefab.prefab",
		"ModelScale": 0,
		"BFModelScale": 0,
		"UIModelScale": 0,
		"UIModelOffsetX": 0,
		"UIModelOffsetY": 0,
		"MeleeATKID": 0,
		"RangeATKID": 0,
		"SkillID": 0
	},
	{
		"ID": 3301,
		"Name": "阳光热梦",
		"Model": "Spine/General/Freya_ABS/Freya_Skin02/Freya_Skin02_Prefab.prefab",
		"CombatModel": "",
		"ModelScale": 0,
		"BFModelScale": 0,
		"UIModelScale": 0,
		"UIModelOffsetX": 0,
		"UIModelOffsetY": 0,
		"MeleeATKID": 0,
		"RangeATKID": 0,
		"SkillID": 0
	},
	{
		"ID": 802,
		"Name": "海滨丽人",
		"Model": "Spine/General/Lana_ABS/Lana_Skin03/Lana_Skin03_Prefab.prefab",
		"CombatModel": "",
		"ModelScale": 0,
		"BFModelScale": 0,
		"UIModelScale": 0,
		"UIModelOffsetX": 0,
		"UIModelOffsetY": 0,
		"MeleeATKID": 0,
		"RangeATKID": 0,
		"SkillID": 0
	},
	{
		"ID": 2602,
		"Name": "水弹直击",
		"Model": "Spine/General/Luna_ABS/Luna_Skin02/Luna_skin02_Prefab.prefab",
		"CombatModel": "",
		"ModelScale": 0,
		"BFModelScale": 0,
		"UIModelScale": 0,
		"UIModelOffsetX": 0,
		"UIModelOffsetY": 0,
		"MeleeATKID": 0,
		"RangeATKID": 0,
		"SkillID": 0
	},
	{
		"ID": 26021,
		"Name": "水弹直击",
		"Model": "Spine/General/Luna_ABS/Luna_Skin02_1/Luna_Skin02_1_Prefab.prefab",
		"CombatModel": "Spine/General/Luna_ABS/Luna_Skin02_1/Luna_Skin02_1_air_Prefab.prefab",
		"ModelScale": 0,
		"BFModelScale": 0,
		"UIModelScale": 0,
		"UIModelOffsetX": 0,
		"UIModelOffsetY": 0,
		"MeleeATKID": 0,
		"RangeATKID": 0,
		"SkillID": 0
	},
	{
		"ID": 1101,
		"Name": "浪漫一夏",
		"Model": "Spine/General/Norm_ABS/Norm_Skin2/Norm_Skin02_Prefab.prefab",
		"CombatModel": "Spine/General/Norm_ABS/Norm_Skin2/Norm_Skin02_air_Prefab.prefab",
		"ModelScale": 0,
		"BFModelScale": 0,
		"UIModelScale": 0,
		"UIModelOffsetX": 0,
		"UIModelOffsetY": 0,
		"MeleeATKID": 0,
		"RangeATKID": 0,
		"SkillID": 0
	},
	{
		"ID": 11011,
		"Name": "浪漫一夏",
		"Model": "Spine/General/Norm_ABS/Norm_Skin02_1/Norm_Skin02_1_Prefab.prefab",
		"CombatModel": "",
		"ModelScale": 0,
		"BFModelScale": 0,
		"UIModelScale": 0,
		"UIModelOffsetX": 0,
		"UIModelOffsetY": 0,
		"MeleeATKID": 0,
		"RangeATKID": 0,
		"SkillID": 0
	},
	{
		"ID": 2901,
		"Name": "沙滩宝贝",
		"Model": "Spine/General/Tialice_ABS/Tialice_Skin/Tialice_skin01_Prefab.prefab",
		"CombatModel": "",
		"ModelScale": 0,
		"BFModelScale": 0,
		"UIModelScale": 0,
		"UIModelOffsetX": 0,
		"UIModelOffsetY": 0,
		"MeleeATKID": 0,
		"RangeATKID": 0,
		"SkillID": 0
	},
	{
		"ID": 803,
		"Name": "月下红樱",
		"Model": "Spine/General/Lana_ABS/Lana_Skin02/Lana_Skin02_Prefab.prefab",
		"CombatModel": "",
		"ModelScale": 0,
		"BFModelScale": 0,
		"UIModelScale": 0,
		"UIModelOffsetX": 0,
		"UIModelOffsetY": 0,
		"MeleeATKID": 0,
		"RangeATKID": 0,
		"SkillID": 0
	},
	{
		"ID": 901,
		"Name": "灵魂收割者",
		"Model": "Spine/General/Boser_ABS/Boser_Skin01/Boser_Skin01_Prefab.prefab",
		"CombatModel": "",
		"ModelScale": 0,
		"BFModelScale": 0,
		"UIModelScale": 0,
		"UIModelOffsetX": 0,
		"UIModelOffsetY": 0,
		"MeleeATKID": 0,
		"RangeATKID": 0,
		"SkillID": 0
	},
	{
		"ID": 9011,
		"Name": "灵魂收割者",
		"Model": "Spine/General/Boser_ABS/Boser_Skin01/Boser_Skin01_1_Prefab.prefab",
		"CombatModel": "",
		"ModelScale": 0,
		"BFModelScale": 0,
		"UIModelScale": 0,
		"UIModelOffsetX": 0,
		"UIModelOffsetY": 0,
		"MeleeATKID": 0,
		"RangeATKID": 0,
		"SkillID": 0
	},
	{
		"ID": 3601,
		"Name": "致命绅士",
		"Model": "Spine/General/SilverWolf_ABS/SilverWolf_Skin/SilverWolf_Skin_Prefab.prefab",
		"CombatModel": "",
		"ModelScale": 0,
		"BFModelScale": 0,
		"UIModelScale": 0,
		"UIModelOffsetX": 0,
		"UIModelOffsetY": 0,
		"MeleeATKID": 0,
		"RangeATKID": 0,
		"SkillID": 0
	},
	{
		"ID": 2801,
		"Name": "魔剑精灵",
		"Model": "Spine/General/Zalrahda_ABS/Deamon/Zalrahda_Crime3_prefab.prefab",
		"CombatModel": "",
		"ModelScale": 0,
		"BFModelScale": 0,
		"UIModelScale": 0,
		"UIModelOffsetX": 0,
		"UIModelOffsetY": 0,
		"MeleeATKID": 0,
		"RangeATKID": 0,
		"SkillID": 0
	},
	{
		"ID": 1102,
		"Name": "星海领航员",
		"Model": "Spine/General/Norm_ABS/Norm_skin/Norm_Skin_Prefab.prefab",
		"CombatModel": "",
		"ModelScale": 0,
		"BFModelScale": 0,
		"UIModelScale": 0,
		"UIModelOffsetX": 0,
		"UIModelOffsetY": 0,
		"MeleeATKID": 0,
		"RangeATKID": 0,
		"SkillID": 0
	},
	{
		"ID": 11021,
		"Name": "星海领航员",
		"Model": "Spine/General/Norm_ABS/Norm_Skin01_1/Norm_Skin01_1_Prefab.prefab",
		"CombatModel": "Spine/General/Norm_ABS/Norm_Skin01_1/Norm_Skin01_1_air_Prefab.prefab",
		"ModelScale": 0,
		"BFModelScale": 0,
		"UIModelScale": 0,
		"UIModelOffsetX": 0,
		"UIModelOffsetY": 0,
		"MeleeATKID": 0,
		"RangeATKID": 0,
		"SkillID": 0
	},
	{
		"ID": 2701,
		"Name": "雷神之锤",
		"Model": "Spine/General/Dehault_ABS/Dehault_Skin/Dehault_Skin_Prefab.prefab",
		"CombatModel": "",
		"ModelScale": 0,
		"BFModelScale": 0,
		"UIModelScale": 0,
		"UIModelOffsetX": 0,
		"UIModelOffsetY": 0,
		"MeleeATKID": 0,
		"RangeATKID": 0,
		"SkillID": 0
	},
	{
		"ID": 27011,
		"Name": "雷神之锤",
		"Model": "Spine/General/Dehault_ABS/Dehault_Skin01_1/Dehault_Skin01_1_Prefab.prefab",
		"CombatModel": "",
		"ModelScale": 0,
		"BFModelScale": 0,
		"UIModelScale": 0,
		"UIModelOffsetX": 0,
		"UIModelOffsetY": 0,
		"MeleeATKID": 0,
		"RangeATKID": 0,
		"SkillID": 0
	},
	{
		"ID": 3302,
		"Name": "斯巴达克斯",
		"Model": "Spine/General/Freya_ABS/Freya_Skin/Freya_Skin_Prefab.prefab",
		"CombatModel": "",
		"ModelScale": 0,
		"BFModelScale": 0,
		"UIModelScale": 0,
		"UIModelOffsetX": 0,
		"UIModelOffsetY": 0,
		"MeleeATKID": 0,
		"RangeATKID": 0,
		"SkillID": 0
	},
	{
		"ID": 33021,
		"Name": "斯巴达克斯",
		"Model": "Spine/General/Freya_ABS/Freya_Skin01_1/Freya_Skin01_1_Prefab.prefab",
		"CombatModel": "",
		"ModelScale": 0,
		"BFModelScale": 0,
		"UIModelScale": 0,
		"UIModelOffsetX": 0,
		"UIModelOffsetY": 0,
		"MeleeATKID": 0,
		"RangeATKID": 0,
		"SkillID": 0
	},
	{
		"ID": 1701,
		"Name": "节奏的爆点",
		"Model": "Spine/General/Eggbert_ABS/Eggbert_Skin01/Eggbert_Skin01_Prefab.prefab",
		"CombatModel": "",
		"ModelScale": 0,
		"BFModelScale": 0,
		"UIModelScale": 0,
		"UIModelOffsetX": 0,
		"UIModelOffsetY": 0,
		"MeleeATKID": 0,
		"RangeATKID": 0,
		"SkillID": 0
	},
	{
		"ID": 102,
		"Name": "执事美酒",
		"Model": "Spine/General/Mathew_ABS/Mathew_Skin01/Mathew_Skin01_Prefab.prefab",
		"CombatModel": "",
		"ModelScale": 0,
		"BFModelScale": 0,
		"UIModelScale": 0,
		"UIModelOffsetX": 0,
		"UIModelOffsetY": 0,
		"MeleeATKID": 0,
		"RangeATKID": 0,
		"SkillID": 0
	},
	{
		"ID": 1021,
		"Name": "执事美酒",
		"Model": "Spine/General/Mathew_ABS/Mathew_Skin01_1/Mathew_Skin01_1_Prefab.prefab",
		"CombatModel": "",
		"ModelScale": 0,
		"BFModelScale": 0,
		"UIModelScale": 0,
		"UIModelOffsetX": 0,
		"UIModelOffsetY": 0,
		"MeleeATKID": 0,
		"RangeATKID": 0,
		"SkillID": 0
	},
	{
		"ID": 1022,
		"Name": "执事美酒",
		"Model": "Spine/General/Mathew_ABS/Mathew_Skin01_2/Mathew_Skin01_2_Prefab.prefab",
		"CombatModel": "",
		"ModelScale": 0,
		"BFModelScale": 0,
		"UIModelScale": 0,
		"UIModelOffsetX": 0,
		"UIModelOffsetY": 0,
		"MeleeATKID": 0,
		"RangeATKID": 0,
		"SkillID": 0
	},
	{
		"ID": 1023,
		"Name": "执事美酒",
		"Model": "Spine/General/Mathew_ABS/Mathew_Skin01_3/Mathew_Skin01_3_Prefab.prefab",
		"CombatModel": "Spine/General/Mathew_ABS/Mathew_Skin01_3/Mathew_Skin01_3_air_Prefab.prefab",
		"ModelScale": 0,
		"BFModelScale": 0,
		"UIModelScale": 0,
		"UIModelOffsetX": 0,
		"UIModelOffsetY": 0,
		"MeleeATKID": 0,
		"RangeATKID": 0,
		"SkillID": 0
	},
	{
		"ID": 1024,
		"Name": "执事美酒",
		"Model": "Spine/General/Mathew_ABS/Mathew_Skin01_4/Mathew_Skin01_4_Prefab.prefab",
		"CombatModel": "",
		"ModelScale": 0,
		"BFModelScale": 0,
		"UIModelScale": 0,
		"UIModelOffsetX": 0,
		"UIModelOffsetY": 0,
		"MeleeATKID": 0,
		"RangeATKID": 0,
		"SkillID": 0
	},
	{
		"ID": 301,
		"Name": "星级大厨",
		"Model": "Spine/General/Grenier_ABS/Grenier_Skin01/Grenier_Skin01_Prefab.prefab",
		"CombatModel": "",
		"ModelScale": 0,
		"BFModelScale": 0,
		"UIModelScale": 0,
		"UIModelOffsetX": 0,
		"UIModelOffsetY": 0,
		"MeleeATKID": 0,
		"RangeATKID": 0,
		"SkillID": 0
	},
	{
		"ID": 3011,
		"Name": "星级大厨",
		"Model": "Spine/General/Grenier_ABS/Grenier_Skin01_1/Grenier_Skin01_1_Prefab.prefab",
		"CombatModel": "",
		"ModelScale": 0,
		"BFModelScale": 0,
		"UIModelScale": 0,
		"UIModelOffsetX": 0,
		"UIModelOffsetY": 0,
		"MeleeATKID": 0,
		"RangeATKID": 0,
		"SkillID": 0
	},
	{
		"ID": 401,
		"Name": "甜心女仆",
		"Model": "Spine/General/Aimeeda_ABS/Aimeeda_Skin01/Aimeeda_Skin01_Prefab.prefab",
		"CombatModel": "",
		"ModelScale": 0,
		"BFModelScale": 0,
		"UIModelScale": 0,
		"UIModelOffsetX": 0,
		"UIModelOffsetY": 0,
		"MeleeATKID": 0,
		"RangeATKID": 0,
		"SkillID": 0
	},
	{
		"ID": 2902,
		"Name": "圣女天降",
		"Model": "Spine/General/Tialice_ABS/Tialice_Skin02/Tialice_Skin02_Prefab.prefab",
		"CombatModel": "",
		"ModelScale": 0,
		"BFModelScale": 0,
		"UIModelScale": 0,
		"UIModelOffsetX": 0,
		"UIModelOffsetY": 0,
		"MeleeATKID": 0,
		"RangeATKID": 0,
		"SkillID": 0
	},
	{
		"ID": 5301,
		"Name": "暗夜猎手",
		"Model": "Spine/General/Ranford_ABS/Ranford_Skin/Ranford_Skin01_Prefab.prefab",
		"CombatModel": "",
		"ModelScale": 0,
		"BFModelScale": 0,
		"UIModelScale": 0,
		"UIModelOffsetX": 0,
		"UIModelOffsetY": 0,
		"MeleeATKID": 0,
		"RangeATKID": 0,
		"SkillID": 0
	},
	{
		"ID": 53011,
		"Name": "暗夜猎手",
		"Model": "Spine/General/Ranford_ABS/Ranford_Skin01_1/Ranford_Skin01_1_Prefab.prefab",
		"CombatModel": "",
		"ModelScale": 0,
		"BFModelScale": 0,
		"UIModelScale": 0,
		"UIModelOffsetX": 0,
		"UIModelOffsetY": 0,
		"MeleeATKID": 0,
		"RangeATKID": 0,
		"SkillID": 0
	},
	{
		"ID": 5401,
		"Name": "魔血妖姬",
		"Model": "Spine/General/Listell_ABS/Listell_Skin01/Listell_Skin01_Prefab.prefab",
		"CombatModel": "",
		"ModelScale": 0,
		"BFModelScale": 0,
		"UIModelScale": 0,
		"UIModelOffsetX": 0,
		"UIModelOffsetY": 0,
		"MeleeATKID": 0,
		"RangeATKID": 0,
		"SkillID": 0
	},
	{
		"ID": 54011,
		"Name": "魔血妖姬",
		"Model": "Spine/General/Listell_ABS/Listell_Skin01_1/Listell_Skin01_1_Prefab.prefab",
		"CombatModel": "",
		"ModelScale": 0,
		"BFModelScale": 0,
		"UIModelScale": 0,
		"UIModelOffsetX": 0,
		"UIModelOffsetY": 0,
		"MeleeATKID": 0,
		"RangeATKID": 0,
		"SkillID": 0
	},
	{
		"ID": 1502,
		"Name": "千年之恋",
		"Model": "Spine/General/Riana_ABS/Riana_Skin02/Riana_Skin02_Prefab.prefab",
		"CombatModel": "",
		"ModelScale": 0,
		"BFModelScale": 0,
		"UIModelScale": 0,
		"UIModelOffsetX": 0,
		"UIModelOffsetY": 0,
		"MeleeATKID": 0,
		"RangeATKID": 0,
		"SkillID": 0
	},
	{
		"ID": 5501,
		"Name": "堕夜天使",
		"Model": "Spine/General/Landius_ABS/Landius_Skin01_1/Landius_Skin01_1_Prefab.prefab",
		"CombatModel": "",
		"ModelScale": 0,
		"BFModelScale": 0,
		"UIModelScale": 0,
		"UIModelOffsetX": 0,
		"UIModelOffsetY": 0,
		"MeleeATKID": 0,
		"RangeATKID": 0,
		"SkillID": 0
	},
	{
		"ID": 55011,
		"Name": "堕夜天使",
		"Model": "Spine/General/Landius_ABS/Landius_Skin01/Landius_Skin01_Prefab.prefab",
		"CombatModel": "",
		"ModelScale": 0,
		"BFModelScale": 0,
		"UIModelScale": 0,
		"UIModelOffsetX": 0,
		"UIModelOffsetY": 0,
		"MeleeATKID": 0,
		"RangeATKID": 0,
		"SkillID": 0
	},
	{
		"ID": 5601,
		"Name": "霹雳小恶魔",
		"Model": "Spine/General/Rachel_ABS/Rachel_Skin01/Rachel_Skin01_Prefab.prefab",
		"CombatModel": "",
		"ModelScale": 0,
		"BFModelScale": 0,
		"UIModelScale": 0,
		"UIModelOffsetX": 0,
		"UIModelOffsetY": 0,
		"MeleeATKID": 0,
		"RangeATKID": 0,
		"SkillID": 0
	},
	{
		"ID": 56011,
		"Name": "霹雳小恶魔",
		"Model": "Spine/General/Rachel_ABS/Rachel_Skin01_1/Rachel_Skin01_1_Prefab.prefab",
		"CombatModel": "",
		"ModelScale": 0,
		"BFModelScale": 0,
		"UIModelScale": 0,
		"UIModelOffsetX": 0,
		"UIModelOffsetY": 0,
		"MeleeATKID": 0,
		"RangeATKID": 0,
		"SkillID": 0
	},
	{
		"ID": 1403,
		"Name": "雪莉圣诞",
		"Model": "Spine/General/Sherry_ABS/Sherry_Skin04/Sherry_Skin04_Prefab.prefab",
		"CombatModel": "Spine/General/Sherry_ABS/Sherry_Skin04/Sherry_Skin04_air_Prefab.prefab",
		"ModelScale": 0,
		"BFModelScale": 0,
		"UIModelScale": 0,
		"UIModelOffsetX": 0,
		"UIModelOffsetY": 0,
		"MeleeATKID": 0,
		"RangeATKID": 0,
		"SkillID": 0
	},
	{
		"ID": 14031,
		"Name": "雪莉圣诞",
		"Model": "Spine/General/Sherry_ABS/Sherry_Skin04_1/Sherry_Skin04_1_Prefab.prefab",
		"CombatModel": "",
		"ModelScale": 0,
		"BFModelScale": 0,
		"UIModelScale": 0,
		"UIModelOffsetX": 0,
		"UIModelOffsetY": 0,
		"MeleeATKID": 0,
		"RangeATKID": 0,
		"SkillID": 0
	},
	{
		"ID": 5102,
		"Name": "雪露法妮尔圣诞",
		"Model": "Spine/General/Schelfaniel_ABS/Schelfaniel_Skin02_1/Schelfaniel_Skin02_1_Prefab.prefab",
		"CombatModel": "",
		"ModelScale": 0,
		"BFModelScale": 0,
		"UIModelScale": 0,
		"UIModelOffsetX": 0,
		"UIModelOffsetY": 0,
		"MeleeATKID": 0,
		"RangeATKID": 0,
		"SkillID": 0
	},
	{
		"ID": 51021,
		"Name": "雪露法妮尔圣诞",
		"Model": "Spine/General/Schelfaniel_ABS/Schelfaniel_Skin02/Schelfaniel_Skin02_Prefab.prefab",
		"CombatModel": "",
		"ModelScale": 0,
		"BFModelScale": 0,
		"UIModelScale": 0,
		"UIModelOffsetX": 0,
		"UIModelOffsetY": 0,
		"MeleeATKID": 0,
		"RangeATKID": 0,
		"SkillID": 0
	},
	{
		"ID": 5202,
		"Name": "安洁丽娜圣诞",
		"Model": "Spine/General/Angelina_ABS/Angelina_Skin02/Angelina_Skin02_Prefab.prefab",
		"CombatModel": "",
		"ModelScale": 0,
		"BFModelScale": 0,
		"UIModelScale": 0,
		"UIModelOffsetX": 0,
		"UIModelOffsetY": 0,
		"MeleeATKID": 0,
		"RangeATKID": 0,
		"SkillID": 0
	},
	{
		"ID": 52021,
		"Name": "安洁丽娜圣诞",
		"Model": "Spine/General/Angelina_ABS/Angelina_Skin02_1/Angelina_Skin02_1_Prefab.prefab",
		"CombatModel": "Spine/General/Angelina_ABS/Angelina_Skin02_1/Angelina_Skin02_1_air_Prefab.prefab",
		"ModelScale": 0,
		"BFModelScale": 0,
		"UIModelScale": 0,
		"UIModelOffsetX": 0,
		"UIModelOffsetY": 0,
		"MeleeATKID": 0,
		"RangeATKID": 0,
		"SkillID": 0
	},
	{
		"ID": 1203,
		"Name": "红之骑士",
		"Model": "Spine/General/Elwin_ABS/Elwin_Skin03/Elwin_Skin03_Prefab.prefab",
		"CombatModel": "",
		"ModelScale": 0,
		"BFModelScale": 0,
		"UIModelScale": 0,
		"UIModelOffsetX": 0,
		"UIModelOffsetY": 0,
		"MeleeATKID": 0,
		"RangeATKID": 0,
		"SkillID": 0
	},
	{
		"ID": 12031,
		"Name": "红之骑士",
		"Model": "Spine/General/Elwin_ABS/Elwin_Skin03_1/Elwin_Skin03_1_Prefab.prefab",
		"CombatModel": "",
		"ModelScale": 0,
		"BFModelScale": 0,
		"UIModelScale": 0,
		"UIModelOffsetX": 0,
		"UIModelOffsetY": 0,
		"MeleeATKID": 0,
		"RangeATKID": 0,
		"SkillID": 0
	},
	{
		"ID": 603,
		"Name": "苍之骑士",
		"Model": "Spine/General/Leon_ABS/Leon_Skin03/Leon_Skin03_Prefab.prefab",
		"CombatModel": "",
		"ModelScale": 0,
		"BFModelScale": 0,
		"UIModelScale": 0,
		"UIModelOffsetX": 0,
		"UIModelOffsetY": 0,
		"MeleeATKID": 0,
		"RangeATKID": 0,
		"SkillID": 0
	},
	{
		"ID": 1302,
		"Name": "超时空公主",
		"Model": "Spine/General/Hein_ABS/Hein_Skin02/Hein_Skin02_Prefab.prefab",
		"CombatModel": "",
		"ModelScale": 0,
		"BFModelScale": 0,
		"UIModelScale": 0,
		"UIModelOffsetX": 0,
		"UIModelOffsetY": 0,
		"MeleeATKID": 0,
		"RangeATKID": 0,
		"SkillID": 0
	},
	{
		"ID": 7001,
		"Name": "白花恋诗",
		"Model": "Spine/General/Joshua_ABS/Joshua_Skin01/Joshua_Skin01_Prefab.prefab",
		"CombatModel": "",
		"ModelScale": 0,
		"BFModelScale": 0,
		"UIModelScale": 0,
		"UIModelOffsetX": 0,
		"UIModelOffsetY": 0,
		"MeleeATKID": 0,
		"RangeATKID": 0,
		"SkillID": 0
	},
	{
		"ID": 402,
		"Name": "镜花伊人",
		"Model": "Spine/General/Aimeeda_ABS/Aimeeda_Skin02/Aimeeda_Skin02_Prefab.prefab",
		"CombatModel": "",
		"ModelScale": 0,
		"BFModelScale": 0,
		"UIModelScale": 0,
		"UIModelOffsetX": 0,
		"UIModelOffsetY": 0,
		"MeleeATKID": 0,
		"RangeATKID": 0,
		"SkillID": 0
	},
	{
		"ID": 2802,
		"Name": "凌霜侠影",
		"Model": "Spine/General/Zalrahda_ABS/Zalrahda_Skin02/Zalrahda_Skin02_Prefab.prefab",
		"CombatModel": "",
		"ModelScale": 0,
		"BFModelScale": 0,
		"UIModelScale": 0,
		"UIModelOffsetX": 0,
		"UIModelOffsetY": 0,
		"MeleeATKID": 0,
		"RangeATKID": 0,
		"SkillID": 0
	},
	{
		"ID": 502,
		"Name": "银猫",
		"Model": "Spine/General/Chris_ABS/Chris_Skin02/Chris_Skin02_Prefab.prefab",
		"CombatModel": "",
		"ModelScale": 0,
		"BFModelScale": 0,
		"UIModelScale": 0,
		"UIModelOffsetX": 0,
		"UIModelOffsetY": 0,
		"MeleeATKID": 0,
		"RangeATKID": 0,
		"SkillID": 0
	},
	{
		"ID": 7201,
		"Name": "黑骑士",
		"Model": "Spine/General/Leonhardt_ABS/Leonhardt_Skin01/Leonhardt_Skin01_Prefab.prefab",
		"CombatModel": "",
		"ModelScale": 0,
		"BFModelScale": 0,
		"UIModelScale": 0,
		"UIModelOffsetX": 0,
		"UIModelOffsetY": 0,
		"MeleeATKID": 0,
		"RangeATKID": 0,
		"SkillID": 0
	},
	{
		"ID": 1002,
		"Name": "战神雷丁",
		"Model": "Spine/General/Ledin_ABS/Ledin_Skin02/Ledin_Skin02_Prefab.prefab",
		"CombatModel": "",
		"ModelScale": 0,
		"BFModelScale": 0,
		"UIModelScale": 0,
		"UIModelOffsetX": 0,
		"UIModelOffsetY": 0,
		"MeleeATKID": 0,
		"RangeATKID": 0,
		"SkillID": 0
	},
	{
		"ID": 10021,
		"Name": "战神雷丁",
		"Model": "Spine/General/Ledin_ABS/Ledin_Skin02_1/Ledin_Skin02_1_Prefab.prefab",
		"CombatModel": "",
		"ModelScale": 0,
		"BFModelScale": 0,
		"UIModelScale": 0,
		"UIModelOffsetX": 0,
		"UIModelOffsetY": 0,
		"MeleeATKID": 0,
		"RangeATKID": 0,
		"SkillID": 0
	},
	{
		"ID": 2502,
		"Name": "海王元帅",
		"Model": "Spine/General/Alutemurat_ABS/Alutemurat_Skin02/Alutemurat_Skin02_Prefab.prefab",
		"CombatModel": "Spine/General/Alutemurat_ABS/Alutemurat_Skin02/Alutemurat_Skin02_air_Prefab.prefab",
		"ModelScale": 0,
		"BFModelScale": 0,
		"UIModelScale": 0,
		"UIModelOffsetX": 0,
		"UIModelOffsetY": 0,
		"MeleeATKID": 0,
		"RangeATKID": 0,
		"SkillID": 0
	},
	{
		"ID": 25021,
		"Name": "海王元帅",
		"Model": "Spine/General/Alutemurat_ABS/Alutemurat_Skin02_1/Alutemurat_Skin02_1_Prefab.prefab",
		"CombatModel": "",
		"ModelScale": 0,
		"BFModelScale": 0,
		"UIModelScale": 0,
		"UIModelOffsetX": 0,
		"UIModelOffsetY": 0,
		"MeleeATKID": 0,
		"RangeATKID": 0,
		"SkillID": 0
	},
	{
		"ID": 6001,
		"Name": "偶像西格玛",
		"Model": "Spine/General/Sigma_ABS/Sigma_Skin01_1/Sigma_Skin01_1_Prefab.prefab",
		"CombatModel": "",
		"ModelScale": 0,
		"BFModelScale": 0,
		"UIModelScale": 0,
		"UIModelOffsetX": 0,
		"UIModelOffsetY": 0,
		"MeleeATKID": 0,
		"RangeATKID": 0,
		"SkillID": 0
	},
	{
		"ID": 60011,
		"Name": "偶像西格玛",
		"Model": "Spine/General/Sigma_ABS/Sigma_Skin01/Sigma_Skin01_Prefab.prefab",
		"CombatModel": "",
		"ModelScale": 0,
		"BFModelScale": 0,
		"UIModelScale": 0,
		"UIModelOffsetX": 0,
		"UIModelOffsetY": 0,
		"MeleeATKID": 0,
		"RangeATKID": 0,
		"SkillID": 0
	},
	{
		"ID": 6101,
		"Name": "偶像拉姆达",
		"Model": "Spine/General/Lambda_ABS/Lambda_Skin01/Lambda_Skin01_Prefab.prefab",
		"CombatModel": "",
		"ModelScale": 0,
		"BFModelScale": 0,
		"UIModelScale": 0,
		"UIModelOffsetX": 0,
		"UIModelOffsetY": 0,
		"MeleeATKID": 0,
		"RangeATKID": 0,
		"SkillID": 0
	},
	{
		"ID": 902,
		"Name": "冥王波赞鲁",
		"Model": "Spine/General/Boser_ABS/Boser_Skin02/Boser_Skin02_Prefab.prefab",
		"CombatModel": "",
		"ModelScale": 0,
		"BFModelScale": 0,
		"UIModelScale": 0,
		"UIModelOffsetX": 0,
		"UIModelOffsetY": 0,
		"MeleeATKID": 0,
		"RangeATKID": 0,
		"SkillID": 0
	},
	{
		"ID": 3201,
		"Name": "法老艾玛",
		"Model": "Spine/General/EmmaLink_ABS/EmmaLink_Skin01_1/EmmaLink_Skin01_1_Prefab.prefab",
		"CombatModel": "",
		"ModelScale": 0,
		"BFModelScale": 0,
		"UIModelScale": 0,
		"UIModelOffsetX": 0,
		"UIModelOffsetY": 0,
		"MeleeATKID": 0,
		"RangeATKID": 0,
		"SkillID": 0
	},
	{
		"ID": 32011,
		"Name": "法老艾玛",
		"Model": "Spine/General/EmmaLink_ABS/EmmaLink_Skin01/EmmaLink_Skin01_Prefab.prefab",
		"CombatModel": "",
		"ModelScale": 0,
		"BFModelScale": 0,
		"UIModelScale": 0,
		"UIModelOffsetX": 0,
		"UIModelOffsetY": 0,
		"MeleeATKID": 0,
		"RangeATKID": 0,
		"SkillID": 0
	},
	{
		"ID": 5701,
		"Name": "自由远行者",
		"Model": "Spine/General/Wiler_ABS/Wiler_Skin01_1/Wiler_Skin01_1_Prefab.prefab",
		"CombatModel": "",
		"ModelScale": 0,
		"BFModelScale": 0,
		"UIModelScale": 0,
		"UIModelOffsetX": 0,
		"UIModelOffsetY": 0,
		"MeleeATKID": 0,
		"RangeATKID": 0,
		"SkillID": 0
	},
	{
		"ID": 57011,
		"Name": "自由远行者",
		"Model": "Spine/General/Wiler_ABS/Wiler_Skin01/Wiler_Skin01_Prefab.prefab",
		"CombatModel": "",
		"ModelScale": 0,
		"BFModelScale": 0,
		"UIModelScale": 0,
		"UIModelOffsetX": 0,
		"UIModelOffsetY": 0,
		"MeleeATKID": 0,
		"RangeATKID": 0,
		"SkillID": 0
	},
	{
		"ID": 1204,
		"Name": "孤王",
		"Model": "Spine/General/Elwin_ABS/Elwin_Skin04/Elwin_Skin04_Prefab.prefab",
		"CombatModel": "",
		"ModelScale": 0,
		"BFModelScale": 0,
		"UIModelScale": 0,
		"UIModelOffsetX": 0,
		"UIModelOffsetY": 0,
		"MeleeATKID": 0,
		"RangeATKID": 0,
		"SkillID": 0
	},
	{
		"ID": 12041,
		"Name": "孤王",
		"Model": "Spine/General/Elwin_ABS/Elwin_Skin04_1/Elwin_Skin04_1_Prefab.prefab",
		"CombatModel": "",
		"ModelScale": 0,
		"BFModelScale": 0,
		"UIModelScale": 0,
		"UIModelOffsetX": 0,
		"UIModelOffsetY": 0,
		"MeleeATKID": 0,
		"RangeATKID": 0,
		"SkillID": 0
	},
	{
		"ID": 5402,
		"Name": "注射天使",
		"Model": "Spine/General/Listell_ABS/Listell_Skin02/Listell_Skin02_Prefab.prefab",
		"CombatModel": "",
		"ModelScale": 0,
		"BFModelScale": 0,
		"UIModelScale": 0,
		"UIModelOffsetX": 0,
		"UIModelOffsetY": 0,
		"MeleeATKID": 0,
		"RangeATKID": 0,
		"SkillID": 0
	},
	{
		"ID": 54021,
		"Name": "注射天使",
		"Model": "Spine/General/Listell_ABS/Listell_Skin02_1/Listell_Skin02_1_Prefab.prefab",
		"CombatModel": "",
		"ModelScale": 0,
		"BFModelScale": 0,
		"UIModelScale": 0,
		"UIModelOffsetX": 0,
		"UIModelOffsetY": 0,
		"MeleeATKID": 0,
		"RangeATKID": 0,
		"SkillID": 0
	},
	{
		"ID": 2001,
		"Name": "飞驰少女",
		"Model": "Spine/General/Sonia_ABS/Sonia_Skin01/Sonia_Skin01_Prefab.prefab",
		"CombatModel": "",
		"ModelScale": 0,
		"BFModelScale": 0,
		"UIModelScale": 0,
		"UIModelOffsetX": 0,
		"UIModelOffsetY": 0,
		"MeleeATKID": 0,
		"RangeATKID": 0,
		"SkillID": 0
	},
	{
		"ID": 5502,
		"Name": "天目一命",
		"Model": "Spine/General/Landius_ABS/Landius_Skin02_1/Landius_Skin02_1_Prefab.prefab",
		"CombatModel": "",
		"ModelScale": 0,
		"BFModelScale": 0,
		"UIModelScale": 0,
		"UIModelOffsetX": 0,
		"UIModelOffsetY": 0,
		"MeleeATKID": 0,
		"RangeATKID": 0,
		"SkillID": 0
	},
	{
		"ID": 55021,
		"Name": "天目一命",
		"Model": "Spine/General/Landius_ABS/Landius_Skin02/Landius_Skin02_Prefab.prefab",
		"CombatModel": "",
		"ModelScale": 0,
		"BFModelScale": 0,
		"UIModelScale": 0,
		"UIModelOffsetX": 0,
		"UIModelOffsetY": 0,
		"MeleeATKID": 0,
		"RangeATKID": 0,
		"SkillID": 0
	},
	{
		"ID": 7901,
		"Name": "樱花武装",
		"Model": "Spine/General/Sakura_ABS/Sakura_Skin01/Sakura_Skin01_Prefab.prefab",
		"CombatModel": "",
		"ModelScale": 0,
		"BFModelScale": 0,
		"UIModelScale": 0,
		"UIModelOffsetX": 0,
		"UIModelOffsetY": 0,
		"MeleeATKID": 0,
		"RangeATKID": 0,
		"SkillID": 0
	},
	{
		"ID": 8001,
		"Name": "樱花吹雪",
		"Model": "Spine/General/Sumire_ABS/Sumire_Skin01/Sumire_Skin01_Prefab.prefab",
		"CombatModel": "",
		"ModelScale": 0,
		"BFModelScale": 0,
		"UIModelScale": 0,
		"UIModelOffsetX": 0,
		"UIModelOffsetY": 0,
		"MeleeATKID": 0,
		"RangeATKID": 0,
		"SkillID": 0
	},
	{
		"ID": 8101,
		"Name": "樱花甜心",
		"Model": "Spine/General/Alice_ABS/Alice_Skin01/Alice_Skin01_Prefab.prefab",
		"CombatModel": "",
		"ModelScale": 0,
		"BFModelScale": 0,
		"UIModelScale": 0,
		"UIModelOffsetX": 0,
		"UIModelOffsetY": 0,
		"MeleeATKID": 0,
		"RangeATKID": 0,
		"SkillID": 0
	},
	{
		"ID": 6601,
		"Name": "魔女公主",
		"Model": "Spine/General/Clarett_ABS/Clarett_Skin01/Clarett_Skin01_Prefab.prefab",
		"CombatModel": "",
		"ModelScale": 0,
		"BFModelScale": 0,
		"UIModelScale": 0,
		"UIModelOffsetX": 0,
		"UIModelOffsetY": 0,
		"MeleeATKID": 0,
		"RangeATKID": 0,
		"SkillID": 0
	},
	{
		"ID": 66011,
		"Name": "魔女公主",
		"Model": "Spine/General/Clarett_ABS/Clarett_Skin01_1/Clarett_Skin01_1_Prefab.prefab",
		"CombatModel": "Spine/General/Clarett_ABS/Clarett_Skin01_1/Clarett_Skin01_1_air_Prefab.prefab",
		"ModelScale": 0,
		"BFModelScale": 0,
		"UIModelScale": 0,
		"UIModelOffsetX": 0,
		"UIModelOffsetY": 0,
		"MeleeATKID": 0,
		"RangeATKID": 0,
		"SkillID": 0
	},
	{
		"ID": 8801,
		"Name": "丛林女王",
		"Model": "Spine/General/Alustriel_ABS/Alustriel_Skin01/Alustriel_Skin01_Prefab.prefab",
		"CombatModel": "",
		"ModelScale": 0,
		"BFModelScale": 0,
		"UIModelScale": 0,
		"UIModelOffsetX": 0,
		"UIModelOffsetY": 0,
		"MeleeATKID": 0,
		"RangeATKID": 0,
		"SkillID": 0
	},
	{
		"ID": 88011,
		"Name": "丛林女王",
		"Model": "Spine/General/Alustriel_ABS/Alustriel_Skin01_1/Alustriel_Skin01_1_Prefab.prefab",
		"CombatModel": "",
		"ModelScale": 0,
		"BFModelScale": 0,
		"UIModelScale": 0,
		"UIModelOffsetX": 0,
		"UIModelOffsetY": 0,
		"MeleeATKID": 0,
		"RangeATKID": 0,
		"SkillID": 0
	},
	{
		"ID": 2603,
		"Name": "露娜音乐会",
		"Model": "Spine/General/Luna_ABS/Luna_Skin03/Luna_Skin03_Prefab.prefab",
		"CombatModel": "",
		"ModelScale": 0,
		"BFModelScale": 0,
		"UIModelScale": 0,
		"UIModelOffsetX": 0,
		"UIModelOffsetY": 0,
		"MeleeATKID": 0,
		"RangeATKID": 0,
		"SkillID": 0
	},
	{
		"ID": 26031,
		"Name": "露娜音乐会",
		"Model": "Spine/General/Luna_ABS/Luna_Skin03_1/Luna_Skin03_1_Prefab.prefab",
		"CombatModel": "",
		"ModelScale": 0,
		"BFModelScale": 0,
		"UIModelScale": 0,
		"UIModelOffsetX": 0,
		"UIModelOffsetY": 0,
		"MeleeATKID": 0,
		"RangeATKID": 0,
		"SkillID": 0
	},
	{
		"ID": 2803,
		"Name": "泽瑞达音乐会",
		"Model": "Spine/General/Zalrahda_ABS/Zalrahda_Skin03_1/Zalrahda_Skin03_1_Prefab.prefab",
		"CombatModel": "",
		"ModelScale": 0,
		"BFModelScale": 0,
		"UIModelScale": 0,
		"UIModelOffsetX": 0,
		"UIModelOffsetY": 0,
		"MeleeATKID": 0,
		"RangeATKID": 0,
		"SkillID": 0
	},
	{
		"ID": 28031,
		"Name": "泽瑞达音乐会",
		"Model": "Spine/General/Zalrahda_ABS/Zalrahda_Skin03/Zalrahda_Skin03_Prefab.prefab",
		"CombatModel": "",
		"ModelScale": 0,
		"BFModelScale": 0,
		"UIModelScale": 0,
		"UIModelOffsetX": 0,
		"UIModelOffsetY": 0,
		"MeleeATKID": 0,
		"RangeATKID": 0,
		"SkillID": 0
	},
	{
		"ID": 103,
		"Name": "马修音乐会",
		"Model": "Spine/General/Mathew_ABS/Mathew_Skin02/Mathew_Skin02_Prefab.prefab",
		"CombatModel": "",
		"ModelScale": 0,
		"BFModelScale": 0,
		"UIModelScale": 0,
		"UIModelOffsetX": 0,
		"UIModelOffsetY": 0,
		"MeleeATKID": 0,
		"RangeATKID": 0,
		"SkillID": 0
	},
	{
		"ID": 1031,
		"Name": "马修音乐会",
		"Model": "Spine/General/Mathew_ABS/Mathew_Skin02_1/Mathew_Skin02_1_Prefab.prefab",
		"CombatModel": "",
		"ModelScale": 0,
		"BFModelScale": 0,
		"UIModelScale": 0,
		"UIModelOffsetX": 0,
		"UIModelOffsetY": 0,
		"MeleeATKID": 0,
		"RangeATKID": 0,
		"SkillID": 0
	},
	{
		"ID": 1032,
		"Name": "马修音乐会",
		"Model": "Spine/General/Mathew_ABS/Mathew_Skin02_2/Mathew_Skin02_2_Prefab.prefab",
		"CombatModel": "",
		"ModelScale": 0,
		"BFModelScale": 0,
		"UIModelScale": 0,
		"UIModelOffsetX": 0,
		"UIModelOffsetY": 0,
		"MeleeATKID": 0,
		"RangeATKID": 0,
		"SkillID": 0
	},
	{
		"ID": 1033,
		"Name": "马修音乐会",
		"Model": "Spine/General/Mathew_ABS/Mathew_Skin02_3/Mathew_Skin02_3_Prefab.prefab",
		"CombatModel": "Spine/General/Mathew_ABS/Mathew_Skin02_3/Mathew_Skin02_3_air_Prefab.prefab",
		"ModelScale": 0,
		"BFModelScale": 0,
		"UIModelScale": 0,
		"UIModelOffsetX": 0,
		"UIModelOffsetY": 0,
		"MeleeATKID": 0,
		"RangeATKID": 0,
		"SkillID": 0
	},
	{
		"ID": 1034,
		"Name": "马修音乐会",
		"Model": "Spine/General/Mathew_ABS/Mathew_Skin02_4/Mathew_Skin02_4_Prefab.prefab",
		"CombatModel": "",
		"ModelScale": 0,
		"BFModelScale": 0,
		"UIModelScale": 0,
		"UIModelOffsetX": 0,
		"UIModelOffsetY": 0,
		"MeleeATKID": 0,
		"RangeATKID": 0,
		"SkillID": 0
	},
	{
		"ID": 403,
		"Name": "艾梅达音乐会",
		"Model": "Spine/General/Aimeeda_ABS/Aimeeda_Skin03/Aimeeda_Skin03_Prefab.prefab",
		"CombatModel": "",
		"ModelScale": 0,
		"BFModelScale": 0,
		"UIModelScale": 0,
		"UIModelOffsetX": 0,
		"UIModelOffsetY": 0,
		"MeleeATKID": 0,
		"RangeATKID": 0,
		"SkillID": 0
	},
	{
		"ID": 1503,
		"Name": "莉亚娜音乐会",
		"Model": "Spine/General/Riana_ABS/Riana_Skin03/Riana_Skin03_Prefab.prefab",
		"CombatModel": "",
		"ModelScale": 0,
		"BFModelScale": 0,
		"UIModelScale": 0,
		"UIModelOffsetX": 0,
		"UIModelOffsetY": 0,
		"MeleeATKID": 0,
		"RangeATKID": 0,
		"SkillID": 0
	},
	{
		"ID": 6701,
		"Name": "喧哗上等",
		"Model": "Spine/General/Omega_ABS/Omega_Skin01/Omega_Skin01_Prefab.prefab",
		"CombatModel": "",
		"ModelScale": 0,
		"BFModelScale": 0,
		"UIModelScale": 0,
		"UIModelOffsetX": 0,
		"UIModelOffsetY": 0,
		"MeleeATKID": 0,
		"RangeATKID": 0,
		"SkillID": 0
	},
	{
		"ID": 67011,
		"Name": "喧哗上等",
		"Model": "Spine/General/Omega_ABS/Omega_Skin01_1/Omega_Skin01_1_Prefab.prefab",
		"CombatModel": "",
		"ModelScale": 0,
		"BFModelScale": 0,
		"UIModelScale": 0,
		"UIModelOffsetX": 0,
		"UIModelOffsetY": 0,
		"MeleeATKID": 0,
		"RangeATKID": 0,
		"SkillID": 0
	},
	{
		"ID": 8901,
		"Name": "崩坏之刃",
		"Model": "Spine/General/Yulia_ABS/Yulia_Skin01/Yulia_Skin01_Prefab.prefab",
		"CombatModel": "",
		"ModelScale": 0,
		"BFModelScale": 0,
		"UIModelScale": 0,
		"UIModelOffsetX": 0,
		"UIModelOffsetY": 0,
		"MeleeATKID": 0,
		"RangeATKID": 0,
		"SkillID": 0
	},
	{
		"ID": 3701,
		"Name": "太鼓神侍",
		"Model": "Spine/General/Zigodlla_ABS/Zigodlla_Skin01/Zigodlla_Skin01_Prefab.prefab",
		"CombatModel": "",
		"ModelScale": 0,
		"BFModelScale": 0,
		"UIModelScale": 0,
		"UIModelOffsetX": 0,
		"UIModelOffsetY": 0,
		"MeleeATKID": 0,
		"RangeATKID": 0,
		"SkillID": 0
	},
	{
		"ID": 3303,
		"Name": "花火琉璃",
		"Model": "Spine/General/Freya_ABS/Freya_Skin03/Freya_Skin03_Prefab.prefab",
		"CombatModel": "",
		"ModelScale": 0,
		"BFModelScale": 0,
		"UIModelScale": 0,
		"UIModelOffsetX": 0,
		"UIModelOffsetY": 0,
		"MeleeATKID": 0,
		"RangeATKID": 0,
		"SkillID": 0
	},
	{
		"ID": 33031,
		"Name": "花火琉璃",
		"Model": "Spine/General/Freya_ABS/Freya_Skin03_1/Freya_Skin03_1_Prefab.prefab",
		"CombatModel": "",
		"ModelScale": 0,
		"BFModelScale": 0,
		"UIModelScale": 0,
		"UIModelOffsetX": 0,
		"UIModelOffsetY": 0,
		"MeleeATKID": 0,
		"RangeATKID": 0,
		"SkillID": 0
	},
	{
		"ID": 2102,
		"Name": "性感炙烤",
		"Model": "Spine/General/Bargas_ABS/Bargas_Skin02/Bargas_Skin02_Prefab.prefab",
		"CombatModel": "",
		"ModelScale": 0,
		"BFModelScale": 0,
		"UIModelScale": 0,
		"UIModelOffsetX": 0,
		"UIModelOffsetY": 0,
		"MeleeATKID": 0,
		"RangeATKID": 0,
		"SkillID": 0
	},
	{
		"ID": 21021,
		"Name": "性感炙烤",
		"Model": "Spine/General/Bargas_ABS/Bargas_Skin02_1/Bargas_Skin02_1_Prefab.prefab",
		"CombatModel": "",
		"ModelScale": 0,
		"BFModelScale": 0,
		"UIModelScale": 0,
		"UIModelOffsetX": 0,
		"UIModelOffsetY": 0,
		"MeleeATKID": 0,
		"RangeATKID": 0,
		"SkillID": 0
	},
	{
		"ID": 2903,
		"Name": "神乐鼓姬",
		"Model": "Spine/General/Tialice_ABS/Tialice_Skin03/Tialice_Skin03_Prefab.prefab",
		"CombatModel": "",
		"ModelScale": 0,
		"BFModelScale": 0,
		"UIModelScale": 0,
		"UIModelOffsetX": 0,
		"UIModelOffsetY": 0,
		"MeleeATKID": 0,
		"RangeATKID": 0,
		"SkillID": 0
	},
	{
		"ID": 2702,
		"Name": "竹影剑心",
		"Model": "Spine/General/Dehault_ABS/Dehault_Skin02/Dehault_Skin02_Prefab.prefab",
		"CombatModel": "",
		"ModelScale": 0,
		"BFModelScale": 0,
		"UIModelScale": 0,
		"UIModelOffsetX": 0,
		"UIModelOffsetY": 0,
		"MeleeATKID": 0,
		"RangeATKID": 0,
		"SkillID": 0
	},
	{
		"ID": 27021,
		"Name": "竹影剑心",
		"Model": "Spine/General/Dehault_ABS/Dehault_Skin02_1/Dehault_Skin02_1_Prefab.prefab",
		"CombatModel": "",
		"ModelScale": 0,
		"BFModelScale": 0,
		"UIModelScale": 0,
		"UIModelOffsetX": 0,
		"UIModelOffsetY": 0,
		"MeleeATKID": 0,
		"RangeATKID": 0,
		"SkillID": 0
	},
	{
		"ID": 899,
		"Name": "漫长的告白",
		"Model": "Spine/General/Lana_ABS/Lana_Skin04/Lana_Skin04_Prefab.prefab",
		"CombatModel": "",
		"ModelScale": 0,
		"BFModelScale": 0,
		"UIModelScale": 0,
		"UIModelOffsetX": 0,
		"UIModelOffsetY": 0,
		"MeleeATKID": 0,
		"RangeATKID": 0,
		"SkillID": 0
	},
	{
		"ID": 1499,
		"Name": "天空的恋人",
		"Model": "Spine/General/Sherry_ABS/Sherry_Skin05/Sherry_Skin05_Perfab.prefab",
		"CombatModel": "Spine/General/Sherry_ABS/Sherry_Skin05/Sherry_Skin05_air_Prefab.prefab",
		"ModelScale": 0,
		"BFModelScale": 0,
		"UIModelScale": 0,
		"UIModelOffsetX": 0,
		"UIModelOffsetY": 0,
		"MeleeATKID": 0,
		"RangeATKID": 0,
		"SkillID": 0
	},
	{
		"ID": 14991,
		"Name": "天空的恋人",
		"Model": "Spine/General/Sherry_ABS/Sherry_Skin05_1/Sherry_Skin05_1_Prefab.prefab",
		"CombatModel": "",
		"ModelScale": 0,
		"BFModelScale": 0,
		"UIModelScale": 0,
		"UIModelOffsetX": 0,
		"UIModelOffsetY": 0,
		"MeleeATKID": 0,
		"RangeATKID": 0,
		"SkillID": 0
	},
	{
		"ID": 3901,
		"Name": "圣枪魔影",
		"Model": "Spine/General/Flakia_ABS/Flakia_Skin01/Flakia_Skin01_Prefab.prefab",
		"CombatModel": "",
		"ModelScale": 0,
		"BFModelScale": 0,
		"UIModelScale": 0,
		"UIModelOffsetX": 0,
		"UIModelOffsetY": 0,
		"MeleeATKID": 0,
		"RangeATKID": 0,
		"SkillID": 0
	},
	{
		"ID": 39011,
		"Name": "圣枪魔影",
		"Model": "Spine/General/Flakia_ABS/Flakia_Skin01_1/Flakia_Skin01_1_Prefab.prefab",
		"CombatModel": "",
		"ModelScale": 0,
		"BFModelScale": 0,
		"UIModelScale": 0,
		"UIModelOffsetX": 0,
		"UIModelOffsetY": 0,
		"MeleeATKID": 0,
		"RangeATKID": 0,
		"SkillID": 0
	},
	{
		"ID": 8201,
		"Name": "魔族大隔世",
		"Model": "Spine/General/Yuusuke_ABS/Yuusuke_Skin01/Yuusuke_Skin01_Prefab.prefab",
		"CombatModel": "",
		"ModelScale": 0,
		"BFModelScale": 0,
		"UIModelScale": 0,
		"UIModelOffsetX": 0,
		"UIModelOffsetY": 0,
		"MeleeATKID": 0,
		"RangeATKID": 0,
		"SkillID": 0
	},
	{
		"ID": 8401,
		"Name": "蔷薇妖狐",
		"Model": "Spine/General/Kurama_ABS/Kurama_Skin01/Kurama_Skin01_Prefab.prefab",
		"CombatModel": "",
		"ModelScale": 0,
		"BFModelScale": 0,
		"UIModelScale": 0,
		"UIModelOffsetX": 0,
		"UIModelOffsetY": 0,
		"MeleeATKID": 0,
		"RangeATKID": 0,
		"SkillID": 0
	},
	{
		"ID": 8301,
		"Name": "黑龙炎铠",
		"Model": "Spine/General/Hiei_ABS/Hiei_Skin01/Hiei_Skin01_Prefab.prefab",
		"CombatModel": "",
		"ModelScale": 0,
		"BFModelScale": 0,
		"UIModelScale": 0,
		"UIModelOffsetX": 0,
		"UIModelOffsetY": 0,
		"MeleeATKID": 0,
		"RangeATKID": 0,
		"SkillID": 0
	},
	{
		"ID": 5302,
		"Name": "统御之刃",
		"Model": "Spine/General/Ranford_ABS/Ranford_Skin02/Ranford_skin02_Prefab.prefab",
		"CombatModel": "",
		"ModelScale": 0,
		"BFModelScale": 0,
		"UIModelScale": 0,
		"UIModelOffsetX": 0,
		"UIModelOffsetY": 0,
		"MeleeATKID": 0,
		"RangeATKID": 0,
		"SkillID": 0
	},
	{
		"ID": 53021,
		"Name": "统御之刃",
		"Model": "Spine/General/Ranford_ABS/Ranford_Skin02_1/Ranford_Skin02_1_Prefab.prefab",
		"CombatModel": "",
		"ModelScale": 0,
		"BFModelScale": 0,
		"UIModelScale": 0,
		"UIModelOffsetX": 0,
		"UIModelOffsetY": 0,
		"MeleeATKID": 0,
		"RangeATKID": 0,
		"SkillID": 0
	},
	{
		"ID": 702,
		"Name": "巅峰伟力",
		"Model": "Spine/General/Barnhart_ABS/Barnhart_Skin02/Barnhart_Skin02_Prefab.prefab",
		"CombatModel": "",
		"ModelScale": 0,
		"BFModelScale": 0,
		"UIModelScale": 0,
		"UIModelOffsetX": 0,
		"UIModelOffsetY": 0,
		"MeleeATKID": 0,
		"RangeATKID": 0,
		"SkillID": 0
	},
	{
		"ID": 8802,
		"Name": "职场妖精",
		"Model": "Spine/General/Alustriel_ABS/Alustriel_Skin02/Alustriel_Skin02_Prefab.prefab",
		"CombatModel": "",
		"ModelScale": 0,
		"BFModelScale": 0,
		"UIModelScale": 0,
		"UIModelOffsetX": 0,
		"UIModelOffsetY": 0,
		"MeleeATKID": 0,
		"RangeATKID": 0,
		"SkillID": 0
	},
	{
		"ID": 88021,
		"Name": "职场妖精",
		"Model": "Spine/General/Alustriel_ABS/Alustriel_Skin02_1/Alustriel_Skin02_1_Prefab.prefab",
		"CombatModel": "",
		"ModelScale": 70,
		"BFModelScale": 70,
		"UIModelScale": 75,
		"UIModelOffsetX": 0,
		"UIModelOffsetY": 0,
		"MeleeATKID": 0,
		"RangeATKID": 0,
		"SkillID": 0
	},
	{
		"ID": 6301,
		"Name": "觅心游医",
		"Model": "Spine/General/Lainforce_ABS/Lainforce_Skin01/Lainforce_Skin01_Prefab.prefab",
		"CombatModel": "",
		"ModelScale": 0,
		"BFModelScale": 0,
		"UIModelScale": 0,
		"UIModelOffsetX": 0,
		"UIModelOffsetY": 0,
		"MeleeATKID": 0,
		"RangeATKID": 0,
		"SkillID": 0
	},
	{
		"ID": 63011,
		"Name": "觅心游医",
		"Model": "Spine/General/Lainforce_ABS/Lainforce_Skin01_1/Lainforce_Skin01_1_Prefab.prefab",
		"CombatModel": "",
		"ModelScale": 0,
		"BFModelScale": 0,
		"UIModelScale": 0,
		"UIModelOffsetX": 0,
		"UIModelOffsetY": 0,
		"MeleeATKID": 0,
		"RangeATKID": 0,
		"SkillID": 0
	},
	{
		"ID": 8701,
		"Name": "绯红之剑",
		"Model": "Spine/General/Betty_ABS/Betty_Skin01/Betty_Skin01_Prefab.prefab",
		"CombatModel": "",
		"ModelScale": 0,
		"BFModelScale": 0,
		"UIModelScale": 0,
		"UIModelOffsetX": 0,
		"UIModelOffsetY": 0,
		"MeleeATKID": 0,
		"RangeATKID": 0,
		"SkillID": 0
	},
	{
		"ID": 87011,
		"Name": "绯红之剑",
		"Model": "Spine/General/Betty_ABS/Betty_Skin01_1/Betty_Skin01_1_Prefab.prefab",
		"CombatModel": "",
		"ModelScale": 0,
		"BFModelScale": 0,
		"UIModelScale": 0,
		"UIModelOffsetX": 0,
		"UIModelOffsetY": 0,
		"MeleeATKID": 0,
		"RangeATKID": 0,
		"SkillID": 0
	},
	{
		"ID": 2899,
		"Name": "蔚蓝宝贝",
		"Model": "Spine/General/Zalrahda_ABS/Zalrahda_Skin04/Zalrahda_Skin04_Prefab.prefab",
		"CombatModel": "",
		"ModelScale": 65,
		"BFModelScale": 65,
		"UIModelScale": 55,
		"UIModelOffsetX": 0,
		"UIModelOffsetY": 10,
		"MeleeATKID": 0,
		"RangeATKID": 0,
		"SkillID": 0
	},
	{
		"ID": 1899,
		"Name": "炽热丽姬",
		"Model": "Spine/General/Imelda_ABS/Imelda_Skin02/Imelda_Skin02_Prefab.prefab",
		"CombatModel": "",
		"ModelScale": 0,
		"BFModelScale": 0,
		"UIModelScale": 0,
		"UIModelOffsetX": 0,
		"UIModelOffsetY": 0,
		"MeleeATKID": 0,
		"RangeATKID": 0,
		"SkillID": 0
	},
	{
		"ID": 104,
		"Name": "铸剑的英雄",
		"Model": "Spine/General/Mathew_ABS/Mathew_Skin03/Mathew_Skin03_Prefab.prefab",
		"CombatModel": "",
		"ModelScale": 0,
		"BFModelScale": 0,
		"UIModelScale": 0,
		"UIModelOffsetX": 0,
		"UIModelOffsetY": 0,
		"MeleeATKID": 0,
		"RangeATKID": 0,
		"SkillID": 0
	},
	{
		"ID": 1041,
		"Name": "铸剑的英雄",
		"Model": "Spine/General/Mathew_ABS/Mathew_Skin03_1/Mathew_Skin03_1_Prefab.prefab",
		"CombatModel": "",
		"ModelScale": 0,
		"BFModelScale": 0,
		"UIModelScale": 0,
		"UIModelOffsetX": 0,
		"UIModelOffsetY": 0,
		"MeleeATKID": 0,
		"RangeATKID": 0,
		"SkillID": 0
	},
	{
		"ID": 1042,
		"Name": "铸剑的英雄",
		"Model": "Spine/General/Mathew_ABS/Mathew_Skin03_2/Mathew_Skin03_2_Prefab.prefab",
		"CombatModel": "",
		"ModelScale": 0,
		"BFModelScale": 0,
		"UIModelScale": 0,
		"UIModelOffsetX": 0,
		"UIModelOffsetY": 0,
		"MeleeATKID": 0,
		"RangeATKID": 0,
		"SkillID": 0
	},
	{
		"ID": 1043,
		"Name": "铸剑的英雄",
		"Model": "Spine/General/Mathew_ABS/Mathew_Skin03_3/Mathew_Skin03_3_Prefab.prefab",
		"CombatModel": "Spine/General/Mathew_ABS/Mathew_Skin03_3/Mathew_Skin03_3_air_Prefab.prefab",
		"ModelScale": 0,
		"BFModelScale": 0,
		"UIModelScale": 0,
		"UIModelOffsetX": 0,
		"UIModelOffsetY": 0,
		"MeleeATKID": 0,
		"RangeATKID": 0,
		"SkillID": 0
	},
	{
		"ID": 1044,
		"Name": "铸剑的英雄",
		"Model": "Spine/General/Mathew_ABS/Mathew_Skin03_4/Mathew_Skin03_4_Prefab.prefab",
		"CombatModel": "",
		"ModelScale": 0,
		"BFModelScale": 0,
		"UIModelScale": 0,
		"UIModelOffsetX": 0,
		"UIModelOffsetY": 0,
		"MeleeATKID": 0,
		"RangeATKID": 0,
		"SkillID": 0
	},
	{
		"ID": 2804,
		"Name": "羁绊的锋刃",
		"Model": "Spine/General/Zalrahda_ABS/Zalrahda_Skin05/Zalrahda_Skin05_Prefab.prefab",
		"CombatModel": "",
		"ModelScale": 0,
		"BFModelScale": 0,
		"UIModelScale": 0,
		"UIModelOffsetX": 0,
		"UIModelOffsetY": 0,
		"MeleeATKID": 0,
		"RangeATKID": 0,
		"SkillID": 0
	},
	{
		"ID": 2201,
		"Name": "光辉的启蒙",
		"Model": "Spine/General/Jessica_ABS/Jessica_Skin01/Jessica_Skin01_Prefab.prefab",
		"CombatModel": "",
		"ModelScale": 0,
		"BFModelScale": 0,
		"UIModelScale": 0,
		"UIModelOffsetX": 0,
		"UIModelOffsetY": 0,
		"MeleeATKID": 0,
		"RangeATKID": 0,
		"SkillID": 0
	},
	{
		"ID": 6102,
		"Name": "冰原雪女",
		"Model": "Spine/General/Lambda_ABS/Lambda_Skin02/Lambda_Skin02_Prefab.prefab",
		"CombatModel": "",
		"ModelScale": 0,
		"BFModelScale": 0,
		"UIModelScale": 0,
		"UIModelOffsetX": 0,
		"UIModelOffsetY": 0,
		"MeleeATKID": 0,
		"RangeATKID": 0,
		"SkillID": 0
	},
	{
		"ID": 9201,
		"Name": "真红少女",
		"Model": "Spine/General/PeakJessica_ABS/PeakJessica_Skin01/PeakJessica_Skin01_Prefab.prefab",
		"CombatModel": "",
		"ModelScale": 0,
		"BFModelScale": 0,
		"UIModelScale": 0,
		"UIModelOffsetX": 0,
		"UIModelOffsetY": 0,
		"MeleeATKID": 0,
		"RangeATKID": 0,
		"SkillID": 0
	},
	{
		"ID": 92011,
		"Name": "真红少女",
		"Model": "Spine/General/PeakJessica_ABS/PeakJessica_Skin01_1/PeakJessica_Skin01_1_Prefab.prefab",
		"CombatModel": "",
		"ModelScale": 0,
		"BFModelScale": 0,
		"UIModelScale": 0,
		"UIModelOffsetX": 0,
		"UIModelOffsetY": 0,
		"MeleeATKID": 0,
		"RangeATKID": 0,
		"SkillID": 0
	},
	{
		"ID": 9101,
		"Name": "黑金时代",
		"Model": "Spine/General/Emilia_ABS/Emilia_Skin01/Emilia_Skin01_Prefab.prefab",
		"CombatModel": "",
		"ModelScale": 0,
		"BFModelScale": 0,
		"UIModelScale": 0,
		"UIModelOffsetX": 0,
		"UIModelOffsetY": 0,
		"MeleeATKID": 0,
		"RangeATKID": 0,
		"SkillID": 0
	},
	{
		"ID": 91011,
		"Name": "黑金时代",
		"Model": "Spine/General/Emilia_ABS/Emilia_Skin01_1/Emilia_Skin01_1_Prefab.prefab",
		"CombatModel": "",
		"ModelScale": 0,
		"BFModelScale": 0,
		"UIModelScale": 0,
		"UIModelOffsetX": 0,
		"UIModelOffsetY": 0,
		"MeleeATKID": 0,
		"RangeATKID": 0,
		"SkillID": 0
	},
	{
		"ID": 2904,
		"Name": "堇色月姬",
		"Model": "Spine/General/Tialice_ABS/Tialice_Skin04/Tialice_Skin04_Prefab.prefab",
		"CombatModel": "",
		"ModelScale": 0,
		"BFModelScale": 0,
		"UIModelScale": 0,
		"UIModelOffsetX": 0,
		"UIModelOffsetY": 0,
		"MeleeATKID": 0,
		"RangeATKID": 0,
		"SkillID": 0
	},
	{
		"ID": 5199,
		"Name": "活泼助力",
		"Model": "Spine/General/Schelfaniel_ABS/Schelfaniel_Skin03/Schelfaniel_Skin03_Prefab.prefab",
		"CombatModel": "",
		"ModelScale": 0,
		"BFModelScale": 0,
		"UIModelScale": 0,
		"UIModelOffsetX": 0,
		"UIModelOffsetY": 0,
		"MeleeATKID": 0,
		"RangeATKID": 0,
		"SkillID": 0
	},
	{
		"ID": 5299,
		"Name": "闪耀应援",
		"Model": "Spine/General/Angelina_ABS/Angelina_Skin03/Angelina_Skin03_Prefab.prefab",
		"CombatModel": "",
		"ModelScale": 0,
		"BFModelScale": 0,
		"UIModelScale": 0,
		"UIModelOffsetX": 0,
		"UIModelOffsetY": 0,
		"MeleeATKID": 0,
		"RangeATKID": 0,
		"SkillID": 0
	},
	{
		"ID": 52991,
		"Name": "闪耀应援",
		"Model": "Spine/General/Angelina_ABS/Angelina_Skin03_1/Angelina_Skin03_1_Prefab.prefab",
		"CombatModel": "Spine/General/Angelina_ABS/Angelina_Skin03_1/Angelina_Skin03_1_air_Prefab.prefab",
		"ModelScale": 0,
		"BFModelScale": 0,
		"UIModelScale": 0,
		"UIModelOffsetX": 0,
		"UIModelOffsetY": 0,
		"MeleeATKID": 0,
		"RangeATKID": 0,
		"SkillID": 0
	},
	{
		"ID": 6501,
		"Name": "寅虎之拳",
		"Model": "Spine/General/Virash_ABS/Virash_Skin01/Virash_Skin01_Prefab.prefab",
		"CombatModel": "",
		"ModelScale": 0,
		"BFModelScale": 0,
		"UIModelScale": 0,
		"UIModelOffsetX": 0,
		"UIModelOffsetY": 0,
		"MeleeATKID": 0,
		"RangeATKID": 0,
		"SkillID": 0
	},
	{
		"ID": 9301,
		"Name": "乐园守护者",
		"Model": "Spine/General/MysteryKnight_ABS/MysteryKnight_Skin01/MysteryKnight_Skin01_Prefab.prefab",
		"CombatModel": "",
		"ModelScale": 0,
		"BFModelScale": 0,
		"UIModelScale": 0,
		"UIModelOffsetX": 0,
		"UIModelOffsetY": 0,
		"MeleeATKID": 0,
		"RangeATKID": 0,
		"SkillID": 0
	},
	{
		"ID": 6002,
		"Name": "守望之刃",
		"Model": "Spine/General/Sigma_ABS/Sigma_Skin02/Sigma_Skin02_Prefab.prefab",
		"CombatModel": "",
		"ModelScale": 0,
		"BFModelScale": 0,
		"UIModelScale": 0,
		"UIModelOffsetX": 0,
		"UIModelOffsetY": 0,
		"MeleeATKID": 0,
		"RangeATKID": 0,
		"SkillID": 0
	},
	{
		"ID": 60021,
		"Name": "守望之刃",
		"Model": "Spine/General/Sigma_ABS/Sigma_Skin02_1/Sigma_Skin02_1_Prefab.prefab",
		"CombatModel": "",
		"ModelScale": 0,
		"BFModelScale": 0,
		"UIModelScale": 0,
		"UIModelOffsetX": 0,
		"UIModelOffsetY": 0,
		"MeleeATKID": 0,
		"RangeATKID": 0,
		"SkillID": 0
	},
	{
		"ID": 3801,
		"Name": "黑骑士万圣",
		"Model": "Spine/General/JellioruLela_ABS/JellioruLela_Skin01/JellioruLela_Skin01_Prefab.prefab",
		"CombatModel": "",
		"ModelScale": 0,
		"BFModelScale": 0,
		"UIModelScale": 0,
		"UIModelOffsetX": 0,
		"UIModelOffsetY": 0,
		"MeleeATKID": 0,
		"RangeATKID": 0,
		"SkillID": 0
	},
	{
		"ID": 3101,
		"Name": "索菲亚万圣",
		"Model": "Spine/General/Sofia_ABS/Sofia_Skin01/Sofia_Skin01_Prefab.prefab",
		"CombatModel": "",
		"ModelScale": 0,
		"BFModelScale": 0,
		"UIModelScale": 0,
		"UIModelOffsetX": 0,
		"UIModelOffsetY": 0,
		"MeleeATKID": 0,
		"RangeATKID": 0,
		"SkillID": 0
	},
	{
		"ID": 31011,
		"Name": "索菲亚万圣",
		"Model": "Spine/General/Sofia_ABS/Sofia_Skin01_1/Sofia_Skin01_1_Prefab.prefab",
		"CombatModel": "",
		"ModelScale": 0,
		"BFModelScale": 0,
		"UIModelScale": 0,
		"UIModelOffsetX": 0,
		"UIModelOffsetY": 0,
		"MeleeATKID": 0,
		"RangeATKID": 0,
		"SkillID": 0
	},
	{
		"ID": 604,
		"Name": "利昂冠军",
		"Model": "Spine/General/Leon_ABS/Leon_Skin04/Leon_Skin04_Prefab.prefab",
		"CombatModel": "",
		"ModelScale": 0,
		"BFModelScale": 0,
		"UIModelScale": 0,
		"UIModelOffsetX": 0,
		"UIModelOffsetY": 0,
		"MeleeATKID": 0,
		"RangeATKID": 0,
		"SkillID": 0
	},
	{
		"ID": 3401,
		"Name": "雾风S3",
		"Model": "Spine/General/Kirikaze_ABS/Kirikaze_Skin/Kirikaze_Skin_Prefab.prefab",
		"CombatModel": "",
		"ModelScale": 0,
		"BFModelScale": 0,
		"UIModelScale": 0,
		"UIModelOffsetX": 0,
		"UIModelOffsetY": 0,
		"MeleeATKID": 0,
		"RangeATKID": 0,
		"SkillID": 0
	},
	{
		"ID": 9401,
		"Name": "阿卡娅光之回响",
		"Model": "Spine/General/Aka_ABS/Aka_Skin01/Aka_Skin01_Prefab.prefab",
		"CombatModel": "",
		"ModelScale": 0,
		"BFModelScale": 0,
		"UIModelScale": 0,
		"UIModelOffsetX": 0,
		"UIModelOffsetY": 0,
		"MeleeATKID": 0,
		"RangeATKID": 0,
		"SkillID": 0
	},
	{
		"ID": 94011,
		"Name": "阿卡娅光之回响",
		"Model": "Spine/General/Aka_ABS/Aka_Skin01_1/Aka_Skin01_1_Prefab.prefab",
		"CombatModel": "",
		"ModelScale": 0,
		"BFModelScale": 0,
		"UIModelScale": 0,
		"UIModelOffsetX": 0,
		"UIModelOffsetY": 0,
		"MeleeATKID": 0,
		"RangeATKID": 0,
		"SkillID": 0
	},
	{
		"ID": 6401,
		"Name": "布琳达光之回响",
		"Model": "Spine/General/Brenda_ABS/Brenda_Skin01/Brenda_Skin01_Prefab.prefab",
		"CombatModel": "",
		"ModelScale": 0,
		"BFModelScale": 0,
		"UIModelScale": 0,
		"UIModelOffsetX": 0,
		"UIModelOffsetY": 0,
		"MeleeATKID": 0,
		"RangeATKID": 0,
		"SkillID": 0
	},
	{
		"ID": 64011,
		"Name": "布琳达光之回响",
		"Model": "Spine/General/Brenda_ABS/Brenda_Skin01_1/Brenda_Skin01_1_Prefab.prefab",
		"CombatModel": "",
		"ModelScale": 0,
		"BFModelScale": 0,
		"UIModelScale": 0,
		"UIModelOffsetX": 0,
		"UIModelOffsetY": 0,
		"MeleeATKID": 0,
		"RangeATKID": 0,
		"SkillID": 0
	},
	{
		"ID": 6602,
		"Name": "克拉蕾特哲学",
		"Model": "Spine/General/Clarett_ABS/Clarett_Skin02/Clarett_Skin02_Prefab.prefab",
		"CombatModel": "",
		"ModelScale": 0,
		"BFModelScale": 0,
		"UIModelScale": 0,
		"UIModelOffsetX": 0,
		"UIModelOffsetY": 0,
		"MeleeATKID": 0,
		"RangeATKID": 0,
		"SkillID": 0
	},
	{
		"ID": 66021,
		"Name": "克拉蕾特哲学",
		"Model": "Spine/General/Clarett_ABS/Clarett_Skin02_1/Clarett_Skin02_1_Prefab.prefab",
		"CombatModel": "Spine/General/Clarett_ABS/Clarett_Skin02_1/Clarett_Skin02_1_air_Prefab.prefab",
		"ModelScale": 0,
		"BFModelScale": 0,
		"UIModelScale": 0,
		"UIModelOffsetX": 0,
		"UIModelOffsetY": 0,
		"MeleeATKID": 0,
		"RangeATKID": 0,
		"SkillID": 0
	},
	{
		"ID": 5602,
		"Name": "星穹使者",
		"Model": "Spine/General/Rachel_ABS/Rachel_Skin02/Rachel_Ski02_Prefab.prefab",
		"CombatModel": "",
		"ModelScale": 0,
		"BFModelScale": 0,
		"UIModelScale": 0,
		"UIModelOffsetX": 0,
		"UIModelOffsetY": 0,
		"MeleeATKID": 0,
		"RangeATKID": 0,
		"SkillID": 0
	},
	{
		"ID": 56021,
		"Name": "星穹使者",
		"Model": "Spine/General/Rachel_ABS/Rachel_Skin02_1/Rachel_Skin02_1_Prefab.prefab",
		"CombatModel": "",
		"ModelScale": 0,
		"BFModelScale": 0,
		"UIModelScale": 0,
		"UIModelOffsetX": 0,
		"UIModelOffsetY": 0,
		"MeleeATKID": 0,
		"RangeATKID": 0,
		"SkillID": 0
	},
	{
		"ID": 2503,
		"Name": "元帅学生会",
		"Model": "Spine/General/Alutemurat_ABS/Alutemurat_Skin03/Alutemurat_Skin03_Prefab.prefab",
		"CombatModel": "Spine/General/Alutemurat_ABS/Alutemurat_Skin03/Alutemurat_Skin03_air_Prefab.prefab",
		"ModelScale": 0,
		"BFModelScale": 0,
		"UIModelScale": 0,
		"UIModelOffsetX": 0,
		"UIModelOffsetY": 0,
		"MeleeATKID": 0,
		"RangeATKID": 0,
		"SkillID": 0
	},
	{
		"ID": 25031,
		"Name": "元帅学生会",
		"Model": "Spine/General/Alutemurat_ABS/Alutemurat_Skin03_1/Alutemurat_Skin03_1_Prefab.prefab",
		"CombatModel": "",
		"ModelScale": 0,
		"BFModelScale": 0,
		"UIModelScale": 0,
		"UIModelOffsetX": 0,
		"UIModelOffsetY": 0,
		"MeleeATKID": 0,
		"RangeATKID": 0,
		"SkillID": 0
	},
	{
		"ID": 3001,
		"Name": "莉法妮学生会",
		"Model": "Spine/General/Leafani_ABS/Leafani_Skin01/Leafani_Skin01_Prefab.prefab",
		"CombatModel": "",
		"ModelScale": 0,
		"BFModelScale": 0,
		"UIModelScale": 0,
		"UIModelOffsetX": 0,
		"UIModelOffsetY": 0,
		"MeleeATKID": 0,
		"RangeATKID": 0,
		"SkillID": 0
	},
	{
		"ID": 94001,
		"Name": "狼魂",
		"Model": "Spine/Soldier/Aka_Wolfspirit_ABS/Aka_Wolfspirit_Skin01/Aka_Wolfspirit_Skin01_Prefab.prefab",
		"CombatModel": "",
		"ModelScale": 0,
		"BFModelScale": 0,
		"UIModelScale": 0,
		"UIModelOffsetX": 0,
		"UIModelOffsetY": 0,
		"MeleeATKID": 0,
		"RangeATKID": 0,
		"SkillID": 0
	},
	{
		"ID": 94002,
		"Name": "狼魂",
		"Model": "Spine/Soldier/Aka_Wolfspirit_ABS/Aka_Wolfspirit_Skin01/Aka_Wolfspirit_Skin01_Prefab.prefab",
		"CombatModel": "",
		"ModelScale": 0,
		"BFModelScale": 0,
		"UIModelScale": 0,
		"UIModelOffsetX": 0,
		"UIModelOffsetY": 0,
		"MeleeATKID": 0,
		"RangeATKID": 0,
		"SkillID": 0
	},
	{
		"ID": 7701,
		"Name": "自由骑士",
		"Model": "Spine/General/Parn_ABS/Parn_Skin01/Parn_Skin01_Prefab.prefab",
		"CombatModel": "",
		"ModelScale": 0,
		"BFModelScale": 0,
		"UIModelScale": 0,
		"UIModelOffsetX": 0,
		"UIModelOffsetY": 0,
		"MeleeATKID": 0,
		"RangeATKID": 0,
		"SkillID": 0
	},
	{
		"ID": 77011,
		"Name": "自由骑士",
		"Model": "Spine/General/Parn_ABS/Parn_Skin01_1/Parn_Skin01_1_Prefab.prefab",
		"CombatModel": "",
		"ModelScale": 0,
		"BFModelScale": 0,
		"UIModelScale": 0,
		"UIModelOffsetX": 0,
		"UIModelOffsetY": 0,
		"MeleeATKID": 0,
		"RangeATKID": 0,
		"SkillID": 0
	},
	{
		"ID": 7501,
		"Name": "白色妖精恋曲",
		"Model": "Spine/General/Deedlit_ABS/Deedlit_Skin01/Deedlit_Skin01_Prefab.prefab",
		"CombatModel": "",
		"ModelScale": 0,
		"BFModelScale": 0,
		"UIModelScale": 0,
		"UIModelOffsetX": 0,
		"UIModelOffsetY": 0,
		"MeleeATKID": 0,
		"RangeATKID": 0,
		"SkillID": 0
	},
	{
		"ID": 75011,
		"Name": "白色妖精恋曲",
		"Model": "Spine/General/Deedlit_ABS/Deedlit_Skin01_1/Deedlit_Skin01_1_Prefab.prefab",
		"CombatModel": "",
		"ModelScale": 0,
		"BFModelScale": 0,
		"UIModelScale": 0,
		"UIModelOffsetX": 0,
		"UIModelOffsetY": 0,
		"MeleeATKID": 0,
		"RangeATKID": 0,
		"SkillID": 0
	},
	{
		"ID": 5901,
		"Name": "恶国狮子",
		"Model": "Spine/General/Gizlof_ABS/Gizlof_Skin01/Gizlof_Skin01_Prefab.prefab",
		"CombatModel": "",
		"ModelScale": 0,
		"BFModelScale": 0,
		"UIModelScale": 0,
		"UIModelOffsetX": 0,
		"UIModelOffsetY": 0,
		"MeleeATKID": 0,
		"RangeATKID": 0,
		"SkillID": 0
	},
	{
		"ID": 59001,
		"Name": "组构体",
		"Model": "Spine/Soldier/Robot_ABS/Robot_Skin01/Robot_Skine01_Prefab.prefab",
		"CombatModel": "",
		"ModelScale": 0,
		"BFModelScale": 0,
		"UIModelScale": 0,
		"UIModelOffsetX": 0,
		"UIModelOffsetY": 0,
		"MeleeATKID": 0,
		"RangeATKID": 0,
		"SkillID": 0
	},
	{
		"ID": 59002,
		"Name": "组构体",
		"Model": "Spine/Soldier/Robot_ABS/Robot_Skin01/Robot_Skine01_Prefab.prefab",
		"CombatModel": "",
		"ModelScale": 0,
		"BFModelScale": 0,
		"UIModelScale": 0,
		"UIModelOffsetX": 0,
		"UIModelOffsetY": 0,
		"MeleeATKID": 0,
		"RangeATKID": 0,
		"SkillID": 0
	},
	{
		"ID": 1003,
		"Name": "醒狮迎岁",
		"Model": "Spine/General/Ledin_ABS/Ledin_Skin03/Ledin_Skin03_Prefab.prefab",
		"CombatModel": "",
		"ModelScale": 0,
		"BFModelScale": 0,
		"UIModelScale": 0,
		"UIModelOffsetX": 0,
		"UIModelOffsetY": 0,
		"MeleeATKID": 0,
		"RangeATKID": 0,
		"SkillID": 0
	},
	{
		"ID": 503,
		"Name": "锦绣佳缘",
		"Model": "Spine/General/Chris_ABS/Chris_Skin03/Chris_Skin03_Prefab.prefab",
		"CombatModel": "",
		"ModelScale": 0,
		"BFModelScale": 0,
		"UIModelScale": 0,
		"UIModelOffsetX": 0,
		"UIModelOffsetY": 0,
		"MeleeATKID": 0,
		"RangeATKID": 0,
		"SkillID": 0
	},
	{
		"ID": 11001,
		"Name": "混沌幻想",
		"Model": "Spine/General/Ares_ABS/Ares_Skin01/Ares_Skin01_Prefab.prefab",
		"CombatModel": "",
		"ModelScale": 0,
		"BFModelScale": 0,
		"UIModelScale": 0,
		"UIModelOffsetX": 0,
		"UIModelOffsetY": 0,
		"MeleeATKID": 0,
		"RangeATKID": 0,
		"SkillID": 0
	},
	{
		"ID": 110011,
		"Name": "混沌幻想",
		"Model": "Spine/General/Ares_ABS/Ares_Skin01_1/Ares_Skin01_1_Prefab.prefab",
		"CombatModel": "Spine/General/Ares_ABS/Ares_Skin01_1/Ares_Skin01_1_air_Prefab.prefab",
		"ModelScale": 0,
		"BFModelScale": 0,
		"UIModelScale": 0,
		"UIModelOffsetX": 0,
		"UIModelOffsetY": 0,
		"MeleeATKID": 0,
		"RangeATKID": 0,
		"SkillID": 0
	},
	{
		"ID": 11101,
		"Name": "刺云胭脂",
		"Model": "Spine/General/Maiya_ABS/Maiya_Skin01/Maiya_Skin01_Prefab.prefab",
		"CombatModel": "",
		"ModelScale": 0,
		"BFModelScale": 0,
		"UIModelScale": 0,
		"UIModelOffsetX": 0,
		"UIModelOffsetY": 0,
		"MeleeATKID": 0,
		"RangeATKID": 0,
		"SkillID": 0
	},
	{
		"ID": 8702,
		"Name": "风华堇夜",
		"Model": "Spine/General/Betty_ABS/Betty_Skin02/Betty_Skin02_Prefab.prefab",
		"CombatModel": "",
		"ModelScale": 0,
		"BFModelScale": 0,
		"UIModelScale": 0,
		"UIModelOffsetX": 0,
		"UIModelOffsetY": 0,
		"MeleeATKID": 0,
		"RangeATKID": 0,
		"SkillID": 0
	},
	{
		"ID": 1103,
		"Name": "爱心蘸酱",
		"Model": "Spine/General/Norm_ABS/Norm_Skin03/Norm_Skin03_Prefab.prefab",
		"CombatModel": "",
		"ModelScale": 0,
		"BFModelScale": 0,
		"UIModelScale": 0,
		"UIModelOffsetX": 0,
		"UIModelOffsetY": 0,
		"MeleeATKID": 0,
		"RangeATKID": 0,
		"SkillID": 0
	},
	{
		"ID": 11031,
		"Name": "爱心蘸酱",
		"Model": "Spine/General/Norm_ABS/Norm_Skin03_1/Norm_Skin03_1_Prefab.prefab",
		"CombatModel": "Spine/General/Norm_ABS/Norm_Skin03_1/Norm_Skin03_1_air_Prefab.prefab",
		"ModelScale": 0,
		"BFModelScale": 0,
		"UIModelScale": 0,
		"UIModelOffsetX": 0,
		"UIModelOffsetY": 0,
		"MeleeATKID": 0,
		"RangeATKID": 0,
		"SkillID": 0
	},
	{
		"ID": 8902,
		"Name": "凯旋的终时",
		"Model": "Spine/General/Yulia_ABS/Yulia_Skin02/Yulia_Skin02_Prefab.prefab",
		"CombatModel": "",
		"ModelScale": 0,
		"BFModelScale": 0,
		"UIModelScale": 0,
		"UIModelOffsetX": 0,
		"UIModelOffsetY": 0,
		"MeleeATKID": 0,
		"RangeATKID": 0,
		"SkillID": 0
	},
	{
		"ID": 5801,
		"Name": "钢铁的英姿",
		"Model": "Spine/General/Serena_ABS/Serena_Skin01/Serena_Skin01_Prefab.prefab",
		"CombatModel": "",
		"ModelScale": 0,
		"BFModelScale": 0,
		"UIModelScale": 0,
		"UIModelOffsetX": 0,
		"UIModelOffsetY": 0,
		"MeleeATKID": 0,
		"RangeATKID": 0,
		"SkillID": 0
	},
	{
		"ID": 5702,
		"Name": "最后致意",
		"Model": "Spine/General/Wiler_ABS/Wiler_Skin02/Wiler_Skin02_Prefab.prefab",
		"CombatModel": "",
		"ModelScale": 0,
		"BFModelScale": 0,
		"UIModelScale": 0,
		"UIModelOffsetX": 0,
		"UIModelOffsetY": 0,
		"MeleeATKID": 0,
		"RangeATKID": 0,
		"SkillID": 0
	},
	{
		"ID": 103011,
		"Name": "仇誓黯羽",
		"Model": "Spine/General/Sirink_ABS/Sirink_Skin01/Sirink_Skin01_Prefab.prefab",
		"CombatModel": "",
		"ModelScale": 0,
		"BFModelScale": 0,
		"UIModelScale": 0,
		"UIModelOffsetX": 0,
		"UIModelOffsetY": 0,
		"MeleeATKID": 0,
		"RangeATKID": 0,
		"SkillID": 0
	},
	{
		"ID": 1030111,
		"Name": "仇誓黯羽",
		"Model": "Spine/General/Sirink_ABS/Sirink_Skin01_1/Sirink_Skin01_1_Prefab.prefab",
		"CombatModel": "Spine/General/Sirink_ABS/Sirink_Skin01_1/Sirink_Skin01_1_air_Prefab.prefab",
		"ModelScale": 0,
		"BFModelScale": 0,
		"UIModelScale": 0,
		"UIModelOffsetX": 0,
		"UIModelOffsetY": 0,
		"MeleeATKID": 0,
		"RangeATKID": 0,
		"SkillID": 0
	},
	{
		"ID": 9701,
		"Name": "烂漫盛花",
		"Model": "Spine/General/Elucia_ABS/Elucia_Skin01/Elucia_Skin01_Prefab.prefab",
		"CombatModel": "",
		"ModelScale": 0,
		"BFModelScale": 0,
		"UIModelScale": 0,
		"UIModelOffsetX": 0,
		"UIModelOffsetY": 0,
		"MeleeATKID": 0,
		"RangeATKID": 0,
		"SkillID": 0
	},
	{
		"ID": 97011,
		"Name": "烂漫盛花",
		"Model": "Spine/General/Elucia_ABS/Elucia_Skin01_1/Elucia_Skin01_1_Prefab.prefab",
		"CombatModel": "",
		"ModelScale": 0,
		"BFModelScale": 0,
		"UIModelScale": 0,
		"UIModelOffsetX": 0,
		"UIModelOffsetY": 0,
		"MeleeATKID": 0,
		"RangeATKID": 0,
		"SkillID": 0
	},
	{
		"ID": 5603,
		"Name": "漫心情结",
		"Model": "Spine/General/Rachel_ABS/Rachel_Skin03/Rachel_Skin03_Prefab.prefab",
		"CombatModel": "",
		"ModelScale": 0,
		"BFModelScale": 0,
		"UIModelScale": 0,
		"UIModelOffsetX": 0,
		"UIModelOffsetY": 0,
		"MeleeATKID": 0,
		"RangeATKID": 0,
		"SkillID": 0
	},
	{
		"ID": 56031,
		"Name": "漫心情结",
		"Model": "Spine/General/Rachel_ABS/Rachel_Skin03_1/Rachel_Skin03_1_Prefab.prefab",
		"CombatModel": "",
		"ModelScale": 0,
		"BFModelScale": 0,
		"UIModelScale": 0,
		"UIModelOffsetX": 0,
		"UIModelOffsetY": 0,
		"MeleeATKID": 0,
		"RangeATKID": 0,
		"SkillID": 0
	},
	{
		"ID": 4902,
		"Name": "迷情甜蜜",
		"Model": "Spine/General/Fana_ABS/Fana_Skin02/Fana_Skin02_Prefab.prefab",
		"CombatModel": "",
		"ModelScale": 0,
		"BFModelScale": 0,
		"UIModelScale": 0,
		"UIModelOffsetX": 0,
		"UIModelOffsetY": 0,
		"MeleeATKID": 0,
		"RangeATKID": 0,
		"SkillID": 0
	},
	{
		"ID": 49021,
		"Name": "迷情甜蜜",
		"Model": "Spine/General/Fana_ABS/Fana_Skin02_1/Fana_Skin02_1_Prefab.prefab",
		"CombatModel": "Spine/General/Fana_ABS/Fana_Skin02_1/Fana_Skin02_1_air_Prefab.prefab",
		"ModelScale": 0,
		"BFModelScale": 0,
		"UIModelScale": 0,
		"UIModelOffsetX": 0,
		"UIModelOffsetY": 0,
		"MeleeATKID": 0,
		"RangeATKID": 0,
		"SkillID": 0
	}
]