[
	{
		"ID": 1,
		"Name": "村庄",
		"Desc": "村庄",
		"FuncType": "CollectionActivityWaypointFuncType_Default",
		"WaypointsID": [
			6,
			11
		],
		"Model": "CollectionActivityMap/Waypoint1_ABS/Icon_Christmas3_Prefab.prefab",
		"InitState": "CollectionActivityWaypointStateType_Unlocked",
		"ScenarioLevelIdList": [
			4,
			6,
			12,
			15,
			23
		],
		"ChallengeLevelIdList": [
			1
		],
		"LootLevelIdList": [
			4,
			15,
			16
		]
	},
	{
		"ID": 2,
		"Name": "营地",
		"Desc": "营地",
		"FuncType": "CollectionActivityWaypointFuncType_Default",
		"WaypointsID": [
			9,
			12
		],
		"Model": "CollectionActivityMap/Waypoint1_ABS/Icon_Christmas1_Prefab.prefab",
		"InitState": "CollectionActivityWaypointStateType_Unlocked",
		"ScenarioLevelIdList": [
			1,
			8,
			9,
			16,
			19,
			22,
			26
		],
		"ChallengeLevelIdList": [
			4
		],
		"LootLevelIdList": [
			1,
			5,
			9,
			13
		]
	},
	{
		"ID": 3,
		"Name": "集市",
		"Desc": "集市",
		"FuncType": "CollectionActivityWaypointFuncType_Default",
		"WaypointsID": [
			8
		],
		"Model": "CollectionActivityMap/Waypoint1_ABS/Icon_Christmas4_Prefab.prefab",
		"InitState": "CollectionActivityWaypointStateType_Unlocked",
		"ScenarioLevelIdList": [
			3,
			7,
			11,
			17,
			20,
			25,
			28
		],
		"ChallengeLevelIdList": [
			3
		],
		"LootLevelIdList": [
			8,
			12
		]
	},
	{
		"ID": 4,
		"Name": "咖啡店",
		"Desc": "咖啡店",
		"FuncType": "CollectionActivityWaypointFuncType_Default",
		"WaypointsID": [
			13,
			14
		],
		"Model": "CollectionActivityMap/Waypoint1_ABS/Icon_Christmas5_Prefab.prefab",
		"InitState": "CollectionActivityWaypointStateType_Unlocked",
		"ScenarioLevelIdList": [
			2,
			10,
			14,
			18,
			24,
			27
		],
		"ChallengeLevelIdList": [
			5
		],
		"LootLevelIdList": [
			3,
			7,
			11
		]
	},
	{
		"ID": 5,
		"Name": "山谷",
		"Desc": "山谷",
		"FuncType": "CollectionActivityWaypointFuncType_Default",
		"WaypointsID": [
			16
		],
		"Model": "CollectionActivityMap/Waypoint1_ABS/Icon_Christmas2_Prefab.prefab",
		"InitState": "CollectionActivityWaypointStateType_Unlocked",
		"ScenarioLevelIdList": [
			5,
			13,
			21
		],
		"ChallengeLevelIdList": [
			2
		],
		"LootLevelIdList": [
			2,
			6,
			10,
			14
		]
	},
	{
		"ID": 6,
		"Name": "路点6",
		"Desc": "路点6",
		"FuncType": "CollectionActivityWaypointFuncType_Empty",
		"WaypointsID": [
			1,
			7
		],
		"Model": "CollectionActivityMap/Waypoint1_ABS/Icon-ThePlace_Prefab.prefab",
		"InitState": "CollectionActivityWaypointStateType_Unlocked"
	},
	{
		"ID": 7,
		"Name": "路点7",
		"Desc": "路点7",
		"FuncType": "CollectionActivityWaypointFuncType_Empty",
		"WaypointsID": [
			6,
			8
		],
		"Model": "CollectionActivityMap/Waypoint1_ABS/Icon-ThePlace_Prefab.prefab",
		"InitState": "CollectionActivityWaypointStateType_Unlocked"
	},
	{
		"ID": 8,
		"Name": "路点8",
		"Desc": "路点8",
		"FuncType": "CollectionActivityWaypointFuncType_Empty",
		"WaypointsID": [
			7,
			3
		],
		"Model": "CollectionActivityMap/Waypoint1_ABS/Icon-ThePlace_Prefab.prefab",
		"InitState": "CollectionActivityWaypointStateType_Unlocked"
	},
	{
		"ID": 9,
		"Name": "路点9",
		"Desc": "路点9",
		"FuncType": "CollectionActivityWaypointFuncType_Empty",
		"WaypointsID": [
			2,
			10
		],
		"Model": "CollectionActivityMap/Waypoint1_ABS/Icon-ThePlace_Prefab.prefab",
		"InitState": "CollectionActivityWaypointStateType_Unlocked"
	},
	{
		"ID": 10,
		"Name": "路点10",
		"Desc": "路点10",
		"FuncType": "CollectionActivityWaypointFuncType_Empty",
		"WaypointsID": [
			9,
			11
		],
		"Model": "CollectionActivityMap/Waypoint1_ABS/Icon-ThePlace_Prefab.prefab",
		"InitState": "CollectionActivityWaypointStateType_Unlocked"
	},
	{
		"ID": 11,
		"Name": "路点11",
		"Desc": "路点11",
		"FuncType": "CollectionActivityWaypointFuncType_Empty",
		"WaypointsID": [
			10,
			1
		],
		"Model": "CollectionActivityMap/Waypoint1_ABS/Icon-ThePlace_Prefab.prefab",
		"InitState": "CollectionActivityWaypointStateType_Unlocked"
	},
	{
		"ID": 12,
		"Name": "路点12",
		"Desc": "路点12",
		"FuncType": "CollectionActivityWaypointFuncType_Empty",
		"WaypointsID": [
			2,
			13
		],
		"Model": "CollectionActivityMap/Waypoint1_ABS/Icon-ThePlace_Prefab.prefab",
		"InitState": "CollectionActivityWaypointStateType_Unlocked"
	},
	{
		"ID": 13,
		"Name": "路点13",
		"Desc": "路点13",
		"FuncType": "CollectionActivityWaypointFuncType_Empty",
		"WaypointsID": [
			12,
			4
		],
		"Model": "CollectionActivityMap/Waypoint1_ABS/Icon-ThePlace_Prefab.prefab",
		"InitState": "CollectionActivityWaypointStateType_Unlocked"
	},
	{
		"ID": 14,
		"Name": "路点14",
		"Desc": "路点14",
		"FuncType": "CollectionActivityWaypointFuncType_Empty",
		"WaypointsID": [
			4,
			15
		],
		"Model": "CollectionActivityMap/Waypoint1_ABS/Icon-ThePlace_Prefab.prefab",
		"InitState": "CollectionActivityWaypointStateType_Unlocked"
	},
	{
		"ID": 15,
		"Name": "路点15",
		"Desc": "路点15",
		"FuncType": "CollectionActivityWaypointFuncType_Empty",
		"WaypointsID": [
			14,
			16
		],
		"Model": "CollectionActivityMap/Waypoint1_ABS/Icon-ThePlace_Prefab.prefab",
		"InitState": "CollectionActivityWaypointStateType_Unlocked"
	},
	{
		"ID": 16,
		"Name": "路点16",
		"Desc": "路点16",
		"FuncType": "CollectionActivityWaypointFuncType_Empty",
		"WaypointsID": [
			15,
			5
		],
		"Model": "CollectionActivityMap/Waypoint1_ABS/Icon-ThePlace_Prefab.prefab",
		"InitState": "CollectionActivityWaypointStateType_Unlocked"
	},
	{
		"ID": 101,
		"Name": "剧院",
		"Desc": "剧院",
		"FuncType": "CollectionActivityWaypointFuncType_Default",
		"WaypointsID": [
			106,
			114,
			120,
			121
		],
		"Model": "CollectionActivityMap/Waypoint1_ABS/Icon_Theater_Prefab.prefab",
		"InitState": "CollectionActivityWaypointStateType_Locked",
		"ScenarioLevelIdList": [
			103,
			104,
			105,
			107
		],
		"LootLevelIdList": [
			104
		]
	},
	{
		"ID": 102,
		"Name": "协会据点",
		"Desc": "协会据点",
		"FuncType": "CollectionActivityWaypointFuncType_Default",
		"WaypointsID": [
			108,
			115,
			109
		],
		"Model": "CollectionActivityMap/Waypoint1_ABS/Icon_HimladFort_Prefab.prefab",
		"InitState": "CollectionActivityWaypointStateType_Locked",
		"ScenarioLevelIdList": [
			102
		],
		"ChallengeLevelIdList": [
			101
		],
		"LootLevelIdList": [
			101,
			105,
			107
		]
	},
	{
		"ID": 103,
		"Name": "日落之镇",
		"Desc": "日落之镇",
		"FuncType": "CollectionActivityWaypointFuncType_Default",
		"WaypointsID": [
			111,
			112
		],
		"Model": "CollectionActivityMap/Waypoint1_ABS/Icon_Tonwn_Prefab.prefab",
		"InitState": "CollectionActivityWaypointStateType_Locked",
		"ChallengeLevelIdList": [
			103
		],
		"LootLevelIdList": [
			102,
			106
		]
	},
	{
		"ID": 104,
		"Name": "时空之门",
		"Desc": "时空之门",
		"FuncType": "CollectionActivityWaypointFuncType_Default",
		"WaypointsID": [
			117,
			118
		],
		"Model": "CollectionActivityMap/Waypoint1_ABS/Icon_TimeGate_Prefab.prefab",
		"InitState": "CollectionActivityWaypointStateType_Unlocked",
		"ScenarioLevelIdList": [
			101,
			106
		],
		"ChallengeLevelIdList": [
			104
		],
		"LootLevelIdList": [
			103,
			108
		]
	},
	{
		"ID": 105,
		"Name": "朝霞之港",
		"Desc": "朝霞之港",
		"FuncType": "CollectionActivityWaypointFuncType_Default",
		"WaypointsID": [
			123
		],
		"Model": "CollectionActivityMap/Waypoint1_ABS/Icon_Limuliyagang_Prefab.prefab",
		"InitState": "CollectionActivityWaypointStateType_Locked",
		"ChallengeLevelIdList": [
			102,
			105
		],
		"LootLevelIdList": [
			109
		]
	},
	{
		"ID": 106,
		"Name": "路点106",
		"Desc": "路点106",
		"FuncType": "CollectionActivityWaypointFuncType_Empty",
		"WaypointsID": [
			101,
			107
		],
		"Model": "CollectionActivityMap/Waypoint1_ABS/Icon-ThePlace_Prefab.prefab",
		"InitState": "CollectionActivityWaypointStateType_Unlocked"
	},
	{
		"ID": 107,
		"Name": "路点107",
		"Desc": "路点107",
		"FuncType": "CollectionActivityWaypointFuncType_Empty",
		"WaypointsID": [
			106,
			108
		],
		"Model": "CollectionActivityMap/Waypoint1_ABS/Icon-ThePlace_Prefab.prefab",
		"InitState": "CollectionActivityWaypointStateType_Unlocked"
	},
	{
		"ID": 108,
		"Name": "路点108",
		"Desc": "路点108",
		"FuncType": "CollectionActivityWaypointFuncType_Empty",
		"WaypointsID": [
			107,
			102
		],
		"Model": "CollectionActivityMap/Waypoint1_ABS/Icon-ThePlace_Prefab.prefab",
		"InitState": "CollectionActivityWaypointStateType_Unlocked"
	},
	{
		"ID": 109,
		"Name": "路点109",
		"Desc": "路点109",
		"FuncType": "CollectionActivityWaypointFuncType_Empty",
		"WaypointsID": [
			102,
			110
		],
		"Model": "CollectionActivityMap/Waypoint1_ABS/Icon-ThePlace_Prefab.prefab",
		"InitState": "CollectionActivityWaypointStateType_Unlocked"
	},
	{
		"ID": 110,
		"Name": "路点110",
		"Desc": "路点110",
		"FuncType": "CollectionActivityWaypointFuncType_Empty",
		"WaypointsID": [
			109,
			111
		],
		"Model": "CollectionActivityMap/Waypoint1_ABS/Icon-ThePlace_Prefab.prefab",
		"InitState": "CollectionActivityWaypointStateType_Unlocked"
	},
	{
		"ID": 111,
		"Name": "路点111",
		"Desc": "路点111",
		"FuncType": "CollectionActivityWaypointFuncType_Empty",
		"WaypointsID": [
			103,
			110
		],
		"Model": "CollectionActivityMap/Waypoint1_ABS/Icon-ThePlace_Prefab.prefab",
		"InitState": "CollectionActivityWaypointStateType_Unlocked"
	},
	{
		"ID": 112,
		"Name": "路点112",
		"Desc": "路点112",
		"FuncType": "CollectionActivityWaypointFuncType_Empty",
		"WaypointsID": [
			103,
			113
		],
		"Model": "CollectionActivityMap/Waypoint1_ABS/Icon-ThePlace_Prefab.prefab",
		"InitState": "CollectionActivityWaypointStateType_Unlocked"
	},
	{
		"ID": 113,
		"Name": "路点113",
		"Desc": "路点113",
		"FuncType": "CollectionActivityWaypointFuncType_Empty",
		"WaypointsID": [
			112,
			114
		],
		"Model": "CollectionActivityMap/Waypoint1_ABS/Icon-ThePlace_Prefab.prefab",
		"InitState": "CollectionActivityWaypointStateType_Unlocked"
	},
	{
		"ID": 114,
		"Name": "路点114",
		"Desc": "路点114",
		"FuncType": "CollectionActivityWaypointFuncType_Empty",
		"WaypointsID": [
			113,
			101
		],
		"Model": "CollectionActivityMap/Waypoint1_ABS/Icon-ThePlace_Prefab.prefab",
		"InitState": "CollectionActivityWaypointStateType_Unlocked"
	},
	{
		"ID": 115,
		"Name": "路点115",
		"Desc": "路点115",
		"FuncType": "CollectionActivityWaypointFuncType_Empty",
		"WaypointsID": [
			102,
			116
		],
		"Model": "CollectionActivityMap/Waypoint1_ABS/Icon-ThePlace_Prefab.prefab",
		"InitState": "CollectionActivityWaypointStateType_Unlocked"
	},
	{
		"ID": 116,
		"Name": "路点116",
		"Desc": "路点116",
		"FuncType": "CollectionActivityWaypointFuncType_Empty",
		"WaypointsID": [
			115,
			117
		],
		"Model": "CollectionActivityMap/Waypoint1_ABS/Icon-ThePlace_Prefab.prefab",
		"InitState": "CollectionActivityWaypointStateType_Unlocked"
	},
	{
		"ID": 117,
		"Name": "路点117",
		"Desc": "路点117",
		"FuncType": "CollectionActivityWaypointFuncType_Empty",
		"WaypointsID": [
			116,
			104
		],
		"Model": "CollectionActivityMap/Waypoint1_ABS/Icon-ThePlace_Prefab.prefab",
		"InitState": "CollectionActivityWaypointStateType_Unlocked"
	},
	{
		"ID": 118,
		"Name": "路点118",
		"Desc": "路点118",
		"FuncType": "CollectionActivityWaypointFuncType_Empty",
		"WaypointsID": [
			104,
			119
		],
		"Model": "CollectionActivityMap/Waypoint1_ABS/Icon-ThePlace_Prefab.prefab",
		"InitState": "CollectionActivityWaypointStateType_Unlocked"
	},
	{
		"ID": 119,
		"Name": "路点119",
		"Desc": "路点119",
		"FuncType": "CollectionActivityWaypointFuncType_Empty",
		"WaypointsID": [
			118,
			120
		],
		"Model": "CollectionActivityMap/Waypoint1_ABS/Icon-ThePlace_Prefab.prefab",
		"InitState": "CollectionActivityWaypointStateType_Unlocked"
	},
	{
		"ID": 120,
		"Name": "路点120",
		"Desc": "路点120",
		"FuncType": "CollectionActivityWaypointFuncType_Empty",
		"WaypointsID": [
			119,
			101
		],
		"Model": "CollectionActivityMap/Waypoint1_ABS/Icon-ThePlace_Prefab.prefab",
		"InitState": "CollectionActivityWaypointStateType_Unlocked"
	},
	{
		"ID": 121,
		"Name": "路点121",
		"Desc": "路点121",
		"FuncType": "CollectionActivityWaypointFuncType_Empty",
		"WaypointsID": [
			101,
			122
		],
		"Model": "CollectionActivityMap/Waypoint1_ABS/Icon-ThePlace_Prefab.prefab",
		"InitState": "CollectionActivityWaypointStateType_Unlocked"
	},
	{
		"ID": 122,
		"Name": "路点122",
		"Desc": "路点122",
		"FuncType": "CollectionActivityWaypointFuncType_Empty",
		"WaypointsID": [
			121,
			123
		],
		"Model": "CollectionActivityMap/Waypoint1_ABS/Icon-ThePlace_Prefab.prefab",
		"InitState": "CollectionActivityWaypointStateType_Unlocked"
	},
	{
		"ID": 123,
		"Name": "路点123",
		"Desc": "路点123",
		"FuncType": "CollectionActivityWaypointFuncType_Empty",
		"WaypointsID": [
			122,
			105
		],
		"Model": "CollectionActivityMap/Waypoint1_ABS/Icon-ThePlace_Prefab.prefab",
		"InitState": "CollectionActivityWaypointStateType_Unlocked"
	},
	{
		"ID": 201,
		"Name": "飞艇空港",
		"Desc": "",
		"FuncType": "CollectionActivityWaypointFuncType_Default",
		"WaypointsID": [
			206,
			210
		],
		"Model": "CollectionActivityMap/Waypoint1_ABS/Icon_Airport_Prefab.prefab",
		"InitState": "CollectionActivityWaypointStateType_Unlocked",
		"ScenarioLevelIdList": [
			201
		],
		"ChallengeLevelIdList": [
			205
		],
		"LootLevelIdList": [
			201,
			204,
			207
		]
	},
	{
		"ID": 202,
		"Name": "居民区",
		"Desc": "",
		"FuncType": "CollectionActivityWaypointFuncType_Default",
		"WaypointsID": [
			213,
			209
		],
		"Model": "CollectionActivityMap/Waypoint1_ABS/Icon_ResidentialArea_Prefab.prefab",
		"InitState": "CollectionActivityWaypointStateType_Locked",
		"ScenarioLevelIdList": [
			202
		],
		"ChallengeLevelIdList": [
			201
		],
		"LootLevelIdList": [
			203
		]
	},
	{
		"ID": 203,
		"Name": "战备区",
		"Desc": "",
		"FuncType": "CollectionActivityWaypointFuncType_Default",
		"WaypointsID": [
			212,
			216,
			217
		],
		"Model": "CollectionActivityMap/Waypoint1_ABS/Icon_WarArea_Prefab.prefab",
		"InitState": "CollectionActivityWaypointStateType_Locked",
		"ScenarioLevelIdList": [
			203,
			205
		],
		"ChallengeLevelIdList": [
			203
		],
		"LootLevelIdList": [
			205,
			209
		]
	},
	{
		"ID": 204,
		"Name": "古代格纳库",
		"Desc": "",
		"FuncType": "CollectionActivityWaypointFuncType_Default",
		"WaypointsID": [
			219,
			215,
			214
		],
		"Model": "CollectionActivityMap/Waypoint1_ABS/Icon_OldHangar_Prefab.prefab",
		"InitState": "CollectionActivityWaypointStateType_Locked",
		"ScenarioLevelIdList": [
			204
		],
		"ChallengeLevelIdList": [
			204
		],
		"LootLevelIdList": [
			202,
			206
		]
	},
	{
		"ID": 205,
		"Name": "动力核心",
		"Desc": "",
		"FuncType": "CollectionActivityWaypointFuncType_Default",
		"WaypointsID": [
			216,
			215
		],
		"Model": "CollectionActivityMap/Waypoint1_ABS/Icon_PowerCore_Prefab.prefab",
		"InitState": "CollectionActivityWaypointStateType_Locked",
		"ScenarioLevelIdList": [
			206,
			207
		],
		"ChallengeLevelIdList": [
			202
		],
		"LootLevelIdList": [
			208
		]
	},
	{
		"ID": 206,
		"Name": "路点206",
		"Desc": "",
		"FuncType": "CollectionActivityWaypointFuncType_Empty",
		"WaypointsID": [
			201,
			207
		],
		"Model": "CollectionActivityMap/Waypoint1_ABS/Icon-ThePlace_Prefab.prefab",
		"InitState": "CollectionActivityWaypointStateType_Unlocked"
	},
	{
		"ID": 207,
		"Name": "路点207",
		"Desc": "",
		"FuncType": "CollectionActivityWaypointFuncType_Empty",
		"WaypointsID": [
			206,
			208
		],
		"Model": "CollectionActivityMap/Waypoint1_ABS/Icon-ThePlace_Prefab.prefab",
		"InitState": "CollectionActivityWaypointStateType_Unlocked"
	},
	{
		"ID": 208,
		"Name": "路点208",
		"Desc": "",
		"FuncType": "CollectionActivityWaypointFuncType_Empty",
		"WaypointsID": [
			207,
			209
		],
		"Model": "CollectionActivityMap/Waypoint1_ABS/Icon-ThePlace_Prefab.prefab",
		"InitState": "CollectionActivityWaypointStateType_Unlocked"
	},
	{
		"ID": 209,
		"Name": "路点209",
		"Desc": "",
		"FuncType": "CollectionActivityWaypointFuncType_Empty",
		"WaypointsID": [
			208,
			202
		],
		"Model": "CollectionActivityMap/Waypoint1_ABS/Icon-ThePlace_Prefab.prefab",
		"InitState": "CollectionActivityWaypointStateType_Unlocked"
	},
	{
		"ID": 210,
		"Name": "路点210",
		"Desc": "",
		"FuncType": "CollectionActivityWaypointFuncType_Empty",
		"WaypointsID": [
			201,
			211
		],
		"Model": "CollectionActivityMap/Waypoint1_ABS/Icon-ThePlace_Prefab.prefab",
		"InitState": "CollectionActivityWaypointStateType_Unlocked"
	},
	{
		"ID": 211,
		"Name": "路点211",
		"Desc": "",
		"FuncType": "CollectionActivityWaypointFuncType_Empty",
		"WaypointsID": [
			210,
			212
		],
		"Model": "CollectionActivityMap/Waypoint1_ABS/Icon-ThePlace_Prefab.prefab",
		"InitState": "CollectionActivityWaypointStateType_Unlocked"
	},
	{
		"ID": 212,
		"Name": "路点212",
		"Desc": "",
		"FuncType": "CollectionActivityWaypointFuncType_Empty",
		"WaypointsID": [
			211,
			203
		],
		"Model": "CollectionActivityMap/Waypoint1_ABS/Icon-ThePlace_Prefab.prefab",
		"InitState": "CollectionActivityWaypointStateType_Unlocked"
	},
	{
		"ID": 213,
		"Name": "路点213",
		"Desc": "",
		"FuncType": "CollectionActivityWaypointFuncType_Empty",
		"WaypointsID": [
			202,
			214
		],
		"Model": "CollectionActivityMap/Waypoint1_ABS/Icon-ThePlace_Prefab.prefab",
		"InitState": "CollectionActivityWaypointStateType_Unlocked"
	},
	{
		"ID": 214,
		"Name": "路点214",
		"Desc": "",
		"FuncType": "CollectionActivityWaypointFuncType_Empty",
		"WaypointsID": [
			213,
			204
		],
		"Model": "CollectionActivityMap/Waypoint1_ABS/Icon-ThePlace_Prefab.prefab",
		"InitState": "CollectionActivityWaypointStateType_Unlocked"
	},
	{
		"ID": 215,
		"Name": "路点215",
		"Desc": "",
		"FuncType": "CollectionActivityWaypointFuncType_Empty",
		"WaypointsID": [
			204,
			205
		],
		"Model": "CollectionActivityMap/Waypoint1_ABS/Icon-ThePlace_Prefab.prefab",
		"InitState": "CollectionActivityWaypointStateType_Unlocked"
	},
	{
		"ID": 216,
		"Name": "路点216",
		"Desc": "",
		"FuncType": "CollectionActivityWaypointFuncType_Empty",
		"WaypointsID": [
			203,
			205
		],
		"Model": "CollectionActivityMap/Waypoint1_ABS/Icon-ThePlace_Prefab.prefab",
		"InitState": "CollectionActivityWaypointStateType_Unlocked"
	},
	{
		"ID": 217,
		"Name": "路点217",
		"Desc": "",
		"FuncType": "CollectionActivityWaypointFuncType_Empty",
		"WaypointsID": [
			203,
			218
		],
		"Model": "CollectionActivityMap/Waypoint1_ABS/Icon-ThePlace_Prefab.prefab",
		"InitState": "CollectionActivityWaypointStateType_Unlocked"
	},
	{
		"ID": 218,
		"Name": "路点218",
		"Desc": "",
		"FuncType": "CollectionActivityWaypointFuncType_Empty",
		"WaypointsID": [
			217,
			219
		],
		"Model": "CollectionActivityMap/Waypoint1_ABS/Icon-ThePlace_Prefab.prefab",
		"InitState": "CollectionActivityWaypointStateType_Unlocked"
	},
	{
		"ID": 219,
		"Name": "路点219",
		"Desc": "",
		"FuncType": "CollectionActivityWaypointFuncType_Empty",
		"WaypointsID": [
			204,
			218
		],
		"Model": "CollectionActivityMap/Waypoint1_ABS/Icon-ThePlace_Prefab.prefab",
		"InitState": "CollectionActivityWaypointStateType_Unlocked"
	},
	{
		"ID": 301,
		"Name": "霸道",
		"Desc": "",
		"FuncType": "CollectionActivityWaypointFuncType_Default",
		"WaypointsID": [
			302
		],
		"Model": "CollectionActivityMap/Waypoint1_ABS/Icon_StroySP01_Prefab.prefab",
		"InitState": "CollectionActivityWaypointStateType_Unlocked",
		"ScenarioLevelIdList": [
			301
		],
		"LootLevelIdList": [
			301
		]
	},
	{
		"ID": 302,
		"Name": "帝王巴恩哈特",
		"Desc": "",
		"FuncType": "CollectionActivityWaypointFuncType_Default",
		"WaypointsID": [
			301,
			316
		],
		"Model": "CollectionActivityMap/Waypoint1_ABS/Icon_StroySP02_Prefab.prefab",
		"InitState": "CollectionActivityWaypointStateType_Locked",
		"ScenarioLevelIdList": [
			302
		],
		"LootLevelIdList": [
			302
		]
	},
	{
		"ID": 303,
		"Name": "背信弃义",
		"Desc": "",
		"FuncType": "CollectionActivityWaypointFuncType_Default",
		"WaypointsID": [
			316,
			317
		],
		"Model": "CollectionActivityMap/Waypoint1_ABS/Icon_StroySP03_Prefab.prefab",
		"InitState": "CollectionActivityWaypointStateType_Locked",
		"ScenarioLevelIdList": [
			303
		],
		"LootLevelIdList": [
			303
		]
	},
	{
		"ID": 304,
		"Name": "卡尔萨斯的陷落",
		"Desc": "",
		"FuncType": "CollectionActivityWaypointFuncType_Default",
		"WaypointsID": [
			317,
			318
		],
		"Model": "CollectionActivityMap/Waypoint1_ABS/Icon_StroySP04_Prefab.prefab",
		"InitState": "CollectionActivityWaypointStateType_Locked",
		"ScenarioLevelIdList": [
			304
		],
		"LootLevelIdList": [
			304
		]
	},
	{
		"ID": 305,
		"Name": "真魔剑阿鲁哈萨托",
		"Desc": "",
		"FuncType": "CollectionActivityWaypointFuncType_Default",
		"WaypointsID": [
			319,
			320,
			322
		],
		"Model": "CollectionActivityMap/Waypoint1_ABS/Icon_StroySP05_Prefab.prefab",
		"InitState": "CollectionActivityWaypointStateType_Locked",
		"ScenarioLevelIdList": [
			305
		],
		"LootLevelIdList": [
			305
		]
	},
	{
		"ID": 306,
		"Name": "帝国最后之日",
		"Desc": "",
		"FuncType": "CollectionActivityWaypointFuncType_Default",
		"WaypointsID": [
			320,
			321
		],
		"Model": "CollectionActivityMap/Waypoint1_ABS/Icon_StroySP11_Prefab.prefab",
		"InitState": "CollectionActivityWaypointStateType_Locked",
		"ChallengeLevelIdList": [
			301
		]
	},
	{
		"ID": 307,
		"Name": "暗之传说",
		"Desc": "",
		"FuncType": "CollectionActivityWaypointFuncType_Default",
		"WaypointsID": [
			321
		],
		"Model": "CollectionActivityMap/Waypoint1_ABS/Icon_StroySP12_Prefab.prefab",
		"InitState": "CollectionActivityWaypointStateType_Locked",
		"ChallengeLevelIdList": [
			302
		]
	},
	{
		"ID": 308,
		"Name": "霸者的道路",
		"Desc": "",
		"FuncType": "CollectionActivityWaypointFuncType_Default",
		"WaypointsID": [
			323,
			324
		],
		"Model": "CollectionActivityMap/Waypoint1_ABS/Icon_StroySP06_Prefab.prefab",
		"InitState": "CollectionActivityWaypointStateType_Locked",
		"ScenarioLevelIdList": [
			306
		],
		"LootLevelIdList": [
			306
		]
	},
	{
		"ID": 309,
		"Name": "青龙的怒火",
		"Desc": "",
		"FuncType": "CollectionActivityWaypointFuncType_Default",
		"WaypointsID": [
			324,
			310
		],
		"Model": "CollectionActivityMap/Waypoint1_ABS/Icon_StroySP07_Prefab.prefab",
		"InitState": "CollectionActivityWaypointStateType_Locked",
		"ScenarioLevelIdList": [
			307
		],
		"LootLevelIdList": [
			307
		]
	},
	{
		"ID": 310,
		"Name": "皇帝巴恩哈特",
		"Desc": "",
		"FuncType": "CollectionActivityWaypointFuncType_Default",
		"WaypointsID": [
			309,
			325,
			329
		],
		"Model": "CollectionActivityMap/Waypoint1_ABS/Icon_StroySP08_Prefab.prefab",
		"InitState": "CollectionActivityWaypointStateType_Locked",
		"ScenarioLevelIdList": [
			308
		],
		"LootLevelIdList": [
			308
		]
	},
	{
		"ID": 311,
		"Name": "赶尽杀绝",
		"Desc": "",
		"FuncType": "CollectionActivityWaypointFuncType_Default",
		"WaypointsID": [
			326,
			327
		],
		"Model": "CollectionActivityMap/Waypoint1_ABS/Icon_StroySP09_Prefab.prefab",
		"InitState": "CollectionActivityWaypointStateType_Locked",
		"ScenarioLevelIdList": [
			309
		],
		"LootLevelIdList": [
			309
		]
	},
	{
		"ID": 312,
		"Name": "孤独之王",
		"Desc": "",
		"FuncType": "CollectionActivityWaypointFuncType_Default",
		"WaypointsID": [
			328,
			313
		],
		"Model": "CollectionActivityMap/Waypoint1_ABS/Icon_StroySP10_Prefab.prefab",
		"InitState": "CollectionActivityWaypointStateType_Locked",
		"ScenarioLevelIdList": [
			310
		]
	},
	{
		"ID": 313,
		"Name": "无光的挽歌",
		"Desc": "",
		"FuncType": "CollectionActivityWaypointFuncType_Default",
		"WaypointsID": [
			312
		],
		"Model": "CollectionActivityMap/Waypoint1_ABS/Icon_StroySP15_Prefab.prefab",
		"InitState": "CollectionActivityWaypointStateType_Locked",
		"ChallengeLevelIdList": [
			305
		]
	},
	{
		"ID": 314,
		"Name": "神的遗迹",
		"Desc": "",
		"FuncType": "CollectionActivityWaypointFuncType_Default",
		"WaypointsID": [
			329,
			315
		],
		"Model": "CollectionActivityMap/Waypoint1_ABS/Icon_StroySP13_Prefab.prefab",
		"InitState": "CollectionActivityWaypointStateType_Locked",
		"ChallengeLevelIdList": [
			303
		]
	},
	{
		"ID": 315,
		"Name": "新的荣光",
		"Desc": "",
		"FuncType": "CollectionActivityWaypointFuncType_Default",
		"WaypointsID": [
			314
		],
		"Model": "CollectionActivityMap/Waypoint1_ABS/Icon_StroySP14_Prefab.prefab",
		"InitState": "CollectionActivityWaypointStateType_Locked",
		"ChallengeLevelIdList": [
			304
		]
	},
	{
		"ID": 316,
		"Name": "",
		"Desc": "",
		"FuncType": "CollectionActivityWaypointFuncType_Empty",
		"WaypointsID": [
			302,
			303
		],
		"Model": "",
		"InitState": "CollectionActivityWaypointStateType_Unlocked"
	},
	{
		"ID": 317,
		"Name": "",
		"Desc": "",
		"FuncType": "CollectionActivityWaypointFuncType_Empty",
		"WaypointsID": [
			303,
			304
		],
		"Model": "",
		"InitState": "CollectionActivityWaypointStateType_Unlocked"
	},
	{
		"ID": 318,
		"Name": "",
		"Desc": "",
		"FuncType": "CollectionActivityWaypointFuncType_Empty",
		"WaypointsID": [
			304,
			319
		],
		"Model": "",
		"InitState": "CollectionActivityWaypointStateType_Unlocked"
	},
	{
		"ID": 319,
		"Name": "",
		"Desc": "",
		"FuncType": "CollectionActivityWaypointFuncType_Empty",
		"WaypointsID": [
			318,
			305
		],
		"Model": "",
		"InitState": "CollectionActivityWaypointStateType_Unlocked"
	},
	{
		"ID": 320,
		"Name": "",
		"Desc": "",
		"FuncType": "CollectionActivityWaypointFuncType_Empty",
		"WaypointsID": [
			305,
			306
		],
		"Model": "",
		"InitState": "CollectionActivityWaypointStateType_Unlocked"
	},
	{
		"ID": 321,
		"Name": "",
		"Desc": "",
		"FuncType": "CollectionActivityWaypointFuncType_Empty",
		"WaypointsID": [
			306,
			307
		],
		"Model": "",
		"InitState": "CollectionActivityWaypointStateType_Unlocked"
	},
	{
		"ID": 322,
		"Name": "",
		"Desc": "",
		"FuncType": "CollectionActivityWaypointFuncType_Empty",
		"WaypointsID": [
			305,
			323
		],
		"Model": "",
		"InitState": "CollectionActivityWaypointStateType_Unlocked"
	},
	{
		"ID": 323,
		"Name": "",
		"Desc": "",
		"FuncType": "CollectionActivityWaypointFuncType_Empty",
		"WaypointsID": [
			322,
			308
		],
		"Model": "",
		"InitState": "CollectionActivityWaypointStateType_Unlocked"
	},
	{
		"ID": 324,
		"Name": "",
		"Desc": "",
		"FuncType": "CollectionActivityWaypointFuncType_Empty",
		"WaypointsID": [
			308,
			309
		],
		"Model": "",
		"InitState": "CollectionActivityWaypointStateType_Unlocked"
	},
	{
		"ID": 325,
		"Name": "",
		"Desc": "",
		"FuncType": "CollectionActivityWaypointFuncType_Empty",
		"WaypointsID": [
			310,
			326
		],
		"Model": "",
		"InitState": "CollectionActivityWaypointStateType_Unlocked"
	},
	{
		"ID": 326,
		"Name": "",
		"Desc": "",
		"FuncType": "CollectionActivityWaypointFuncType_Empty",
		"WaypointsID": [
			325,
			311
		],
		"Model": "",
		"InitState": "CollectionActivityWaypointStateType_Unlocked"
	},
	{
		"ID": 327,
		"Name": "",
		"Desc": "",
		"FuncType": "CollectionActivityWaypointFuncType_Empty",
		"WaypointsID": [
			328,
			311
		],
		"Model": "",
		"InitState": "CollectionActivityWaypointStateType_Unlocked"
	},
	{
		"ID": 328,
		"Name": "",
		"Desc": "",
		"FuncType": "CollectionActivityWaypointFuncType_Empty",
		"WaypointsID": [
			327,
			312
		],
		"Model": "",
		"InitState": "CollectionActivityWaypointStateType_Unlocked"
	},
	{
		"ID": 329,
		"Name": "",
		"Desc": "",
		"FuncType": "CollectionActivityWaypointFuncType_Empty",
		"WaypointsID": [
			310,
			314
		],
		"Model": "",
		"InitState": "CollectionActivityWaypointStateType_Unlocked"
	},
	{
		"ID": 401,
		"Name": "出击",
		"Desc": "",
		"FuncType": "CollectionActivityWaypointFuncType_Default",
		"WaypointsID": [
			410
		],
		"Model": "CollectionActivityMap/Waypoint1_ABS/Icon-ThePlace1_Prefab.prefab",
		"InitState": "CollectionActivityWaypointStateType_Unlocked",
		"ScenarioLevelIdList": [
			401,
			402,
			403,
			404,
			405,
			406,
			407
		]
	},
	{
		"ID": 402,
		"Name": "初级训练",
		"Desc": "",
		"FuncType": "CollectionActivityWaypointFuncType_Default",
		"WaypointsID": [
			415
		],
		"Model": "CollectionActivityMap/Waypoint1_ABS/Icon-ThePlace1_Prefab.prefab",
		"InitState": "CollectionActivityWaypointStateType_Unlocked",
		"LootLevelIdList": [
			401,
			402,
			403,
			404,
			405,
			406,
			407,
			408
		]
	},
	{
		"ID": 403,
		"Name": "高级训练",
		"Desc": "",
		"FuncType": "CollectionActivityWaypointFuncType_Default",
		"WaypointsID": [
			418,
			419
		],
		"Model": "CollectionActivityMap/Waypoint1_ABS/Icon-ThePlace1_Prefab.prefab",
		"InitState": "CollectionActivityWaypointStateType_Unlocked",
		"LootLevelIdList": [
			409,
			410,
			411,
			412,
			413,
			414,
			415,
			416
		]
	},
	{
		"ID": 404,
		"Name": "挑战",
		"Desc": "",
		"FuncType": "CollectionActivityWaypointFuncType_Default",
		"WaypointsID": [
			429
		],
		"Model": "CollectionActivityMap/Waypoint1_ABS/Icon-ThePlace1_Prefab.prefab",
		"InitState": "CollectionActivityWaypointStateType_Unlocked",
		"ChallengeLevelIdList": [
			401,
			402,
			403,
			404,
			405,
			406,
			407
		]
	},
	{
		"ID": 410,
		"Name": "",
		"Desc": "",
		"FuncType": "CollectionActivityWaypointFuncType_Event",
		"WaypointsID": [
			411,
			401,
			413
		],
		"Model": "CollectionActivityMap/Waypoint1_ABS/Icon-ThePlace1_Prefab.prefab",
		"InitState": "CollectionActivityWaypointStateType_Unlocked"
	},
	{
		"ID": 411,
		"Name": "",
		"Desc": "",
		"FuncType": "CollectionActivityWaypointFuncType_Event",
		"WaypointsID": [
			410,
			412
		],
		"Model": "CollectionActivityMap/Waypoint1_ABS/Icon-ThePlace1_Prefab.prefab",
		"InitState": "CollectionActivityWaypointStateType_Unlocked"
	},
	{
		"ID": 412,
		"Name": "",
		"Desc": "",
		"FuncType": "CollectionActivityWaypointFuncType_Event",
		"WaypointsID": [
			411
		],
		"Model": "",
		"InitState": "CollectionActivityWaypointStateType_Unlocked",
		"EventIdList": [
			1,
			4,
			8
		]
	},
	{
		"ID": 413,
		"Name": "",
		"Desc": "",
		"FuncType": "CollectionActivityWaypointFuncType_Event",
		"WaypointsID": [
			410,
			414
		],
		"Model": "CollectionActivityMap/Waypoint1_ABS/Icon-ThePlace1_Prefab.prefab",
		"InitState": "CollectionActivityWaypointStateType_Unlocked"
	},
	{
		"ID": 414,
		"Name": "",
		"Desc": "",
		"FuncType": "CollectionActivityWaypointFuncType_Event",
		"WaypointsID": [
			413,
			415
		],
		"Model": "CollectionActivityMap/Waypoint1_ABS/Icon-ThePlace1_Prefab.prefab",
		"InitState": "CollectionActivityWaypointStateType_Unlocked"
	},
	{
		"ID": 415,
		"Name": "",
		"Desc": "",
		"FuncType": "CollectionActivityWaypointFuncType_Event",
		"WaypointsID": [
			416,
			402,
			414
		],
		"Model": "CollectionActivityMap/Waypoint1_ABS/Icon-ThePlace1_Prefab.prefab",
		"InitState": "CollectionActivityWaypointStateType_Unlocked"
	},
	{
		"ID": 416,
		"Name": "",
		"Desc": "",
		"FuncType": "CollectionActivityWaypointFuncType_Event",
		"WaypointsID": [
			417,
			418,
			415
		],
		"Model": "CollectionActivityMap/Waypoint1_ABS/Icon-ThePlace1_Prefab.prefab",
		"InitState": "CollectionActivityWaypointStateType_Unlocked"
	},
	{
		"ID": 417,
		"Name": "",
		"Desc": "",
		"FuncType": "CollectionActivityWaypointFuncType_Event",
		"WaypointsID": [
			416,
			418
		],
		"Model": "",
		"InitState": "CollectionActivityWaypointStateType_Unlocked",
		"EventIdList": [
			5,
			11
		]
	},
	{
		"ID": 418,
		"Name": "",
		"Desc": "",
		"FuncType": "CollectionActivityWaypointFuncType_Event",
		"WaypointsID": [
			416,
			419,
			403,
			417
		],
		"Model": "CollectionActivityMap/Waypoint1_ABS/Icon-ThePlace1_Prefab.prefab",
		"InitState": "CollectionActivityWaypointStateType_Unlocked"
	},
	{
		"ID": 419,
		"Name": "",
		"Desc": "",
		"FuncType": "CollectionActivityWaypointFuncType_Event",
		"WaypointsID": [
			418,
			403,
			420,
			422
		],
		"Model": "CollectionActivityMap/Waypoint1_ABS/Icon-ThePlace1_Prefab.prefab",
		"InitState": "CollectionActivityWaypointStateType_Unlocked",
		"EventIdList": [
			2
		]
	},
	{
		"ID": 420,
		"Name": "",
		"Desc": "",
		"FuncType": "CollectionActivityWaypointFuncType_Event",
		"WaypointsID": [
			421,
			419
		],
		"Model": "CollectionActivityMap/Waypoint1_ABS/Icon-ThePlace1_Prefab.prefab",
		"InitState": "CollectionActivityWaypointStateType_Unlocked",
		"EventIdList": [
			6
		]
	},
	{
		"ID": 421,
		"Name": "",
		"Desc": "",
		"FuncType": "CollectionActivityWaypointFuncType_Event",
		"WaypointsID": [
			420
		],
		"Model": "",
		"InitState": "CollectionActivityWaypointStateType_Unlocked",
		"EventIdList": [
			7,
			12
		]
	},
	{
		"ID": 422,
		"Name": "",
		"Desc": "",
		"FuncType": "CollectionActivityWaypointFuncType_Event",
		"WaypointsID": [
			419,
			423
		],
		"Model": "CollectionActivityMap/Waypoint1_ABS/Icon-ThePlace1_Prefab.prefab",
		"InitState": "CollectionActivityWaypointStateType_Unlocked"
	},
	{
		"ID": 423,
		"Name": "",
		"Desc": "",
		"FuncType": "CollectionActivityWaypointFuncType_Event",
		"WaypointsID": [
			422,
			424
		],
		"Model": "CollectionActivityMap/Waypoint1_ABS/Icon-ThePlace1_Prefab.prefab",
		"InitState": "CollectionActivityWaypointStateType_Unlocked"
	},
	{
		"ID": 424,
		"Name": "",
		"Desc": "",
		"FuncType": "CollectionActivityWaypointFuncType_Event",
		"WaypointsID": [
			423,
			425
		],
		"Model": "CollectionActivityMap/Waypoint1_ABS/Icon-ThePlace1_Prefab.prefab",
		"InitState": "CollectionActivityWaypointStateType_Unlocked"
	},
	{
		"ID": 425,
		"Name": "",
		"Desc": "",
		"FuncType": "CollectionActivityWaypointFuncType_Event",
		"WaypointsID": [
			424,
			426,
			427
		],
		"Model": "CollectionActivityMap/Waypoint1_ABS/Icon-ThePlace1_Prefab.prefab",
		"InitState": "CollectionActivityWaypointStateType_Unlocked"
	},
	{
		"ID": 426,
		"Name": "",
		"Desc": "",
		"FuncType": "CollectionActivityWaypointFuncType_Event",
		"WaypointsID": [
			425
		],
		"Model": "",
		"InitState": "CollectionActivityWaypointStateType_Unlocked",
		"EventIdList": [
			13
		]
	},
	{
		"ID": 427,
		"Name": "",
		"Desc": "",
		"FuncType": "CollectionActivityWaypointFuncType_Event",
		"WaypointsID": [
			425,
			428
		],
		"Model": "CollectionActivityMap/Waypoint1_ABS/Icon-ThePlace1_Prefab.prefab",
		"InitState": "CollectionActivityWaypointStateType_Unlocked"
	},
	{
		"ID": 428,
		"Name": "",
		"Desc": "",
		"FuncType": "CollectionActivityWaypointFuncType_Event",
		"WaypointsID": [
			427,
			429
		],
		"Model": "CollectionActivityMap/Waypoint1_ABS/Icon-ThePlace1_Prefab.prefab",
		"InitState": "CollectionActivityWaypointStateType_Unlocked",
		"EventIdList": [
			9
		]
	},
	{
		"ID": 429,
		"Name": "",
		"Desc": "",
		"FuncType": "CollectionActivityWaypointFuncType_Event",
		"WaypointsID": [
			404,
			428,
			430
		],
		"Model": "CollectionActivityMap/Waypoint1_ABS/Icon-ThePlace1_Prefab.prefab",
		"InitState": "CollectionActivityWaypointStateType_Unlocked"
	},
	{
		"ID": 430,
		"Name": "",
		"Desc": "",
		"FuncType": "CollectionActivityWaypointFuncType_Event",
		"WaypointsID": [
			429,
			431
		],
		"Model": "CollectionActivityMap/Waypoint1_ABS/Icon-ThePlace1_Prefab.prefab",
		"InitState": "CollectionActivityWaypointStateType_Unlocked",
		"EventIdList": [
			10
		]
	},
	{
		"ID": 431,
		"Name": "",
		"Desc": "",
		"FuncType": "CollectionActivityWaypointFuncType_Event",
		"WaypointsID": [
			430
		],
		"Model": "",
		"InitState": "CollectionActivityWaypointStateType_Unlocked",
		"EventIdList": [
			3
		]
	},
	{
		"ID": 501,
		"Name": "第七音符",
		"Desc": "",
		"FuncType": "CollectionActivityWaypointFuncType_Default",
		"WaypointsID": [
			502,
			503,
			504,
			505,
			506,
			507
		],
		"Model": "CollectionActivityMap/Waypoint1_ABS/Icon_Music7_Prefab.prefab",
		"InitState": "CollectionActivityWaypointStateType_Unlocked",
		"ScenarioLevelIdList": [
			501,
			508
		],
		"ChallengeLevelIdList": [
			505
		],
		"LootLevelIdList": [
			501,
			504,
			507
		]
	},
	{
		"ID": 502,
		"Name": "第一音符",
		"Desc": "",
		"FuncType": "CollectionActivityWaypointFuncType_Default",
		"WaypointsID": [
			501,
			503,
			507
		],
		"Model": "CollectionActivityMap/Waypoint1_ABS/Icon_Music1_Prefab.prefab",
		"InitState": "CollectionActivityWaypointStateType_Locked",
		"ScenarioLevelIdList": [
			502
		],
		"LootLevelIdList": [
			502
		]
	},
	{
		"ID": 503,
		"Name": "第五音符",
		"Desc": "",
		"FuncType": "CollectionActivityWaypointFuncType_Default",
		"WaypointsID": [
			501,
			502,
			504
		],
		"Model": "CollectionActivityMap/Waypoint1_ABS/Icon_Music5_Prefab.prefab",
		"InitState": "CollectionActivityWaypointStateType_Locked",
		"ScenarioLevelIdList": [
			506
		],
		"ChallengeLevelIdList": [
			502
		],
		"LootLevelIdList": [
			508
		]
	},
	{
		"ID": 504,
		"Name": "第二音符",
		"Desc": "",
		"FuncType": "CollectionActivityWaypointFuncType_Default",
		"WaypointsID": [
			501,
			503,
			505
		],
		"Model": "CollectionActivityMap/Waypoint1_ABS/Icon_Music2_Prefab.prefab",
		"InitState": "CollectionActivityWaypointStateType_Locked",
		"ScenarioLevelIdList": [
			503
		],
		"ChallengeLevelIdList": [
			504
		],
		"LootLevelIdList": [
			503
		]
	},
	{
		"ID": 505,
		"Name": "第六音符",
		"Desc": "",
		"FuncType": "CollectionActivityWaypointFuncType_Default",
		"WaypointsID": [
			501,
			504,
			506
		],
		"Model": "CollectionActivityMap/Waypoint1_ABS/Icon_Music6_Prefab.prefab",
		"InitState": "CollectionActivityWaypointStateType_Locked",
		"ScenarioLevelIdList": [
			507
		],
		"LootLevelIdList": [
			509
		]
	},
	{
		"ID": 506,
		"Name": "第三音符",
		"Desc": "",
		"FuncType": "CollectionActivityWaypointFuncType_Default",
		"WaypointsID": [
			501,
			505,
			507
		],
		"Model": "CollectionActivityMap/Waypoint1_ABS/Icon_Music3_Prefab.prefab",
		"InitState": "CollectionActivityWaypointStateType_Locked",
		"ScenarioLevelIdList": [
			504
		],
		"ChallengeLevelIdList": [
			503
		],
		"LootLevelIdList": [
			505
		]
	},
	{
		"ID": 507,
		"Name": "第四音符",
		"Desc": "",
		"FuncType": "CollectionActivityWaypointFuncType_Default",
		"WaypointsID": [
			501,
			506,
			502
		],
		"Model": "CollectionActivityMap/Waypoint1_ABS/Icon_Music4_Prefab.prefab",
		"InitState": "CollectionActivityWaypointStateType_Locked",
		"ScenarioLevelIdList": [
			505
		],
		"ChallengeLevelIdList": [
			501
		],
		"LootLevelIdList": [
			506
		]
	},
	{
		"ID": 601,
		"Name": "花火街道",
		"Desc": "",
		"FuncType": "CollectionActivityWaypointFuncType_Default",
		"WaypointsID": [
			606
		],
		"Model": "CollectionActivityMap/Waypoint1_ABS/Icon_FrieworksRoad_Prefab.prefab",
		"InitState": "CollectionActivityWaypointStateType_Unlocked",
		"ScenarioLevelIdList": [
			601
		],
		"ChallengeLevelIdList": [
			604
		],
		"LootLevelIdList": [
			601,
			605
		]
	},
	{
		"ID": 602,
		"Name": "樱下渔地",
		"Desc": "",
		"FuncType": "CollectionActivityWaypointFuncType_Default",
		"WaypointsID": [
			608,
			609
		],
		"Model": "CollectionActivityMap/Waypoint1_ABS/Icon_FrieworksSeafood_Prefab.prefab",
		"InitState": "CollectionActivityWaypointStateType_Locked",
		"ScenarioLevelIdList": [
			602
		],
		"ChallengeLevelIdList": [
			605
		],
		"LootLevelIdList": [
			602,
			606
		]
	},
	{
		"ID": 603,
		"Name": "巴拉鲁府邸",
		"Desc": "",
		"FuncType": "CollectionActivityWaypointFuncType_Default",
		"WaypointsID": [
			611,
			612
		],
		"Model": "CollectionActivityMap/Waypoint1_ABS/Icon_FrieworksFreyaHome_Prefab.prefab",
		"InitState": "CollectionActivityWaypointStateType_Locked",
		"ScenarioLevelIdList": [
			603
		],
		"ChallengeLevelIdList": [
			602
		],
		"LootLevelIdList": [
			603,
			607
		]
	},
	{
		"ID": 604,
		"Name": "闪光之山",
		"Desc": "",
		"FuncType": "CollectionActivityWaypointFuncType_Default",
		"WaypointsID": [
			613,
			614
		],
		"Model": "CollectionActivityMap/Waypoint1_ABS/Icon_FrieworksMountain_Prefab.prefab",
		"InitState": "CollectionActivityWaypointStateType_Locked",
		"ScenarioLevelIdList": [
			604,
			605,
			606
		],
		"ChallengeLevelIdList": [
			601
		],
		"LootLevelIdList": [
			604,
			608
		]
	},
	{
		"ID": 605,
		"Name": "花火大会",
		"Desc": "",
		"FuncType": "CollectionActivityWaypointFuncType_Default",
		"WaypointsID": [
			614
		],
		"Model": "CollectionActivityMap/Waypoint1_ABS/Icon_FrieworksMeeting_Prefab.prefab",
		"InitState": "CollectionActivityWaypointStateType_Locked",
		"ScenarioLevelIdList": [
			607
		],
		"ChallengeLevelIdList": [
			603
		],
		"LootLevelIdList": [
			609
		]
	},
	{
		"ID": 606,
		"Name": "",
		"Desc": "",
		"FuncType": "CollectionActivityWaypointFuncType_Event",
		"WaypointsID": [
			601,
			607
		],
		"Model": "CollectionActivityMap/Waypoint1_ABS/Icon-ThePlace1_Prefab.prefab",
		"InitState": "CollectionActivityWaypointStateType_Unlocked"
	},
	{
		"ID": 607,
		"Name": "",
		"Desc": "",
		"FuncType": "CollectionActivityWaypointFuncType_Event",
		"WaypointsID": [
			606,
			608
		],
		"Model": "CollectionActivityMap/Waypoint1_ABS/Icon-ThePlace1_Prefab.prefab",
		"InitState": "CollectionActivityWaypointStateType_Unlocked"
	},
	{
		"ID": 608,
		"Name": "",
		"Desc": "",
		"FuncType": "CollectionActivityWaypointFuncType_Event",
		"WaypointsID": [
			607,
			602
		],
		"Model": "CollectionActivityMap/Waypoint1_ABS/Icon-ThePlace1_Prefab.prefab",
		"InitState": "CollectionActivityWaypointStateType_Unlocked"
	},
	{
		"ID": 609,
		"Name": "",
		"Desc": "",
		"FuncType": "CollectionActivityWaypointFuncType_Event",
		"WaypointsID": [
			602,
			610
		],
		"Model": "CollectionActivityMap/Waypoint1_ABS/Icon-ThePlace1_Prefab.prefab",
		"InitState": "CollectionActivityWaypointStateType_Unlocked"
	},
	{
		"ID": 610,
		"Name": "",
		"Desc": "",
		"FuncType": "CollectionActivityWaypointFuncType_Event",
		"WaypointsID": [
			609,
			611
		],
		"Model": "CollectionActivityMap/Waypoint1_ABS/Icon-ThePlace1_Prefab.prefab",
		"InitState": "CollectionActivityWaypointStateType_Unlocked"
	},
	{
		"ID": 611,
		"Name": "",
		"Desc": "",
		"FuncType": "CollectionActivityWaypointFuncType_Event",
		"WaypointsID": [
			610,
			603
		],
		"Model": "CollectionActivityMap/Waypoint1_ABS/Icon-ThePlace1_Prefab.prefab",
		"InitState": "CollectionActivityWaypointStateType_Unlocked"
	},
	{
		"ID": 612,
		"Name": "",
		"Desc": "",
		"FuncType": "CollectionActivityWaypointFuncType_Event",
		"WaypointsID": [
			603,
			613
		],
		"Model": "CollectionActivityMap/Waypoint1_ABS/Icon-ThePlace1_Prefab.prefab",
		"InitState": "CollectionActivityWaypointStateType_Unlocked"
	},
	{
		"ID": 613,
		"Name": "",
		"Desc": "",
		"FuncType": "CollectionActivityWaypointFuncType_Event",
		"WaypointsID": [
			612,
			604
		],
		"Model": "CollectionActivityMap/Waypoint1_ABS/Icon-ThePlace1_Prefab.prefab",
		"InitState": "CollectionActivityWaypointStateType_Unlocked"
	},
	{
		"ID": 614,
		"Name": "",
		"Desc": "",
		"FuncType": "CollectionActivityWaypointFuncType_Event",
		"WaypointsID": [
			604,
			605
		],
		"Model": "CollectionActivityMap/Waypoint1_ABS/Icon-ThePlace1_Prefab.prefab",
		"InitState": "CollectionActivityWaypointStateType_Unlocked"
	},
	{
		"ID": 701,
		"Name": "前台接待处",
		"Desc": "",
		"FuncType": "CollectionActivityWaypointFuncType_Default",
		"WaypointsID": [
			712
		],
		"Model": "CollectionActivityMap/Waypoint1_ABS/Icon-ThePlace1_Prefab.prefab",
		"InitState": "CollectionActivityWaypointStateType_Unlocked",
		"ScenarioLevelIdList": [
			701
		],
		"ChallengeLevelIdList": [
			701
		],
		"LootLevelIdList": [
			701,
			702,
			703,
			704
		]
	},
	{
		"ID": 702,
		"Name": "美术工作区",
		"Desc": "",
		"FuncType": "CollectionActivityWaypointFuncType_Default",
		"WaypointsID": [
			722
		],
		"Model": "CollectionActivityMap/Waypoint1_ABS/Icon-ThePlace1_Prefab.prefab",
		"InitState": "CollectionActivityWaypointStateType_Locked",
		"ScenarioLevelIdList": [
			704
		],
		"ChallengeLevelIdList": [
			705
		],
		"LootLevelIdList": [
			713,
			714
		]
	},
	{
		"ID": 703,
		"Name": "程序工作区",
		"Desc": "",
		"FuncType": "CollectionActivityWaypointFuncType_Default",
		"WaypointsID": [
			716
		],
		"Model": "CollectionActivityMap/Waypoint1_ABS/Icon-ThePlace1_Prefab.prefab",
		"InitState": "CollectionActivityWaypointStateType_Locked",
		"ScenarioLevelIdList": [
			705
		],
		"ChallengeLevelIdList": [
			703
		],
		"LootLevelIdList": [
			715,
			716
		]
	},
	{
		"ID": 704,
		"Name": "策划工作区",
		"Desc": "",
		"FuncType": "CollectionActivityWaypointFuncType_Default",
		"WaypointsID": [
			717
		],
		"Model": "CollectionActivityMap/Waypoint1_ABS/Icon-ThePlace1_Prefab.prefab",
		"InitState": "CollectionActivityWaypointStateType_Locked",
		"ScenarioLevelIdList": [
			703
		],
		"ChallengeLevelIdList": [
			704
		],
		"LootLevelIdList": [
			709,
			710,
			711,
			712
		]
	},
	{
		"ID": 705,
		"Name": "制作人办公室",
		"Desc": "",
		"FuncType": "CollectionActivityWaypointFuncType_Default",
		"WaypointsID": [
			720
		],
		"Model": "CollectionActivityMap/Waypoint1_ABS/Icon-ThePlace1_Prefab.prefab",
		"InitState": "CollectionActivityWaypointStateType_Locked",
		"ScenarioLevelIdList": [
			702,
			706,
			707
		],
		"ChallengeLevelIdList": [
			702
		],
		"LootLevelIdList": [
			705,
			706,
			707,
			708
		]
	},
	{
		"ID": 711,
		"Name": "",
		"Desc": "",
		"FuncType": "CollectionActivityWaypointFuncType_Event",
		"WaypointsID": [
			712
		],
		"Model": "CollectionActivityMap/Waypoint1_ABS/Icon-ThePlace1_Prefab.prefab",
		"InitState": "CollectionActivityWaypointStateType_Unlocked"
	},
	{
		"ID": 712,
		"Name": "",
		"Desc": "",
		"FuncType": "CollectionActivityWaypointFuncType_Event",
		"WaypointsID": [
			701,
			711,
			713,
			714
		],
		"Model": "",
		"InitState": "CollectionActivityWaypointStateType_Unlocked"
	},
	{
		"ID": 713,
		"Name": "",
		"Desc": "",
		"FuncType": "CollectionActivityWaypointFuncType_Event",
		"WaypointsID": [
			712,
			721
		],
		"Model": "",
		"InitState": "CollectionActivityWaypointStateType_Unlocked"
	},
	{
		"ID": 714,
		"Name": "",
		"Desc": "",
		"FuncType": "CollectionActivityWaypointFuncType_Event",
		"WaypointsID": [
			712,
			715
		],
		"Model": "",
		"InitState": "CollectionActivityWaypointStateType_Unlocked"
	},
	{
		"ID": 715,
		"Name": "",
		"Desc": "",
		"FuncType": "CollectionActivityWaypointFuncType_Event",
		"WaypointsID": [
			714,
			716
		],
		"Model": "",
		"InitState": "CollectionActivityWaypointStateType_Unlocked"
	},
	{
		"ID": 716,
		"Name": "",
		"Desc": "",
		"FuncType": "CollectionActivityWaypointFuncType_Event",
		"WaypointsID": [
			703,
			715,
			717
		],
		"Model": "",
		"InitState": "CollectionActivityWaypointStateType_Unlocked"
	},
	{
		"ID": 717,
		"Name": "",
		"Desc": "",
		"FuncType": "CollectionActivityWaypointFuncType_Event",
		"WaypointsID": [
			704,
			716,
			718
		],
		"Model": "",
		"InitState": "CollectionActivityWaypointStateType_Unlocked"
	},
	{
		"ID": 718,
		"Name": "",
		"Desc": "",
		"FuncType": "CollectionActivityWaypointFuncType_Event",
		"WaypointsID": [
			717,
			719
		],
		"Model": "",
		"InitState": "CollectionActivityWaypointStateType_Unlocked"
	},
	{
		"ID": 719,
		"Name": "",
		"Desc": "",
		"FuncType": "CollectionActivityWaypointFuncType_Event",
		"WaypointsID": [
			718,
			720
		],
		"Model": "",
		"InitState": "CollectionActivityWaypointStateType_Unlocked"
	},
	{
		"ID": 720,
		"Name": "",
		"Desc": "",
		"FuncType": "CollectionActivityWaypointFuncType_Event",
		"WaypointsID": [
			705,
			719
		],
		"Model": "",
		"InitState": "CollectionActivityWaypointStateType_Unlocked"
	},
	{
		"ID": 721,
		"Name": "",
		"Desc": "",
		"FuncType": "CollectionActivityWaypointFuncType_Event",
		"WaypointsID": [
			713,
			722
		],
		"Model": "",
		"InitState": "CollectionActivityWaypointStateType_Unlocked"
	},
	{
		"ID": 722,
		"Name": "",
		"Desc": "",
		"FuncType": "CollectionActivityWaypointFuncType_Event",
		"WaypointsID": [
			721,
			702
		],
		"Model": "",
		"InitState": "CollectionActivityWaypointStateType_Unlocked"
	},
	{
		"ID": 801,
		"Name": "为了铭记的启程",
		"Desc": "",
		"FuncType": "CollectionActivityWaypointFuncType_Default",
		"WaypointsID": [
			811
		],
		"Model": "CollectionActivityMap/Waypoint1_ABS/Icon_StroySP02_01_Prefab.prefab",
		"InitState": "CollectionActivityWaypointStateType_Unlocked",
		"ScenarioLevelIdList": [
			801
		],
		"LootLevelIdList": [
			801
		]
	},
	{
		"ID": 802,
		"Name": "反逆的刺刃",
		"Desc": "",
		"FuncType": "CollectionActivityWaypointFuncType_Default",
		"WaypointsID": [
			812,
			813
		],
		"Model": "CollectionActivityMap/Waypoint1_ABS/Icon_StroySP02_02_Prefab.prefab",
		"InitState": "CollectionActivityWaypointStateType_Locked",
		"ScenarioLevelIdList": [
			802
		],
		"LootLevelIdList": [
			802
		]
	},
	{
		"ID": 803,
		"Name": "无援的逃亡",
		"Desc": "",
		"FuncType": "CollectionActivityWaypointFuncType_Default",
		"WaypointsID": [
			814,
			815
		],
		"Model": "CollectionActivityMap/Waypoint1_ABS/Icon_StroySP02_03_Prefab.prefab",
		"InitState": "CollectionActivityWaypointStateType_Locked",
		"ScenarioLevelIdList": [
			803
		],
		"LootLevelIdList": [
			803
		]
	},
	{
		"ID": 804,
		"Name": "女神的光",
		"Desc": "",
		"FuncType": "CollectionActivityWaypointFuncType_Default",
		"WaypointsID": [
			815,
			816
		],
		"Model": "CollectionActivityMap/Waypoint1_ABS/Icon_StroySP02_04_Prefab.prefab",
		"InitState": "CollectionActivityWaypointStateType_Locked",
		"ScenarioLevelIdList": [
			804
		],
		"ChallengeLevelIdList": [
			801
		],
		"LootLevelIdList": [
			804
		]
	},
	{
		"ID": 805,
		"Name": "父辈的旗帜",
		"Desc": "",
		"FuncType": "CollectionActivityWaypointFuncType_Default",
		"WaypointsID": [
			817,
			818,
			820
		],
		"Model": "CollectionActivityMap/Waypoint1_ABS/Icon_StroySP02_05_Prefab.prefab",
		"InitState": "CollectionActivityWaypointStateType_Locked",
		"ScenarioLevelIdList": [
			805
		],
		"LootLevelIdList": [
			805
		]
	},
	{
		"ID": 806,
		"Name": "混沌的降临",
		"Desc": "",
		"FuncType": "CollectionActivityWaypointFuncType_Default",
		"WaypointsID": [
			821,
			822
		],
		"Model": "CollectionActivityMap/Waypoint1_ABS/Icon_StroySP02_06_Prefab.prefab",
		"InitState": "CollectionActivityWaypointStateType_Locked",
		"ScenarioLevelIdList": [
			806
		],
		"ChallengeLevelIdList": [
			802
		],
		"LootLevelIdList": [
			806
		]
	},
	{
		"ID": 807,
		"Name": "希望的复生",
		"Desc": "",
		"FuncType": "CollectionActivityWaypointFuncType_Default",
		"WaypointsID": [
			825,
			826,
			827
		],
		"Model": "CollectionActivityMap/Waypoint1_ABS/Icon_StroySP02_07_Prefab.prefab",
		"InitState": "CollectionActivityWaypointStateType_Locked",
		"ScenarioLevelIdList": [
			807
		],
		"LootLevelIdList": [
			807
		]
	},
	{
		"ID": 808,
		"Name": "不被铭记的决战",
		"Desc": "",
		"FuncType": "CollectionActivityWaypointFuncType_Default",
		"WaypointsID": [
			830
		],
		"Model": "CollectionActivityMap/Waypoint1_ABS/Icon_StroySP02_08_Prefab.prefab",
		"InitState": "CollectionActivityWaypointStateType_Locked",
		"ScenarioLevelIdList": [
			808
		],
		"ChallengeLevelIdList": [
			805
		],
		"LootLevelIdList": [
			808,
			809
		]
	},
	{
		"ID": 809,
		"Name": "帝国的遗志",
		"Desc": "",
		"FuncType": "CollectionActivityWaypointFuncType_Default",
		"WaypointsID": [
			819
		],
		"Model": "CollectionActivityMap/Waypoint1_ABS/Icon_StroySP02_05_1_Prefab.prefab",
		"InitState": "CollectionActivityWaypointStateType_Locked",
		"ChallengeLevelIdList": [
			803
		]
	},
	{
		"ID": 810,
		"Name": "灼眼的辉光",
		"Desc": "",
		"FuncType": "CollectionActivityWaypointFuncType_Default",
		"WaypointsID": [
			826
		],
		"Model": "CollectionActivityMap/Waypoint1_ABS/Icon_StroySP02_07_1_Prefab.prefab",
		"InitState": "CollectionActivityWaypointStateType_Locked",
		"ChallengeLevelIdList": [
			804
		]
	},
	{
		"ID": 811,
		"Name": "",
		"Desc": "",
		"FuncType": "CollectionActivityWaypointFuncType_Event",
		"WaypointsID": [
			801,
			812
		],
		"Model": "",
		"InitState": "CollectionActivityWaypointStateType_Unlocked"
	},
	{
		"ID": 812,
		"Name": "",
		"Desc": "",
		"FuncType": "CollectionActivityWaypointFuncType_Event",
		"WaypointsID": [
			811,
			802
		],
		"Model": "",
		"InitState": "CollectionActivityWaypointStateType_Unlocked"
	},
	{
		"ID": 813,
		"Name": "",
		"Desc": "",
		"FuncType": "CollectionActivityWaypointFuncType_Event",
		"WaypointsID": [
			802,
			814
		],
		"Model": "",
		"InitState": "CollectionActivityWaypointStateType_Unlocked"
	},
	{
		"ID": 814,
		"Name": "",
		"Desc": "",
		"FuncType": "CollectionActivityWaypointFuncType_Event",
		"WaypointsID": [
			813,
			803
		],
		"Model": "",
		"InitState": "CollectionActivityWaypointStateType_Unlocked"
	},
	{
		"ID": 815,
		"Name": "",
		"Desc": "",
		"FuncType": "CollectionActivityWaypointFuncType_Event",
		"WaypointsID": [
			803,
			804
		],
		"Model": "",
		"InitState": "CollectionActivityWaypointStateType_Unlocked"
	},
	{
		"ID": 816,
		"Name": "",
		"Desc": "",
		"FuncType": "CollectionActivityWaypointFuncType_Event",
		"WaypointsID": [
			804,
			817
		],
		"Model": "",
		"InitState": "CollectionActivityWaypointStateType_Unlocked"
	},
	{
		"ID": 817,
		"Name": "",
		"Desc": "",
		"FuncType": "CollectionActivityWaypointFuncType_Event",
		"WaypointsID": [
			816,
			805
		],
		"Model": "",
		"InitState": "CollectionActivityWaypointStateType_Unlocked"
	},
	{
		"ID": 818,
		"Name": "",
		"Desc": "",
		"FuncType": "CollectionActivityWaypointFuncType_Event",
		"WaypointsID": [
			805,
			819
		],
		"Model": "",
		"InitState": "CollectionActivityWaypointStateType_Unlocked"
	},
	{
		"ID": 819,
		"Name": "",
		"Desc": "",
		"FuncType": "CollectionActivityWaypointFuncType_Event",
		"WaypointsID": [
			818,
			809
		],
		"Model": "",
		"InitState": "CollectionActivityWaypointStateType_Unlocked"
	},
	{
		"ID": 820,
		"Name": "",
		"Desc": "",
		"FuncType": "CollectionActivityWaypointFuncType_Event",
		"WaypointsID": [
			805,
			821
		],
		"Model": "",
		"InitState": "CollectionActivityWaypointStateType_Unlocked"
	},
	{
		"ID": 821,
		"Name": "",
		"Desc": "",
		"FuncType": "CollectionActivityWaypointFuncType_Event",
		"WaypointsID": [
			820,
			806
		],
		"Model": "",
		"InitState": "CollectionActivityWaypointStateType_Unlocked"
	},
	{
		"ID": 822,
		"Name": "",
		"Desc": "",
		"FuncType": "CollectionActivityWaypointFuncType_Event",
		"WaypointsID": [
			806,
			823
		],
		"Model": "",
		"InitState": "CollectionActivityWaypointStateType_Unlocked"
	},
	{
		"ID": 823,
		"Name": "",
		"Desc": "",
		"FuncType": "CollectionActivityWaypointFuncType_Event",
		"WaypointsID": [
			822,
			824
		],
		"Model": "",
		"InitState": "CollectionActivityWaypointStateType_Unlocked"
	},
	{
		"ID": 824,
		"Name": "",
		"Desc": "",
		"FuncType": "CollectionActivityWaypointFuncType_Event",
		"WaypointsID": [
			823,
			825
		],
		"Model": "",
		"InitState": "CollectionActivityWaypointStateType_Unlocked"
	},
	{
		"ID": 825,
		"Name": "",
		"Desc": "",
		"FuncType": "CollectionActivityWaypointFuncType_Event",
		"WaypointsID": [
			824,
			807
		],
		"Model": "",
		"InitState": "CollectionActivityWaypointStateType_Unlocked"
	},
	{
		"ID": 826,
		"Name": "",
		"Desc": "",
		"FuncType": "CollectionActivityWaypointFuncType_Event",
		"WaypointsID": [
			807,
			810
		],
		"Model": "",
		"InitState": "CollectionActivityWaypointStateType_Unlocked"
	},
	{
		"ID": 827,
		"Name": "",
		"Desc": "",
		"FuncType": "CollectionActivityWaypointFuncType_Event",
		"WaypointsID": [
			807,
			828
		],
		"Model": "",
		"InitState": "CollectionActivityWaypointStateType_Unlocked"
	},
	{
		"ID": 828,
		"Name": "",
		"Desc": "",
		"FuncType": "CollectionActivityWaypointFuncType_Event",
		"WaypointsID": [
			827,
			829
		],
		"Model": "",
		"InitState": "CollectionActivityWaypointStateType_Unlocked"
	},
	{
		"ID": 829,
		"Name": "",
		"Desc": "",
		"FuncType": "CollectionActivityWaypointFuncType_Event",
		"WaypointsID": [
			828,
			830
		],
		"Model": "",
		"InitState": "CollectionActivityWaypointStateType_Unlocked"
	},
	{
		"ID": 830,
		"Name": "",
		"Desc": "",
		"FuncType": "CollectionActivityWaypointFuncType_Event",
		"WaypointsID": [
			829,
			808
		],
		"Model": "",
		"InitState": "CollectionActivityWaypointStateType_Unlocked"
	},
	{
		"ID": 901,
		"Name": "中央城镇",
		"Desc": "",
		"FuncType": "CollectionActivityWaypointFuncType_Default",
		"WaypointsID": [
			911
		],
		"Model": "CollectionActivityMap/Waypoint1_ABS/Halloween_CenterCity_Prefab.prefab",
		"InitState": "CollectionActivityWaypointStateType_Unlocked",
		"ScenarioLevelIdList": [
			901,
			902
		],
		"LootLevelIdList": [
			901,
			902
		]
	},
	{
		"ID": 902,
		"Name": "迷失森林",
		"Desc": "",
		"FuncType": "CollectionActivityWaypointFuncType_Default",
		"WaypointsID": [
			912,
			913
		],
		"Model": "CollectionActivityMap/Waypoint1_ABS/Halloween_Forest_Prefab.prefab",
		"InitState": "CollectionActivityWaypointStateType_Locked",
		"ScenarioLevelIdList": [
			903
		],
		"ChallengeLevelIdList": [
			903
		],
		"LootLevelIdList": [
			903
		]
	},
	{
		"ID": 903,
		"Name": "魔女居所",
		"Desc": "",
		"FuncType": "CollectionActivityWaypointFuncType_Default",
		"WaypointsID": [
			914,
			915
		],
		"Model": "CollectionActivityMap/Waypoint1_ABS/Halloween_MageHouse_Prefab.prefab",
		"InitState": "CollectionActivityWaypointStateType_Locked",
		"ScenarioLevelIdList": [
			904
		],
		"ChallengeLevelIdList": [
			901
		],
		"LootLevelIdList": [
			904,
			909
		]
	},
	{
		"ID": 904,
		"Name": "边境村庄",
		"Desc": "",
		"FuncType": "CollectionActivityWaypointFuncType_Default",
		"WaypointsID": [
			916,
			917
		],
		"Model": "CollectionActivityMap/Waypoint1_ABS/Halloween_Village_Prefab.prefab",
		"InitState": "CollectionActivityWaypointStateType_Locked",
		"ScenarioLevelIdList": [
			905
		],
		"ChallengeLevelIdList": [
			904
		],
		"LootLevelIdList": [
			905
		]
	},
	{
		"ID": 905,
		"Name": "血族城堡",
		"Desc": "",
		"FuncType": "CollectionActivityWaypointFuncType_Default",
		"WaypointsID": [
			917,
			918
		],
		"Model": "CollectionActivityMap/Waypoint1_ABS/Halloween_BloodCastle_Prefab.prefab",
		"InitState": "CollectionActivityWaypointStateType_Locked",
		"ScenarioLevelIdList": [
			906
		],
		"ChallengeLevelIdList": [
			905
		],
		"LootLevelIdList": [
			906,
			908
		]
	},
	{
		"ID": 906,
		"Name": "万灵旷野",
		"Desc": "",
		"FuncType": "CollectionActivityWaypointFuncType_Default",
		"WaypointsID": [
			920
		],
		"Model": "CollectionActivityMap/Waypoint1_ABS/Halloween_Wilderness_Prefab.prefab",
		"InitState": "CollectionActivityWaypointStateType_Locked",
		"ScenarioLevelIdList": [
			907,
			908
		],
		"ChallengeLevelIdList": [
			902
		],
		"LootLevelIdList": [
			907
		]
	},
	{
		"ID": 911,
		"Name": "",
		"Desc": "",
		"FuncType": "CollectionActivityWaypointFuncType_Event",
		"WaypointsID": [
			901,
			912
		],
		"Model": "",
		"InitState": "CollectionActivityWaypointStateType_Unlocked"
	},
	{
		"ID": 912,
		"Name": "",
		"Desc": "",
		"FuncType": "CollectionActivityWaypointFuncType_Event",
		"WaypointsID": [
			911,
			902
		],
		"Model": "",
		"InitState": "CollectionActivityWaypointStateType_Unlocked"
	},
	{
		"ID": 913,
		"Name": "",
		"Desc": "",
		"FuncType": "CollectionActivityWaypointFuncType_Event",
		"WaypointsID": [
			902,
			914
		],
		"Model": "",
		"InitState": "CollectionActivityWaypointStateType_Unlocked"
	},
	{
		"ID": 914,
		"Name": "",
		"Desc": "",
		"FuncType": "CollectionActivityWaypointFuncType_Event",
		"WaypointsID": [
			913,
			903
		],
		"Model": "",
		"InitState": "CollectionActivityWaypointStateType_Unlocked"
	},
	{
		"ID": 915,
		"Name": "",
		"Desc": "",
		"FuncType": "CollectionActivityWaypointFuncType_Event",
		"WaypointsID": [
			903,
			916
		],
		"Model": "",
		"InitState": "CollectionActivityWaypointStateType_Unlocked"
	},
	{
		"ID": 916,
		"Name": "",
		"Desc": "",
		"FuncType": "CollectionActivityWaypointFuncType_Event",
		"WaypointsID": [
			915,
			904
		],
		"Model": "",
		"InitState": "CollectionActivityWaypointStateType_Unlocked"
	},
	{
		"ID": 917,
		"Name": "",
		"Desc": "",
		"FuncType": "CollectionActivityWaypointFuncType_Event",
		"WaypointsID": [
			904,
			905
		],
		"Model": "",
		"InitState": "CollectionActivityWaypointStateType_Unlocked"
	},
	{
		"ID": 918,
		"Name": "",
		"Desc": "",
		"FuncType": "CollectionActivityWaypointFuncType_Event",
		"WaypointsID": [
			905,
			919
		],
		"Model": "",
		"InitState": "CollectionActivityWaypointStateType_Unlocked"
	},
	{
		"ID": 919,
		"Name": "",
		"Desc": "",
		"FuncType": "CollectionActivityWaypointFuncType_Event",
		"WaypointsID": [
			918,
			920
		],
		"Model": "",
		"InitState": "CollectionActivityWaypointStateType_Unlocked"
	},
	{
		"ID": 920,
		"Name": "",
		"Desc": "",
		"FuncType": "CollectionActivityWaypointFuncType_Event",
		"WaypointsID": [
			919,
			906
		],
		"Model": "",
		"InitState": "CollectionActivityWaypointStateType_Unlocked"
	},
	{
		"ID": 1001,
		"Name": "不归之森",
		"Desc": "",
		"FuncType": "CollectionActivityWaypointFuncType_Default",
		"WaypointsID": [
			1010
		],
		"Model": "CollectionActivityMap/Waypoint1_ABS/Icon_LodossForest_Prefab.prefab",
		"InitState": "CollectionActivityWaypointStateType_Unlocked",
		"ScenarioLevelIdList": [
			1001
		],
		"LootLevelIdList": [
			1001,
			1002
		]
	},
	{
		"ID": 1002,
		"Name": "安杰丽卡实验屋",
		"Desc": "",
		"FuncType": "CollectionActivityWaypointFuncType_Default",
		"WaypointsID": [
			1011,
			1012
		],
		"Model": "CollectionActivityMap/Waypoint1_ABS/Icon_LodossLaboratory_Prefab.prefab",
		"InitState": "CollectionActivityWaypointStateType_Locked",
		"ScenarioLevelIdList": [
			1002
		],
		"LootLevelIdList": [
			1003,
			1004
		]
	},
	{
		"ID": 1003,
		"Name": "龙之巢穴",
		"Desc": "",
		"FuncType": "CollectionActivityWaypointFuncType_Default",
		"WaypointsID": [
			1012,
			1013
		],
		"Model": "CollectionActivityMap/Waypoint1_ABS/Icon_LodossCavern_Prefab.prefab",
		"InitState": "CollectionActivityWaypointStateType_Locked",
		"ScenarioLevelIdList": [
			1003
		],
		"ChallengeLevelIdList": [
			1001
		],
		"LootLevelIdList": [
			1005
		]
	},
	{
		"ID": 1004,
		"Name": "联邦的宫殿",
		"Desc": "",
		"FuncType": "CollectionActivityWaypointFuncType_Default",
		"WaypointsID": [
			1014,
			1015
		],
		"Model": "CollectionActivityMap/Waypoint1_ABS/Icon_LodossPalace_Prefab.prefab",
		"InitState": "CollectionActivityWaypointStateType_Locked",
		"ScenarioLevelIdList": [
			1004
		],
		"ChallengeLevelIdList": [
			1002
		],
		"LootLevelIdList": [
			1006
		]
	},
	{
		"ID": 1005,
		"Name": "魔族的宫殿",
		"Desc": "",
		"FuncType": "CollectionActivityWaypointFuncType_Default",
		"WaypointsID": [
			1017,
			1006
		],
		"Model": "CollectionActivityMap/Waypoint1_ABS/Icon_LodossDemonPalace_Prefab.prefab",
		"InitState": "CollectionActivityWaypointStateType_Locked",
		"ScenarioLevelIdList": [
			1005
		],
		"ChallengeLevelIdList": [
			1003
		],
		"LootLevelIdList": [
			1007
		]
	},
	{
		"ID": 1006,
		"Name": "荒废的宫殿",
		"Desc": "",
		"FuncType": "CollectionActivityWaypointFuncType_Default",
		"WaypointsID": [
			1005,
			1018
		],
		"Model": "CollectionActivityMap/Waypoint1_ABS/Icon_LodossRuins_Prefab.prefab",
		"InitState": "CollectionActivityWaypointStateType_Locked",
		"ScenarioLevelIdList": [
			1006
		],
		"ChallengeLevelIdList": [
			1004
		],
		"LootLevelIdList": [
			1008
		]
	},
	{
		"ID": 1007,
		"Name": "荒漠中的祭坛",
		"Desc": "",
		"FuncType": "CollectionActivityWaypointFuncType_Default",
		"WaypointsID": [
			1019
		],
		"Model": "CollectionActivityMap/Waypoint1_ABS/Icon_LodossAltar_Prefab.prefab",
		"InitState": "CollectionActivityWaypointStateType_Locked",
		"ScenarioLevelIdList": [
			1007
		],
		"ChallengeLevelIdList": [
			1005
		],
		"LootLevelIdList": [
			1009
		]
	},
	{
		"ID": 1010,
		"Name": "",
		"Desc": "",
		"FuncType": "CollectionActivityWaypointFuncType_Event",
		"WaypointsID": [
			1001,
			1011
		],
		"Model": "",
		"InitState": "CollectionActivityWaypointStateType_Unlocked"
	},
	{
		"ID": 1011,
		"Name": "",
		"Desc": "",
		"FuncType": "CollectionActivityWaypointFuncType_Event",
		"WaypointsID": [
			1010,
			1002
		],
		"Model": "",
		"InitState": "CollectionActivityWaypointStateType_Unlocked"
	},
	{
		"ID": 1012,
		"Name": "",
		"Desc": "",
		"FuncType": "CollectionActivityWaypointFuncType_Event",
		"WaypointsID": [
			1002,
			1003
		],
		"Model": "",
		"InitState": "CollectionActivityWaypointStateType_Unlocked"
	},
	{
		"ID": 1013,
		"Name": "",
		"Desc": "",
		"FuncType": "CollectionActivityWaypointFuncType_Event",
		"WaypointsID": [
			1003,
			1014
		],
		"Model": "",
		"InitState": "CollectionActivityWaypointStateType_Unlocked"
	},
	{
		"ID": 1014,
		"Name": "",
		"Desc": "",
		"FuncType": "CollectionActivityWaypointFuncType_Event",
		"WaypointsID": [
			1013,
			1004
		],
		"Model": "",
		"InitState": "CollectionActivityWaypointStateType_Unlocked"
	},
	{
		"ID": 1015,
		"Name": "",
		"Desc": "",
		"FuncType": "CollectionActivityWaypointFuncType_Event",
		"WaypointsID": [
			1004,
			1016
		],
		"Model": "",
		"InitState": "CollectionActivityWaypointStateType_Unlocked"
	},
	{
		"ID": 1016,
		"Name": "",
		"Desc": "",
		"FuncType": "CollectionActivityWaypointFuncType_Event",
		"WaypointsID": [
			1015,
			1017
		],
		"Model": "",
		"InitState": "CollectionActivityWaypointStateType_Unlocked"
	},
	{
		"ID": 1017,
		"Name": "",
		"Desc": "",
		"FuncType": "CollectionActivityWaypointFuncType_Event",
		"WaypointsID": [
			1016,
			1005
		],
		"Model": "",
		"InitState": "CollectionActivityWaypointStateType_Unlocked"
	},
	{
		"ID": 1018,
		"Name": "",
		"Desc": "",
		"FuncType": "CollectionActivityWaypointFuncType_Event",
		"WaypointsID": [
			1006,
			1019
		],
		"Model": "",
		"InitState": "CollectionActivityWaypointStateType_Unlocked"
	},
	{
		"ID": 1019,
		"Name": "",
		"Desc": "",
		"FuncType": "CollectionActivityWaypointFuncType_Event",
		"WaypointsID": [
			1018,
			1007
		],
		"Model": "",
		"InitState": "CollectionActivityWaypointStateType_Unlocked"
	},
	{
		"ID": 1201,
		"Name": "洋食屋",
		"Desc": "",
		"FuncType": "CollectionActivityWaypointFuncType_Default",
		"WaypointsID": [
			1210,
			1225
		],
		"Model": "CollectionActivityMap/Waypoint1_ABS/Icon_Newyear_1_Beginning_Prefab.prefab",
		"InitState": "CollectionActivityWaypointStateType_Unlocked",
		"ScenarioLevelIdList": [
			1201,
			1207
		],
		"LootLevelIdList": [
			1201
		]
	},
	{
		"ID": 1202,
		"Name": "翼之传说",
		"Desc": "",
		"FuncType": "CollectionActivityWaypointFuncType_Default",
		"WaypointsID": [
			1212,
			1213
		],
		"Model": "CollectionActivityMap/Waypoint1_ABS/Icon_Newyear_2_Wings_Prefab.prefab",
		"InitState": "CollectionActivityWaypointStateType_Locked",
		"ScenarioLevelIdList": [
			1202
		],
		"ChallengeLevelIdList": [
			1201
		],
		"LootLevelIdList": [
			1202,
			1207
		]
	},
	{
		"ID": 1203,
		"Name": "巨兽回响",
		"Desc": "",
		"FuncType": "CollectionActivityWaypointFuncType_Default",
		"WaypointsID": [
			1214,
			1215
		],
		"Model": "CollectionActivityMap/Waypoint1_ABS/Icon_Newyear_3_Beasts_Prefab.prefab",
		"InitState": "CollectionActivityWaypointStateType_Locked",
		"ScenarioLevelIdList": [
			1203
		],
		"ChallengeLevelIdList": [
			1202
		],
		"LootLevelIdList": [
			1203
		]
	},
	{
		"ID": 1204,
		"Name": "神秘启示",
		"Desc": "",
		"FuncType": "CollectionActivityWaypointFuncType_Default",
		"WaypointsID": [
			1215,
			1216
		],
		"Model": "CollectionActivityMap/Waypoint1_ABS/Icon_Newyear_4_Mystic_Prefab.prefab",
		"InitState": "CollectionActivityWaypointStateType_Locked",
		"ScenarioLevelIdList": [
			1204
		],
		"ChallengeLevelIdList": [
			1203
		],
		"LootLevelIdList": [
			1204,
			1208
		]
	},
	{
		"ID": 1205,
		"Name": "冰封绝壁",
		"Desc": "",
		"FuncType": "CollectionActivityWaypointFuncType_Default",
		"WaypointsID": [
			1217,
			1218
		],
		"Model": "CollectionActivityMap/Waypoint1_ABS/Icon_Newyear_5_Frost_Prefab.prefab",
		"InitState": "CollectionActivityWaypointStateType_Locked",
		"ScenarioLevelIdList": [
			1205
		],
		"ChallengeLevelIdList": [
			1204
		],
		"LootLevelIdList": [
			1205
		]
	},
	{
		"ID": 1206,
		"Name": "回忆奔流",
		"Desc": "",
		"FuncType": "CollectionActivityWaypointFuncType_Default",
		"WaypointsID": [
			1218,
			1219
		],
		"Model": "CollectionActivityMap/Waypoint1_ABS/Icon_Newyear_6_Memory_Prefab.prefab",
		"InitState": "CollectionActivityWaypointStateType_Locked",
		"ScenarioLevelIdList": [
			1206
		],
		"ChallengeLevelIdList": [
			1205
		],
		"LootLevelIdList": [
			1206,
			1209
		]
	},
	{
		"ID": 1210,
		"Name": "",
		"Desc": "",
		"FuncType": "CollectionActivityWaypointFuncType_Event",
		"WaypointsID": [
			1201,
			1211
		],
		"Model": "",
		"InitState": "CollectionActivityWaypointStateType_Unlocked"
	},
	{
		"ID": 1211,
		"Name": "",
		"Desc": "",
		"FuncType": "CollectionActivityWaypointFuncType_Event",
		"WaypointsID": [
			1210,
			1212
		],
		"Model": "",
		"InitState": "CollectionActivityWaypointStateType_Unlocked"
	},
	{
		"ID": 1212,
		"Name": "",
		"Desc": "",
		"FuncType": "CollectionActivityWaypointFuncType_Event",
		"WaypointsID": [
			1211,
			1202
		],
		"Model": "",
		"InitState": "CollectionActivityWaypointStateType_Unlocked"
	},
	{
		"ID": 1213,
		"Name": "",
		"Desc": "",
		"FuncType": "CollectionActivityWaypointFuncType_Event",
		"WaypointsID": [
			1202,
			1214
		],
		"Model": "",
		"InitState": "CollectionActivityWaypointStateType_Unlocked"
	},
	{
		"ID": 1214,
		"Name": "",
		"Desc": "",
		"FuncType": "CollectionActivityWaypointFuncType_Event",
		"WaypointsID": [
			1213,
			1203
		],
		"Model": "",
		"InitState": "CollectionActivityWaypointStateType_Unlocked"
	},
	{
		"ID": 1215,
		"Name": "",
		"Desc": "",
		"FuncType": "CollectionActivityWaypointFuncType_Event",
		"WaypointsID": [
			1203,
			1204
		],
		"Model": "",
		"InitState": "CollectionActivityWaypointStateType_Unlocked"
	},
	{
		"ID": 1216,
		"Name": "",
		"Desc": "",
		"FuncType": "CollectionActivityWaypointFuncType_Event",
		"WaypointsID": [
			1204,
			1217
		],
		"Model": "",
		"InitState": "CollectionActivityWaypointStateType_Unlocked"
	},
	{
		"ID": 1217,
		"Name": "",
		"Desc": "",
		"FuncType": "CollectionActivityWaypointFuncType_Event",
		"WaypointsID": [
			1216,
			1205
		],
		"Model": "",
		"InitState": "CollectionActivityWaypointStateType_Unlocked"
	},
	{
		"ID": 1218,
		"Name": "",
		"Desc": "",
		"FuncType": "CollectionActivityWaypointFuncType_Event",
		"WaypointsID": [
			1205,
			1206
		],
		"Model": "",
		"InitState": "CollectionActivityWaypointStateType_Unlocked"
	},
	{
		"ID": 1219,
		"Name": "",
		"Desc": "",
		"FuncType": "CollectionActivityWaypointFuncType_Event",
		"WaypointsID": [
			1206,
			1220
		],
		"Model": "",
		"InitState": "CollectionActivityWaypointStateType_Unlocked"
	},
	{
		"ID": 1220,
		"Name": "",
		"Desc": "",
		"FuncType": "CollectionActivityWaypointFuncType_Event",
		"WaypointsID": [
			1219,
			1221
		],
		"Model": "",
		"InitState": "CollectionActivityWaypointStateType_Unlocked"
	},
	{
		"ID": 1221,
		"Name": "",
		"Desc": "",
		"FuncType": "CollectionActivityWaypointFuncType_Event",
		"WaypointsID": [
			1220,
			1222
		],
		"Model": "",
		"InitState": "CollectionActivityWaypointStateType_Unlocked"
	},
	{
		"ID": 1222,
		"Name": "",
		"Desc": "",
		"FuncType": "CollectionActivityWaypointFuncType_Event",
		"WaypointsID": [
			1221,
			1223
		],
		"Model": "",
		"InitState": "CollectionActivityWaypointStateType_Unlocked"
	},
	{
		"ID": 1223,
		"Name": "",
		"Desc": "",
		"FuncType": "CollectionActivityWaypointFuncType_Event",
		"WaypointsID": [
			1222,
			1224
		],
		"Model": "",
		"InitState": "CollectionActivityWaypointStateType_Unlocked"
	},
	{
		"ID": 1224,
		"Name": "",
		"Desc": "",
		"FuncType": "CollectionActivityWaypointFuncType_Event",
		"WaypointsID": [
			1223,
			1225
		],
		"Model": "",
		"InitState": "CollectionActivityWaypointStateType_Unlocked"
	},
	{
		"ID": 1225,
		"Name": "",
		"Desc": "",
		"FuncType": "CollectionActivityWaypointFuncType_Event",
		"WaypointsID": [
			1224,
			1201
		],
		"Model": "",
		"InitState": "CollectionActivityWaypointStateType_Unlocked"
	}
]