[
	{
		"ID": 1,
		"RankEquipmentNextExps": [
			10,
			20,
			40,
			60
		]
	},
	{
		"ID": 2,
		"RankEquipmentNextExps": [
			10,
			30,
			50,
			70
		]
	},
	{
		"ID": 3,
		"RankEquipmentNextExps": [
			20,
			30,
			50,
			80
		]
	},
	{
		"ID": 4,
		"RankEquipmentNextExps": [
			20,
			40,
			60,
			90
		]
	},
	{
		"ID": 5,
		"RankEquipmentNextExps": [
			30,
			60,
			80,
			110
		]
	},
	{
		"ID": 6,
		"RankEquipmentNextExps": [
			30,
			70,
			90,
			130
		]
	},
	{
		"ID": 7,
		"RankEquipmentNextExps": [
			40,
			70,
			100,
			140
		]
	},
	{
		"ID": 8,
		"RankEquipmentNextExps": [
			40,
			80,
			120,
			150
		]
	},
	{
		"ID": 9,
		"RankEquipmentNextExps": [
			50,
			90,
			130,
			170
		]
	},
	{
		"ID": 10,
		"RankEquipmentNextExps": [
			70,
			140,
			190,
			240
		]
	},
	{
		"ID": 11,
		"RankEquipmentNextExps": [
			80,
			160,
			200,
			260
		]
	},
	{
		"ID": 12,
		"RankEquipmentNextExps": [
			80,
			170,
			220,
			280
		]
	},
	{
		"ID": 13,
		"RankEquipmentNextExps": [
			90,
			180,
			230,
			300
		]
	},
	{
		"ID": 14,
		"RankEquipmentNextExps": [
			100,
			200,
			250,
			320
		]
	},
	{
		"ID": 15,
		"RankEquipmentNextExps": [
			100,
			210,
			270,
			340
		]
	},
	{
		"ID": 16,
		"RankEquipmentNextExps": [
			110,
			220,
			280,
			360
		]
	},
	{
		"ID": 17,
		"RankEquipmentNextExps": [
			120,
			240,
			300,
			380
		]
	},
	{
		"ID": 18,
		"RankEquipmentNextExps": [
			120,
			250,
			320,
			400
		]
	},
	{
		"ID": 19,
		"RankEquipmentNextExps": [
			130,
			260,
			330,
			420
		]
	},
	{
		"ID": 20,
		"RankEquipmentNextExps": [
			200,
			400,
			500,
			640
		]
	},
	{
		"ID": 21,
		"RankEquipmentNextExps": [
			210,
			430,
			530,
			670
		]
	},
	{
		"ID": 22,
		"RankEquipmentNextExps": [
			220,
			450,
			550,
			700
		]
	},
	{
		"ID": 23,
		"RankEquipmentNextExps": [
			230,
			470,
			570,
			730
		]
	},
	{
		"ID": 24,
		"RankEquipmentNextExps": [
			240,
			490,
			600,
			760
		]
	},
	{
		"ID": 25,
		"RankEquipmentNextExps": [
			250,
			510,
			620,
			790
		]
	},
	{
		"ID": 26,
		"RankEquipmentNextExps": [
			260,
			530,
			650,
			820
		]
	},
	{
		"ID": 27,
		"RankEquipmentNextExps": [
			270,
			550,
			670,
			850
		]
	},
	{
		"ID": 28,
		"RankEquipmentNextExps": [
			280,
			570,
			700,
			880
		]
	},
	{
		"ID": 29,
		"RankEquipmentNextExps": [
			290,
			590,
			720,
			910
		]
	},
	{
		"ID": 30,
		"RankEquipmentNextExps": [
			450,
			900,
			1100,
			1380
		]
	},
	{
		"ID": 31,
		"RankEquipmentNextExps": [
			470,
			930,
			1130,
			1430
		]
	},
	{
		"ID": 32,
		"RankEquipmentNextExps": [
			480,
			960,
			1170,
			1470
		]
	},
	{
		"ID": 33,
		"RankEquipmentNextExps": [
			500,
			990,
			1210,
			1520
		]
	},
	{
		"ID": 34,
		"RankEquipmentNextExps": [
			510,
			1020,
			1240,
			1560
		]
	},
	{
		"ID": 35,
		"RankEquipmentNextExps": [
			530,
			1050,
			1280,
			1610
		]
	},
	{
		"ID": 36,
		"RankEquipmentNextExps": [
			540,
			1080,
			1320,
			1650
		]
	},
	{
		"ID": 37,
		"RankEquipmentNextExps": [
			560,
			1110,
			1350,
			1700
		]
	},
	{
		"ID": 38,
		"RankEquipmentNextExps": [
			570,
			1140,
			1390,
			1750
		]
	},
	{
		"ID": 39,
		"RankEquipmentNextExps": [
			590,
			1170,
			1430,
			1790
		]
	},
	{
		"ID": 40,
		"RankEquipmentNextExps": [
			900,
			1800,
			2170,
			2730
		]
	},
	{
		"ID": 41,
		"RankEquipmentNextExps": [
			920,
			1840,
			2230,
			2790
		]
	},
	{
		"ID": 42,
		"RankEquipmentNextExps": [
			940,
			1890,
			2280,
			2860
		]
	},
	{
		"ID": 43,
		"RankEquipmentNextExps": [
			970,
			1930,
			2340,
			2930
		]
	},
	{
		"ID": 44,
		"RankEquipmentNextExps": [
			990,
			1980,
			2390,
			3000
		]
	},
	{
		"ID": 45,
		"RankEquipmentNextExps": [
			1010,
			2020,
			2450,
			3070
		]
	},
	{
		"ID": 46,
		"RankEquipmentNextExps": [
			1040,
			2070,
			2500,
			3140
		]
	},
	{
		"ID": 47,
		"RankEquipmentNextExps": [
			1060,
			2120,
			2560,
			3200
		]
	},
	{
		"ID": 48,
		"RankEquipmentNextExps": [
			1080,
			2160,
			2610,
			3270
		]
	},
	{
		"ID": 49,
		"RankEquipmentNextExps": [
			1100,
			2210,
			2660,
			3340
		]
	},
	{
		"ID": 50,
		"RankEquipmentNextExps": [
			0,
			0,
			0,
			0
		]
	}
]