v 0.09776079654693604 -0.021949822083115578 1.4100903272628784
v 0.27380064129829407 0.40548819303512573 1.3564196825027466
v 0.47263360023498535 -0.1491081416606903 1.3564196825027466
v 0.47263360023498535 -0.1491081416606903 1.3564196825027466
v 0.27380064129829407 0.40548819303512573 1.3564196825027466
v 0.6064727902412415 0.3709702789783478 1.2612228393554688
v 0.8619322776794434 -0.05685970559716225 1.1994942426681519
v 0.6064727902412415 0.3709702789783478 1.2612228393554688
v 0.8712449669837952 0.37321773171424866 1.0440278053283691
v 0.6064727902412415 0.3709702789783478 1.2612228393554688
v 0.22908298671245575 0.7050449848175049 1.1994941234588623
v 0.6241806149482727 0.7132725715637207 1.0440278053283691
v 0.27380064129829407 0.40548819303512573 1.3564196825027466
v -0.22369135916233063 0.4739324450492859 1.2612228393554688
v 0.22908298671245575 0.7050449848175049 1.1994941234588623
v 0.27380064129829407 0.40548819303512573 1.3564196825027466
v -0.4420492649078369 0.14959639310836792 1.3564196825027466
v -0.22369135916233063 0.4739324450492859 1.2612228393554688
v -0.4420492649078369 0.14959639310836792 1.3564196825027466
v -0.5997471213340759 0.43574172258377075 1.1994941234588623
v -0.22369135916233063 0.4739324450492859 1.2612228393554688
v 0.22908298671245575 0.7050449848175049 1.1994941234588623
v -0.08572167903184891 0.9439338445663452 1.0440278053283691
v 0.3216537535190582 0.989948570728302 0.951259195804596
v 0.22908298671245575 0.7050449848175049 1.1994941234588623
v -0.22369135916233063 0.4739324450492859 1.2612228393554688
v -0.08572167903184891 0.9439338445663452 1.0440278053283691
v -0.22369135916233063 0.4739324450492859 1.2612228393554688
v -0.5997471213340759 0.43574172258377075 1.1994941234588623
v -0.4854801893234253 0.8140442967414856 1.0440278053283691
v 0.09776079654693604 -0.021949822083115578 1.4100903272628784
v -0.2340112030506134 -0.3656282424926758 1.3564196825027466
v -0.4420492649078369 0.14959639310836792 1.3564196825027466
v -0.4420492649078369 0.14959639310836792 1.3564196825027466
v -0.2340112030506134 -0.3656282424926758 1.3564196825027466
v -0.6306114196777344 -4.121118735156415e-08 1.2612228393554688
v -0.2340112030506134 -0.3656282424926758 1.3564196825027466
v -0.5997470021247864 -0.4357418119907379 1.1994941234588623
v -0.6306114196777344 -4.121118735156415e-08 1.2612228393554688
v -0.5997471213340759 0.43574172258377075 1.1994941234588623
v -0.9242238998413086 0.21016544103622437 1.0440279245376587
v -0.8421006202697754 0.6118218302726746 0.951259195804596
v -0.5997471213340759 0.43574172258377075 1.1994941234588623
v -0.6306114196777344 -4.121118735156415e-08 1.2612228393554688
v -0.9242238998413086 0.21016544103622437 1.0440279245376587
v -0.6306114196777344 -4.121118735156415e-08 1.2612228393554688
v -0.924223780632019 -0.2101655900478363 1.0440279245376587
v -0.9242238998413086 0.21016544103622437 1.0440279245376587
v 0.09776079654693604 -0.021949822083115578 1.4100903272628784
v 0.11907368898391724 -0.36647093296051025 1.356419563293457
v -0.2340112030506134 -0.3656282424926758 1.3564196825027466
v 0.11907368898391724 -0.36647093296051025 1.356419563293457
v 0.47263360023498535 -0.1491081416606903 1.3564196825027466
v 0.5101754665374756 -0.3706640899181366 1.2612228393554688
v 0.47263360023498535 -0.1491081416606903 1.3564196825027466
v 0.8619322776794434 -0.05685970559716225 1.1994942426681519
v 0.5101754665374756 -0.3706640899181366 1.2612228393554688
vn 0.03381859511137009 -0.02696043811738491 0.9990642666816711
vn 0.06942711770534515 0.254873126745224 0.9644788503646851
vn 0.2923887073993683 -0.18425436317920685 0.9383810758590698
vn 0.2923887073993683 -0.18425436317920685 0.9383810758590698
vn 0.06942711770534515 0.254873126745224 0.9644788503646851
vn 0.40640395879745483 0.26840487122535706 0.8733810782432556
vn 0.5534949898719788 0.021709850057959557 0.8325694799423218
vn 0.40640395879745483 0.26840487122535706 0.8733810782432556
vn 0.6115761995315552 0.2572219669818878 0.7482054829597473
vn 0.40640395879745483 0.26840487122535706 0.8733810782432556
vn 0.02906559407711029 0.5118167400360107 0.85860276222229
vn 0.3084799647331238 0.49820494651794434 0.8103283047676086
vn 0.06942711770534515 0.254873126745224 0.9644788503646851
vn -0.1436886489391327 0.4001966416835785 0.9050946235656738
vn 0.02906559407711029 0.5118167400360107 0.85860276222229
vn 0.06942711770534515 0.254873126745224 0.9644788503646851
vn -0.22386886179447174 0.11206956207752228 0.9681545495986938
vn -0.1436886489391327 0.4001966416835785 0.9050946235656738
vn -0.22386886179447174 0.11206956207752228 0.9681545495986938
vn -0.36142072081565857 0.3307722508907318 0.8717595934867859
vn -0.1436886489391327 0.4001966416835785 0.9050946235656738
vn 0.02906559407711029 0.5118167400360107 0.85860276222229
vn -0.008166443556547165 0.5378530025482178 0.8429991006851196
vn 0.10285905003547668 0.6342284679412842 0.7662729024887085
vn 0.02906559407711029 0.5118167400360107 0.85860276222229
vn -0.1436886489391327 0.4001966416835785 0.9050946235656738
vn -0.008166443556547165 0.5378530025482178 0.8429991006851196
vn -0.1436886489391327 0.4001966416835785 0.9050946235656738
vn -0.36142072081565857 0.3307722508907318 0.8717595934867859
vn -0.18841034173965454 0.42145422101020813 0.8870614171028137
vn 0.03381859511137009 -0.02696043811738491 0.9990642666816711
vn -0.19100609421730042 -0.117249995470047 0.9745610356330872
vn -0.22386886179447174 0.11206956207752228 0.9681545495986938
vn -0.22386886179447174 0.11206956207752228 0.9681545495986938
vn -0.19100609421730042 -0.117249995470047 0.9745610356330872
vn -0.4599839746952057 -0.03850512206554413 0.887091875076294
vn -0.19100609421730042 -0.117249995470047 0.9745610356330872
vn -0.36410000920295715 -0.1558687686920166 0.9182245135307312
vn -0.4599839746952057 -0.03850512206554413 0.887091875076294
vn -0.36142072081565857 0.3307722508907318 0.8717595934867859
vn -0.563163697719574 0.14694495499134064 0.8131752014160156
vn -0.5714017748832703 0.29381224513053894 0.7662729620933533
vn -0.36142072081565857 0.3307722508907318 0.8717595934867859
vn -0.4599839746952057 -0.03850512206554413 0.887091875076294
vn -0.563163697719574 0.14694495499134064 0.8131752014160156
vn -0.4599839746952057 -0.03850512206554413 0.887091875076294
vn -0.5947043895721436 0.0 0.80394446849823
vn -0.563163697719574 0.14694495499134064 0.8131752014160156
vn 0.03381859511137009 -0.02696043811738491 0.9990642666816711
vn 0.06270163506269455 -0.21331843733787537 0.9749685525894165
vn -0.19100609421730042 -0.117249995470047 0.9745610356330872
vn 0.06270163506269455 -0.21331843733787537 0.9749685525894165
vn 0.2923887073993683 -0.18425436317920685 0.9383810758590698
vn 0.3109612762928009 -0.3302367329597473 0.8912053108215332
vn 0.2923887073993683 -0.18425436317920685 0.9383810758590698
vn 0.5534949898719788 0.021709850057959557 0.8325694799423218
vn 0.3109612762928009 -0.3302367329597473 0.8912053108215332
vt 0.6193112134933472 0.6592113971710205
vt 0.6702955961227417 0.5033095479011536
vt 0.7278810739517212 0.7055906057357788
vt 0.7690311074256897 0.702673077583313
vt 0.7131066918373108 0.5062270164489746
vt 0.8066751956939697 0.5184537768363953
vt 0.9708217978477478 0.6814557909965515
vt 0.8783397674560547 0.48639971017837524
vt 0.974193274974823 0.4853751063346863
vt 0.7889291048049927 0.357930064201355
vt 0.7122097611427307 0.27240145206451416
vt 0.7925289869308472 0.27029502391815186
vt 0.6111397743225098 0.3674010634422302
vt 0.4462760388851166 0.3388364315032959
vt 0.5963208079338074 0.24238348007202148
vt 0.5625906586647034 0.4444620609283447
vt 0.37320905923843384 0.5297179818153381
vt 0.4309767484664917 0.42165833711624146
vt 0.27496999502182007 0.5462113320827484
vt 0.22051483392715454 0.4217732548713684
vt 0.3503720164299011 0.40516507625579834
vt 0.6083049774169922 0.1448807716369629
vt 0.5294051766395569 0.06947869062423706
vt 0.631506085395813 0.05495476722717285
vt 0.6013643741607666 0.19894921779632568
vt 0.4311455488204956 0.30837053060531616
vt 0.4830147624015808 0.08584606647491455
vt 0.31686046719551086 0.2878209948539734
vt 0.2540263533592224 0.29585719108581543
vt 0.27311891317367554 0.2162531614303589
vt 0.5090718269348145 0.7339075207710266
vt 0.3982020616531372 0.8785441368818283
vt 0.328681081533432 0.6617124378681183
vt 0.27115416526794434 0.676167905330658
vt 0.3314056694507599 0.8640886843204498
vt 0.21654319763183594 0.7307310104370117
vt 0.3212282061576843 0.8915242254734039
vt 0.23407545685768127 0.9125653058290482
vt 0.2267206758260727 0.7817990630865097
vt 0.10321936011314392 0.3887063264846802
vt -0.0043089366517961025 0.4828487038612366
vt 0.022905908524990082 0.3152207136154175
vt 0.14728674292564392 0.44527125358581543
vt 0.1364569365978241 0.6378216743469238
vt 0.03343324735760689 0.5449513494968414
vt 0.11569733172655106 0.6943643689155579
vt 0.04783251881599426 0.7555408477783203
vt 0.04783251881599426 0.6331878900527954
vt 0.5337549448013306 0.7592990398406982
vt 0.540758490562439 0.9018738567829132
vt 0.42473304271698 0.9015250727534294
vt 0.6219149827957153 0.9233774989843369
vt 0.7449886798858643 0.8280891180038452
vt 0.7580568790435791 0.9252157360315323
vt 0.8354482650756836 0.8229861259460449
vt 0.9373550415039062 0.7925750911235809
vt 0.8452756404876709 0.8960253521800041

g GeoSphere001
s 1
usemtl GeoSphere001
f 3/3/3 2/2/2 1/1/1 
f 6/6/6 5/5/5 4/4/4 
f 9/9/9 8/8/8 7/7/7 
f 12/12/12 11/11/11 10/10/10 
f 15/15/15 14/14/14 13/13/13 
f 18/18/18 17/17/17 16/16/16 
f 21/21/21 20/20/20 19/19/19 
f 24/24/24 23/23/23 22/22/22 
f 27/27/27 26/26/26 25/25/25 
f 30/30/30 29/29/29 28/28/28 
f 33/33/33 32/32/32 31/31/31 
f 36/36/36 35/35/35 34/34/34 
f 39/39/39 38/38/38 37/37/37 
f 42/42/42 41/41/41 40/40/40 
f 45/45/45 44/44/44 43/43/43 
f 48/48/48 47/47/47 46/46/46 
f 51/51/51 50/50/50 49/49/49 
f 54/54/54 53/53/53 52/52/52 
f 57/57/57 56/56/56 55/55/55 

