v 0.007942195981740952 13.498636245727539 0.43306395411491394
v 0.04753830283880234 14.314526557922363 0.3362899720668793
v 0.09645503759384155 14.122425079345703 1.188037395477295
v 0.0523289330303669 15.10390853881836 0.8398130536079407
v 0.02747405506670475 14.808403015136719 0.18225745856761932
v -0.002057021716609597 15.69296932220459 0.4274190068244934
v -1.0890176781686023e-05 14.973411560058594 -1.9336102923261933e-06
v -1.5482430171687156e-05 15.887998580932617 -3.268899945396697e-06
v 0.0061070602387189865 14.80932331085205 -0.17263224720954895
v 0.1117728129029274 15.697657585144043 -0.37526583671569824
v 0.07907519489526749 14.322320938110352 -0.2859119772911072
v 0.3724821209907532 15.143433570861816 -0.6057677865028381
v 0.24307560920715332 13.527438163757324 -0.27179640531539917
v 0.794731855392456 14.267197608947754 -0.5630781054496765
v 0.1328076422214508 13.5003662109375 -0.03795768320560455
v 0.12001355737447739 12.805516242980957 -0.13622352480888367
v 0.08092541992664337 13.921323776245117 -0.00045357088674791157
v -6.9205152612994425e-06 14.062304496765137 -7.105600730028527e-07
v -0.08406100422143936 13.921085357666016 -0.011318288743495941
v -0.15101799368858337 13.498353958129883 -0.006110759451985359
v -0.1843632012605667 12.798044204711914 0.05019332468509674
v 0.26654767990112305 12.673879623413086 -0.29750677943229675
v 0.34195154905319214 12.077868461608887 -0.5241243839263916
v 0.1464555263519287 13.03380298614502 -0.1300078183412552
v -2.378259296165197e-06 13.15420913696289 -5.892356398362608e-07
v -0.16160672903060913 13.033472061157227 0.11200437694787979
v -0.3314346671104431 12.671076774597168 0.2243136614561081
v -0.504952073097229 12.067429542541504 0.35551971197128296
v 0.4190564751625061 11.842309951782227 -0.4604113698005676
v 0.6080024242401123 11.335872650146484 -0.7540914416313171
v 0.21546395123004913 12.146952629089355 -0.2152032107114792
v 1.915042048494797e-06 12.248656272888184 -7.444039624715515e-07
v -0.22846099734306335 12.146811485290527 0.2010512351989746
v -0.4736654758453369 11.841105461120605 0.4018479585647583
v -0.7410334348678589 11.331380844116211 0.6149157881736755
v 0.5703505873680115 11.009499549865723 -0.5448288917541504
v 0.8744800686836243 10.590008735656738 -0.8561295866966248
v 0.281988263130188 11.261244773864746 -0.2639595866203308
v 6.217875579750398e-06 11.345170974731445 -1.3233997151473886e-06
v -0.28588971495628357 11.261235237121582 0.25966107845306396
v -0.5866766571998596 11.00941276550293 0.5269346833229065
v -0.9138659238815308 10.589685440063477 0.8131475448608398
v 0.7080097198486328 10.17723560333252 -0.5671202540397644
v 1.1150881052017212 9.844970703125 -0.8594968318939209
v 0.3421933650970459 10.376749038696289 -0.28312021493911743
v 1.0279484740749467e-05 10.443285942077637 -2.0254981336620403e-06
v -0.33476200699806213 10.376715660095215 0.2915908396244049
v -0.6771416068077087 10.176952362060547 0.6024888753890991
v -1.0410332679748535 9.843913078308105 0.9447686672210693
v 0.8253078460693359 9.346169471740723 -0.5409437417984009
v 1.316253900527954 9.102400779724121 -0.7890806794166565
v 0.3939521908760071 9.493300437927246 -0.2783736288547516
v 1.4206199011823628e-05 9.54252815246582 -2.877411361623672e-06
v -0.3758102059364319 9.49310302734375 0.30036789178848267
v -0.7499922513961792 9.344491958618164 0.6327836513519287
v -1.1359999179840088 9.096144676208496 1.0105581283569336
v 0.9197165369987488 8.516433715820312 -0.47696927189826965
v 1.4732329845428467 8.362666130065918 -0.6640726923942566
v 0.4365147352218628 8.610621452331543 -0.2542541027069092
v 1.791402064554859e-05 8.64242935180664 -3.7552249523287173e-06
v -0.40985265374183655 8.6101713180542 0.28916776180267334
v -0.8090910315513611 8.512605667114258 0.6226348280906677
v -1.2088171243667603 8.348395347595215 1.014844298362732
v 0.9917699694633484 7.688009738922119 -0.3829447031021118
v 1.5871700048446655 7.625877857208252 -0.4979296922683716
v 0.47025278210639954 7.728387832641602 -0.2141847163438797
v 2.168768878618721e-05 7.742517471313477 -4.849515789828729e-06
v -0.4379896819591522 7.727646827697754 0.2607203722000122
v -0.8579137325286865 7.681716442108154 0.5768207907676697
v -1.2673265933990479 7.602426528930664 0.9636334180831909
v 1.0442290306091309 6.860947132110596 -0.2639302909374237
v 1.6630011796951294 6.892442226409912 -0.2989491820335388
v 0.49646684527397156 6.846282005310059 -0.16054083406925201
v 2.451376712997444e-05 6.842320919036865 -5.186152975511504e-06
v -0.46176576614379883 6.845252513885498 0.21723221242427826
v -0.9001722931861877 6.852188587188721 0.499672532081604
v -1.3184810876846313 6.859833717346191 0.8633737564086914
v 1.0814796686172485 6.035481929779053 -0.12258397787809372
v 1.7080061435699463 6.163324356079102 -0.07104818522930145
v 0.5172410011291504 5.964028358459473 -0.09471346437931061
v 2.7124417101731524e-05 5.941370010375977 -5.400035661295988e-06
v -0.4833017885684967 5.9627275466918945 0.16032728552818298
v -0.9403505325317383 6.024433612823486 0.3947991132736206
v -1.3695592880249023 6.122230052947998 0.7201905846595764
v 1.10908842086792 5.2121124267578125 0.0405869223177433
v 1.7307921648025513 5.440165042877197 0.1855047643184662
v 0.5353344082832336 5.0813984870910645 -0.017160676419734955
v 2.9365373848122545e-05 5.039195537567139 -5.300478278513765e-06
v -0.5054048299789429 5.079855442047119 0.09100945293903351
v -0.9841427206993103 5.199006080627441 0.2649299204349518
v -1.4291889667510986 5.391468524932861 0.5395007133483887
v 1.1334562301635742 4.39165735244751 0.2270512729883194
v 1.7405186891555786 4.725378036499023 0.47353142499923706
v 0.5540949702262878 4.198246955871582 0.07256340235471725
v 3.11359872284811e-05 4.1353230476379395 -4.7820640247664414e-06
v -0.5316537022590637 4.196484565734863 0.009646729566156864
v -1.038800597190857 4.376710891723633 0.11188306659460068
v -1.5081313848495483 4.669907569885254 0.3259666860103607
v 1.1615099906921387 3.5753650665283203 0.4401910603046417
v 1.7462133169174194 4.022287845611572 0.7986217737197876
v 0.5773859024047852 3.314532995223999 0.1758095622062683
v 3.2304058549925685e-05 3.2292823791503906 -3.6295925838203402e-06
v -0.5664712190628052 3.3125717639923096 -0.08401027321815491
v -1.1133943796157837 3.5587425231933594 -0.06332405656576157
v -1.6198153495788574 3.960693836212158 0.0838107317686081
v 1.200378179550171 2.765017032623291 0.6853677034378052
v 1.7560274600982666 3.3353633880615234 1.169068694114685
v 0.6095122694969177 2.430354595184326 0.29487407207489014
v 3.227630804758519e-05 2.3206076622009277 -1.4883416952216066e-06
v -0.615189254283905 2.428203582763672 -0.19077056646347046
v -1.219002604484558 2.746824264526367 -0.26018449664115906
v -1.78060781955719 3.268083333969116 -0.1824469119310379
v 1.2569952011108398 1.9631460905075073 0.9701175093650818
v 1.7763041257858276 2.6705896854400635 1.5960110425949097
v 0.6551386117935181 1.5460065603256226 0.4330754578113556
v 3.198961348971352e-05 1.4088221788406372 1.0893473927353625e-06
v -0.6841026544570923 1.54367196559906 -0.31189727783203125
v -1.3688232898712158 1.9434168338775635 -0.4781953692436218
v -2.0097577571868896 2.597811222076416 -0.466756671667099
v 1.3375616073608398 1.1733248233795166 1.3044637441635132
v 1.8102895021438599 2.0360007286071777 2.0937023162841797
v 0.7191770076751709 0.6620574593544006 0.5948824882507324
v 3.0427110687014647e-05 0.4934597909450531 4.856594387092628e-06
v -0.780532956123352 0.659525454044342 -0.4489326775074005
v -1.5781856775283813 1.1519607305526733 -0.7160863280296326
v -2.328899621963501 1.9574750661849976 -0.7597452998161316
v 1.4467781782150269 0.4005279541015625 1.7013219594955444
v 1.8563026189804077 1.4423673152923584 2.6797239780426025
v 0.8066350221633911 -0.22054523229599 0.7860844731330872
v 2.8038051823386922e-05 -0.42595383524894714 9.44351722864667e-06
v -0.9128744006156921 -0.223323792219162 -0.6034637689590454
v -1.8644174337387085 0.37715330719947815 -0.9707509875297546
v -2.760895013809204 1.3568623065948486 -1.046368956565857
v 1.5867410898208618 -0.3483285903930664 2.1768994331359863
v 1.9051344394683838 0.904061496257782 3.3748137950897217
v 0.922402024269104 -1.1003386974334717 1.014006495475769
v 2.476627560099587e-05 -1.3498865365982056 1.478773629060015e-05
v -1.0906418561935425 -1.1034917831420898 -0.7767908573150635
v -2.24645733833313 -0.3747357428073883 -1.2358505725860596
v -3.327670097351074 0.8080876469612122 -1.3031065464019775
vn -0.9863684773445129 0.03893958032131195 -0.15987780690193176
vn -0.9998053908348083 -0.0194705817848444 -0.003189692273736
vn -0.9981012940406799 0.012895157560706139 0.06023029610514641
vn -0.9977729916572571 -0.03757895529270172 0.05510805547237396
vn -0.9945611357688904 -0.03192736953496933 0.09913945198059082
vn -0.9993590712547302 -0.02298925071954727 0.027439355850219727
vn -0.9994714856147766 -0.006532243452966213 0.03184685483574867
vn -0.9904648065567017 0.01872333511710167 -0.13648785650730133
vn -0.9478256702423096 0.02845858223736286 -0.3175162374973297
vn -0.9035263657569885 0.022305281832814217 -0.42795151472091675
vn -0.6844511032104492 -0.05473700165748596 -0.7270011305809021
vn -0.6139419674873352 -0.06802491098642349 -0.7864145636558533
vn -0.44407138228416443 -0.12497465312480927 -0.8872327208518982
vn -0.26642099022865295 -0.1745675504207611 -0.9479166269302368
vn -0.9739689826965332 -0.06828832626342773 0.2161509394645691
vn -0.7445494532585144 0.11992662400007248 -0.6567067503929138
vn -0.678148090839386 -0.10493495315313339 0.7273951768875122
vn -0.250460147857666 -0.07485859096050262 0.9652283787727356
vn -0.7275806665420532 0.16123729944229126 0.6668049097061157
vn -0.8866400718688965 0.06756072491407394 -0.45749858021736145
vn -0.639022707939148 -0.0387723483145237 -0.7682100534439087
vn 0.5761170387268066 0.6021771430969238 -0.5526949763298035
vn 0.9217925667762756 0.26486486196517944 -0.2830992639064789
vn 0.6625528335571289 -0.06766699254512787 0.7459523677825928
vn 0.6003568172454834 -0.016562633216381073 0.7995607256889343
vn 0.4774097204208374 0.06282249093055725 0.8764321208000183
vn -0.1833331286907196 0.2752149701118469 0.9437402486801147
vn -0.9429031014442444 0.21176910400390625 -0.2570749521255493
vn 0.9195420742034912 0.17335034906864166 0.352692574262619
vn 0.906185507774353 0.17178617417812347 0.38641613721847534
vn 0.7464509010314941 0.009038684889674187 0.6653790473937988
vn 0.681898295879364 -0.002568274037912488 0.7314424514770508
vn 0.6331607699394226 0.019410880282521248 0.7737769484519958
vn 0.5526546239852905 0.0682661384344101 0.8306097984313965
vn 0.44643881916999817 0.13261237740516663 0.8849329948425293
vn 0.7833793759346008 0.11999990791082382 0.6098498702049255
vn 0.7647995948791504 0.16219525039196014 0.6235176920890808
vn 0.7044270634651184 0.028542544692754745 0.709202229976654
vn 0.6788684129714966 0.0010141057427972555 0.734259307384491
vn 0.6679376363754272 -0.001475716009736061 0.7442158460617065
vn 0.6519566178321838 0.012893537990748882 0.7581466436386108
vn 0.6319214701652527 0.031087346374988556 0.7744086980819702
vn 0.6581338047981262 0.11704999953508377 0.7437467575073242
vn 0.6197614073753357 0.1694106012582779 0.7662871479988098
vn 0.6391854286193848 0.03952091559767723 0.7680365443229675
vn 0.649085521697998 0.0019744534511119127 0.7607129216194153
vn 0.6683459877967834 -0.01585405133664608 0.7436816692352295
vn 0.6866337060928345 -0.0201251357793808 0.7267249226570129
vn 0.6914446353912354 -0.018630297854542732 0.72218918800354
vn 0.5315579175949097 0.12327153980731964 0.8380037546157837
vn 0.4731561839580536 0.18254639208316803 0.8618584871292114
vn 0.5606424808502197 0.04790330305695534 0.8266711831092834
vn 0.6029686331748962 0.001945410156622529 0.7977625727653503
vn 0.6492549180984497 -0.027666669338941574 0.7600674033164978
vn 0.6942872405052185 -0.04554884880781174 0.7182552814483643
vn 0.7151023745536804 -0.05526554211974144 0.6968315839767456
vn 0.4010296165943146 0.1336047202348709 0.906269907951355
vn 0.32403579354286194 0.19941642880439758 0.9247885346412659
vn 0.47017067670822144 0.05568183958530426 0.8808172941207886
vn 0.5420313477516174 0.0014295110013335943 0.8403569459915161
vn 0.613405168056488 -0.0387580431997776 0.7888167500495911
vn 0.6822794675827026 -0.068430595099926 0.727881908416748
vn 0.7167257070541382 -0.08709973096847534 0.6918944716453552
vn 0.263693243265152 0.14715681970119476 0.9533155560493469
vn 0.16945214569568634 0.21974366903305054 0.9607282280921936
vn 0.36621329188346863 0.06385160982608795 0.9283376932144165
vn 0.46451133489608765 0.0006023616879247129 0.8855669498443604
vn 0.5591468214988708 -0.050394751131534576 0.8275356292724609
vn 0.6503751277923584 -0.0920039638876915 0.7540208697319031
vn 0.6983137130737305 -0.1183222159743309 0.7059447169303894
vn 0.11584177613258362 0.16340549290180206 0.9797343611717224
vn 0.0055479626171290874 0.24299782514572144 0.9700109362602234
vn 0.24586017429828644 0.07285584509372711 0.96656334400177
vn 0.3669649362564087 -0.00046768158790655434 0.9302346706390381
vn 0.48213261365890503 -0.06348498910665512 0.8737951517105103
vn 0.5936816930770874 -0.1188623383641243 0.7958729863166809
vn 0.6562734246253967 -0.15201938152313232 0.7390502691268921
vn -0.04519297927618027 0.18088872730731964 0.9824647307395935
vn -0.16965745389461517 0.2669256627559662 0.9486659169197083
vn 0.10662342607975006 0.08250463008880615 0.9908705353736877
vn 0.24583017826080322 -0.0016979834763333201 0.9693114161491394
vn 0.3765653073787689 -0.07825224101543427 0.9230791330337524
vn 0.5031405091285706 -0.1504046618938446 0.8510159254074097
vn 0.5820673704147339 -0.19019465148448944 0.7905842661857605
vn -0.2175612598657608 0.19645576179027557 0.9560711979866028
vn -0.35198715329170227 0.286552757024765 0.8910626173019409
vn -0.050567544996738434 0.09175684303045273 0.9944966435432434
vn 0.10046098381280899 -0.0028678742237389088 0.9949368238449097
vn 0.23859062790870667 -0.09344882518053055 0.9666135907173157
vn 0.36868607997894287 -0.1845359206199646 0.9110528230667114
vn 0.46373671293258667 -0.2322683483362198 0.854985237121582
vn -0.391684889793396 0.20547053217887878 0.8968638777732849
vn -0.5282921195030212 0.29492393136024475 0.7961955666542053
vn -0.21791039407253265 0.09872659295797348 0.9709624648094177
vn -0.06246352195739746 -0.003548926208168268 0.9980409741401672
vn 0.07333458214998245 -0.10574374347925186 0.9916856288909912
vn 0.19146600365638733 -0.2129199355840683 0.9581262469291687
vn 0.29477256536483765 -0.2723804712295532 0.9159246683120728
vn -0.5517455339431763 0.2036324292421341 0.8087711334228516
vn -0.6807785034179688 0.2865384817123413 0.6741189360618591
vn -0.3804222643375397 0.10131798684597015 0.9192461371421814
vn -0.22696900367736816 -0.0032761015463620424 0.9738965034484863
vn -0.09937063604593277 -0.11104476451873779 0.9888349175453186
vn -0.0004149105807300657 -0.22485584020614624 0.9743918776512146
vn 0.09308929741382599 -0.2988128364086151 0.9497606754302979
vn -0.6836753487586975 0.18937653303146362 0.7047868967056274
vn -0.7977458834648132 0.26082101464271545 0.5436672568321228
vn -0.5219701528549194 0.0983155146241188 0.8472787737846375
vn -0.37352707982063293 -0.0019508956465870142 0.9276171326637268
vn -0.2522585988044739 -0.1078135147690773 0.9616349339485168
vn -0.16409900784492493 -0.21833942830562592 0.9619768261909485
vn -0.09432398527860641 -0.3012308180332184 0.9488745331764221
vn -0.7825762629508972 0.1643783152103424 0.6004616022109985
vn -0.8793089985847473 0.22160997986793518 0.4215503931045532
vn -0.6334344744682312 0.08995139598846436 0.7685502171516418
vn -0.48925745487213135 1.643842006160412e-05 0.8721393942832947
vn -0.36738160252571106 -0.09808247536420822 0.9248840808868408
vn -0.27528372406959534 -0.20019225776195526 0.9402881860733032
vn -0.22477979958057404 -0.27944687008857727 0.9334793090820312
vn -0.8523632287979126 0.13187697529792786 0.5060487389564514
vn -0.9331181645393372 0.17392084002494812 0.3147093951702118
vn -0.7150497436523438 0.07745405286550522 0.6947696208953857
vn -0.5721036195755005 0.0020481275860220194 0.8201788663864136
vn -0.442132830619812 -0.0849582701921463 0.8929169178009033
vn -0.33356666564941406 -0.17719155550003052 0.9259246587753296
vn -0.2854234278202057 -0.241098091006279 0.9275802373886108
vn -0.9005596041679382 0.09494528919458389 0.424237996339798
vn -0.9676364660263062 0.12178029865026474 0.22101841866970062
vn -0.7726584672927856 0.06227967143058777 0.6317594647407532
vn -0.6270948648452759 0.0037743377033621073 0.7789337038993835
vn -0.48253920674324036 -0.07062625885009766 0.8730222582817078
vn -0.34773504734039307 -0.15327776968479156 0.924979031085968
vn -0.28234654664993286 -0.1943138986825943 0.9394267201423645
vn -0.9272541999816895 0.09019117802381516 0.36340782046318054
vn -0.9829016923904419 0.10560593754053116 0.15083672106266022
vn -0.8029686808586121 0.07000793516635895 0.5918954610824585
vn -0.6531045436859131 0.016075890511274338 0.7570971250534058
vn -0.5001227855682373 -0.058957431465387344 0.8639451861381531
vn -0.35370633006095886 -0.14327576756477356 0.9243180751800537
vn -0.2676470875740051 -0.1785721331834793 0.9468246698379517
vt 0.9473685622215271 1.0000000023005995
vt 0.9473685026168823 0.8333333283662796
vt 1.0000001192092896 1.0
vt 1.0000001192092896 0.8333333283662796
vt 0.9473685026168823 0.6666666567325592
vt 1.0000001192092896 0.6666666567325592
vt 0.9473685026168823 0.5
vt 1.0000001192092896 0.5
vt 0.9473685026168823 0.3333333134651184
vt 1.0000001192092896 0.3333333134651184
vt 0.9473685026168823 0.16666662693023682
vt 1.0000001192092896 0.16666662693023682
vt 0.9473685026168823 0.0
vt 1.0000001192092896 0.0
vt 0.8947369456291199 0.8333333283662796
vt 0.8947369456291199 1.000000004601199
vt 0.8947369456291199 0.6666666567325592
vt 0.8947369456291199 0.5
vt 0.8947369456291199 0.3333333134651184
vt 0.8947369456291199 0.16666662693023682
vt 0.8947368860244751 0.0
vt 0.8421053886413574 0.8333333283662796
vt 0.8421053886413574 1.0000000069017978
vt 0.8421053886413574 0.6666666567325592
vt 0.8421053886413574 0.5
vt 0.8421053886413574 0.3333333134651184
vt 0.8421053886413574 0.16666662693023682
vt 0.8421053290367126 0.0
vt 0.7894737720489502 0.8333333432674408
vt 0.7894737720489502 1.000000009202398
vt 0.7894737720489502 0.6666666567325592
vt 0.7894737720489502 0.5
vt 0.7894737720489502 0.3333333134651184
vt 0.7894737720489502 0.16666662693023682
vt 0.7894737720489502 0.0
vt 0.7368422150611877 0.8333333432674408
vt 0.7368422150611877 1.0000000115029977
vt 0.7368422150611877 0.6666666567325592
vt 0.736842155456543 0.5
vt 0.736842155456543 0.3333333134651184
vt 0.736842155456543 0.16666662693023682
vt 0.736842155456543 0.0
vt 0.6842106580734253 0.8333333432674408
vt 0.6842106580734253 1.0000000138035974
vt 0.6842106580734253 0.6666666567325592
vt 0.6842105984687805 0.5
vt 0.6842105984687805 0.3333333134651184
vt 0.6842105984687805 0.16666662693023682
vt 0.6842105984687805 0.0
vt 0.6315790414810181 0.8333333432674408
vt 0.6315790414810181 1.000000016104197
vt 0.6315790414810181 0.6666666865348816
vt 0.6315790414810181 0.5000000298023224
vt 0.6315790414810181 0.3333333134651184
vt 0.6315790414810181 0.16666662693023682
vt 0.6315790414810181 0.0
vt 0.5789474248886108 0.8333333432674408
vt 0.5789474248886108 1.000000018404796
vt 0.5789474248886108 0.6666666865348816
vt 0.5789474248886108 0.5000000298023224
vt 0.5789474248886108 0.3333333134651184
vt 0.5789474248886108 0.16666662693023682
vt 0.5789474248886108 0.0
vt 0.5263158679008484 0.8333333432674408
vt 0.5263158679008484 1.0000000207053965
vt 0.5263158679008484 0.6666666865348816
vt 0.5263158082962036 0.5000000298023224
vt 0.5263158082962036 0.3333333134651184
vt 0.5263158082962036 0.16666662693023682
vt 0.5263158082962036 0.0
vt 0.47368431091308594 0.833333358168602
vt 0.47368431091308594 1.0000000230059953
vt 0.47368431091308594 0.6666666865348816
vt 0.47368431091308594 0.5000000298023224
vt 0.47368431091308594 0.3333333134651184
vt 0.47368425130844116 0.16666662693023682
vt 0.47368425130844116 0.0
vt 0.4210527539253235 0.833333358168602
vt 0.4210527539253235 1.0000000253065924
vt 0.4210527539253235 0.6666666865348816
vt 0.4210527539253235 0.5000000298023224
vt 0.4210527539253235 0.3333333134651184
vt 0.4210526943206787 0.16666662693023682
vt 0.4210526943206787 0.0
vt 0.36842119693756104 0.833333358168602
vt 0.36842119693756104 1.0000000276071912
vt 0.36842119693756104 0.6666666865348816
vt 0.36842119693756104 0.5000000298023224
vt 0.36842119693756104 0.3333333134651184
vt 0.36842113733291626 0.16666662693023682
vt 0.36842113733291626 0.0
vt 0.3157896399497986 0.833333358168602
vt 0.3157896399497986 1.0000000299077882
vt 0.3157896399497986 0.6666666865348816
vt 0.3157896399497986 0.5000000298023224
vt 0.3157896399497986 0.3333333730697632
vt 0.3157895803451538 0.1666666865348816
vt 0.3157895803451538 5.960464477539063e-08
vt 0.26315808296203613 0.833333358168602
vt 0.26315808296203613 1.000000032208387
vt 0.26315808296203613 0.6666666865348816
vt 0.26315808296203613 0.5000000298023224
vt 0.26315808296203613 0.3333333730697632
vt 0.26315802335739136 0.1666666865348816
vt 0.26315802335739136 5.960464477539063e-08
vt 0.21052652597427368 0.833333358168602
vt 0.21052652597427368 1.000000034508986
vt 0.21052652597427368 0.6666666865348816
vt 0.21052652597427368 0.5000000298023224
vt 0.21052652597427368 0.3333333730697632
vt 0.2105264663696289 0.1666666865348816
vt 0.2105264663696289 5.960464477539063e-08
vt 0.15789496898651123 0.833333358168602
vt 0.15789496898651123 1.0000000368095847
vt 0.15789496898651123 0.6666666865348816
vt 0.15789496898651123 0.5000000298023224
vt 0.15789496898651123 0.3333333730697632
vt 0.15789490938186646 0.1666666865348816
vt 0.15789490938186646 5.960464477539063e-08
vt 0.10526341199874878 0.8333333730697632
vt 0.10526341199874878 1.0000000391101835
vt 0.10526341199874878 0.6666666865348816
vt 0.10526341199874878 0.5000000298023224
vt 0.10526341199874878 0.3333333730697632
vt 0.105263352394104 0.1666666865348816
vt 0.105263352394104 5.960464477539063e-08
vt 0.05263185501098633 0.8333333730697632
vt 0.05263185501098633 1.0000000414107824
vt 0.05263185501098633 0.6666666865348816
vt 0.05263185501098633 0.5000000298023224
vt 0.05263185501098633 0.3333333730697632
vt 0.05263179540634155 0.1666666865348816
vt 0.05263179540634155 5.960464477539063e-08
vt 2.980232238769531e-07 0.8333333730697632
vt 2.980232238769531e-07 1.0000000437113812
vt 2.980232238769531e-07 0.6666666865348816
vt 2.980232238769531e-07 0.5000000298023224
vt 2.980232238769531e-07 0.3333333730697632
vt 2.384185791015625e-07 0.1666666865348816
vt 2.384185791015625e-07 5.960464477539063e-08

g Plane002
s 1
usemtl Plane002
f 3/3/3 2/2/2 1/1/1 
f 2/2/2 3/3/3 4/4/4 
f 4/4/4 5/5/5 2/2/2 
f 5/5/5 4/4/4 6/6/6 
f 6/6/6 7/7/7 5/5/5 
f 7/7/7 6/6/6 8/8/8 
f 8/8/8 9/9/9 7/7/7 
f 9/9/9 8/8/8 10/10/10 
f 10/10/10 11/11/11 9/9/9 
f 11/11/11 10/10/10 12/12/12 
f 12/12/12 13/13/13 11/11/11 
f 13/13/13 12/12/12 14/14/14 
f 15/15/15 1/1/1 2/2/2 
f 1/1/1 15/15/15 16/16/16 
f 2/2/2 17/17/17 15/15/15 
f 17/17/17 2/2/2 5/5/5 
f 5/5/5 18/18/18 17/17/17 
f 18/18/18 5/5/5 7/7/7 
f 7/7/7 19/19/19 18/18/18 
f 19/19/19 7/7/7 9/9/9 
f 9/9/9 20/20/20 19/19/19 
f 20/20/20 9/9/9 11/11/11 
f 11/11/11 21/21/21 20/20/20 
f 21/21/21 11/11/11 13/13/13 
f 22/22/22 16/16/16 15/15/15 
f 16/16/16 22/22/22 23/23/23 
f 15/15/15 24/24/24 22/22/22 
f 24/24/24 15/15/15 17/17/17 
f 17/17/17 25/25/25 24/24/24 
f 25/25/25 17/17/17 18/18/18 
f 18/18/18 26/26/26 25/25/25 
f 26/26/26 18/18/18 19/19/19 
f 19/19/19 27/27/27 26/26/26 
f 27/27/27 19/19/19 20/20/20 
f 20/20/20 28/28/28 27/27/27 
f 28/28/28 20/20/20 21/21/21 
f 29/29/29 23/23/23 22/22/22 
f 23/23/23 29/29/29 30/30/30 
f 22/22/22 31/31/31 29/29/29 
f 31/31/31 22/22/22 24/24/24 
f 24/24/24 32/32/32 31/31/31 
f 32/32/32 24/24/24 25/25/25 
f 25/25/25 33/33/33 32/32/32 
f 33/33/33 25/25/25 26/26/26 
f 26/26/26 34/34/34 33/33/33 
f 34/34/34 26/26/26 27/27/27 
f 27/27/27 35/35/35 34/34/34 
f 35/35/35 27/27/27 28/28/28 
f 36/36/36 30/30/30 29/29/29 
f 30/30/30 36/36/36 37/37/37 
f 29/29/29 38/38/38 36/36/36 
f 38/38/38 29/29/29 31/31/31 
f 31/31/31 39/39/39 38/38/38 
f 39/39/39 31/31/31 32/32/32 
f 32/32/32 40/40/40 39/39/39 
f 40/40/40 32/32/32 33/33/33 
f 33/33/33 41/41/41 40/40/40 
f 41/41/41 33/33/33 34/34/34 
f 34/34/34 42/42/42 41/41/41 
f 42/42/42 34/34/34 35/35/35 
f 43/43/43 37/37/37 36/36/36 
f 37/37/37 43/43/43 44/44/44 
f 36/36/36 45/45/45 43/43/43 
f 45/45/45 36/36/36 38/38/38 
f 38/38/38 46/46/46 45/45/45 
f 46/46/46 38/38/38 39/39/39 
f 39/39/39 47/47/47 46/46/46 
f 47/47/47 39/39/39 40/40/40 
f 40/40/40 48/48/48 47/47/47 
f 48/48/48 40/40/40 41/41/41 
f 41/41/41 49/49/49 48/48/48 
f 49/49/49 41/41/41 42/42/42 
f 50/50/50 44/44/44 43/43/43 
f 44/44/44 50/50/50 51/51/51 
f 43/43/43 52/52/52 50/50/50 
f 52/52/52 43/43/43 45/45/45 
f 45/45/45 53/53/53 52/52/52 
f 53/53/53 45/45/45 46/46/46 
f 46/46/46 54/54/54 53/53/53 
f 54/54/54 46/46/46 47/47/47 
f 47/47/47 55/55/55 54/54/54 
f 55/55/55 47/47/47 48/48/48 
f 48/48/48 56/56/56 55/55/55 
f 56/56/56 48/48/48 49/49/49 
f 57/57/57 51/51/51 50/50/50 
f 51/51/51 57/57/57 58/58/58 
f 50/50/50 59/59/59 57/57/57 
f 59/59/59 50/50/50 52/52/52 
f 52/52/52 60/60/60 59/59/59 
f 60/60/60 52/52/52 53/53/53 
f 53/53/53 61/61/61 60/60/60 
f 61/61/61 53/53/53 54/54/54 
f 54/54/54 62/62/62 61/61/61 
f 62/62/62 54/54/54 55/55/55 
f 55/55/55 63/63/63 62/62/62 
f 63/63/63 55/55/55 56/56/56 
f 64/64/64 58/58/58 57/57/57 
f 58/58/58 64/64/64 65/65/65 
f 57/57/57 66/66/66 64/64/64 
f 66/66/66 57/57/57 59/59/59 
f 59/59/59 67/67/67 66/66/66 
f 67/67/67 59/59/59 60/60/60 
f 60/60/60 68/68/68 67/67/67 
f 68/68/68 60/60/60 61/61/61 
f 61/61/61 69/69/69 68/68/68 
f 69/69/69 61/61/61 62/62/62 
f 62/62/62 70/70/70 69/69/69 
f 70/70/70 62/62/62 63/63/63 
f 71/71/71 65/65/65 64/64/64 
f 65/65/65 71/71/71 72/72/72 
f 64/64/64 73/73/73 71/71/71 
f 73/73/73 64/64/64 66/66/66 
f 66/66/66 74/74/74 73/73/73 
f 74/74/74 66/66/66 67/67/67 
f 67/67/67 75/75/75 74/74/74 
f 75/75/75 67/67/67 68/68/68 
f 68/68/68 76/76/76 75/75/75 
f 76/76/76 68/68/68 69/69/69 
f 69/69/69 77/77/77 76/76/76 
f 77/77/77 69/69/69 70/70/70 
f 78/78/78 72/72/72 71/71/71 
f 72/72/72 78/78/78 79/79/79 
f 71/71/71 80/80/80 78/78/78 
f 80/80/80 71/71/71 73/73/73 
f 73/73/73 81/81/81 80/80/80 
f 81/81/81 73/73/73 74/74/74 
f 74/74/74 82/82/82 81/81/81 
f 82/82/82 74/74/74 75/75/75 
f 75/75/75 83/83/83 82/82/82 
f 83/83/83 75/75/75 76/76/76 
f 76/76/76 84/84/84 83/83/83 
f 84/84/84 76/76/76 77/77/77 
f 85/85/85 79/79/79 78/78/78 
f 79/79/79 85/85/85 86/86/86 
f 78/78/78 87/87/87 85/85/85 
f 87/87/87 78/78/78 80/80/80 
f 80/80/80 88/88/88 87/87/87 
f 88/88/88 80/80/80 81/81/81 
f 81/81/81 89/89/89 88/88/88 
f 89/89/89 81/81/81 82/82/82 
f 82/82/82 90/90/90 89/89/89 
f 90/90/90 82/82/82 83/83/83 
f 83/83/83 91/91/91 90/90/90 
f 91/91/91 83/83/83 84/84/84 
f 92/92/92 86/86/86 85/85/85 
f 86/86/86 92/92/92 93/93/93 
f 85/85/85 94/94/94 92/92/92 
f 94/94/94 85/85/85 87/87/87 
f 87/87/87 95/95/95 94/94/94 
f 95/95/95 87/87/87 88/88/88 
f 88/88/88 96/96/96 95/95/95 
f 96/96/96 88/88/88 89/89/89 
f 89/89/89 97/97/97 96/96/96 
f 97/97/97 89/89/89 90/90/90 
f 90/90/90 98/98/98 97/97/97 
f 98/98/98 90/90/90 91/91/91 
f 99/99/99 93/93/93 92/92/92 
f 93/93/93 99/99/99 100/100/100 
f 92/92/92 101/101/101 99/99/99 
f 101/101/101 92/92/92 94/94/94 
f 94/94/94 102/102/102 101/101/101 
f 102/102/102 94/94/94 95/95/95 
f 95/95/95 103/103/103 102/102/102 
f 103/103/103 95/95/95 96/96/96 
f 96/96/96 104/104/104 103/103/103 
f 104/104/104 96/96/96 97/97/97 
f 97/97/97 105/105/105 104/104/104 
f 105/105/105 97/97/97 98/98/98 
f 106/106/106 100/100/100 99/99/99 
f 100/100/100 106/106/106 107/107/107 
f 99/99/99 108/108/108 106/106/106 
f 108/108/108 99/99/99 101/101/101 
f 101/101/101 109/109/109 108/108/108 
f 109/109/109 101/101/101 102/102/102 
f 102/102/102 110/110/110 109/109/109 
f 110/110/110 102/102/102 103/103/103 
f 103/103/103 111/111/111 110/110/110 
f 111/111/111 103/103/103 104/104/104 
f 104/104/104 112/112/112 111/111/111 
f 112/112/112 104/104/104 105/105/105 
f 113/113/113 107/107/107 106/106/106 
f 107/107/107 113/113/113 114/114/114 
f 106/106/106 115/115/115 113/113/113 
f 115/115/115 106/106/106 108/108/108 
f 108/108/108 116/116/116 115/115/115 
f 116/116/116 108/108/108 109/109/109 
f 109/109/109 117/117/117 116/116/116 
f 117/117/117 109/109/109 110/110/110 
f 110/110/110 118/118/118 117/117/117 
f 118/118/118 110/110/110 111/111/111 
f 111/111/111 119/119/119 118/118/118 
f 119/119/119 111/111/111 112/112/112 
f 120/120/120 114/114/114 113/113/113 
f 114/114/114 120/120/120 121/121/121 
f 113/113/113 122/122/122 120/120/120 
f 122/122/122 113/113/113 115/115/115 
f 115/115/115 123/123/123 122/122/122 
f 123/123/123 115/115/115 116/116/116 
f 116/116/116 124/124/124 123/123/123 
f 124/124/124 116/116/116 117/117/117 
f 117/117/117 125/125/125 124/124/124 
f 125/125/125 117/117/117 118/118/118 
f 118/118/118 126/126/126 125/125/125 
f 126/126/126 118/118/118 119/119/119 
f 127/127/127 121/121/121 120/120/120 
f 121/121/121 127/127/127 128/128/128 
f 120/120/120 129/129/129 127/127/127 
f 129/129/129 120/120/120 122/122/122 
f 122/122/122 130/130/130 129/129/129 
f 130/130/130 122/122/122 123/123/123 
f 123/123/123 131/131/131 130/130/130 
f 131/131/131 123/123/123 124/124/124 
f 124/124/124 132/132/132 131/131/131 
f 132/132/132 124/124/124 125/125/125 
f 125/125/125 133/133/133 132/132/132 
f 133/133/133 125/125/125 126/126/126 
f 134/134/134 128/128/128 127/127/127 
f 128/128/128 134/134/134 135/135/135 
f 127/127/127 136/136/136 134/134/134 
f 136/136/136 127/127/127 129/129/129 
f 129/129/129 137/137/137 136/136/136 
f 137/137/137 129/129/129 130/130/130 
f 130/130/130 138/138/138 137/137/137 
f 138/138/138 130/130/130 131/131/131 
f 131/131/131 139/139/139 138/138/138 
f 139/139/139 131/131/131 132/132/132 
f 132/132/132 140/140/140 139/139/139 
f 140/140/140 132/132/132 133/133/133 

